{
  "header": {
    "version": 4,
    "description": "Karaoke Mugen Karaoke Data File"
  },
  "medias": [
    {
      "version": "Default",
      "filename": "BRE - Nolwenn Leroy - MV - Tri Martolod.mp4",
      "audiogain": -4.84,
      "loudnorm": "-11.57,0.22,4.60,-21.65,-1.36",
      "filesize": 16893741,
      "duration": 188,
      "default": true,
      "lyrics": [
        {
          "filename": "BRE - Nolwenn Leroy - MV - Tri Martolod.ass",
          "default": true,
          "version": "Default"
        }
      ]
    }
  ],
  "data": {
    "created_at": "2022-05-28T00:15:42.725Z",
    "ignoreHooks": false,
    "kid": "c8a63ea8-d253-4555-9681-011655eaedd7",
    "modified_at": "2022-05-28T00:16:38.436Z",
    "repository": "kara.moe",
    "tags": {
      "authors": [
        "90414ca0-ab36-4879-8810-b032c6bfdab0"
      ],
      "collections": [
        "efe171c0-e8a1-4d03-98c0-60ecf741ad52"
      ],
      "creators": [
        "438a4f9a-8573-40ed-a436-364aa3505f36"
      ],
      "families": [
        "5391f9fe-638c-415f-8dc9-958e3a2c5787"
      ],
      "groups": [
        "ae613721-1fbe-480d-ba6b-d6d0702b184d"
      ],
      "langs": [
        "adc7ef7e-5749-4534-985e-1eec5c2f4c75"
      ],
      "singers": [
        "3ae79a46-0457-4f04-9f8e-16d48d6a410a"
      ],
      "songtypes": [
        "7be1b15c-cff8-4b37-a649-5c90f3d569a9"
      ],
      "songwriters": [
        "351d168f-c6c1-4a95-b266-013ff131dcd6"
      ]
    },
    "titles": {
      "bre": "Tri Martolod"
    },
    "titles_default_language": "bre",
    "title": "Tri Martolod",
    "year": 2010
  }
}