{
  "header": {
    "version": 4,
    "description": "Karaoke Mugen Karaoke Data File"
  },
  "medias": [
    {
      "version": "Default",
      "filename": "CHI - Love Live! Nijigasaki Gakuen School Idol Doukoukai - AUDIO - Bubble Over! ~ Full Vers.mp3",
      "loudnorm": "-7.23,2.09,2.00,-17.24,-0.28",
      "filesize": 7730272,
      "duration": 186,
      "default": true,
      "lyrics": [
        {
          "filename": "CHI - Love Live! Nijigasaki Gakuen School Idol Doukoukai - AUDIO - Bubble Over! ~ Full Vers.ass",
          "default": true,
          "version": "Default"
        }
      ]
    }
  ],
  "data": {
    "created_at": "2023-09-23T23:52:42.083Z",
    "ignoreHooks": false,
    "kid": "0c3d6076-50b3-4206-8ddb-e511d744f2f3",
    "modified_at": "2023-09-23T23:52:42.083Z",
    "repository": "kara.moe",
    "tags": {
      "authors": [
        "449844e4-3a1f-46e1-8a92-bf72e2d1b6f1"
      ],
      "collections": [
        "dbcf2c22-524d-4708-99bb-601703633927"
      ],
      "creators": [
        "b2805292-730e-473a-96f0-fd8e7ffd1fd7"
      ],
      "genres": [
        "caa86df2-0d59-474b-885c-f240a9e891b0"
      ],
      "groups": [
        "8e209ae4-4381-438f-89dc-1b21752027d2"
      ],
      "langs": [
        "4dcf9614-7914-42aa-99f4-dbce2e059133",
        "ad109694-16f7-4386-b8c2-a6db05ad3530",
        "de5eda1c-5fb3-46a6-9606-d4554fc5a1d6"
      ],
      "series": [
        "9609e3a6-60db-412a-9d81-e9d9d2e0fb79"
      ],
      "singers": [
        "cd997481-e2ff-4d88-ab77-152bedb5041a",
        "5c5a517e-2aec-467f-b21c-3b8e73e02cb8",
        "0c15c047-8230-45ba-a265-1297a3617158"
      ],
      "singergroups": [
        "a51858bd-eb67-4c21-913c-cbcd6027575f"
      ],
      "songtypes": [
        "42a262ae-acba-4ab5-a446-c5789c96c821"
      ],
      "songwriters": [
        "de2dec41-d6ec-42cf-8dae-7d18159814ae",
        "853009ea-2245-4a2d-a114-bb4317aa2887"
      ],
      "versions": [
        "c2143a7f-6970-450e-8a79-0302db9220a9"
      ],
      "franchises": [
        "fd5d066e-e85a-4eea-8688-2979a887450a"
      ]
    },
    "titles": {
      "eng": "Bubble Over!"
    },
    "titles_default_language": "eng",
    "year": 2022
  }
}