{
  "header": {
    "version": 4,
    "description": "Karaoke Mugen Karaoke Data File"
  },
  "medias": [
    {
      "version": "Default",
      "filename": "CHI - Love Scenery - OP - Jue bu zhibu.mp4",
      "audiogain": 0.06,
      "loudnorm": "-17.08,-5.42,6.40,-27.16,-0.30",
      "filesize": 13747691,
      "duration": 93,
      "default": true,
      "lyrics": [
        {
          "filename": "CHI - Love Scenery - OP - Jue bu zhibu.ass",
          "default": true,
          "version": "Default"
        }
      ]
    }
  ],
  "data": {
    "created_at": "2022-11-13T12:40:44.161Z",
    "ignoreHooks": false,
    "kid": "043b3f3b-4689-44ea-acd7-78bc63d08251",
    "modified_at": "2022-11-13T12:44:12.883Z",
    "repository": "kara.moe",
    "tags": {
      "authors": [
        "2169e7f7-6766-4a6b-b465-edce2b15ba35"
      ],
      "collections": [
        "dbcf2c22-524d-4708-99bb-601703633927"
      ],
      "creators": [
        "059f8f0a-a379-4a33-bc37-7bb67d0ee559",
        "69affcfb-d736-4fb0-82d0-a9c8cd1d9410"
      ],
      "families": [
        "5391f9fe-638c-415f-8dc9-958e3a2c5787"
      ],
      "groups": [
        "8c22c899-b3ed-42da-a548-ce00f950798b",
        "8e209ae4-4381-438f-89dc-1b21752027d2"
      ],
      "langs": [
        "ad109694-16f7-4386-b8c2-a6db05ad3530"
      ],
      "series": [
        "349282a4-257e-441d-a15f-1709715c8520"
      ],
      "singers": [
        "e9428304-90de-4ee3-84a7-c228896656d4"
      ],
      "songtypes": [
        "f02ad9b3-0bd9-4aad-85b3-9976739ba0e4"
      ],
      "songwriters": [
        "14337331-8f54-4a66-b5c0-04f6665c32ab"
      ],
      "genres": [
        "28650021-2b2a-4a55-aff4-85dd4896c687"
      ]
    },
    "titles": {
      "chi": "绝不止步",
      "eng": "Never stop",
      "qro": "Jué bù zhǐbù"
    },
    "titles_default_language": "qro",
    "year": 2021
  }
}