{
  "header": {
    "description": "Karaoke Mugen Karaoke Data File",
    "version": 4
  },
  "medias": [
    {
      "version": "Default",
      "filename": "ENG - U2 - MV - With or Without You.mp4",
      "audiogain": -6.82,
      "loudnorm": "-12.00,1.04,8.50,-22.27,-1.81",
      "filesize": 96403898,
      "duration": 292,
      "default": true,
      "lyrics": [
        {
          "filename": "ENG - U2 - MV - With or Without You.ass",
          "default": true,
          "version": "Default"
        }
      ]
    }
  ],
  "data": {
    "created_at": "2022-06-08T19:28:03.363Z",
    "kid": "d29b3cf9-0c26-4009-97e6-1d9a94083eb5",
    "modified_at": "2022-06-08T19:28:03.363Z",
    "tags": {
      "authors": [
        "a2567c86-c1ad-41dc-90a6-7910b8942119"
      ],
      "creators": [
        "35cf30c4-8701-4295-be83-6806dbe744ea"
      ],
      "families": [
        "5391f9fe-638c-415f-8dc9-958e3a2c5787"
      ],
      "groups": [
        "7792cc27-9ff9-4d47-9287-2338b7db1575"
      ],
      "langs": [
        "de5eda1c-5fb3-46a6-9606-d4554fc5a1d6"
      ],
      "singers": [
        "d1c6cd68-74a2-4877-9e5f-6e7d0f4a0afa"
      ],
      "songtypes": [
        "7be1b15c-cff8-4b37-a649-5c90f3d569a9"
      ],
      "songwriters": [
        "b5d94a8b-bea7-4eb2-9a17-72eaf4b040ce"
      ],
      "collections": [
        "efe171c0-e8a1-4d03-98c0-60ecf741ad52"
      ]
    },
    "titles": {
      "eng": "With or Without You"
    },
    "titles_default_language": "eng",
    "titles_aliases": [],
    "title": "With or Without You",
    "year": "1987",
    "repository": "kara.moe"
  }
}