{
  "header": {
    "version": 4,
    "description": "Karaoke Mugen Karaoke Data File"
  },
  "medias": [
    {
      "version": "Default",
      "filename": "ENG - Nickelback - MV - When We Stand Together.mp4",
      "audiogain": -0.05,
      "loudnorm": "-17.07,-6.63,3.50,-27.12,-0.99",
      "filesize": 57238323,
      "duration": 191,
      "default": true,
      "lyrics": [
        {
          "filename": "ENG - Nickelback - MV - When We Stand Together.ass",
          "default": true,
          "version": "Default"
        }
      ]
    }
  ],
  "data": {
    "created_at": "2023-03-04T21:36:46.600Z",
    "ignoreHooks": false,
    "kid": "4ce5ce2d-181c-4953-ac76-5e12e41515be",
    "modified_at": "2023-07-20T22:15:59.794Z",
    "repository": "kara.moe",
    "tags": {
      "authors": [
        "b45eaff2-7f46-44e8-af2d-3beeff85e9fa",
        "d7692257-8d6f-4777-83ce-37b1ad1fe3b9",
        "f70c7314-b8d3-4bf4-96a0-dc8b2c5a6c94"
      ],
      "collections": [
        "efe171c0-e8a1-4d03-98c0-60ecf741ad52"
      ],
      "creators": [
        "1a69ce60-d843-4a40-aa58-2241d758adaa"
      ],
      "families": [
        "5391f9fe-638c-415f-8dc9-958e3a2c5787"
      ],
      "groups": [
        "ae613721-1fbe-480d-ba6b-d6d0702b184d",
        "966d1e74-d1f2-41e2-ab04-24279c22f562"
      ],
      "langs": [
        "de5eda1c-5fb3-46a6-9606-d4554fc5a1d6"
      ],
      "singers": [
        "0d246dc1-54c6-4adc-87a9-b67d8e06b1e0"
      ],
      "songtypes": [
        "7be1b15c-cff8-4b37-a649-5c90f3d569a9"
      ],
      "songwriters": [
        "3b36706c-ec15-4b7c-b5d5-6ce9cb18a634",
        "63811138-82a8-47c9-be0b-eb820950a0e0",
        "a7e22f66-817f-4e4a-aa3c-199e99408b3e",
        "db9dbb60-ffde-49d0-8351-fc7d8f26cec8"
      ]
    },
    "titles": {
      "eng": "When We Stand Together"
    },
    "titles_default_language": "eng",
    "year": 2011
  }
}