{
  "header": {
    "version": 4,
    "description": "Karaoke Mugen Karaoke Data File"
  },
  "medias": [
    {
      "version": "Default",
      "filename": "ENG - DragonForce - MV - Through the Fire and Flames.mp4",
      "audiogain": -1.38,
      "loudnorm": "-15.71,-5.93,1.60,-25.73,-0.46",
      "filesize": 23038262,
      "duration": 300,
      "default": true,
      "lyrics": [
        {
          "filename": "ENG - DragonForce - MV - Through the Fire and Flames.ass",
          "default": true,
          "version": "Default",
          "subchecksum": "6655dcc059714e7df789edd37d26529c"
        }
      ]
    }
  ],
  "data": {
    "created_at": "2020-07-10T22:25:53.107Z",
    "kid": "de290e0f-8ee6-4a1b-ba1b-be170ff24189",
    "modified_at": "2021-02-25T14:48:32.448Z",
    "repository": "kara.moe",
    "tags": {
      "authors": [
        "eccfb637-34ae-410a-b418-2697d8be3226"
      ],
      "collections": [
        "efe171c0-e8a1-4d03-98c0-60ecf741ad52"
      ],
      "creators": [
        "1a69ce60-d843-4a40-aa58-2241d758adaa",
        "3b0c7c4a-ef4e-43b5-9041-21f7bbef76ef"
      ],
      "families": [
        "5391f9fe-638c-415f-8dc9-958e3a2c5787"
      ],
      "groups": [
        "3c14c864-533c-49e6-a3cc-6969f1233775"
      ],
      "langs": [
        "de5eda1c-5fb3-46a6-9606-d4554fc5a1d6"
      ],
      "misc": [
        "86705d4b-24e4-4756-9687-2b9c98bcf366"
      ],
      "singers": [
        "417a94e5-46c6-4681-8b19-1d49d5542f19"
      ],
      "songtypes": [
        "7be1b15c-cff8-4b37-a649-5c90f3d569a9"
      ],
      "songwriters": [
        "0cd69db4-08a8-413c-8a14-d45ccb589718",
        "d0ff94a6-4fec-458a-9aab-8d78a816321d"
      ]
    },
    "title": "Through the Fire and Flames",
    "titles": {
      "eng": "Through the Fire and Flames"
    },
    "year": 2006
  }
}