{
  "header": {
    "version": 4,
    "description": "Karaoke Mugen Karaoke Data File"
  },
  "medias": [
    {
      "version": "Default",
      "filename": "ENG - Log Horizon - OP - database.mp4",
      "audiogain": -0.46,
      "loudnorm": "-16.21,-4.88,3.90,-26.43,-0.89",
      "filesize": 44495671,
      "duration": 89,
      "default": true,
      "lyrics": [
        {
          "filename": "ENG - Log Horizon - OP - database.ass",
          "default": true,
          "version": "Default",
          "subchecksum": "46a49f99bf0d35e9db8dc37333e1c7d1"
        }
      ]
    }
  ],
  "data": {
    "created_at": "2017-10-11T17:03:11.000Z",
    "kid": "f5015c0a-b01d-4fcb-bfaa-f5e6228d0556",
    "modified_at": "2021-03-16T11:57:26.660Z",
    "repository": "kara.moe",
    "tags": {
      "authors": [
        "1df04771-a378-4f14-a5e1-1455187d681a"
      ],
      "collections": [
        "c7db86a0-ff64-4044-9be4-66dd1ef1d1c1"
      ],
      "creators": [
        "0041fabf-4b82-4ecd-961b-e4c49b8c88be"
      ],
      "families": [
        "0377db02-3af6-43b8-9b08-c759df3d25c3"
      ],
      "genres": [
        "4b80eca6-f44f-4262-a8d0-b6879d6b70cb"
      ],
      "groups": [
        "ae613721-1fbe-480d-ba6b-d6d0702b184d",
        "f53332f8-daed-4ac5-97c9-64239b520db0"
      ],
      "langs": [
        "de5eda1c-5fb3-46a6-9606-d4554fc5a1d6"
      ],
      "misc": [
        "fe819ff1-9db8-4a0f-85dc-0e322c9126c4"
      ],
      "origins": [
        "938de218-5343-4865-94d3-fb33f2eaa152"
      ],
      "series": [
        "74ab6168-95f9-4576-8d50-1ec39b50d18d"
      ],
      "singers": [
        "814943f5-30aa-4229-b2ed-120f25825b27",
        "84801a66-37ab-4acc-88d8-09f323d575c7"
      ],
      "songtypes": [
        "f02ad9b3-0bd9-4aad-85b3-9976739ba0e4"
      ],
      "songwriters": [
        "3dde98ed-a3a6-473d-8fd2-3dd81eb92b26",
        "6cb0e364-b9d2-4fa9-8dfb-98b095c7ac47",
        "84801a66-37ab-4acc-88d8-09f323d575c7",
        "9906c0ca-9969-49d0-9d9e-4c0edf882f81"
      ],
      "franchises": [
        "74ab6168-95f9-4576-8d50-1ec39b50d18d"
      ]
    },
    "title": "database",
    "titles": {
      "eng": "database"
    },
    "year": 2013
  }
}