{
  "header": {
    "version": 4,
    "description": "Karaoke Mugen Karaoke Data File"
  },
  "medias": [
    {
      "version": "Default",
      "filename": "ENG - Kamen Rider Zero-One - MV - REALxEYEZ ~ Full Vers.mp4",
      "audiogain": -7.78,
      "loudnorm": "-9.12,-0.93,3.00,-19.16,-0.43",
      "filesize": 63390838,
      "duration": 230,
      "default": true,
      "lyrics": [
        {
          "filename": "ENG - Kamen Rider Zero-One - MV - REALxEYEZ ~ Full Vers.ass",
          "default": true,
          "version": "Default"
        }
      ]
    }
  ],
  "data": {
    "created_at": "2020-04-25T17:44:04.540Z",
    "ignoreHooks": false,
    "kid": "85e824d0-6a21-4671-bc4a-761ecb6dc504",
    "modified_at": "2022-10-14T21:35:14.829Z",
    "parents": [
      "bc8300f2-4806-47f0-881e-cb9a46a9c507"
    ],
    "repository": "kara.moe",
    "tags": {
      "authors": [
        "ef611801-6a99-482e-9b99-13ad3d3a0648"
      ],
      "collections": [
        "c7db86a0-ff64-4044-9be4-66dd1ef1d1c1"
      ],
      "creators": [
        "e32b14df-502b-45fa-9ca5-37554a63a4d7"
      ],
      "families": [
        "5391f9fe-638c-415f-8dc9-958e3a2c5787"
      ],
      "groups": [
        "ae613721-1fbe-480d-ba6b-d6d0702b184d"
      ],
      "langs": [
        "4dcf9614-7914-42aa-99f4-dbce2e059133",
        "de5eda1c-5fb3-46a6-9606-d4554fc5a1d6"
      ],
      "origins": [
        "938de218-5343-4865-94d3-fb33f2eaa152"
      ],
      "series": [
        "1d7b5b0b-d541-4058-a7aa-c1a3b53bf7d0"
      ],
      "singers": [
        "43ccb9e9-fd05-40a3-8538-73d1959aed9f",
        "9343c77f-5035-4977-8985-53c846c37d4f",
        "f9a97890-5c76-42ee-a96b-f8e21b1b1fa0"
      ],
      "songtypes": [
        "7be1b15c-cff8-4b37-a649-5c90f3d569a9"
      ],
      "songwriters": [
        "270b91af-2e60-4dad-bbca-dc0b680a9efb",
        "9343c77f-5035-4977-8985-53c846c37d4f"
      ],
      "versions": [
        "c2143a7f-6970-450e-8a79-0302db9220a9"
      ],
      "franchises": [
        "93386847-9ab0-468e-bad0-e1d655e0e0ec"
      ],
      "genres": [
        "d3fac9ab-630d-402d-a392-3d2450c3e62e",
        "28650021-2b2a-4a55-aff4-85dd4896c687"
      ]
    },
    "titles": {
      "eng": "REAL×EYEZ"
    },
    "titles_default_language": "eng",
    "titles_aliases": [
      "REALxEYEZ"
    ],
    "title": "REAL×EYEZ",
    "year": 2019
  }
}