{
  "header": {
    "version": 4,
    "description": "Karaoke Mugen Karaoke Data File"
  },
  "medias": [
    {
      "version": "Default",
      "filename": "ENG - Sonic The Hedgehog - MV - Up on the Green Hill ~ Full Vers.mp4",
      "audiogain": -9.64,
      "loudnorm": "-8.03,1.01,4.60,-18.10,-0.82",
      "filesize": 100755400,
      "duration": 257,
      "default": true,
      "lyrics": [
        {
          "filename": "ENG - Sonic The Hedgehog - MV - Up on the Green Hill ~ Full Vers.ass",
          "default": true,
          "version": "Default"
        }
      ]
    }
  ],
  "data": {
    "created_at": "2022-05-17T23:16:38.499Z",
    "ignoreHooks": false,
    "kid": "82641d60-dad7-4a5e-ab0b-5f5a2dd12cd3",
    "modified_at": "2023-07-12T15:59:05.449Z",
    "repository": "kara.moe",
    "tags": {
      "authors": [
        "06852e02-b77e-4106-b6f7-2d03942ad0ea"
      ],
      "collections": [
        "c7db86a0-ff64-4044-9be4-66dd1ef1d1c1"
      ],
      "creators": [
        "f963181a-1214-47f8-b6f9-1705cbc33779"
      ],
      "families": [
        "5391f9fe-638c-415f-8dc9-958e3a2c5787"
      ],
      "groups": [
        "8e209ae4-4381-438f-89dc-1b21752027d2"
      ],
      "langs": [
        "de5eda1c-5fb3-46a6-9606-d4554fc5a1d6"
      ],
      "series": [
        "7ea913cb-a1d7-420c-acba-ea96c965c87f"
      ],
      "singers": [
        "3ea68cea-9b4a-4e2f-ba14-c9ab3734dacb"
      ],
      "songtypes": [
        "7be1b15c-cff8-4b37-a649-5c90f3d569a9"
      ],
      "songwriters": [
        "76517704-d450-4e5e-a091-3ae8aee27f6d",
        "b37dc4bc-46b9-43d1-8fb5-b2b2a6d298be"
      ],
      "versions": [
        "c2143a7f-6970-450e-8a79-0302db9220a9"
      ],
      "franchises": [
        "85f03333-8b55-431c-b2f9-3b6c2c6a3751"
      ]
    },
    "titles": {
      "eng": "Up on the Green Hill"
    },
    "titles_default_language": "eng",
    "year": 2022
  }
}