{
  "header": {
    "version": 4,
    "description": "Karaoke Mugen Karaoke Data File"
  },
  "medias": [
    {
      "version": "Default",
      "filename": "ENG - Frozen - MOVIE IN - Let It Go.mp4",
      "audiogain": -5.19,
      "loudnorm": "-13.33,-0.03,13.20,-23.87,-2.40",
      "filesize": 63114457,
      "duration": 218,
      "default": true,
      "lyrics": [
        {
          "filename": "ENG - Frozen - MOVIE IN - Let It Go.ass",
          "default": true,
          "version": "Default"
        }
      ]
    }
  ],
  "data": {
    "created_at": "2019-06-04T20:41:11.000Z",
    "ignoreHooks": false,
    "kid": "19492301-885c-49b9-9d8d-3a88d5877d50",
    "modified_at": "2022-11-02T18:28:25.080Z",
    "repository": "kara.moe",
    "tags": {
      "authors": [
        "622e2a6d-e4e8-4ff5-b218-890e8d7a3abf"
      ],
      "collections": [
        "c7db86a0-ff64-4044-9be4-66dd1ef1d1c1"
      ],
      "creators": [
        "53ac4d74-c9b8-4fed-bab1-cfa65b2f3142"
      ],
      "families": [
        "0377db02-3af6-43b8-9b08-c759df3d25c3"
      ],
      "groups": [
        "2b4e9972-5e17-481b-99f5-d0787c0ada56",
        "ae613721-1fbe-480d-ba6b-d6d0702b184d"
      ],
      "langs": [
        "de5eda1c-5fb3-46a6-9606-d4554fc5a1d6"
      ],
      "origins": [
        "c8ca9dea-d8b4-48fe-8427-d911653232e9"
      ],
      "series": [
        "0dd6fda0-7267-4eee-b8bb-50b9a5fb7886"
      ],
      "singers": [
        "01110b68-f27f-40f4-8f54-ff9e7551a1c6"
      ],
      "songtypes": [
        "5e5250d9-351a-4a82-98eb-55db50ad8962"
      ],
      "songwriters": [
        "506f076a-3358-4987-b14a-2f8a74c08a43",
        "ca012992-eb15-4440-bf41-78072f44238b"
      ],
      "franchises": [
        "0dd6fda0-7267-4eee-b8bb-50b9a5fb7886"
      ]
    },
    "titles": {
      "eng": "Let It Go",
      "fre": "Libérée, délivrée"
    },
    "titles_default_language": "eng",
    "title": "Let It Go",
    "year": 2013
  }
}