{
  "header": {
    "version": 4,
    "description": "Karaoke Mugen Karaoke Data File"
  },
  "medias": [
    {
      "version": "Default",
      "filename": "ENG - Honkai Star Rail - GAME PS4 AMV - Wildfire ~ Short Vers.mp4",
      "audiogain": -9.57,
      "loudnorm": "-8.50,1.94,12.60,-19.32,-1.91",
      "filesize": 70707772,
      "duration": 160,
      "default": true,
      "lyrics": [
        {
          "filename": "ENG - Honkai Star Rail - GAME PS4 AMV - Wildfire ~ Short Vers.ass",
          "default": true,
          "version": "Default"
        }
      ]
    }
  ],
  "data": {
    "created_at": "2023-06-30T20:42:24.425Z",
    "ignoreHooks": false,
    "kid": "2bbba3b4-f32e-47d4-91c2-0521d9b0b67b",
    "modified_at": "2023-06-30T20:43:06.200Z",
    "repository": "kara.moe",
    "tags": {
      "authors": [
        "684ce13c-fe6a-4010-8462-d6a1210fe1de"
      ],
      "collections": [
        "c7db86a0-ff64-4044-9be4-66dd1ef1d1c1"
      ],
      "creators": [
        "31f17e65-e2cc-479d-9345-730a6a66f8cd",
        "b77315f9-142f-402f-b1b7-c415de808775"
      ],
      "groups": [
        "8e209ae4-4381-438f-89dc-1b21752027d2"
      ],
      "langs": [
        "de5eda1c-5fb3-46a6-9606-d4554fc5a1d6"
      ],
      "origins": [
        "dbedd6b3-d125-4cd8-aa32-c4175e4ca3a3"
      ],
      "platforms": [
        "213a1a15-e73a-4a08-b3f6-b6e2745a82e5",
        "248d92ee-8c02-43bc-86e2-cc6029883564",
        "3c15f758-e1bc-4266-8bb9-3c14112f504a",
        "d22db878-440d-46c1-a749-ae575c78983d"
      ],
      "series": [
        "fa51ca66-3610-431f-afa9-19fe3be59045"
      ],
      "singers": [
        "63f54f99-57d7-4098-a281-af706743b804"
      ],
      "songtypes": [
        "a6c79ce5-89ee-4d50-afe8-3abd7317f6c2"
      ],
      "songwriters": [
        "28010d20-99d4-4cd8-99bf-c06ee8c087a1"
      ],
      "versions": [
        "d125c80a-86c1-4321-88e9-07b7800679b6"
      ],
      "franchises": [
        "9be5ebfe-b8a5-487a-8c36-26fda6b42fb4"
      ]
    },
    "titles": {
      "eng": "Wildfire"
    },
    "titles_default_language": "eng",
    "year": 2023
  }
}