{
  "header": {
    "version": 4,
    "description": "Karaoke Mugen Karaoke Data File"
  },
  "medias": [
    {
      "version": "Default",
      "filename": "ENG - Neptunia Sisters vs Sisters - GAME PS4 OP - Fight for Victory.mp4",
      "audiogain": -5.36,
      "loudnorm": "-11.02,0.75,2.70,-21.14,-0.32",
      "filesize": 112545009,
      "duration": 97,
      "default": true,
      "lyrics": [
        {
          "filename": "ENG - Neptunia Sisters vs Sisters - GAME PS4 OP - Fight for Victory.ass",
          "default": true,
          "version": "Default"
        }
      ]
    }
  ],
  "data": {
    "comment": "Base utilisée pour les paroles : https://neptunia.fandom.com/wiki/Fight_for_Victory#Romaji",
    "created_at": "2023-01-29T15:23:16.637Z",
    "ignoreHooks": false,
    "kid": "a0aeb540-f520-4f89-8ad2-c77ead7e59f5",
    "modified_at": "2023-01-29T15:42:27.287Z",
    "repository": "kara.moe",
    "tags": {
      "authors": [
        "769104f8-012b-4e06-90b9-1a24cda992b1"
      ],
      "collections": [
        "c7db86a0-ff64-4044-9be4-66dd1ef1d1c1"
      ],
      "creators": [
        "2797c42a-c4af-49d2-8aa6-762ef0a41338",
        "769af53e-df08-4cb5-9cad-7503576dee49"
      ],
      "groups": [
        "8e209ae4-4381-438f-89dc-1b21752027d2"
      ],
      "langs": [
        "4dcf9614-7914-42aa-99f4-dbce2e059133",
        "de5eda1c-5fb3-46a6-9606-d4554fc5a1d6"
      ],
      "platforms": [
        "248d92ee-8c02-43bc-86e2-cc6029883564",
        "3c15f758-e1bc-4266-8bb9-3c14112f504a",
        "d22db878-440d-46c1-a749-ae575c78983d"
      ],
      "series": [
        "113d579d-c291-4ec0-8dcd-dcb3711122ab"
      ],
      "singers": [
        "527d3a38-559d-4e99-9ed6-2a2fd772f45f"
      ],
      "songtypes": [
        "f02ad9b3-0bd9-4aad-85b3-9976739ba0e4"
      ],
      "songwriters": [
        "e2525e27-f56a-4fd8-99ea-1d5c52adc175"
      ],
      "franchises": [
        "5a46a354-d3bd-417b-98f2-0abd1ac1c7c0"
      ],
      "origins": [
        "dbedd6b3-d125-4cd8-aa32-c4175e4ca3a3"
      ]
    },
    "titles": {
      "jpn": "Fight for Victory"
    },
    "titles_default_language": "jpn",
    "year": 2022
  }
}