{
  "header": {
    "description": "Karaoke Mugen Karaoke Data File",
    "version": 4
  },
  "medias": [
    {
      "version": "Default",
      "filename": "ENG - Calliope Mori - AUDIO - Dead on Arrival.mp3",
      "audiogain": -8.2,
      "loudnorm": "-7.88,0.69,2.20,-17.97,-0.47",
      "filesize": 5859698,
      "duration": 243,
      "default": true,
      "lyrics": [
        {
          "filename": "ENG - Calliope Mori - AUDIO - Dead on Arrival.ass",
          "default": true,
          "version": "Default"
        }
      ]
    }
  ],
  "data": {
    "created_at": "2022-07-18T12:05:53.682Z",
    "kid": "15bb3652-d34a-44de-82cd-cb47b9a3afc7",
    "modified_at": "2022-07-18T12:05:53.682Z",
    "tags": {
      "authors": [
        "2c1f4c76-4de9-4548-9aa5-bc64ab296076"
      ],
      "creators": [
        "0263d413-17bb-4cee-a311-6dd896eda1c9"
      ],
      "langs": [
        "de5eda1c-5fb3-46a6-9606-d4554fc5a1d6",
        "4dcf9614-7914-42aa-99f4-dbce2e059133"
      ],
      "misc": [
        "ec4fee75-71fb-45b4-9772-2ca374b4b600"
      ],
      "origins": [
        "5106d71b-a78e-4d19-a16d-f8fb6719538a"
      ],
      "singers": [
        "c4cd517c-9219-4757-9d66-0ffb56c754f9"
      ],
      "songtypes": [
        "42a262ae-acba-4ab5-a446-c5789c96c821"
      ],
      "songwriters": [
        "4d675734-308e-460b-9b8b-ee090fddef83"
      ],
      "collections": [
        "c7db86a0-ff64-4044-9be4-66dd1ef1d1c1"
      ]
    },
    "titles": {
      "eng": "Dead on Arrival"
    },
    "titles_default_language": "eng",
    "titles_aliases": [],
    "title": "Dead on Arrival",
    "year": 2022,
    "repository": "kara.moe"
  }
}