{
  "header": {
    "description": "Karaoke Mugen Karaoke Data File",
    "version": 4
  },
  "medias": [
    {
      "version": "Default",
      "filename": "ENG - Keane - MV - Somewhere Only We Know.mp4",
      "audiogain": -10.72,
      "loudnorm": "-7.03,2.04,9.90,-17.29,-1.35",
      "filesize": 98986988,
      "duration": 236,
      "default": true,
      "lyrics": [
        {
          "filename": "ENG - Keane - MV - Somewhere Only We Know.ass",
          "default": true,
          "version": "Default"
        }
      ]
    }
  ],
  "data": {
    "created_at": "2022-08-02T15:09:12.877Z",
    "kid": "f7a465ea-b678-4e0a-9525-b9abe454385c",
    "modified_at": "2022-08-02T15:09:12.877Z",
    "tags": {
      "authors": [
        "0c8e4377-ee35-4896-89ed-9d06a1b5acd5"
      ],
      "creators": [
        "35cf30c4-8701-4295-be83-6806dbe744ea",
        "5ccd3d6d-03de-448a-9bb8-fadb30db6be1"
      ],
      "families": [
        "5391f9fe-638c-415f-8dc9-958e3a2c5787"
      ],
      "groups": [
        "3c14c864-533c-49e6-a3cc-6969f1233775"
      ],
      "langs": [
        "de5eda1c-5fb3-46a6-9606-d4554fc5a1d6"
      ],
      "singers": [
        "68a441e2-e963-44dc-b9af-6f8dc43dfa86"
      ],
      "songtypes": [
        "7be1b15c-cff8-4b37-a649-5c90f3d569a9"
      ],
      "songwriters": [
        "7c27f6d4-2321-427e-a6b1-b840c53341ab",
        "a0ccea71-a3f9-4675-a678-f26f9e5b1ba6",
        "ada1ded6-a6fa-4d2c-95f6-22983c935685"
      ],
      "collections": [
        "efe171c0-e8a1-4d03-98c0-60ecf741ad52"
      ]
    },
    "titles": {
      "eng": "Somewhere Only We Know"
    },
    "titles_default_language": "eng",
    "titles_aliases": [],
    "title": "Somewhere Only We Know",
    "year": "2004",
    "repository": "kara.moe"
  }
}