{
  "header": {
    "version": 4,
    "description": "Karaoke Mugen Karaoke Data File"
  },
  "medias": [
    {
      "version": "Default",
      "filename": "ENG - Michael Jackson - MV - They Don't Care About Us (Brazil Version).mp4",
      "audiogain": -0.05,
      "loudnorm": "-20.06,0.11,7.60,-30.36,-1.55",
      "filesize": 28975104,
      "duration": 281,
      "default": true,
      "lyrics": [
        {
          "filename": "ENG - Michael Jackson - MV - They Don't Care About Us (Brazil Version).ass",
          "default": true,
          "version": "Default"
        }
      ]
    }
  ],
  "data": {
    "created_at": "2022-06-08T20:13:15.877Z",
    "ignoreHooks": false,
    "kid": "030b6d1c-d550-4190-b1b6-628a04be25c7",
    "modified_at": "2022-10-15T19:21:22.743Z",
    "repository": "kara.moe",
    "tags": {
      "authors": [
        "09fdd0c3-51ca-4570-a4a1-d0012aeedd5f"
      ],
      "collections": [
        "efe171c0-e8a1-4d03-98c0-60ecf741ad52"
      ],
      "creators": [
        "1cd2f13e-05cb-49b5-b42f-96260f7a162b"
      ],
      "families": [
        "5391f9fe-638c-415f-8dc9-958e3a2c5787"
      ],
      "groups": [
        "24db50aa-a126-4d34-a48a-e45db79c4245"
      ],
      "langs": [
        "de5eda1c-5fb3-46a6-9606-d4554fc5a1d6"
      ],
      "singers": [
        "d549402e-4aa6-4fde-806d-f24be1f40a3f"
      ],
      "songtypes": [
        "7be1b15c-cff8-4b37-a649-5c90f3d569a9"
      ],
      "songwriters": [
        "d549402e-4aa6-4fde-806d-f24be1f40a3f"
      ]
    },
    "titles": {
      "eng": "They Don’t Care About Us (Brazil Version)"
    },
    "titles_default_language": "eng",
    "title": "They Don’t Care About Us (Brazil Version)",
    "year": 1996
  }
}