{
  "header": {
    "version": 4,
    "description": "Karaoke Mugen Karaoke Data File"
  },
  "medias": [
    {
      "version": "Default",
      "filename": "ENG - Pink Floyd - MV - Another Brick in the Wall (part 2).mp4",
      "audiogain": 6.34,
      "loudnorm": "-25.12,-9.30,4.70,-35.43,-0.35",
      "filesize": 23117633,
      "duration": 190,
      "default": true,
      "lyrics": [
        {
          "filename": "ENG - Pink Floyd - MV - Another Brick in the Wall (part 2).ass",
          "default": true,
          "version": "Default",
          "subchecksum": "51ba3a6b3352d495c27f77db6ec9f58b"
        }
      ]
    }
  ],
  "data": {
    "created_at": "2021-05-21T16:12:53.990Z",
    "kid": "2fc59660-f424-4123-a622-b41fe8fe37df",
    "modified_at": "2021-05-21T16:19:38.904Z",
    "repository": "kara.moe",
    "tags": {
      "authors": [
        "ba24c430-e5db-4e7d-ae81-5f70733ea224"
      ],
      "collections": [
        "efe171c0-e8a1-4d03-98c0-60ecf741ad52"
      ],
      "creators": [
        "2a926db2-82e5-4e61-8f8d-be96461d595f"
      ],
      "families": [
        "0377db02-3af6-43b8-9b08-c759df3d25c3",
        "5391f9fe-638c-415f-8dc9-958e3a2c5787"
      ],
      "groups": [
        "57e5e0c0-e02e-4871-a6cb-d48ea604ebab"
      ],
      "langs": [
        "de5eda1c-5fb3-46a6-9606-d4554fc5a1d6"
      ],
      "singers": [
        "d8636bfe-a0e6-4d70-8749-9e67a86f41bd"
      ],
      "songtypes": [
        "7be1b15c-cff8-4b37-a649-5c90f3d569a9"
      ],
      "songwriters": [
        "b9b717f3-46d5-4f56-bd35-f21555ea1eea"
      ]
    },
    "title": "Another Brick in the Wall (part 2)",
    "titles": {
      "eng": "Another Brick in the Wall (part 2)"
    },
    "year": 1979
  }
}