{
  "header": {
    "version": 4,
    "description": "Karaoke Mugen Karaoke Data File"
  },
  "medias": [
    {
      "version": "Default",
      "filename": "ENG - Fugou Keiji Balance Unlimited - OP - NAVIGATOR.mp4",
      "audiogain": 0.07,
      "loudnorm": "-16.83,-9.83,8.20,-27.15,-0.99",
      "filesize": 71423151,
      "duration": 92,
      "default": true,
      "lyrics": [
        {
          "filename": "ENG - Fugou Keiji Balance Unlimited - OP - NAVIGATOR.ass",
          "default": true,
          "version": "Default"
        }
      ]
    }
  ],
  "data": {
    "created_at": "2020-09-12T13:05:57.005Z",
    "kid": "86dc3913-eb24-43f9-b25c-b230aaa5fc63",
    "modified_at": "2021-11-27T17:25:56.047Z",
    "repository": "kara.moe",
    "tags": {
      "authors": [
        "5e93f02a-bcd1-40a9-ba7a-91ada6683aea"
      ],
      "collections": [
        "c7db86a0-ff64-4044-9be4-66dd1ef1d1c1"
      ],
      "creators": [
        "43cebb4a-845f-449b-bbd0-d97d96d97cb4"
      ],
      "families": [
        "0377db02-3af6-43b8-9b08-c759df3d25c3"
      ],
      "groups": [
        "8e209ae4-4381-438f-89dc-1b21752027d2"
      ],
      "langs": [
        "4dcf9614-7914-42aa-99f4-dbce2e059133",
        "de5eda1c-5fb3-46a6-9606-d4554fc5a1d6"
      ],
      "misc": [
        "ec4fee75-71fb-45b4-9772-2ca374b4b600",
        "fe819ff1-9db8-4a0f-85dc-0e322c9126c4"
      ],
      "origins": [
        "938de218-5343-4865-94d3-fb33f2eaa152"
      ],
      "series": [
        "e21776eb-d477-4971-aec5-60d001a05172"
      ],
      "singers": [
        "76d7bd75-ef9d-4de8-ac46-5ca1349c0660"
      ],
      "songtypes": [
        "f02ad9b3-0bd9-4aad-85b3-9976739ba0e4"
      ],
      "songwriters": [
        "1d0db12d-0774-4ae0-9fe2-a40252f59f0d"
      ]
    },
    "titles": {
      "eng": "NAVIGATOR"
    },
    "title": "NAVIGATOR",
    "year": 2020,
    "titles_default_language": "eng"
  }
}