{
  "header": {
    "version": 4,
    "description": "Karaoke Mugen Karaoke Data File"
  },
  "medias": [
    {
      "version": "Default",
      "filename": "ENG - Depeche Mode - MV - Personal Jesus.mp4",
      "audiogain": -4.37,
      "loudnorm": "-13.48,0.90,4.30,-23.64,-0.54",
      "filesize": 25601717,
      "duration": 225,
      "default": true,
      "lyrics": [
        {
          "filename": "ENG - Depeche Mode - MV - Personal Jesus.ass",
          "default": true,
          "version": "Default",
          "subchecksum": "1dd7887b6d33462cafb931dbff36e59b"
        }
      ]
    }
  ],
  "data": {
    "created_at": "2020-08-15T19:43:59.621Z",
    "kid": "1dc2319b-63fb-466d-9ddf-f6e4c0eb77f4",
    "modified_at": "2021-02-25T14:48:28.303Z",
    "repository": "kara.moe",
    "tags": {
      "authors": [
        "9bea7e05-2dec-434e-92ff-fcb53f69fdb7"
      ],
      "collections": [
        "efe171c0-e8a1-4d03-98c0-60ecf741ad52"
      ],
      "creators": [
        "ea122c9c-30da-4ba9-b014-de3579d27520"
      ],
      "families": [
        "5391f9fe-638c-415f-8dc9-958e3a2c5787"
      ],
      "groups": [
        "7792cc27-9ff9-4d47-9287-2338b7db1575"
      ],
      "langs": [
        "de5eda1c-5fb3-46a6-9606-d4554fc5a1d6"
      ],
      "singers": [
        "df7df744-e44a-422e-8a95-459776718c58"
      ],
      "songtypes": [
        "7be1b15c-cff8-4b37-a649-5c90f3d569a9"
      ],
      "songwriters": [
        "1c32dc78-370d-4549-aa46-6c25cd5320a7"
      ]
    },
    "title": "Personal Jesus",
    "titles": {
      "eng": "Personal Jesus"
    },
    "year": 1989
  }
}