{
  "header": {
    "version": 4,
    "description": "Karaoke Mugen Karaoke Data File"
  },
  "medias": [
    {
      "version": "Default",
      "filename": "ENG - Mili - AMV - Summoning 101.mp4",
      "audiogain": -8.17,
      "loudnorm": "-8.94,0.81,10.50,-19.35,-0.34",
      "filesize": 46903071,
      "duration": 170,
      "default": true,
      "lyrics": [
        {
          "filename": "ENG - Mili - AMV - Summoning 101.ass",
          "default": true,
          "version": "Default",
          "subchecksum": "f4c2e493028253c9b576d0e0d1b522e3"
        }
      ]
    }
  ],
  "data": {
    "created_at": "2020-02-25T21:17:01.218Z",
    "kid": "4816ccf9-c552-4b85-aa90-157d3d82a8a1",
    "modified_at": "2021-02-25T10:12:58.488Z",
    "repository": "kara.moe",
    "tags": {
      "authors": [
        "87096920-112f-485f-a310-04156cb4624d"
      ],
      "collections": [
        "c7db86a0-ff64-4044-9be4-66dd1ef1d1c1"
      ],
      "creators": [
        "5e2d4322-9bce-46ec-8d4e-2426107f4a27"
      ],
      "families": [
        "0377db02-3af6-43b8-9b08-c759df3d25c3"
      ],
      "groups": [
        "60defa7b-774e-4680-8321-51b742c2e009",
        "ae613721-1fbe-480d-ba6b-d6d0702b184d"
      ],
      "langs": [
        "9020a9e0-ed66-43b0-b795-7ef67eecf676",
        "de5eda1c-5fb3-46a6-9606-d4554fc5a1d6"
      ],
      "singers": [
        "f6cd900b-9a73-446f-b54e-84663b3cfb75"
      ],
      "songtypes": [
        "a6c79ce5-89ee-4d50-afe8-3abd7317f6c2"
      ],
      "songwriters": [
        "f6cd900b-9a73-446f-b54e-84663b3cfb75"
      ]
    },
    "title": "Summoning 101",
    "titles": {
      "eng": "Summoning 101"
    },
    "year": 2018
  }
}