{
  "header": {
    "version": 4,
    "description": "Karaoke Mugen Karaoke Data File"
  },
  "medias": [
    {
      "version": "Default",
      "filename": "ENG - Crayon Pop - MV - Bar Bar Bar ~ Off Vocal Vers.mp4",
      "audiogain": -9.34,
      "loudnorm": "-7.68,5.26,2.40,-17.90,-0.38",
      "filesize": 78974574,
      "duration": 181,
      "default": true,
      "lyrics": [
        {
          "filename": "ENG - Crayon Pop - MV - Bar Bar Bar ~ Off Vocal Vers.ass",
          "default": true,
          "version": "Default"
        }
      ]
    }
  ],
  "data": {
    "created_at": "2023-07-10T16:09:36.293Z",
    "ignoreHooks": false,
    "kid": "72573868-eb36-42d2-beef-5bfb4a0e09f9",
    "modified_at": "2023-07-10T16:09:36.371Z",
    "parents": [
      "97c7fb85-17b2-41dc-87fe-c11fd9ab9dfc"
    ],
    "repository": "kara.moe",
    "tags": {
      "authors": [
        "622e2a6d-e4e8-4ff5-b218-890e8d7a3abf"
      ],
      "collections": [
        "dbcf2c22-524d-4708-99bb-601703633927"
      ],
      "creators": [
        "849965b2-ffd6-48e2-abd1-671268f85f70"
      ],
      "families": [
        "5391f9fe-638c-415f-8dc9-958e3a2c5787"
      ],
      "groups": [
        "2b4e9972-5e17-481b-99f5-d0787c0ada56",
        "ae613721-1fbe-480d-ba6b-d6d0702b184d"
      ],
      "langs": [
        "3b9e2749-27d0-4a78-873d-ea91a9ee9a25",
        "de5eda1c-5fb3-46a6-9606-d4554fc5a1d6"
      ],
      "singers": [
        "bedb4ab1-8a8e-4651-82c6-802fe23758be"
      ],
      "songtypes": [
        "7be1b15c-cff8-4b37-a649-5c90f3d569a9"
      ],
      "songwriters": [
        "72afbcb8-0a8c-4b87-97be-c018bd4451e7",
        "730088a7-634c-4421-b609-156fc96168a6"
      ],
      "versions": [
        "c0cc87b9-55b9-40f0-878a-fbb9e34c151e"
      ]
    },
    "titles": {
      "eng": "Bar Bar Bar"
    },
    "titles_default_language": "eng",
    "year": 2013
  }
}