{
  "header": {
    "version": 4,
    "description": "Karaoke Mugen Karaoke Data File"
  },
  "medias": [
    {
      "version": "Default",
      "filename": "ENG - Persona 5 Dancing Star Night - PS4 PSV GAME OP - Groovy.mp4",
      "audiogain": -7.7,
      "loudnorm": "-8.84,0.45,2.50,-18.98,-0.80",
      "filesize": 52940418,
      "duration": 102,
      "default": true,
      "lyrics": [
        {
          "filename": "ENG - Persona 5 Dancing Star Night - PS4 PSV GAME OP - Groovy.ass",
          "default": true,
          "version": "Default",
          "subchecksum": "1f5b4c821693d26bd3982cdcf5350e58"
        }
      ]
    }
  ],
  "data": {
    "created_at": "2019-10-17T17:38:38.000Z",
    "kid": "7e239498-99cd-4e85-903c-a65ef8f28dda",
    "modified_at": "2021-02-25T10:15:11.729Z",
    "repository": "kara.moe",
    "tags": {
      "authors": [
        "06852e02-b77e-4106-b6f7-2d03942ad0ea"
      ],
      "collections": [
        "c7db86a0-ff64-4044-9be4-66dd1ef1d1c1"
      ],
      "creators": [
        "e9bb3a58-48d2-478c-bfe7-95237ddfe0fd"
      ],
      "groups": [
        "ae613721-1fbe-480d-ba6b-d6d0702b184d"
      ],
      "langs": [
        "de5eda1c-5fb3-46a6-9606-d4554fc5a1d6"
      ],
      "platforms": [
        "248d92ee-8c02-43bc-86e2-cc6029883564",
        "e791f168-068f-4c05-aa36-e8d63726aa06"
      ],
      "series": [
        "6a275f39-dc84-40e7-99b3-098b9d4abd1a"
      ],
      "singers": [
        "a9484f95-3c8f-4229-8631-777b1096678a"
      ],
      "songtypes": [
        "f02ad9b3-0bd9-4aad-85b3-9976739ba0e4"
      ],
      "songwriters": [
        "7475a675-14e6-40e6-be6b-7008902a3f17",
        "9ab29f61-cc93-4cde-b29d-5d9f3790fec4"
      ],
      "franchises": [
        "d8030743-4563-41b9-a3e3-30a0b2fb2edb"
      ],
      "origins": [
        "dbedd6b3-d125-4cd8-aa32-c4175e4ca3a3"
      ]
    },
    "title": "Groovy",
    "titles": {
      "eng": "Groovy"
    },
    "year": 2018
  }
}