{
  "header": {
    "version": 4,
    "description": "Karaoke Mugen Karaoke Data File"
  },
  "medias": [
    {
      "version": "Default",
      "filename": "ENG - Snoot Game - GAME PC PV - Turn the Lights Off.mp4",
      "audiogain": -0.67,
      "loudnorm": "-17.07,-2.87,7.00,-27.14,0.05",
      "filesize": 39519172,
      "duration": 134,
      "default": true,
      "lyrics": [
        {
          "filename": "ENG - Snoot Game - GAME PC PV - Turn the Lights Off.ass",
          "default": true,
          "version": "Default"
        }
      ]
    }
  ],
  "data": {
    "created_at": "2022-06-26T19:12:42.679Z",
    "ignoreHooks": false,
    "kid": "d45d5e7d-7916-4620-94b2-f44817899e4c",
    "modified_at": "2023-09-02T07:55:17.214Z",
    "repository": "kara.moe",
    "tags": {
      "authors": [
        "a5dbab74-510b-48c5-9cea-5a537a81c974"
      ],
      "collections": [
        "c7db86a0-ff64-4044-9be4-66dd1ef1d1c1"
      ],
      "creators": [
        "da5f8b12-f893-4e88-a642-27c1bb819dee"
      ],
      "groups": [
        "8c22c899-b3ed-42da-a548-ce00f950798b",
        "8e209ae4-4381-438f-89dc-1b21752027d2"
      ],
      "langs": [
        "de5eda1c-5fb3-46a6-9606-d4554fc5a1d6"
      ],
      "origins": [
        "dbedd6b3-d125-4cd8-aa32-c4175e4ca3a3"
      ],
      "platforms": [
        "3c15f758-e1bc-4266-8bb9-3c14112f504a"
      ],
      "series": [
        "99eff267-53a7-49ac-a9d0-712512d6ba02"
      ],
      "singers": [
        "0c2f1b88-5fdd-4cdd-95a1-0a00b34ef064"
      ],
      "songtypes": [
        "66e195b9-64ea-432d-a917-2e2c88d26052"
      ],
      "songwriters": [
        "045918d0-5f66-49db-a64d-f38720a3f791"
      ]
    },
    "titles": {
      "eng": "Turn the Lights Off"
    },
    "titles_default_language": "eng",
    "year": 2021
  }
}