{
  "header": {
    "version": 4,
    "description": "Karaoke Mugen Karaoke Data File"
  },
  "medias": [
    {
      "version": "Default",
      "filename": "ENG - GUMI - MV - ECHO.mp4",
      "audiogain": -8.4,
      "loudnorm": "-7.80,1.10,4.10,-17.95,-0.60",
      "filesize": 62028195,
      "duration": 228,
      "default": true,
      "lyrics": [
        {
          "filename": "ENG - GUMI - MV - ECHO.ass",
          "default": true,
          "version": "Default"
        }
      ]
    }
  ],
  "data": {
    "created_at": "2019-06-16T20:05:56.000Z",
    "kid": "846ef843-252d-45ab-9cce-5577b578254d",
    "modified_at": "2021-07-22T19:05:15.715Z",
    "repository": "kara.moe",
    "tags": {
      "authors": [
        "88321964-7c14-4305-85c1-0f4941aadfde"
      ],
      "collections": [
        "c7db86a0-ff64-4044-9be4-66dd1ef1d1c1"
      ],
      "creators": [
        "3b5e1055-c1dd-44ba-9362-eddc4fdffa63",
        "6c2c0764-ac9e-4af4-91bd-655e9404418e"
      ],
      "families": [
        "0377db02-3af6-43b8-9b08-c759df3d25c3"
      ],
      "genres": [
        "45623cae-6d68-4304-a49b-896d1d6f4580"
      ],
      "groups": [
        "2b4e9972-5e17-481b-99f5-d0787c0ada56",
        "ae613721-1fbe-480d-ba6b-d6d0702b184d"
      ],
      "langs": [
        "de5eda1c-5fb3-46a6-9606-d4554fc5a1d6"
      ],
      "singers": [
        "dafdeefa-0a96-44df-9653-aeb88c400e33"
      ],
      "songtypes": [
        "7be1b15c-cff8-4b37-a649-5c90f3d569a9"
      ],
      "songwriters": [
        "28879964-f5f2-4f44-b3c4-46fb108748c1",
        "6c2c0764-ac9e-4af4-91bd-655e9404418e"
      ]
    },
    "title": "ECHO",
    "titles": {
      "eng": "ECHO"
    },
    "year": 2014
  }
}