{
  "header": {
    "version": 4,
    "description": "Karaoke Mugen Karaoke Data File"
  },
  "medias": [
    {
      "version": "Default",
      "filename": "ENG - Daft Punk, Pharrell Williams - MV - Get Lucky.mp4",
      "audiogain": -5.76,
      "loudnorm": "-11.09,1.61,3.90,-21.21,-0.16",
      "filesize": 115203923,
      "duration": 366,
      "default": true,
      "lyrics": [
        {
          "filename": "ENG - Daft Punk, Pharrell Williams - MV - Get Lucky.ass",
          "default": true,
          "version": "Default",
          "subchecksum": "951b6378b40882739534511dacb0fe94"
        }
      ]
    }
  ],
  "data": {
    "created_at": "2020-07-09T19:18:56.893Z",
    "kid": "bda7d27a-12bc-4b97-bcd9-c688412d9817",
    "modified_at": "2021-02-25T14:48:28.658Z",
    "repository": "kara.moe",
    "tags": {
      "authors": [
        "840f29ae-0a78-42a1-a5b4-b7815cb15c94"
      ],
      "collections": [
        "efe171c0-e8a1-4d03-98c0-60ecf741ad52"
      ],
      "creators": [
        "28a02f79-daaf-4037-8897-3458e80a5b41"
      ],
      "families": [
        "5391f9fe-638c-415f-8dc9-958e3a2c5787"
      ],
      "groups": [
        "ae613721-1fbe-480d-ba6b-d6d0702b184d"
      ],
      "langs": [
        "de5eda1c-5fb3-46a6-9606-d4554fc5a1d6"
      ],
      "misc": [
        "86705d4b-24e4-4756-9687-2b9c98bcf366"
      ],
      "singers": [
        "9e5c468c-0ffb-47fd-a472-13afbffa3fbc",
        "f15a87e1-9b52-4e59-9183-8558438da502"
      ],
      "songtypes": [
        "7be1b15c-cff8-4b37-a649-5c90f3d569a9"
      ],
      "songwriters": [
        "a433f7ba-791d-4f49-bbf8-e39852591d96",
        "d97da3ce-5cdc-4e69-9ada-be7635071eb2",
        "e99f7697-b0d4-416b-a876-8616f02db788",
        "f15a87e1-9b52-4e59-9183-8558438da502"
      ]
    },
    "title": "Get Lucky",
    "titles": {
      "eng": "Get Lucky"
    },
    "year": 2013
  }
}