{
  "header": {
    "version": 4,
    "description": "Karaoke Mugen Karaoke Data File"
  },
  "medias": [
    {
      "version": "Default",
      "filename": "ENG - Worlds Apart - MV - Je te donne ~ Cover Vers.mp4",
      "audiogain": 6.62,
      "loudnorm": "-23.56,-11.93,0.70,-33.57,-0.10",
      "filesize": 90396836,
      "duration": 217,
      "default": true,
      "lyrics": [
        {
          "filename": "ENG - Worlds Apart - MV - Je te donne ~ Cover Vers.ass",
          "default": true,
          "version": "Default"
        }
      ]
    }
  ],
  "data": {
    "created_at": "2022-04-17T13:11:48.454Z",
    "ignoreHooks": false,
    "kid": "7305aeac-1d13-438c-9f02-0926b019b07a",
    "modified_at": "2022-04-17T18:28:47.191Z",
    "parents": [
      "2171cd4f-bda3-450f-8be5-e955123e16c8"
    ],
    "repository": "kara.moe",
    "tags": {
      "authors": [
        "3637fdbd-0a33-4f53-8000-c825b6044221"
      ],
      "collections": [
        "efe171c0-e8a1-4d03-98c0-60ecf741ad52"
      ],
      "creators": [
        "1cd2f13e-05cb-49b5-b42f-96260f7a162b"
      ],
      "families": [
        "5391f9fe-638c-415f-8dc9-958e3a2c5787"
      ],
      "groups": [
        "24db50aa-a126-4d34-a48a-e45db79c4245"
      ],
      "langs": [
        "de5eda1c-5fb3-46a6-9606-d4554fc5a1d6",
        "fd8072b7-4d9b-45d4-8f5b-a931a830edef"
      ],
      "singers": [
        "589089e7-78d2-4204-ac5c-8f31df6b9b5f"
      ],
      "songtypes": [
        "7be1b15c-cff8-4b37-a649-5c90f3d569a9"
      ],
      "songwriters": [
        "1ff5e11c-787d-4618-9878-5e6b4fdef247",
        "e9ae5b0b-c1fb-4a85-95ef-b9261b86b05f"
      ],
      "versions": [
        "03e1e1d2-8641-47b7-bbcb-39a3df9ff21c"
      ]
    },
    "titles": {
      "fre": "Je te donne"
    },
    "titles_default_language": "fre",
    "title": "Je te donne",
    "year": 1996
  }
}