{
  "header": {
    "version": 4,
    "description": "Karaoke Mugen Karaoke Data File"
  },
  "medias": [
    {
      "version": "Default",
      "filename": "ENG - Britney Spears - MV - ...Baby One More Time.mp4",
      "audiogain": -7.02,
      "loudnorm": "-12.03,0.33,7.00,-22.41,-0.87",
      "filesize": 21411914,
      "duration": 237,
      "default": true,
      "lyrics": [
        {
          "filename": "ENG - Britney Spears - MV - ...Baby One More Time.ass",
          "default": true,
          "version": "Default",
          "subchecksum": "0f8a56f62eff660d3f117b43cde4632c"
        }
      ]
    }
  ],
  "data": {
    "created_at": "2021-05-22T20:09:24.777Z",
    "kid": "eea59fc3-e519-45a2-9c61-129ab1711974",
    "modified_at": "2021-05-22T20:58:53.816Z",
    "repository": "kara.moe",
    "tags": {
      "authors": [
        "0c8e4377-ee35-4896-89ed-9d06a1b5acd5"
      ],
      "collections": [
        "efe171c0-e8a1-4d03-98c0-60ecf741ad52"
      ],
      "creators": [
        "cca56dad-2503-4a51-bc90-3490b4e979f4"
      ],
      "families": [
        "5391f9fe-638c-415f-8dc9-958e3a2c5787"
      ],
      "groups": [
        "24db50aa-a126-4d34-a48a-e45db79c4245"
      ],
      "langs": [
        "de5eda1c-5fb3-46a6-9606-d4554fc5a1d6"
      ],
      "singers": [
        "5a820073-4925-498d-8ec8-0a90bcfc7eeb"
      ],
      "songtypes": [
        "7be1b15c-cff8-4b37-a649-5c90f3d569a9"
      ],
      "songwriters": [
        "34f37834-cec2-4d5c-9d72-d5ed8c1edc4d"
      ]
    },
    "title": "...Baby One More Time",
    "titles": {
      "eng": "...Baby One More Time"
    },
    "year": 1998
  }
}