{
  "header": {
    "version": 4,
    "description": "Karaoke Mugen Karaoke Data File"
  },
  "medias": [
    {
      "version": "Default",
      "filename": "ENG - Imagine Dragons - AUDIO - Bleeding Out.mp3",
      "audiogain": -10.95,
      "loudnorm": "-7.02,2.75,11.30,-17.35,-1.83",
      "filesize": 3696053,
      "duration": 223,
      "default": true,
      "lyrics": [
        {
          "filename": "ENG - Imagine Dragons - AUDIO - Bleeding Out.ass",
          "default": true,
          "version": "Default",
          "subchecksum": "11c601eb910d8be928f9c8a57ea21ad9"
        }
      ]
    }
  ],
  "data": {
    "created_at": "2020-08-15T20:06:27.177Z",
    "kid": "8f208820-3540-4bdf-9028-04dc89a227d3",
    "modified_at": "2021-02-25T14:49:59.209Z",
    "repository": "kara.moe",
    "tags": {
      "authors": [
        "f5555f5a-47f8-4761-b4c7-b92398cd838c"
      ],
      "collections": [
        "efe171c0-e8a1-4d03-98c0-60ecf741ad52"
      ],
      "creators": [
        "5ccd3d6d-03de-448a-9bb8-fadb30db6be1"
      ],
      "groups": [
        "ae613721-1fbe-480d-ba6b-d6d0702b184d"
      ],
      "langs": [
        "de5eda1c-5fb3-46a6-9606-d4554fc5a1d6"
      ],
      "singers": [
        "28049ad2-e20c-466c-950c-537552c00858"
      ],
      "songtypes": [
        "42a262ae-acba-4ab5-a446-c5789c96c821"
      ],
      "songwriters": [
        "28049ad2-e20c-466c-950c-537552c00858"
      ]
    },
    "title": "Bleeding Out",
    "titles": {
      "eng": "Bleeding Out"
    },
    "year": 2012
  }
}