{
  "header": {
    "version": 4,
    "description": "Karaoke Mugen Karaoke Data File"
  },
  "medias": [
    {
      "version": "Default",
      "filename": "ENG - The Hitchhiker's Guide to the Galaxy - OP - So long, and thanks for all the fish.mp4",
      "audiogain": 2.48,
      "loudnorm": "-20.66,-4.74,8.40,-31.07,-0.48",
      "filesize": 84470488,
      "duration": 155,
      "default": true,
      "lyrics": [
        {
          "filename": "ENG - The Hitchhiker's Guide to the Galaxy - OP - So long, and thanks for all the fish.ass",
          "default": true,
          "version": "Default"
        }
      ]
    }
  ],
  "data": {
    "created_at": "2018-07-09T21:43:09.000Z",
    "ignoreHooks": false,
    "kid": "85a410df-2fa9-4314-af1c-e802ccdaf178",
    "modified_at": "2022-02-14T22:42:35.852Z",
    "repository": "kara.moe",
    "tags": {
      "authors": [
        "09c0bae3-a2f0-4e47-bf66-629df6dc4b55"
      ],
      "collections": [
        "c7db86a0-ff64-4044-9be4-66dd1ef1d1c1"
      ],
      "creators": [
        "16d42f94-706b-4d4a-8d06-662b35f556ce",
        "454482d2-8146-4008-be3b-c2721f8b283e",
        "611a6272-186b-4bd7-b848-4d3c4837f732",
        "645f7f9c-382c-438d-a31e-ea29c4c80023",
        "7269d5a3-32de-4ce1-9ce7-60ec17b80d9d",
        "933d5eeb-c93f-41f5-a534-81ef6a08410e"
      ],
      "families": [
        "5391f9fe-638c-415f-8dc9-958e3a2c5787"
      ],
      "groups": [
        "3c14c864-533c-49e6-a3cc-6969f1233775",
        "f5e7d2fc-0cbb-4fb9-a84a-b25dfb0e9e77"
      ],
      "langs": [
        "de5eda1c-5fb3-46a6-9606-d4554fc5a1d6"
      ],
      "series": [
        "48663931-7783-4435-8295-3327d38426c0"
      ],
      "singers": [
        "514054dd-d235-43bb-8c99-960ecd48add7",
        "b2d964df-4cd8-4512-b90a-ed5d82d9ec5f",
        "e5d79c8b-4941-4b66-962a-ce6099e051be"
      ],
      "songtypes": [
        "f02ad9b3-0bd9-4aad-85b3-9976739ba0e4"
      ],
      "songwriters": [
        "4bd58acb-ab14-4e3a-b10a-08e0b816afa1"
      ]
    },
    "titles": {
      "eng": "So long, and thanks for all the fish"
    },
    "title": "So long, and thanks for all the fish",
    "year": 2005
  }
}