{
  "header": {
    "version": 4,
    "description": "Karaoke Mugen Karaoke Data File"
  },
  "medias": [
    {
      "version": "Default",
      "filename": "ENG - Black Rock Shooter - AMV - Mighty Long Fall.mp4",
      "audiogain": -8.75,
      "loudnorm": "-7.44,1.47,3.50,-17.59,-0.98",
      "filesize": 71099219,
      "duration": 244,
      "default": true,
      "lyrics": [
        {
          "filename": "ENG - Black Rock Shooter - AMV - Mighty Long Fall.ass",
          "default": true,
          "version": "Default"
        }
      ]
    }
  ],
  "data": {
    "created_at": "2019-09-08T20:31:51.000Z",
    "kid": "278f7f57-2529-422a-bc82-0e603bf185b8",
    "modified_at": "2021-07-22T19:01:25.697Z",
    "repository": "kara.moe",
    "tags": {
      "authors": [
        "88321964-7c14-4305-85c1-0f4941aadfde"
      ],
      "collections": [
        "c7db86a0-ff64-4044-9be4-66dd1ef1d1c1"
      ],
      "creators": [
        "55358dc2-2b60-4b69-b6d9-de3e61da489b"
      ],
      "families": [
        "0377db02-3af6-43b8-9b08-c759df3d25c3",
        "5391f9fe-638c-415f-8dc9-958e3a2c5787"
      ],
      "groups": [
        "2b4e9972-5e17-481b-99f5-d0787c0ada56",
        "ae613721-1fbe-480d-ba6b-d6d0702b184d"
      ],
      "langs": [
        "4dcf9614-7914-42aa-99f4-dbce2e059133",
        "de5eda1c-5fb3-46a6-9606-d4554fc5a1d6"
      ],
      "series": [
        "19f34f2a-7fdc-4e04-acc7-f521f64ccc2f"
      ],
      "singers": [
        "57f7774c-51be-4b54-abce-d69eac0feb74"
      ],
      "songtypes": [
        "a6c79ce5-89ee-4d50-afe8-3abd7317f6c2"
      ],
      "songwriters": [
        "57f7774c-51be-4b54-abce-d69eac0feb74",
        "937f2a9f-b1c1-46c6-bb6d-779833a58f6b"
      ],
      "franchises": [
        "19f34f2a-7fdc-4e04-acc7-f521f64ccc2f"
      ]
    },
    "title": "Mighty Long Fall",
    "titles": {
      "eng": "Mighty Long Fall"
    },
    "year": 2014,
    "titles_default_language": "eng"
  }
}