{
  "header": {
    "version": 4,
    "description": "Karaoke Mugen Karaoke Data File"
  },
  "medias": [
    {
      "version": "Default",
      "filename": "ENG - Persona 5 Scramble The Phantom Strikers - PS4 SWITCH GAME OP - You are stronger.mp4",
      "audiogain": -0.3,
      "loudnorm": "-17.51,-7.54,5.80,-27.57,-0.95",
      "filesize": 48464522,
      "duration": 97,
      "default": true,
      "lyrics": [
        {
          "filename": "ENG - Persona 5 Scramble The Phantom Strikers - PS4 SWITCH GAME OP - You are stronger.ass",
          "default": true,
          "version": "Default",
          "subchecksum": "410153af9069ac6b9e3e6a2d55532597"
        }
      ]
    }
  ],
  "data": {
    "created_at": "2020-01-12T17:19:14.076Z",
    "kid": "d6ed6478-5759-4c32-acb1-782fe62964d6",
    "modified_at": "2021-02-25T10:15:12.396Z",
    "repository": "kara.moe",
    "tags": {
      "authors": [
        "06852e02-b77e-4106-b6f7-2d03942ad0ea"
      ],
      "collections": [
        "c7db86a0-ff64-4044-9be4-66dd1ef1d1c1"
      ],
      "creators": [
        "e9bb3a58-48d2-478c-bfe7-95237ddfe0fd"
      ],
      "groups": [
        "8e209ae4-4381-438f-89dc-1b21752027d2"
      ],
      "langs": [
        "de5eda1c-5fb3-46a6-9606-d4554fc5a1d6"
      ],
      "misc": [
        "fe819ff1-9db8-4a0f-85dc-0e322c9126c4"
      ],
      "platforms": [
        "0a880bfc-d0e5-448b-98d2-4ba7b3106641",
        "248d92ee-8c02-43bc-86e2-cc6029883564"
      ],
      "series": [
        "0c883c2a-2ecc-4407-b711-38d35c33321d"
      ],
      "singers": [
        "2d55466d-e2ff-4db7-b530-646828aabc22"
      ],
      "songtypes": [
        "f02ad9b3-0bd9-4aad-85b3-9976739ba0e4"
      ],
      "songwriters": [
        "46994f82-720a-49eb-bf79-f27a14d6791d",
        "900e7353-d9db-4c9e-88e9-24649beef963"
      ],
      "franchises": [
        "d8030743-4563-41b9-a3e3-30a0b2fb2edb"
      ],
      "origins": [
        "dbedd6b3-d125-4cd8-aa32-c4175e4ca3a3"
      ]
    },
    "title": "You are stronger",
    "titles": {
      "eng": "You are stronger"
    },
    "year": 2020
  }
}