{
  "header": {
    "version": 4,
    "description": "Karaoke Mugen Karaoke Data File"
  },
  "medias": [
    {
      "version": "Default",
      "filename": "ENG - Touhou - MV - You may know Dream.mp4",
      "audiogain": -4.71,
      "loudnorm": "-12.85,-2.53,5.10,-23.19,-0.89",
      "filesize": 41967806,
      "duration": 260,
      "default": true,
      "lyrics": [
        {
          "filename": "ENG - Touhou - MV - You may know Dream.ass",
          "default": true,
          "version": "Default"
        }
      ]
    }
  ],
  "data": {
    "created_at": "2022-10-01T23:21:14.500Z",
    "ignoreHooks": false,
    "kid": "da0b3405-79c4-4ed0-a903-811c664a2f8e",
    "modified_at": "2022-10-02T00:16:58.120Z",
    "repository": "kara.moe",
    "tags": {
      "authors": [
        "1fbfef73-6731-40df-ba51-65a54b9d1605"
      ],
      "collections": [
        "c7db86a0-ff64-4044-9be4-66dd1ef1d1c1"
      ],
      "creators": [
        "ca654b25-30b5-4054-a2c0-35028fdcae22"
      ],
      "families": [
        "0377db02-3af6-43b8-9b08-c759df3d25c3"
      ],
      "groups": [
        "ae613721-1fbe-480d-ba6b-d6d0702b184d"
      ],
      "langs": [
        "de5eda1c-5fb3-46a6-9606-d4554fc5a1d6"
      ],
      "origins": [
        "ac5085db-52d8-44b4-8fbb-1697b24d2046"
      ],
      "series": [
        "1bdaa5a1-dfa6-4365-b746-7a0b194dafd6"
      ],
      "singers": [
        "1d477765-883d-487d-ae44-79a2ca0579a0"
      ],
      "songtypes": [
        "7be1b15c-cff8-4b37-a649-5c90f3d569a9"
      ],
      "songwriters": [
        "23351848-e3cc-4420-b564-db2bfe2b7f3d",
        "26cb5252-8510-49e0-897c-a611a05fc056",
        "79f10755-5fa0-4373-b20e-748cd100bb56"
      ],
      "franchises": [
        "1bdaa5a1-dfa6-4365-b746-7a0b194dafd6"
      ]
    },
    "titles": {
      "eng": "You may know \"Dream\""
    },
    "titles_default_language": "eng",
    "titles_aliases": [
      "Dream"
    ],
    "title": "You may know \"Dream\"",
    "year": 2010
  }
}