{
  "header": {
    "version": 4,
    "description": "Karaoke Mugen Karaoke Data File"
  },
  "medias": [
    {
      "version": "Default",
      "filename": "ENG - Accel World - OP2 - Burst The Gravity.mp4",
      "audiogain": 0.52,
      "loudnorm": "-18.57,-10.29,5.70,-28.64,-1.37",
      "filesize": 44671876,
      "duration": 91,
      "default": true,
      "lyrics": [
        {
          "filename": "ENG - Accel World - OP2 - Burst The Gravity.ass",
          "default": true,
          "version": "Default"
        }
      ]
    }
  ],
  "data": {
    "created_at": "2017-10-11T17:01:19.000Z",
    "ignoreHooks": false,
    "kid": "06864598-f7b4-4ea2-8501-c20e3904b1c8",
    "modified_at": "2022-10-09T16:07:48.256Z",
    "repository": "kara.moe",
    "songorder": 2,
    "tags": {
      "authors": [
        "5bdaba57-27f8-4568-8806-76a807728766"
      ],
      "collections": [
        "c7db86a0-ff64-4044-9be4-66dd1ef1d1c1"
      ],
      "creators": [
        "ef8f80e1-d244-4aea-b7f0-984d6dd4b82b"
      ],
      "families": [
        "0377db02-3af6-43b8-9b08-c759df3d25c3"
      ],
      "genres": [
        "4b80eca6-f44f-4262-a8d0-b6879d6b70cb"
      ],
      "groups": [
        "ae613721-1fbe-480d-ba6b-d6d0702b184d"
      ],
      "langs": [
        "4dcf9614-7914-42aa-99f4-dbce2e059133",
        "de5eda1c-5fb3-46a6-9606-d4554fc5a1d6"
      ],
      "origins": [
        "938de218-5343-4865-94d3-fb33f2eaa152"
      ],
      "series": [
        "1978e19d-61f9-4a84-8712-86020545c8a0"
      ],
      "singers": [
        "1a0909ec-a66c-4fd7-ab0b-5ce943206803"
      ],
      "songtypes": [
        "f02ad9b3-0bd9-4aad-85b3-9976739ba0e4"
      ],
      "songwriters": [
        "67335af9-dec8-498e-9eb4-d43a8206242c",
        "71621442-5ffe-4f44-afd0-c2dbdc192d85",
        "d5d04a4f-594b-4e7c-bf1f-546ea6c6aab4"
      ]
    },
    "titles": {
      "eng": "Burst The Gravity"
    },
    "titles_default_language": "eng",
    "title": "Burst The Gravity",
    "year": 2012
  }
}