{
  "header": {
    "version": 4,
    "description": "Karaoke Mugen Karaoke Data File"
  },
  "medias": [
    {
      "version": "Default",
      "filename": "ENG - AI The Somnium Files - GAME SWITCH MV - Invincible Rainbow Arrow.mp4",
      "audiogain": -8.68,
      "loudnorm": "-10.43,0.42,4.90,-20.64,-1.32",
      "filesize": 45425223,
      "duration": 100,
      "default": true,
      "lyrics": [
        {
          "filename": "ENG - AI The Somnium Files - GAME SWITCH MV - Invincible Rainbow Arrow.ass",
          "default": true,
          "version": "Default"
        }
      ]
    }
  ],
  "data": {
    "created_at": "2022-07-23T15:30:10.429Z",
    "ignoreHooks": false,
    "kid": "e89a4992-6b72-447b-8ccf-4a5752dd97bb",
    "modified_at": "2022-07-23T15:50:06.608Z",
    "repository": "kara.moe",
    "tags": {
      "authors": [
        "efb1b957-5f9c-4e9e-9d0d-1f8abe4238aa"
      ],
      "collections": [
        "c7db86a0-ff64-4044-9be4-66dd1ef1d1c1"
      ],
      "creators": [
        "930330fc-79d4-464b-86d7-72cf60716fc6"
      ],
      "groups": [
        "ae613721-1fbe-480d-ba6b-d6d0702b184d",
        "df5f446f-d161-4760-8e0c-822e70ea03ae"
      ],
      "langs": [
        "de5eda1c-5fb3-46a6-9606-d4554fc5a1d6"
      ],
      "origins": [
        "5106d71b-a78e-4d19-a16d-f8fb6719538a",
        "dbedd6b3-d125-4cd8-aa32-c4175e4ca3a3"
      ],
      "platforms": [
        "0a880bfc-d0e5-448b-98d2-4ba7b3106641",
        "248d92ee-8c02-43bc-86e2-cc6029883564",
        "3c15f758-e1bc-4266-8bb9-3c14112f504a"
      ],
      "series": [
        "902b778f-6f04-4029-b9a3-9cec63b8d451"
      ],
      "singers": [
        "343ed403-be13-400e-916c-a04694c2dc1d"
      ],
      "songtypes": [
        "7be1b15c-cff8-4b37-a649-5c90f3d569a9"
      ],
      "songwriters": [
        "343ed403-be13-400e-916c-a04694c2dc1d"
      ]
    },
    "titles": {
      "eng": "Invincible Rainbow Arrow"
    },
    "titles_default_language": "eng",
    "title": "Invincible Rainbow Arrow",
    "year": 2019
  }
}