{
  "header": {
    "version": 4,
    "description": "Karaoke Mugen Karaoke Data File"
  },
  "medias": [
    {
      "version": "Default",
      "filename": "ENG - Erasure - MV - Always.mp4",
      "audiogain": 0.95,
      "loudnorm": "-18.00,-4.98,5.60,-28.27,-1.54",
      "filesize": 28769025,
      "duration": 242,
      "default": true,
      "lyrics": [
        {
          "filename": "ENG - Erasure - MV - Always.ass",
          "default": true,
          "version": "Default",
          "subchecksum": "75b7cf1f3defc9c26f0741be8d8de3ae"
        }
      ]
    }
  ],
  "data": {
    "created_at": "2017-10-11T17:01:54.000Z",
    "kid": "9f92c6ef-0f30-49d4-9270-2da7f392f146",
    "modified_at": "2021-02-25T14:48:39.004Z",
    "repository": "kara.moe",
    "tags": {
      "authors": [
        "611aa6ee-ebf8-4ef5-8eed-9f1eaec5117e"
      ],
      "collections": [
        "efe171c0-e8a1-4d03-98c0-60ecf741ad52"
      ],
      "creators": [
        "5ed42d66-4b81-4a4e-9b2a-f94a729579ee",
        "b4e4e74d-dbca-45d2-ae81-8ed6932295d7"
      ],
      "families": [
        "5391f9fe-638c-415f-8dc9-958e3a2c5787"
      ],
      "groups": [
        "24db50aa-a126-4d34-a48a-e45db79c4245",
        "f5e7d2fc-0cbb-4fb9-a84a-b25dfb0e9e77"
      ],
      "langs": [
        "de5eda1c-5fb3-46a6-9606-d4554fc5a1d6"
      ],
      "singers": [
        "b6cde612-6e32-4d51-aae5-31e8baa738a6"
      ],
      "songtypes": [
        "7be1b15c-cff8-4b37-a649-5c90f3d569a9"
      ],
      "songwriters": [
        "0eace9c7-0f84-4013-8d6f-6651dc251bce",
        "115e54b6-2727-495a-bc9d-34b413923c1a"
      ]
    },
    "title": "Always",
    "titles": {
      "eng": "Always"
    },
    "year": 1994
  }
}