{
  "header": {
    "version": 4,
    "description": "Karaoke Mugen Karaoke Data File"
  },
  "medias": [
    {
      "version": "Default",
      "filename": "ENG - Modern Talking - MV - You're My Heart, You're My Soul.mp4",
      "audiogain": -0.46,
      "loudnorm": "-17.80,-4.54,3.00,-27.98,-0.45",
      "filesize": 49889810,
      "duration": 195,
      "default": true,
      "lyrics": [
        {
          "filename": "ENG - Modern Talking - MV - You're My Heart, You're My Soul.ass",
          "default": true,
          "version": "Default"
        }
      ]
    }
  ],
  "data": {
    "created_at": "2023-02-25T23:41:46.509Z",
    "ignoreHooks": false,
    "kid": "36c78308-d516-4f10-b2ed-cd0215518469",
    "modified_at": "2023-07-20T22:15:59.645Z",
    "repository": "kara.moe",
    "tags": {
      "authors": [
        "9bea7e05-2dec-434e-92ff-fcb53f69fdb7",
        "f70c7314-b8d3-4bf4-96a0-dc8b2c5a6c94"
      ],
      "collections": [
        "efe171c0-e8a1-4d03-98c0-60ecf741ad52"
      ],
      "creators": [
        "2bb82e0e-5890-43ea-bd56-9c6376c353f1",
        "4f14f747-746f-4dbf-985e-107d52261bb9"
      ],
      "families": [
        "5391f9fe-638c-415f-8dc9-958e3a2c5787"
      ],
      "groups": [
        "7792cc27-9ff9-4d47-9287-2338b7db1575",
        "966d1e74-d1f2-41e2-ab04-24279c22f562"
      ],
      "langs": [
        "de5eda1c-5fb3-46a6-9606-d4554fc5a1d6"
      ],
      "singers": [
        "8384334d-ed93-4de5-8438-3f2888adc296"
      ],
      "songtypes": [
        "7be1b15c-cff8-4b37-a649-5c90f3d569a9"
      ],
      "songwriters": [
        "3c9a59b9-46a7-40d8-9891-c692f1b54ddd"
      ]
    },
    "titles": {
      "eng": "You're My Heart, You're My Soul"
    },
    "titles_default_language": "eng",
    "year": 1984
  }
}