{
  "header": {
    "version": 4,
    "description": "Karaoke Mugen Karaoke Data File"
  },
  "medias": [
    {
      "version": "Default",
      "filename": "ENG - Persona 4 The Ultimate in Mayonaka Arena - PS3 XBOX360 GAME OP - Best Friends.mp4",
      "audiogain": -8.83,
      "loudnorm": "-9.42,1.22,8.30,-19.68,-1.10",
      "filesize": 39631382,
      "duration": 97,
      "default": true,
      "lyrics": [
        {
          "filename": "ENG - Persona 4 The Ultimate in Mayonaka Arena - PS3 XBOX360 GAME OP - Best Friends.ass",
          "default": true,
          "version": "Default",
          "subchecksum": "7f844a0e3e524819c5f1dcc86fd2f09a"
        }
      ]
    }
  ],
  "data": {
    "created_at": "2017-10-11T17:01:42.000Z",
    "kid": "3b62ddc4-5c0f-4437-b171-c76607a81c92",
    "modified_at": "2021-02-25T10:14:52.693Z",
    "repository": "kara.moe",
    "tags": {
      "authors": [
        "5a629611-96b4-422c-b309-ba7a58e263a2"
      ],
      "collections": [
        "c7db86a0-ff64-4044-9be4-66dd1ef1d1c1"
      ],
      "creators": [
        "e9bb3a58-48d2-478c-bfe7-95237ddfe0fd"
      ],
      "groups": [
        "ae613721-1fbe-480d-ba6b-d6d0702b184d"
      ],
      "langs": [
        "de5eda1c-5fb3-46a6-9606-d4554fc5a1d6"
      ],
      "misc": [
        "fe819ff1-9db8-4a0f-85dc-0e322c9126c4"
      ],
      "platforms": [
        "7f63ff91-7961-4488-888d-4bf46eea3a2a",
        "d56f8d9d-9ccd-4ac8-a164-da0e62d1c060"
      ],
      "series": [
        "389ed312-4754-4185-8f82-7801217c9ea0"
      ],
      "singers": [
        "c5ce42f3-d4e1-417d-aded-e2ad4b2eab5f"
      ],
      "songtypes": [
        "f02ad9b3-0bd9-4aad-85b3-9976739ba0e4"
      ],
      "songwriters": [
        "8b713fb8-07b2-4775-a094-8ca07fede289",
        "ec3a6acb-6751-49d9-84c7-b6b01ec163f4"
      ],
      "franchises": [
        "d8030743-4563-41b9-a3e3-30a0b2fb2edb"
      ],
      "origins": [
        "dbedd6b3-d125-4cd8-aa32-c4175e4ca3a3"
      ]
    },
    "title": "Best Friends",
    "titles": {
      "eng": "Best Friends"
    },
    "year": 2012
  }
}