{
  "header": {
    "version": 4,
    "description": "Karaoke Mugen Karaoke Data File"
  },
  "medias": [
    {
      "version": "Default",
      "filename": "ENG - Bayonetta 2 - GAME WIIU AMV - Tomorrow Is Mine ~ Short Vers.mp4",
      "audiogain": -6.3,
      "loudnorm": "-10.66,0.41,2.10,-20.94,-0.29",
      "filesize": 106685861,
      "duration": 93,
      "default": true,
      "lyrics": [
        {
          "filename": "ENG - Bayonetta 2 - GAME WIIU AMV - Tomorrow Is Mine ~ Short Vers.ass",
          "default": true,
          "version": "Default"
        }
      ]
    }
  ],
  "data": {
    "comment": "Video 60fps",
    "created_at": "2022-10-16T19:30:38.799Z",
    "ignoreHooks": false,
    "kid": "05dbff4f-1091-4342-ae3b-ca78b109c75a",
    "modified_at": "2022-10-16T20:04:35.637Z",
    "repository": "kara.moe",
    "tags": {
      "authors": [
        "fb28c6d3-a81e-40c0-9a4c-e3268c60a64b"
      ],
      "collections": [
        "c7db86a0-ff64-4044-9be4-66dd1ef1d1c1"
      ],
      "creators": [
        "ace53238-953d-43ed-8a2d-5ec02d2c1a7c",
        "632a70fe-d6e9-4433-b2c9-3b0ef6996722"
      ],
      "groups": [
        "8e209ae4-4381-438f-89dc-1b21752027d2"
      ],
      "langs": [
        "de5eda1c-5fb3-46a6-9606-d4554fc5a1d6"
      ],
      "platforms": [
        "293e4786-9ac8-4c83-84f2-2e6cd14b5e8d"
      ],
      "series": [
        "2bf8ff57-e0c6-4bb8-8180-fd115675cf70"
      ],
      "singers": [
        "6ba02905-b320-482d-a893-fa38a204810f"
      ],
      "songtypes": [
        "a6c79ce5-89ee-4d50-afe8-3abd7317f6c2"
      ],
      "songwriters": [
        "ad399d7f-f478-4178-a040-db16b89fe8ba",
        "fbc57564-0992-4cd9-be1c-2889492cfe46"
      ],
      "versions": [
        "d125c80a-86c1-4321-88e9-07b7800679b6"
      ],
      "franchises": [
        "d103261b-ff8c-4d1e-bc65-b28f836349b4"
      ],
      "origins": [
        "dbedd6b3-d125-4cd8-aa32-c4175e4ca3a3"
      ]
    },
    "titles": {
      "eng": "Tomorrow Is Mine"
    },
    "titles_default_language": "eng",
    "title": "Tomorrow Is Mine",
    "year": 2020
  }
}