{
  "header": {
    "version": 4,
    "description": "Karaoke Mugen Karaoke Data File"
  },
  "medias": [
    {
      "version": "Default",
      "filename": "ENG - Nathan Evans - MV - Wellerman (Sea Shanty).mp4",
      "audiogain": -8.99,
      "loudnorm": "-9.15,0.68,2.80,-19.29,-0.24",
      "filesize": 38360309,
      "duration": 155,
      "default": true,
      "lyrics": [
        {
          "filename": "ENG - Nathan Evans - MV - Wellerman (Sea Shanty).ass",
          "default": true,
          "version": "Default"
        }
      ]
    }
  ],
  "data": {
    "created_at": "2023-03-15T21:17:07.723Z",
    "ignoreHooks": false,
    "kid": "d61a0d29-35de-4194-9cbc-30166fcf6719",
    "modified_at": "2023-08-05T12:32:08.704Z",
    "repository": "kara.moe",
    "tags": {
      "authors": [
        "a13fe1e7-f532-4e1c-a4a9-678b8cdc10fb"
      ],
      "collections": [
        "efe171c0-e8a1-4d03-98c0-60ecf741ad52"
      ],
      "creators": [
        "ee954a78-2b37-4071-b094-f9945d846d63"
      ],
      "families": [
        "5391f9fe-638c-415f-8dc9-958e3a2c5787"
      ],
      "groups": [
        "8e209ae4-4381-438f-89dc-1b21752027d2"
      ],
      "langs": [
        "de5eda1c-5fb3-46a6-9606-d4554fc5a1d6"
      ],
      "singers": [
        "69bab806-be0a-4273-9873-0b284faa0d01"
      ],
      "songtypes": [
        "7be1b15c-cff8-4b37-a649-5c90f3d569a9"
      ]
    },
    "titles": {
      "eng": "Wellerman (Sea Shanty)"
    },
    "titles_default_language": "eng",
    "year": 2021
  }
}