{
  "header": {
    "version": 4,
    "description": "Karaoke Mugen Karaoke Data File"
  },
  "medias": [
    {
      "version": "Default",
      "filename": "ENG - The Beatles - MV - Lucy in the Sky with Diamonds.mp4",
      "audiogain": -6.31,
      "loudnorm": "-12.80,0.08,7.20,-22.91,-1.07",
      "filesize": 32698458,
      "duration": 199,
      "default": true,
      "lyrics": [
        {
          "filename": "ENG - The Beatles - MV - Lucy in the Sky with Diamonds.ass",
          "default": true,
          "version": "Default"
        }
      ]
    }
  ],
  "data": {
    "created_at": "2022-04-24T12:18:33.846Z",
    "ignoreHooks": false,
    "kid": "4fb0a123-2052-4599-8774-54516c81be75",
    "modified_at": "2022-04-24T12:30:55.123Z",
    "repository": "kara.moe",
    "tags": {
      "authors": [
        "90414ca0-ab36-4879-8810-b032c6bfdab0"
      ],
      "collections": [
        "efe171c0-e8a1-4d03-98c0-60ecf741ad52"
      ],
      "creators": [
        "f3c0da2d-91a5-48b4-87d2-b246e8826cda"
      ],
      "families": [
        "0377db02-3af6-43b8-9b08-c759df3d25c3"
      ],
      "groups": [
        "b4240f1f-200d-4d10-b5eb-d3a740eed323"
      ],
      "langs": [
        "de5eda1c-5fb3-46a6-9606-d4554fc5a1d6"
      ],
      "singers": [
        "144c32f0-3568-4df0-95cb-e1f86d563574"
      ],
      "songtypes": [
        "7be1b15c-cff8-4b37-a649-5c90f3d569a9"
      ],
      "songwriters": [
        "2337cde2-3d4b-485d-80a9-5255d07d0056",
        "b628ad85-67d2-4001-8ec5-47907249ece9"
      ]
    },
    "titles": {
      "eng": "Lucy in the Sky with Diamonds"
    },
    "titles_default_language": "eng",
    "title": "Lucy in the Sky with Diamonds",
    "year": 1967
  }
}