{
  "header": {
    "version": 4,
    "description": "Karaoke Mugen Karaoke Data File"
  },
  "medias": [
    {
      "version": "Default",
      "filename": "ENG - Cornelia Jakobs - AUDIO - Hold Me Closer.mp3",
      "audiogain": -7.77,
      "loudnorm": "-8.31,0.95,5.60,-18.84,-1.03",
      "filesize": 3341358,
      "duration": 199,
      "default": true,
      "lyrics": [
        {
          "filename": "ENG - Cornelia Jakobs - AUDIO - Hold Me Closer.ass",
          "default": true,
          "version": "Default"
        }
      ]
    }
  ],
  "data": {
    "created_at": "2022-12-10T23:57:43.229Z",
    "ignoreHooks": false,
    "kid": "b8999909-40b4-4d43-9e76-9a0f4e837226",
    "modified_at": "2022-12-11T00:02:40.034Z",
    "repository": "kara.moe",
    "tags": {
      "authors": [
        "b4f85fe8-01ca-4f70-8b7f-f03c2f028d27"
      ],
      "collections": [
        "efe171c0-e8a1-4d03-98c0-60ecf741ad52"
      ],
      "creators": [
        "0b0ec54b-97c1-4f5f-bd9b-5c0299cb79f3"
      ],
      "groups": [
        "8e209ae4-4381-438f-89dc-1b21752027d2"
      ],
      "langs": [
        "de5eda1c-5fb3-46a6-9606-d4554fc5a1d6"
      ],
      "singers": [
        "2a9f9132-025a-4737-affa-00d35416356c"
      ],
      "songtypes": [
        "42a262ae-acba-4ab5-a446-c5789c96c821"
      ],
      "songwriters": [
        "2a9f9132-025a-4737-affa-00d35416356c",
        "313fa049-5119-43f7-a99d-7c52ebffd36b",
        "fe5de6c9-3ead-48b1-adce-9dac28d90892"
      ]
    },
    "titles": {
      "eng": "Hold Me Closer"
    },
    "titles_default_language": "eng",
    "year": 2022
  }
}