{
  "header": {
    "version": 4,
    "description": "Karaoke Mugen Karaoke Data File"
  },
  "medias": [
    {
      "version": "Default",
      "filename": "ENG - Billy Joel - MV - We Didn't Start the Fire.mp4",
      "loudnorm": "-13.19,-0.88,4.10,-23.26,-0.74",
      "filesize": 16244909,
      "duration": 245,
      "default": true,
      "lyrics": [
        {
          "filename": "ENG - Billy Joel - MV - We Didn't Start the Fire.ass",
          "default": true,
          "version": "Default"
        }
      ]
    }
  ],
  "data": {
    "created_at": "2023-09-01T09:46:02.101Z",
    "ignoreHooks": false,
    "kid": "435b3bb8-351e-41bf-83e9-b16347bd895c",
    "modified_at": "2023-09-01T09:46:02.622Z",
    "repository": "kara.moe",
    "tags": {
      "authors": [
        "9cdf3b70-3550-457c-bdb9-038f3253c6ad"
      ],
      "collections": [
        "efe171c0-e8a1-4d03-98c0-60ecf741ad52"
      ],
      "creators": [
        "5b29bf8d-93e9-4601-9992-0b2b6d87e27d"
      ],
      "families": [
        "5391f9fe-638c-415f-8dc9-958e3a2c5787"
      ],
      "langs": [
        "de5eda1c-5fb3-46a6-9606-d4554fc5a1d6"
      ],
      "singers": [
        "9af1adc5-eb57-4714-87cc-16aef85a705e"
      ],
      "songtypes": [
        "7be1b15c-cff8-4b37-a649-5c90f3d569a9"
      ],
      "songwriters": [
        "9af1adc5-eb57-4714-87cc-16aef85a705e"
      ],
      "groups": [
        "7792cc27-9ff9-4d47-9287-2338b7db1575"
      ]
    },
    "titles": {
      "eng": "We Didn't Start the Fire"
    },
    "titles_default_language": "eng",
    "year": 1989
  }
}