{
  "header": {
    "version": 4,
    "description": "Karaoke Mugen Karaoke Data File"
  },
  "medias": [
    {
      "version": "Default",
      "filename": "ENG - Tenacious D in The Pick of Destiny - MOVIE IN - Beelzeboss.mp4",
      "audiogain": 13.06,
      "loudnorm": "-30.16,-13.90,7.80,-40.47,-0.06",
      "filesize": 72370959,
      "duration": 330,
      "default": true,
      "lyrics": [
        {
          "filename": "ENG - Tenacious D in The Pick of Destiny - MOVIE IN - Beelzeboss.ass",
          "default": true,
          "version": "Default"
        }
      ]
    }
  ],
  "data": {
    "created_at": "2019-03-17T22:19:32.000Z",
    "ignoreHooks": false,
    "kid": "5f297f53-2793-4613-a8c3-9d11c9235de8",
    "modified_at": "2023-07-31T14:15:06.581Z",
    "repository": "kara.moe",
    "tags": {
      "authors": [
        "9cdf3b70-3550-457c-bdb9-038f3253c6ad"
      ],
      "collections": [
        "c7db86a0-ff64-4044-9be4-66dd1ef1d1c1"
      ],
      "creators": [
        "d2c32393-87c2-40d0-b363-3aa79e9b69ce"
      ],
      "families": [
        "5391f9fe-638c-415f-8dc9-958e3a2c5787"
      ],
      "groups": [
        "3c14c864-533c-49e6-a3cc-6969f1233775"
      ],
      "langs": [
        "de5eda1c-5fb3-46a6-9606-d4554fc5a1d6"
      ],
      "misc": [
        "86705d4b-24e4-4756-9687-2b9c98bcf366"
      ],
      "origins": [
        "c8ca9dea-d8b4-48fe-8427-d911653232e9"
      ],
      "series": [
        "b9721e56-9887-455c-9f91-05daa5966e02"
      ],
      "singers": [
        "46e414f4-0ac2-4bd5-ac57-1a95bcb0efd0"
      ],
      "songtypes": [
        "5e5250d9-351a-4a82-98eb-55db50ad8962"
      ],
      "songwriters": [
        "46e414f4-0ac2-4bd5-ac57-1a95bcb0efd0"
      ]
    },
    "titles": {
      "eng": "Beelzeboss"
    },
    "titles_default_language": "eng",
    "year": 2006
  }
}