{
  "header": {
    "version": 4,
    "description": "Karaoke Mugen Karaoke Data File"
  },
  "medias": [
    {
      "version": "Default",
      "filename": "ENG - Final Fantasy XIV - GAME PS4 AUDIO IN - Dedicated to Moonlight.mp3",
      "audiogain": -6.35,
      "loudnorm": "-10.18,0.49,4.30,-20.33,-0.38",
      "filesize": 8006113,
      "duration": 342,
      "default": true,
      "lyrics": [
        {
          "filename": "ENG - Final Fantasy XIV - GAME PS4 AUDIO IN - Dedicated to Moonlight.ass",
          "default": true,
          "version": "Default"
        }
      ]
    }
  ],
  "data": {
    "comment": "Paroles prises sur le blog officiel, et piste achetée sur Itunes",
    "created_at": "2023-02-26T19:01:42.577Z",
    "ignoreHooks": false,
    "kid": "ae58e095-c983-43f4-b4a0-0ed1fdd4b91d",
    "modified_at": "2023-02-26T19:03:18.531Z",
    "repository": "kara.moe",
    "tags": {
      "authors": [
        "31a3036f-e2af-4cc9-a45e-bdf9d42ee041"
      ],
      "collections": [
        "c7db86a0-ff64-4044-9be4-66dd1ef1d1c1"
      ],
      "creators": [
        "ac4a5180-97af-4679-adcd-70ab39919d48"
      ],
      "groups": [
        "8e209ae4-4381-438f-89dc-1b21752027d2"
      ],
      "langs": [
        "de5eda1c-5fb3-46a6-9606-d4554fc5a1d6"
      ],
      "misc": [
        "86705d4b-24e4-4756-9687-2b9c98bcf366"
      ],
      "platforms": [
        "248d92ee-8c02-43bc-86e2-cc6029883564",
        "3c15f758-e1bc-4266-8bb9-3c14112f504a",
        "d22db878-440d-46c1-a749-ae575c78983d"
      ],
      "series": [
        "728e625e-ce49-40bf-92c0-b0e2efc6a994"
      ],
      "singers": [
        "e99073e8-577f-4a08-a2b1-d93f9f8aabc9"
      ],
      "songtypes": [
        "42a262ae-acba-4ab5-a446-c5789c96c821",
        "5e5250d9-351a-4a82-98eb-55db50ad8962"
      ],
      "songwriters": [
        "75b6226d-95e2-4ba4-979d-da381e1c0e7b"
      ],
      "franchises": [
        "595c5b14-54f8-4885-a689-02296506a704"
      ]
    },
    "titles": {
      "eng": "Dedicated to Moonlight"
    },
    "titles_default_language": "eng",
    "year": 2023
  }
}