{
  "header": {
    "version": 4,
    "description": "Karaoke Mugen Karaoke Data File"
  },
  "medias": [
    {
      "version": "Default",
      "filename": "ENG - Kinsou no Vermeil - ED - Mortal With You.mp4",
      "loudnorm": "-20.90,-7.02,13.10,-31.65,-1.25",
      "filesize": 51369198,
      "duration": 90,
      "default": true,
      "lyrics": [
        {
          "filename": "ENG - Kinsou no Vermeil - ED - Mortal With You.ass",
          "default": true,
          "version": "Default"
        }
      ]
    }
  ],
  "data": {
    "created_at": "2023-09-05T20:51:46.929Z",
    "ignoreHooks": false,
    "kid": "f56e641c-8ab1-45e2-a728-75c3c2d5ada1",
    "modified_at": "2023-09-05T21:14:15.937Z",
    "repository": "kara.moe",
    "tags": {
      "authors": [
        "4749577f-84d7-470b-bfa8-09c6f9a97c32"
      ],
      "collections": [
        "c7db86a0-ff64-4044-9be4-66dd1ef1d1c1"
      ],
      "creators": [
        "5f38ec21-3253-429c-b159-a7a24331bd96"
      ],
      "families": [
        "0377db02-3af6-43b8-9b08-c759df3d25c3"
      ],
      "groups": [
        "8e209ae4-4381-438f-89dc-1b21752027d2"
      ],
      "langs": [
        "de5eda1c-5fb3-46a6-9606-d4554fc5a1d6"
      ],
      "misc": [
        "fe819ff1-9db8-4a0f-85dc-0e322c9126c4"
      ],
      "origins": [
        "938de218-5343-4865-94d3-fb33f2eaa152"
      ],
      "series": [
        "0889bf4d-2d8a-4d42-bd3d-1f1736fabfba"
      ],
      "singers": [
        "f6cd900b-9a73-446f-b54e-84663b3cfb75"
      ],
      "songtypes": [
        "38c77c56-2b95-4040-b676-0994a8cb0597"
      ],
      "songwriters": [
        "a1b5be43-a6b7-40a5-88cf-7449a9da5422",
        "d1026da5-b413-42c7-912a-3d2c068cad34"
      ]
    },
    "titles": {
      "eng": "Mortal With You"
    },
    "titles_default_language": "eng",
    "year": 2022
  }
}