{
  "header": {
    "version": 4,
    "description": "Karaoke Mugen Karaoke Data File"
  },
  "medias": [
    {
      "version": "Default",
      "filename": "ENG - RWBY Hyousetsu Teikoku - CS IN - Mirror Mirror.mp4",
      "audiogain": 4.94,
      "loudnorm": "-24.52,-4.45,10.00,-35.67,-1.35",
      "filesize": 39344759,
      "duration": 144,
      "default": true,
      "lyrics": [
        {
          "filename": "ENG - RWBY Hyousetsu Teikoku - CS IN - Mirror Mirror.ass",
          "default": true,
          "version": "Default"
        }
      ]
    }
  ],
  "data": {
    "created_at": "2022-09-06T07:57:26.507Z",
    "ignoreHooks": false,
    "kid": "79f6aaeb-35aa-41c9-96e4-0afddb575479",
    "modified_at": "2022-09-06T09:05:35.694Z",
    "parents": [
      "8be3b1b2-2261-4bb5-8129-38ffd78a75bd"
    ],
    "repository": "kara.moe",
    "tags": {
      "authors": [
        "9cdf3b70-3550-457c-bdb9-038f3253c6ad"
      ],
      "collections": [
        "c7db86a0-ff64-4044-9be4-66dd1ef1d1c1"
      ],
      "creators": [
        "86f7951e-5483-4382-84ff-e7cdce425bdd",
        "c3bd80ef-d1fe-427f-913f-a2ba2fe66114"
      ],
      "families": [
        "0377db02-3af6-43b8-9b08-c759df3d25c3"
      ],
      "groups": [
        "8e209ae4-4381-438f-89dc-1b21752027d2"
      ],
      "langs": [
        "de5eda1c-5fb3-46a6-9606-d4554fc5a1d6"
      ],
      "origins": [
        "938de218-5343-4865-94d3-fb33f2eaa152"
      ],
      "series": [
        "8aa317a8-207e-46f0-9525-37bf1edbab94"
      ],
      "singers": [
        "f2e9d52b-1b80-4fb5-8754-628462e094e5"
      ],
      "songtypes": [
        "5e5250d9-351a-4a82-98eb-55db50ad8962",
        "a8a2616c-b5a1-4df3-ad6f-89291bc67dee"
      ],
      "songwriters": [
        "bf136ea0-5cb0-493b-bd86-a780f55d0cb2"
      ],
      "franchises": [
        "186e4181-0393-4db5-b9d5-7bb33cd946d8"
      ]
    },
    "titles": {
      "eng": "Mirror Mirror"
    },
    "titles_default_language": "eng",
    "title": "Mirror Mirror",
    "year": 2022
  }
}