{
  "header": {
    "version": 4,
    "description": "Karaoke Mugen Karaoke Data File"
  },
  "medias": [
    {
      "version": "Default",
      "filename": "ENG - Haddaway - MV - What Is Love.mp4",
      "audiogain": -7.03,
      "loudnorm": "-10.48,0.64,5.20,-20.72,-0.76",
      "filesize": 18044604,
      "duration": 240,
      "default": true,
      "lyrics": [
        {
          "filename": "ENG - Haddaway - MV - What Is Love.ass",
          "default": true,
          "version": "Default"
        }
      ]
    }
  ],
  "data": {
    "created_at": "2021-05-21T20:12:13.165Z",
    "kid": "579bac16-cd0e-406d-a72e-3b39a1d13308",
    "modified_at": "2022-07-20T11:41:04.177Z",
    "repository": "kara.moe",
    "tags": {
      "authors": [
        "0c8e4377-ee35-4896-89ed-9d06a1b5acd5"
      ],
      "creators": [
        "853ef7ea-3e0b-4d9f-8307-b354623f7711"
      ],
      "families": [
        "5391f9fe-638c-415f-8dc9-958e3a2c5787"
      ],
      "groups": [
        "24db50aa-a126-4d34-a48a-e45db79c4245"
      ],
      "langs": [
        "de5eda1c-5fb3-46a6-9606-d4554fc5a1d6"
      ],
      "singers": [
        "22a91b48-51b1-4169-842a-446f6e4ca38f"
      ],
      "songtypes": [
        "7be1b15c-cff8-4b37-a649-5c90f3d569a9"
      ],
      "songwriters": [
        "0b24ca8e-2ee7-4c11-b363-49528bcc2f2d",
        "c3bf548c-a686-4cee-966b-b8c2ee645b64"
      ],
      "collections": [
        "efe171c0-e8a1-4d03-98c0-60ecf741ad52"
      ],
      "warnings": [
        "51288600-29e0-4e41-a42b-77f0498e5691"
      ]
    },
    "titles": {
      "eng": "What Is Love"
    },
    "titles_default_language": "eng",
    "title": "What Is Love",
    "year": 1993
  }
}