{
  "header": {
    "version": 4,
    "description": "Karaoke Mugen Karaoke Data File"
  },
  "medias": [
    {
      "version": "Default",
      "filename": "ENG - Mans Zelmerlow - LIVE - Heroes ~ Full Vers.mp4",
      "audiogain": 3.53,
      "loudnorm": "-21.67,-6.80,9.30,-31.76,-1.69",
      "filesize": 26237031,
      "duration": 197,
      "default": true,
      "lyrics": [
        {
          "filename": "ENG - Mans Zelmerlow - LIVE - Heroes ~ Full Vers.ass",
          "default": true,
          "version": "Default"
        }
      ]
    }
  ],
  "data": {
    "created_at": "2022-01-22T19:26:35.074Z",
    "ignoreHooks": false,
    "kid": "78d65bee-556f-41d4-a3cd-d34ee863502a",
    "modified_at": "2022-12-21T22:36:33.733Z",
    "repository": "kara.moe",
    "tags": {
      "authors": [
        "0e9b1204-bd70-4c9c-8b22-471fa101fa7b",
        "9f5f3ff9-e254-41af-9e98-36ee29840b47"
      ],
      "collections": [
        "efe171c0-e8a1-4d03-98c0-60ecf741ad52"
      ],
      "creators": [
        "8b64a50c-a04b-40cc-84c1-d60311b8abd5"
      ],
      "families": [
        "5391f9fe-638c-415f-8dc9-958e3a2c5787"
      ],
      "groups": [
        "ae613721-1fbe-480d-ba6b-d6d0702b184d"
      ],
      "langs": [
        "de5eda1c-5fb3-46a6-9606-d4554fc5a1d6"
      ],
      "origins": [
        "8dd8d2a4-913a-4b0b-a555-1121cc603a57"
      ],
      "singers": [
        "0c41c537-54d6-4177-8808-564be5108fd9"
      ],
      "songtypes": [
        "a0167949-580c-4de3-bf13-497e462e02f3"
      ],
      "songwriters": [
        "032627c2-6170-40a0-a8b7-30de35135cd3",
        "594c9786-2f6c-4d6c-b504-12dae4dc5bd6",
        "e40aad98-e200-4c8e-ac70-3ef50656e158"
      ],
      "versions": [
        "c2143a7f-6970-450e-8a79-0302db9220a9"
      ]
    },
    "titles": {
      "eng": "Heroes"
    },
    "titles_default_language": "eng",
    "year": 2015
  }
}