{
  "header": {
    "version": 4,
    "description": "Karaoke Mugen Karaoke Data File"
  },
  "medias": [
    {
      "version": "Default",
      "filename": "ENG - Overlord IV - ED - No Man's Dawn.mp4",
      "audiogain": -1.57,
      "loudnorm": "-16.01,-6.46,5.30,-26.12,-0.78",
      "filesize": 27345063,
      "duration": 90,
      "default": true,
      "lyrics": [
        {
          "filename": "ENG - Overlord IV - ED - No Man's Dawn.ass",
          "default": true,
          "version": "Default"
        }
      ]
    }
  ],
  "data": {
    "created_at": "2023-02-05T14:26:08.063Z",
    "ignoreHooks": false,
    "kid": "347c99c9-6c4c-4b43-a9bb-a479f2e31ef1",
    "modified_at": "2023-02-05T14:29:11.916Z",
    "repository": "kara.moe",
    "tags": {
      "authors": [
        "8605a8b9-3b45-44b9-9d98-1a25096bf702"
      ],
      "collections": [
        "c7db86a0-ff64-4044-9be4-66dd1ef1d1c1"
      ],
      "creators": [
        "9c5cf6ba-0bc8-4cfe-a63c-e9be3a14e9fd",
        "cc52425c-a381-4a81-a4b9-ac0d5ccba5ab"
      ],
      "families": [
        "0377db02-3af6-43b8-9b08-c759df3d25c3"
      ],
      "genres": [
        "4b80eca6-f44f-4262-a8d0-b6879d6b70cb"
      ],
      "groups": [
        "8e209ae4-4381-438f-89dc-1b21752027d2"
      ],
      "langs": [
        "4dcf9614-7914-42aa-99f4-dbce2e059133",
        "de5eda1c-5fb3-46a6-9606-d4554fc5a1d6"
      ],
      "misc": [
        "fe819ff1-9db8-4a0f-85dc-0e322c9126c4"
      ],
      "origins": [
        "938de218-5343-4865-94d3-fb33f2eaa152"
      ],
      "series": [
        "cf70142e-2a86-4f61-a740-777fe792ddbc"
      ],
      "singers": [
        "c250b430-d384-46da-a0bb-594ba061b8a6"
      ],
      "songtypes": [
        "38c77c56-2b95-4040-b676-0994a8cb0597"
      ],
      "songwriters": [
        "1900b35d-bd27-4a89-9b27-6e3e2af731fc",
        "78fa17da-da22-49d1-bdd6-577a0ae659a6"
      ],
      "franchises": [
        "55cdf4fe-5d56-4f40-9667-00289ca118e8"
      ]
    },
    "titles": {
      "eng": "No Man's Dawn"
    },
    "titles_default_language": "eng",
    "year": 2022
  }
}