{
  "header": {
    "version": 4,
    "description": "Karaoke Mugen Karaoke Data File"
  },
  "medias": [
    {
      "version": "Default",
      "filename": "ENG - Gura Gawr - STREAM - The Last Stand ~ Cover Vers.mp4",
      "audiogain": -1.48,
      "loudnorm": "-17.06,-2.03,5.40,-27.32,-0.24",
      "filesize": 61425770,
      "duration": 227,
      "default": true,
      "lyrics": [
        {
          "filename": "ENG - Gura Gawr - STREAM - The Last Stand ~ Cover Vers.ass",
          "default": true,
          "version": "Default"
        }
      ]
    }
  ],
  "data": {
    "created_at": "2021-10-23T20:46:36.282Z",
    "kid": "640be59b-50a8-449e-8019-09e8cfbdc561",
    "modified_at": "2021-12-27T17:47:46.031Z",
    "repository": "kara.moe",
    "tags": {
      "authors": [
        "278c6742-0b75-43dd-b317-2ea112952b4a"
      ],
      "collections": [
        "c7db86a0-ff64-4044-9be4-66dd1ef1d1c1"
      ],
      "creators": [
        "0263d413-17bb-4cee-a311-6dd896eda1c9"
      ],
      "families": [
        "0377db02-3af6-43b8-9b08-c759df3d25c3"
      ],
      "groups": [
        "8c22c899-b3ed-42da-a548-ce00f950798b",
        "8e209ae4-4381-438f-89dc-1b21752027d2"
      ],
      "langs": [
        "de5eda1c-5fb3-46a6-9606-d4554fc5a1d6"
      ],
      "origins": [
        "5106d71b-a78e-4d19-a16d-f8fb6719538a"
      ],
      "singers": [
        "87f8830b-c3f6-413b-9551-515733ebac41"
      ],
      "songtypes": [
        "55ce3d79-dcc2-453c-b00a-60ce0c1eba1c"
      ],
      "songwriters": [
        "2ee25ec6-2224-4032-9bc5-97693d7d2df7",
        "7b8233a7-0c86-495d-bdcb-d9dda748be4b",
        "9f39e14a-d110-499e-b87b-1cc7174caacc"
      ],
      "versions": [
        "03e1e1d2-8641-47b7-bbcb-39a3df9ff21c"
      ]
    },
    "titles": {
      "eng": "The Last Stand"
    },
    "title": "The Last Stand",
    "year": 2021
  }
}