{
  "header": {
    "version": 4,
    "description": "Karaoke Mugen Karaoke Data File"
  },
  "medias": [
    {
      "version": "Default",
      "filename": "ENG - Love Live! School Idol Festival All Stars - GAME GAME MV - Just Believe!!! ~ Short Vers.mp4",
      "audiogain": 4.91,
      "loudnorm": "-22.14,-10.13,11.80,-32.68,-1.11",
      "filesize": 140696536,
      "duration": 124,
      "default": true,
      "lyrics": [
        {
          "filename": "ENG - Love Live! School Idol Festival All Stars - GAME GAME MV - Just Believe!!! ~ Short Vers.ass",
          "default": true,
          "version": "Default"
        }
      ]
    }
  ],
  "data": {
    "created_at": "2021-11-28T23:40:56.587Z",
    "ignoreHooks": false,
    "kid": "6832e5e5-5294-4e6e-a699-366e72ca92bf",
    "modified_at": "2023-03-22T01:13:47.315Z",
    "repository": "kara.moe",
    "tags": {
      "authors": [
        "769104f8-012b-4e06-90b9-1a24cda992b1"
      ],
      "collections": [
        "c7db86a0-ff64-4044-9be4-66dd1ef1d1c1"
      ],
      "creators": [
        "b2805292-730e-473a-96f0-fd8e7ffd1fd7",
        "f3178845-e59b-4feb-9a45-de5f4e044b11"
      ],
      "genres": [
        "caa86df2-0d59-474b-885c-f240a9e891b0"
      ],
      "groups": [
        "8e209ae4-4381-438f-89dc-1b21752027d2"
      ],
      "langs": [
        "4dcf9614-7914-42aa-99f4-dbce2e059133",
        "de5eda1c-5fb3-46a6-9606-d4554fc5a1d6"
      ],
      "origins": [
        "dbedd6b3-d125-4cd8-aa32-c4175e4ca3a3"
      ],
      "platforms": [
        "213a1a15-e73a-4a08-b3f6-b6e2745a82e5"
      ],
      "series": [
        "5500bf95-b83f-46a7-a861-ecc415a137d4"
      ],
      "singers": [
        "0df41f72-5e97-4788-99b7-93fe4b628367",
        "178c3a64-efbc-48d4-a7d3-1847414eebc1",
        "1fd01df9-13c6-4442-a8c9-4d7922152b32",
        "747cd011-3914-4212-9079-0da3dd845831",
        "8f4dc795-4e05-4e8f-a5fc-61e45e229402",
        "8fb3d553-3283-4508-bc26-5968c03cb89a",
        "a76efdf9-3d65-488d-bc3b-9ab329d3fb7f",
        "cd997481-e2ff-4d88-ab77-152bedb5041a",
        "e73e8731-3f33-4d6a-b8f1-d2a6137480be",
        "458ec0c5-db5e-4103-af88-b15a1699264d"
      ],
      "singergroups": [
        "425f6083-f574-451a-b719-1257f1d38957"
      ],
      "songtypes": [
        "7be1b15c-cff8-4b37-a649-5c90f3d569a9"
      ],
      "songwriters": [
        "03e1b3d7-b472-4245-bdd1-70266a6937de",
        "a1fa74a3-4185-4faf-aae6-d1b9f07784f0",
        "ff73b3ab-c654-45f7-8ebe-0a23b898cb94"
      ],
      "versions": [
        "d125c80a-86c1-4321-88e9-07b7800679b6"
      ],
      "franchises": [
        "fd5d066e-e85a-4eea-8688-2979a887450a"
      ]
    },
    "titles": {
      "eng": "Just Believe!!!"
    },
    "titles_default_language": "eng",
    "year": 2020
  }
}