{
  "header": {
    "version": 4,
    "description": "Karaoke Mugen Karaoke Data File"
  },
  "medias": [
    {
      "version": "Default",
      "filename": "ENG - Imagine Dragons - MV - Radioactive.mp4",
      "audiogain": -0.3,
      "loudnorm": "-17.09,-4.62,10.90,-27.44,-1.50",
      "filesize": 90105954,
      "duration": 245,
      "default": true,
      "lyrics": [
        {
          "filename": "ENG - Imagine Dragons - MV - Radioactive.ass",
          "default": true,
          "version": "Default",
          "subchecksum": "2b1592bea40e3b0b52cede88d2f2b50a"
        }
      ]
    }
  ],
  "data": {
    "created_at": "2020-07-03T22:25:40.039Z",
    "kid": "9c4c1be8-61e4-4945-a29b-f7d80a559b86",
    "modified_at": "2021-02-25T14:50:02.107Z",
    "repository": "kara.moe",
    "tags": {
      "authors": [
        "08f511b0-8480-4d1c-b927-e1314b526b5e"
      ],
      "collections": [
        "efe171c0-e8a1-4d03-98c0-60ecf741ad52"
      ],
      "creators": [
        "5ccd3d6d-03de-448a-9bb8-fadb30db6be1"
      ],
      "families": [
        "5391f9fe-638c-415f-8dc9-958e3a2c5787"
      ],
      "groups": [
        "ae613721-1fbe-480d-ba6b-d6d0702b184d"
      ],
      "langs": [
        "de5eda1c-5fb3-46a6-9606-d4554fc5a1d6"
      ],
      "singers": [
        "28049ad2-e20c-466c-950c-537552c00858"
      ],
      "songtypes": [
        "7be1b15c-cff8-4b37-a649-5c90f3d569a9"
      ],
      "songwriters": [
        "0605c1a3-9e2c-43a7-9fc5-a8d9363a0123",
        "2ecd23ef-5e94-4a98-b1f2-65bbe92b9009",
        "928a0e61-8d45-4542-91e1-9eebf30256ac",
        "c9ea8a61-5e5f-4abe-8cb5-82259d2e8ad6"
      ]
    },
    "title": "Radioactive",
    "titles": {
      "eng": "Radioactive"
    },
    "year": 2012
  }
}