{
  "header": {
    "version": 4,
    "description": "Karaoke Mugen Karaoke Data File"
  },
  "medias": [
    {
      "version": "Default",
      "filename": "ENG - Mili - AUDIO - Bathtub Mermaid.mp3",
      "audiogain": -8.67,
      "loudnorm": "-10.21,0.76,13.80,-20.69,-1.25",
      "filesize": 3795052,
      "duration": 225,
      "default": true,
      "lyrics": [
        {
          "filename": "ENG - Mili - AUDIO - Bathtub Mermaid.ass",
          "default": true,
          "version": "Default"
        }
      ]
    }
  ],
  "data": {
    "created_at": "2023-01-14T23:46:49.588Z",
    "ignoreHooks": false,
    "kid": "c68278c5-1782-4562-b7c8-81467d23d580",
    "modified_at": "2023-01-14T23:46:49.741Z",
    "repository": "kara.moe",
    "tags": {
      "authors": [
        "74cb50bf-9693-47d3-bb83-be171fd9d71f"
      ],
      "collections": [
        "dbcf2c22-524d-4708-99bb-601703633927"
      ],
      "groups": [
        "df5f446f-d161-4760-8e0c-822e70ea03ae",
        "ae613721-1fbe-480d-ba6b-d6d0702b184d"
      ],
      "langs": [
        "de5eda1c-5fb3-46a6-9606-d4554fc5a1d6"
      ],
      "singers": [
        "f6cd900b-9a73-446f-b54e-84663b3cfb75"
      ],
      "songtypes": [
        "42a262ae-acba-4ab5-a446-c5789c96c821"
      ],
      "songwriters": [
        "4967c6bd-7bc5-4602-ab28-2250cc39e2d1",
        "a1b5be43-a6b7-40a5-88cf-7449a9da5422"
      ]
    },
    "titles": {
      "eng": "Bathtub Mermaid"
    },
    "titles_default_language": "eng",
    "year": 2016
  }
}