{
  "header": {
    "version": 4,
    "description": "Karaoke Mugen Karaoke Data File"
  },
  "medias": [
    {
      "version": "Default",
      "filename": "ENG - Saturday Night Fever - MOVIE MV - Stayin' Alive.mp4",
      "audiogain": -8.46,
      "loudnorm": "-8.85,1.37,2.90,-18.93,-0.14",
      "filesize": 84405162,
      "duration": 249,
      "default": true,
      "lyrics": [
        {
          "filename": "ENG - Saturday Night Fever - MOVIE MV - Stayin' Alive.ass",
          "default": true,
          "version": "Default",
          "subchecksum": "647da5570da2fcedbc54ce250d21f82c"
        }
      ]
    }
  ],
  "data": {
    "created_at": "2020-06-01T21:43:25.777Z",
    "kid": "62cf2bf6-c713-4748-afcb-1750bf08e4d6",
    "modified_at": "2021-05-20T17:41:27.040Z",
    "repository": "kara.moe",
    "tags": {
      "authors": [
        "90414ca0-ab36-4879-8810-b032c6bfdab0"
      ],
      "collections": [
        "efe171c0-e8a1-4d03-98c0-60ecf741ad52"
      ],
      "creators": [
        "f8771e18-3a29-4d7b-ad18-39ff19fbc3f8"
      ],
      "families": [
        "5391f9fe-638c-415f-8dc9-958e3a2c5787"
      ],
      "groups": [
        "57e5e0c0-e02e-4871-a6cb-d48ea604ebab"
      ],
      "langs": [
        "de5eda1c-5fb3-46a6-9606-d4554fc5a1d6"
      ],
      "origins": [
        "c8ca9dea-d8b4-48fe-8427-d911653232e9"
      ],
      "series": [
        "219d3334-61a3-4558-a577-793130b93b7b"
      ],
      "singers": [
        "d5ae44c6-9915-4ff0-9f59-a650518a0d5e"
      ],
      "songtypes": [
        "7be1b15c-cff8-4b37-a649-5c90f3d569a9"
      ],
      "songwriters": [
        "b6aaab61-894a-4ce5-a977-ac443c19419a",
        "df30bfdc-c333-467c-bacb-051e7d6e35cc",
        "faa962eb-1600-4bd9-8bde-da245ac0df97"
      ]
    },
    "title": "Stayin' Alive",
    "titles": {
      "eng": "Stayin' Alive"
    },
    "year": 1977
  }
}