{
  "header": {
    "version": 4,
    "description": "Karaoke Mugen Karaoke Data File"
  },
  "medias": [
    {
      "version": "Default",
      "filename": "ENG - Big Order (2016) - ED1 - Order Hatsudou!.mp4",
      "audiogain": -1.37,
      "loudnorm": "-15.81,-7.10,2.90,-25.84,-0.48",
      "filesize": 22041830,
      "duration": 119,
      "default": true,
      "lyrics": [
        {
          "filename": "ENG - Big Order (2016) - ED1 - Order Hatsudou!.ass",
          "default": true,
          "version": "Default"
        }
      ]
    }
  ],
  "data": {
    "created_at": "2021-12-19T13:33:04.897Z",
    "kid": "93eafe0e-f634-4be4-a0b8-ad4ee012c961",
    "modified_at": "2021-12-30T00:10:06.645Z",
    "repository": "kara.moe",
    "songorder": 1,
    "tags": {
      "authors": [
        "5c7df057-1721-436c-8244-17aae35ff388"
      ],
      "collections": [
        "c7db86a0-ff64-4044-9be4-66dd1ef1d1c1"
      ],
      "creators": [
        "7cac28be-6aa5-46b8-971d-d244a7069e37"
      ],
      "families": [
        "0377db02-3af6-43b8-9b08-c759df3d25c3"
      ],
      "groups": [
        "ae613721-1fbe-480d-ba6b-d6d0702b184d"
      ],
      "langs": [
        "de5eda1c-5fb3-46a6-9606-d4554fc5a1d6"
      ],
      "origins": [
        "938de218-5343-4865-94d3-fb33f2eaa152"
      ],
      "series": [
        "fc8d907e-9eec-49a7-8ea2-2b5326f48594"
      ],
      "singers": [
        "e99073e8-577f-4a08-a2b1-d93f9f8aabc9"
      ],
      "songtypes": [
        "38c77c56-2b95-4040-b676-0994a8cb0597"
      ],
      "songwriters": [
        "5d1704bf-c5e0-4295-b1a4-f74d6afe89e8"
      ]
    },
    "titles": {
      "eng": "Order Hatsudou!",
      "jpn": "オーダー発動!"
    },
    "title": "Order Hatsudou!",
    "year": 2016
  }
}