{
  "header": {
    "version": 4,
    "description": "Karaoke Mugen Karaoke Data File"
  },
  "medias": [
    {
      "version": "Default",
      "filename": "ENG - ABBA - MV - Take a Chance on Me.mp4",
      "audiogain": -9.04,
      "loudnorm": "-8.94,1.29,3.50,-19.11,-0.57",
      "filesize": 37677366,
      "duration": 238,
      "default": true,
      "lyrics": [
        {
          "filename": "ENG - ABBA - MV - Take a Chance on Me.ass",
          "default": true,
          "version": "Default"
        }
      ]
    }
  ],
  "data": {
    "created_at": "2022-07-23T20:00:38.875Z",
    "ignoreHooks": false,
    "kid": "91a9f1fe-63a8-4fbe-b46a-ee5994f9f9bc",
    "modified_at": "2022-07-23T20:00:39.567Z",
    "repository": "kara.moe",
    "tags": {
      "authors": [
        "0c8e4377-ee35-4896-89ed-9d06a1b5acd5"
      ],
      "collections": [
        "efe171c0-e8a1-4d03-98c0-60ecf741ad52"
      ],
      "creators": [
        "0d2bd039-464b-4967-bde4-2c26873ae41f"
      ],
      "families": [
        "5391f9fe-638c-415f-8dc9-958e3a2c5787"
      ],
      "langs": [
        "de5eda1c-5fb3-46a6-9606-d4554fc5a1d6"
      ],
      "singers": [
        "c0e2944a-bcc0-4d85-a70b-37681943c9d7"
      ],
      "songtypes": [
        "7be1b15c-cff8-4b37-a649-5c90f3d569a9"
      ],
      "songwriters": [
        "a7015d78-357a-468c-91d5-5bd23ee48656",
        "4af14e96-9960-4074-9518-c4a6a35b38d5"
      ],
      "groups": [
        "57e5e0c0-e02e-4871-a6cb-d48ea604ebab"
      ]
    },
    "titles": {
      "eng": "Take a Chance on Me"
    },
    "titles_default_language": "eng",
    "title": "Take a Chance on Me",
    "year": 1978
  }
}