{
  "header": {
    "version": 4,
    "description": "Karaoke Mugen Karaoke Data File"
  },
  "medias": [
    {
      "version": "Japanese vers.",
      "filename": "ENG - Avril Lavigne - AUDIO - Girlfriend ~ Japanese vers. ~ Alternative Vers.mp3",
      "audiogain": -11.73,
      "loudnorm": "-6.19,2.24,3.90,-16.26,-0.70",
      "filesize": 8992787,
      "duration": 218,
      "default": true,
      "lyrics": [
        {
          "filename": "ENG - Avril Lavigne - AUDIO - Girlfriend ~ Japanese vers. ~ Alternative Vers.ass",
          "default": true,
          "version": "Default"
        }
      ]
    }
  ],
  "data": {
    "created_at": "2023-06-23T21:00:14.663Z",
    "ignoreHooks": false,
    "kid": "b6002330-2063-4dee-98d2-232b9ad0cea8",
    "modified_at": "2023-06-23T21:00:14.752Z",
    "parents": [
      "0cdbe18e-681e-4b18-9080-16894b25941d"
    ],
    "repository": "kara.moe",
    "tags": {
      "authors": [
        "1db1738f-acdc-42fc-aec3-60f4bddf660d"
      ],
      "collections": [
        "efe171c0-e8a1-4d03-98c0-60ecf741ad52"
      ],
      "creators": [
        "011b3ef8-7a64-4816-b94c-1c21bc24e833"
      ],
      "groups": [
        "3c14c864-533c-49e6-a3cc-6969f1233775"
      ],
      "langs": [
        "de5eda1c-5fb3-46a6-9606-d4554fc5a1d6",
        "4dcf9614-7914-42aa-99f4-dbce2e059133"
      ],
      "singers": [
        "abfd3a13-c24a-4679-8c8a-15f19f0bc8c4"
      ],
      "songtypes": [
        "42a262ae-acba-4ab5-a446-c5789c96c821"
      ],
      "songwriters": [
        "6e38c155-4a30-4429-aa29-5c215b087f40",
        "abfd3a13-c24a-4679-8c8a-15f19f0bc8c4"
      ],
      "versions": [
        "9f63c359-d1bf-425a-bcf5-b245c2c9211d"
      ]
    },
    "titles": {
      "eng": "Girlfriend ~ Japanese vers."
    },
    "titles_default_language": "eng",
    "year": 2007
  }
}