{
  "header": {
    "version": 4,
    "description": "Karaoke Mugen Karaoke Data File"
  },
  "medias": [
    {
      "version": "Default",
      "filename": "ENG - Little V - REMIX MV - Camel By Camel ~ Metal Short Vers.mp4",
      "audiogain": -7.93,
      "loudnorm": "-8.50,2.53,4.10,-18.64,-0.40",
      "filesize": 61668234,
      "duration": 238,
      "default": true,
      "lyrics": [
        {
          "filename": "ENG - Little V - REMIX MV - Camel By Camel ~ Metal Short Vers.ass",
          "default": true,
          "version": "Default"
        }
      ]
    }
  ],
  "data": {
    "created_at": "2022-11-13T21:19:15.418Z",
    "ignoreHooks": false,
    "kid": "0f3cce8e-fa7e-4656-9c31-e5481132a02f",
    "modified_at": "2022-11-13T22:05:12.527Z",
    "parents": [
      "48342abe-0dcf-4299-a937-d2d75aed9154"
    ],
    "repository": "kara.moe",
    "tags": {
      "authors": [
        "611aa6ee-ebf8-4ef5-8eed-9f1eaec5117e"
      ],
      "collections": [
        "c7db86a0-ff64-4044-9be4-66dd1ef1d1c1"
      ],
      "creators": [
        "3ca5d3f6-171e-427c-b76c-ecf269428422"
      ],
      "families": [
        "5391f9fe-638c-415f-8dc9-958e3a2c5787"
      ],
      "groups": [
        "8e209ae4-4381-438f-89dc-1b21752027d2"
      ],
      "langs": [
        "de5eda1c-5fb3-46a6-9606-d4554fc5a1d6"
      ],
      "misc": [
        "ec4360fa-3e3c-4f6f-b0e1-fb8b12b6dd18"
      ],
      "singers": [
        "3ca5d3f6-171e-427c-b76c-ecf269428422"
      ],
      "songtypes": [
        "7be1b15c-cff8-4b37-a649-5c90f3d569a9"
      ],
      "songwriters": [
        "1becbca6-bde6-423e-a0f2-969c6b6d1965",
        "6c9dbdd4-6161-47e7-ac2a-dff6c55f95a4",
        "98785c4c-f0ad-4199-b1fd-dfeeaa958176"
      ],
      "versions": [
        "188a5c46-63ff-4e9f-89e4-763468b6ea4a",
        "d125c80a-86c1-4321-88e9-07b7800679b6",
        "03e1e1d2-8641-47b7-bbcb-39a3df9ff21c"
      ]
    },
    "titles": {
      "eng": "Camel By Camel"
    },
    "titles_default_language": "eng",
    "year": 2021
  }
}