{
  "header": {
    "version": 4,
    "description": "Karaoke Mugen Karaoke Data File"
  },
  "medias": [
    {
      "version": "Default",
      "filename": "ENG - Cyberpunk 2077, Cyberpunk Edgerunners - GAME ONA AMV - I Really Want to Stay at Your House.mp4",
      "audiogain": -7.01,
      "loudnorm": "-9.41,0.97,9.80,-19.89,-1.26",
      "filesize": 180544938,
      "duration": 246,
      "default": true,
      "lyrics": [
        {
          "filename": "ENG - Cyberpunk 2077, Cyberpunk Edgerunners - GAME ONA AMV - I Really Want to Stay at Your House.ass",
          "default": true,
          "version": "Default"
        }
      ]
    }
  ],
  "data": {
    "created_at": "2022-09-16T11:00:51.670Z",
    "ignoreHooks": false,
    "kid": "bd6edbef-f71b-4267-857e-aab7cd19d4ac",
    "modified_at": "2022-09-17T03:19:25.785Z",
    "repository": "kara.moe",
    "tags": {
      "authors": [
        "9cdf3b70-3550-457c-bdb9-038f3253c6ad"
      ],
      "collections": [
        "c7db86a0-ff64-4044-9be4-66dd1ef1d1c1"
      ],
      "creators": [
        "9a515ca0-48ae-4ded-ac8f-3cccc586794a",
        "9cdf3b70-3550-457c-bdb9-038f3253c6ad",
        "eedcceb6-3a45-476f-b67b-ca0faebad510"
      ],
      "families": [
        "0377db02-3af6-43b8-9b08-c759df3d25c3"
      ],
      "groups": [
        "8e209ae4-4381-438f-89dc-1b21752027d2"
      ],
      "langs": [
        "de5eda1c-5fb3-46a6-9606-d4554fc5a1d6"
      ],
      "origins": [
        "8db3e098-06ef-45e5-bba9-cb04a21c1e66",
        "dbedd6b3-d125-4cd8-aa32-c4175e4ca3a3"
      ],
      "platforms": [
        "22840d76-7030-4c3f-ab35-4a863adce093",
        "248d92ee-8c02-43bc-86e2-cc6029883564",
        "3c15f758-e1bc-4266-8bb9-3c14112f504a",
        "569fdd6b-1a2c-424e-aab8-93c5891db245",
        "d22db878-440d-46c1-a749-ae575c78983d"
      ],
      "series": [
        "3d8c0056-fca0-4b5d-a7ba-32d4ca1ae0ef",
        "80884681-b7fc-4709-84d1-e1070dbc6fe3"
      ],
      "singers": [
        "ce6249f7-2dfa-45ef-ab37-b954539b92a6"
      ],
      "songtypes": [
        "a6c79ce5-89ee-4d50-afe8-3abd7317f6c2"
      ],
      "songwriters": [
        "ce6249f7-2dfa-45ef-ab37-b954539b92a6",
        "ac4c6f03-6b2a-4a0d-a06c-19a98cb0ebd1"
      ],
      "franchises": [
        "59414586-1fb0-494f-9522-f964c285b55b"
      ]
    },
    "titles": {
      "eng": "I Really Want to Stay at Your House"
    },
    "titles_default_language": "eng",
    "title": "I Really Want to Stay at Your House",
    "year": 2020
  }
}