{
  "header": {
    "version": 4,
    "description": "Karaoke Mugen Karaoke Data File"
  },
  "medias": [
    {
      "version": "Default",
      "filename": "ENG - NewJeans - AUDIO - New Jeans.mp3",
      "audiogain": -8.11,
      "loudnorm": "-8.89,1.84,7.30,-18.96,-1.02",
      "filesize": 1961878,
      "duration": 109,
      "default": true,
      "lyrics": [
        {
          "filename": "ENG - NewJeans - AUDIO - New Jeans.ass",
          "default": true,
          "version": "Default"
        }
      ]
    }
  ],
  "data": {
    "created_at": "2023-08-11T09:37:05.737Z",
    "ignoreHooks": false,
    "kid": "fe2e7b98-2633-4385-99ea-2645944dc003",
    "modified_at": "2023-08-11T09:37:06.162Z",
    "parents": [
      "40656523-5e18-4ca7-8efb-74a8db40439b"
    ],
    "repository": "kara.moe",
    "tags": {
      "authors": [
        "a3a99b23-6c42-4d38-8863-491153187437"
      ],
      "collections": [
        "dbcf2c22-524d-4708-99bb-601703633927"
      ],
      "creators": [
        "8bf0ddac-229f-4980-b3c0-a23c3ddf4d4a",
        "d2796204-7b04-446c-a7a9-80f43780fed8"
      ],
      "genres": [
        "caa86df2-0d59-474b-885c-f240a9e891b0"
      ],
      "groups": [
        "8e209ae4-4381-438f-89dc-1b21752027d2"
      ],
      "langs": [
        "3b9e2749-27d0-4a78-873d-ea91a9ee9a25",
        "de5eda1c-5fb3-46a6-9606-d4554fc5a1d6"
      ],
      "misc": [
        "1d6ceadf-a885-47e5-b23b-c07bf668a424"
      ],
      "singers": [
        "3711e80a-a3c5-4354-be12-f53da16cf9a4",
        "569dc254-d19c-4c85-9188-8c4930df66e7",
        "672a9835-311c-461b-abb3-954937f80932",
        "95e6170c-08d0-40c7-ab59-29056c249c1d",
        "ce36c9fc-7275-4181-9399-6823b2dac04a"
      ],
      "singergroups": [
        "1b25b528-e085-40d7-bb4b-fa07514aa233"
      ],
      "songtypes": [
        "42a262ae-acba-4ab5-a446-c5789c96c821"
      ],
      "songwriters": [
        "4a260af4-c4cf-4fdf-b30a-d8d3e006a731",
        "55259451-82d4-4a68-8da2-6a7526f5f533",
        "afb7e7c6-005d-4f94-9198-6a55cba727e4",
        "e65a1fcd-5c2d-4eac-962d-e8a48857566b"
      ]
    },
    "titles": {
      "eng": "New Jeans"
    },
    "titles_default_language": "eng",
    "year": 2023
  }
}