{
  "header": {
    "version": 4,
    "description": "Karaoke Mugen Karaoke Data File"
  },
  "medias": [
    {
      "version": "Full.",
      "filename": "ENG - Black Lagoon - MV - Red Fraction ~ Full Vers.mp4",
      "audiogain": -8.01,
      "loudnorm": "-8.07,1.63,2.90,-18.17,-0.96",
      "filesize": 46449512,
      "duration": 224,
      "default": true,
      "lyrics": [
        {
          "filename": "ENG - Black Lagoon - MV - Red Fraction ~ Full Vers.ass",
          "default": true,
          "version": "Default",
          "subchecksum": "3f371f5c2c3e8ec206de6a0f36b8ce0a"
        }
      ]
    }
  ],
  "data": {
    "created_at": "2019-11-17T13:30:31.272Z",
    "kid": "e69f7232-131d-4c74-8576-a6033c9c273a",
    "modified_at": "2021-05-23T22:38:24.311Z",
    "parents": [
      "5737c5b2-7ea4-414f-8c92-143838a402f6"
    ],
    "repository": "kara.moe",
    "tags": {
      "authors": [
        "1db1738f-acdc-42fc-aec3-60f4bddf660d"
      ],
      "collections": [
        "c7db86a0-ff64-4044-9be4-66dd1ef1d1c1"
      ],
      "creators": [
        "a2eb054b-5c11-4dfc-90ed-b0e0f289b838"
      ],
      "families": [
        "5391f9fe-638c-415f-8dc9-958e3a2c5787"
      ],
      "groups": [
        "3c14c864-533c-49e6-a3cc-6969f1233775"
      ],
      "langs": [
        "de5eda1c-5fb3-46a6-9606-d4554fc5a1d6"
      ],
      "series": [
        "f7250ed6-c188-40b7-bf9a-e461f0a21305"
      ],
      "singers": [
        "dd13c2a8-16ac-4ae0-a533-28890d392aa0"
      ],
      "songtypes": [
        "7be1b15c-cff8-4b37-a649-5c90f3d569a9"
      ],
      "songwriters": [
        "03e272ce-1c50-4706-a431-d49f48a5dd62",
        "dd13c2a8-16ac-4ae0-a533-28890d392aa0"
      ],
      "versions": [
        "c2143a7f-6970-450e-8a79-0302db9220a9"
      ],
      "franchises": [
        "f7250ed6-c188-40b7-bf9a-e461f0a21305"
      ]
    },
    "title": "Red Fraction",
    "titles": {
      "eng": "Red Fraction"
    },
    "year": 2006
  }
}