{
  "header": {
    "version": 4,
    "description": "Karaoke Mugen Karaoke Data File"
  },
  "medias": [
    {
      "version": "Default",
      "filename": "ENG - Touhou - AUDIO - Love the BEAT.mp3",
      "audiogain": -12.18,
      "loudnorm": "-4.51,1.90,1.30,-14.65,-0.07",
      "filesize": 5823417,
      "duration": 233,
      "default": true,
      "lyrics": [
        {
          "filename": "ENG - Touhou - AUDIO - Love the BEAT.ass",
          "default": true,
          "version": "Default"
        }
      ]
    }
  ],
  "data": {
    "created_at": "2023-04-29T16:51:26.044Z",
    "ignoreHooks": false,
    "kid": "b3951bf0-faed-47d9-bcde-9cb5e54f5223",
    "modified_at": "2023-04-29T16:54:36.731Z",
    "repository": "kara.moe",
    "tags": {
      "authors": [
        "56355915-6bc6-4282-acbb-dd1fdaf13d50"
      ],
      "collections": [
        "c7db86a0-ff64-4044-9be4-66dd1ef1d1c1"
      ],
      "groups": [
        "ae613721-1fbe-480d-ba6b-d6d0702b184d",
        "df5f446f-d161-4760-8e0c-822e70ea03ae"
      ],
      "langs": [
        "de5eda1c-5fb3-46a6-9606-d4554fc5a1d6"
      ],
      "series": [
        "1bdaa5a1-dfa6-4365-b746-7a0b194dafd6"
      ],
      "singers": [
        "65e147c0-6c5b-4dda-aa4f-cf8c50418bde"
      ],
      "singergroups": [
        "45ad128c-a37d-4b3d-88db-eca4fc821e96"
      ],
      "songtypes": [
        "42a262ae-acba-4ab5-a446-c5789c96c821"
      ],
      "songwriters": [
        "193e40b1-2a60-420b-ab8e-41a2eef9bf9c",
        "397f826b-4fae-4050-9852-566b14c8f227"
      ],
      "franchises": [
        "1bdaa5a1-dfa6-4365-b746-7a0b194dafd6"
      ]
    },
    "titles": {
      "eng": "Love the BEAT"
    },
    "titles_default_language": "eng",
    "year": 2014
  }
}