{
  "header": {
    "version": 4,
    "description": "Karaoke Mugen Karaoke Data File"
  },
  "medias": [
    {
      "version": "Default",
      "filename": "ENG - Persona Q - 3DS GAME OP - Maze Of Life.mp4",
      "audiogain": -6.87,
      "loudnorm": "-10.58,-1.08,5.50,-20.68,-0.71",
      "filesize": 23999524,
      "duration": 92,
      "default": true,
      "lyrics": [
        {
          "filename": "ENG - Persona Q - 3DS GAME OP - Maze Of Life.ass",
          "default": true,
          "version": "Default",
          "subchecksum": "e622f13ef85953f79dfd984e5d8802f1"
        }
      ]
    }
  ],
  "data": {
    "created_at": "2017-10-11T17:02:23.000Z",
    "kid": "4e216441-a43d-49d7-a3f6-7561ca5f0792",
    "modified_at": "2021-02-25T10:15:19.196Z",
    "repository": "kara.moe",
    "tags": {
      "authors": [
        "5a629611-96b4-422c-b309-ba7a58e263a2"
      ],
      "collections": [
        "c7db86a0-ff64-4044-9be4-66dd1ef1d1c1"
      ],
      "creators": [
        "e9bb3a58-48d2-478c-bfe7-95237ddfe0fd"
      ],
      "groups": [
        "ae613721-1fbe-480d-ba6b-d6d0702b184d"
      ],
      "langs": [
        "de5eda1c-5fb3-46a6-9606-d4554fc5a1d6"
      ],
      "misc": [
        "fe819ff1-9db8-4a0f-85dc-0e322c9126c4"
      ],
      "platforms": [
        "d7393757-7de7-4247-ba59-120b3ceea9bf"
      ],
      "series": [
        "4825ed1d-7a16-4bd5-8f5c-a1f393135317"
      ],
      "singers": [
        "c5ce42f3-d4e1-417d-aded-e2ad4b2eab5f",
        "eaee2425-3cd4-4154-b04e-c7977dbe9de2"
      ],
      "songtypes": [
        "f02ad9b3-0bd9-4aad-85b3-9976739ba0e4"
      ],
      "songwriters": [
        "8b713fb8-07b2-4775-a094-8ca07fede289",
        "ec3a6acb-6751-49d9-84c7-b6b01ec163f4"
      ],
      "franchises": [
        "d8030743-4563-41b9-a3e3-30a0b2fb2edb"
      ],
      "origins": [
        "dbedd6b3-d125-4cd8-aa32-c4175e4ca3a3"
      ]
    },
    "title": "Maze Of Life",
    "titles": {
      "eng": "Maze Of Life"
    },
    "year": 2014
  }
}