{
  "header": {
    "description": "Karaoke Mugen Karaoke Data File",
    "version": 4
  },
  "medias": [
    {
      "version": "Default",
      "filename": "ENG - Evanescence - MV - My Immortal.mp4",
      "audiogain": -3.4,
      "loudnorm": "-15.51,-1.13,12.00,-26.10,-1.52",
      "filesize": 15647453,
      "duration": 272,
      "default": true,
      "lyrics": [
        {
          "filename": "ENG - Evanescence - MV - My Immortal.ass",
          "default": true,
          "version": "Default"
        }
      ]
    }
  ],
  "data": {
    "created_at": "2022-08-02T14:28:44.529Z",
    "kid": "e404b62c-b771-4087-9955-65038a2cdb6f",
    "modified_at": "2022-08-02T14:28:44.529Z",
    "tags": {
      "authors": [
        "ea28a818-4f57-42c3-a03a-a350233978f1"
      ],
      "creators": [
        "83bb44f6-119d-4274-9e65-99a6d6081b61"
      ],
      "families": [
        "5391f9fe-638c-415f-8dc9-958e3a2c5787"
      ],
      "groups": [
        "3c14c864-533c-49e6-a3cc-6969f1233775"
      ],
      "langs": [
        "de5eda1c-5fb3-46a6-9606-d4554fc5a1d6"
      ],
      "singers": [
        "577b6388-43db-451b-af8d-ba66caea7e7a"
      ],
      "songtypes": [
        "7be1b15c-cff8-4b37-a649-5c90f3d569a9"
      ],
      "songwriters": [
        "f9148a77-5eb9-4742-80b1-6f4e28508aee",
        "bc804657-5e10-4748-8336-1e4d9e3b3cc0",
        "6bf7b8b8-4dc4-4b0b-bcf0-41cc2b1304a3"
      ],
      "collections": [
        "efe171c0-e8a1-4d03-98c0-60ecf741ad52"
      ]
    },
    "titles": {
      "eng": "My Immortal"
    },
    "titles_default_language": "eng",
    "titles_aliases": [],
    "title": "My Immortal",
    "year": "2003",
    "repository": "kara.moe"
  }
}