{
  "header": {
    "version": 4,
    "description": "Karaoke Mugen Karaoke Data File"
  },
  "medias": [
    {
      "version": "Default",
      "filename": "ENG - Initial D Fifth Stage - AMV - GAS GAS GAS.mp4",
      "audiogain": -7.56,
      "loudnorm": "-8.13,1.71,2.70,-18.24,-1.03",
      "filesize": 83836681,
      "duration": 272,
      "default": true,
      "lyrics": [
        {
          "filename": "ENG - Initial D Fifth Stage - AMV - GAS GAS GAS.ass",
          "default": true,
          "version": "Default"
        }
      ]
    }
  ],
  "data": {
    "created_at": "2020-03-11T20:36:57.995Z",
    "ignoreHooks": false,
    "kid": "ba217db5-25a4-4645-bdd5-581b97e24281",
    "modified_at": "2022-02-04T18:04:57.439Z",
    "repository": "kara.moe",
    "tags": {
      "authors": [
        "244ec47a-1d4d-472d-9588-67e859bf27df"
      ],
      "collections": [
        "c7db86a0-ff64-4044-9be4-66dd1ef1d1c1"
      ],
      "creators": [
        "89712d07-0095-46b2-8399-dfcd8c837884"
      ],
      "families": [
        "0377db02-3af6-43b8-9b08-c759df3d25c3"
      ],
      "groups": [
        "8c22c899-b3ed-42da-a548-ce00f950798b",
        "ae613721-1fbe-480d-ba6b-d6d0702b184d"
      ],
      "langs": [
        "de5eda1c-5fb3-46a6-9606-d4554fc5a1d6"
      ],
      "origins": [
        "938de218-5343-4865-94d3-fb33f2eaa152"
      ],
      "series": [
        "5d9a98e4-de40-4c05-bc7c-8a0ada3fb5dc"
      ],
      "singers": [
        "11207f1a-3e10-436f-87b0-d4b787e4bb82"
      ],
      "songtypes": [
        "a6c79ce5-89ee-4d50-afe8-3abd7317f6c2"
      ],
      "songwriters": [
        "9f81a213-632a-4e0d-8294-b49b96860e5c",
        "fa9f1210-8507-4d29-b68d-21cc427680b8"
      ],
      "franchises": [
        "f433bddc-18e0-4497-b303-93108d9fe69b"
      ]
    },
    "titles": {
      "eng": "GAS GAS GAS"
    },
    "title": "GAS GAS GAS",
    "year": 2012
  }
}