{
  "header": {
    "version": 4,
    "description": "Karaoke Mugen Karaoke Data File"
  },
  "medias": [
    {
      "version": "Default",
      "filename": "ENG - THE GOD OF HIGH SCHOOL - OP - Contradiction.mp4",
      "audiogain": 4.27,
      "loudnorm": "-20.46,-10.39,3.80,-30.46,-0.51",
      "filesize": 76997325,
      "duration": 89,
      "default": true,
      "lyrics": [
        {
          "filename": "ENG - THE GOD OF HIGH SCHOOL - OP - Contradiction.ass",
          "default": true,
          "version": "Default",
          "subchecksum": "73bbc999d4db258eda94b645b837cb2d"
        }
      ]
    }
  ],
  "data": {
    "created_at": "2020-11-25T00:05:51.996Z",
    "kid": "1cc9bb79-bf4a-45b4-bf9d-d573ac84be5e",
    "modified_at": "2021-02-25T10:18:49.224Z",
    "repository": "kara.moe",
    "tags": {
      "authors": [
        "9cdf3b70-3550-457c-bdb9-038f3253c6ad"
      ],
      "collections": [
        "c7db86a0-ff64-4044-9be4-66dd1ef1d1c1"
      ],
      "creators": [
        "0a86e9ea-5e17-4371-8f2a-60c818324d58"
      ],
      "families": [
        "0377db02-3af6-43b8-9b08-c759df3d25c3"
      ],
      "groups": [
        "8e209ae4-4381-438f-89dc-1b21752027d2"
      ],
      "langs": [
        "de5eda1c-5fb3-46a6-9606-d4554fc5a1d6"
      ],
      "origins": [
        "938de218-5343-4865-94d3-fb33f2eaa152"
      ],
      "series": [
        "43eb8253-a785-4aa7-93f1-255e8b50a0a9"
      ],
      "singers": [
        "b3c02f63-6401-42dc-bf48-972c5e2d57d9",
        "f4aceafd-be3b-4210-aedf-b60ffd3d0c94"
      ],
      "songtypes": [
        "f02ad9b3-0bd9-4aad-85b3-9976739ba0e4"
      ],
      "songwriters": [
        "39c85c9f-51ae-413f-bbf0-eee52071758e",
        "b3c02f63-6401-42dc-bf48-972c5e2d57d9",
        "f4aceafd-be3b-4210-aedf-b60ffd3d0c94"
      ]
    },
    "title": "Contradiction",
    "titles": {
      "eng": "Contradiction"
    },
    "year": 2020
  }
}