{
  "header": {
    "version": 4,
    "description": "Karaoke Mugen Karaoke Data File"
  },
  "medias": [
    {
      "version": "Default",
      "filename": "ENG - Lizzo - MV - Juice.mp4",
      "audiogain": -10.18,
      "loudnorm": "-6.65,3.02,3.60,-16.75,-0.78",
      "filesize": 54889505,
      "duration": 200,
      "default": true,
      "lyrics": [
        {
          "filename": "ENG - Lizzo - MV - Juice.ass",
          "default": true,
          "version": "Default"
        }
      ]
    }
  ],
  "data": {
    "created_at": "2022-10-10T22:41:08.873Z",
    "ignoreHooks": false,
    "kid": "3db29664-058f-4f1b-844a-da5dc886218f",
    "modified_at": "2022-10-10T22:44:16.307Z",
    "repository": "kara.moe",
    "tags": {
      "authors": [
        "df82c984-d5d6-40bb-b1d7-7dd2a08d4004"
      ],
      "collections": [
        "efe171c0-e8a1-4d03-98c0-60ecf741ad52"
      ],
      "creators": [
        "45924098-30ef-4f74-a1e8-18be7d2fbb3f"
      ],
      "families": [
        "5391f9fe-638c-415f-8dc9-958e3a2c5787"
      ],
      "groups": [
        "8e209ae4-4381-438f-89dc-1b21752027d2"
      ],
      "langs": [
        "de5eda1c-5fb3-46a6-9606-d4554fc5a1d6"
      ],
      "singers": [
        "a9dccc8c-714e-418c-81b0-9011bbd39807"
      ],
      "songtypes": [
        "7be1b15c-cff8-4b37-a649-5c90f3d569a9"
      ],
      "songwriters": [
        "4685bd98-962b-4c46-82ad-93dc32c472bd",
        "55fdce52-b573-4928-9edc-86e04cebcb44",
        "5fc81e48-f40d-4929-b234-d5305658a776",
        "904367d4-b072-4b82-ab6c-9340a904d066",
        "a9dccc8c-714e-418c-81b0-9011bbd39807"
      ]
    },
    "titles": {
      "eng": "Juice"
    },
    "titles_default_language": "eng",
    "title": "Juice",
    "year": 2022
  }
}