{
  "header": {
    "version": 4,
    "description": "Karaoke Mugen Karaoke Data File"
  },
  "medias": [
    {
      "version": "Default",
      "filename": "ENG - Stray Kids - MV - Social Path.mp4",
      "loudnorm": "-7.14,4.52,3.80,-17.26,-0.48",
      "filesize": 108348573,
      "duration": 201,
      "default": true,
      "lyrics": [
        {
          "filename": "ENG - Stray Kids - MV - Social Path.ass",
          "default": true,
          "version": "Default"
        }
      ]
    }
  ],
  "data": {
    "comment": "Suggested by #8722",
    "created_at": "2023-08-30T14:46:58.899Z",
    "ignoreHooks": false,
    "kid": "03ff5a23-3da4-4496-ae95-5378ad15763a",
    "modified_at": "2023-08-30T18:18:36.982Z",
    "repository": "kara.moe",
    "tags": {
      "authors": [
        "f70c7314-b8d3-4bf4-96a0-dc8b2c5a6c94"
      ],
      "collections": [
        "dbcf2c22-524d-4708-99bb-601703633927"
      ],
      "creators": [
        "43124e1f-bc9d-4218-b41e-bfb33aa11dde",
        "e1a9a889-9e39-49c9-8ff7-7d7d16331ee5"
      ],
      "families": [
        "5391f9fe-638c-415f-8dc9-958e3a2c5787"
      ],
      "groups": [
        "8e209ae4-4381-438f-89dc-1b21752027d2",
        "966d1e74-d1f2-41e2-ab04-24279c22f562"
      ],
      "langs": [
        "4dcf9614-7914-42aa-99f4-dbce2e059133",
        "de5eda1c-5fb3-46a6-9606-d4554fc5a1d6"
      ],
      "singers": [
        "18d9f88d-379b-44bc-bbad-833e5592e37c",
        "3536c5e8-32d7-43e8-b41e-683a629d0140",
        "41f045f2-1576-496d-91b1-c0f28bab57a4",
        "4479de05-3890-418b-ac78-390756b202c9",
        "6fd6c8c3-9f0e-4d6a-aa3b-040d32708ae6",
        "9fe0ff62-784d-4f06-ad70-9f99ca9f7d01",
        "ba5d4a5e-3018-461f-a571-9c5d3c66c2b7",
        "d58db71a-a082-422d-9a3f-5339d5aec9af",
        "f71a419f-3e10-4a58-a158-bff7a18bc5cc"
      ],
      "singergroups": [
        "18e36fb1-1135-44db-a4ac-a113849d64b3"
      ],
      "songtypes": [
        "7be1b15c-cff8-4b37-a649-5c90f3d569a9"
      ],
      "songwriters": [
        "48b4578d-f0b8-4d37-bcd0-07b489e211ec",
        "9fe0ff62-784d-4f06-ad70-9f99ca9f7d01",
        "ba5d4a5e-3018-461f-a571-9c5d3c66c2b7",
        "d58db71a-a082-422d-9a3f-5339d5aec9af",
        "e0390214-b936-49bf-afbf-51fb59db4d90"
      ]
    },
    "titles": {
      "eng": "Social Path"
    },
    "titles_default_language": "eng",
    "year": 2023
  }
}