{
  "header": {
    "version": 4,
    "description": "Karaoke Mugen Karaoke Data File"
  },
  "medias": [
    {
      "version": "Default",
      "filename": "ENG - Claudia Leitte, Jennifer Lopez - MV - We Are One (Ole Ola) (Olodum Mix) - 2014 FIFA World Cup Song.mp4",
      "audiogain": -4.48,
      "loudnorm": "-13.37,-2.49,5.20,-23.54,-1.15",
      "filesize": 289029028,
      "duration": 238,
      "default": true,
      "lyrics": [
        {
          "filename": "ENG - Claudia Leitte, Jennifer Lopez - MV - We Are One (Ole Ola) (Olodum Mix) - 2014 FIFA World Cup Song.ass",
          "default": true,
          "version": "Default"
        }
      ]
    }
  ],
  "data": {
    "created_at": "2022-07-21T11:26:36.192Z",
    "ignoreHooks": false,
    "kid": "1b16a12b-6af8-4188-adf5-5229387fccfc",
    "modified_at": "2022-07-21T11:45:04.760Z",
    "repository": "kara.moe",
    "tags": {
      "authors": [
        "be0bed4e-c238-40e6-ab93-d45ad227679d"
      ],
      "collections": [
        "efe171c0-e8a1-4d03-98c0-60ecf741ad52"
      ],
      "creators": [
        "011b3ef8-7a64-4816-b94c-1c21bc24e833"
      ],
      "families": [
        "5391f9fe-638c-415f-8dc9-958e3a2c5787"
      ],
      "groups": [
        "ae613721-1fbe-480d-ba6b-d6d0702b184d"
      ],
      "langs": [
        "de5eda1c-5fb3-46a6-9606-d4554fc5a1d6"
      ],
      "singers": [
        "44e9de28-aefc-4dbc-942b-06c3be3310fc",
        "72cd84bc-efe0-4a1c-9723-ce4842e292a6",
        "c1be4e40-5675-4b7b-bd3a-d522ef59efd3"
      ],
      "songtypes": [
        "7be1b15c-cff8-4b37-a649-5c90f3d569a9"
      ],
      "songwriters": [
        "1ea2a9dc-3a04-4cc2-8e88-4ff69cf6a760",
        "41927b14-b3ba-4f36-9211-3a1a78a8bcb8",
        "44e9de28-aefc-4dbc-942b-06c3be3310fc",
        "72cd84bc-efe0-4a1c-9723-ce4842e292a6",
        "8ac1678b-d377-4030-a746-077dd3ffdb9d",
        "a14bf1d2-3747-4e50-a71a-add9d27f5e6a",
        "c1be4e40-5675-4b7b-bd3a-d522ef59efd3",
        "eb038aa6-e906-4d13-9642-3d7c031dfff9"
      ]
    },
    "titles": {
      "eng": "We Are One (Ole Ola) (Olodum Mix) - 2014 FIFA World Cup Song"
    },
    "titles_default_language": "eng",
    "title": "We Are One (Ole Ola) (Olodum Mix) - 2014 FIFA World Cup Song",
    "year": 2014
  }
}