{
  "header": {
    "version": 4,
    "description": "Karaoke Mugen Karaoke Data File"
  },
  "medias": [
    {
      "version": "Default",
      "filename": "ENG - Mariah Carey - MV - All I Want For Christmas Is You.mp4",
      "audiogain": -7.36,
      "loudnorm": "-10.20,0.52,9.60,-20.81,-1.56",
      "filesize": 101454549,
      "duration": 242,
      "default": true,
      "lyrics": [
        {
          "filename": "ENG - Mariah Carey - MV - All I Want For Christmas Is You.ass",
          "default": true,
          "version": "Default"
        }
      ]
    }
  ],
  "data": {
    "comment": "Retime complet, ajout de paroles pour les choeurs",
    "created_at": "2022-12-22T00:57:24.036Z",
    "ignoreHooks": false,
    "kid": "4d89fe08-a3c4-43b8-af4a-c58551c2f488",
    "modified_at": "2022-12-24T00:34:00.493Z",
    "repository": "kara.moe",
    "tags": {
      "authors": [
        "a3a99b23-6c42-4d38-8863-491153187437",
        "ea28a818-4f57-42c3-a03a-a350233978f1"
      ],
      "collections": [
        "efe171c0-e8a1-4d03-98c0-60ecf741ad52"
      ],
      "creators": [
        "28a02f79-daaf-4037-8897-3458e80a5b41"
      ],
      "families": [
        "5391f9fe-638c-415f-8dc9-958e3a2c5787"
      ],
      "groups": [
        "ae613721-1fbe-480d-ba6b-d6d0702b184d"
      ],
      "langs": [
        "de5eda1c-5fb3-46a6-9606-d4554fc5a1d6"
      ],
      "singers": [
        "a746fb0f-f272-4d00-8c89-93d0ac5556b0"
      ],
      "songtypes": [
        "7be1b15c-cff8-4b37-a649-5c90f3d569a9"
      ],
      "songwriters": [
        "926183b4-3088-46cd-afb6-ff1f36fbc841",
        "0bda68a2-245f-45a9-aa96-0bec7db7b806"
      ]
    },
    "titles": {
      "eng": "All I Want For Christmas Is You"
    },
    "titles_default_language": "eng",
    "year": 2019
  }
}