{
  "header": {
    "version": 4,
    "description": "Karaoke Mugen Karaoke Data File"
  },
  "medias": [
    {
      "version": "Default",
      "filename": "ENG - Britney Spears - MV - Oops!... I Did It Again.mp4",
      "audiogain": -4.97,
      "loudnorm": "-13.31,-0.26,8.50,-23.65,-1.46",
      "filesize": 75809574,
      "duration": 252,
      "default": true,
      "lyrics": [
        {
          "filename": "ENG - Britney Spears - MV - Oops!... I Did It Again.ass",
          "default": true,
          "version": "Default"
        }
      ]
    }
  ],
  "data": {
    "created_at": "2022-04-22T12:39:07.936Z",
    "ignoreHooks": false,
    "kid": "21b4f265-d00e-4e26-9c7b-c83a221df00a",
    "modified_at": "2022-04-22T12:39:09.720Z",
    "repository": "kara.moe",
    "tags": {
      "authors": [
        "c0a4b5ef-85ef-400f-9419-a6df9d8f38a7"
      ],
      "collections": [
        "efe171c0-e8a1-4d03-98c0-60ecf741ad52"
      ],
      "creators": [
        "cca56dad-2503-4a51-bc90-3490b4e979f4"
      ],
      "families": [
        "5391f9fe-638c-415f-8dc9-958e3a2c5787"
      ],
      "langs": [
        "de5eda1c-5fb3-46a6-9606-d4554fc5a1d6"
      ],
      "singers": [
        "5a820073-4925-498d-8ec8-0a90bcfc7eeb"
      ],
      "songtypes": [
        "7be1b15c-cff8-4b37-a649-5c90f3d569a9"
      ],
      "songwriters": [
        "34f37834-cec2-4d5c-9d72-d5ed8c1edc4d",
        "d13ca84d-80bb-48d0-9d84-c0fae89755d2"
      ],
      "groups": [
        "3c14c864-533c-49e6-a3cc-6969f1233775"
      ]
    },
    "titles": {
      "eng": "Oops!... I Did It Again"
    },
    "titles_default_language": "eng",
    "title": "Oops!... I Did It Again",
    "year": 2000
  }
}