{
  "header": {
    "version": 4,
    "description": "Karaoke Mugen Karaoke Data File"
  },
  "medias": [
    {
      "version": "Default",
      "filename": "ENG - U2 - LIVE - Sunday Bloody Sunday ~ Full Vers.mp4",
      "audiogain": 0.4,
      "loudnorm": "-17.56,-4.98,3.80,-27.65,-0.42",
      "filesize": 28287783,
      "duration": 353,
      "default": true,
      "lyrics": [
        {
          "filename": "ENG - U2 - LIVE - Sunday Bloody Sunday ~ Full Vers.ass",
          "default": true,
          "version": "Default"
        }
      ]
    }
  ],
  "data": {
    "created_at": "2020-07-06T20:34:34.322Z",
    "ignoreHooks": false,
    "kid": "30987d58-e7f6-406a-ab59-41c31c0f727b",
    "modified_at": "2022-12-21T22:36:31.152Z",
    "repository": "kara.moe",
    "tags": {
      "authors": [
        "01391b7c-dbd0-47a4-98a8-f94c7ed4f316"
      ],
      "collections": [
        "efe171c0-e8a1-4d03-98c0-60ecf741ad52"
      ],
      "creators": [
        "35cf30c4-8701-4295-be83-6806dbe744ea"
      ],
      "families": [
        "5391f9fe-638c-415f-8dc9-958e3a2c5787"
      ],
      "groups": [
        "7792cc27-9ff9-4d47-9287-2338b7db1575"
      ],
      "langs": [
        "de5eda1c-5fb3-46a6-9606-d4554fc5a1d6"
      ],
      "misc": [
        "86705d4b-24e4-4756-9687-2b9c98bcf366"
      ],
      "singers": [
        "d1c6cd68-74a2-4877-9e5f-6e7d0f4a0afa"
      ],
      "songtypes": [
        "a0167949-580c-4de3-bf13-497e462e02f3"
      ],
      "songwriters": [
        "949b0938-edae-47ec-b4b4-b3484df704c6",
        "b5d94a8b-bea7-4eb2-9a17-72eaf4b040ce",
        "d1c6cd68-74a2-4877-9e5f-6e7d0f4a0afa"
      ],
      "versions": [
        "c2143a7f-6970-450e-8a79-0302db9220a9"
      ]
    },
    "titles": {
      "eng": "Sunday Bloody Sunday"
    },
    "titles_default_language": "eng",
    "year": 1983
  }
}