{
  "header": {
    "version": 4,
    "description": "Karaoke Mugen Karaoke Data File"
  },
  "medias": [
    {
      "version": "Default",
      "filename": "ENG - Bon Jovi - MV - It's My Life.mp4",
      "audiogain": -4.74,
      "loudnorm": "-12.21,-1.42,3.50,-22.29,-0.85",
      "filesize": 35465657,
      "duration": 225,
      "default": true,
      "lyrics": [
        {
          "filename": "ENG - Bon Jovi - MV - It's My Life.ass",
          "default": true,
          "version": "Default",
          "subchecksum": "8beb23f444cceb3c25f3536975422a48"
        }
      ]
    }
  ],
  "data": {
    "created_at": "2021-05-23T23:37:38.828Z",
    "kid": "ea3c4080-5f4f-4626-82dd-a506c0cb844f",
    "modified_at": "2021-05-23T23:57:54.083Z",
    "repository": "kara.moe",
    "tags": {
      "authors": [
        "3d250b8d-f341-48f6-a51d-386e74242056"
      ],
      "collections": [
        "efe171c0-e8a1-4d03-98c0-60ecf741ad52"
      ],
      "creators": [
        "35cf30c4-8701-4295-be83-6806dbe744ea"
      ],
      "families": [
        "5391f9fe-638c-415f-8dc9-958e3a2c5787"
      ],
      "groups": [
        "3c14c864-533c-49e6-a3cc-6969f1233775"
      ],
      "langs": [
        "de5eda1c-5fb3-46a6-9606-d4554fc5a1d6"
      ],
      "singers": [
        "c93fe32c-0b03-4333-b484-46c3938370e6"
      ],
      "songtypes": [
        "7be1b15c-cff8-4b37-a649-5c90f3d569a9"
      ],
      "songwriters": [
        "34f37834-cec2-4d5c-9d72-d5ed8c1edc4d",
        "3bb12f7e-950a-43b3-8169-f0988ea3ab2c",
        "69c609dd-6461-41aa-9239-f56f56644975"
      ]
    },
    "title": "It's My Life",
    "titles": {
      "eng": "It's My Life"
    },
    "year": 2000
  }
}