{
  "header": {
    "version": 4,
    "description": "Karaoke Mugen Karaoke Data File"
  },
  "medias": [
    {
      "version": "Default",
      "filename": "ENG - Mili - AUDIO - Utopiosphere.mp3",
      "audiogain": -9.39,
      "loudnorm": "-9.26,2.09,13.70,-19.77,-1.20",
      "filesize": 2215574,
      "duration": 132,
      "default": true,
      "lyrics": [
        {
          "filename": "ENG - Mili - AUDIO - Utopiosphere.ass",
          "default": true,
          "version": "Default"
        }
      ]
    }
  ],
  "data": {
    "created_at": "2023-02-05T21:15:04.977Z",
    "ignoreHooks": false,
    "kid": "16199ded-2cdc-441f-9573-51a66a3d3e42",
    "modified_at": "2023-02-05T21:16:13.636Z",
    "repository": "kara.moe",
    "tags": {
      "authors": [
        "74cb50bf-9693-47d3-bb83-be171fd9d71f"
      ],
      "collections": [
        "dbcf2c22-524d-4708-99bb-601703633927"
      ],
      "groups": [
        "ae613721-1fbe-480d-ba6b-d6d0702b184d",
        "df5f446f-d161-4760-8e0c-822e70ea03ae"
      ],
      "langs": [
        "de5eda1c-5fb3-46a6-9606-d4554fc5a1d6"
      ],
      "singers": [
        "f6cd900b-9a73-446f-b54e-84663b3cfb75"
      ],
      "songtypes": [
        "42a262ae-acba-4ab5-a446-c5789c96c821"
      ],
      "songwriters": [
        "4967c6bd-7bc5-4602-ab28-2250cc39e2d1",
        "a1b5be43-a6b7-40a5-88cf-7449a9da5422"
      ]
    },
    "titles": {
      "eng": "Utopiosphere"
    },
    "titles_default_language": "eng",
    "year": 2013
  }
}