{
  "header": {
    "version": 4,
    "description": "Karaoke Mugen Karaoke Data File"
  },
  "medias": [
    {
      "version": "Default",
      "filename": "ENG - Bronski Beat - MV - Smalltown boy.mp4",
      "audiogain": 3.78,
      "loudnorm": "-22.59,-9.45,8.50,-32.86,-1.38",
      "filesize": 41443100,
      "duration": 303,
      "default": true,
      "lyrics": [
        {
          "filename": "ENG - Bronski Beat - MV - Smalltown boy.ass",
          "default": true,
          "version": "Default"
        }
      ]
    }
  ],
  "data": {
    "created_at": "2021-09-03T18:17:40.354Z",
    "kid": "921aba6b-89a9-4876-82a1-fc8d78adaea4",
    "modified_at": "2021-11-11T22:48:34.004Z",
    "repository": "kara.moe",
    "tags": {
      "authors": [
        "9bea7e05-2dec-434e-92ff-fcb53f69fdb7"
      ],
      "collections": [
        "efe171c0-e8a1-4d03-98c0-60ecf741ad52"
      ],
      "creators": [
        "781d4fa6-6628-4947-b028-3250174c059e"
      ],
      "families": [
        "5391f9fe-638c-415f-8dc9-958e3a2c5787"
      ],
      "groups": [
        "7792cc27-9ff9-4d47-9287-2338b7db1575"
      ],
      "langs": [
        "de5eda1c-5fb3-46a6-9606-d4554fc5a1d6"
      ],
      "misc": [
        "86705d4b-24e4-4756-9687-2b9c98bcf366"
      ],
      "singers": [
        "98123350-e906-469f-bd35-2fe47593ba27"
      ],
      "songtypes": [
        "7be1b15c-cff8-4b37-a649-5c90f3d569a9"
      ],
      "songwriters": [
        "98123350-e906-469f-bd35-2fe47593ba27"
      ]
    },
    "titles": {
      "eng": "Smalltown boy"
    },
    "title": "Smalltown boy",
    "year": 1984
  }
}