{
  "header": {
    "version": 4,
    "description": "Karaoke Mugen Karaoke Data File"
  },
  "medias": [
    {
      "version": "Default",
      "filename": "ENG - Skillet - MV - Feel Invincible.mp4",
      "audiogain": -7.69,
      "loudnorm": "-10.22,-1.48,6.20,-20.30,-0.87",
      "filesize": 37829249,
      "duration": 227,
      "default": true,
      "lyrics": [
        {
          "filename": "ENG - Skillet - MV - Feel Invincible.ass",
          "default": true,
          "version": "Default"
        }
      ]
    }
  ],
  "data": {
    "created_at": "2023-08-11T20:57:44.189Z",
    "ignoreHooks": false,
    "kid": "97ab8885-7c5a-4e00-b783-25678c1dc6d9",
    "modified_at": "2023-08-11T20:57:44.801Z",
    "repository": "kara.moe",
    "tags": {
      "authors": [
        "8605a8b9-3b45-44b9-9d98-1a25096bf702"
      ],
      "collections": [
        "efe171c0-e8a1-4d03-98c0-60ecf741ad52"
      ],
      "creators": [
        "45924098-30ef-4f74-a1e8-18be7d2fbb3f"
      ],
      "families": [
        "5391f9fe-638c-415f-8dc9-958e3a2c5787"
      ],
      "langs": [
        "de5eda1c-5fb3-46a6-9606-d4554fc5a1d6"
      ],
      "singergroups": [
        "5a4bc855-1fe0-4451-b756-e0e944753179"
      ],
      "songtypes": [
        "7be1b15c-cff8-4b37-a649-5c90f3d569a9"
      ],
      "songwriters": [
        "89a4e125-87b4-4815-8406-a55ab70eb2cb",
        "ea85d5d9-c733-4ad2-b448-c2bb9cf8a9a5"
      ],
      "groups": [
        "ae613721-1fbe-480d-ba6b-d6d0702b184d"
      ]
    },
    "titles": {
      "eng": "Feel Invincible"
    },
    "titles_default_language": "eng",
    "year": 2016
  }
}