{
  "header": {
    "version": 4,
    "description": "Karaoke Mugen Karaoke Data File"
  },
  "medias": [
    {
      "version": "Default",
      "filename": "ENG - Queen - MV - I Want to Break Free.mp4",
      "audiogain": -1.39,
      "loudnorm": "-17.58,-4.37,5.50,-27.88,-1.04",
      "filesize": 25201623,
      "duration": 253,
      "default": true,
      "lyrics": [
        {
          "filename": "ENG - Queen - MV - I Want to Break Free.ass",
          "default": true,
          "version": "Default"
        }
      ]
    }
  ],
  "data": {
    "created_at": "2022-04-22T16:40:57.899Z",
    "ignoreHooks": false,
    "kid": "1e8f0811-381b-4860-a8b2-dca8ec1e27da",
    "modified_at": "2022-04-22T22:46:29.112Z",
    "repository": "kara.moe",
    "tags": {
      "authors": [
        "0c8e4377-ee35-4896-89ed-9d06a1b5acd5"
      ],
      "collections": [
        "efe171c0-e8a1-4d03-98c0-60ecf741ad52"
      ],
      "creators": [
        "078ec016-e167-49bf-ba43-af95adfc4c51",
        "6468c4c7-8cea-42ed-9e9c-0ac0d108065d"
      ],
      "families": [
        "5391f9fe-638c-415f-8dc9-958e3a2c5787"
      ],
      "langs": [
        "de5eda1c-5fb3-46a6-9606-d4554fc5a1d6"
      ],
      "singers": [
        "c25013e3-dbc3-4614-bb61-007748729633"
      ],
      "songtypes": [
        "7be1b15c-cff8-4b37-a649-5c90f3d569a9"
      ],
      "songwriters": [
        "00fc569f-06a4-4c70-bb73-44b37deb1708"
      ],
      "groups": [
        "7792cc27-9ff9-4d47-9287-2338b7db1575"
      ]
    },
    "titles": {
      "eng": "I Want to Break Free"
    },
    "titles_default_language": "eng",
    "title": "I Want to Break Free",
    "year": 1984
  }
}