{
  "header": {
    "version": 4,
    "description": "Karaoke Mugen Karaoke Data File"
  },
  "medias": [
    {
      "version": "Default",
      "filename": "ENG - Pet Shop Boys - MV - Opportunities (Let's Make Lots of Money).mp4",
      "audiogain": 1.05,
      "loudnorm": "-19.19,-7.43,4.10,-29.53,-0.85",
      "filesize": 41756881,
      "duration": 228,
      "default": true,
      "lyrics": [
        {
          "filename": "ENG - Pet Shop Boys - MV - Opportunities (Let's Make Lots of Money).ass",
          "default": true,
          "version": "Default"
        }
      ]
    }
  ],
  "data": {
    "created_at": "2023-04-13T20:19:36.290Z",
    "ignoreHooks": false,
    "kid": "0e95f061-f99d-49f7-8a7e-751f7408620d",
    "modified_at": "2023-04-13T20:20:58.322Z",
    "repository": "kara.moe",
    "tags": {
      "authors": [
        "2a0cbef6-2e78-42c3-8eae-101a3e472348"
      ],
      "collections": [
        "efe171c0-e8a1-4d03-98c0-60ecf741ad52"
      ],
      "creators": [
        "f3c0da2d-91a5-48b4-87d2-b246e8826cda"
      ],
      "families": [
        "5391f9fe-638c-415f-8dc9-958e3a2c5787"
      ],
      "groups": [
        "7792cc27-9ff9-4d47-9287-2338b7db1575"
      ],
      "langs": [
        "de5eda1c-5fb3-46a6-9606-d4554fc5a1d6"
      ],
      "singers": [
        "ae29d868-00ae-4525-945c-98ac50d8f741"
      ],
      "singergroups": [
        "6b8f4f65-7948-4cda-a32b-241d284aceb5"
      ],
      "songtypes": [
        "7be1b15c-cff8-4b37-a649-5c90f3d569a9"
      ],
      "songwriters": [
        "ae29d868-00ae-4525-945c-98ac50d8f741",
        "bf8e015c-c8f6-440a-8449-899e48ac907e"
      ]
    },
    "titles": {
      "eng": "Opportunities (Let's Make Lots of Money)"
    },
    "titles_default_language": "eng",
    "year": 1985
  }
}