{
  "header": {
    "version": 4,
    "description": "Karaoke Mugen Karaoke Data File"
  },
  "medias": [
    {
      "version": "Default",
      "filename": "ENG - Teen Titans - OP - Teen Titans.mp4",
      "audiogain": -0.9,
      "loudnorm": "-15.96,-3.22,1.40,-26.04,-0.73",
      "filesize": 21904100,
      "duration": 61,
      "default": true,
      "lyrics": [
        {
          "filename": "ENG - Teen Titans - OP - Teen Titans.ass",
          "default": true,
          "version": "Default"
        }
      ]
    }
  ],
  "data": {
    "created_at": "2018-06-18T19:40:28.000Z",
    "ignoreHooks": false,
    "kid": "0a0e6cf6-c44e-4cc2-aa15-8b83dde00a69",
    "modified_at": "2023-02-04T15:45:39.859Z",
    "repository": "kara.moe",
    "tags": {
      "authors": [
        "8c22c899-b3ed-42da-a548-ce00f950798b"
      ],
      "collections": [
        "c7db86a0-ff64-4044-9be4-66dd1ef1d1c1"
      ],
      "creators": [
        "936e8da0-8134-467c-914b-22a1f4474b37"
      ],
      "families": [
        "0377db02-3af6-43b8-9b08-c759df3d25c3"
      ],
      "groups": [
        "3c14c864-533c-49e6-a3cc-6969f1233775",
        "8c22c899-b3ed-42da-a548-ce00f950798b"
      ],
      "langs": [
        "de5eda1c-5fb3-46a6-9606-d4554fc5a1d6"
      ],
      "origins": [
        "938de218-5343-4865-94d3-fb33f2eaa152"
      ],
      "series": [
        "d14008f2-a968-43cf-8002-86a06c43c902"
      ],
      "singers": [
        "4cd7fe2e-b989-4df6-be67-d66e3bf81fe3",
        "d8e81f6e-ca48-4096-8e42-e96a376ba31d"
      ],
      "songtypes": [
        "f02ad9b3-0bd9-4aad-85b3-9976739ba0e4"
      ],
      "franchises": [
        "b33f37bb-6c8f-4466-8f2d-7a9fd4071452"
      ]
    },
    "titles": {
      "eng": "Teen Titans"
    },
    "titles_default_language": "eng",
    "year": 2003
  }
}