{
  "header": {
    "description": "Karaoke Mugen Karaoke Data File",
    "version": 4
  },
  "medias": [
    {
      "version": "Default",
      "filename": "ENG - Rihanna - MV - Russian Roulette.mp4",
      "audiogain": -9.17,
      "loudnorm": "-9.60,0.81,11.80,-20.25,-2.01",
      "filesize": 31670343,
      "duration": 263,
      "default": true,
      "lyrics": [
        {
          "filename": "ENG - Rihanna - MV - Russian Roulette.ass",
          "default": true,
          "version": "Default"
        }
      ]
    }
  ],
  "data": {
    "created_at": "2022-08-04T13:20:10.590Z",
    "kid": "505b2e9c-aa04-4312-bc57-135ab780aef9",
    "modified_at": "2022-08-04T13:20:10.590Z",
    "tags": {
      "authors": [
        "ea28a818-4f57-42c3-a03a-a350233978f1"
      ],
      "creators": [
        "a8171243-d933-4f30-95fa-95cddd364607",
        "e6ef85ce-0272-454f-a722-d55e5ef8ef25"
      ],
      "families": [
        "5391f9fe-638c-415f-8dc9-958e3a2c5787"
      ],
      "groups": [
        "3c14c864-533c-49e6-a3cc-6969f1233775"
      ],
      "langs": [
        "de5eda1c-5fb3-46a6-9606-d4554fc5a1d6"
      ],
      "singers": [
        "68de36fc-eee6-43fb-b66b-68a7530e77ec"
      ],
      "songtypes": [
        "7be1b15c-cff8-4b37-a649-5c90f3d569a9"
      ],
      "songwriters": [
        "fa2390e6-386a-446a-bb60-8ea95721b181",
        "211e7fba-8bae-4ddf-95bd-0e6aa4bce5f4"
      ],
      "collections": [
        "efe171c0-e8a1-4d03-98c0-60ecf741ad52"
      ]
    },
    "titles": {
      "eng": "Russian Roulette"
    },
    "titles_default_language": "eng",
    "titles_aliases": [],
    "title": "Russian Roulette",
    "year": "2009",
    "repository": "kara.moe"
  }
}