{
  "header": {
    "version": 4,
    "description": "Karaoke Mugen Karaoke Data File"
  },
  "medias": [
    {
      "version": "Default",
      "filename": "ENG - ABBA - MV - Money, Money, Money.mp4",
      "audiogain": -6.16,
      "loudnorm": "-13.49,0.78,9.70,-23.82,-1.63",
      "filesize": 39918123,
      "duration": 186,
      "default": true,
      "lyrics": [
        {
          "filename": "ENG - ABBA - MV - Money, Money, Money.ass",
          "default": true,
          "version": "Default"
        }
      ]
    }
  ],
  "data": {
    "created_at": "2022-03-19T17:32:04.707Z",
    "ignoreHooks": false,
    "kid": "60c3c935-46b8-4271-9aeb-fadbf78f68b0",
    "modified_at": "2022-03-19T17:32:04.707Z",
    "repository": "kara.moe",
    "tags": {
      "authors": [
        "0c8e4377-ee35-4896-89ed-9d06a1b5acd5"
      ],
      "collections": [
        "efe171c0-e8a1-4d03-98c0-60ecf741ad52"
      ],
      "creators": [
        "0d2bd039-464b-4967-bde4-2c26873ae41f",
        "1cd2f13e-05cb-49b5-b42f-96260f7a162b",
        "45924098-30ef-4f74-a1e8-18be7d2fbb3f"
      ],
      "families": [
        "5391f9fe-638c-415f-8dc9-958e3a2c5787"
      ],
      "groups": [
        "57e5e0c0-e02e-4871-a6cb-d48ea604ebab"
      ],
      "langs": [
        "de5eda1c-5fb3-46a6-9606-d4554fc5a1d6"
      ],
      "singers": [
        "c0e2944a-bcc0-4d85-a70b-37681943c9d7"
      ],
      "songtypes": [
        "7be1b15c-cff8-4b37-a649-5c90f3d569a9"
      ],
      "songwriters": [
        "a7015d78-357a-468c-91d5-5bd23ee48656",
        "4af14e96-9960-4074-9518-c4a6a35b38d5"
      ]
    },
    "titles": {
      "eng": "Money, Money, Money"
    },
    "title": "Money, Money, Money",
    "year": 1976
  }
}