{
  "header": {
    "version": 4,
    "description": "Karaoke Mugen Karaoke Data File"
  },
  "medias": [
    {
      "version": "Default",
      "filename": "ENG - Goblin Slayer - OP - Rightfully.mp4",
      "audiogain": 2.71,
      "loudnorm": "-20.16,-9.48,11.60,-30.66,-2.29",
      "filesize": 45666160,
      "duration": 91,
      "default": true,
      "lyrics": [
        {
          "filename": "ENG - Goblin Slayer - OP - Rightfully.ass",
          "default": true,
          "version": "Default",
          "subchecksum": "3c3305fd40465a43fe0e1b9fb2c43ee5"
        }
      ]
    }
  ],
  "data": {
    "created_at": "2019-01-24T14:33:24.000Z",
    "kid": "db857419-4b43-422a-b408-c3bc18577d46",
    "modified_at": "2021-02-25T10:07:14.493Z",
    "repository": "kara.moe",
    "tags": {
      "authors": [
        "b5116310-e69b-4ed4-9e47-c5c53ee69023"
      ],
      "collections": [
        "c7db86a0-ff64-4044-9be4-66dd1ef1d1c1"
      ],
      "creators": [
        "01b5630b-d291-4ad5-a781-2cb717804d18"
      ],
      "families": [
        "0377db02-3af6-43b8-9b08-c759df3d25c3"
      ],
      "groups": [
        "ae613721-1fbe-480d-ba6b-d6d0702b184d"
      ],
      "langs": [
        "4dcf9614-7914-42aa-99f4-dbce2e059133",
        "de5eda1c-5fb3-46a6-9606-d4554fc5a1d6"
      ],
      "misc": [
        "fe819ff1-9db8-4a0f-85dc-0e322c9126c4"
      ],
      "origins": [
        "938de218-5343-4865-94d3-fb33f2eaa152"
      ],
      "series": [
        "39d8e8ff-dfc5-4ae4-bb79-6f0c5938f0ca"
      ],
      "singers": [
        "f6cd900b-9a73-446f-b54e-84663b3cfb75"
      ],
      "songtypes": [
        "f02ad9b3-0bd9-4aad-85b3-9976739ba0e4"
      ],
      "songwriters": [
        "4967c6bd-7bc5-4602-ab28-2250cc39e2d1",
        "a1b5be43-a6b7-40a5-88cf-7449a9da5422"
      ]
    },
    "title": "Rightfully",
    "titles": {
      "eng": "Rightfully"
    },
    "year": 2018,
    "titles_default_language": "eng"
  }
}