{
  "header": {
    "version": 4,
    "description": "Karaoke Mugen Karaoke Data File"
  },
  "medias": [
    {
      "version": "Default",
      "filename": "ENG - Dan Balan - MV - Crazy Loop (Mm-ma-ma).mp4",
      "audiogain": 3.42,
      "loudnorm": "-19.61,-9.04,2.40,-29.67,-0.91",
      "filesize": 32042207,
      "duration": 227,
      "default": true,
      "lyrics": [
        {
          "filename": "ENG - Dan Balan - MV - Crazy Loop (Mm-ma-ma).ass",
          "default": true,
          "version": "Default",
          "subchecksum": "d59ca48776f58f455a64b8802a087cf1"
        }
      ]
    }
  ],
  "data": {
    "created_at": "2019-12-21T17:36:00.697Z",
    "kid": "4067e3c3-60f0-46d6-abdb-04770a918cb3",
    "modified_at": "2021-02-25T14:48:25.953Z",
    "repository": "kara.moe",
    "tags": {
      "authors": [
        "1db1738f-acdc-42fc-aec3-60f4bddf660d"
      ],
      "collections": [
        "efe171c0-e8a1-4d03-98c0-60ecf741ad52"
      ],
      "creators": [
        "1d085ff7-46a8-4666-9e5e-e8a21205670e"
      ],
      "families": [
        "5391f9fe-638c-415f-8dc9-958e3a2c5787"
      ],
      "groups": [
        "3c14c864-533c-49e6-a3cc-6969f1233775"
      ],
      "langs": [
        "de5eda1c-5fb3-46a6-9606-d4554fc5a1d6"
      ],
      "singers": [
        "9dbabc53-0f04-4554-8184-d56ac044ad5c"
      ],
      "songtypes": [
        "7be1b15c-cff8-4b37-a649-5c90f3d569a9"
      ],
      "songwriters": [
        "9dbabc53-0f04-4554-8184-d56ac044ad5c"
      ]
    },
    "title": "Crazy Loop (Mm-ma-ma)",
    "titles": {
      "eng": "Crazy Loop (Mm-ma-ma)"
    },
    "year": 2007
  }
}