{
  "header": {
    "version": 4,
    "description": "Karaoke Mugen Karaoke Data File"
  },
  "medias": [
    {
      "version": "Default",
      "filename": "ENG - Muse - MV - Resistance.mp4",
      "loudnorm": "-7.39,2.59,11.20,-17.65,-2.06",
      "filesize": 86689428,
      "duration": 305,
      "default": true,
      "lyrics": [
        {
          "filename": "ENG - Muse - MV - Resistance.ass",
          "default": true,
          "version": "Default"
        }
      ]
    }
  ],
  "data": {
    "created_at": "2023-09-10T22:09:38.747Z",
    "ignoreHooks": false,
    "kid": "dfbef943-cd6e-4272-9f78-f345f27b12e6",
    "modified_at": "2023-09-10T22:09:40.188Z",
    "repository": "kara.moe",
    "tags": {
      "authors": [
        "df29836b-b7da-4421-9ecd-f5b4176c2a29"
      ],
      "collections": [
        "efe171c0-e8a1-4d03-98c0-60ecf741ad52"
      ],
      "creators": [
        "45ff46f8-862b-4f84-8479-505cc223d430"
      ],
      "families": [
        "5391f9fe-638c-415f-8dc9-958e3a2c5787"
      ],
      "langs": [
        "de5eda1c-5fb3-46a6-9606-d4554fc5a1d6"
      ],
      "singers": [
        "02b5450a-79a6-4c1d-a4f0-c02a944beb01"
      ],
      "songtypes": [
        "7be1b15c-cff8-4b37-a649-5c90f3d569a9"
      ],
      "songwriters": [
        "9f16063f-03bf-4a15-beb8-d084f1896659"
      ],
      "groups": [
        "ae613721-1fbe-480d-ba6b-d6d0702b184d"
      ],
      "misc": [
        "86705d4b-24e4-4756-9687-2b9c98bcf366"
      ]
    },
    "titles": {
      "eng": "Resistance"
    },
    "titles_default_language": "eng",
    "year": 2010
  }
}