{
  "header": {
    "version": 4,
    "description": "Karaoke Mugen Karaoke Data File"
  },
  "medias": [
    {
      "version": "Default",
      "filename": "ENG - Shin Seiki Evangelion - OP - Zankoku na Tenshi no These ~ Alternative Vers.mp4",
      "audiogain": 0.64,
      "loudnorm": "-19.05,-6.43,5.80,-29.29,-0.70",
      "filesize": 46154355,
      "duration": 222,
      "default": true,
      "lyrics": [
        {
          "filename": "ENG - Shin Seiki Evangelion - OP - Zankoku na Tenshi no These ~ Alternative Vers.ass",
          "default": true,
          "version": "Default"
        }
      ]
    }
  ],
  "data": {
    "created_at": "2019-04-27T10:36:25.000Z",
    "ignoreHooks": false,
    "kid": "5a8f26ed-e387-4169-ad8a-4ce8c31b65d9",
    "modified_at": "2022-07-31T17:38:04.561Z",
    "parents": [
      "a0ac08a9-46b6-4219-8017-a0a9581ef914"
    ],
    "repository": "kara.moe",
    "tags": {
      "authors": [
        "5e93f02a-bcd1-40a9-ba7a-91ada6683aea"
      ],
      "collections": [
        "c7db86a0-ff64-4044-9be4-66dd1ef1d1c1"
      ],
      "creators": [
        "011b3ef8-7a64-4816-b94c-1c21bc24e833",
        "66be91d0-347b-4ab5-bbf8-ca0aa7603123"
      ],
      "families": [
        "5391f9fe-638c-415f-8dc9-958e3a2c5787"
      ],
      "groups": [
        "7792cc27-9ff9-4d47-9287-2338b7db1575"
      ],
      "langs": [
        "de5eda1c-5fb3-46a6-9606-d4554fc5a1d6"
      ],
      "misc": [
        "cef35a27-3bf0-48c9-beb2-d245ba62ea6b"
      ],
      "series": [
        "af74c4e9-b42d-42c6-9fe0-0365aa8d8ffc"
      ],
      "singers": [
        "d75a6087-dda1-417c-81f7-370a9a16f9d3"
      ],
      "songtypes": [
        "f02ad9b3-0bd9-4aad-85b3-9976739ba0e4"
      ],
      "songwriters": [
        "4ca4829a-9ae5-4d55-900e-8471ba382b32",
        "5d94e993-d856-4ae0-af7f-a366d8db00e9",
        "f611b976-72f1-43a2-9fcd-c823dfa0ba15"
      ],
      "versions": [
        "9f63c359-d1bf-425a-bcf5-b245c2c9211d"
      ],
      "franchises": [
        "f5c46257-58e9-4eac-92ce-7d02fd528809"
      ]
    },
    "titles": {
      "eng": "A Cruel Angel's Thesis",
      "jpn": "残酷な天使のテーゼ",
      "qro": "Zankoku na Tenshi no These"
    },
    "titles_default_language": "qro",
    "titles_aliases": [
      "The Cruel Angel's Thesis",
      "Zankoku na Tenshi no Thesis"
    ],
    "title": "Zankoku na Tenshi no These",
    "year": 1987
  }
}