{
  "header": {
    "description": "Karaoke Mugen Karaoke Data File",
    "version": 4
  },
  "medias": [
    {
      "version": "Default",
      "filename": "ENG - Lady Gaga - MV - Poker Face.mp4",
      "audiogain": -9.73,
      "loudnorm": "-7.81,2.07,3.70,-17.99,-1.25",
      "filesize": 90211995,
      "duration": 213,
      "default": true,
      "lyrics": [
        {
          "filename": "ENG - Lady Gaga - MV - Poker Face.ass",
          "default": true,
          "version": "Default"
        }
      ]
    }
  ],
  "data": {
    "created_at": "2022-08-02T14:28:44.529Z",
    "kid": "20e11f72-2efd-4359-b5a2-188aca919565",
    "modified_at": "2022-08-02T14:28:44.529Z",
    "tags": {
      "authors": [
        "aea68e75-e469-45bd-be80-67f2af0e6b2d"
      ],
      "creators": [
        "a578a772-c980-4f43-b5e5-fbbf122794cf",
        "ed7689db-cc8f-4f27-a860-8cc7dde10c17",
        "5ccd3d6d-03de-448a-9bb8-fadb30db6be1",
        "765cec45-4b2f-4bf0-b3ce-a2d174e8dbd7"
      ],
      "families": [
        "5391f9fe-638c-415f-8dc9-958e3a2c5787"
      ],
      "groups": [
        "3c14c864-533c-49e6-a3cc-6969f1233775"
      ],
      "langs": [
        "de5eda1c-5fb3-46a6-9606-d4554fc5a1d6"
      ],
      "singers": [
        "2fa04cb7-90ce-4004-9cb9-c5361e03f886"
      ],
      "songtypes": [
        "7be1b15c-cff8-4b37-a649-5c90f3d569a9"
      ],
      "songwriters": [
        "2fa04cb7-90ce-4004-9cb9-c5361e03f886",
        "a14bf1d2-3747-4e50-a71a-add9d27f5e6a"
      ],
      "collections": [
        "efe171c0-e8a1-4d03-98c0-60ecf741ad52"
      ]
    },
    "titles": {
      "eng": "Poker Face"
    },
    "titles_default_language": "eng",
    "titles_aliases": [],
    "title": "Poker Face",
    "year": "2008",
    "repository": "kara.moe"
  }
}