{
  "header": {
    "version": 4,
    "description": "Karaoke Mugen Karaoke Data File"
  },
  "medias": [
    {
      "version": "Default",
      "filename": "ENG - Weird Al Yankovic - MV - Polka Face.mp4",
      "audiogain": -8.04,
      "loudnorm": "-10.28,-0.23,4.10,-20.40,-0.55",
      "filesize": 60455875,
      "duration": 285,
      "default": true,
      "lyrics": [
        {
          "filename": "ENG - Weird Al Yankovic - MV - Polka Face.ass",
          "default": true,
          "version": "Default"
        }
      ]
    }
  ],
  "data": {
    "created_at": "2022-09-30T13:58:59.687Z",
    "ignoreHooks": false,
    "kid": "accc191f-e7c5-456f-b496-e1932d4a6822",
    "modified_at": "2022-09-30T14:08:37.919Z",
    "repository": "kara.moe",
    "tags": {
      "authors": [
        "9cdf3b70-3550-457c-bdb9-038f3253c6ad"
      ],
      "collections": [
        "efe171c0-e8a1-4d03-98c0-60ecf741ad52"
      ],
      "creators": [
        "5b29bf8d-93e9-4601-9992-0b2b6d87e27d"
      ],
      "families": [
        "0377db02-3af6-43b8-9b08-c759df3d25c3"
      ],
      "groups": [
        "8e209ae4-4381-438f-89dc-1b21752027d2",
        "ae613721-1fbe-480d-ba6b-d6d0702b184d"
      ],
      "langs": [
        "de5eda1c-5fb3-46a6-9606-d4554fc5a1d6"
      ],
      "misc": [
        "cef35a27-3bf0-48c9-beb2-d245ba62ea6b"
      ],
      "singers": [
        "b6177d57-4cff-40f2-b4a7-ede40300b2a0"
      ],
      "songtypes": [
        "7be1b15c-cff8-4b37-a649-5c90f3d569a9"
      ],
      "songwriters": [
        "062748a1-6852-4fd9-b27b-7e041a3a93d4",
        "06a279ed-296a-46d8-af88-3c1b0773a282",
        "0f192f4e-f0ef-44ef-b9f1-93dfbf7cc469",
        "125e44b0-7709-4675-a431-3c5512acc7ee",
        "1b298e96-3e80-42c6-af02-fd520cac0e75",
        "1d4b3402-a0d5-440d-a189-9b18d569e3cf",
        "20f37062-cdf4-4488-91a7-6f535afd72c7",
        "2ebe9a03-8413-4746-a2ed-a6228a453724",
        "355cd3bd-d36a-4d1f-8f3a-79ca670b1b6b",
        "4ca5706e-6af0-46ec-a8d4-5d70273b3f52",
        "4d463f8f-5b10-48bc-a548-8a7d98ff5d6e",
        "4d7d5ff1-6197-4672-8c3c-91ca32892f27",
        "5b6e95c2-bd00-42a0-b340-5476fd8fa1b3",
        "5c1afc9e-1f41-4ad4-b19c-b0144b48917a",
        "6ff8e9dc-8be4-40af-a7a4-ac6d842fb1b2",
        "7927e9c0-3c7f-47db-b286-f38741aef672",
        "8944e452-0ced-4bcf-8316-70f3eff1bcf5",
        "9159450f-3b1f-40df-84d3-92953fe7f7c4",
        "98b84ad9-262c-4b90-a27a-e94aed540394",
        "9c184b75-3e6d-442a-816c-b23ff26918ac",
        "aa8b15e2-beec-496c-ab54-49f43fbb57df",
        "b6177d57-4cff-40f2-b4a7-ede40300b2a0",
        "c51bd42c-5bf3-4cae-861b-5eb8ad34c96c",
        "c7191dbf-5748-4c33-b100-cfd0beef089d",
        "c9ca24e4-eaff-41e3-bd31-ae8e26ec573a",
        "cc76b1aa-f4e0-4d60-8618-130f83600e49",
        "cf55f935-6b3b-45bd-951a-3c691f31ab22",
        "f910f627-cd3e-494c-90fb-11ffc3378669"
      ]
    },
    "titles": {
      "eng": "Polka Face"
    },
    "titles_default_language": "eng",
    "title": "Polka Face",
    "year": 2011
  }
}