{
  "header": {
    "description": "Karaoke Mugen Karaoke Data File",
    "version": 4
  },
  "medias": [
    {
      "version": "Default",
      "filename": "ENG - Fozzy - MV - Judas.mp4",
      "audiogain": -8.05,
      "loudnorm": "-8.84,1.00,5.50,-18.97,-1.14",
      "filesize": 94718477,
      "duration": 248,
      "default": true,
      "lyrics": [
        {
          "filename": "ENG - Fozzy - MV - Judas.ass",
          "default": true,
          "version": "Default"
        }
      ]
    }
  ],
  "data": {
    "created_at": "2022-08-09T11:56:46.074Z",
    "kid": "2e5b7c7f-6854-4042-a0b1-5d047f093b3b",
    "modified_at": "2022-08-09T11:56:46.074Z",
    "tags": {
      "authors": [
        "9653b49c-f44e-4d00-ad29-1bc2d5d4f09c"
      ],
      "creators": [
        "767bd17b-f8d7-4479-9fd3-628ad8df203f"
      ],
      "families": [
        "5391f9fe-638c-415f-8dc9-958e3a2c5787"
      ],
      "groups": [
        "ae613721-1fbe-480d-ba6b-d6d0702b184d"
      ],
      "langs": [
        "de5eda1c-5fb3-46a6-9606-d4554fc5a1d6"
      ],
      "singers": [
        "b374d5a5-77de-4294-bca1-8185837c5cdc"
      ],
      "songtypes": [
        "7be1b15c-cff8-4b37-a649-5c90f3d569a9"
      ],
      "songwriters": [
        "67d5d1f2-68e9-4698-ae35-1a7dfa278204",
        "caf9804c-98d3-4b46-be02-8d35bc10e570",
        "9821ecec-aced-4102-ae9a-0dc2ba04c93a"
      ],
      "collections": [
        "efe171c0-e8a1-4d03-98c0-60ecf741ad52"
      ]
    },
    "titles": {
      "eng": "Judas"
    },
    "titles_default_language": "eng",
    "titles_aliases": [],
    "title": "Judas",
    "year": "2017",
    "repository": "kara.moe"
  }
}