{
  "header": {
    "version": 4,
    "description": "Karaoke Mugen Karaoke Data File"
  },
  "medias": [
    {
      "version": "Default",
      "filename": "ENG - David Guetta, Sia - MV - Titanium.mp4",
      "audiogain": -11.21,
      "loudnorm": "-6.90,2.00,6.10,-17.20,-1.13",
      "filesize": 94118453,
      "duration": 245,
      "default": true,
      "lyrics": [
        {
          "filename": "ENG - David Guetta, Sia - MV - Titanium.ass",
          "default": true,
          "version": "Default"
        }
      ]
    }
  ],
  "data": {
    "created_at": "2022-08-16T21:29:51.411Z",
    "ignoreHooks": false,
    "kid": "68489520-c782-4e98-b137-ef928080401e",
    "modified_at": "2022-10-14T22:46:45.560Z",
    "repository": "kara.moe",
    "tags": {
      "authors": [
        "aea68e75-e469-45bd-be80-67f2af0e6b2d"
      ],
      "collections": [
        "efe171c0-e8a1-4d03-98c0-60ecf741ad52"
      ],
      "creators": [
        "0a4146d8-47f8-4e80-a24f-b724c616f494",
        "31eff3f0-2c1f-4fbb-88ee-a9b6ca46118e"
      ],
      "families": [
        "5391f9fe-638c-415f-8dc9-958e3a2c5787"
      ],
      "groups": [
        "ae613721-1fbe-480d-ba6b-d6d0702b184d"
      ],
      "langs": [
        "de5eda1c-5fb3-46a6-9606-d4554fc5a1d6"
      ],
      "singers": [
        "1ea2a9dc-3a04-4cc2-8e88-4ff69cf6a760",
        "2d28b400-bf94-4815-a05a-819d8a50d222"
      ],
      "songtypes": [
        "7be1b15c-cff8-4b37-a649-5c90f3d569a9"
      ],
      "songwriters": [
        "1ea2a9dc-3a04-4cc2-8e88-4ff69cf6a760",
        "8048b05a-d7b4-47c5-b8c3-0cba1be36e92",
        "b00b2a8c-0249-493b-857a-83f368de3231",
        "2d28b400-bf94-4815-a05a-819d8a50d222"
      ]
    },
    "titles": {
      "eng": "Titanium"
    },
    "titles_default_language": "eng",
    "title": "Titanium",
    "year": 2011
  }
}