{
  "header": {
    "version": 4,
    "description": "Karaoke Mugen Karaoke Data File"
  },
  "medias": [
    {
      "version": "Default",
      "filename": "ENG - Madonna - MV - Material Girl.mp4",
      "audiogain": -5.14,
      "loudnorm": "-14.02,-2.41,6.90,-24.21,-0.65",
      "filesize": 126218640,
      "duration": 250,
      "default": true,
      "lyrics": [
        {
          "filename": "ENG - Madonna - MV - Material Girl.ass",
          "default": true,
          "version": "Default"
        }
      ]
    }
  ],
  "data": {
    "created_at": "2022-07-21T21:21:17.083Z",
    "ignoreHooks": false,
    "kid": "529491a9-7a11-4d24-a284-1fedbe24b5ee",
    "modified_at": "2022-07-21T21:43:47.202Z",
    "repository": "kara.moe",
    "tags": {
      "authors": [
        "0c8e4377-ee35-4896-89ed-9d06a1b5acd5"
      ],
      "collections": [
        "efe171c0-e8a1-4d03-98c0-60ecf741ad52"
      ],
      "creators": [
        "c5bbb946-597e-4015-8968-bfbb6b4f68a5"
      ],
      "families": [
        "5391f9fe-638c-415f-8dc9-958e3a2c5787"
      ],
      "groups": [
        "7792cc27-9ff9-4d47-9287-2338b7db1575"
      ],
      "langs": [
        "de5eda1c-5fb3-46a6-9606-d4554fc5a1d6"
      ],
      "singers": [
        "84f80b38-6b3e-447a-8ee2-5998e010f848"
      ],
      "songtypes": [
        "7be1b15c-cff8-4b37-a649-5c90f3d569a9"
      ],
      "songwriters": [
        "19650e1f-665c-4f39-982e-ff53ae35e50c",
        "96bbfd1f-b511-412e-bf8d-161af4068c2f"
      ]
    },
    "titles": {
      "eng": "Material Girl"
    },
    "titles_default_language": "eng",
    "title": "Material Girl",
    "year": 1985
  }
}