{
  "header": {
    "version": 4,
    "description": "Karaoke Mugen Karaoke Data File"
  },
  "medias": [
    {
      "version": "Default",
      "filename": "ENG - Bastard!! - ONA ED - Blessless.mp4",
      "audiogain": 5.38,
      "loudnorm": "-23.04,-10.32,11.30,-33.77,0.01",
      "filesize": 30578878,
      "duration": 90,
      "default": true,
      "lyrics": [
        {
          "filename": "ENG - Bastard!! - ONA ED - Blessless.ass",
          "default": true,
          "version": "Default"
        }
      ]
    }
  ],
  "data": {
    "created_at": "2022-07-13T00:43:25.897Z",
    "ignoreHooks": false,
    "kid": "b211eea5-c14c-465a-b552-d9eac23225c0",
    "modified_at": "2022-07-13T00:43:27.275Z",
    "repository": "kara.moe",
    "tags": {
      "authors": [
        "06852e02-b77e-4106-b6f7-2d03942ad0ea"
      ],
      "collections": [
        "c7db86a0-ff64-4044-9be4-66dd1ef1d1c1"
      ],
      "creators": [
        "58186e9d-9478-47dc-8c95-eeea5c0a3317"
      ],
      "langs": [
        "4dcf9614-7914-42aa-99f4-dbce2e059133",
        "de5eda1c-5fb3-46a6-9606-d4554fc5a1d6"
      ],
      "misc": [
        "fe819ff1-9db8-4a0f-85dc-0e322c9126c4"
      ],
      "origins": [
        "938de218-5343-4865-94d3-fb33f2eaa152",
        "8db3e098-06ef-45e5-bba9-cb04a21c1e66"
      ],
      "series": [
        "7f6ad3ae-b0c8-49a2-9884-69fc9d598b92"
      ],
      "singers": [
        "d0a63050-0a3a-4289-9b9e-5de066696d67"
      ],
      "songtypes": [
        "38c77c56-2b95-4040-b676-0994a8cb0597"
      ],
      "songwriters": [
        "d0a63050-0a3a-4289-9b9e-5de066696d67"
      ],
      "warnings": [
        "e82ce681-6d7b-4fb6-abe4-daa8aaa9bbf9"
      ],
      "groups": [
        "8e209ae4-4381-438f-89dc-1b21752027d2"
      ]
    },
    "titles": {
      "eng": "Blessless"
    },
    "titles_default_language": "eng",
    "title": "Blessless",
    "year": 2022
  }
}