{
  "header": {
    "description": "Karaoke Mugen Karaoke Data File",
    "version": 4
  },
  "medias": [
    {
      "version": "Default",
      "filename": "ENG - U2 - MV - Vertigo.mp4",
      "audiogain": -10.52,
      "loudnorm": "-6.13,1.22,3.00,-16.22,-0.78",
      "filesize": 46898699,
      "duration": 190,
      "default": true,
      "lyrics": [
        {
          "filename": "ENG - U2 - MV - Vertigo.ass",
          "default": true,
          "version": "Default"
        }
      ]
    }
  ],
  "data": {
    "created_at": "2022-06-08T19:28:03.363Z",
    "kid": "0e0604a8-f276-454e-9ca1-8157830dcaef",
    "modified_at": "2022-06-08T19:28:03.363Z",
    "tags": {
      "authors": [
        "0c8e4377-ee35-4896-89ed-9d06a1b5acd5"
      ],
      "creators": [
        "35cf30c4-8701-4295-be83-6806dbe744ea",
        "5ccd3d6d-03de-448a-9bb8-fadb30db6be1"
      ],
      "families": [
        "5391f9fe-638c-415f-8dc9-958e3a2c5787"
      ],
      "groups": [
        "3c14c864-533c-49e6-a3cc-6969f1233775"
      ],
      "langs": [
        "de5eda1c-5fb3-46a6-9606-d4554fc5a1d6"
      ],
      "singers": [
        "d1c6cd68-74a2-4877-9e5f-6e7d0f4a0afa"
      ],
      "songtypes": [
        "7be1b15c-cff8-4b37-a649-5c90f3d569a9"
      ],
      "songwriters": [
        "b5d94a8b-bea7-4eb2-9a17-72eaf4b040ce",
        "949b0938-edae-47ec-b4b4-b3484df704c6"
      ],
      "collections": [
        "efe171c0-e8a1-4d03-98c0-60ecf741ad52"
      ]
    },
    "titles": {
      "eng": "Vertigo"
    },
    "titles_default_language": "eng",
    "titles_aliases": [],
    "title": "Vertigo",
    "year": "2004",
    "repository": "kara.moe"
  }
}