{
  "header": {
    "version": 4,
    "description": "Karaoke Mugen Karaoke Data File"
  },
  "medias": [
    {
      "version": "Default",
      "filename": "ENG - Eminem - MV - Lose Yourself.mp4",
      "audiogain": -2.79,
      "loudnorm": "-15.57,-3.14,10.60,-26.09,-1.43",
      "filesize": 56570857,
      "duration": 323,
      "default": true,
      "lyrics": [
        {
          "filename": "ENG - Eminem - MV - Lose Yourself.ass",
          "default": true,
          "version": "Default"
        }
      ]
    }
  ],
  "data": {
    "created_at": "2022-05-04T20:46:36.561Z",
    "ignoreHooks": false,
    "kid": "43a80b9f-aa63-4a27-aaec-d4c888243e57",
    "modified_at": "2022-10-15T15:47:14.126Z",
    "repository": "kara.moe",
    "tags": {
      "authors": [
        "9bea7e05-2dec-434e-92ff-fcb53f69fdb7"
      ],
      "collections": [
        "efe171c0-e8a1-4d03-98c0-60ecf741ad52"
      ],
      "creators": [
        "1107452d-8673-42ba-a8a6-a90551a96648",
        "5ccd3d6d-03de-448a-9bb8-fadb30db6be1",
        "63167bab-c3d9-48dc-83a5-2924f7620af4"
      ],
      "families": [
        "5391f9fe-638c-415f-8dc9-958e3a2c5787"
      ],
      "groups": [
        "3c14c864-533c-49e6-a3cc-6969f1233775"
      ],
      "langs": [
        "de5eda1c-5fb3-46a6-9606-d4554fc5a1d6"
      ],
      "misc": [
        "86705d4b-24e4-4756-9687-2b9c98bcf366"
      ],
      "singers": [
        "06cfc251-0816-4dd0-9c35-d450cf05a2dc"
      ],
      "songtypes": [
        "7be1b15c-cff8-4b37-a649-5c90f3d569a9"
      ],
      "songwriters": [
        "75998a7c-bfda-44ae-9a51-f0bae1d42d75",
        "868b84f1-808f-4be5-b2b1-d243d79a89f4",
        "06cfc251-0816-4dd0-9c35-d450cf05a2dc"
      ]
    },
    "titles": {
      "eng": "Lose Yourself"
    },
    "titles_default_language": "eng",
    "title": "Lose Yourself",
    "year": 2002
  }
}