{
  "header": {
    "version": 4,
    "description": "Karaoke Mugen Karaoke Data File"
  },
  "medias": [
    {
      "version": "Default",
      "filename": "ENG - The Longest Johns - AUDIO - Bones In The Ocean.mp3",
      "audiogain": -1.71,
      "loudnorm": "-17.43,-2.39,5.40,-27.77,-0.41",
      "filesize": 3274944,
      "duration": 198,
      "default": true,
      "lyrics": [
        {
          "filename": "ENG - The Longest Johns - AUDIO - Bones In The Ocean.ass",
          "default": true,
          "version": "Default"
        }
      ]
    }
  ],
  "data": {
    "created_at": "2021-10-21T18:40:33.887Z",
    "kid": "d16d57f7-a5a3-4ae7-9f65-01eb015275af",
    "modified_at": "2021-11-11T22:55:12.151Z",
    "repository": "kara.moe",
    "tags": {
      "authors": [
        "244ec47a-1d4d-472d-9588-67e859bf27df"
      ],
      "collections": [
        "efe171c0-e8a1-4d03-98c0-60ecf741ad52"
      ],
      "creators": [
        "1271ee70-dc4c-4c78-bc3b-f20218c2b92d"
      ],
      "groups": [
        "8c22c899-b3ed-42da-a548-ce00f950798b",
        "ae613721-1fbe-480d-ba6b-d6d0702b184d"
      ],
      "langs": [
        "de5eda1c-5fb3-46a6-9606-d4554fc5a1d6"
      ],
      "singers": [
        "4edf2bd7-7181-4712-bc29-1cf6adb71b8d"
      ],
      "songtypes": [
        "42a262ae-acba-4ab5-a446-c5789c96c821"
      ],
      "songwriters": [
        "39cc5962-1d8f-4883-8fb2-8042cc1a4388"
      ]
    },
    "titles": {
      "eng": "Bones In The Ocean"
    },
    "title": "Bones In The Ocean",
    "year": 2013
  }
}