{
  "header": {
    "version": 4,
    "description": "Karaoke Mugen Karaoke Data File"
  },
  "medias": [
    {
      "version": "Default",
      "filename": "FIL - Cytus - GAME PSP AUDIO - COMA ~ Short Vers.mp3",
      "audiogain": -11.23,
      "loudnorm": "-5.82,1.22,5.50,-16.20,-0.09",
      "filesize": 4615679,
      "duration": 120,
      "default": true,
      "lyrics": [
        {
          "filename": "FIL - Cytus - GAME PSP AUDIO - COMA ~ Short Vers.ass",
          "default": true,
          "version": "Default"
        }
      ]
    }
  ],
  "data": {
    "created_at": "2023-08-04T11:23:56.815Z",
    "ignoreHooks": false,
    "kid": "72b3f6e0-d3df-436f-934e-156272044b00",
    "modified_at": "2023-08-04T11:57:24.061Z",
    "repository": "kara.moe",
    "tags": {
      "authors": [
        "444f6842-1a6b-4ade-b8fa-e48490ebc39d"
      ],
      "collections": [
        "c7db86a0-ff64-4044-9be4-66dd1ef1d1c1"
      ],
      "genres": [
        "45623cae-6d68-4304-a49b-896d1d6f4580"
      ],
      "groups": [
        "ae613721-1fbe-480d-ba6b-d6d0702b184d"
      ],
      "langs": [
        "98a87de6-e703-4740-bcdc-b6a588887b5e"
      ],
      "origins": [
        "dbedd6b3-d125-4cd8-aa32-c4175e4ca3a3"
      ],
      "platforms": [
        "213a1a15-e73a-4a08-b3f6-b6e2745a82e5",
        "6b101aff-4b7b-4b0d-b35e-0f1b67e38c9b"
      ],
      "series": [
        "ab1258d1-2d78-4b62-8fef-e0440f246b2b"
      ],
      "singers": [
        "dafdeefa-0a96-44df-9653-aeb88c400e33"
      ],
      "songtypes": [
        "42a262ae-acba-4ab5-a446-c5789c96c821"
      ],
      "versions": [
        "d125c80a-86c1-4321-88e9-07b7800679b6"
      ],
      "franchises": [
        "ab1258d1-2d78-4b62-8fef-e0440f246b2b"
      ]
    },
    "titles": {
      "eng": "COMA"
    },
    "titles_default_language": "eng",
    "year": 2013
  }
}