{
  "header": {
    "version": 4,
    "description": "Karaoke Mugen Karaoke Data File"
  },
  "medias": [
    {
      "version": "Default",
      "filename": "FRE - Nodame Cantabile Paris Hen - ED - Tokyo et Paris.mp4",
      "audiogain": 3.93,
      "loudnorm": "-20.62,-6.99,2.90,-30.68,0.11",
      "filesize": 32656100,
      "duration": 81,
      "default": true,
      "lyrics": [
        {
          "filename": "FRE - Nodame Cantabile Paris Hen - ED - Tokyo et Paris.ass",
          "default": true,
          "version": "Default"
        }
      ]
    }
  ],
  "data": {
    "created_at": "2017-10-11T17:02:04.000Z",
    "ignoreHooks": false,
    "kid": "a75ea512-1f05-41f7-9499-62ab5efad4d0",
    "modified_at": "2023-02-19T00:24:36.510Z",
    "repository": "kara.moe",
    "tags": {
      "authors": [
        "5bdaba57-27f8-4568-8806-76a807728766"
      ],
      "collections": [
        "c7db86a0-ff64-4044-9be4-66dd1ef1d1c1"
      ],
      "creators": [
        "802a8ac8-b16f-40a4-944b-99956798c906"
      ],
      "families": [
        "0377db02-3af6-43b8-9b08-c759df3d25c3"
      ],
      "groups": [
        "33881a14-788e-4e2a-a97d-1e5f51542a26",
        "3c14c864-533c-49e6-a3cc-6969f1233775"
      ],
      "langs": [
        "fd8072b7-4d9b-45d4-8f5b-a931a830edef"
      ],
      "misc": [
        "fe819ff1-9db8-4a0f-85dc-0e322c9126c4"
      ],
      "origins": [
        "938de218-5343-4865-94d3-fb33f2eaa152"
      ],
      "series": [
        "5b2d23e1-e74a-4621-81b8-03ba57002bc4"
      ],
      "singers": [
        "91430c77-1820-4272-a4c7-276ba0c1036c"
      ],
      "songtypes": [
        "38c77c56-2b95-4040-b676-0994a8cb0597"
      ],
      "songwriters": [
        "02a67ec5-6e52-4917-a234-f77db85d018c"
      ],
      "franchises": [
        "0ba1106d-bbc5-483c-a0cc-ceba4ea7b170"
      ]
    },
    "titles": {
      "fre": "Tokyo et Paris",
      "jpn": "東京 et 巴里"
    },
    "titles_default_language": "fre",
    "year": 2008
  }
}