{
  "header": {
    "version": 4,
    "description": "Karaoke Mugen Karaoke Data File"
  },
  "medias": [
    {
      "version": "Default",
      "filename": "FRE - Eddy Mitchell - AUDIO - Couleur menthe a l'eau.mp3",
      "audiogain": -5.24,
      "loudnorm": "-14.49,0.40,10.00,-24.79,-1.14",
      "filesize": 5246332,
      "duration": 210,
      "default": true,
      "lyrics": [
        {
          "filename": "FRE - Eddy Mitchell - AUDIO - Couleur menthe a l'eau.ass",
          "default": true,
          "version": "Default"
        }
      ]
    }
  ],
  "data": {
    "created_at": "2021-09-12T11:05:23.337Z",
    "kid": "f666364d-972b-4a76-8ba0-ef7fab881d53",
    "modified_at": "2021-11-11T22:52:21.922Z",
    "repository": "kara.moe",
    "tags": {
      "authors": [
        "ff1c291a-2b0c-43b4-8c49-494366e479cc"
      ],
      "collections": [
        "efe171c0-e8a1-4d03-98c0-60ecf741ad52"
      ],
      "creators": [
        "dee008b3-9388-4984-89a0-08935ecddc0d"
      ],
      "groups": [
        "7792cc27-9ff9-4d47-9287-2338b7db1575"
      ],
      "langs": [
        "fd8072b7-4d9b-45d4-8f5b-a931a830edef"
      ],
      "singers": [
        "ece96c1d-3256-4167-8032-837e356911b6"
      ],
      "songtypes": [
        "42a262ae-acba-4ab5-a446-c5789c96c821"
      ],
      "songwriters": [
        "de74d299-ca9b-4832-8176-7351a03ec72e",
        "ece96c1d-3256-4167-8032-837e356911b6"
      ]
    },
    "titles": {
      "eng": "Couleur menthe à l'eau"
    },
    "title": "Couleur menthe à l'eau",
    "year": 1980
  }
}