{
  "header": {
    "version": 4,
    "description": "Karaoke Mugen Karaoke Data File"
  },
  "medias": [
    {
      "version": "Default",
      "filename": "FRE - Code Lyoko - MV OP - Un monde sans danger (2022) ~ Full Vers.mp4",
      "audiogain": -7.05,
      "loudnorm": "-10.59,-0.08,9.40,-20.87,-1.62",
      "filesize": 35005315,
      "duration": 204,
      "default": true,
      "lyrics": [
        {
          "filename": "FRE - Code Lyoko - MV OP - Un monde sans danger (2022) ~ Full Vers.ass",
          "default": true,
          "version": "Default"
        }
      ]
    }
  ],
  "data": {
    "created_at": "2023-09-13T10:45:06.369Z",
    "ignoreHooks": false,
    "kid": "b74dfa12-8ba6-4be8-a6e5-876b40f1a1a9",
    "modified_at": "2023-09-13T16:22:09.940Z",
    "parents": [
      "c7b71129-0793-4551-b5eb-32235851b856"
    ],
    "repository": "kara.moe",
    "tags": {
      "authors": [
        "05c1e4ad-32ba-490e-8f3c-5cd491c96d85"
      ],
      "collections": [
        "c7db86a0-ff64-4044-9be4-66dd1ef1d1c1"
      ],
      "creators": [
        "647386fe-6901-46bd-8ed0-bd68274c5b1c"
      ],
      "families": [
        "5391f9fe-638c-415f-8dc9-958e3a2c5787"
      ],
      "groups": [
        "3c14c864-533c-49e6-a3cc-6969f1233775",
        "8e209ae4-4381-438f-89dc-1b21752027d2",
        "f5e7d2fc-0cbb-4fb9-a84a-b25dfb0e9e77"
      ],
      "langs": [
        "fd8072b7-4d9b-45d4-8f5b-a931a830edef"
      ],
      "origins": [
        "938de218-5343-4865-94d3-fb33f2eaa152"
      ],
      "series": [
        "8fafe474-c2bf-40d2-a599-d6c82cec428c"
      ],
      "singers": [
        "5d623909-4b1a-4432-a686-073f064014bd"
      ],
      "songtypes": [
        "7be1b15c-cff8-4b37-a649-5c90f3d569a9",
        "f02ad9b3-0bd9-4aad-85b3-9976739ba0e4"
      ],
      "songwriters": [
        "2c579306-8c97-4e80-8e4a-1e9899675fce",
        "46d96e12-636e-4ff0-b86b-aec07e93e531",
        "5aecea88-02bb-410b-b195-26122d127b25",
        "874640d3-2894-4fb0-b8e5-3f19b44592a5",
        "8c7663e7-6449-499c-a41c-1cf543e2e3af"
      ],
      "versions": [
        "c2143a7f-6970-450e-8a79-0302db9220a9"
      ]
    },
    "titles": {
      "fre": "Un monde sans danger (2022)"
    },
    "titles_default_language": "fre",
    "year": 2022
  }
}