{
  "header": {
    "version": 4,
    "description": "Karaoke Mugen Karaoke Data File"
  },
  "medias": [
    {
      "version": "Default",
      "filename": "FRE - Pocahontas - MOVIE IN - L'air du vent.mp4",
      "audiogain": 1.22,
      "loudnorm": "-20.28,-8.16,8.90,-30.71,-1.38",
      "filesize": 45762332,
      "duration": 199,
      "default": true,
      "lyrics": [
        {
          "filename": "FRE - Pocahontas - MOVIE IN - L'air du vent.ass",
          "default": true,
          "version": "Default",
          "subchecksum": "697c8e21e4aea05c3603a9c1559a89db"
        }
      ]
    }
  ],
  "data": {
    "created_at": "2019-04-24T20:40:25.000Z",
    "kid": "614cdddd-1cbc-46dc-b119-4014fa059330",
    "modified_at": "2021-02-25T10:28:08.040Z",
    "repository": "kara.moe",
    "tags": {
      "authors": [
        "8f2f659f-483a-4f97-8102-34fab72aba25"
      ],
      "collections": [
        "c7db86a0-ff64-4044-9be4-66dd1ef1d1c1"
      ],
      "creators": [
        "53ac4d74-c9b8-4fed-bab1-cfa65b2f3142"
      ],
      "families": [
        "0377db02-3af6-43b8-9b08-c759df3d25c3"
      ],
      "groups": [
        "24db50aa-a126-4d34-a48a-e45db79c4245",
        "f5e7d2fc-0cbb-4fb9-a84a-b25dfb0e9e77"
      ],
      "langs": [
        "fd8072b7-4d9b-45d4-8f5b-a931a830edef"
      ],
      "origins": [
        "c8ca9dea-d8b4-48fe-8427-d911653232e9"
      ],
      "series": [
        "2c85dc2a-9617-4768-b1f2-655989605fc8"
      ],
      "singers": [
        "fe5eba32-540c-4db6-86d4-4a1e185f2fe8"
      ],
      "songtypes": [
        "5e5250d9-351a-4a82-98eb-55db50ad8962"
      ],
      "songwriters": [
        "5b6f3049-0cf4-4746-9b48-3ff0240b54a3"
      ]
    },
    "title": "L'air du vent",
    "titles": {
      "eng": "L'air du vent"
    },
    "year": 1995
  }
}