{
  "header": {
    "version": 4,
    "description": "Karaoke Mugen Karaoke Data File"
  },
  "medias": [
    {
      "version": "Default",
      "filename": "FRE - Rita Mitsouko - MV - Les Histoires d'A.mp4",
      "audiogain": 4.1,
      "loudnorm": "-23.02,-2.86,6.00,-33.14,-0.24",
      "filesize": 119241338,
      "duration": 245,
      "default": true,
      "lyrics": [
        {
          "filename": "FRE - Rita Mitsouko - MV - Les Histoires d'A.ass",
          "default": true,
          "version": "Default",
          "subchecksum": "d2147cf3322fe9c5032e2ceda628f079"
        }
      ]
    }
  ],
  "data": {
    "created_at": "2020-07-11T20:53:13.038Z",
    "kid": "1be31cd9-2966-48c1-8813-8a48d3efcbc7",
    "modified_at": "2021-05-20T17:41:25.331Z",
    "repository": "kara.moe",
    "tags": {
      "authors": [
        "90414ca0-ab36-4879-8810-b032c6bfdab0"
      ],
      "collections": [
        "efe171c0-e8a1-4d03-98c0-60ecf741ad52"
      ],
      "creators": [
        "0f0aefb1-bf16-48f8-8364-428f59ca3ce9"
      ],
      "families": [
        "5391f9fe-638c-415f-8dc9-958e3a2c5787"
      ],
      "groups": [
        "7792cc27-9ff9-4d47-9287-2338b7db1575"
      ],
      "langs": [
        "fd8072b7-4d9b-45d4-8f5b-a931a830edef"
      ],
      "singers": [
        "aad674de-db0b-42f4-918b-5121009985dd"
      ],
      "songtypes": [
        "7be1b15c-cff8-4b37-a649-5c90f3d569a9"
      ],
      "songwriters": [
        "9552c421-98b8-45e0-ab02-3e3ef5af3a2c",
        "dfa56b39-b8bf-4070-bef1-265cc811cfaa"
      ]
    },
    "title": "Les Histoires d'A.",
    "titles": {
      "eng": "Les Histoires d'A."
    },
    "year": 1986
  }
}