{
  "header": {
    "version": 4,
    "description": "Karaoke Mugen Karaoke Data File"
  },
  "medias": [
    {
      "version": "Default",
      "filename": "FRE - Indochine - MV - J'ai demande a la lune.mp4",
      "audiogain": -5.86,
      "loudnorm": "-11.39,-0.36,6.50,-21.57,-1.63",
      "filesize": 20617408,
      "duration": 210,
      "default": true,
      "lyrics": [
        {
          "filename": "FRE - Indochine - MV - J'ai demande a la lune.ass",
          "default": true,
          "version": "Default"
        }
      ]
    }
  ],
  "data": {
    "created_at": "2020-06-30T08:05:24.839Z",
    "ignoreHooks": false,
    "kid": "ff06d716-fc69-4832-8004-c358e0b5db29",
    "modified_at": "2022-03-24T08:56:57.108Z",
    "repository": "kara.moe",
    "tags": {
      "authors": [
        "7e8a8ffd-da00-42d5-b2df-419688c94686",
        "fa399f2f-ea1d-4902-8796-ea6d8218aff0"
      ],
      "collections": [
        "efe171c0-e8a1-4d03-98c0-60ecf741ad52"
      ],
      "creators": [
        "5b29bf8d-93e9-4601-9992-0b2b6d87e27d"
      ],
      "families": [
        "5391f9fe-638c-415f-8dc9-958e3a2c5787"
      ],
      "groups": [
        "3c14c864-533c-49e6-a3cc-6969f1233775"
      ],
      "langs": [
        "fd8072b7-4d9b-45d4-8f5b-a931a830edef"
      ],
      "singers": [
        "f37601bf-43eb-4504-a148-4946c06cd680"
      ],
      "songtypes": [
        "7be1b15c-cff8-4b37-a649-5c90f3d569a9"
      ],
      "songwriters": [
        "4addcb7b-f975-4db9-a3a1-9cf1f39b87c6",
        "9dceb18c-4f75-40dc-b0ec-4db3f5c5bb7c"
      ]
    },
    "titles": {
      "fre": "J'ai demandé à la lune"
    },
    "titles_default_language": "fre",
    "title": "J'ai demandé à la lune",
    "year": 2002
  }
}