{
  "header": {
    "version": 4,
    "description": "Karaoke Mugen Karaoke Data File"
  },
  "medias": [
    {
      "version": "Default",
      "filename": "FRE - Indochine - MV - Tes yeux noirs.mp4",
      "audiogain": -5.55,
      "loudnorm": "-12.01,-0.27,3.20,-22.21,-1.00",
      "filesize": 14640676,
      "duration": 262,
      "default": true,
      "lyrics": [
        {
          "filename": "FRE - Indochine - MV - Tes yeux noirs.ass",
          "default": true,
          "version": "Default"
        }
      ]
    }
  ],
  "data": {
    "created_at": "2020-06-30T10:10:38.339Z",
    "ignoreHooks": false,
    "kid": "403a3f5b-f37e-4c46-812c-2a908a1f3e1c",
    "modified_at": "2022-03-24T08:55:23.241Z",
    "repository": "kara.moe",
    "tags": {
      "authors": [
        "90414ca0-ab36-4879-8810-b032c6bfdab0",
        "fa399f2f-ea1d-4902-8796-ea6d8218aff0"
      ],
      "collections": [
        "efe171c0-e8a1-4d03-98c0-60ecf741ad52"
      ],
      "creators": [
        "5b29bf8d-93e9-4601-9992-0b2b6d87e27d",
        "d53fe8cd-29f0-40c1-9910-e5304b217a8f"
      ],
      "families": [
        "5391f9fe-638c-415f-8dc9-958e3a2c5787"
      ],
      "groups": [
        "7792cc27-9ff9-4d47-9287-2338b7db1575"
      ],
      "langs": [
        "fd8072b7-4d9b-45d4-8f5b-a931a830edef"
      ],
      "singers": [
        "f37601bf-43eb-4504-a148-4946c06cd680"
      ],
      "songtypes": [
        "7be1b15c-cff8-4b37-a649-5c90f3d569a9"
      ],
      "songwriters": [
        "4addcb7b-f975-4db9-a3a1-9cf1f39b87c6",
        "8d6399fc-c9ab-471a-8f67-cc1e9dfcf953"
      ]
    },
    "titles": {
      "fre": "Tes yeux noirs"
    },
    "titles_default_language": "fre",
    "title": "Tes yeux noirs",
    "year": 1986
  }
}