{
  "header": {
    "version": 4,
    "description": "Karaoke Mugen Karaoke Data File"
  },
  "medias": [
    {
      "version": "Default",
      "filename": "FRE - Francis Cabrel - MV - Petite Marie.mp4",
      "audiogain": 1.3,
      "loudnorm": "-21.05,-3.45,11.60,-31.57,-1.60",
      "filesize": 35713252,
      "duration": 205,
      "default": true,
      "lyrics": [
        {
          "filename": "FRE - Francis Cabrel - MV - Petite Marie.ass",
          "default": true,
          "version": "Default"
        }
      ]
    }
  ],
  "data": {
    "created_at": "2021-12-04T21:32:20.797Z",
    "kid": "5a32a6eb-9563-4d53-aa82-c7d3cb1669c4",
    "modified_at": "2021-12-04T22:08:08.125Z",
    "repository": "kara.moe",
    "tags": {
      "authors": [
        "90414ca0-ab36-4879-8810-b032c6bfdab0"
      ],
      "collections": [
        "efe171c0-e8a1-4d03-98c0-60ecf741ad52"
      ],
      "creators": [
        "f3dc1c73-8de5-4f6f-bac0-2134986e5dbe"
      ],
      "families": [
        "5391f9fe-638c-415f-8dc9-958e3a2c5787"
      ],
      "groups": [
        "8e209ae4-4381-438f-89dc-1b21752027d2"
      ],
      "langs": [
        "fd8072b7-4d9b-45d4-8f5b-a931a830edef"
      ],
      "singers": [
        "a85824d9-aa33-43b4-b41f-451848e41298"
      ],
      "songtypes": [
        "7be1b15c-cff8-4b37-a649-5c90f3d569a9"
      ],
      "songwriters": [
        "a85824d9-aa33-43b4-b41f-451848e41298"
      ]
    },
    "titles": {
      "eng": "Petite Marie"
    },
    "title": "Petite Marie",
    "year": 2021
  }
}