{
  "header": {
    "version": 4,
    "description": "Karaoke Mugen Karaoke Data File"
  },
  "medias": [
    {
      "version": "Default",
      "filename": "FRE - Vickeblanka - MV - Ca Va question_mark.mp4",
      "audiogain": -8.73,
      "loudnorm": "-8.70,1.61,14.70,-19.71,-0.88",
      "filesize": 148485291,
      "duration": 253,
      "default": true,
      "lyrics": [
        {
          "filename": "FRE - Vickeblanka - MV - Ca Va question_mark.ass",
          "default": true,
          "version": "Default"
        }
      ]
    }
  ],
  "data": {
    "created_at": "2020-08-02T21:44:05.649Z",
    "kid": "b7130409-6900-409f-970a-131ea3e4c8c5",
    "modified_at": "2022-06-04T00:20:03.350Z",
    "repository": "kara.moe",
    "songorder": null,
    "tags": {
      "authors": [
        "87096920-112f-485f-a310-04156cb4624d"
      ],
      "creators": [
        "90caf15e-bc86-46e1-8793-9af7906c8310"
      ],
      "families": [
        "5391f9fe-638c-415f-8dc9-958e3a2c5787"
      ],
      "groups": [
        "60defa7b-774e-4680-8321-51b742c2e009",
        "ae613721-1fbe-480d-ba6b-d6d0702b184d"
      ],
      "langs": [
        "4dcf9614-7914-42aa-99f4-dbce2e059133",
        "fd8072b7-4d9b-45d4-8f5b-a931a830edef"
      ],
      "singers": [
        "32625dde-12c6-41c8-b31c-00ee9f458820"
      ],
      "songtypes": [
        "7be1b15c-cff8-4b37-a649-5c90f3d569a9"
      ],
      "songwriters": [
        "32625dde-12c6-41c8-b31c-00ee9f458820"
      ],
      "collections": [
        "dbcf2c22-524d-4708-99bb-601703633927"
      ]
    },
    "titles": {
      "fre": "Ca Va?"
    },
    "titles_default_language": "fre",
    "title": "Ca Va?",
    "year": 2019
  }
}