{
  "header": {
    "version": 4,
    "description": "Karaoke Mugen Karaoke Data File"
  },
  "medias": [
    {
      "version": "Default",
      "filename": "FRE - Stromae - MV - Tous les memes.mp4",
      "audiogain": -1.96,
      "loudnorm": "-14.46,-2.08,4.50,-24.47,-0.79",
      "filesize": 101632368,
      "duration": 210,
      "default": true,
      "lyrics": [
        {
          "filename": "FRE - Stromae - MV - Tous les memes.ass",
          "default": true,
          "version": "Default"
        }
      ]
    }
  ],
  "data": {
    "created_at": "2022-04-22T23:03:44.999Z",
    "ignoreHooks": false,
    "kid": "24fffd4a-b7c6-477a-ad59-be596027f043",
    "modified_at": "2022-04-22T23:16:14.373Z",
    "repository": "kara.moe",
    "tags": {
      "authors": [
        "90414ca0-ab36-4879-8810-b032c6bfdab0"
      ],
      "collections": [
        "efe171c0-e8a1-4d03-98c0-60ecf741ad52"
      ],
      "creators": [
        "438a4f9a-8573-40ed-a436-364aa3505f36",
        "e4e9a094-8651-4ffa-babe-43fb106b86d4",
        "f963181a-1214-47f8-b6f9-1705cbc33779"
      ],
      "families": [
        "5391f9fe-638c-415f-8dc9-958e3a2c5787"
      ],
      "groups": [
        "ae613721-1fbe-480d-ba6b-d6d0702b184d"
      ],
      "langs": [
        "fd8072b7-4d9b-45d4-8f5b-a931a830edef"
      ],
      "singers": [
        "ba5b28b0-c317-4b07-aad8-817a7db50c04"
      ],
      "songtypes": [
        "7be1b15c-cff8-4b37-a649-5c90f3d569a9"
      ],
      "songwriters": [
        "ba5b28b0-c317-4b07-aad8-817a7db50c04"
      ]
    },
    "titles": {
      "fre": "Tous les mêmes"
    },
    "titles_default_language": "fre",
    "title": "Tous les mêmes",
    "year": 2013
  }
}