{
  "header": {
    "version": 4,
    "description": "Karaoke Mugen Karaoke Data File"
  },
  "medias": [
    {
      "version": "Default",
      "filename": "FRE - Images - MV - Les Demons de minuit.mp4",
      "audiogain": -7.1,
      "loudnorm": "-10.97,0.99,4.50,-21.09,-0.45",
      "filesize": 21838171,
      "duration": 223,
      "default": true,
      "lyrics": [
        {
          "filename": "FRE - Images - MV - Les Demons de minuit.ass",
          "default": true,
          "version": "Default"
        }
      ]
    }
  ],
  "data": {
    "created_at": "2021-09-05T21:10:01.864Z",
    "kid": "51a7acea-01b9-47a3-8194-804d98c98ad9",
    "modified_at": "2021-11-11T22:49:59.391Z",
    "repository": "kara.moe",
    "tags": {
      "authors": [
        "7e8a8ffd-da00-42d5-b2df-419688c94686"
      ],
      "collections": [
        "efe171c0-e8a1-4d03-98c0-60ecf741ad52"
      ],
      "creators": [
        "7f604cfa-e72b-41d5-9d6a-5afe421e2ea1"
      ],
      "families": [
        "5391f9fe-638c-415f-8dc9-958e3a2c5787"
      ],
      "groups": [
        "7792cc27-9ff9-4d47-9287-2338b7db1575"
      ],
      "langs": [
        "fd8072b7-4d9b-45d4-8f5b-a931a830edef"
      ],
      "singers": [
        "c053693f-6274-4bd9-abc6-6d01eca81e4f"
      ],
      "songtypes": [
        "7be1b15c-cff8-4b37-a649-5c90f3d569a9"
      ],
      "songwriters": [
        "177be5c6-0b8e-4b79-a9c2-ea320a9fa68a",
        "2dc93c9b-fec4-4bec-bfa7-adb93824f9fb",
        "7e202257-acbc-4bbe-a545-8cd7553f8e25",
        "a4b6daf6-af5d-4073-96d0-3a143f31ab5b",
        "d7fb653a-abb8-4607-95e4-b6cca6b417a4"
      ]
    },
    "titles": {
      "eng": "Les Démons de minuit"
    },
    "title": "Les Démons de minuit",
    "year": 1986
  }
}