{
  "header": {
    "version": 4,
    "description": "Karaoke Mugen Karaoke Data File"
  },
  "medias": [
    {
      "version": "Default",
      "filename": "FRE - Michel Sardouille - IN - Le temps des femmes a poils.mp4",
      "audiogain": 4.48,
      "loudnorm": "-22.52,-5.08,3.60,-32.59,0.21",
      "filesize": 24867935,
      "duration": 130,
      "default": true,
      "lyrics": [
        {
          "filename": "FRE - Michel Sardouille - IN - Le temps des femmes a poils.ass",
          "default": true,
          "version": "Default"
        }
      ]
    }
  ],
  "data": {
    "created_at": "2023-03-03T21:34:09.619Z",
    "ignoreHooks": false,
    "kid": "97365abd-a59a-44b8-aa1b-40455877a7e9",
    "modified_at": "2023-03-04T20:45:07.269Z",
    "repository": "kara.moe",
    "tags": {
      "authors": [
        "05c1e4ad-32ba-490e-8f3c-5cd491c96d85"
      ],
      "collections": [
        "2fa2fe3f-bb56-45ee-aa38-eae60e76f224"
      ],
      "creators": [
        "097b7af0-8e6b-47e5-9259-02f97c08a65d"
      ],
      "families": [
        "5391f9fe-638c-415f-8dc9-958e3a2c5787"
      ],
      "groups": [
        "ae613721-1fbe-480d-ba6b-d6d0702b184d"
      ],
      "langs": [
        "fd8072b7-4d9b-45d4-8f5b-a931a830edef"
      ],
      "misc": [
        "07af42d1-824e-407e-bf37-7fb84905484b",
        "cef35a27-3bf0-48c9-beb2-d245ba62ea6b"
      ],
      "singers": [
        "730f5fde-c1c1-47cc-b2a9-ddef4b45bb3e"
      ],
      "songtypes": [
        "5e5250d9-351a-4a82-98eb-55db50ad8962"
      ],
      "warnings": [
        "e82ce681-6d7b-4fb6-abe4-daa8aaa9bbf9"
      ],
      "franchises": [
        "7c26d9bb-3fb1-4ff8-8f5d-005c06e0c047"
      ]
    },
    "titles": {
      "fre": "Le temps des femmes à poils"
    },
    "titles_default_language": "fre",
    "year": 2017
  }
}