{
  "header": {
    "version": 4,
    "description": "Karaoke Mugen Karaoke Data File"
  },
  "medias": [
    {
      "version": "Default",
      "filename": "FRE - Debut de soiree - MV - Nuit de folie.mp4",
      "audiogain": -6.14,
      "loudnorm": "-11.77,0.73,4.10,-21.88,-0.31",
      "filesize": 21030423,
      "duration": 243,
      "default": true,
      "lyrics": [
        {
          "filename": "FRE - Debut de soiree - MV - Nuit de folie.ass",
          "default": true,
          "version": "Default"
        }
      ]
    }
  ],
  "data": {
    "created_at": "2022-04-22T12:33:40.329Z",
    "ignoreHooks": false,
    "kid": "49cb7cd4-6904-4a0d-89de-b049f41a94cb",
    "modified_at": "2022-04-22T12:33:40.887Z",
    "repository": "kara.moe",
    "tags": {
      "authors": [
        "90414ca0-ab36-4879-8810-b032c6bfdab0"
      ],
      "collections": [
        "efe171c0-e8a1-4d03-98c0-60ecf741ad52"
      ],
      "creators": [
        "f3dc1c73-8de5-4f6f-bac0-2134986e5dbe"
      ],
      "families": [
        "5391f9fe-638c-415f-8dc9-958e3a2c5787"
      ],
      "langs": [
        "fd8072b7-4d9b-45d4-8f5b-a931a830edef"
      ],
      "singers": [
        "e03427c0-4c88-4835-9014-d1750bce6776"
      ],
      "songtypes": [
        "7be1b15c-cff8-4b37-a649-5c90f3d569a9"
      ],
      "songwriters": [
        "04ed9ae7-1871-47d9-90f4-3d2ebb4eb4bb",
        "387fd782-d1c4-4beb-9ecf-3c71964a3c52"
      ],
      "groups": [
        "7792cc27-9ff9-4d47-9287-2338b7db1575"
      ]
    },
    "titles": {
      "fre": "Nuit de folie"
    },
    "titles_default_language": "fre",
    "title": "Nuit de folie",
    "year": 1988
  }
}