{
  "header": {
    "version": 4,
    "description": "Karaoke Mugen Karaoke Data File"
  },
  "medias": [
    {
      "version": "Default",
      "filename": "FRE - Mozart l'Opera Rock - MV - Tatoue-moi.mp4",
      "audiogain": -4.27,
      "loudnorm": "-12.61,-0.95,6.40,-22.82,-1.47",
      "filesize": 12524563,
      "duration": 201,
      "default": true,
      "lyrics": [
        {
          "filename": "FRE - Mozart l'Opera Rock - MV - Tatoue-moi.ass",
          "default": true,
          "version": "Default"
        }
      ]
    }
  ],
  "data": {
    "created_at": "2022-01-23T10:30:34.959Z",
    "ignoreHooks": false,
    "kid": "ad00c889-21e5-4edc-ac91-44bc068ad07a",
    "modified_at": "2022-01-23T12:08:48.623Z",
    "repository": "kara.moe",
    "tags": {
      "authors": [
        "0275191e-6efa-4aee-b15c-74f594274dd3"
      ],
      "collections": [
        "efe171c0-e8a1-4d03-98c0-60ecf741ad52"
      ],
      "creators": [
        "bd43efab-3cf4-4b4b-8888-dda16ecd0e04"
      ],
      "families": [
        "5391f9fe-638c-415f-8dc9-958e3a2c5787"
      ],
      "groups": [
        "3c14c864-533c-49e6-a3cc-6969f1233775"
      ],
      "langs": [
        "fd8072b7-4d9b-45d4-8f5b-a931a830edef"
      ],
      "series": [
        "91f0c410-bb44-4a25-8087-e0f2bc2439f9"
      ],
      "singers": [
        "d6db1757-478e-4617-8db3-dee820ff1f86"
      ],
      "songtypes": [
        "7be1b15c-cff8-4b37-a649-5c90f3d569a9"
      ],
      "songwriters": [
        "3608b6c7-8b3b-4672-bf5c-46583a7b58ee",
        "7dbfaf42-2d8a-446d-91cc-b5d98f3bd7ae",
        "bc20ec46-2198-4369-b638-cf93b7989ba0",
        "f76f4633-95e2-40ff-a52c-cc735f48aaad"
      ]
    },
    "titles": {
      "eng": "Tatoue-moi",
      "fre": "Tatoue-moi"
    },
    "title": "Tatoue-moi",
    "year": 2009
  }
}