{
  "header": {
    "version": 4,
    "description": "Karaoke Mugen Karaoke Data File"
  },
  "medias": [
    {
      "version": "Default",
      "filename": "FRE - Francis Cabrel - MV - Encore et encore.mp4",
      "audiogain": -7.3,
      "loudnorm": "-10.71,0.80,4.00,-20.91,-0.76",
      "filesize": 26349444,
      "duration": 273,
      "default": true,
      "lyrics": [
        {
          "filename": "FRE - Francis Cabrel - MV - Encore et encore.ass",
          "default": true,
          "version": "Default"
        }
      ]
    }
  ],
  "data": {
    "created_at": "2023-07-21T21:56:12.781Z",
    "ignoreHooks": false,
    "kid": "a7ab0340-009a-4bb5-b52c-3271d23346f3",
    "modified_at": "2023-07-21T22:06:38.869Z",
    "repository": "kara.moe",
    "tags": {
      "authors": [
        "90414ca0-ab36-4879-8810-b032c6bfdab0"
      ],
      "collections": [
        "efe171c0-e8a1-4d03-98c0-60ecf741ad52"
      ],
      "creators": [
        "28a02f79-daaf-4037-8897-3458e80a5b41"
      ],
      "families": [
        "5391f9fe-638c-415f-8dc9-958e3a2c5787"
      ],
      "groups": [
        "7792cc27-9ff9-4d47-9287-2338b7db1575"
      ],
      "langs": [
        "fd8072b7-4d9b-45d4-8f5b-a931a830edef"
      ],
      "singers": [
        "a85824d9-aa33-43b4-b41f-451848e41298"
      ],
      "songtypes": [
        "7be1b15c-cff8-4b37-a649-5c90f3d569a9"
      ],
      "songwriters": [
        "a85824d9-aa33-43b4-b41f-451848e41298",
        "cc60983f-5eee-4538-b510-ba52fa421873"
      ]
    },
    "titles": {
      "fre": "Encore et encore"
    },
    "titles_default_language": "fre",
    "year": 1985
  }
}