{
  "header": {
    "version": 4,
    "description": "Karaoke Mugen Karaoke Data File"
  },
  "medias": [
    {
      "version": "Default",
      "filename": "FRE - Daniel Balavoine - MV - Je ne suis pas un heros.mp4",
      "audiogain": 5.58,
      "loudnorm": "-23.29,-8.09,3.40,-33.30,-0.64",
      "filesize": 29616644,
      "duration": 295,
      "default": true,
      "lyrics": [
        {
          "filename": "FRE - Daniel Balavoine - MV - Je ne suis pas un heros.ass",
          "default": true,
          "version": "Default",
          "subchecksum": "2c2237c544af3203b3aa8651cdb24607"
        }
      ]
    }
  ],
  "data": {
    "created_at": "2020-08-17T11:34:51.941Z",
    "kid": "708910bc-5133-467b-88e3-aa8ae6e38687",
    "modified_at": "2021-02-25T14:51:27.109Z",
    "repository": "kara.moe",
    "tags": {
      "authors": [
        "022512f1-ad6c-4ee3-af27-7981cbd99718"
      ],
      "collections": [
        "efe171c0-e8a1-4d03-98c0-60ecf741ad52"
      ],
      "creators": [
        "f5ac7140-7e00-4537-ae0e-4db66f157b9b"
      ],
      "families": [
        "5391f9fe-638c-415f-8dc9-958e3a2c5787"
      ],
      "groups": [
        "7792cc27-9ff9-4d47-9287-2338b7db1575"
      ],
      "langs": [
        "fd8072b7-4d9b-45d4-8f5b-a931a830edef"
      ],
      "singers": [
        "c7f13ac7-c592-4fc0-888d-aeee059bf9f3"
      ],
      "songtypes": [
        "7be1b15c-cff8-4b37-a649-5c90f3d569a9"
      ],
      "songwriters": [
        "c7f13ac7-c592-4fc0-888d-aeee059bf9f3"
      ]
    },
    "title": "Je ne suis pas un héros",
    "titles": {
      "eng": "Je ne suis pas un héros"
    },
    "year": 1980
  }
}