{
  "header": {
    "version": 4,
    "description": "Karaoke Mugen Karaoke Data File"
  },
  "medias": [
    {
      "version": "Default",
      "filename": "FRE - Les Cowboy Fringuants - AUDIO - Les etoiles filantes.mp3",
      "audiogain": -7.25,
      "loudnorm": "-11.05,-0.67,8.60,-21.25,-1.38",
      "filesize": 10681900,
      "duration": 261,
      "default": true,
      "lyrics": [
        {
          "filename": "FRE - Les Cowboy Fringuants - AUDIO - Les etoiles filantes.ass",
          "default": true,
          "version": "Default"
        }
      ]
    }
  ],
  "data": {
    "created_at": "2023-06-24T18:14:31.053Z",
    "ignoreHooks": false,
    "kid": "78fe94ea-f1c1-4f18-b501-0447d1b49800",
    "modified_at": "2023-06-24T18:14:31.145Z",
    "repository": "kara.moe",
    "tags": {
      "authors": [
        "7848b5dc-a5df-4577-b640-147be5288cec"
      ],
      "collections": [
        "efe171c0-e8a1-4d03-98c0-60ecf741ad52"
      ],
      "creators": [
        "34dd64ed-5e21-4f22-9795-266b529cb58d"
      ],
      "langs": [
        "fd8072b7-4d9b-45d4-8f5b-a931a830edef"
      ],
      "singers": [
        "d8717f69-cd65-4abc-86f9-90fa04b4023a"
      ],
      "singergroups": [
        "803e40ad-709b-4abf-9995-b5b6ca912a15"
      ],
      "songtypes": [
        "42a262ae-acba-4ab5-a446-c5789c96c821"
      ],
      "songwriters": [
        "28abb320-72f1-4f0c-a208-cc676cac52cb",
        "f9c08abf-5c5c-4454-9ed2-d3347eeb7ad0"
      ],
      "groups": [
        "3c14c864-533c-49e6-a3cc-6969f1233775"
      ]
    },
    "titles": {
      "fre": "Les étoiles filantes"
    },
    "titles_default_language": "fre",
    "year": 2004
  }
}