{
  "header": {
    "version": 4,
    "description": "Karaoke Mugen Karaoke Data File"
  },
  "medias": [
    {
      "version": "Default",
      "filename": "FRE - La Compagnie Creole - MV - Le Bal masque.mp4",
      "audiogain": 3.13,
      "loudnorm": "-21.09,-9.08,2.90,-31.22,-0.27",
      "filesize": 26232256,
      "duration": 228,
      "default": true,
      "lyrics": [
        {
          "filename": "FRE - La Compagnie Creole - MV - Le Bal masque.ass",
          "default": true,
          "version": "Default"
        }
      ]
    }
  ],
  "data": {
    "created_at": "2023-03-04T20:43:48.375Z",
    "ignoreHooks": false,
    "kid": "1956c31e-2073-4af9-a610-9bbda8fc4ed6",
    "modified_at": "2023-07-20T22:15:59.278Z",
    "repository": "kara.moe",
    "tags": {
      "authors": [
        "0c8e4377-ee35-4896-89ed-9d06a1b5acd5",
        "f70c7314-b8d3-4bf4-96a0-dc8b2c5a6c94"
      ],
      "collections": [
        "efe171c0-e8a1-4d03-98c0-60ecf741ad52"
      ],
      "creators": [
        "b43357de-7dde-4c33-a89e-2fe9b31bd7af"
      ],
      "families": [
        "5391f9fe-638c-415f-8dc9-958e3a2c5787"
      ],
      "groups": [
        "7792cc27-9ff9-4d47-9287-2338b7db1575",
        "966d1e74-d1f2-41e2-ab04-24279c22f562"
      ],
      "langs": [
        "fd8072b7-4d9b-45d4-8f5b-a931a830edef"
      ],
      "singers": [
        "1a976907-0219-45ba-9214-331a2eadebf9"
      ],
      "songtypes": [
        "7be1b15c-cff8-4b37-a649-5c90f3d569a9"
      ],
      "songwriters": [
        "0106349a-1d82-44f5-9a6a-a4bece66e0d4",
        "3dbb0f3a-80b4-4d35-b919-9a3d47c86555"
      ]
    },
    "titles": {
      "fre": "Le Bal masqué"
    },
    "titles_default_language": "fre",
    "year": 1985
  }
}