{
  "header": {
    "version": 4,
    "description": "Karaoke Mugen Karaoke Data File"
  },
  "medias": [
    {
      "version": "Default",
      "filename": "FRE - Stromae, orelsan - MV - La pluie.mp4",
      "audiogain": -8.16,
      "loudnorm": "-8.71,1.66,5.00,-18.80,-0.34",
      "filesize": 55636635,
      "duration": 173,
      "default": true,
      "lyrics": [
        {
          "filename": "FRE - Stromae, orelsan - MV - La pluie.ass",
          "default": true,
          "version": "Default"
        }
      ]
    }
  ],
  "data": {
    "created_at": "2021-11-21T16:39:47.016Z",
    "kid": "83984dbe-41e3-4d93-b640-a4a9ce01508e",
    "modified_at": "2021-11-21T16:46:56.776Z",
    "repository": "kara.moe",
    "tags": {
      "authors": [
        "90414ca0-ab36-4879-8810-b032c6bfdab0"
      ],
      "collections": [
        "efe171c0-e8a1-4d03-98c0-60ecf741ad52"
      ],
      "creators": [
        "46babdf8-9641-4054-b729-9ae570f10d2c"
      ],
      "families": [
        "5391f9fe-638c-415f-8dc9-958e3a2c5787"
      ],
      "groups": [
        "ae613721-1fbe-480d-ba6b-d6d0702b184d"
      ],
      "langs": [
        "fd8072b7-4d9b-45d4-8f5b-a931a830edef"
      ],
      "singers": [
        "b38fa8ad-8882-436d-a86b-b006b5e032c7",
        "ba5b28b0-c317-4b07-aad8-817a7db50c04"
      ],
      "songtypes": [
        "7be1b15c-cff8-4b37-a649-5c90f3d569a9"
      ],
      "songwriters": [
        "b38fa8ad-8882-436d-a86b-b006b5e032c7",
        "ba5b28b0-c317-4b07-aad8-817a7db50c04"
      ]
    },
    "titles": {
      "eng": "La pluie"
    },
    "title": "La pluie",
    "year": 2018
  }
}