{
  "header": {
    "version": 4,
    "description": "Karaoke Mugen Karaoke Data File"
  },
  "medias": [
    {
      "version": "Default",
      "filename": "FRE - Maxime Le Forestier - AUDIO - San Francisco.mp3",
      "audiogain": -1.85,
      "loudnorm": "-17.42,-0.09,9.10,-27.78,-1.22",
      "filesize": 4276523,
      "duration": 165,
      "default": true,
      "lyrics": [
        {
          "filename": "FRE - Maxime Le Forestier - AUDIO - San Francisco.ass",
          "default": true,
          "version": "Default"
        }
      ]
    }
  ],
  "data": {
    "created_at": "2021-09-12T10:32:03.782Z",
    "kid": "fda5038c-34e5-4a62-b4b5-879df56feefc",
    "modified_at": "2021-11-11T22:51:26.239Z",
    "repository": "kara.moe",
    "tags": {
      "authors": [
        "90414ca0-ab36-4879-8810-b032c6bfdab0"
      ],
      "collections": [
        "efe171c0-e8a1-4d03-98c0-60ecf741ad52"
      ],
      "creators": [
        "ee954a78-2b37-4071-b094-f9945d846d63"
      ],
      "groups": [
        "57e5e0c0-e02e-4871-a6cb-d48ea604ebab"
      ],
      "langs": [
        "fd8072b7-4d9b-45d4-8f5b-a931a830edef"
      ],
      "singers": [
        "8a864403-82c5-42c2-a3fe-32bc7f23403d"
      ],
      "songtypes": [
        "42a262ae-acba-4ab5-a446-c5789c96c821"
      ],
      "songwriters": [
        "8a864403-82c5-42c2-a3fe-32bc7f23403d"
      ]
    },
    "titles": {
      "eng": "San Francisco"
    },
    "title": "San Francisco",
    "year": 1972
  }
}