{
  "header": {
    "version": 4,
    "description": "Karaoke Mugen Karaoke Data File"
  },
  "medias": [
    {
      "version": "Default",
      "filename": "FRE - Matmatah - MV - Lambe an dro.mp4",
      "audiogain": -5.35,
      "loudnorm": "-12.42,-1.19,3.60,-22.55,-1.03",
      "filesize": 55280168,
      "duration": 220,
      "default": true,
      "lyrics": [
        {
          "filename": "FRE - Matmatah - MV - Lambe an dro.ass",
          "default": true,
          "version": "Default",
          "subchecksum": "7643a8eaef9e51fc80744fc9ac1dcec5"
        }
      ]
    }
  ],
  "data": {
    "created_at": "2020-07-10T22:56:08.784Z",
    "kid": "888fa80f-81dd-48af-9713-d97ceb46cbe4",
    "modified_at": "2021-02-25T14:52:20.480Z",
    "repository": "kara.moe",
    "tags": {
      "authors": [
        "3637fdbd-0a33-4f53-8000-c825b6044221"
      ],
      "collections": [
        "efe171c0-e8a1-4d03-98c0-60ecf741ad52"
      ],
      "creators": [
        "1d3b4a2b-ed7a-468f-836c-0a9a80ab8b35"
      ],
      "families": [
        "5391f9fe-638c-415f-8dc9-958e3a2c5787"
      ],
      "groups": [
        "24db50aa-a126-4d34-a48a-e45db79c4245"
      ],
      "langs": [
        "fd8072b7-4d9b-45d4-8f5b-a931a830edef"
      ],
      "singers": [
        "8d95add9-bc59-4bd4-a9f4-485fb8fc9ffc"
      ],
      "songtypes": [
        "7be1b15c-cff8-4b37-a649-5c90f3d569a9"
      ],
      "songwriters": [
        "2dbd3ce8-e71e-4411-bbb0-508f0c1ed373"
      ]
    },
    "title": "Lambé an dro",
    "titles": {
      "eng": "Lambé an dro"
    },
    "year": 1998
  }
}