{
  "header": {
    "version": 4,
    "description": "Karaoke Mugen Karaoke Data File"
  },
  "medias": [
    {
      "version": "Default",
      "filename": "FRE - Andrea Bocelli, Helene Segara - LIVE - Vivo Per Lei ~ Full Vers.mp4",
      "audiogain": -8.06,
      "loudnorm": "-9.27,2.69,2.90,-19.27,-0.13",
      "filesize": 8864020,
      "duration": 260,
      "default": true,
      "lyrics": [
        {
          "filename": "FRE - Andrea Bocelli, Helene Segara - LIVE - Vivo Per Lei ~ Full Vers.ass",
          "default": true,
          "version": "Default"
        }
      ]
    }
  ],
  "data": {
    "created_at": "2022-04-06T19:44:05.371Z",
    "ignoreHooks": false,
    "kid": "0baaaef7-52f8-41a1-ae0c-cc15d3b6e19f",
    "modified_at": "2022-12-21T22:36:29.772Z",
    "repository": "kara.moe",
    "tags": {
      "authors": [
        "6ba6f14d-99f6-4bfa-88dd-ccbac78f5efe"
      ],
      "collections": [
        "efe171c0-e8a1-4d03-98c0-60ecf741ad52"
      ],
      "creators": [
        "d4ac84d8-8910-4fd3-accb-8654df057cfb",
        "ee954a78-2b37-4071-b094-f9945d846d63"
      ],
      "families": [
        "5391f9fe-638c-415f-8dc9-958e3a2c5787"
      ],
      "groups": [
        "24db50aa-a126-4d34-a48a-e45db79c4245"
      ],
      "langs": [
        "783496f0-1a2f-44c3-a906-02e8244148ae",
        "fd8072b7-4d9b-45d4-8f5b-a931a830edef"
      ],
      "misc": [
        "1d6ceadf-a885-47e5-b23b-c07bf668a424"
      ],
      "singers": [
        "2acd487f-a293-462a-826e-90d4cfba979f",
        "f20938ed-c4f9-406a-8298-1baa97ba4cbd"
      ],
      "songtypes": [
        "a0167949-580c-4de3-bf13-497e462e02f3"
      ],
      "songwriters": [
        "0892887a-1f61-42d1-a2c6-b2f4210e4de3",
        "bceb58a9-da9f-4343-a62d-2a9842dddc43"
      ],
      "versions": [
        "c2143a7f-6970-450e-8a79-0302db9220a9"
      ]
    },
    "titles": {
      "fre": "Je vis pour toi",
      "ita": "Vivo Per Lei"
    },
    "titles_default_language": "ita",
    "year": 1997
  }
}