{
  "header": {
    "version": 4,
    "description": "Karaoke Mugen Karaoke Data File"
  },
  "medias": [
    {
      "version": "Default",
      "filename": "FRE - KYO - MV - Derniere Danse.mp4",
      "audiogain": -3.96,
      "loudnorm": "-13.03,-0.97,4.90,-23.25,-0.70",
      "filesize": 23622533,
      "duration": 210,
      "default": true,
      "lyrics": [
        {
          "filename": "FRE - KYO - MV - Derniere Danse.ass",
          "default": true,
          "version": "Default"
        }
      ]
    }
  ],
  "data": {
    "created_at": "2022-05-04T21:25:11.068Z",
    "ignoreHooks": false,
    "kid": "8edbbb86-36d6-44a7-a52f-e9d8c400e8a2",
    "modified_at": "2022-06-04T21:51:22.133Z",
    "repository": "kara.moe",
    "tags": {
      "authors": [
        "0c8e4377-ee35-4896-89ed-9d06a1b5acd5"
      ],
      "collections": [
        "efe171c0-e8a1-4d03-98c0-60ecf741ad52"
      ],
      "creators": [
        "4554e7df-8edb-40a8-87e7-fd7a1e0aef0c",
        "cca56dad-2503-4a51-bc90-3490b4e979f4"
      ],
      "families": [
        "5391f9fe-638c-415f-8dc9-958e3a2c5787"
      ],
      "groups": [
        "3c14c864-533c-49e6-a3cc-6969f1233775"
      ],
      "langs": [
        "fd8072b7-4d9b-45d4-8f5b-a931a830edef"
      ],
      "singers": [
        "3f14da5f-ffaf-463e-9b17-ccdd616804a8"
      ],
      "songtypes": [
        "7be1b15c-cff8-4b37-a649-5c90f3d569a9"
      ],
      "songwriters": [
        "f74fc8d1-cbb8-425b-a655-ee28f18ec435",
        "3f14da5f-ffaf-463e-9b17-ccdd616804a8"
      ]
    },
    "titles": {
      "fre": "Dernière Danse"
    },
    "titles_default_language": "fre",
    "title": "Dernière Danse",
    "year": 2003
  }
}