{
  "header": {
    "version": 4,
    "description": "Karaoke Mugen Karaoke Data File"
  },
  "medias": [
    {
      "version": "Default",
      "filename": "FRE - Touhou - REMIX MV - L'obscurite d'un reve ~ Cover Vers.mp4",
      "audiogain": -1.95,
      "loudnorm": "-17.05,-6.40,6.60,-27.43,-0.94",
      "filesize": 64281902,
      "duration": 99,
      "default": true,
      "lyrics": [
        {
          "filename": "FRE - Touhou - REMIX MV - L'obscurite d'un reve ~ Cover Vers.ass",
          "default": true,
          "version": "Default",
          "subchecksum": "919d3959069a3c09d1048931faea15e2"
        }
      ]
    }
  ],
  "data": {
    "created_at": "2019-03-25T10:46:53.000Z",
    "kid": "b2de9614-8c62-4bb2-bf96-70724ed1ff92",
    "modified_at": "2021-05-15T16:29:06.325Z",
    "repository": "kara.moe",
    "tags": {
      "authors": [
        "6b38e6cc-bc88-4cf5-9bfc-a46c03435bab"
      ],
      "collections": [
        "c7db86a0-ff64-4044-9be4-66dd1ef1d1c1"
      ],
      "creators": [
        "5c76fa71-070f-4c15-96d0-2ec9c6a4945d"
      ],
      "families": [
        "0377db02-3af6-43b8-9b08-c759df3d25c3"
      ],
      "groups": [
        "ae613721-1fbe-480d-ba6b-d6d0702b184d"
      ],
      "langs": [
        "fd8072b7-4d9b-45d4-8f5b-a931a830edef"
      ],
      "misc": [
        "ec4360fa-3e3c-4f6f-b0e1-fb8b12b6dd18"
      ],
      "series": [
        "1bdaa5a1-dfa6-4365-b746-7a0b194dafd6"
      ],
      "singers": [
        "188c58bf-947c-4240-905d-acda1f07a817"
      ],
      "songtypes": [
        "7be1b15c-cff8-4b37-a649-5c90f3d569a9"
      ],
      "songwriters": [
        "188c58bf-947c-4240-905d-acda1f07a817",
        "26cb5252-8510-49e0-897c-a611a05fc056",
        "2e2964df-7dec-475e-bf11-62dc72e4fc6c",
        "6539217d-b35c-4316-87b0-f25b3a86d289"
      ],
      "versions": [
        "03e1e1d2-8641-47b7-bbcb-39a3df9ff21c"
      ],
      "franchises": [
        "1bdaa5a1-dfa6-4365-b746-7a0b194dafd6"
      ]
    },
    "title": "L'obscurité d'un rêve",
    "titles": {
      "eng": "L'obscurité d'un rêve"
    },
    "year": 2015
  }
}