{
  "header": {
    "version": 4,
    "description": "Karaoke Mugen Karaoke Data File"
  },
  "medias": [
    {
      "version": "Default",
      "filename": "FRE - Yu-Gi-Oh! Duel Monsters GX - OP1 - Mets-toi en garde.mp4",
      "audiogain": -8.49,
      "loudnorm": "-7.76,0.57,0.50,-17.76,-0.08",
      "filesize": 8214312,
      "duration": 60,
      "default": true,
      "lyrics": [
        {
          "filename": "FRE - Yu-Gi-Oh! Duel Monsters GX - OP1 - Mets-toi en garde.ass",
          "default": true,
          "version": "Default",
          "subchecksum": "76ea35b5efec261924829062de48c503"
        }
      ]
    }
  ],
  "data": {
    "created_at": "2018-03-29T22:58:31.000Z",
    "kid": "c8a91efa-5cc6-4a62-bdba-9fa551d0b33d",
    "modified_at": "2021-02-25T10:31:41.591Z",
    "parents": [
      "939f99eb-515b-46d7-967f-0f88c68534af"
    ],
    "repository": "kara.moe",
    "songorder": 1,
    "tags": {
      "authors": [
        "05c1e4ad-32ba-490e-8f3c-5cd491c96d85"
      ],
      "collections": [
        "c7db86a0-ff64-4044-9be4-66dd1ef1d1c1"
      ],
      "creators": [
        "3416bd66-667d-4c3f-91f3-6e692001ef25"
      ],
      "families": [
        "0377db02-3af6-43b8-9b08-c759df3d25c3"
      ],
      "groups": [
        "3c14c864-533c-49e6-a3cc-6969f1233775",
        "f5e7d2fc-0cbb-4fb9-a84a-b25dfb0e9e77"
      ],
      "langs": [
        "fd8072b7-4d9b-45d4-8f5b-a931a830edef"
      ],
      "origins": [
        "938de218-5343-4865-94d3-fb33f2eaa152"
      ],
      "series": [
        "61243592-781d-4f44-9ada-e26a7a2d5f18"
      ],
      "songtypes": [
        "f02ad9b3-0bd9-4aad-85b3-9976739ba0e4"
      ],
      "franchises": [
        "e6b60e16-dac4-4bc2-8c7d-b80a4422fc3a"
      ]
    },
    "title": "Mets-toi en garde",
    "titles": {
      "eng": "Mets-toi en garde"
    },
    "year": 2006
  }
}