{
  "header": {
    "version": 4,
    "description": "Karaoke Mugen Karaoke Data File"
  },
  "medias": [
    {
      "version": "Default",
      "filename": "FRE - Touhou - REMIX MV - La maid souffrante ~ Cover Vers.mp4",
      "audiogain": -8.37,
      "loudnorm": "-9.47,1.03,7.30,-19.70,-1.05",
      "filesize": 48756389,
      "duration": 120,
      "default": true,
      "lyrics": [
        {
          "filename": "FRE - Touhou - REMIX MV - La maid souffrante ~ Cover Vers.ass",
          "default": true,
          "version": "Default"
        }
      ]
    }
  ],
  "data": {
    "created_at": "2019-03-24T22:26:38.000Z",
    "ignoreHooks": false,
    "kid": "0d6cbd2f-4557-41b5-ac05-ac522b839609",
    "modified_at": "2023-05-18T18:00:57.804Z",
    "parents": [
      "24829961-04bb-4d2a-8883-5c23c5456ff1"
    ],
    "repository": "kara.moe",
    "tags": {
      "authors": [
        "6b38e6cc-bc88-4cf5-9bfc-a46c03435bab"
      ],
      "collections": [
        "c7db86a0-ff64-4044-9be4-66dd1ef1d1c1"
      ],
      "creators": [
        "7e1e37c1-466f-40a7-bc6c-ba05a54db9e1"
      ],
      "groups": [
        "3c14c864-533c-49e6-a3cc-6969f1233775"
      ],
      "langs": [
        "fd8072b7-4d9b-45d4-8f5b-a931a830edef"
      ],
      "misc": [
        "ec4360fa-3e3c-4f6f-b0e1-fb8b12b6dd18"
      ],
      "series": [
        "1bdaa5a1-dfa6-4365-b746-7a0b194dafd6"
      ],
      "singers": [
        "188c58bf-947c-4240-905d-acda1f07a817"
      ],
      "songtypes": [
        "7be1b15c-cff8-4b37-a649-5c90f3d569a9"
      ],
      "songwriters": [
        "26cb5252-8510-49e0-897c-a611a05fc056",
        "89697395-8e32-49ac-91f9-0a2ccbe74d0b",
        "fa68cb2c-d03b-4c99-b281-ab2b0f333b1c"
      ],
      "versions": [
        "03e1e1d2-8641-47b7-bbcb-39a3df9ff21c"
      ],
      "franchises": [
        "1bdaa5a1-dfa6-4365-b746-7a0b194dafd6"
      ]
    },
    "titles": {
      "fre": "La maid souffrante"
    },
    "titles_default_language": "fre",
    "year": 2008
  }
}