{
  "header": {
    "version": 4,
    "description": "Karaoke Mugen Karaoke Data File"
  },
  "medias": [
    {
      "version": "Default",
      "filename": "FRE - Stromae - MV - L'Enfer.mp4",
      "audiogain": -3.87,
      "loudnorm": "-13.97,-2.01,8.60,-24.25,-1.79",
      "filesize": 26424054,
      "duration": 194,
      "default": true,
      "lyrics": [
        {
          "filename": "FRE - Stromae - MV - L'Enfer.ass",
          "default": true,
          "version": "Default"
        }
      ]
    }
  ],
  "data": {
    "created_at": "2022-10-09T15:21:05.281Z",
    "ignoreHooks": false,
    "kid": "9c175610-b11b-4ab4-b4df-2f4ffa5126e0",
    "modified_at": "2022-10-09T15:21:05.906Z",
    "repository": "kara.moe",
    "tags": {
      "authors": [
        "90414ca0-ab36-4879-8810-b032c6bfdab0"
      ],
      "collections": [
        "efe171c0-e8a1-4d03-98c0-60ecf741ad52"
      ],
      "creators": [
        "e4e9a094-8651-4ffa-babe-43fb106b86d4"
      ],
      "families": [
        "5391f9fe-638c-415f-8dc9-958e3a2c5787"
      ],
      "langs": [
        "fd8072b7-4d9b-45d4-8f5b-a931a830edef"
      ],
      "singers": [
        "ba5b28b0-c317-4b07-aad8-817a7db50c04"
      ],
      "songtypes": [
        "7be1b15c-cff8-4b37-a649-5c90f3d569a9"
      ],
      "songwriters": [
        "ba5b28b0-c317-4b07-aad8-817a7db50c04"
      ],
      "groups": [
        "8e209ae4-4381-438f-89dc-1b21752027d2"
      ]
    },
    "titles": {
      "fre": "L'Enfer"
    },
    "titles_default_language": "fre",
    "title": "L'Enfer",
    "year": 2022
  }
}