{
  "header": {
    "version": 4,
    "description": "Karaoke Mugen Karaoke Data File"
  },
  "medias": [
    {
      "version": "Default",
      "filename": "FRE - Big Bazar - MV - Une Belle Histoire.mp4",
      "audiogain": 4.6,
      "loudnorm": "-24.44,-8.18,7.00,-34.64,-0.50",
      "filesize": 10116186,
      "duration": 192,
      "default": true,
      "lyrics": [
        {
          "filename": "FRE - Big Bazar - MV - Une Belle Histoire.ass",
          "default": true,
          "version": "Default",
          "subchecksum": "e443bf94c99193641a42067a2512412f"
        }
      ]
    }
  ],
  "data": {
    "created_at": "2021-04-29T21:09:17.474Z",
    "kid": "f0aecf2e-8561-445a-ba45-773461ac16d8",
    "modified_at": "2021-05-20T17:41:14.887Z",
    "repository": "kara.moe",
    "tags": {
      "authors": [
        "90414ca0-ab36-4879-8810-b032c6bfdab0"
      ],
      "collections": [
        "efe171c0-e8a1-4d03-98c0-60ecf741ad52"
      ],
      "creators": [
        "a4b3c0bf-15ad-44e7-bd74-1c1709f00436"
      ],
      "families": [
        "5391f9fe-638c-415f-8dc9-958e3a2c5787"
      ],
      "groups": [
        "57e5e0c0-e02e-4871-a6cb-d48ea604ebab"
      ],
      "langs": [
        "fd8072b7-4d9b-45d4-8f5b-a931a830edef"
      ],
      "singers": [
        "88f7529f-a971-464e-9eb1-9bb359134c31"
      ],
      "songtypes": [
        "7be1b15c-cff8-4b37-a649-5c90f3d569a9"
      ],
      "songwriters": [
        "1157ab42-7e23-4db6-ba76-63d8d8f22604",
        "88869852-0323-4c08-8ef2-346bbd0a774a"
      ]
    },
    "title": "Une Belle Histoire",
    "titles": {
      "eng": "Une Belle Histoire"
    },
    "year": 1972
  }
}