{
  "header": {
    "version": 4,
    "description": "Karaoke Mugen Karaoke Data File"
  },
  "medias": [
    {
      "version": "Default",
      "filename": "FRE - Zebda - MV - Tomber La Chemise.mp4",
      "audiogain": 4.13,
      "loudnorm": "-21.84,-8.31,2.70,-31.89,-0.51",
      "filesize": 20704658,
      "duration": 261,
      "default": true,
      "lyrics": [
        {
          "filename": "FRE - Zebda - MV - Tomber La Chemise.ass",
          "default": true,
          "version": "Default"
        }
      ]
    }
  ],
  "data": {
    "created_at": "2021-05-21T15:37:51.589Z",
    "ignoreHooks": false,
    "kid": "32370e72-1abd-43a9-ad36-acf4e0cab4ad",
    "modified_at": "2022-04-17T14:39:40.138Z",
    "repository": "kara.moe",
    "tags": {
      "authors": [
        "7929a2fc-a502-4ba2-bdf8-1dba341f9b5a"
      ],
      "collections": [
        "efe171c0-e8a1-4d03-98c0-60ecf741ad52"
      ],
      "creators": [
        "9ed0f2a3-3def-400f-8155-04d4c6102202",
        "dee008b3-9388-4984-89a0-08935ecddc0d"
      ],
      "families": [
        "5391f9fe-638c-415f-8dc9-958e3a2c5787"
      ],
      "groups": [
        "24db50aa-a126-4d34-a48a-e45db79c4245"
      ],
      "langs": [
        "fd8072b7-4d9b-45d4-8f5b-a931a830edef"
      ],
      "singers": [
        "96d4d938-138c-49a6-9d74-c56d46646251"
      ],
      "songtypes": [
        "7be1b15c-cff8-4b37-a649-5c90f3d569a9"
      ],
      "songwriters": [
        "96d4d938-138c-49a6-9d74-c56d46646251",
        "fd3ddb86-cea6-4ea9-a7f6-17c9778e0980"
      ]
    },
    "titles": {
      "fre": "Tomber La Chemise"
    },
    "titles_default_language": "fre",
    "title": "Tomber La Chemise",
    "year": 1999
  }
}