{
  "header": {
    "version": 4,
    "description": "Karaoke Mugen Karaoke Data File"
  },
  "medias": [
    {
      "version": "Default",
      "filename": "FRE - Jean-Jacques Goldman - MV - Encore un matin.mp4",
      "audiogain": -9.3,
      "loudnorm": "-8.96,1.58,15.10,-19.63,-1.21",
      "filesize": 96414469,
      "duration": 252,
      "default": true,
      "lyrics": [
        {
          "filename": "FRE - Jean-Jacques Goldman - MV - Encore un matin.ass",
          "default": true,
          "version": "Default"
        }
      ]
    }
  ],
  "data": {
    "created_at": "2023-05-06T12:59:29.562Z",
    "ignoreHooks": false,
    "kid": "0048b990-80d0-449b-9cbc-7d236052972c",
    "modified_at": "2023-07-20T22:15:59.055Z",
    "repository": "kara.moe",
    "tags": {
      "authors": [
        "90414ca0-ab36-4879-8810-b032c6bfdab0",
        "966e02e9-ed3c-403e-82ba-a9f40aa01b57",
        "f70c7314-b8d3-4bf4-96a0-dc8b2c5a6c94"
      ],
      "collections": [
        "efe171c0-e8a1-4d03-98c0-60ecf741ad52"
      ],
      "creators": [
        "1cd2f13e-05cb-49b5-b42f-96260f7a162b"
      ],
      "families": [
        "5391f9fe-638c-415f-8dc9-958e3a2c5787"
      ],
      "groups": [
        "7792cc27-9ff9-4d47-9287-2338b7db1575",
        "966d1e74-d1f2-41e2-ab04-24279c22f562"
      ],
      "langs": [
        "fd8072b7-4d9b-45d4-8f5b-a931a830edef"
      ],
      "singers": [
        "1ff5e11c-787d-4618-9878-5e6b4fdef247"
      ],
      "songtypes": [
        "7be1b15c-cff8-4b37-a649-5c90f3d569a9"
      ],
      "songwriters": [
        "1ff5e11c-787d-4618-9878-5e6b4fdef247"
      ]
    },
    "titles": {
      "fre": "Encore un matin"
    },
    "titles_default_language": "fre",
    "year": 1984
  }
}