{
  "header": {
    "version": 4,
    "description": "Karaoke Mugen Karaoke Data File"
  },
  "medias": [
    {
      "version": "Default",
      "filename": "FRE - Jacques Brel - AUDIO - Vesoul.mp3",
      "audiogain": -5.78,
      "loudnorm": "-11.68,-1.66,3.90,-21.86,-0.64",
      "filesize": 3155579,
      "duration": 185,
      "default": true,
      "lyrics": [
        {
          "filename": "FRE - Jacques Brel - AUDIO - Vesoul.ass",
          "default": true,
          "version": "Default"
        }
      ]
    }
  ],
  "data": {
    "created_at": "2022-09-17T11:42:59.590Z",
    "ignoreHooks": false,
    "kid": "b6380afa-7c8e-4b4d-8e1d-b9b68fa657bd",
    "modified_at": "2022-09-17T11:52:59.769Z",
    "repository": "kara.moe",
    "tags": {
      "authors": [
        "6ba6f14d-99f6-4bfa-88dd-ccbac78f5efe"
      ],
      "collections": [
        "efe171c0-e8a1-4d03-98c0-60ecf741ad52"
      ],
      "creators": [
        "dee008b3-9388-4984-89a0-08935ecddc0d"
      ],
      "groups": [
        "b4240f1f-200d-4d10-b5eb-d3a740eed323"
      ],
      "langs": [
        "fd8072b7-4d9b-45d4-8f5b-a931a830edef"
      ],
      "singers": [
        "c3a9ec24-9cc6-4761-8ad1-3aed4301a91a"
      ],
      "songtypes": [
        "42a262ae-acba-4ab5-a446-c5789c96c821"
      ],
      "songwriters": [
        "c3a9ec24-9cc6-4761-8ad1-3aed4301a91a"
      ]
    },
    "titles": {
      "fre": "Vesoul"
    },
    "titles_default_language": "fre",
    "title": "Vesoul",
    "year": 1968
  }
}