{
  "header": {
    "version": 4,
    "description": "Karaoke Mugen Karaoke Data File"
  },
  "medias": [
    {
      "version": "Default",
      "filename": "FRE - Johnny Hallyday - LIVE - L'envie ~ Full Vers.mp4",
      "audiogain": -3.17,
      "loudnorm": "-14.33,-2.31,4.10,-24.39,-0.98",
      "filesize": 18988754,
      "duration": 256,
      "default": true,
      "lyrics": [
        {
          "filename": "FRE - Johnny Hallyday - LIVE - L'envie ~ Full Vers.ass",
          "default": true,
          "version": "Default"
        }
      ]
    }
  ],
  "data": {
    "created_at": "2022-05-04T20:31:43.449Z",
    "ignoreHooks": false,
    "kid": "6c497469-d1b4-4899-89d1-4af49356912b",
    "modified_at": "2022-12-21T22:36:33.423Z",
    "repository": "kara.moe",
    "tags": {
      "authors": [
        "90414ca0-ab36-4879-8810-b032c6bfdab0"
      ],
      "collections": [
        "efe171c0-e8a1-4d03-98c0-60ecf741ad52"
      ],
      "creators": [
        "f5ac7140-7e00-4537-ae0e-4db66f157b9b"
      ],
      "families": [
        "5391f9fe-638c-415f-8dc9-958e3a2c5787"
      ],
      "groups": [
        "7792cc27-9ff9-4d47-9287-2338b7db1575"
      ],
      "langs": [
        "fd8072b7-4d9b-45d4-8f5b-a931a830edef"
      ],
      "singers": [
        "7916059c-2d8a-4753-a5df-f1ae0ece7b08"
      ],
      "songtypes": [
        "a0167949-580c-4de3-bf13-497e462e02f3"
      ],
      "songwriters": [
        "1ff5e11c-787d-4618-9878-5e6b4fdef247",
        "2f8a0a89-46c4-4acd-91b1-a2f9765177ab",
        "e0d3bf0a-520f-400b-ae55-6f8bdaf49783"
      ],
      "versions": [
        "c2143a7f-6970-450e-8a79-0302db9220a9"
      ]
    },
    "titles": {
      "fre": "L'envie"
    },
    "titles_default_language": "fre",
    "year": 1987
  }
}