{
  "header": {
    "version": 4,
    "description": "Karaoke Mugen Karaoke Data File"
  },
  "medias": [
    {
      "version": "Default",
      "filename": "FRE - Pocket Monsters XY&Z - OP - Je suis fier.mp4",
      "audiogain": 5.13,
      "loudnorm": "-23.05,-9.57,2.10,-33.10,-0.75",
      "filesize": 8624890,
      "duration": 30,
      "default": true,
      "lyrics": [
        {
          "filename": "FRE - Pocket Monsters XY&Z - OP - Je suis fier.ass",
          "default": true,
          "version": "Default",
          "subchecksum": "28d9a0ccde8f619ec31bb6898a4a589d"
        }
      ]
    }
  ],
  "data": {
    "created_at": "2019-05-13T18:11:41.000Z",
    "kid": "34329562-78e4-4d5c-bb6b-db27a8ba7d36",
    "modified_at": "2021-02-25T10:28:16.821Z",
    "repository": "kara.moe",
    "tags": {
      "authors": [
        "1df04771-a378-4f14-a5e1-1455187d681a"
      ],
      "collections": [
        "c7db86a0-ff64-4044-9be4-66dd1ef1d1c1"
      ],
      "creators": [
        "03fe574b-c7f5-4520-96dc-47320c39e2cc"
      ],
      "families": [
        "0377db02-3af6-43b8-9b08-c759df3d25c3"
      ],
      "genres": [
        "a0aeef4a-6428-45ff-a6e1-468b595930c2"
      ],
      "groups": [
        "ae613721-1fbe-480d-ba6b-d6d0702b184d",
        "f5e7d2fc-0cbb-4fb9-a84a-b25dfb0e9e77"
      ],
      "langs": [
        "fd8072b7-4d9b-45d4-8f5b-a931a830edef"
      ],
      "origins": [
        "938de218-5343-4865-94d3-fb33f2eaa152"
      ],
      "series": [
        "c988e13b-dd95-4f66-86bb-1d6121f805cc"
      ],
      "songtypes": [
        "f02ad9b3-0bd9-4aad-85b3-9976739ba0e4"
      ],
      "franchises": [
        "c6923c03-f8c0-4258-a478-8dfa08f3ccd0"
      ]
    },
    "title": "Je suis fier",
    "titles": {
      "eng": "Je suis fier"
    },
    "year": 2017
  }
}