{
  "header": {
    "version": 4,
    "description": "Karaoke Mugen Karaoke Data File"
  },
  "medias": [
    {
      "version": "Default",
      "filename": "FRE - Johnny Hallyday - MV - Noir c'est noir ~ Cover Vers.mp4",
      "audiogain": -6.48,
      "loudnorm": "-11.88,-2.96,2.50,-22.05,-0.42",
      "filesize": 12437014,
      "duration": 186,
      "default": true,
      "lyrics": [
        {
          "filename": "FRE - Johnny Hallyday - MV - Noir c'est noir ~ Cover Vers.ass",
          "default": true,
          "version": "Default"
        }
      ]
    }
  ],
  "data": {
    "created_at": "2022-04-30T22:03:33.814Z",
    "ignoreHooks": false,
    "kid": "d80927dd-5926-4a8f-ac9c-93d372ba6f3f",
    "modified_at": "2022-04-30T22:03:34.154Z",
    "repository": "kara.moe",
    "tags": {
      "authors": [
        "90414ca0-ab36-4879-8810-b032c6bfdab0"
      ],
      "collections": [
        "efe171c0-e8a1-4d03-98c0-60ecf741ad52"
      ],
      "creators": [
        "f5ac7140-7e00-4537-ae0e-4db66f157b9b"
      ],
      "families": [
        "5391f9fe-638c-415f-8dc9-958e3a2c5787"
      ],
      "langs": [
        "fd8072b7-4d9b-45d4-8f5b-a931a830edef"
      ],
      "singers": [
        "7916059c-2d8a-4753-a5df-f1ae0ece7b08"
      ],
      "songtypes": [
        "7be1b15c-cff8-4b37-a649-5c90f3d569a9"
      ],
      "songwriters": [
        "d0be4d74-e3d4-4b63-8a6d-9ab6e598be61",
        "03768848-d821-4f87-88ed-c5472205d4fd",
        "e640a14d-f720-4be5-917d-a90c5b1a220a",
        "fb40304a-86f9-4e7b-8bdf-646fca235c0f"
      ],
      "versions": [
        "03e1e1d2-8641-47b7-bbcb-39a3df9ff21c"
      ],
      "groups": [
        "b4240f1f-200d-4d10-b5eb-d3a740eed323"
      ]
    },
    "titles": {
      "fre": "Noir c'est noir",
      "eng": "Black Is Black"
    },
    "titles_default_language": "fre",
    "title": "Noir c'est noir",
    "year": 1966
  }
}