{
  "header": {
    "version": 4,
    "description": "Karaoke Mugen Karaoke Data File"
  },
  "medias": [
    {
      "version": "Default",
      "filename": "FRE - Georges Brassens - MV - Les Copains d'abord.mp4",
      "audiogain": -0.46,
      "loudnorm": "-18.61,-3.39,3.50,-28.67,-0.42",
      "filesize": 20742851,
      "duration": 242,
      "default": true,
      "lyrics": [
        {
          "filename": "FRE - Georges Brassens - MV - Les Copains d'abord.ass",
          "default": true,
          "version": "Default"
        }
      ]
    }
  ],
  "data": {
    "created_at": "2021-10-23T22:03:39.759Z",
    "kid": "61a3af38-6379-445d-aea9-cb14ed4ecc88",
    "modified_at": "2021-11-11T22:56:50.330Z",
    "repository": "kara.moe",
    "tags": {
      "authors": [
        "90414ca0-ab36-4879-8810-b032c6bfdab0"
      ],
      "collections": [
        "efe171c0-e8a1-4d03-98c0-60ecf741ad52"
      ],
      "creators": [
        "f5ac7140-7e00-4537-ae0e-4db66f157b9b"
      ],
      "families": [
        "5391f9fe-638c-415f-8dc9-958e3a2c5787"
      ],
      "groups": [
        "b4240f1f-200d-4d10-b5eb-d3a740eed323"
      ],
      "langs": [
        "fd8072b7-4d9b-45d4-8f5b-a931a830edef"
      ],
      "singers": [
        "722927e0-5c31-419d-86dc-5b3e039af743"
      ],
      "songtypes": [
        "7be1b15c-cff8-4b37-a649-5c90f3d569a9"
      ],
      "songwriters": [
        "722927e0-5c31-419d-86dc-5b3e039af743"
      ]
    },
    "titles": {
      "eng": "Les Copains d'abord"
    },
    "title": "Les Copains d'abord",
    "year": 1964
  }
}