{
  "header": {
    "version": 4,
    "description": "Karaoke Mugen Karaoke Data File"
  },
  "medias": [
    {
      "version": "Default",
      "filename": "FRE - Jayce and The Wheeled Warriors - AUDIO OP - Jayce et les Conquerants de la lumiere ~ Full Vers.mp3",
      "audiogain": -8.93,
      "loudnorm": "-8.78,0.85,4.20,-18.85,-0.97",
      "filesize": 3565339,
      "duration": 204,
      "default": true,
      "lyrics": [
        {
          "filename": "FRE - Jayce and The Wheeled Warriors - AUDIO OP - Jayce et les Conquerants de la lumiere ~ Full Vers.ass",
          "default": true,
          "version": "Default"
        }
      ]
    }
  ],
  "data": {
    "created_at": "2022-07-03T15:52:38.702Z",
    "ignoreHooks": false,
    "kid": "4d74f6a0-a0ef-47f2-9743-36bf2fdf9a39",
    "modified_at": "2022-07-03T15:54:22.596Z",
    "parents": [
      "780d64c9-5515-472b-b92d-34c29d91e7f3"
    ],
    "repository": "kara.moe",
    "tags": {
      "authors": [
        "8658d979-4028-484e-a308-92a628a81c0b"
      ],
      "collections": [
        "c7db86a0-ff64-4044-9be4-66dd1ef1d1c1"
      ],
      "creators": [
        "5fafca8e-03a2-4bd5-a57d-0739639f798b"
      ],
      "groups": [
        "7792cc27-9ff9-4d47-9287-2338b7db1575",
        "cebcdc5d-31af-4c83-a744-680885904b73",
        "f5e7d2fc-0cbb-4fb9-a84a-b25dfb0e9e77"
      ],
      "langs": [
        "fd8072b7-4d9b-45d4-8f5b-a931a830edef"
      ],
      "origins": [
        "938de218-5343-4865-94d3-fb33f2eaa152"
      ],
      "series": [
        "6a302378-1978-47ba-849c-4bc758d98bd3"
      ],
      "singers": [
        "0bd2c054-3dcd-4ff6-9fc3-011d72a82391",
        "3cf61fd2-0f3a-4292-a292-6dc5e389c4a7"
      ],
      "songtypes": [
        "42a262ae-acba-4ab5-a446-c5789c96c821",
        "f02ad9b3-0bd9-4aad-85b3-9976739ba0e4"
      ],
      "songwriters": [
        "0bd2c054-3dcd-4ff6-9fc3-011d72a82391",
        "ab06df1c-8246-4d9c-b149-79f95fdf24d5",
        "cf9d5b37-8ab5-4050-a145-ea7cc943904b"
      ],
      "versions": [
        "c2143a7f-6970-450e-8a79-0302db9220a9"
      ]
    },
    "titles": {
      "eng": "Jayce et les Conquérants de la lumière"
    },
    "titles_default_language": "eng",
    "title": "Jayce et les Conquérants de la lumière",
    "year": 1985
  }
}