{
  "header": {
    "version": 4,
    "description": "Karaoke Mugen Karaoke Data File"
  },
  "medias": [
    {
      "version": "Default",
      "filename": "FRE - KYO, sita - MV - Le Chemin.mp4",
      "audiogain": -1.05,
      "loudnorm": "-16.19,-1.10,6.90,-26.41,-1.10",
      "filesize": 15872736,
      "duration": 202,
      "default": true,
      "lyrics": [
        {
          "filename": "FRE - KYO, sita - MV - Le Chemin.ass",
          "default": true,
          "version": "Default"
        }
      ]
    }
  ],
  "data": {
    "created_at": "2022-05-04T21:39:53.091Z",
    "ignoreHooks": false,
    "kid": "1d154586-5e9a-4b53-bac7-98ff3810144d",
    "modified_at": "2022-06-04T21:57:29.560Z",
    "repository": "kara.moe",
    "tags": {
      "authors": [
        "0c8e4377-ee35-4896-89ed-9d06a1b5acd5"
      ],
      "collections": [
        "efe171c0-e8a1-4d03-98c0-60ecf741ad52"
      ],
      "creators": [
        "b6898dde-71fe-4aab-a138-0a00b6452f97",
        "cca56dad-2503-4a51-bc90-3490b4e979f4"
      ],
      "families": [
        "5391f9fe-638c-415f-8dc9-958e3a2c5787"
      ],
      "groups": [
        "3c14c864-533c-49e6-a3cc-6969f1233775"
      ],
      "langs": [
        "fd8072b7-4d9b-45d4-8f5b-a931a830edef"
      ],
      "singers": [
        "3f14da5f-ffaf-463e-9b17-ccdd616804a8",
        "906e3893-6ae4-4961-a5f2-e414246c5d2f"
      ],
      "songtypes": [
        "7be1b15c-cff8-4b37-a649-5c90f3d569a9"
      ],
      "songwriters": [
        "3f14da5f-ffaf-463e-9b17-ccdd616804a8"
      ]
    },
    "titles": {
      "fre": "Le Chemin"
    },
    "titles_default_language": "fre",
    "title": "Le Chemin",
    "year": 2003
  }
}