{
  "header": {
    "version": 4,
    "description": "Karaoke Mugen Karaoke Data File"
  },
  "medias": [
    {
      "version": "Default",
      "filename": "FRE - Alizee - MV - Mademoiselle Juliette.mp4",
      "audiogain": -2.57,
      "loudnorm": "-12.64,-2.87,1.00,-22.64,-0.09",
      "filesize": 37432275,
      "duration": 165,
      "default": true,
      "lyrics": [
        {
          "filename": "FRE - Alizee - MV - Mademoiselle Juliette.ass",
          "default": true,
          "version": "Default"
        }
      ]
    }
  ],
  "data": {
    "created_at": "2022-03-20T14:03:56.691Z",
    "ignoreHooks": false,
    "kid": "b5bd36ab-bb42-49ad-a50a-ae7803876f4c",
    "modified_at": "2022-03-20T14:03:56.691Z",
    "repository": "kara.moe",
    "tags": {
      "authors": [
        "0c8e4377-ee35-4896-89ed-9d06a1b5acd5"
      ],
      "collections": [
        "efe171c0-e8a1-4d03-98c0-60ecf741ad52"
      ],
      "creators": [
        "5b29bf8d-93e9-4601-9992-0b2b6d87e27d"
      ],
      "families": [
        "5391f9fe-638c-415f-8dc9-958e3a2c5787"
      ],
      "groups": [
        "3c14c864-533c-49e6-a3cc-6969f1233775"
      ],
      "langs": [
        "fd8072b7-4d9b-45d4-8f5b-a931a830edef"
      ],
      "singers": [
        "27842684-2019-4970-9173-2800a402e4e3"
      ],
      "songtypes": [
        "7be1b15c-cff8-4b37-a649-5c90f3d569a9"
      ],
      "songwriters": [
        "038b0ef4-23dd-47a8-986b-c0d3c171f3f1",
        "02a7ac95-d03c-4427-a85e-68ce9832e31d"
      ]
    },
    "titles": {
      "eng": "Mademoiselle Juliette",
      "fre": "Mademoiselle Juliette"
    },
    "title": "Mademoiselle Juliette",
    "year": 2007
  }
}