{
  "header": {
    "version": 4,
    "description": "Karaoke Mugen Karaoke Data File"
  },
  "medias": [
    {
      "version": "Default",
      "filename": "FRE - Maitre Gims - MV - Zombie.mp4",
      "audiogain": -7.09,
      "loudnorm": "-10.20,0.57,8.40,-20.56,-1.06",
      "filesize": 61719723,
      "duration": 244,
      "default": true,
      "lyrics": [
        {
          "filename": "FRE - Maitre Gims - MV - Zombie.ass",
          "default": true,
          "version": "Default"
        }
      ]
    }
  ],
  "data": {
    "created_at": "2023-03-04T20:47:51.463Z",
    "ignoreHooks": false,
    "kid": "552ad8d8-9121-4698-8795-c8663ea5c896",
    "modified_at": "2023-07-20T22:15:59.414Z",
    "repository": "kara.moe",
    "tags": {
      "authors": [
        "0275191e-6efa-4aee-b15c-74f594274dd3",
        "f70c7314-b8d3-4bf4-96a0-dc8b2c5a6c94"
      ],
      "collections": [
        "efe171c0-e8a1-4d03-98c0-60ecf741ad52"
      ],
      "creators": [
        "5b29bf8d-93e9-4601-9992-0b2b6d87e27d",
        "cca56dad-2503-4a51-bc90-3490b4e979f4"
      ],
      "families": [
        "5391f9fe-638c-415f-8dc9-958e3a2c5787"
      ],
      "groups": [
        "ae613721-1fbe-480d-ba6b-d6d0702b184d",
        "966d1e74-d1f2-41e2-ab04-24279c22f562"
      ],
      "langs": [
        "fd8072b7-4d9b-45d4-8f5b-a931a830edef"
      ],
      "singers": [
        "d26ac938-a62d-4483-adb1-0b5c1573bbd1"
      ],
      "songtypes": [
        "7be1b15c-cff8-4b37-a649-5c90f3d569a9"
      ],
      "songwriters": [
        "88b0e5bd-d710-4761-be15-e4906e46d2f5",
        "d26ac938-a62d-4483-adb1-0b5c1573bbd1"
      ]
    },
    "titles": {
      "fre": "Zombie"
    },
    "titles_default_language": "fre",
    "year": 2013
  }
}