{
  "header": {
    "version": 4,
    "description": "Karaoke Mugen Karaoke Data File"
  },
  "medias": [
    {
      "version": "Default",
      "filename": "FRE - Licence IV - MV - Viens boire un p'tit coup a la maison.mp4",
      "audiogain": 2.76,
      "loudnorm": "-19.98,-9.51,1.10,-30.04,-0.23",
      "filesize": 15386174,
      "duration": 215,
      "default": true,
      "lyrics": [
        {
          "filename": "FRE - Licence IV - MV - Viens boire un p'tit coup a la maison.ass",
          "default": true,
          "version": "Default"
        }
      ]
    }
  ],
  "data": {
    "created_at": "2020-07-03T21:16:19.748Z",
    "kid": "00edaf25-c9ae-49ae-8373-92053300efc4",
    "modified_at": "2021-02-25T14:52:08.926Z",
    "repository": "kara.moe",
    "songorder": null,
    "tags": {
      "authors": [
        "3637fdbd-0a33-4f53-8000-c825b6044221"
      ],
      "collections": [
        "c7db86a0-ff64-4044-9be4-66dd1ef1d1c1"
      ],
      "creators": [
        "078ec016-e167-49bf-ba43-af95adfc4c51"
      ],
      "families": [
        "5391f9fe-638c-415f-8dc9-958e3a2c5787"
      ],
      "groups": [
        "7792cc27-9ff9-4d47-9287-2338b7db1575"
      ],
      "langs": [
        "fd8072b7-4d9b-45d4-8f5b-a931a830edef"
      ],
      "singers": [
        "c63bc634-347f-4359-bb05-1635f2c4fdfe"
      ],
      "songtypes": [
        "7be1b15c-cff8-4b37-a649-5c90f3d569a9"
      ],
      "songwriters": [
        "ba66b577-5417-4298-90d3-55bcd250891d",
        "c4943c6d-55de-45f9-a83d-5e69a10df51c",
        "fbd24b8f-6570-4b7b-84b6-71a76ad310b6"
      ]
    },
    "titles": {
      "eng": "Viens boire un p'tit coup à la maison"
    },
    "title": "Viens boire un p'tit coup à la maison",
    "year": 1986
  }
}