{
  "header": {
    "version": 4,
    "description": "Karaoke Mugen Karaoke Data File"
  },
  "medias": [
    {
      "version": "Default",
      "filename": "ITA - Digimon Adventure - OP - Digimon.mp4",
      "audiogain": -9.34,
      "loudnorm": "-7.56,0.68,2.50,-17.66,-0.49",
      "filesize": 23502238,
      "duration": 95,
      "default": true,
      "lyrics": [
        {
          "filename": "ITA - Digimon Adventure - OP - Digimon.ass",
          "default": true,
          "version": "Default",
          "subchecksum": "1d5a59f4ffef59d6a620ec9ab1426650"
        }
      ]
    }
  ],
  "data": {
    "created_at": "2017-10-11T17:02:26.000Z",
    "kid": "1b019e03-91d0-462e-a85a-01cb4ec9d026",
    "modified_at": "2021-02-25T10:32:38.089Z",
    "parents": [
      "e702344c-f032-45ae-9d33-e3d18db59756"
    ],
    "repository": "kara.moe",
    "tags": {
      "authors": [
        "e746046a-82f1-41af-aa58-e59c92f5c273"
      ],
      "collections": [
        "c7db86a0-ff64-4044-9be4-66dd1ef1d1c1"
      ],
      "creators": [
        "f694bf43-b427-4244-9744-9d3f84fd8a31"
      ],
      "families": [
        "0377db02-3af6-43b8-9b08-c759df3d25c3"
      ],
      "genres": [
        "4b80eca6-f44f-4262-a8d0-b6879d6b70cb"
      ],
      "groups": [
        "24db50aa-a126-4d34-a48a-e45db79c4245"
      ],
      "langs": [
        "783496f0-1a2f-44c3-a906-02e8244148ae"
      ],
      "origins": [
        "938de218-5343-4865-94d3-fb33f2eaa152"
      ],
      "series": [
        "2fa3fc52-cad5-4946-a4bb-829c2f71c1ee"
      ],
      "singers": [
        "4e094a0f-de6a-4433-b2b2-a7aa6c8a05b2"
      ],
      "songtypes": [
        "f02ad9b3-0bd9-4aad-85b3-9976739ba0e4"
      ],
      "songwriters": [
        "f4beb791-59c8-4cfa-b08f-f3d8b90247b3"
      ],
      "franchises": [
        "315185f5-7fec-40da-ad58-8b0badb1c717"
      ]
    },
    "title": "Digimon",
    "titles": {
      "eng": "Digimon"
    },
    "year": 1999
  }
}