{
  "header": {
    "version": 4,
    "description": "Karaoke Mugen Karaoke Data File"
  },
  "medias": [
    {
      "version": "Default",
      "filename": "ITA - Majokko Meg-chan - OP - Bia.mp4",
      "audiogain": -4.59,
      "loudnorm": "-15.71,-0.11,9.60,-25.98,-0.83",
      "filesize": 8456295,
      "duration": 86,
      "default": true,
      "lyrics": [
        {
          "filename": "ITA - Majokko Meg-chan - OP - Bia.ass",
          "default": true,
          "version": "Default",
          "subchecksum": "bd75a93db261279a30a1552a26f81862"
        }
      ]
    }
  ],
  "data": {
    "created_at": "2021-05-18T20:15:35.083Z",
    "kid": "3e81d36e-bc8d-4d03-8059-a6d98a670c82",
    "modified_at": "2021-05-18T20:27:14.581Z",
    "repository": "kara.moe",
    "tags": {
      "authors": [
        "0871383e-f493-4a7c-b453-272ae48d9e85"
      ],
      "collections": [
        "c7db86a0-ff64-4044-9be4-66dd1ef1d1c1"
      ],
      "creators": [
        "f694bf43-b427-4244-9744-9d3f84fd8a31"
      ],
      "families": [
        "0377db02-3af6-43b8-9b08-c759df3d25c3"
      ],
      "groups": [
        "7792cc27-9ff9-4d47-9287-2338b7db1575"
      ],
      "langs": [
        "783496f0-1a2f-44c3-a906-02e8244148ae"
      ],
      "origins": [
        "938de218-5343-4865-94d3-fb33f2eaa152"
      ],
      "series": [
        "52223b30-c2ad-4346-beae-b0a493c1dcbb"
      ],
      "singers": [
        "12047392-db62-4c41-9e0f-39549f33f120",
        "474ed5d0-b794-468e-89b8-45b58e625325"
      ],
      "songtypes": [
        "f02ad9b3-0bd9-4aad-85b3-9976739ba0e4"
      ],
      "songwriters": [
        "12047392-db62-4c41-9e0f-39549f33f120"
      ],
      "franchises": [
        "52223b30-c2ad-4346-beae-b0a493c1dcbb"
      ]
    },
    "title": "Bia",
    "titles": {
      "eng": "Bia"
    },
    "year": 1981
  }
}