{
  "header": {
    "version": 4,
    "description": "Karaoke Mugen Karaoke Data File"
  },
  "medias": [
    {
      "version": "Default",
      "filename": "JPN - One Piece - CM - Kinen Satsuei.mp4",
      "audiogain": -9.16,
      "loudnorm": "-8.39,1.86,6.00,-18.67,-1.74",
      "filesize": 51507762,
      "duration": 305,
      "default": true,
      "lyrics": [
        {
          "filename": "JPN - One Piece - CM - Kinen Satsuei.ass",
          "default": true,
          "version": "Default",
          "subchecksum": "b7339a9daf70be6b5e6b8b9092d604f5"
        }
      ]
    }
  ],
  "data": {
    "created_at": "2019-11-21T22:49:42.193Z",
    "kid": "4d04b44d-9099-4a2a-bc38-29efbc1c3359",
    "modified_at": "2021-02-25T12:40:44.371Z",
    "repository": "kara.moe",
    "tags": {
      "authors": [
        "87096920-112f-485f-a310-04156cb4624d"
      ],
      "collections": [
        "c7db86a0-ff64-4044-9be4-66dd1ef1d1c1"
      ],
      "families": [
        "0377db02-3af6-43b8-9b08-c759df3d25c3"
      ],
      "groups": [
        "60defa7b-774e-4680-8321-51b742c2e009",
        "ae613721-1fbe-480d-ba6b-d6d0702b184d"
      ],
      "langs": [
        "4dcf9614-7914-42aa-99f4-dbce2e059133"
      ],
      "misc": [
        "86705d4b-24e4-4756-9687-2b9c98bcf366"
      ],
      "series": [
        "955758fc-ef9b-441e-b9e3-33dd2caf2753"
      ],
      "singers": [
        "a027724c-6136-4dc1-b585-7ae8f780c8d2"
      ],
      "songtypes": [
        "2ddb5358-e674-46fa-a6e1-7f5c5d56f8fa"
      ],
      "songwriters": [
        "20a392bf-0517-4d22-a08c-46345d1077fe"
      ],
      "franchises": [
        "955758fc-ef9b-441e-b9e3-33dd2caf2753"
      ]
    },
    "title": "Kinen Satsuei",
    "titles": {
      "qro": "Kinen Satsuei",
      "jpn": "記念撮影"
    },
    "year": 2019,
    "titles_default_language": "qro"
  }
}