{
  "header": {
    "version": 4,
    "description": "Karaoke Mugen Karaoke Data File"
  },
  "medias": [
    {
      "version": "Default",
      "filename": "JPN - Liyuu - MV - Ambition.mp4",
      "loudnorm": "-6.68,0.76,3.90,-16.79,-0.75",
      "filesize": 84967029,
      "duration": 235,
      "default": true,
      "lyrics": [
        {
          "filename": "JPN - Liyuu - MV - Ambition.ass",
          "default": true,
          "version": "Default"
        }
      ]
    }
  ],
  "data": {
    "created_at": "2023-09-11T19:52:00.336Z",
    "ignoreHooks": false,
    "kid": "46d1fc8e-e4e9-4acd-81a8-68c1f0bfab69",
    "modified_at": "2023-09-11T19:59:07.733Z",
    "repository": "kara.moe",
    "tags": {
      "authors": [
        "d641461a-403a-4a6b-83a0-207352713591"
      ],
      "collections": [
        "dbcf2c22-524d-4708-99bb-601703633927"
      ],
      "creators": [
        "b2805292-730e-473a-96f0-fd8e7ffd1fd7"
      ],
      "families": [
        "5391f9fe-638c-415f-8dc9-958e3a2c5787"
      ],
      "groups": [
        "8e209ae4-4381-438f-89dc-1b21752027d2"
      ],
      "langs": [
        "4dcf9614-7914-42aa-99f4-dbce2e059133"
      ],
      "singers": [
        "8a484e8b-1945-416f-b778-97a887ff24eb"
      ],
      "songtypes": [
        "7be1b15c-cff8-4b37-a649-5c90f3d569a9"
      ],
      "songwriters": [
        "76e68206-5ed7-47fd-8cae-fb5c84ff0d1f",
        "d2aabf2c-7572-49a8-b788-9aed300df95a"
      ]
    },
    "titles": {
      "eng": "Ambition"
    },
    "titles_default_language": "eng",
    "year": 2021
  }
}