{
  "header": {
    "version": 4,
    "description": "Karaoke Mugen Karaoke Data File"
  },
  "medias": [
    {
      "version": "Default",
      "filename": "JPN - Fate stay night - MV - Kirameku Namida wa Hoshi ni ~ Full Vers.mp4",
      "audiogain": -11.49,
      "loudnorm": "-6.64,1.24,2.60,-16.66,-0.00",
      "filesize": 15564884,
      "duration": 237,
      "default": true,
      "lyrics": [
        {
          "filename": "JPN - Fate stay night - MV - Kirameku Namida wa Hoshi ni ~ Full Vers.ass",
          "default": true,
          "version": "Default"
        }
      ]
    }
  ],
  "data": {
    "created_at": "2020-01-20T21:00:03.743Z",
    "kid": "d01414e2-ac6b-4545-a818-9407ad8efefd",
    "modified_at": "2022-06-04T00:13:44.893Z",
    "parents": [
      "4744f55a-7064-4ad8-98e1-4955ef06a984"
    ],
    "repository": "kara.moe",
    "songorder": null,
    "tags": {
      "authors": [
        "1db1738f-acdc-42fc-aec3-60f4bddf660d"
      ],
      "creators": [
        "86ee0878-dc8a-4101-a03e-e44d3e3f2bec"
      ],
      "families": [
        "5391f9fe-638c-415f-8dc9-958e3a2c5787"
      ],
      "groups": [
        "3c14c864-533c-49e6-a3cc-6969f1233775"
      ],
      "langs": [
        "4dcf9614-7914-42aa-99f4-dbce2e059133"
      ],
      "series": [
        "bed77af7-560d-4cae-9b23-6a0e61c5bdf5"
      ],
      "singers": [
        "5f1c82a1-0202-41d6-b110-618ebd4f44a6"
      ],
      "songtypes": [
        "7be1b15c-cff8-4b37-a649-5c90f3d569a9"
      ],
      "songwriters": [
        "3de2d5c4-21ec-4c68-bf7c-0b3afc172f1f"
      ],
      "versions": [
        "c2143a7f-6970-450e-8a79-0302db9220a9"
      ],
      "collections": [
        "dbcf2c22-524d-4708-99bb-601703633927"
      ],
      "franchises": [
        "564373dc-4cfa-454e-8af1-bcccb886c007"
      ]
    },
    "titles": {
      "qro": "Kirameku Namida wa Hoshi ni",
      "jpn": "きらめく涙は星に"
    },
    "titles_default_language": "qro",
    "title": "Kirameku Namida wa Hoshi ni",
    "year": 2006
  }
}