{
  "header": {
    "version": 4,
    "description": "Karaoke Mugen Karaoke Data File"
  },
  "medias": [
    {
      "version": "Default",
      "filename": "JPN - Kurokami The Animation - OP2 - tRANCE.mp4",
      "audiogain": -0.34,
      "loudnorm": "-17.54,-8.29,3.00,-27.65,-0.68",
      "filesize": 44974417,
      "duration": 91,
      "default": true,
      "lyrics": [
        {
          "filename": "JPN - Kurokami The Animation - OP2 - tRANCE.ass",
          "default": true,
          "version": "Default",
          "subchecksum": "86d3e3c48758e8226e0ee283c8abec01"
        }
      ]
    }
  ],
  "data": {
    "created_at": "2017-10-11T17:01:15.000Z",
    "kid": "66ddd8c7-5819-4945-8f2d-0fe442e37bf3",
    "modified_at": "2021-02-25T12:07:53.384Z",
    "repository": "kara.moe",
    "songorder": 2,
    "tags": {
      "authors": [
        "5bdaba57-27f8-4568-8806-76a807728766"
      ],
      "collections": [
        "c7db86a0-ff64-4044-9be4-66dd1ef1d1c1"
      ],
      "creators": [
        "ef8f80e1-d244-4aea-b7f0-984d6dd4b82b"
      ],
      "families": [
        "0377db02-3af6-43b8-9b08-c759df3d25c3"
      ],
      "groups": [
        "3c14c864-533c-49e6-a3cc-6969f1233775"
      ],
      "langs": [
        "4dcf9614-7914-42aa-99f4-dbce2e059133"
      ],
      "origins": [
        "938de218-5343-4865-94d3-fb33f2eaa152"
      ],
      "series": [
        "4c717cb7-4048-465f-9912-451411e2798c"
      ],
      "singers": [
        "213ca674-9084-40ad-a7a8-c84d8108fce9"
      ],
      "songtypes": [
        "f02ad9b3-0bd9-4aad-85b3-9976739ba0e4"
      ],
      "songwriters": [
        "8e1f109c-a1d4-40d6-9a55-32abdb12993c",
        "b26b49e2-d439-48b3-8c0f-c7c25648c48a"
      ]
    },
    "title": "tRANCE",
    "titles": {
      "eng": "tRANCE"
    },
    "year": 2009,
    "titles_default_language": "eng"
  }
}