{
  "header": {
    "version": 4,
    "description": "Karaoke Mugen Karaoke Data File"
  },
  "medias": [
    {
      "version": "Default",
      "filename": "JPN - Senki Zesshou Symphogear AXZ - LIVE - Shitou -Ewigkeit- ~ Full Vers.mp4",
      "audiogain": -9.09,
      "loudnorm": "-9.35,2.22,8.60,-19.60,-1.14",
      "filesize": 257607944,
      "duration": 287,
      "default": true,
      "lyrics": [
        {
          "filename": "JPN - Senki Zesshou Symphogear AXZ - LIVE - Shitou -Ewigkeit- ~ Full Vers.ass",
          "default": true,
          "version": "Default"
        }
      ]
    }
  ],
  "data": {
    "created_at": "2020-09-20T15:28:43.335Z",
    "ignoreHooks": false,
    "kid": "a051a66f-d413-4f1d-97f4-d5a02472843e",
    "modified_at": "2023-05-10T01:30:09.834Z",
    "parents": [
      "5c8febfb-519b-445a-ae86-7efcc2d65709"
    ],
    "repository": "kara.moe",
    "tags": {
      "authors": [
        "523ead5e-981e-4993-af29-12524f7edcf1"
      ],
      "collections": [
        "dbcf2c22-524d-4708-99bb-601703633927"
      ],
      "creators": [
        "d2a29c19-019f-4a3d-86ad-2dae9e41a4b1"
      ],
      "families": [
        "5391f9fe-638c-415f-8dc9-958e3a2c5787"
      ],
      "groups": [
        "2b4e9972-5e17-481b-99f5-d0787c0ada56",
        "ae613721-1fbe-480d-ba6b-d6d0702b184d"
      ],
      "langs": [
        "4dcf9614-7914-42aa-99f4-dbce2e059133"
      ],
      "misc": [
        "1d6ceadf-a885-47e5-b23b-c07bf668a424"
      ],
      "origins": [
        "938de218-5343-4865-94d3-fb33f2eaa152"
      ],
      "series": [
        "84baaef4-5c5e-42fd-bb81-9151f280fa09"
      ],
      "singers": [
        "785b309b-e14c-4f2f-b660-84f087e98fb7",
        "9c414b4c-422b-4857-b8fd-4556895a745c",
        "a193b82b-0c3c-44df-ade9-f21077bef97f"
      ],
      "songtypes": [
        "a0167949-580c-4de3-bf13-497e462e02f3"
      ],
      "songwriters": [
        "400922df-5396-43ea-a338-90771426a74f",
        "af3ffe51-8059-461c-bbb8-78ea388731f3",
        "edcfaab2-4464-4eab-927a-91be9dfa982e"
      ],
      "versions": [
        "c2143a7f-6970-450e-8a79-0302db9220a9"
      ],
      "franchises": [
        "61b24082-a6a9-482b-b126-0ad7be595791"
      ]
    },
    "titles": {
      "jpn": "死灯 -エイヴィヒカイト-",
      "qro": "Shitô -Ewigkeit-"
    },
    "titles_default_language": "qro",
    "titles_aliases": [
      "Shitou"
    ],
    "year": 2018
  }
}