{
  "header": {
    "version": 4,
    "description": "Karaoke Mugen Karaoke Data File"
  },
  "medias": [
    {
      "version": "Default",
      "filename": "JPN - Kishin Houkou Demonbane - OP - Hito, Kami, Hata Man God Machine.mp4",
      "audiogain": -7.72,
      "loudnorm": "-9.05,1.11,4.60,-19.44,-0.86",
      "filesize": 21177948,
      "duration": 71,
      "default": true,
      "lyrics": [
        {
          "filename": "JPN - Kishin Houkou Demonbane - OP - Hito, Kami, Hata Man God Machine.ass",
          "default": true,
          "version": "Default",
          "subchecksum": "b7daa40b286697304f55bdd002c1a358"
        }
      ]
    }
  ],
  "data": {
    "created_at": "2017-10-11T17:02:50.000Z",
    "kid": "541dfedb-254d-4c3a-be1d-18d98f3b4e56",
    "modified_at": "2021-02-25T12:04:07.357Z",
    "repository": "kara.moe",
    "tags": {
      "authors": [
        "5bdaba57-27f8-4568-8806-76a807728766"
      ],
      "collections": [
        "c7db86a0-ff64-4044-9be4-66dd1ef1d1c1"
      ],
      "creators": [
        "ca42cc96-5ee9-45f1-9a82-1653d08f4eeb",
        "d8c36618-4baf-4969-a667-188a901a1f00"
      ],
      "families": [
        "0377db02-3af6-43b8-9b08-c759df3d25c3"
      ],
      "genres": [
        "f60ba57d-5ef4-49e0-b93b-d0dcbcff6592"
      ],
      "groups": [
        "3c14c864-533c-49e6-a3cc-6969f1233775"
      ],
      "langs": [
        "4dcf9614-7914-42aa-99f4-dbce2e059133"
      ],
      "origins": [
        "938de218-5343-4865-94d3-fb33f2eaa152"
      ],
      "series": [
        "35d4dbb0-e124-401a-b34f-5afccdef7495"
      ],
      "singers": [
        "edc24936-e760-4fff-ba6e-b941684eed1a"
      ],
      "songtypes": [
        "f02ad9b3-0bd9-4aad-85b3-9976739ba0e4"
      ],
      "songwriters": [
        "8b3b3e30-0d28-43e0-90e0-ad0eef33509c",
        "cde0e979-7f7a-4450-a2cc-faf3251b09fe",
        "eae43792-43ca-44cd-871b-5d46e5531c45"
      ]
    },
    "title": "Hito, Kami, Hata: Man God Machine",
    "titles": {
      "qro": "Hito, Kami, Hata: Man God Machine",
      "jpn": "人, 神, 機 -Man God Machine-"
    },
    "year": 2006,
    "titles_default_language": "qro"
  }
}