{
  "header": {
    "version": 4,
    "description": "Karaoke Mugen Karaoke Data File"
  },
  "medias": [
    {
      "version": "Default",
      "filename": "JPN - Yosuga no Sora - OP - Hiyoku no Hane.mp4",
      "audiogain": -4.27,
      "loudnorm": "-13.87,-0.03,6.00,-24.19,-1.50",
      "filesize": 36384841,
      "duration": 92,
      "default": true,
      "lyrics": [
        {
          "filename": "JPN - Yosuga no Sora - OP - Hiyoku no Hane.ass",
          "default": true,
          "version": "Default",
          "subchecksum": "1b84addda4fd0978b4368d5af0cb5cef"
        }
      ]
    }
  ],
  "data": {
    "created_at": "2017-10-11T17:02:07.000Z",
    "kid": "5c7d2f73-34b9-4534-9bf7-ee8200c5507a",
    "modified_at": "2021-02-25T13:40:20.096Z",
    "repository": "kara.moe",
    "tags": {
      "authors": [
        "5bdaba57-27f8-4568-8806-76a807728766"
      ],
      "collections": [
        "c7db86a0-ff64-4044-9be4-66dd1ef1d1c1"
      ],
      "creators": [
        "5c15c11c-e09d-4a4f-ab3d-143d69439fc2"
      ],
      "families": [
        "0377db02-3af6-43b8-9b08-c759df3d25c3"
      ],
      "groups": [
        "ae613721-1fbe-480d-ba6b-d6d0702b184d"
      ],
      "langs": [
        "4dcf9614-7914-42aa-99f4-dbce2e059133"
      ],
      "origins": [
        "938de218-5343-4865-94d3-fb33f2eaa152"
      ],
      "series": [
        "e684da31-6849-4505-9b2f-3e34220bb012"
      ],
      "singers": [
        "d2c58207-02f6-44e6-a80d-1cd4dc3df848"
      ],
      "songtypes": [
        "f02ad9b3-0bd9-4aad-85b3-9976739ba0e4"
      ],
      "songwriters": [
        "8020e9f1-ef7e-4565-ad74-5aa08f3370f9",
        "b42731d8-fee7-401f-a78e-136a8a6dcd3d"
      ]
    },
    "title": "Hiyoku no Hane",
    "titles": {
      "qro": "Hiyoku no Hane",
      "jpn": "比翼の羽根"
    },
    "year": 2010,
    "titles_default_language": "qro"
  }
}