{
  "header": {
    "version": 4,
    "description": "Karaoke Mugen Karaoke Data File"
  },
  "medias": [
    {
      "version": "Default",
      "filename": "JPN - Hina Logi From Luck & Logic - OP - BUTTERFLY EFFECTOR.mp4",
      "audiogain": -12.04,
      "loudnorm": "-5.13,1.31,1.80,-15.33,-0.45",
      "filesize": 46628601,
      "duration": 92,
      "default": true,
      "lyrics": [
        {
          "filename": "JPN - Hina Logi From Luck & Logic - OP - BUTTERFLY EFFECTOR.ass",
          "default": true,
          "version": "Default",
          "subchecksum": "1ea1678d4385fc17737e6bd3dba6cfc3"
        }
      ]
    }
  ],
  "data": {
    "created_at": "2018-07-25T20:33:09.000Z",
    "kid": "ba802bce-a4ab-46bd-a630-73288c37cbb6",
    "modified_at": "2021-07-20T17:18:11.840Z",
    "repository": "kara.moe",
    "tags": {
      "authors": [
        "b5116310-e69b-4ed4-9e47-c5c53ee69023"
      ],
      "collections": [
        "c7db86a0-ff64-4044-9be4-66dd1ef1d1c1"
      ],
      "creators": [
        "5b10d972-08a8-419d-9663-46930cc2c347"
      ],
      "families": [
        "0377db02-3af6-43b8-9b08-c759df3d25c3"
      ],
      "groups": [
        "ae613721-1fbe-480d-ba6b-d6d0702b184d"
      ],
      "langs": [
        "4dcf9614-7914-42aa-99f4-dbce2e059133"
      ],
      "origins": [
        "938de218-5343-4865-94d3-fb33f2eaa152"
      ],
      "series": [
        "82a3a8be-4aa7-441c-8376-7902a9f48ab2"
      ],
      "singers": [
        "61c5e3d4-6a0e-46b6-b622-06f5bc6d3294"
      ],
      "songtypes": [
        "f02ad9b3-0bd9-4aad-85b3-9976739ba0e4"
      ],
      "songwriters": [
        "7e72484d-b638-4d9a-95f2-5947c59d721b",
        "ad73a27b-de24-4a08-99fc-a16caf59f60d"
      ],
      "franchises": [
        "36543929-3d43-4990-bd0d-ce792bfdd5c1"
      ]
    },
    "title": "BUTTERFLY EFFECTOR",
    "titles": {
      "eng": "BUTTERFLY EFFECTOR"
    },
    "year": 2017,
    "titles_default_language": "eng"
  }
}