{
  "header": {
    "description": "Karaoke Mugen Karaoke Data File",
    "version": 4
  },
  "medias": [
    {
      "version": "Default",
      "filename": "JPN - Hanamonogatari - OP - the last day of my adolescence.mp4",
      "audiogain": 4.67,
      "loudnorm": "-22.32,-12.38,3.20,-32.40,-0.96",
      "duration": 91,
      "filesize": 45188891,
      "default": true,
      "lyrics": [
        {
          "filename": "JPN - Hanamonogatari - OP - the last day of my adolescence.ass",
          "default": true,
          "version": "Default"
        }
      ]
    }
  ],
  "data": {
    "comment": "Les chanteurs/compositeurs des OP et ED étaient inversés sur Hanamonogatari",
    "created_at": "2017-10-11T17:01:24.000Z",
    "kid": "53c73fd5-1017-473f-8df8-85064b295ef1",
    "modified_at": "2021-08-26T17:27:43.122Z",
    "parents": [],
    "repository": "kara.moe",
    "songorder": null,
    "tags": {
      "authors": [
        "6bebcb04-2694-453c-9e0c-eb1a2e2718d9",
        "fa399f2f-ea1d-4902-8796-ea6d8218aff0"
      ],
      "collections": [
        "c7db86a0-ff64-4044-9be4-66dd1ef1d1c1"
      ],
      "creators": [
        "c3bd80ef-d1fe-427f-913f-a2ba2fe66114"
      ],
      "families": [
        "0377db02-3af6-43b8-9b08-c759df3d25c3"
      ],
      "groups": [
        "ae613721-1fbe-480d-ba6b-d6d0702b184d"
      ],
      "langs": [
        "4dcf9614-7914-42aa-99f4-dbce2e059133"
      ],
      "misc": [
        "fe819ff1-9db8-4a0f-85dc-0e322c9126c4"
      ],
      "origins": [
        "938de218-5343-4865-94d3-fb33f2eaa152"
      ],
      "series": [
        "8e11b98d-f63b-4e99-819f-2830186e54c2"
      ],
      "singers": [
        "e1890e7a-41f1-4ab5-bd7f-6d23960bda9c"
      ],
      "songtypes": [
        "f02ad9b3-0bd9-4aad-85b3-9976739ba0e4"
      ],
      "songwriters": [
        "81d493c9-3353-40d4-b94d-7fa42d3b4229",
        "8c88f3c6-ea88-458e-8935-f94f8408e349"
      ],
      "franchises": [
        "94c05ef3-bfff-4a4d-a1a4-b07c32389971"
      ]
    },
    "titles": {
      "eng": "the last day of my adolescence"
    },
    "title": "the last day of my adolescence",
    "year": 2014,
    "titles_default_language": "eng"
  }
}