{
  "header": {
    "version": 4,
    "description": "Karaoke Mugen Karaoke Data File"
  },
  "medias": [
    {
      "version": "Default",
      "filename": "JPN - Fairy Tail - OP12 - Tenohira.mp4",
      "audiogain": 3.64,
      "loudnorm": "-20.47,-11.32,1.50,-30.56,0.14",
      "filesize": 44455279,
      "duration": 92,
      "default": true,
      "lyrics": [
        {
          "filename": "JPN - Fairy Tail - OP12 - Tenohira.ass",
          "default": true,
          "version": "Default"
        }
      ]
    }
  ],
  "data": {
    "created_at": "2018-10-28T09:36:53.000Z",
    "ignoreHooks": false,
    "kid": "f3364187-f254-467d-9f1c-04d0487527d1",
    "modified_at": "2022-03-31T17:42:28.409Z",
    "repository": "kara.moe",
    "songorder": 12,
    "tags": {
      "authors": [
        "b5116310-e69b-4ed4-9e47-c5c53ee69023"
      ],
      "collections": [
        "c7db86a0-ff64-4044-9be4-66dd1ef1d1c1"
      ],
      "creators": [
        "0041fabf-4b82-4ecd-961b-e4c49b8c88be",
        "b96e3686-bbe0-4b9e-815a-a278d5ff31be"
      ],
      "families": [
        "0377db02-3af6-43b8-9b08-c759df3d25c3"
      ],
      "genres": [
        "a0aeef4a-6428-45ff-a6e1-468b595930c2"
      ],
      "langs": [
        "4dcf9614-7914-42aa-99f4-dbce2e059133"
      ],
      "misc": [
        "fe819ff1-9db8-4a0f-85dc-0e322c9126c4"
      ],
      "origins": [
        "938de218-5343-4865-94d3-fb33f2eaa152"
      ],
      "series": [
        "6b849ba8-e1a6-4390-bcb5-1d795d536761"
      ],
      "singers": [
        "2135435d-ec08-449f-9eb2-e4bd10153fdd"
      ],
      "songtypes": [
        "f02ad9b3-0bd9-4aad-85b3-9976739ba0e4"
      ],
      "songwriters": [
        "0b1a6f7e-c7c1-4e0e-a463-09121698b7d8",
        "fce2f175-3625-46d3-804d-b1e15369bfb0"
      ],
      "groups": [
        "ae613721-1fbe-480d-ba6b-d6d0702b184d"
      ],
      "franchises": [
        "6b849ba8-e1a6-4390-bcb5-1d795d536761"
      ]
    },
    "titles": {
      "qro": "Tenohira",
      "jpn": "テノヒラ"
    },
    "titles_default_language": "qro",
    "title": "Tenohira",
    "year": 2012
  }
}