{
  "header": {
    "version": 4,
    "description": "Karaoke Mugen Karaoke Data File"
  },
  "medias": [
    {
      "version": "Default",
      "filename": "JPN - Hagane no Renkinjutsushi - MV - Motherland ~ Full Vers.mp4",
      "audiogain": -8.28,
      "loudnorm": "-10.14,2.35,10.70,-20.40,-1.49",
      "filesize": 20404799,
      "duration": 270,
      "default": true,
      "lyrics": [
        {
          "filename": "JPN - Hagane no Renkinjutsushi - MV - Motherland ~ Full Vers.ass",
          "default": true,
          "version": "Default"
        }
      ]
    }
  ],
  "data": {
    "created_at": "2020-03-26T21:58:17.085Z",
    "kid": "7d5ea0ba-6db4-472f-bfcc-14056e2c6d15",
    "modified_at": "2022-06-04T00:13:23.050Z",
    "parents": [
      "9f1518e5-c4e1-4660-89df-8be73db4cd7e"
    ],
    "repository": "kara.moe",
    "songorder": null,
    "tags": {
      "authors": [
        "1db1738f-acdc-42fc-aec3-60f4bddf660d"
      ],
      "creators": [
        "221d01d3-cf22-45d6-b187-5e7806dd6d1e"
      ],
      "families": [
        "5391f9fe-638c-415f-8dc9-958e3a2c5787"
      ],
      "groups": [
        "3c14c864-533c-49e6-a3cc-6969f1233775"
      ],
      "langs": [
        "4dcf9614-7914-42aa-99f4-dbce2e059133"
      ],
      "series": [
        "3df1aaa7-e69a-4a6f-86cb-75544f0dd48a"
      ],
      "singers": [
        "d5a96682-5484-471d-9683-d19faaf70044"
      ],
      "songtypes": [
        "7be1b15c-cff8-4b37-a649-5c90f3d569a9"
      ],
      "songwriters": [
        "37f659dd-0b0a-40d5-a4e2-2b09395759f2",
        "99be41c9-4bf9-48c6-999b-b9d07b998625"
      ],
      "versions": [
        "c2143a7f-6970-450e-8a79-0302db9220a9"
      ],
      "collections": [
        "dbcf2c22-524d-4708-99bb-601703633927"
      ],
      "franchises": [
        "3df1aaa7-e69a-4a6f-86cb-75544f0dd48a"
      ]
    },
    "titles": {
      "eng": "Motherland"
    },
    "titles_default_language": "eng",
    "title": "Motherland",
    "year": 2003
  }
}