{
  "header": {
    "version": 4,
    "description": "Karaoke Mugen Karaoke Data File"
  },
  "medias": [
    {
      "version": "Default",
      "filename": "JPN - Kimetsu no Yaiba - OP - Gurenge.mp4",
      "audiogain": 0.93,
      "loudnorm": "-19.18,-8.53,8.10,-29.35,-1.67",
      "filesize": 71248765,
      "duration": 89,
      "default": true,
      "lyrics": [
        {
          "filename": "JPN - Kimetsu no Yaiba - OP - Gurenge.ass",
          "default": true,
          "version": "Default",
          "subchecksum": "f4c7e68d0602e5d8a8289e9f387ce634"
        }
      ]
    }
  ],
  "data": {
    "created_at": "2019-04-06T18:27:05.000Z",
    "kid": "bd6c9fed-ae4a-4eef-8e7b-47e4097f45ef",
    "modified_at": "2021-02-25T12:01:53.366Z",
    "repository": "kara.moe",
    "tags": {
      "authors": [
        "5a629611-96b4-422c-b309-ba7a58e263a2"
      ],
      "collections": [
        "c7db86a0-ff64-4044-9be4-66dd1ef1d1c1"
      ],
      "creators": [
        "e1972c4c-a95d-4849-a5e2-8c6b3d26c6fa"
      ],
      "families": [
        "0377db02-3af6-43b8-9b08-c759df3d25c3"
      ],
      "genres": [
        "a0aeef4a-6428-45ff-a6e1-468b595930c2"
      ],
      "groups": [
        "9a8e0fbc-dcae-4989-be82-7cad3436f1f5",
        "ae613721-1fbe-480d-ba6b-d6d0702b184d"
      ],
      "langs": [
        "4dcf9614-7914-42aa-99f4-dbce2e059133"
      ],
      "origins": [
        "938de218-5343-4865-94d3-fb33f2eaa152"
      ],
      "series": [
        "fedb7dc4-978d-425b-85ab-4cec99cee4f8"
      ],
      "singers": [
        "41f045f2-1576-496d-91b1-c0f28bab57a4"
      ],
      "songtypes": [
        "f02ad9b3-0bd9-4aad-85b3-9976739ba0e4"
      ],
      "songwriters": [
        "0423d0d2-d18a-4a48-bd91-21fe73f0299d",
        "41f045f2-1576-496d-91b1-c0f28bab57a4",
        "ae6a7812-73b3-4a19-ba13-e5011785b01d"
      ],
      "franchises": [
        "fedb7dc4-978d-425b-85ab-4cec99cee4f8"
      ]
    },
    "title": "Gurenge",
    "titles": {
      "qro": "Gurenge",
      "jpn": "紅蓮華"
    },
    "year": 2019,
    "titles_default_language": "qro"
  }
}