{
  "header": {
    "version": 4,
    "description": "Karaoke Mugen Karaoke Data File"
  },
  "medias": [
    {
      "version": "Super Robot Spirits Tour 98.",
      "filename": "JPN - Super Robot Taisen - LIVE - Hagane no Tamashii ~ Super Robot Spirits Tour 98 Vers. ~ Full Vers.mp4",
      "audiogain": -1.19,
      "loudnorm": "-16.38,-2.61,3.00,-26.48,-0.10",
      "filesize": 30850012,
      "duration": 289,
      "default": true,
      "lyrics": [
        {
          "filename": "JPN - Super Robot Taisen - LIVE - Hagane no Tamashii ~ Super Robot Spirits Tour 98 Vers. ~ Full Vers.ass",
          "default": true,
          "version": "Default"
        }
      ]
    }
  ],
  "data": {
    "created_at": "2017-10-11T17:03:10.000Z",
    "ignoreHooks": false,
    "kid": "08f80692-20a6-49d6-8d45-7254385727cd",
    "modified_at": "2022-12-22T16:08:49.891Z",
    "repository": "kara.moe",
    "tags": {
      "authors": [
        "5bdaba57-27f8-4568-8806-76a807728766"
      ],
      "collections": [
        "dbcf2c22-524d-4708-99bb-601703633927"
      ],
      "creators": [
        "97e62433-0f2f-4e1b-ba1e-109eec95dc11"
      ],
      "families": [
        "5391f9fe-638c-415f-8dc9-958e3a2c5787"
      ],
      "groups": [
        "24db50aa-a126-4d34-a48a-e45db79c4245"
      ],
      "langs": [
        "4dcf9614-7914-42aa-99f4-dbce2e059133"
      ],
      "series": [
        "4e88aee3-4cb9-4342-bac8-6c0819b3a014"
      ],
      "singers": [
        "162799fe-de2f-4f72-99a2-8c606aee4f2d",
        "59a38148-e0a8-43df-b149-a6118d9f2d4d",
        "83819d73-4025-4396-b645-28aae9703c44",
        "f7a1aa6a-4cc9-433f-a6a0-924653b6fd7f"
      ],
      "songtypes": [
        "a0167949-580c-4de3-bf13-497e462e02f3"
      ],
      "songwriters": [
        "fe8d4d2d-1479-46c7-9730-191d2d3de07c"
      ],
      "versions": [
        "c2143a7f-6970-450e-8a79-0302db9220a9"
      ],
      "franchises": [
        "4e88aee3-4cb9-4342-bac8-6c0819b3a014"
      ]
    },
    "titles": {
      "jpn": "鋼の魂~ スーパーロボットスピリッツ Tour 98 Vers.",
      "qro": "Hagane no Tamashii ~ Super Robot Spirits Tour 98 Vers."
    },
    "titles_default_language": "qro",
    "year": 1999
  }
}