{
  "header": {
    "version": 4,
    "description": "Karaoke Mugen Karaoke Data File"
  },
  "medias": [
    {
      "version": "Default",
      "filename": "JPN - Touhou - MV - Agepoyo TONIGHT.mp4",
      "audiogain": -4.57,
      "loudnorm": "-13.12,-4.41,3.60,-23.13,-0.15",
      "filesize": 19297310,
      "duration": 102,
      "default": true,
      "lyrics": [
        {
          "filename": "JPN - Touhou - MV - Agepoyo TONIGHT.ass",
          "default": true,
          "version": "Default"
        }
      ]
    }
  ],
  "data": {
    "created_at": "2022-09-18T14:21:39.476Z",
    "ignoreHooks": false,
    "kid": "fff5f822-635d-4e02-aaf9-61e3f7d7664e",
    "modified_at": "2022-10-01T23:22:03.324Z",
    "repository": "kara.moe",
    "tags": {
      "authors": [
        "1fbfef73-6731-40df-ba51-65a54b9d1605"
      ],
      "collections": [
        "c7db86a0-ff64-4044-9be4-66dd1ef1d1c1"
      ],
      "creators": [
        "25fc251a-0514-4bf5-a818-dd0547723f4a"
      ],
      "families": [
        "0377db02-3af6-43b8-9b08-c759df3d25c3"
      ],
      "groups": [
        "ae613721-1fbe-480d-ba6b-d6d0702b184d"
      ],
      "langs": [
        "4dcf9614-7914-42aa-99f4-dbce2e059133"
      ],
      "origins": [
        "ac5085db-52d8-44b4-8fbb-1697b24d2046"
      ],
      "series": [
        "1bdaa5a1-dfa6-4365-b746-7a0b194dafd6"
      ],
      "singers": [
        "98cd2e0e-44fb-4feb-aada-1b418e94af37"
      ],
      "songtypes": [
        "7be1b15c-cff8-4b37-a649-5c90f3d569a9"
      ],
      "songwriters": [
        "1dae52a9-d1e0-447b-8dd3-cfd10119a3a8",
        "26cb5252-8510-49e0-897c-a611a05fc056",
        "feceb592-efac-4eda-9b03-c27cf509004c"
      ],
      "franchises": [
        "1bdaa5a1-dfa6-4365-b746-7a0b194dafd6"
      ]
    },
    "titles": {
      "jpn": "あげぽよTONIGHT",
      "qro": "Agepoyo TONIGHT"
    },
    "titles_default_language": "qro",
    "title": "Agepoyo TONIGHT",
    "year": 2012
  }
}