{
  "header": {
    "version": 4,
    "description": "Karaoke Mugen Karaoke Data File"
  },
  "medias": [
    {
      "version": "Default",
      "filename": "JPN - Tsubasa CHRoNiCLE - AMV - Yume no Tsubasa.mp4",
      "audiogain": -7.5,
      "loudnorm": "-9.66,1.81,3.90,-19.91,-0.71",
      "filesize": 74510544,
      "duration": 270,
      "default": true,
      "lyrics": [
        {
          "filename": "JPN - Tsubasa CHRoNiCLE - AMV - Yume no Tsubasa.ass",
          "default": true,
          "version": "Default"
        }
      ]
    }
  ],
  "data": {
    "created_at": "2022-02-27T18:55:19.042Z",
    "ignoreHooks": false,
    "kid": "6f2055b9-b32d-4399-93bf-2281a5a67a3b",
    "modified_at": "2022-02-27T18:55:19.042Z",
    "repository": "kara.moe",
    "tags": {
      "authors": [
        "54e1331b-ad2b-4d39-b203-de7bdd6e8f0d"
      ],
      "collections": [
        "c7db86a0-ff64-4044-9be4-66dd1ef1d1c1"
      ],
      "creators": [
        "53c428f6-4ad6-464f-8529-40e7b9941c7f"
      ],
      "families": [
        "0377db02-3af6-43b8-9b08-c759df3d25c3"
      ],
      "groups": [
        "3c14c864-533c-49e6-a3cc-6969f1233775",
        "2b4e9972-5e17-481b-99f5-d0787c0ada56"
      ],
      "langs": [
        "4dcf9614-7914-42aa-99f4-dbce2e059133"
      ],
      "misc": [
        "1d6ceadf-a885-47e5-b23b-c07bf668a424"
      ],
      "origins": [
        "938de218-5343-4865-94d3-fb33f2eaa152"
      ],
      "series": [
        "3c7d22ca-88c2-4865-b167-8e33242117ed"
      ],
      "singers": [
        "fa7956e2-db2e-4a2d-82b7-499660b9cc94",
        "01900c77-94f2-4e04-8378-7028fb9e02be"
      ],
      "songtypes": [
        "a6c79ce5-89ee-4d50-afe8-3abd7317f6c2"
      ],
      "songwriters": [
        "1f324dc7-f858-415b-bbc1-41fcce3d6ac7"
      ],
      "franchises": [
        "3c7d22ca-88c2-4865-b167-8e33242117ed"
      ]
    },
    "titles": {
      "qro": "Yume no Tsubasa",
      "jpn": "ユメノツバサ"
    },
    "title": "Yume no Tsubasa",
    "year": 2005,
    "titles_default_language": "qro"
  }
}