{
  "header": {
    "version": 4,
    "description": "Karaoke Mugen Karaoke Data File"
  },
  "medias": [
    {
      "version": "Default",
      "filename": "JPN - Touhou - MV - Tewi! ～Eien Tewi Ver～.mp4",
      "audiogain": -11.63,
      "loudnorm": "-6.80,0.88,3.50,-16.99,-0.19",
      "filesize": 27001567,
      "duration": 245,
      "default": true,
      "lyrics": [
        {
          "filename": "JPN - Touhou - MV - Tewi! ～Eien Tewi Ver～.ass",
          "default": true,
          "version": "Default"
        }
      ]
    }
  ],
  "data": {
    "created_at": "2019-09-08T20:55:31.000Z",
    "kid": "99a8603b-81df-49cc-be4a-964ec4f4d118",
    "modified_at": "2022-09-19T07:46:19.463Z",
    "repository": "kara.moe",
    "tags": {
      "series": [
        "1bdaa5a1-dfa6-4365-b746-7a0b194dafd6"
      ],
      "singers": [
        "4cb575ae-a999-4234-9417-31580bcfab94"
      ],
      "songtypes": [
        "7be1b15c-cff8-4b37-a649-5c90f3d569a9"
      ],
      "creators": [
        "ad4c9a45-6385-48ff-9468-1a056c486239"
      ],
      "langs": [
        "4dcf9614-7914-42aa-99f4-dbce2e059133"
      ],
      "authors": [
        "9a30f575-b83f-4731-a9c4-41fffa464293"
      ],
      "songwriters": [
        "26cb5252-8510-49e0-897c-a611a05fc056",
        "ad4c9a45-6385-48ff-9468-1a056c486239"
      ],
      "groups": [
        "2b4e9972-5e17-481b-99f5-d0787c0ada56",
        "3c14c864-533c-49e6-a3cc-6969f1233775"
      ],
      "families": [
        "0377db02-3af6-43b8-9b08-c759df3d25c3"
      ],
      "origins": [
        "ac5085db-52d8-44b4-8fbb-1697b24d2046"
      ],
      "collections": [
        "c7db86a0-ff64-4044-9be4-66dd1ef1d1c1"
      ],
      "franchises": [
        "1bdaa5a1-dfa6-4365-b746-7a0b194dafd6"
      ]
    },
    "titles": {
      "qro": "Tewi! ～Eien Tewi Ver～",
      "jpn": "ってゐ！　～えいえんてゐVer～"
    },
    "titles_default_language": "qro",
    "title": "Tewi! ～Eien Tewi Ver～",
    "year": 2008
  }
}