{
  "header": {
    "version": 4,
    "description": "Karaoke Mugen Karaoke Data File"
  },
  "medias": [
    {
      "version": "Default",
      "filename": "JPN - SD Gundam Force - ED2 - Kokoro Odoru.mp4",
      "audiogain": -3.59,
      "loudnorm": "-13.55,-3.18,1.30,-23.68,-0.08",
      "filesize": 9012772,
      "duration": 68,
      "default": true,
      "lyrics": [
        {
          "filename": "JPN - SD Gundam Force - ED2 - Kokoro Odoru.ass",
          "default": true,
          "version": "Default"
        }
      ]
    }
  ],
  "data": {
    "created_at": "2020-07-22T17:51:16.087Z",
    "kid": "b9badae1-c9b7-44a9-be6b-4714cc061273",
    "modified_at": "2021-07-25T19:04:59.370Z",
    "repository": "kara.moe",
    "songorder": 2,
    "tags": {
      "authors": [
        "87096920-112f-485f-a310-04156cb4624d"
      ],
      "collections": [
        "c7db86a0-ff64-4044-9be4-66dd1ef1d1c1"
      ],
      "creators": [
        "ef8f80e1-d244-4aea-b7f0-984d6dd4b82b"
      ],
      "families": [
        "0377db02-3af6-43b8-9b08-c759df3d25c3"
      ],
      "genres": [
        "f60ba57d-5ef4-49e0-b93b-d0dcbcff6592"
      ],
      "groups": [
        "3c14c864-533c-49e6-a3cc-6969f1233775",
        "60defa7b-774e-4680-8321-51b742c2e009"
      ],
      "langs": [
        "4dcf9614-7914-42aa-99f4-dbce2e059133"
      ],
      "origins": [
        "938de218-5343-4865-94d3-fb33f2eaa152"
      ],
      "series": [
        "65e36254-13ba-4d33-b975-97d3161da26e"
      ],
      "singers": [
        "69947b25-a0cd-470c-b90a-4bc09cba6ef3"
      ],
      "songtypes": [
        "38c77c56-2b95-4040-b676-0994a8cb0597"
      ],
      "songwriters": [
        "69947b25-a0cd-470c-b90a-4bc09cba6ef3"
      ],
      "franchises": [
        "e6ade589-c2e4-49a1-acdb-ea9b03e57240"
      ]
    },
    "title": "Kokoro Odoru",
    "titles": {
      "qro": "Kokoro Odoru",
      "jpn": "ココロオドル"
    },
    "year": 2004,
    "titles_default_language": "qro"
  }
}