{
  "header": {
    "version": 4,
    "description": "Karaoke Mugen Karaoke Data File"
  },
  "medias": [
    {
      "version": "Default",
      "filename": "JPN - Eiga Tropical-Rouge! Precure Yuki no Princess to Kiseki no Yubiwa! - MOVIE LIVE - Daisuki no Snowball.mp4",
      "audiogain": -6.8,
      "loudnorm": "-10.83,1.63,4.90,-21.00,-0.55",
      "filesize": 125906806,
      "duration": 175,
      "default": true,
      "lyrics": [
        {
          "filename": "JPN - Eiga Tropical-Rouge! Precure Yuki no Princess to Kiseki no Yubiwa! - MOVIE LIVE - Daisuki no Snowball.ass",
          "default": true,
          "version": "Default"
        }
      ]
    }
  ],
  "data": {
    "created_at": "2022-12-30T21:08:04.094Z",
    "ignoreHooks": false,
    "kid": "fd48e219-3a22-4c90-87ca-17661188a414",
    "modified_at": "2023-07-17T21:35:52.915Z",
    "parents": [
      "436caa2e-cf1f-4bb8-b4a6-1fbafe0f54b0"
    ],
    "repository": "kara.moe",
    "tags": {
      "authors": [
        "2941868f-535f-4ea6-99f9-a0192e0e4dc7"
      ],
      "collections": [
        "dbcf2c22-524d-4708-99bb-601703633927"
      ],
      "creators": [
        "f694bf43-b427-4244-9744-9d3f84fd8a31"
      ],
      "families": [
        "5391f9fe-638c-415f-8dc9-958e3a2c5787"
      ],
      "genres": [
        "b84e28f9-db1e-447f-b339-7954c3592523"
      ],
      "groups": [
        "8e209ae4-4381-438f-89dc-1b21752027d2"
      ],
      "langs": [
        "4dcf9614-7914-42aa-99f4-dbce2e059133"
      ],
      "origins": [
        "c8ca9dea-d8b4-48fe-8427-d911653232e9"
      ],
      "series": [
        "4b61e396-d298-4588-885d-bf20ff85f56c"
      ],
      "singers": [
        "fae72c0f-4ef4-4268-9bff-465a0dec95e4"
      ],
      "songtypes": [
        "a0167949-580c-4de3-bf13-497e462e02f3"
      ],
      "songwriters": [
        "4276d301-2e4f-4cc9-b9f5-69559b52643e",
        "84e1d6be-7c40-4f84-afec-3a0b507af35a"
      ],
      "franchises": [
        "0067bd2a-ad9f-49eb-9e57-4a3ee0c9622a"
      ]
    },
    "titles": {
      "eng": "Snowball of Love",
      "jpn": "大好きのSnowball",
      "qro": "Daisuki no Snowball"
    },
    "titles_default_language": "qro",
    "year": 2021
  }
}