{
  "header": {
    "version": 4,
    "description": "Karaoke Mugen Karaoke Data File"
  },
  "medias": [
    {
      "version": "Default",
      "filename": "JPN - mihimaru GT - MV - Kibun Joujou UpUp.mp4",
      "audiogain": -2.75,
      "loudnorm": "-14.08,-4.57,1.30,-24.11,-0.47",
      "filesize": 22198262,
      "duration": 239,
      "default": true,
      "lyrics": [
        {
          "filename": "JPN - mihimaru GT - MV - Kibun Joujou UpUp.ass",
          "default": true,
          "version": "Default"
        }
      ]
    }
  ],
  "data": {
    "created_at": "2022-09-08T08:40:16.054Z",
    "ignoreHooks": false,
    "kid": "f3d9ecdb-f0ec-4863-baa6-878e356364dc",
    "modified_at": "2022-09-08T09:32:24.233Z",
    "repository": "kara.moe",
    "tags": {
      "authors": [
        "9cdf3b70-3550-457c-bdb9-038f3253c6ad"
      ],
      "collections": [
        "dbcf2c22-524d-4708-99bb-601703633927"
      ],
      "creators": [
        "16d42f94-706b-4d4a-8d06-662b35f556ce"
      ],
      "families": [
        "5391f9fe-638c-415f-8dc9-958e3a2c5787"
      ],
      "groups": [
        "3c14c864-533c-49e6-a3cc-6969f1233775"
      ],
      "langs": [
        "4dcf9614-7914-42aa-99f4-dbce2e059133"
      ],
      "singergroups": [
        "441b4da3-79ad-407b-ab45-84c561285fd6"
      ],
      "songtypes": [
        "7be1b15c-cff8-4b37-a649-5c90f3d569a9"
      ],
      "songwriters": [
        "441b4da3-79ad-407b-ab45-84c561285fd6"
      ]
    },
    "titles": {
      "jpn": "気分上々↑↑",
      "qro": "Kibun Jôjô ￪￪"
    },
    "titles_default_language": "qro",
    "titles_aliases": [
      "Joujou",
      "Joujô"
    ],
    "title": "Kibun Jôjô ￪￪",
    "year": 2006
  }
}