{
  "header": {
    "version": 4,
    "description": "Karaoke Mugen Karaoke Data File"
  },
  "medias": [
    {
      "version": "Default",
      "filename": "JPN - ZONE - LIVE - Secret Base ~Kimi ga Kureta Mono~ ~ Full Vers.mp4",
      "audiogain": 3.67,
      "loudnorm": "-21.23,-8.32,5.50,-31.32,-1.18",
      "filesize": 169816289,
      "duration": 365,
      "default": true,
      "lyrics": [
        {
          "filename": "JPN - ZONE - LIVE - Secret Base ~Kimi ga Kureta Mono~ ~ Full Vers.ass",
          "default": true,
          "version": "Default"
        }
      ]
    }
  ],
  "data": {
    "created_at": "2018-02-03T19:15:50.000Z",
    "ignoreHooks": false,
    "kid": "47957985-4b62-45a3-aa72-3931f8643ed5",
    "modified_at": "2022-12-21T22:36:31.888Z",
    "parents": [
      "e43a4862-fb35-4b38-83e9-43166ffbfef9"
    ],
    "repository": "kara.moe",
    "tags": {
      "authors": [
        "6bebcb04-2694-453c-9e0c-eb1a2e2718d9"
      ],
      "collections": [
        "dbcf2c22-524d-4708-99bb-601703633927"
      ],
      "creators": [
        "9f10c180-4ed1-4a4e-9e39-c37e09b91d5f"
      ],
      "families": [
        "5391f9fe-638c-415f-8dc9-958e3a2c5787"
      ],
      "groups": [
        "3c14c864-533c-49e6-a3cc-6969f1233775"
      ],
      "langs": [
        "4dcf9614-7914-42aa-99f4-dbce2e059133"
      ],
      "misc": [
        "86705d4b-24e4-4756-9687-2b9c98bcf366"
      ],
      "singers": [
        "9a3857e8-18e1-4884-81d5-49ad7660b77f"
      ],
      "songtypes": [
        "a0167949-580c-4de3-bf13-497e462e02f3"
      ],
      "songwriters": [
        "1ce20fa6-a13b-471e-b6dc-988e4774cb65"
      ],
      "versions": [
        "c2143a7f-6970-450e-8a79-0302db9220a9"
      ]
    },
    "titles": {
      "jpn": "secret base ～君がくれたもの～",
      "qro": "Secret Base ~Kimi ga Kureta Mono~"
    },
    "titles_default_language": "qro",
    "year": 2005
  }
}