{
  "header": {
    "version": 4,
    "description": "Karaoke Mugen Karaoke Data File"
  },
  "medias": [
    {
      "version": "Default",
      "filename": "JPN - Mawaru Penguindrum - OP2 - Shounen yo Ware ni Kaere.mp4",
      "audiogain": 2.34,
      "loudnorm": "-19.84,-11.54,4.90,-30.01,-0.76",
      "filesize": 26460851,
      "duration": 90,
      "default": true,
      "lyrics": [
        {
          "filename": "JPN - Mawaru Penguindrum - OP2 - Shounen yo Ware ni Kaere.ass",
          "default": true,
          "version": "Default"
        }
      ]
    }
  ],
  "data": {
    "created_at": "2017-10-11T17:01:48.000Z",
    "ignoreHooks": false,
    "kid": "ff8b970e-f1ec-4aa0-a336-e6ec4bc2dd75",
    "modified_at": "2022-09-30T21:49:41.991Z",
    "repository": "kara.moe",
    "songorder": 2,
    "tags": {
      "authors": [
        "0081300d-c0f9-4cff-a4f7-e726a293a76b"
      ],
      "collections": [
        "c7db86a0-ff64-4044-9be4-66dd1ef1d1c1"
      ],
      "creators": [
        "a06f41a3-31b6-462a-a195-e48a11386da3"
      ],
      "families": [
        "0377db02-3af6-43b8-9b08-c759df3d25c3"
      ],
      "groups": [
        "9a8e0fbc-dcae-4989-be82-7cad3436f1f5",
        "ae613721-1fbe-480d-ba6b-d6d0702b184d"
      ],
      "langs": [
        "4dcf9614-7914-42aa-99f4-dbce2e059133"
      ],
      "origins": [
        "938de218-5343-4865-94d3-fb33f2eaa152"
      ],
      "series": [
        "1b9ed73e-d0a9-4251-be35-76eec2210c83"
      ],
      "singers": [
        "49f072be-b82b-470e-a3bf-a1600efc1b83"
      ],
      "songtypes": [
        "f02ad9b3-0bd9-4aad-85b3-9976739ba0e4"
      ],
      "songwriters": [
        "6a4ddfcf-aaf4-48e5-af2b-6f6f9451881e"
      ],
      "franchises": [
        "1b9ed73e-d0a9-4251-be35-76eec2210c83"
      ]
    },
    "titles": {
      "jpn": "少年よ我に帰れ",
      "qro": "Shônen yo Ware ni Kaere"
    },
    "titles_default_language": "qro",
    "title": "Shônen yo Ware ni Kaere",
    "year": 2011,
    "titles_aliases": [
      "Shounen"
    ]
  }
}