{
  "header": {
    "version": 4,
    "description": "Karaoke Mugen Karaoke Data File"
  },
  "medias": [
    {
      "version": "Default",
      "filename": "JPN - Shokugeki no Souma San no Sara - Tootsuki Ressha Hen - ED - Atria.mp4",
      "audiogain": -1.15,
      "loudnorm": "-16.03,-5.69,2.60,-26.15,-0.64",
      "filesize": 57562693,
      "duration": 90,
      "default": true,
      "lyrics": [
        {
          "filename": "JPN - Shokugeki no Souma San no Sara - Tootsuki Ressha Hen - ED - Atria.ass",
          "default": true,
          "version": "Default",
          "subchecksum": "016d82f207a0cc9fd403d25931ab9113"
        }
      ]
    }
  ],
  "data": {
    "created_at": "2020-08-19T21:44:56.249Z",
    "kid": "9380c679-855f-48e1-85a0-77aabad2944b",
    "modified_at": "2021-02-25T13:06:04.517Z",
    "repository": "kara.moe",
    "tags": {
      "authors": [
        "4d71ce82-eed1-4c44-ac85-5f7255f3dad3"
      ],
      "collections": [
        "c7db86a0-ff64-4044-9be4-66dd1ef1d1c1"
      ],
      "creators": [
        "802a8ac8-b16f-40a4-944b-99956798c906"
      ],
      "families": [
        "0377db02-3af6-43b8-9b08-c759df3d25c3"
      ],
      "genres": [
        "a0aeef4a-6428-45ff-a6e1-468b595930c2"
      ],
      "groups": [
        "ae613721-1fbe-480d-ba6b-d6d0702b184d"
      ],
      "langs": [
        "4dcf9614-7914-42aa-99f4-dbce2e059133"
      ],
      "misc": [
        "fe819ff1-9db8-4a0f-85dc-0e322c9126c4"
      ],
      "origins": [
        "938de218-5343-4865-94d3-fb33f2eaa152"
      ],
      "series": [
        "9a1ec56e-048f-465b-afc2-8a3c1cfaefd0"
      ],
      "singers": [
        "d0a961b1-4fbe-4f2a-95b1-eded1abe6ccd"
      ],
      "songtypes": [
        "38c77c56-2b95-4040-b676-0994a8cb0597"
      ],
      "songwriters": [
        "0aa36cc8-3393-4eb8-bff6-258d13095615",
        "7b359299-5478-4b37-a0f9-afa332d171d3"
      ],
      "franchises": [
        "e1a94b71-a932-43e4-a0db-7e702c59b99c"
      ]
    },
    "title": "Atria",
    "titles": {
      "eng": "Atria",
      "jpn": "アトリア"
    },
    "year": 2018,
    "titles_default_language": "eng"
  }
}