{
  "header": {
    "version": 4,
    "description": "Karaoke Mugen Karaoke Data File"
  },
  "medias": [
    {
      "version": "Default",
      "filename": "JPN - 86 - ED4 - Alchemilla.mp4",
      "audiogain": -1.25,
      "loudnorm": "-16.04,-5.65,5.70,-26.11,-1.58",
      "filesize": 14732930,
      "duration": 90,
      "default": true,
      "lyrics": [
        {
          "filename": "JPN - 86 - ED4 - Alchemilla.ass",
          "default": true,
          "version": "Default"
        }
      ]
    }
  ],
  "data": {
    "created_at": "2022-04-24T12:51:43.742Z",
    "ignoreHooks": false,
    "kid": "955aff5e-9ec2-43c5-9bf4-ac8e76f0f689",
    "modified_at": "2023-06-17T16:30:20.774Z",
    "repository": "kara.moe",
    "songorder": 4,
    "tags": {
      "authors": [
        "5a629611-96b4-422c-b309-ba7a58e263a2"
      ],
      "collections": [
        "c7db86a0-ff64-4044-9be4-66dd1ef1d1c1"
      ],
      "creators": [
        "b96e3686-bbe0-4b9e-815a-a278d5ff31be"
      ],
      "families": [
        "0377db02-3af6-43b8-9b08-c759df3d25c3"
      ],
      "genres": [
        "f60ba57d-5ef4-49e0-b93b-d0dcbcff6592"
      ],
      "groups": [
        "8e209ae4-4381-438f-89dc-1b21752027d2"
      ],
      "langs": [
        "4dcf9614-7914-42aa-99f4-dbce2e059133"
      ],
      "origins": [
        "938de218-5343-4865-94d3-fb33f2eaa152"
      ],
      "series": [
        "ccbd0573-27f4-4dbb-aef8-5282ede76a8c"
      ],
      "singers": [
        "2e12022a-67f0-43a9-aca4-2124483e3d97"
      ],
      "songtypes": [
        "38c77c56-2b95-4040-b676-0994a8cb0597"
      ],
      "songwriters": [
        "304b6bd5-85d1-4697-b0c1-afd023dbeeaa"
      ]
    },
    "titles": {
      "eng": "Alchemilla",
      "jpn": "アルケミラ"
    },
    "titles_default_language": "eng",
    "year": 2021
  }
}