{
  "header": {
    "version": 4,
    "description": "Karaoke Mugen Karaoke Data File"
  },
  "medias": [
    {
      "version": "Default",
      "filename": "JPN - Love Live! School Idol Festival All Stars - GAME MV - Ye Mingzhu ~ Short Vers.mp4",
      "audiogain": 1.26,
      "loudnorm": "-18.27,-8.39,5.10,-28.38,-1.13",
      "filesize": 86470178,
      "duration": 113,
      "default": true,
      "lyrics": [
        {
          "filename": "JPN - Love Live! School Idol Festival All Stars - GAME MV - Ye Mingzhu ~ Short Vers.ass",
          "default": true,
          "version": "Default"
        }
      ]
    }
  ],
  "data": {
    "comment": "Il est possible qu'il y ai quelques trucs a arranger, mais ça me parrait globalement good",
    "created_at": "2021-09-26T21:00:21.566Z",
    "ignoreHooks": false,
    "kid": "30126fed-3e3c-43cc-b3b5-be1108202fee",
    "modified_at": "2022-06-06T16:59:56.745Z",
    "repository": "kara.moe",
    "tags": {
      "authors": [
        "d4eb6770-4dec-407d-8955-7bc0dc2c4d47"
      ],
      "collections": [
        "c7db86a0-ff64-4044-9be4-66dd1ef1d1c1"
      ],
      "creators": [
        "bd4564a8-44e5-454a-9c57-bd2a3c8a537e"
      ],
      "genres": [
        "caa86df2-0d59-474b-885c-f240a9e891b0"
      ],
      "groups": [
        "8e209ae4-4381-438f-89dc-1b21752027d2"
      ],
      "langs": [
        "4dcf9614-7914-42aa-99f4-dbce2e059133"
      ],
      "platforms": [
        "213a1a15-e73a-4a08-b3f6-b6e2745a82e5"
      ],
      "series": [
        "5500bf95-b83f-46a7-a861-ecc415a137d4"
      ],
      "singers": [
        "0c15c047-8230-45ba-a265-1297a3617158"
      ],
      "songtypes": [
        "7be1b15c-cff8-4b37-a649-5c90f3d569a9"
      ],
      "songwriters": [
        "49519d1c-d96d-4322-9911-f2c4dca78f42"
      ],
      "versions": [
        "d125c80a-86c1-4321-88e9-07b7800679b6"
      ],
      "franchises": [
        "fd5d066e-e85a-4eea-8688-2979a887450a"
      ],
      "origins": [
        "dbedd6b3-d125-4cd8-aa32-c4175e4ca3a3"
      ]
    },
    "titles": {
      "chi": "夜明珠",
      "qro": "Ye Mingzhu",
      "jpn": "イエミンジュ"
    },
    "titles_default_language": "qro",
    "title": "Ye Mingzhu",
    "year": 2021
  }
}