{
  "header": {
    "version": 4,
    "description": "Karaoke Mugen Karaoke Data File"
  },
  "medias": [
    {
      "version": "Default",
      "filename": "JPN - Phantom The Animation - OVA ED - I Myself Am Hell.mp4",
      "audiogain": -0.81,
      "loudnorm": "-16.03,-5.33,1.80,-26.41,0.06",
      "filesize": 7471491,
      "duration": 107,
      "default": true,
      "lyrics": [
        {
          "filename": "JPN - Phantom The Animation - OVA ED - I Myself Am Hell.ass",
          "default": true,
          "version": "Default"
        }
      ]
    }
  ],
  "data": {
    "created_at": "2022-05-27T22:04:40.675Z",
    "ignoreHooks": false,
    "kid": "c68d7ce4-8b19-4bc8-9c07-7e4283f4ea4b",
    "modified_at": "2022-05-27T22:04:41.002Z",
    "repository": "kara.moe",
    "tags": {
      "authors": [
        "8605a8b9-3b45-44b9-9d98-1a25096bf702"
      ],
      "collections": [
        "c7db86a0-ff64-4044-9be4-66dd1ef1d1c1"
      ],
      "creators": [
        "c37374fe-72b9-4855-8396-221331ed7a9b"
      ],
      "families": [
        "0377db02-3af6-43b8-9b08-c759df3d25c3"
      ],
      "langs": [
        "4dcf9614-7914-42aa-99f4-dbce2e059133"
      ],
      "origins": [
        "2a6ef087-a000-4f8e-aeb5-9a7968756a36"
      ],
      "series": [
        "095d9dfa-3497-4956-a488-11435c1f0878"
      ],
      "singers": [
        "3b97f60d-23e3-4e23-bf7f-9835bba682a7"
      ],
      "songtypes": [
        "38c77c56-2b95-4040-b676-0994a8cb0597"
      ],
      "songwriters": [
        "eae43792-43ca-44cd-871b-5d46e5531c45",
        "39ae2279-768e-4532-8696-3fd4ac55bb24"
      ],
      "groups": [
        "3c14c864-533c-49e6-a3cc-6969f1233775"
      ]
    },
    "titles": {
      "eng": "I Myself Am Hell"
    },
    "titles_default_language": "eng",
    "title": "I Myself Am Hell",
    "year": 2004
  }
}