{
  "header": {
    "version": 4,
    "description": "Karaoke Mugen Karaoke Data File"
  },
  "medias": [
    {
      "version": "Default",
      "filename": "JPN - Super Robot Wars Alpha Gaiden - LIVE - Neppuu! Shippu! Cybuster ~ Full Vers.mp4",
      "audiogain": -2.72,
      "loudnorm": "-14.13,-0.69,1.80,-24.13,-0.00",
      "filesize": 43600137,
      "duration": 216,
      "default": true,
      "lyrics": [
        {
          "filename": "JPN - Super Robot Wars Alpha Gaiden - LIVE - Neppuu! Shippu! Cybuster ~ Full Vers.ass",
          "default": true,
          "version": "Default"
        }
      ]
    }
  ],
  "data": {
    "created_at": "2017-10-11T17:02:34.000Z",
    "ignoreHooks": false,
    "kid": "28ed4038-54b1-4427-be90-ab2b54478219",
    "modified_at": "2022-12-21T22:36:30.757Z",
    "repository": "kara.moe",
    "tags": {
      "authors": [
        "4607780c-f1ef-47cf-9c1c-b13e8f731699"
      ],
      "collections": [
        "dbcf2c22-524d-4708-99bb-601703633927"
      ],
      "creators": [
        "b2805292-730e-473a-96f0-fd8e7ffd1fd7"
      ],
      "families": [
        "5391f9fe-638c-415f-8dc9-958e3a2c5787"
      ],
      "groups": [
        "3c14c864-533c-49e6-a3cc-6969f1233775"
      ],
      "langs": [
        "4dcf9614-7914-42aa-99f4-dbce2e059133"
      ],
      "series": [
        "7e57294b-26bf-44fa-a6be-73f4458c8a2b"
      ],
      "singers": [
        "a14aaac9-98b8-4298-a7d6-ea4945750704"
      ],
      "songtypes": [
        "a0167949-580c-4de3-bf13-497e462e02f3"
      ],
      "songwriters": [
        "00969688-bcec-4e71-9346-c2d3e4fc048c",
        "c4623648-dc53-4e49-bcc6-37d4d1881058"
      ],
      "versions": [
        "c2143a7f-6970-450e-8a79-0302db9220a9"
      ],
      "franchises": [
        "4e88aee3-4cb9-4342-bac8-6c0819b3a014"
      ]
    },
    "titles": {
      "jpn": "熱風！疾風！サイバスター",
      "qro": "Neppû! Shippu! Cybuster"
    },
    "titles_default_language": "qro",
    "titles_aliases": [
      "Neppuu!"
    ],
    "year": 2005
  }
}