{
  "header": {
    "version": 4,
    "description": "Karaoke Mugen Karaoke Data File"
  },
  "medias": [
    {
      "version": "Default",
      "filename": "JPN - Beatless - MV - Error ~ Full Vers.mp4",
      "audiogain": -8.96,
      "loudnorm": "-8.34,1.59,8.40,-18.59,-1.39",
      "filesize": 162053516,
      "duration": 300,
      "default": true,
      "lyrics": [
        {
          "filename": "JPN - Beatless - MV - Error ~ Full Vers.ass",
          "default": true,
          "version": "Default"
        }
      ]
    }
  ],
  "data": {
    "created_at": "2020-08-15T22:43:53.091Z",
    "kid": "71d71f62-7bbc-4c0c-afb9-9ea5cbd3fb05",
    "modified_at": "2022-06-04T00:22:06.703Z",
    "parents": [
      "81f6989a-75cd-43a8-8d6b-f7b1a97c51d7"
    ],
    "repository": "kara.moe",
    "songorder": null,
    "tags": {
      "authors": [
        "4d71ce82-eed1-4c44-ac85-5f7255f3dad3"
      ],
      "creators": [
        "771735da-6b67-403d-8d5c-2761a0665168"
      ],
      "families": [
        "5391f9fe-638c-415f-8dc9-958e3a2c5787"
      ],
      "groups": [
        "ae613721-1fbe-480d-ba6b-d6d0702b184d"
      ],
      "langs": [
        "4dcf9614-7914-42aa-99f4-dbce2e059133"
      ],
      "misc": [
        "86705d4b-24e4-4756-9687-2b9c98bcf366"
      ],
      "series": [
        "f62c05a7-ecbd-4eac-a4d4-52824aa4802f"
      ],
      "singers": [
        "40777238-a776-4235-9f5e-eec754c96827"
      ],
      "songtypes": [
        "7be1b15c-cff8-4b37-a649-5c90f3d569a9"
      ],
      "songwriters": [
        "30450ae7-a46f-41aa-a791-5d2c2697ee20",
        "796c4009-51ee-49a9-8947-d6cb242a9aad"
      ],
      "versions": [
        "c2143a7f-6970-450e-8a79-0302db9220a9"
      ],
      "collections": [
        "dbcf2c22-524d-4708-99bb-601703633927"
      ]
    },
    "titles": {
      "eng": "Error"
    },
    "titles_default_language": "eng",
    "title": "Error",
    "year": 2018
  }
}