{
  "header": {
    "version": 4,
    "description": "Karaoke Mugen Karaoke Data File"
  },
  "medias": [
    {
      "version": "Default",
      "filename": "JPN - Sousei no Aquarion - OP1 - Sousei no Aquarion.mp4",
      "audiogain": -1.49,
      "loudnorm": "-16.62,-3.55,6.60,-26.81,-1.27",
      "filesize": 35143047,
      "duration": 91,
      "default": true,
      "lyrics": [
        {
          "filename": "JPN - Sousei no Aquarion - OP1 - Sousei no Aquarion.ass",
          "default": true,
          "version": "Default",
          "subchecksum": "c0fc5977b840b9ff2c97bdbe2da072ee"
        }
      ]
    }
  ],
  "data": {
    "created_at": "2017-10-11T17:02:16.000Z",
    "kid": "e127d96d-0294-43d6-afe2-cae6774f6706",
    "modified_at": "2021-02-25T13:10:38.459Z",
    "repository": "kara.moe",
    "songorder": 1,
    "tags": {
      "authors": [
        "5bdaba57-27f8-4568-8806-76a807728766"
      ],
      "collections": [
        "c7db86a0-ff64-4044-9be4-66dd1ef1d1c1"
      ],
      "creators": [
        "0041fabf-4b82-4ecd-961b-e4c49b8c88be"
      ],
      "families": [
        "0377db02-3af6-43b8-9b08-c759df3d25c3"
      ],
      "genres": [
        "f60ba57d-5ef4-49e0-b93b-d0dcbcff6592"
      ],
      "groups": [
        "3c14c864-533c-49e6-a3cc-6969f1233775"
      ],
      "langs": [
        "4dcf9614-7914-42aa-99f4-dbce2e059133"
      ],
      "origins": [
        "938de218-5343-4865-94d3-fb33f2eaa152"
      ],
      "series": [
        "6a3e4f89-46b7-4934-8e8a-f2a36ebac2e7"
      ],
      "singers": [
        "d64446ba-b6de-465e-8a1d-2dea222eebc9"
      ],
      "songtypes": [
        "f02ad9b3-0bd9-4aad-85b3-9976739ba0e4"
      ],
      "songwriters": [
        "97fbc0b6-6408-4273-bdb4-0c900e0ac945",
        "af0be06d-ea2d-4f46-85d1-58cf9f42532a"
      ],
      "franchises": [
        "c257e40c-7877-474d-8d75-db1491197c92"
      ]
    },
    "title": "Sousei no Aquarion",
    "titles": {
      "qro": "Sousei no Aquarion",
      "jpn": "創聖のアクエリオン"
    },
    "year": 2005,
    "titles_default_language": "qro"
  }
}