{
  "header": {
    "version": 4,
    "description": "Karaoke Mugen Karaoke Data File"
  },
  "medias": [
    {
      "version": "Default",
      "filename": "JPN - World Dai Star - AUDIO - Yumemi Zukiyo ~ Full Vers.mp3",
      "audiogain": -8.18,
      "loudnorm": "-8.95,1.34,4.80,-19.07,-0.74",
      "filesize": 8937080,
      "duration": 217,
      "default": true,
      "lyrics": [
        {
          "filename": "JPN - World Dai Star - AUDIO - Yumemi Zukiyo ~ Full Vers.ass",
          "default": true,
          "version": "Default"
        }
      ]
    }
  ],
  "data": {
    "created_at": "2023-08-23T23:05:03.213Z",
    "ignoreHooks": false,
    "kid": "bfe48091-1b24-4802-a6a1-7b297bc2c957",
    "modified_at": "2023-08-23T23:13:28.976Z",
    "repository": "kara.moe",
    "tags": {
      "authors": [
        "16b136eb-921f-4c07-be38-ff92d5cc4313"
      ],
      "collections": [
        "dbcf2c22-524d-4708-99bb-601703633927"
      ],
      "genres": [
        "caa86df2-0d59-474b-885c-f240a9e891b0"
      ],
      "groups": [
        "8e209ae4-4381-438f-89dc-1b21752027d2"
      ],
      "langs": [
        "4dcf9614-7914-42aa-99f4-dbce2e059133"
      ],
      "series": [
        "2c110cf5-c605-4d05-9893-6a6d06dbe311"
      ],
      "singers": [
        "a3ed390e-96a8-445f-9da0-71b2a19d647d"
      ],
      "singergroups": [
        "49a0298a-7d1a-4915-ae5a-2b52d4b7ed78"
      ],
      "songtypes": [
        "42a262ae-acba-4ab5-a446-c5789c96c821"
      ],
      "songwriters": [
        "0e67e296-c3e5-4b55-99cc-57e550bcdf0d",
        "b55ad77b-2a78-4823-911f-4bc587b588ef"
      ],
      "versions": [
        "c2143a7f-6970-450e-8a79-0302db9220a9"
      ],
      "franchises": [
        "04483789-101b-4d59-94e2-09be1fb8b9d3"
      ]
    },
    "titles": {
      "jpn": "夢見月夜",
      "qro": "Yumemi Zukiyo"
    },
    "titles_default_language": "qro",
    "year": 2023
  }
}