{
  "header": {
    "version": 4,
    "description": "Karaoke Mugen Karaoke Data File"
  },
  "medias": [
    {
      "version": "Default",
      "filename": "JPN - Soukyuu no Fafner Dead Aggressor - OP2 - Shangri-La.mp4",
      "audiogain": 0.67,
      "loudnorm": "-18.49,-7.09,4.80,-28.76,-1.26",
      "filesize": 23773437,
      "duration": 90,
      "default": true,
      "lyrics": [
        {
          "filename": "JPN - Soukyuu no Fafner Dead Aggressor - OP2 - Shangri-La.ass",
          "default": true,
          "version": "Default",
          "subchecksum": "c7e8ac5a6a618a40c668bd9f633c94aa"
        }
      ]
    }
  ],
  "data": {
    "created_at": "2017-10-11T17:02:24.000Z",
    "kid": "a87bdad5-ca38-4a8a-9c4e-1e5a82899df9",
    "modified_at": "2021-02-25T13:10:13.283Z",
    "parents": [
      "50058d1e-4cd7-4759-8dc1-5693895bc4cd"
    ],
    "repository": "kara.moe",
    "songorder": 2,
    "tags": {
      "authors": [
        "5bdaba57-27f8-4568-8806-76a807728766"
      ],
      "collections": [
        "c7db86a0-ff64-4044-9be4-66dd1ef1d1c1"
      ],
      "creators": [
        "0e26434a-c89a-4366-85b5-9e5c4b7d4195"
      ],
      "families": [
        "0377db02-3af6-43b8-9b08-c759df3d25c3"
      ],
      "genres": [
        "f60ba57d-5ef4-49e0-b93b-d0dcbcff6592"
      ],
      "groups": [
        "3c14c864-533c-49e6-a3cc-6969f1233775"
      ],
      "langs": [
        "4dcf9614-7914-42aa-99f4-dbce2e059133"
      ],
      "origins": [
        "938de218-5343-4865-94d3-fb33f2eaa152"
      ],
      "series": [
        "9f12b43c-04d5-4f45-a0b0-a35453f51b0c"
      ],
      "singers": [
        "78d91182-ac66-49fb-9561-1d330667d6c4"
      ],
      "songtypes": [
        "f02ad9b3-0bd9-4aad-85b3-9976739ba0e4"
      ],
      "songwriters": [
        "0b54e69d-4691-4415-be0e-0dd6fd5d4e1a",
        "84a20b00-fd06-43fd-b78e-9c1a2b7b7795"
      ],
      "franchises": [
        "9f12b43c-04d5-4f45-a0b0-a35453f51b0c"
      ]
    },
    "title": "Shangri-La",
    "titles": {
      "eng": "Shangri-La"
    },
    "year": 2004,
    "titles_default_language": "eng"
  }
}