{
  "header": {
    "version": 4,
    "description": "Karaoke Mugen Karaoke Data File"
  },
  "medias": [
    {
      "version": "Default",
      "filename": "JPN - Tenshi no Nichou Kenjuu Angelos Armas - GAME OP3 - I Bless Thy Life.mp4",
      "audiogain": -9.79,
      "loudnorm": "-7.60,1.19,4.90,-17.82,-1.38",
      "filesize": 13069239,
      "duration": 94,
      "default": true,
      "lyrics": [
        {
          "filename": "JPN - Tenshi no Nichou Kenjuu Angelos Armas - GAME OP3 - I Bless Thy Life.ass",
          "default": true,
          "version": "Default"
        }
      ]
    }
  ],
  "data": {
    "created_at": "2017-10-11T17:01:22.000Z",
    "ignoreHooks": false,
    "kid": "133e1dfd-d536-498b-8a07-4b1b7b9c9138",
    "modified_at": "2022-07-24T21:38:31.353Z",
    "repository": "kara.moe",
    "songorder": 3,
    "tags": {
      "authors": [
        "5bdaba57-27f8-4568-8806-76a807728766"
      ],
      "collections": [
        "c7db86a0-ff64-4044-9be4-66dd1ef1d1c1"
      ],
      "creators": [
        "d8c36618-4baf-4969-a667-188a901a1f00"
      ],
      "groups": [
        "3c14c864-533c-49e6-a3cc-6969f1233775"
      ],
      "langs": [
        "4dcf9614-7914-42aa-99f4-dbce2e059133"
      ],
      "series": [
        "c87a7f7b-20cf-4d7d-98fb-722910f4eec6"
      ],
      "singers": [
        "3b97f60d-23e3-4e23-bf7f-9835bba682a7"
      ],
      "songtypes": [
        "f02ad9b3-0bd9-4aad-85b3-9976739ba0e4"
      ],
      "songwriters": [
        "8b3b3e30-0d28-43e0-90e0-ad0eef33509c",
        "eae43792-43ca-44cd-871b-5d46e5531c45"
      ],
      "origins": [
        "dbedd6b3-d125-4cd8-aa32-c4175e4ca3a3"
      ]
    },
    "titles": {
      "eng": "I Bless Thy Life"
    },
    "titles_default_language": "eng",
    "title": "I Bless Thy Life",
    "year": 2004
  }
}