{
  "header": {
    "version": 4,
    "description": "Karaoke Mugen Karaoke Data File"
  },
  "medias": [
    {
      "version": "Default",
      "filename": "JPN - BanG Dream! - GAME LIVE - A DECLARATION OF xxx ~ Full Vers.mp4",
      "audiogain": -11.85,
      "loudnorm": "-5.52,1.86,4.00,-15.54,-0.55",
      "filesize": 162804497,
      "duration": 322,
      "default": true,
      "lyrics": [
        {
          "filename": "JPN - BanG Dream! - GAME LIVE - A DECLARATION OF xxx ~ Full Vers.ass",
          "default": true,
          "version": "Default"
        }
      ]
    }
  ],
  "data": {
    "created_at": "2019-10-19T22:02:33.000Z",
    "ignoreHooks": false,
    "kid": "fb1f70a4-db82-419f-a45e-24528d11c14c",
    "modified_at": "2022-12-21T22:36:38.428Z",
    "repository": "kara.moe",
    "tags": {
      "authors": [
        "79e0aa7d-da9a-4e9a-aa2b-64056a83b49b"
      ],
      "collections": [
        "dbcf2c22-524d-4708-99bb-601703633927"
      ],
      "creators": [
        "bd4564a8-44e5-454a-9c57-bd2a3c8a537e"
      ],
      "families": [
        "5391f9fe-638c-415f-8dc9-958e3a2c5787"
      ],
      "groups": [
        "ae613721-1fbe-480d-ba6b-d6d0702b184d"
      ],
      "langs": [
        "4dcf9614-7914-42aa-99f4-dbce2e059133"
      ],
      "misc": [
        "86705d4b-24e4-4756-9687-2b9c98bcf366"
      ],
      "platforms": [
        "213a1a15-e73a-4a08-b3f6-b6e2745a82e5"
      ],
      "series": [
        "a65e956d-39ab-4995-9ede-889c30a5cbf0"
      ],
      "singers": [
        "ac98d1ea-1b4a-4dc8-a6b2-b18b2b2de6cd"
      ],
      "songtypes": [
        "a0167949-580c-4de3-bf13-497e462e02f3"
      ],
      "songwriters": [
        "60c782e0-d553-46c4-a470-bf13b3c88689",
        "af3ffe51-8059-461c-bbb8-78ea388731f3"
      ],
      "versions": [
        "c2143a7f-6970-450e-8a79-0302db9220a9"
      ],
      "franchises": [
        "a65e956d-39ab-4995-9ede-889c30a5cbf0"
      ],
      "origins": [
        "dbedd6b3-d125-4cd8-aa32-c4175e4ca3a3"
      ]
    },
    "titles": {
      "eng": "A DECLARATION OF ×××"
    },
    "titles_default_language": "eng",
    "year": 2019
  }
}