{
  "header": {
    "version": 4,
    "description": "Karaoke Mugen Karaoke Data File"
  },
  "medias": [
    {
      "version": "Default",
      "filename": "JPN - Akatsuki no Yona - OP2 - Akatsuki no Hana.mp4",
      "audiogain": 0.29,
      "loudnorm": "-17.73,-6.23,3.70,-27.76,-0.47",
      "filesize": 25025278,
      "duration": 91,
      "default": true,
      "lyrics": [
        {
          "filename": "JPN - Akatsuki no Yona - OP2 - Akatsuki no Hana.ass",
          "default": true,
          "version": "Default",
          "subchecksum": "18c5add9c2c4025c45129de11ce2b05e"
        }
      ]
    }
  ],
  "data": {
    "created_at": "2017-10-11T17:01:36.000Z",
    "kid": "e70e73ac-5048-45e0-8bca-34aeb6c0613b",
    "modified_at": "2021-02-25T10:40:29.626Z",
    "repository": "kara.moe",
    "songorder": 2,
    "tags": {
      "authors": [
        "6bebcb04-2694-453c-9e0c-eb1a2e2718d9"
      ],
      "collections": [
        "c7db86a0-ff64-4044-9be4-66dd1ef1d1c1"
      ],
      "creators": [
        "aaff4ba6-9a12-4bac-9bd0-c0cb783e4177"
      ],
      "families": [
        "0377db02-3af6-43b8-9b08-c759df3d25c3"
      ],
      "groups": [
        "ae613721-1fbe-480d-ba6b-d6d0702b184d"
      ],
      "langs": [
        "4dcf9614-7914-42aa-99f4-dbce2e059133"
      ],
      "origins": [
        "938de218-5343-4865-94d3-fb33f2eaa152"
      ],
      "series": [
        "8b162378-ad80-4c3c-864f-1996534ac8ec"
      ],
      "singers": [
        "6f4501f6-59c6-4bcc-add5-ab0648f14f0a"
      ],
      "songtypes": [
        "f02ad9b3-0bd9-4aad-85b3-9976739ba0e4"
      ],
      "songwriters": [
        "6dd2fcf1-6f9d-4732-9c3a-d28ab8eb6d9c",
        "da12415d-ad92-42a8-ba7a-d104756bf2a9"
      ]
    },
    "title": "Akatsuki no Hana",
    "titles": {
      "qro": "Akatsuki no Hana",
      "jpn": "暁の華"
    },
    "year": 2014,
    "titles_default_language": "qro"
  }
}