{
  "header": {
    "version": 4,
    "description": "Karaoke Mugen Karaoke Data File"
  },
  "medias": [
    {
      "version": "Default",
      "filename": "JPN - Shinigami Bocchan to Kuro Maid - ED - Nocturne.mp4",
      "audiogain": -2.79,
      "loudnorm": "-16.10,-5.15,10.20,-26.36,-2.31",
      "filesize": 29228521,
      "duration": 90,
      "default": true,
      "lyrics": [
        {
          "filename": "JPN - Shinigami Bocchan to Kuro Maid - ED - Nocturne.ass",
          "default": true,
          "version": "Default"
        }
      ]
    }
  ],
  "data": {
    "created_at": "2021-09-04T18:22:36.088Z",
    "kid": "d52666f7-e4f6-44ac-8b44-b5db2481280e",
    "modified_at": "2021-09-04T19:10:00.942Z",
    "repository": "kara.moe",
    "tags": {
      "authors": [
        "e568de19-c003-4d37-8978-98f29ea61cb3"
      ],
      "collections": [
        "c7db86a0-ff64-4044-9be4-66dd1ef1d1c1"
      ],
      "creators": [
        "802a8ac8-b16f-40a4-944b-99956798c906"
      ],
      "families": [
        "0377db02-3af6-43b8-9b08-c759df3d25c3"
      ],
      "groups": [
        "8e209ae4-4381-438f-89dc-1b21752027d2"
      ],
      "langs": [
        "4dcf9614-7914-42aa-99f4-dbce2e059133"
      ],
      "origins": [
        "938de218-5343-4865-94d3-fb33f2eaa152"
      ],
      "series": [
        "10e804f8-cec2-458c-a77b-bc8080216324"
      ],
      "singers": [
        "6c8360e3-36c6-4cfa-8f43-12ede11574f5"
      ],
      "songtypes": [
        "38c77c56-2b95-4040-b676-0994a8cb0597"
      ],
      "songwriters": [
        "301194c1-52d7-4535-b321-7fc095816d14",
        "ad9de3e0-673e-459b-ac88-178ae5e04341"
      ]
    },
    "titles": {
      "eng": "Nocturne",
      "jpn": "夜想曲"
    },
    "title": "Nocturne ",
    "year": 2021,
    "titles_default_language": "eng"
  }
}