{
  "header": {
    "version": 4,
    "description": "Karaoke Mugen Karaoke Data File"
  },
  "medias": [
    {
      "version": "Default",
      "filename": "JPN - Kanata Amane, Towa Tokoyami - MV - Usseewa ~ Cover Vers.mp4",
      "audiogain": -8.39,
      "loudnorm": "-9.27,1.22,3.70,-19.37,-0.37",
      "filesize": 42938241,
      "duration": 204,
      "default": true,
      "lyrics": [
        {
          "filename": "JPN - Kanata Amane, Towa Tokoyami - MV - Usseewa ~ Cover Vers.ass",
          "default": true,
          "version": "Default"
        }
      ]
    }
  ],
  "data": {
    "created_at": "2021-12-22T13:50:13.766Z",
    "kid": "4c0faec9-fc3a-4268-b306-fc9e8e18c21a",
    "modified_at": "2021-12-22T13:52:47.151Z",
    "parents": [
      "22caaf65-868b-427a-89fd-79fd6f9fc6b2"
    ],
    "repository": "kara.moe",
    "tags": {
      "authors": [
        "9cdf3b70-3550-457c-bdb9-038f3253c6ad"
      ],
      "collections": [
        "c7db86a0-ff64-4044-9be4-66dd1ef1d1c1"
      ],
      "creators": [
        "0263d413-17bb-4cee-a311-6dd896eda1c9"
      ],
      "families": [
        "0377db02-3af6-43b8-9b08-c759df3d25c3"
      ],
      "groups": [
        "8e209ae4-4381-438f-89dc-1b21752027d2"
      ],
      "langs": [
        "4dcf9614-7914-42aa-99f4-dbce2e059133"
      ],
      "misc": [
        "1d6ceadf-a885-47e5-b23b-c07bf668a424"
      ],
      "origins": [
        "5106d71b-a78e-4d19-a16d-f8fb6719538a"
      ],
      "singers": [
        "8e89d60a-e9da-4981-a21e-276471cdf960",
        "aadbb281-47ef-4be9-bd1d-52af89e6ae00"
      ],
      "songtypes": [
        "7be1b15c-cff8-4b37-a649-5c90f3d569a9"
      ],
      "songwriters": [
        "13c686dd-4df8-4056-a46a-39ba871cba8b"
      ],
      "versions": [
        "03e1e1d2-8641-47b7-bbcb-39a3df9ff21c"
      ]
    },
    "titles": {
      "qro": "Usseewa",
      "jpn": "うっせぇわ"
    },
    "title": "Usseewa",
    "year": 2021,
    "titles_default_language": "qro"
  }
}