{
  "header": {
    "version": 4,
    "description": "Karaoke Mugen Karaoke Data File"
  },
  "medias": [
    {
      "version": "Default",
      "filename": "JPN - Meitantei Conan - ED36 - Tomorrow is the Last Time.mp4",
      "audiogain": -9.16,
      "loudnorm": "-8.74,2.22,5.40,-18.83,-1.01",
      "filesize": 9597522,
      "duration": 81,
      "default": true,
      "lyrics": [
        {
          "filename": "JPN - Meitantei Conan - ED36 - Tomorrow is the Last Time.ass",
          "default": true,
          "version": "Default",
          "subchecksum": "10259f2af6a251847d3cab545920ece8"
        }
      ]
    }
  ],
  "data": {
    "created_at": "2020-08-17T23:46:25.268Z",
    "kid": "8dd42e44-db7a-4e22-81e2-f8ea9c953fd0",
    "modified_at": "2021-02-25T12:23:26.401Z",
    "repository": "kara.moe",
    "songorder": 36,
    "tags": {
      "authors": [
        "8605a8b9-3b45-44b9-9d98-1a25096bf702"
      ],
      "collections": [
        "c7db86a0-ff64-4044-9be4-66dd1ef1d1c1"
      ],
      "creators": [
        "53e900ec-a1ff-4c95-8b2d-a63995c2936f"
      ],
      "families": [
        "0377db02-3af6-43b8-9b08-c759df3d25c3"
      ],
      "genres": [
        "a0aeef4a-6428-45ff-a6e1-468b595930c2"
      ],
      "groups": [
        "ae613721-1fbe-480d-ba6b-d6d0702b184d"
      ],
      "langs": [
        "4dcf9614-7914-42aa-99f4-dbce2e059133"
      ],
      "misc": [
        "fe819ff1-9db8-4a0f-85dc-0e322c9126c4"
      ],
      "origins": [
        "938de218-5343-4865-94d3-fb33f2eaa152"
      ],
      "series": [
        "cfea16f2-e07f-4a2c-93e2-5de6cf659d69"
      ],
      "singers": [
        "76436798-5200-4469-9be5-79db5b532d04"
      ],
      "songtypes": [
        "38c77c56-2b95-4040-b676-0994a8cb0597"
      ],
      "songwriters": [
        "76436798-5200-4469-9be5-79db5b532d04",
        "bc0997f3-7027-4767-a501-6a915d5b9c2a"
      ],
      "franchises": [
        "cfea16f2-e07f-4a2c-93e2-5de6cf659d69"
      ]
    },
    "title": "Tomorrow is the Last Time",
    "titles": {
      "eng": "Tomorrow is the last Time"
    },
    "year": 2010,
    "titles_default_language": "eng"
  }
}