{
  "header": {
    "version": 4,
    "description": "Karaoke Mugen Karaoke Data File"
  },
  "medias": [
    {
      "version": "Default",
      "filename": "JPN - Macross 7 - ED1 - My Friends.mp4",
      "audiogain": -0.5,
      "loudnorm": "-16.06,-5.52,1.50,-26.19,-0.07",
      "filesize": 12462448,
      "duration": 85,
      "default": true,
      "lyrics": [
        {
          "filename": "JPN - Macross 7 - ED1 - My Friends.ass",
          "default": true,
          "version": "Default",
          "subchecksum": "9545f671570f3bcb865cd8ed0f6d91e1"
        }
      ]
    }
  ],
  "data": {
    "created_at": "2020-08-19T17:32:42.541Z",
    "kid": "1c93adb9-6b88-4641-b84b-a3052f50dbd6",
    "modified_at": "2021-02-25T12:16:17.213Z",
    "repository": "kara.moe",
    "songorder": 1,
    "tags": {
      "authors": [
        "8605a8b9-3b45-44b9-9d98-1a25096bf702"
      ],
      "collections": [
        "c7db86a0-ff64-4044-9be4-66dd1ef1d1c1"
      ],
      "creators": [
        "fa1cbae7-2b13-45ec-8233-15807fd5f1a3"
      ],
      "families": [
        "0377db02-3af6-43b8-9b08-c759df3d25c3"
      ],
      "genres": [
        "f60ba57d-5ef4-49e0-b93b-d0dcbcff6592"
      ],
      "groups": [
        "24db50aa-a126-4d34-a48a-e45db79c4245"
      ],
      "langs": [
        "4dcf9614-7914-42aa-99f4-dbce2e059133"
      ],
      "misc": [
        "fe819ff1-9db8-4a0f-85dc-0e322c9126c4"
      ],
      "origins": [
        "938de218-5343-4865-94d3-fb33f2eaa152"
      ],
      "series": [
        "6ffeba39-3d62-45f8-97d5-e25f81c61af1"
      ],
      "singers": [
        "00051843-4129-427f-883d-c1eb8e9fe98b",
        "6335750b-cbf3-4c6b-9f84-00dc692ae9e5",
        "7927b9e9-feea-4c4d-8142-57ad8ddc0dbd"
      ],
      "songtypes": [
        "38c77c56-2b95-4040-b676-0994a8cb0597"
      ],
      "songwriters": [
        "00051843-4129-427f-883d-c1eb8e9fe98b",
        "4c3474c9-3de5-4da4-be78-0b7685acfa18"
      ],
      "franchises": [
        "01b9b958-2d2a-43d0-a5dd-efb5b14675ea"
      ]
    },
    "title": "My Friends",
    "titles": {
      "eng": "My Friends"
    },
    "year": 1994,
    "titles_default_language": "eng"
  }
}