{
  "header": {
    "version": 4,
    "description": "Karaoke Mugen Karaoke Data File"
  },
  "medias": [
    {
      "version": "Default",
      "filename": "JPN - the pillows - MV - Pied Piper.mp4",
      "audiogain": -4.3,
      "loudnorm": "-12.32,-2.31,15.70,-23.47,-1.15",
      "filesize": 19263041,
      "duration": 205,
      "default": true,
      "lyrics": [
        {
          "filename": "JPN - the pillows - MV - Pied Piper.ass",
          "default": true,
          "version": "Default"
        }
      ]
    }
  ],
  "data": {
    "created_at": "2019-09-27T18:34:18.000Z",
    "kid": "c4f729a3-0a9a-4027-a082-2e32d8b24793",
    "modified_at": "2022-06-04T00:23:07.228Z",
    "repository": "kara.moe",
    "songorder": null,
    "tags": {
      "authors": [
        "4b834f78-16da-4e4d-926f-b93968affb69"
      ],
      "creators": [
        "90caf15e-bc86-46e1-8793-9af7906c8310"
      ],
      "families": [
        "5391f9fe-638c-415f-8dc9-958e3a2c5787"
      ],
      "groups": [
        "2b4e9972-5e17-481b-99f5-d0787c0ada56",
        "3c14c864-533c-49e6-a3cc-6969f1233775"
      ],
      "langs": [
        "4dcf9614-7914-42aa-99f4-dbce2e059133"
      ],
      "singers": [
        "278eeffa-7d51-48a4-85a7-b10843f26cdf"
      ],
      "songtypes": [
        "7be1b15c-cff8-4b37-a649-5c90f3d569a9"
      ],
      "collections": [
        "dbcf2c22-524d-4708-99bb-601703633927"
      ]
    },
    "titles": {
      "eng": "PIED PIPER"
    },
    "titles_default_language": "eng",
    "title": "Pied Piper",
    "year": 2008
  }
}