{
  "header": {
    "version": 4,
    "description": "Karaoke Mugen Karaoke Data File"
  },
  "medias": [
    {
      "version": "Super Robot Spirits Tour 99.",
      "filename": "JPN - Super Robot Taisen - REMIX LIVE - Toki wo Koete ~ Super Robot Spirits Tour 99 Vers. ~ Full Vers.mp4",
      "audiogain": -0.72,
      "loudnorm": "-16.67,-4.45,3.10,-26.75,0.15",
      "filesize": 24028883,
      "duration": 265,
      "default": true,
      "lyrics": [
        {
          "filename": "JPN - Super Robot Taisen - REMIX LIVE - Toki wo Koete ~ Super Robot Spirits Tour 99 Vers. ~ Full Vers.ass",
          "default": true,
          "version": "Default"
        }
      ]
    }
  ],
  "data": {
    "comment": "Fixed format issues",
    "created_at": "2017-10-11T17:01:44.000Z",
    "ignoreHooks": false,
    "kid": "5ba8ef3a-af87-41c0-a84a-4a245d69268f",
    "modified_at": "2022-12-22T16:08:53.039Z",
    "repository": "kara.moe",
    "tags": {
      "authors": [
        "5bdaba57-27f8-4568-8806-76a807728766"
      ],
      "collections": [
        "dbcf2c22-524d-4708-99bb-601703633927"
      ],
      "creators": [
        "97e62433-0f2f-4e1b-ba1e-109eec95dc11"
      ],
      "families": [
        "5391f9fe-638c-415f-8dc9-958e3a2c5787"
      ],
      "groups": [
        "24db50aa-a126-4d34-a48a-e45db79c4245"
      ],
      "langs": [
        "4dcf9614-7914-42aa-99f4-dbce2e059133"
      ],
      "misc": [
        "ec4360fa-3e3c-4f6f-b0e1-fb8b12b6dd18"
      ],
      "series": [
        "4e88aee3-4cb9-4342-bac8-6c0819b3a014"
      ],
      "singers": [
        "162799fe-de2f-4f72-99a2-8c606aee4f2d",
        "59a38148-e0a8-43df-b149-a6118d9f2d4d",
        "f7a1aa6a-4cc9-433f-a6a0-924653b6fd7f"
      ],
      "songtypes": [
        "a0167949-580c-4de3-bf13-497e462e02f3"
      ],
      "songwriters": [
        "00969688-bcec-4e71-9346-c2d3e4fc048c",
        "8e1f109c-a1d4-40d6-9a55-32abdb12993c"
      ],
      "versions": [
        "c2143a7f-6970-450e-8a79-0302db9220a9"
      ],
      "franchises": [
        "4e88aee3-4cb9-4342-bac8-6c0819b3a014"
      ]
    },
    "titles": {
      "jpn": "時を越えて ~ Super Robot Spirits Tour 99 Vers.",
      "qro": "Toki wo Koete ~ Super Robot Spirits Tour 99 Vers."
    },
    "titles_default_language": "qro",
    "year": 1999
  }
}