{
  "header": {
    "version": 4,
    "description": "Karaoke Mugen Karaoke Data File"
  },
  "medias": [
    {
      "version": "Default",
      "filename": "JPN - Tsukipro The Animation 2 - OP1 - LOVE 'Em ALL.mp4",
      "audiogain": -0.84,
      "loudnorm": "-15.90,-7.83,3.50,-26.01,-0.98",
      "filesize": 52825555,
      "duration": 88,
      "default": true,
      "lyrics": [
        {
          "filename": "JPN - Tsukipro The Animation 2 - OP1 - LOVE 'Em ALL.ass",
          "default": true,
          "version": "Default"
        }
      ]
    }
  ],
  "data": {
    "created_at": "2022-11-03T12:39:44.899Z",
    "ignoreHooks": false,
    "kid": "83e3281e-90cd-4fb0-a8da-5ba06f7756a4",
    "modified_at": "2022-11-03T12:39:45.089Z",
    "repository": "kara.moe",
    "songorder": 1,
    "tags": {
      "authors": [
        "ee8628c8-9b7f-415b-bc0d-9b712d5daf8c"
      ],
      "collections": [
        "c7db86a0-ff64-4044-9be4-66dd1ef1d1c1"
      ],
      "creators": [
        "422a4f90-c9f2-49c3-b1d1-ee7de65ba052"
      ],
      "families": [
        "0377db02-3af6-43b8-9b08-c759df3d25c3"
      ],
      "genres": [
        "caa86df2-0d59-474b-885c-f240a9e891b0"
      ],
      "langs": [
        "4dcf9614-7914-42aa-99f4-dbce2e059133"
      ],
      "origins": [
        "938de218-5343-4865-94d3-fb33f2eaa152"
      ],
      "series": [
        "052fd93d-feb8-4d26-b908-40d9722f521f"
      ],
      "singers": [
        "f2917fb2-23ae-4fbd-bedc-bc9b77f11603",
        "9bdf3363-b8b1-4ae3-82d9-41a7a1527eee",
        "d72701c8-4aa0-4619-a4ea-aea77d37422c",
        "7b2309a3-647f-4e4e-9c18-354e4f479a54"
      ],
      "singergroups": [
        "a0a9d765-1724-4767-8a7c-a0df9d386849"
      ],
      "songtypes": [
        "f02ad9b3-0bd9-4aad-85b3-9976739ba0e4"
      ],
      "songwriters": [
        "a00c9f59-2318-4ec2-b8c1-235dd0635ccb"
      ],
      "franchises": [
        "ac8c6bdb-a96f-4893-b434-78d9fbdf673e"
      ],
      "groups": [
        "8e209ae4-4381-438f-89dc-1b21752027d2"
      ]
    },
    "titles": {
      "eng": "LOVE 'Em ALL"
    },
    "titles_default_language": "eng",
    "title": "LOVE 'Em ALL",
    "year": 2021
  }
}