{
  "header": {
    "version": 4,
    "description": "Karaoke Mugen Karaoke Data File"
  },
  "medias": [
    {
      "version": "Default",
      "filename": "JPN - Love Live! Superstar!! - LIVE - Till Sunrise.mp4",
      "loudnorm": "-10.80,0.93,6.00,-21.09,-0.94",
      "filesize": 138553772,
      "duration": 242,
      "default": true,
      "lyrics": [
        {
          "filename": "JPN - Love Live! Superstar!! - LIVE - Till Sunrise.ass",
          "default": true,
          "version": "Default"
        }
      ]
    }
  ],
  "data": {
    "comment": "En mettant les chanteuses j'ai créé le tag \"chihaya\" sans faire exprès ><",
    "created_at": "2023-09-23T22:56:58.184Z",
    "ignoreHooks": false,
    "kid": "20d1aea1-77f1-4085-8140-6373c200d461",
    "modified_at": "2023-09-23T22:56:58.184Z",
    "repository": "kara.moe",
    "tags": {
      "authors": [
        "16b136eb-921f-4c07-be38-ff92d5cc4313"
      ],
      "collections": [
        "dbcf2c22-524d-4708-99bb-601703633927"
      ],
      "creators": [
        "b2805292-730e-473a-96f0-fd8e7ffd1fd7"
      ],
      "families": [
        "5391f9fe-638c-415f-8dc9-958e3a2c5787"
      ],
      "genres": [
        "caa86df2-0d59-474b-885c-f240a9e891b0"
      ],
      "groups": [
        "8e209ae4-4381-438f-89dc-1b21752027d2"
      ],
      "langs": [
        "4dcf9614-7914-42aa-99f4-dbce2e059133"
      ],
      "misc": [
        "1d6ceadf-a885-47e5-b23b-c07bf668a424"
      ],
      "series": [
        "ed46191b-997b-4c2d-8088-bb30a5e6d4ca"
      ],
      "singers": [
        "0a4a1409-bf37-41c3-a198-811bc1f893ac",
        "5f93ec35-7372-4bb5-bfb0-288a14153234"
      ],
      "singergroups": [
        "5902a610-6955-4068-8095-6a905d40398f"
      ],
      "songtypes": [
        "a0167949-580c-4de3-bf13-497e462e02f3"
      ],
      "songwriters": [
        "04d38ef9-f104-434e-8299-46109c7fd7b8",
        "bb18c88e-67ce-41c4-ada4-537a3338f392",
        "8feb8259-1bfc-4261-bb5b-dab93217998a"
      ],
      "franchises": [
        "fd5d066e-e85a-4eea-8688-2979a887450a"
      ]
    },
    "titles": {
      "eng": "Till Sunrise"
    },
    "titles_default_language": "eng",
    "year": 2022
  }
}