{
  "header": {
    "version": 4,
    "description": "Karaoke Mugen Karaoke Data File"
  },
  "medias": [
    {
      "version": "Default",
      "filename": "JPN - Tsukipro The Animation 2 - OP4 - Jiyuu no Tabiji.mp4",
      "audiogain": -0.79,
      "loudnorm": "-16.13,-7.75,2.60,-26.24,-0.53",
      "filesize": 80504595,
      "duration": 88,
      "default": true,
      "lyrics": [
        {
          "filename": "JPN - Tsukipro The Animation 2 - OP4 - Jiyuu no Tabiji.ass",
          "default": true,
          "version": "Default"
        }
      ]
    }
  ],
  "data": {
    "created_at": "2022-11-26T18:09:01.353Z",
    "ignoreHooks": false,
    "kid": "e7fe4598-8c4e-4e26-af6f-74e80dbb4a1b",
    "modified_at": "2022-11-26T18:12:42.747Z",
    "repository": "kara.moe",
    "songorder": 4,
    "tags": {
      "authors": [
        "9dd563c5-fbf3-49c6-82ab-b6c9aa513675"
      ],
      "collections": [
        "c7db86a0-ff64-4044-9be4-66dd1ef1d1c1"
      ],
      "creators": [
        "422a4f90-c9f2-49c3-b1d1-ee7de65ba052"
      ],
      "families": [
        "0377db02-3af6-43b8-9b08-c759df3d25c3"
      ],
      "genres": [
        "caa86df2-0d59-474b-885c-f240a9e891b0"
      ],
      "groups": [
        "8e209ae4-4381-438f-89dc-1b21752027d2"
      ],
      "langs": [
        "4dcf9614-7914-42aa-99f4-dbce2e059133"
      ],
      "origins": [
        "938de218-5343-4865-94d3-fb33f2eaa152"
      ],
      "series": [
        "052fd93d-feb8-4d26-b908-40d9722f521f"
      ],
      "singers": [
        "48dc9597-7cd1-482f-8dc0-3e7c72f4b7c3",
        "65441047-58cf-4275-9a2e-c1a67ebadd1f",
        "681103a3-15ae-45d5-a0b8-3cc27be2be46",
        "d50c08cf-99dd-4674-9e3c-76964d502097"
      ],
      "singergroups": [
        "c354bde5-0346-47c3-96fa-e2c66239a5c8"
      ],
      "songtypes": [
        "f02ad9b3-0bd9-4aad-85b3-9976739ba0e4"
      ],
      "songwriters": [
        "a00c9f59-2318-4ec2-b8c1-235dd0635ccb"
      ],
      "franchises": [
        "ac8c6bdb-a96f-4893-b434-78d9fbdf673e"
      ]
    },
    "titles": {
      "jpn": "自由の旅路",
      "qro": "Jiyû no Tabiji"
    },
    "titles_default_language": "qro",
    "titles_aliases": [
      "Jiyuu"
    ],
    "year": 2021
  }
}