{
  "header": {
    "version": 4,
    "description": "Karaoke Mugen Karaoke Data File"
  },
  "medias": [
    {
      "version": "Animelo 2009.",
      "filename": "JPN - Bakuretsu Hunter - LIVE - WHAT'S UP GUYS question_mark ~ Animelo 2009 Vers. ~ Full Vers.mp4",
      "audiogain": -10.1,
      "loudnorm": "-7.56,0.83,3.90,-17.67,-0.34",
      "filesize": 234985959,
      "duration": 250,
      "default": true,
      "lyrics": [
        {
          "filename": "JPN - Bakuretsu Hunter - LIVE - WHAT'S UP GUYS question_mark ~ Animelo 2009 Vers. ~ Full Vers.ass",
          "default": true,
          "version": "Default"
        }
      ]
    }
  ],
  "data": {
    "created_at": "2017-10-11T17:03:08.000Z",
    "ignoreHooks": false,
    "kid": "e4bf4bf8-3652-4262-8514-103677270386",
    "modified_at": "2022-12-21T22:36:36.851Z",
    "repository": "kara.moe",
    "tags": {
      "authors": [
        "5bdaba57-27f8-4568-8806-76a807728766"
      ],
      "collections": [
        "dbcf2c22-524d-4708-99bb-601703633927"
      ],
      "creators": [
        "b2805292-730e-473a-96f0-fd8e7ffd1fd7"
      ],
      "families": [
        "5391f9fe-638c-415f-8dc9-958e3a2c5787"
      ],
      "groups": [
        "3c14c864-533c-49e6-a3cc-6969f1233775"
      ],
      "langs": [
        "4dcf9614-7914-42aa-99f4-dbce2e059133"
      ],
      "series": [
        "df7f9b85-a179-42be-b0f3-ac58ce1c2345"
      ],
      "singers": [
        "b26b49e2-d439-48b3-8c0f-c7c25648c48a",
        "da2034ae-6d61-4f43-9700-4030f097ef13"
      ],
      "songtypes": [
        "a0167949-580c-4de3-bf13-497e462e02f3"
      ],
      "songwriters": [
        "213ca674-9084-40ad-a7a8-c84d8108fce9",
        "34436ae1-470a-43b7-bfbb-146dc2fb6894",
        "73d16a66-c0e1-4c1a-b008-2ce15c21d63a",
        "d21e85c1-31be-4ad6-bf2c-43802ebb89d8"
      ],
      "versions": [
        "c2143a7f-6970-450e-8a79-0302db9220a9"
      ],
      "franchises": [
        "df7f9b85-a179-42be-b0f3-ac58ce1c2345"
      ]
    },
    "titles": {
      "eng": "WHAT'S UP GUYS? ~ Animelo 2009 Vers."
    },
    "titles_default_language": "eng",
    "year": 2009
  }
}