{
  "header": {
    "version": 4,
    "description": "Karaoke Mugen Karaoke Data File"
  },
  "medias": [
    {
      "version": "Default",
      "filename": "JPN - Mushoku Tensei II Isekai Ittara Honki Dasu - AUDIO OP - spiral ~ Full Vers.mp3",
      "audiogain": -10.25,
      "loudnorm": "-6.47,1.06,5.20,-16.64,-0.93",
      "filesize": 9524249,
      "duration": 231,
      "default": true,
      "lyrics": [
        {
          "filename": "JPN - Mushoku Tensei II Isekai Ittara Honki Dasu - AUDIO OP - spiral ~ Full Vers.ass",
          "default": true,
          "version": "Default"
        }
      ]
    }
  ],
  "data": {
    "comment": "duoification (à l’oreille)",
    "created_at": "2023-07-17T01:58:29.599Z",
    "ignoreHooks": false,
    "kid": "0c25136e-2dca-44e4-88cd-c188d1218ca5",
    "modified_at": "2023-08-25T12:20:15.823Z",
    "parents": [
      "e5d194c2-c5f0-427c-8ae2-058a58c2ec25"
    ],
    "repository": "kara.moe",
    "tags": {
      "authors": [
        "7848b5dc-a5df-4577-b640-147be5288cec"
      ],
      "collections": [
        "dbcf2c22-524d-4708-99bb-601703633927"
      ],
      "creators": [
        "43124e1f-bc9d-4218-b41e-bfb33aa11dde"
      ],
      "genres": [
        "4b80eca6-f44f-4262-a8d0-b6879d6b70cb"
      ],
      "groups": [
        "8e209ae4-4381-438f-89dc-1b21752027d2"
      ],
      "langs": [
        "4dcf9614-7914-42aa-99f4-dbce2e059133"
      ],
      "misc": [
        "1d6ceadf-a885-47e5-b23b-c07bf668a424"
      ],
      "origins": [
        "938de218-5343-4865-94d3-fb33f2eaa152"
      ],
      "series": [
        "2b57ccb0-349d-460b-b7b7-37993b746edd"
      ],
      "singers": [
        "10432859-6bb5-4a24-88ef-01e40ace527c",
        "10b32ffb-ab09-46dc-a09a-9c3271579f0b"
      ],
      "singergroups": [
        "63c021fe-db1d-44f9-8314-4dd90fd670fe"
      ],
      "songtypes": [
        "42a262ae-acba-4ab5-a446-c5789c96c821",
        "f02ad9b3-0bd9-4aad-85b3-9976739ba0e4"
      ],
      "songwriters": [
        "10b32ffb-ab09-46dc-a09a-9c3271579f0b",
        "b3ada1f2-ca72-49c8-8a31-06df2a512285"
      ],
      "versions": [
        "c2143a7f-6970-450e-8a79-0302db9220a9"
      ],
      "franchises": [
        "3a1a9f52-bfde-41d9-91d1-aee95b720417"
      ]
    },
    "titles": {
      "eng": "spiral"
    },
    "titles_default_language": "eng",
    "year": 2023
  }
}