{
  "header": {
    "version": 4,
    "description": "Karaoke Mugen Karaoke Data File"
  },
  "medias": [
    {
      "version": "Default",
      "filename": "JPN - Touhou - REMIX AUDIO - Yoru Naku Usagi wa Yume wo Miru.mp3",
      "audiogain": -4.82,
      "loudnorm": "-12.61,-3.85,4.60,-22.72,-0.41",
      "filesize": 3956515,
      "duration": 226,
      "default": true,
      "lyrics": [
        {
          "filename": "JPN - Touhou - REMIX AUDIO - Yoru Naku Usagi wa Yume wo Miru.ass",
          "default": true,
          "version": "Default"
        }
      ]
    }
  ],
  "data": {
    "created_at": "2020-07-19T14:18:43.348Z",
    "ignoreHooks": false,
    "kid": "a75252cb-f1e4-48b6-9678-4746cb76eff1",
    "modified_at": "2022-10-08T17:44:09.504Z",
    "repository": "kara.moe",
    "tags": {
      "authors": [
        "87096920-112f-485f-a310-04156cb4624d"
      ],
      "collections": [
        "c7db86a0-ff64-4044-9be4-66dd1ef1d1c1"
      ],
      "groups": [
        "60defa7b-774e-4680-8321-51b742c2e009",
        "ae613721-1fbe-480d-ba6b-d6d0702b184d"
      ],
      "langs": [
        "4dcf9614-7914-42aa-99f4-dbce2e059133"
      ],
      "misc": [
        "ec4360fa-3e3c-4f6f-b0e1-fb8b12b6dd18"
      ],
      "series": [
        "1bdaa5a1-dfa6-4365-b746-7a0b194dafd6"
      ],
      "singers": [
        "e07d9038-6367-4639-8d71-00ea5d5db950"
      ],
      "songtypes": [
        "42a262ae-acba-4ab5-a446-c5789c96c821"
      ],
      "songwriters": [
        "26cb5252-8510-49e0-897c-a611a05fc056",
        "e07d9038-6367-4639-8d71-00ea5d5db950"
      ],
      "franchises": [
        "1bdaa5a1-dfa6-4365-b746-7a0b194dafd6"
      ]
    },
    "titles": {
      "jpn": "夜啼く兎は夢を見る",
      "qro": "Yoru Naku Usagi wa Yume wo Miru"
    },
    "titles_default_language": "qro",
    "titles_aliases": [
      "Yume o"
    ],
    "title": "Yoru Naku Usagi wa Yume wo Miru",
    "year": 2012
  }
}