{
  "header": {
    "version": 4,
    "description": "Karaoke Mugen Karaoke Data File"
  },
  "medias": [
    {
      "version": "Default",
      "filename": "JPN - Buddy Complex - OP - UNISONIA.mp4",
      "audiogain": 2.99,
      "loudnorm": "-21.15,-12.31,7.60,-31.40,-1.20",
      "filesize": 33773283,
      "duration": 93,
      "default": true,
      "lyrics": [
        {
          "filename": "JPN - Buddy Complex - OP - UNISONIA.ass",
          "default": true,
          "version": "Default",
          "subchecksum": "2a52165aacc00dfe6d11ff77a0d25ceb"
        }
      ]
    }
  ],
  "data": {
    "created_at": "2017-10-11T17:01:37.000Z",
    "kid": "95537b87-3a75-4e2d-8ead-cf3237cf52ac",
    "modified_at": "2021-02-25T10:58:15.963Z",
    "repository": "kara.moe",
    "tags": {
      "authors": [
        "5bdaba57-27f8-4568-8806-76a807728766"
      ],
      "collections": [
        "c7db86a0-ff64-4044-9be4-66dd1ef1d1c1"
      ],
      "creators": [
        "ef8f80e1-d244-4aea-b7f0-984d6dd4b82b"
      ],
      "families": [
        "0377db02-3af6-43b8-9b08-c759df3d25c3"
      ],
      "genres": [
        "f60ba57d-5ef4-49e0-b93b-d0dcbcff6592"
      ],
      "groups": [
        "ae613721-1fbe-480d-ba6b-d6d0702b184d"
      ],
      "langs": [
        "4dcf9614-7914-42aa-99f4-dbce2e059133"
      ],
      "origins": [
        "938de218-5343-4865-94d3-fb33f2eaa152"
      ],
      "series": [
        "12acc57e-f344-4e28-a4bc-81a96f81489e"
      ],
      "singers": [
        "61c5e3d4-6a0e-46b6-b622-06f5bc6d3294"
      ],
      "songtypes": [
        "f02ad9b3-0bd9-4aad-85b3-9976739ba0e4"
      ],
      "songwriters": [
        "05923d23-a60e-4510-8868-01f24e031984",
        "7e72484d-b638-4d9a-95f2-5947c59d721b"
      ]
    },
    "title": "UNISONIA",
    "titles": {
      "eng": "UNISONIA"
    },
    "year": 2014,
    "titles_default_language": "eng"
  }
}