{
  "header": {
    "version": 4,
    "description": "Karaoke Mugen Karaoke Data File"
  },
  "medias": [
    {
      "version": "Default",
      "filename": "JPN - Miku Hatsune - AUDIO - Ai Kotoba III.mp3",
      "audiogain": -3.42,
      "loudnorm": "-13.37,-0.83,3.10,-23.40,-0.38",
      "filesize": 5743883,
      "duration": 245,
      "default": true,
      "lyrics": [
        {
          "filename": "JPN - Miku Hatsune - AUDIO - Ai Kotoba III.ass",
          "default": true,
          "version": "Default"
        }
      ]
    }
  ],
  "data": {
    "created_at": "2022-01-13T20:05:29.117Z",
    "ignoreHooks": false,
    "kid": "03b65d7c-db8e-4fe2-abaa-b823676bcafc",
    "modified_at": "2022-05-28T17:59:53.624Z",
    "repository": "kara.moe",
    "tags": {
      "authors": [
        "04258b89-6c20-417b-8eb3-55d9afbd1bbe"
      ],
      "collections": [
        "c7db86a0-ff64-4044-9be4-66dd1ef1d1c1"
      ],
      "creators": [
        "97e62433-0f2f-4e1b-ba1e-109eec95dc11"
      ],
      "genres": [
        "45623cae-6d68-4304-a49b-896d1d6f4580"
      ],
      "groups": [
        "ae613721-1fbe-480d-ba6b-d6d0702b184d"
      ],
      "langs": [
        "4dcf9614-7914-42aa-99f4-dbce2e059133"
      ],
      "singers": [
        "4407ba0e-5de7-4add-870f-7ac95a4804c9"
      ],
      "songtypes": [
        "42a262ae-acba-4ab5-a446-c5789c96c821"
      ],
      "songwriters": [
        "6d9eaa90-048f-41d5-a264-8d73df69cc22"
      ]
    },
    "titles": {
      "jpn": "愛言葉Ⅲ",
      "qro": "Ai Kotoba III"
    },
    "titles_default_language": "qro",
    "titles_aliases": [
      "Love Words",
      "Ai Kotoba 3"
    ],
    "title": "Ai Kotoba III",
    "year": 2018
  }
}