{
  "header": {
    "version": 4,
    "description": "Karaoke Mugen Karaoke Data File"
  },
  "medias": [
    {
      "version": "Default",
      "filename": "JPN - Touhou - MV - Majotachi no Butoukai.mp4",
      "audiogain": -3.07,
      "loudnorm": "-14.47,-5.03,7.20,-24.87,-1.47",
      "filesize": 131313486,
      "duration": 262,
      "default": true,
      "lyrics": [
        {
          "filename": "JPN - Touhou - MV - Majotachi no Butoukai.ass",
          "default": true,
          "version": "Default"
        }
      ]
    }
  ],
  "data": {
    "created_at": "2017-10-11T17:03:14.000Z",
    "ignoreHooks": false,
    "kid": "a38a1492-34d6-4cea-b11d-1388253c7235",
    "modified_at": "2022-12-22T16:08:55.275Z",
    "repository": "kara.moe",
    "tags": {
      "authors": [
        "c2205bc1-b31a-4bbd-8953-7070204b5cbf"
      ],
      "collections": [
        "c7db86a0-ff64-4044-9be4-66dd1ef1d1c1"
      ],
      "creators": [
        "6aab0247-df45-4eb2-9ab3-27375c8b4dab"
      ],
      "families": [
        "5391f9fe-638c-415f-8dc9-958e3a2c5787"
      ],
      "groups": [
        "8c22c899-b3ed-42da-a548-ce00f950798b",
        "ae613721-1fbe-480d-ba6b-d6d0702b184d"
      ],
      "langs": [
        "4dcf9614-7914-42aa-99f4-dbce2e059133"
      ],
      "misc": [
        "1d6ceadf-a885-47e5-b23b-c07bf668a424"
      ],
      "series": [
        "1bdaa5a1-dfa6-4365-b746-7a0b194dafd6"
      ],
      "singers": [
        "59878478-9ea3-41ce-8adb-43a28c20fefe",
        "83894b1c-954e-4f8f-8b06-185dc0bf9755",
        "cc637ce7-e619-4771-807c-3997dfaf5928"
      ],
      "songtypes": [
        "7be1b15c-cff8-4b37-a649-5c90f3d569a9"
      ],
      "songwriters": [
        "16c45a5e-11cd-424d-b8c3-3c33ac11a3bd",
        "26cb5252-8510-49e0-897c-a611a05fc056",
        "4125edd8-185c-4dd7-8905-21d52974a7d4"
      ],
      "franchises": [
        "1bdaa5a1-dfa6-4365-b746-7a0b194dafd6"
      ]
    },
    "titles": {
      "jpn": "魔女達の舞踏会",
      "qro": "Majotachi no Butoukai"
    },
    "titles_default_language": "qro",
    "year": 2016
  }
}