{
  "header": {
    "version": 4,
    "description": "Karaoke Mugen Karaoke Data File"
  },
  "medias": [
    {
      "version": "Default",
      "filename": "JPN - Eromanga-sensei - OP - Hitorigoto.mp4",
      "audiogain": 3.53,
      "loudnorm": "-21.07,-10.16,2.40,-31.19,-0.39",
      "filesize": 46515531,
      "duration": 91,
      "default": true,
      "lyrics": [
        {
          "filename": "JPN - Eromanga-sensei - OP - Hitorigoto.ass",
          "default": true,
          "version": "Default",
          "subchecksum": "63fc0ae6c621bebfc8d3a21660f8a68b"
        }
      ]
    }
  ],
  "data": {
    "created_at": "2017-10-11T17:01:50.000Z",
    "kid": "ab73e6c2-329d-4929-9e85-17290b2cd717",
    "modified_at": "2021-02-25T11:15:47.557Z",
    "repository": "kara.moe",
    "tags": {
      "authors": [
        "6bebcb04-2694-453c-9e0c-eb1a2e2718d9"
      ],
      "collections": [
        "c7db86a0-ff64-4044-9be4-66dd1ef1d1c1"
      ],
      "creators": [
        "b96e3686-bbe0-4b9e-815a-a278d5ff31be"
      ],
      "families": [
        "0377db02-3af6-43b8-9b08-c759df3d25c3"
      ],
      "groups": [
        "9a8e0fbc-dcae-4989-be82-7cad3436f1f5",
        "ae613721-1fbe-480d-ba6b-d6d0702b184d"
      ],
      "langs": [
        "4dcf9614-7914-42aa-99f4-dbce2e059133"
      ],
      "origins": [
        "938de218-5343-4865-94d3-fb33f2eaa152"
      ],
      "series": [
        "e03ca020-eb74-4499-9eaa-2690eaaac0a7"
      ],
      "singers": [
        "ff590105-5f65-4b1f-adf9-2cfb5b789428"
      ],
      "songtypes": [
        "f02ad9b3-0bd9-4aad-85b3-9976739ba0e4"
      ],
      "songwriters": [
        "d058acc8-817c-440e-b561-4d6d416cd5ab",
        "d09c5ca2-9000-4b1c-b064-ebe95b2c0679"
      ]
    },
    "title": "Hitorigoto",
    "titles": {
      "qro": "Hitorigoto",
      "jpn": "ヒトリゴト"
    },
    "year": 2017,
    "titles_default_language": "qro"
  }
}