{
  "header": {
    "version": 4,
    "description": "Karaoke Mugen Karaoke Data File"
  },
  "medias": [
    {
      "version": "Default",
      "filename": "JPN - Seitokai Yakuindomo - ED - Aoi Haru.mp4",
      "audiogain": 2.28,
      "loudnorm": "-20.05,-7.93,4.50,-30.13,-0.65",
      "filesize": 12353724,
      "duration": 89,
      "default": true,
      "lyrics": [
        {
          "filename": "JPN - Seitokai Yakuindomo - ED - Aoi Haru.ass",
          "default": true,
          "version": "Default",
          "subchecksum": "1afebfc16e274c6274c9921b157a0a92"
        }
      ]
    }
  ],
  "data": {
    "created_at": "2017-10-11T17:03:15.000Z",
    "kid": "42650d76-0a1e-48eb-8509-4125aca664e5",
    "modified_at": "2021-02-25T12:59:12.784Z",
    "repository": "kara.moe",
    "tags": {
      "authors": [
        "6bebcb04-2694-453c-9e0c-eb1a2e2718d9"
      ],
      "collections": [
        "c7db86a0-ff64-4044-9be4-66dd1ef1d1c1"
      ],
      "creators": [
        "c77da89b-5c99-43fa-a70d-bd25925074f6"
      ],
      "families": [
        "0377db02-3af6-43b8-9b08-c759df3d25c3"
      ],
      "groups": [
        "9a8e0fbc-dcae-4989-be82-7cad3436f1f5",
        "ae613721-1fbe-480d-ba6b-d6d0702b184d"
      ],
      "langs": [
        "4dcf9614-7914-42aa-99f4-dbce2e059133"
      ],
      "origins": [
        "938de218-5343-4865-94d3-fb33f2eaa152"
      ],
      "series": [
        "baafe8c7-47a9-4454-81ff-98e5bff14cab"
      ],
      "singers": [
        "78d91182-ac66-49fb-9561-1d330667d6c4"
      ],
      "songtypes": [
        "38c77c56-2b95-4040-b676-0994a8cb0597"
      ],
      "songwriters": [
        "0b54e69d-4691-4415-be0e-0dd6fd5d4e1a",
        "84a20b00-fd06-43fd-b78e-9c1a2b7b7795"
      ],
      "franchises": [
        "baafe8c7-47a9-4454-81ff-98e5bff14cab"
      ]
    },
    "title": "Aoi Haru",
    "titles": {
      "qro": "Aoi Haru",
      "jpn": "蒼い春"
    },
    "year": 2010,
    "titles_default_language": "qro"
  }
}