{
  "header": {
    "version": 4,
    "description": "Karaoke Mugen Karaoke Data File"
  },
  "medias": [
    {
      "version": "Default",
      "filename": "JPN - .hack SIGN - ED - Yasashii Yoake.mp4",
      "audiogain": -0.32,
      "loudnorm": "-16.52,-2.50,1.70,-26.75,-0.47",
      "filesize": 16481301,
      "duration": 91,
      "default": true,
      "lyrics": [
        {
          "filename": "JPN - .hack SIGN - ED - Yasashii Yoake.ass",
          "default": true,
          "version": "Default"
        }
      ]
    }
  ],
  "data": {
    "created_at": "2017-10-11T17:02:13.000Z",
    "ignoreHooks": false,
    "kid": "02d57390-8a07-4dc1-bbd3-283f2959c951",
    "modified_at": "2022-03-24T00:08:44.684Z",
    "repository": "kara.moe",
    "tags": {
      "authors": [
        "fa399f2f-ea1d-4902-8796-ea6d8218aff0"
      ],
      "collections": [
        "c7db86a0-ff64-4044-9be4-66dd1ef1d1c1"
      ],
      "creators": [
        "53c428f6-4ad6-464f-8529-40e7b9941c7f"
      ],
      "families": [
        "0377db02-3af6-43b8-9b08-c759df3d25c3"
      ],
      "genres": [
        "4b80eca6-f44f-4262-a8d0-b6879d6b70cb"
      ],
      "groups": [
        "3c14c864-533c-49e6-a3cc-6969f1233775"
      ],
      "langs": [
        "4dcf9614-7914-42aa-99f4-dbce2e059133"
      ],
      "misc": [
        "fe819ff1-9db8-4a0f-85dc-0e322c9126c4"
      ],
      "origins": [
        "938de218-5343-4865-94d3-fb33f2eaa152"
      ],
      "series": [
        "a96ed64b-ba5b-4f19-b159-efd12e9d26df"
      ],
      "singers": [
        "50b2bf9a-d450-4581-ac86-008363e7d459"
      ],
      "songtypes": [
        "38c77c56-2b95-4040-b676-0994a8cb0597"
      ],
      "songwriters": [
        "1f324dc7-f858-415b-bbc1-41fcce3d6ac7"
      ],
      "franchises": [
        "62bc5729-026d-408d-b6f5-534df49f73da"
      ]
    },
    "titles": {
      "qro": "Yasashii Yoake",
      "jpn": "優しい夜明け"
    },
    "titles_default_language": "qro",
    "title": "Yasashii Yoake",
    "year": 2002
  }
}