{
  "header": {
    "version": 4,
    "description": "Karaoke Mugen Karaoke Data File"
  },
  "medias": [
    {
      "version": "Default",
      "filename": "JPN - YUI - MV - Good-bye days.mp4",
      "audiogain": -4.3,
      "loudnorm": "-14.34,0.52,14.60,-25.07,-1.43",
      "filesize": 25330200,
      "duration": 271,
      "default": true,
      "lyrics": [
        {
          "filename": "JPN - YUI - MV - Good-bye days.ass",
          "default": true,
          "version": "Default"
        }
      ]
    }
  ],
  "data": {
    "created_at": "2019-09-21T22:39:15.000Z",
    "kid": "04cce1c3-d7c8-4333-8a4c-36cc46f17ff2",
    "modified_at": "2022-06-04T00:14:30.353Z",
    "repository": "kara.moe",
    "songorder": null,
    "tags": {
      "authors": [
        "d71efe89-9068-41b9-9564-a843f4aff01c"
      ],
      "creators": [
        "9f10c180-4ed1-4a4e-9e39-c37e09b91d5f"
      ],
      "families": [
        "5391f9fe-638c-415f-8dc9-958e3a2c5787"
      ],
      "groups": [
        "2b4e9972-5e17-481b-99f5-d0787c0ada56",
        "3c14c864-533c-49e6-a3cc-6969f1233775"
      ],
      "langs": [
        "4dcf9614-7914-42aa-99f4-dbce2e059133"
      ],
      "singers": [
        "c7157cf5-e8bc-4e99-8028-33edbb268298"
      ],
      "songtypes": [
        "7be1b15c-cff8-4b37-a649-5c90f3d569a9"
      ],
      "songwriters": [
        "c7157cf5-e8bc-4e99-8028-33edbb268298"
      ],
      "collections": [
        "dbcf2c22-524d-4708-99bb-601703633927"
      ]
    },
    "titles": {
      "eng": "Good-bye days"
    },
    "titles_default_language": "eng",
    "title": "Good-bye days",
    "year": 2006
  }
}