{
  "header": {
    "version": 4,
    "description": "Karaoke Mugen Karaoke Data File"
  },
  "medias": [
    {
      "version": "Default",
      "filename": "JPN - Free! Dive to the Future - ED1 - GOLD EVOLUTION.mp4",
      "audiogain": 3.5,
      "loudnorm": "-20.68,-10.04,4.00,-30.77,-0.06",
      "filesize": 39383695,
      "duration": 87,
      "default": true,
      "lyrics": [
        {
          "filename": "JPN - Free! Dive to the Future - ED1 - GOLD EVOLUTION.ass",
          "default": true,
          "version": "Default"
        }
      ]
    }
  ],
  "data": {
    "created_at": "2018-08-01T20:21:18.000Z",
    "ignoreHooks": false,
    "kid": "e2973253-cf24-4bdd-a179-0282f4815ff1",
    "modified_at": "2022-12-08T16:58:11.544Z",
    "repository": "kara.moe",
    "songorder": 1,
    "tags": {
      "authors": [
        "79e0aa7d-da9a-4e9a-aa2b-64056a83b49b"
      ],
      "collections": [
        "c7db86a0-ff64-4044-9be4-66dd1ef1d1c1"
      ],
      "creators": [
        "d93786af-5098-49b2-9928-37edfb3d0322"
      ],
      "families": [
        "0377db02-3af6-43b8-9b08-c759df3d25c3"
      ],
      "groups": [
        "ae613721-1fbe-480d-ba6b-d6d0702b184d"
      ],
      "langs": [
        "4dcf9614-7914-42aa-99f4-dbce2e059133"
      ],
      "origins": [
        "938de218-5343-4865-94d3-fb33f2eaa152"
      ],
      "series": [
        "d2a6d247-8239-4e6f-ad37-aad73cefe0af"
      ],
      "singers": [
        "7ef605c3-a982-4b3e-ae9f-33d59bf35e85",
        "7ada34b4-5a43-4af5-9339-1770f321a83f",
        "46033e7b-be1e-4b16-8395-50744d81d195",
        "84ea5b30-9fa7-44da-8255-eceb84caa6de",
        "660feb50-cd74-434a-be0c-6245ddd7f14b"
      ],
      "singergroups": [
        "071b5436-f6d3-40e3-919b-2638fc5022d3"
      ],
      "songtypes": [
        "38c77c56-2b95-4040-b676-0994a8cb0597"
      ],
      "songwriters": [
        "0035326e-4eba-463d-899d-a154b6a2a744",
        "00cd2c1f-8012-4366-adcd-0340a340c29a",
        "36ed7846-c93a-4e89-b677-34c3a8371964"
      ],
      "franchises": [
        "217ac64b-479e-46c7-9f72-0f5ca443d2af"
      ]
    },
    "titles": {
      "eng": "GOLD EVOLUTION"
    },
    "titles_default_language": "eng",
    "year": 2018
  }
}