{
  "header": {
    "version": 4,
    "description": "Karaoke Mugen Karaoke Data File"
  },
  "medias": [
    {
      "version": "Default",
      "filename": "JPN - Love Live! Superstar!! - LIVE - Tiny Stars ~ Acoustic Vers.mp4",
      "loudnorm": "-13.02,-0.22,9.30,-23.56,-1.03",
      "filesize": 63866859,
      "duration": 149,
      "default": true,
      "lyrics": [
        {
          "filename": "JPN - Love Live! Superstar!! - LIVE - Tiny Stars ~ Acoustic Vers.ass",
          "default": true,
          "version": "Default"
        }
      ]
    }
  ],
  "data": {
    "created_at": "2023-09-10T20:56:11.269Z",
    "ignoreHooks": false,
    "kid": "437bb9b1-f90f-4777-8eca-3c71bfeb5a1a",
    "modified_at": "2023-09-10T21:23:42.643Z",
    "parents": [
      "4f8abebc-21dc-4a07-a8e6-8f2a1d53249b"
    ],
    "repository": "kara.moe",
    "tags": {
      "authors": [
        "d641461a-403a-4a6b-83a0-207352713591"
      ],
      "collections": [
        "dbcf2c22-524d-4708-99bb-601703633927"
      ],
      "creators": [
        "b2805292-730e-473a-96f0-fd8e7ffd1fd7"
      ],
      "families": [
        "5391f9fe-638c-415f-8dc9-958e3a2c5787"
      ],
      "genres": [
        "caa86df2-0d59-474b-885c-f240a9e891b0"
      ],
      "groups": [
        "8e209ae4-4381-438f-89dc-1b21752027d2"
      ],
      "langs": [
        "4dcf9614-7914-42aa-99f4-dbce2e059133"
      ],
      "series": [
        "ed46191b-997b-4c2d-8088-bb30a5e6d4ca"
      ],
      "singers": [
        "8a484e8b-1945-416f-b778-97a887ff24eb",
        "c1fd3a67-0c3b-4d95-9cd8-f6aa2c8cc5a8"
      ],
      "singergroups": [
        "f3e5b1d3-30b1-4548-95c8-6cf77216bdbd"
      ],
      "songtypes": [
        "a0167949-580c-4de3-bf13-497e462e02f3"
      ],
      "songwriters": [
        "0b44d345-2524-4d13-8e72-fe9518a888e6",
        "727d218e-e828-444c-87b8-3bf4283115d6",
        "f77f4be8-1af3-4bab-9411-759dbd5bb583"
      ],
      "versions": [
        "dd5e063e-8a40-478e-a4c5-d477ce8f13f7"
      ],
      "franchises": [
        "fd5d066e-e85a-4eea-8688-2979a887450a"
      ]
    },
    "titles": {
      "qro": "Tiny Stars"
    },
    "titles_default_language": "qro",
    "year": 2021
  }
}