{
  "header": {
    "version": 4,
    "description": "Karaoke Mugen Karaoke Data File"
  },
  "medias": [
    {
      "version": "Default",
      "filename": "JPN - Love Live! Nijigasaki Gakuen School Idol Doukoukai 2 - OP - Colorful Dreams! Colorful Smiles!.mp4",
      "audiogain": -0.57,
      "loudnorm": "-16.17,-7.98,3.20,-26.25,-0.26",
      "filesize": 36014585,
      "duration": 90,
      "default": true,
      "lyrics": [
        {
          "filename": "JPN - Love Live! Nijigasaki Gakuen School Idol Doukoukai 2 - OP - Colorful Dreams! Colorful Smiles!.ass",
          "default": true,
          "version": "Default"
        }
      ]
    }
  ],
  "data": {
    "comment": "J'ai rajouté les couleurs pour chaque fille.",
    "created_at": "2022-04-13T22:29:34.957Z",
    "ignoreHooks": false,
    "kid": "31b61f18-0065-4dd1-8936-a923baa0a558",
    "modified_at": "2023-03-22T01:13:44.133Z",
    "repository": "kara.moe",
    "tags": {
      "authors": [
        "449844e4-3a1f-46e1-8a92-bf72e2d1b6f1"
      ],
      "collections": [
        "c7db86a0-ff64-4044-9be4-66dd1ef1d1c1"
      ],
      "creators": [
        "b2805292-730e-473a-96f0-fd8e7ffd1fd7"
      ],
      "families": [
        "0377db02-3af6-43b8-9b08-c759df3d25c3"
      ],
      "genres": [
        "caa86df2-0d59-474b-885c-f240a9e891b0"
      ],
      "groups": [
        "8e209ae4-4381-438f-89dc-1b21752027d2"
      ],
      "langs": [
        "4dcf9614-7914-42aa-99f4-dbce2e059133"
      ],
      "origins": [
        "938de218-5343-4865-94d3-fb33f2eaa152"
      ],
      "series": [
        "e3d58b47-ef1a-48ec-91ec-84afa663ab26"
      ],
      "singers": [
        "0c15c047-8230-45ba-a265-1297a3617158",
        "0df41f72-5e97-4788-99b7-93fe4b628367",
        "178c3a64-efbc-48d4-a7d3-1847414eebc1",
        "1fd01df9-13c6-4442-a8c9-4d7922152b32",
        "5c5a517e-2aec-467f-b21c-3b8e73e02cb8",
        "747cd011-3914-4212-9079-0da3dd845831",
        "8f4dc795-4e05-4e8f-a5fc-61e45e229402",
        "8fb3d553-3283-4508-bc26-5968c03cb89a",
        "a76efdf9-3d65-488d-bc3b-9ab329d3fb7f",
        "cd997481-e2ff-4d88-ab77-152bedb5041a",
        "e73e8731-3f33-4d6a-b8f1-d2a6137480be",
        "458ec0c5-db5e-4103-af88-b15a1699264d"
      ],
      "singergroups": [
        "425f6083-f574-451a-b719-1257f1d38957"
      ],
      "songtypes": [
        "f02ad9b3-0bd9-4aad-85b3-9976739ba0e4"
      ],
      "songwriters": [
        "bd429645-83bd-4272-8657-b07a39fdb67a",
        "e68b5701-9dab-4c34-9d72-a360f67710ea",
        "ff73b3ab-c654-45f7-8ebe-0a23b898cb94"
      ],
      "franchises": [
        "fd5d066e-e85a-4eea-8688-2979a887450a"
      ]
    },
    "titles": {
      "eng": "Colorful Dreams! Colorful Smiles!"
    },
    "titles_default_language": "eng",
    "year": 2022
  }
}