{
  "header": {
    "version": 4,
    "description": "Karaoke Mugen Karaoke Data File"
  },
  "medias": [
    {
      "version": "Default",
      "filename": "JPN - Senki Zesshou Symphogear GX - AUDIO IN - Genkai Toppa G-beat ~ Full Off Vocal Vers.mp3",
      "audiogain": -5.43,
      "loudnorm": "-10.73,0.81,6.80,-21.09,-0.65",
      "filesize": 4514669,
      "duration": 261,
      "default": true,
      "lyrics": [
        {
          "filename": "JPN - Senki Zesshou Symphogear GX - AUDIO IN - Genkai Toppa G-beat ~ Full Off Vocal Vers.ass",
          "default": true,
          "version": "Default"
        }
      ]
    }
  ],
  "data": {
    "created_at": "2022-12-14T22:32:14.033Z",
    "ignoreHooks": false,
    "kid": "610fe086-41fc-4f50-b39a-80c7abb819cb",
    "modified_at": "2022-12-15T00:26:04.674Z",
    "parents": [
      "578bf35f-822f-44f1-8e82-357d1c1131b7"
    ],
    "repository": "kara.moe",
    "tags": {
      "authors": [
        "5cb3d0c5-479e-4224-b6ec-b27209e933a0"
      ],
      "collections": [
        "c7db86a0-ff64-4044-9be4-66dd1ef1d1c1"
      ],
      "creators": [
        "0041fabf-4b82-4ecd-961b-e4c49b8c88be",
        "d2a29c19-019f-4a3d-86ad-2dae9e41a4b1"
      ],
      "genres": [
        "b84e28f9-db1e-447f-b339-7954c3592523",
        "caa86df2-0d59-474b-885c-f240a9e891b0"
      ],
      "groups": [
        "60defa7b-774e-4680-8321-51b742c2e009",
        "ae613721-1fbe-480d-ba6b-d6d0702b184d"
      ],
      "langs": [
        "4dcf9614-7914-42aa-99f4-dbce2e059133"
      ],
      "origins": [
        "938de218-5343-4865-94d3-fb33f2eaa152"
      ],
      "series": [
        "86627e91-4551-4e88-899b-2cb017e853e0"
      ],
      "singers": [
        "0abac712-6493-4c55-856b-e88f2687e34b"
      ],
      "songtypes": [
        "42a262ae-acba-4ab5-a446-c5789c96c821",
        "5e5250d9-351a-4a82-98eb-55db50ad8962"
      ],
      "songwriters": [
        "30e4f047-50d7-4ed7-8ed3-57cef0f20489",
        "af3ffe51-8059-461c-bbb8-78ea388731f3"
      ],
      "versions": [
        "c0cc87b9-55b9-40f0-878a-fbb9e34c151e",
        "c2143a7f-6970-450e-8a79-0302db9220a9"
      ],
      "franchises": [
        "61b24082-a6a9-482b-b126-0ad7be595791"
      ]
    },
    "titles": {
      "jpn": "限界突破G-beat",
      "qro": "Genkai Toppa G-beat"
    },
    "titles_default_language": "qro",
    "year": 2015
  }
}