{
  "header": {
    "version": 4,
    "description": "Karaoke Mugen Karaoke Data File"
  },
  "medias": [
    {
      "version": "Default",
      "filename": "JPN - Touhou - MV - Floating Darkness.mp4",
      "audiogain": -9.43,
      "loudnorm": "-8.18,0.68,5.50,-18.39,-1.63",
      "filesize": 36140639,
      "duration": 220,
      "default": true,
      "lyrics": [
        {
          "filename": "JPN - Touhou - MV - Floating Darkness.ass",
          "default": true,
          "version": "Default"
        }
      ]
    }
  ],
  "data": {
    "created_at": "2023-07-09T00:56:41.778Z",
    "ignoreHooks": false,
    "kid": "aa55b249-cd12-4ed5-a05c-c7b209c65070",
    "modified_at": "2023-07-09T00:56:41.955Z",
    "repository": "kara.moe",
    "tags": {
      "authors": [
        "1fbfef73-6731-40df-ba51-65a54b9d1605"
      ],
      "collections": [
        "c7db86a0-ff64-4044-9be4-66dd1ef1d1c1"
      ],
      "creators": [
        "4bbe5d66-32e9-42ff-a7c1-c86eeb71c706",
        "1be79cb2-b176-4001-b65a-219e740362eb"
      ],
      "groups": [
        "3c14c864-533c-49e6-a3cc-6969f1233775"
      ],
      "langs": [
        "4dcf9614-7914-42aa-99f4-dbce2e059133"
      ],
      "origins": [
        "ac5085db-52d8-44b4-8fbb-1697b24d2046"
      ],
      "series": [
        "1bdaa5a1-dfa6-4365-b746-7a0b194dafd6"
      ],
      "singers": [
        "5d4a1195-c195-4c17-abbb-0e6281305581"
      ],
      "songtypes": [
        "7be1b15c-cff8-4b37-a649-5c90f3d569a9"
      ],
      "songwriters": [
        "e944ce66-c4b8-4155-a198-12a4bbbd80b2",
        "1ddc4422-c3e9-4b7d-b6f5-e4e2f3247d68",
        "26cb5252-8510-49e0-897c-a611a05fc056"
      ],
      "franchises": [
        "1bdaa5a1-dfa6-4365-b746-7a0b194dafd6"
      ]
    },
    "titles": {
      "eng": "Floating Darkness"
    },
    "titles_default_language": "eng",
    "year": 2009
  }
}