{
  "header": {
    "version": 4,
    "description": "Karaoke Mugen Karaoke Data File"
  },
  "medias": [
    {
      "version": "Default",
      "filename": "JPN - Merc Storia Mukiryoku Shounen to Bin no Naka no Shoujo - OP - Origin.mp4",
      "audiogain": -4.93,
      "loudnorm": "-12.90,0.13,10.40,-23.44,-0.22",
      "filesize": 32739805,
      "duration": 89,
      "default": true,
      "lyrics": [
        {
          "filename": "JPN - Merc Storia Mukiryoku Shounen to Bin no Naka no Shoujo - OP - Origin.ass",
          "default": true,
          "version": "Default",
          "subchecksum": "2f53bf25073f3858549c96f0d460e237"
        }
      ]
    }
  ],
  "data": {
    "created_at": "2018-12-07T14:14:46.000Z",
    "kid": "e2139a87-be63-4fab-a18f-e8aeb39c2e7c",
    "modified_at": "2021-02-25T12:24:38.922Z",
    "repository": "kara.moe",
    "tags": {
      "authors": [
        "6bebcb04-2694-453c-9e0c-eb1a2e2718d9"
      ],
      "collections": [
        "c7db86a0-ff64-4044-9be4-66dd1ef1d1c1"
      ],
      "creators": [
        "a0121f56-ae1b-4a2f-bfa0-78d95bfd9233"
      ],
      "families": [
        "0377db02-3af6-43b8-9b08-c759df3d25c3"
      ],
      "groups": [
        "ae613721-1fbe-480d-ba6b-d6d0702b184d"
      ],
      "langs": [
        "4dcf9614-7914-42aa-99f4-dbce2e059133"
      ],
      "origins": [
        "938de218-5343-4865-94d3-fb33f2eaa152"
      ],
      "series": [
        "6c296452-141c-47df-aac3-7c47cd2ab693"
      ],
      "singers": [
        "f6cd900b-9a73-446f-b54e-84663b3cfb75"
      ],
      "songtypes": [
        "f02ad9b3-0bd9-4aad-85b3-9976739ba0e4"
      ],
      "songwriters": [
        "4967c6bd-7bc5-4602-ab28-2250cc39e2d1",
        "a1b5be43-a6b7-40a5-88cf-7449a9da5422"
      ]
    },
    "title": "Origin",
    "titles": {
      "eng": "Origin",
      "jpn": "オリジン"
    },
    "year": 2018,
    "titles_default_language": "eng"
  }
}