{
  "header": {
    "version": 4,
    "description": "Karaoke Mugen Karaoke Data File"
  },
  "medias": [
    {
      "version": "Default",
      "filename": "JPN - Dragon Drive - OP - TRUE.avi",
      "audiogain": -5.3,
      "loudnorm": "-12.93,-2.52,3.50,-23.02,-0.14",
      "filesize": 12293204,
      "duration": 89,
      "default": true,
      "lyrics": [
        {
          "filename": "JPN - Dragon Drive - OP - TRUE.ass",
          "default": true,
          "version": "Default"
        }
      ]
    }
  ],
  "data": {
    "created_at": "2017-10-11T17:02:38.000Z",
    "ignoreHooks": false,
    "kid": "8c0b9189-44de-4240-9441-94879098c8e3",
    "modified_at": "2022-10-01T11:04:33.764Z",
    "repository": "kara.moe",
    "tags": {
      "authors": [
        "5bdaba57-27f8-4568-8806-76a807728766"
      ],
      "collections": [
        "c7db86a0-ff64-4044-9be4-66dd1ef1d1c1"
      ],
      "creators": [
        "9c5cf6ba-0bc8-4cfe-a63c-e9be3a14e9fd"
      ],
      "families": [
        "0377db02-3af6-43b8-9b08-c759df3d25c3"
      ],
      "groups": [
        "3c14c864-533c-49e6-a3cc-6969f1233775"
      ],
      "langs": [
        "4dcf9614-7914-42aa-99f4-dbce2e059133"
      ],
      "origins": [
        "938de218-5343-4865-94d3-fb33f2eaa152"
      ],
      "series": [
        "e6b61384-ab2c-4087-8275-0735f37c30f2"
      ],
      "singers": [
        "01eac541-d4fa-4338-96d3-e08ac483e99d"
      ],
      "songtypes": [
        "f02ad9b3-0bd9-4aad-85b3-9976739ba0e4"
      ],
      "songwriters": [
        "9d7f1e85-9dfb-4431-a9b7-42eddf68d8e2",
        "a47c9cc0-8b39-463e-aeeb-b5a152802b10",
        "de1e3398-5529-4f8b-b9f8-8b88bb5d59b3"
      ]
    },
    "titles": {
      "eng": "TRUE"
    },
    "titles_default_language": "eng",
    "title": "TRUE",
    "year": 2002
  }
}