{
  "header": {
    "version": 4,
    "description": "Karaoke Mugen Karaoke Data File"
  },
  "medias": [
    {
      "version": "Default",
      "filename": "JPN - Touhou - AUDIO - Sakebe.mp3",
      "audiogain": -10.46,
      "loudnorm": "-7.80,1.06,5.80,-17.84,-0.45",
      "filesize": 3325303,
      "duration": 191,
      "default": true,
      "lyrics": [
        {
          "filename": "JPN - Touhou - AUDIO - Sakebe.ass",
          "default": true,
          "version": "Default"
        }
      ]
    }
  ],
  "data": {
    "created_at": "2023-07-02T21:46:23.375Z",
    "ignoreHooks": false,
    "kid": "1f7256df-4a55-4b6d-a4f1-c9712989e448",
    "modified_at": "2023-07-06T21:36:06.838Z",
    "repository": "kara.moe",
    "tags": {
      "authors": [
        "74cb50bf-9693-47d3-bb83-be171fd9d71f"
      ],
      "collections": [
        "c7db86a0-ff64-4044-9be4-66dd1ef1d1c1"
      ],
      "creators": [
        "0fa12705-e060-490d-82c9-838989a929bc"
      ],
      "groups": [
        "ae613721-1fbe-480d-ba6b-d6d0702b184d",
        "df5f446f-d161-4760-8e0c-822e70ea03ae"
      ],
      "langs": [
        "4dcf9614-7914-42aa-99f4-dbce2e059133"
      ],
      "series": [
        "1bdaa5a1-dfa6-4365-b746-7a0b194dafd6"
      ],
      "singers": [
        "91c5c312-83d5-447e-9f03-91b11cf2efa1"
      ],
      "singergroups": [
        "0fa12705-e060-490d-82c9-838989a929bc"
      ],
      "songtypes": [
        "42a262ae-acba-4ab5-a446-c5789c96c821"
      ],
      "songwriters": [
        "26cb5252-8510-49e0-897c-a611a05fc056",
        "cbb6b661-766c-45ef-ae72-26bc37a71ba9"
      ],
      "franchises": [
        "1bdaa5a1-dfa6-4365-b746-7a0b194dafd6"
      ]
    },
    "titles": {
      "jpn": "叫べ",
      "qro": "Sakebe"
    },
    "titles_default_language": "qro",
    "titles_aliases": [
      "sakabe"
    ],
    "year": 2015
  }
}