{
  "header": {
    "version": 4,
    "description": "Karaoke Mugen Karaoke Data File"
  },
  "medias": [
    {
      "version": "Default",
      "filename": "JPN - Fubuki Shirakami - MV - Bitter Choco Decoration ~ Cover Vers.mp4",
      "audiogain": -6.71,
      "loudnorm": "-10.38,0.82,3.10,-20.42,-0.65",
      "filesize": 87018425,
      "duration": 198,
      "default": true,
      "lyrics": [
        {
          "filename": "JPN - Fubuki Shirakami - MV - Bitter Choco Decoration ~ Cover Vers.ass",
          "default": true,
          "version": "Default",
          "subchecksum": "09ef6d9c77f05b6e7a849eb4e913b51c"
        }
      ]
    }
  ],
  "data": {
    "created_at": "2021-06-30T20:41:07.437Z",
    "kid": "f1fd883a-8d4d-4f40-aa5c-2ffd380b38e2",
    "modified_at": "2021-06-30T20:43:28.864Z",
    "repository": "kara.moe",
    "tags": {
      "authors": [
        "84157b43-8a7a-482c-95d3-516757353835"
      ],
      "collections": [
        "c7db86a0-ff64-4044-9be4-66dd1ef1d1c1"
      ],
      "creators": [
        "0263d413-17bb-4cee-a311-6dd896eda1c9"
      ],
      "families": [
        "0377db02-3af6-43b8-9b08-c759df3d25c3"
      ],
      "groups": [
        "8e209ae4-4381-438f-89dc-1b21752027d2"
      ],
      "langs": [
        "4dcf9614-7914-42aa-99f4-dbce2e059133"
      ],
      "origins": [
        "5106d71b-a78e-4d19-a16d-f8fb6719538a"
      ],
      "singers": [
        "53b39b45-1ee9-4625-83d6-642c02ca8fba"
      ],
      "songtypes": [
        "7be1b15c-cff8-4b37-a649-5c90f3d569a9"
      ],
      "songwriters": [
        "13c686dd-4df8-4056-a46a-39ba871cba8b"
      ],
      "versions": [
        "03e1e1d2-8641-47b7-bbcb-39a3df9ff21c"
      ]
    },
    "title": "Bitter Choco Decoration",
    "titles": {
      "eng": "Bitter Choco Decoration",
      "jpn": "ビターチョコデコレーション"
    },
    "year": 2020,
    "titles_default_language": "eng"
  }
}