{
  "header": {
    "version": 4,
    "description": "Karaoke Mugen Karaoke Data File"
  },
  "medias": [
    {
      "version": "Default",
      "filename": "JPN - Cutie Honey Universe - OP - Ai ga Nakucha Tatakaenai.mp4",
      "audiogain": -2.1,
      "loudnorm": "-16.01,-4.13,4.50,-26.06,-1.08",
      "filesize": 31198962,
      "duration": 89,
      "default": true,
      "lyrics": [
        {
          "filename": "JPN - Cutie Honey Universe - OP - Ai ga Nakucha Tatakaenai.ass",
          "default": true,
          "version": "Default"
        }
      ]
    }
  ],
  "data": {
    "created_at": "2023-02-13T21:53:10.932Z",
    "ignoreHooks": false,
    "kid": "8d0128c9-1bc0-4bae-8eae-fdf2ef881e2b",
    "modified_at": "2023-02-13T22:01:49.004Z",
    "repository": "kara.moe",
    "tags": {
      "authors": [
        "da677ad5-b5dd-4ab9-a1fe-5461e36338a2"
      ],
      "collections": [
        "c7db86a0-ff64-4044-9be4-66dd1ef1d1c1"
      ],
      "creators": [
        "fa1cbae7-2b13-45ec-8233-15807fd5f1a3"
      ],
      "families": [
        "0377db02-3af6-43b8-9b08-c759df3d25c3"
      ],
      "genres": [
        "b84e28f9-db1e-447f-b339-7954c3592523",
        "c994fbce-5c5a-441c-88b4-9a6805f7ee85"
      ],
      "groups": [
        "ae613721-1fbe-480d-ba6b-d6d0702b184d"
      ],
      "langs": [
        "4dcf9614-7914-42aa-99f4-dbce2e059133"
      ],
      "misc": [
        "1d6ceadf-a885-47e5-b23b-c07bf668a424"
      ],
      "origins": [
        "938de218-5343-4865-94d3-fb33f2eaa152"
      ],
      "series": [
        "41b0f0b3-dd83-4d6f-b6f9-8a92712426dc"
      ],
      "singers": [
        "0f10c676-7681-4a2c-a34a-23b72e55ec58",
        "4a44aa1a-e5f5-4f1a-83e1-d05f8958bf3e",
        "7edea469-9f78-48e5-a038-5416a1c7c265",
        "85b802db-8c80-4686-b7ff-70b1294b13ef",
        "92564931-6a4b-4798-89e2-d393526535cb",
        "93cd6577-0d1e-46fb-886b-454d72d95eef",
        "987db693-4df4-4cf4-9db0-400c0e1bebfe",
        "a610a270-fde3-40bb-963d-265a4b469d0c",
        "cdf974c9-adab-462a-b061-e74ea786671a",
        "d5c09815-65ac-4cf5-b450-fd1601d48718"
      ],
      "singergroups": [
        "f00210d5-b88a-4f7a-ac3f-6743e950749f"
      ],
      "songtypes": [
        "f02ad9b3-0bd9-4aad-85b3-9976739ba0e4"
      ],
      "songwriters": [
        "617283fd-b842-498c-b1fe-212cb9f24d4a",
        "8a9830d2-54cf-4180-b436-4a1df748176e",
        "8b81caa3-a4fb-4621-b8a1-5887a8311e93"
      ],
      "franchises": [
        "70c71b06-a797-4790-b073-c459eed7d9b7"
      ]
    },
    "titles": {
      "jpn": "愛がなくちゃ戦えない",
      "qro": "Ai ga Nakucha Tatakaenai"
    },
    "titles_default_language": "qro",
    "year": 2018
  }
}