{
  "header": {
    "version": 4,
    "description": "Karaoke Mugen Karaoke Data File"
  },
  "medias": [
    {
      "version": "Default",
      "filename": "JPN - Chogakusei - MV - Bug ~ Cover Vers.mp4",
      "audiogain": -8.54,
      "loudnorm": "-9.77,0.22,4.70,-19.82,-0.50",
      "filesize": 59448288,
      "duration": 177,
      "default": true,
      "lyrics": [
        {
          "filename": "JPN - Chogakusei - MV - Bug ~ Cover Vers.ass",
          "default": true,
          "version": "Default"
        }
      ]
    }
  ],
  "data": {
    "created_at": "2022-12-27T22:12:20.260Z",
    "ignoreHooks": false,
    "kid": "ce158af5-6e88-4e7e-bf91-d26447a88bab",
    "modified_at": "2022-12-27T22:12:20.533Z",
    "parents": [
      "5f0197b9-760e-415f-a913-05f785fe9cf8"
    ],
    "repository": "kara.moe",
    "tags": {
      "authors": [
        "10891649-d475-46eb-b515-8eb3c1e14622"
      ],
      "collections": [
        "c7db86a0-ff64-4044-9be4-66dd1ef1d1c1"
      ],
      "creators": [
        "021aab8c-5dd0-41a5-8214-cc628ac818f9"
      ],
      "families": [
        "5391f9fe-638c-415f-8dc9-958e3a2c5787"
      ],
      "genres": [
        "45623cae-6d68-4304-a49b-896d1d6f4580"
      ],
      "groups": [
        "8e209ae4-4381-438f-89dc-1b21752027d2"
      ],
      "langs": [
        "4dcf9614-7914-42aa-99f4-dbce2e059133"
      ],
      "singers": [
        "0320ebd0-877c-4777-ac7e-8b6acfdb1f03"
      ],
      "songtypes": [
        "7be1b15c-cff8-4b37-a649-5c90f3d569a9"
      ],
      "songwriters": [
        "ce4a49a7-38bb-4620-bc81-5074a6a49747"
      ],
      "versions": [
        "03e1e1d2-8641-47b7-bbcb-39a3df9ff21c"
      ]
    },
    "titles": {
      "eng": "Bug",
      "jpn": "バグ"
    },
    "titles_default_language": "eng",
    "year": 2022
  }
}