{
  "header": {
    "version": 4,
    "description": "Karaoke Mugen Karaoke Data File"
  },
  "medias": [
    {
      "version": "Default",
      "filename": "JPN - Yu-Gi-Oh! GO RUSH!! - OP2 - SOUL GALAXY.mp4",
      "audiogain": 8.13,
      "loudnorm": "-25.30,-12.25,3.10,-35.36,-0.62",
      "filesize": 52520708,
      "duration": 89,
      "default": true,
      "lyrics": [
        {
          "filename": "JPN - Yu-Gi-Oh! GO RUSH!! - OP2 - SOUL GALAXY.ass",
          "default": true,
          "version": "Default"
        }
      ]
    }
  ],
  "data": {
    "created_at": "2023-04-11T22:18:07.474Z",
    "ignoreHooks": false,
    "kid": "922372a4-e7c4-4bce-ab92-7c39b9e50e66",
    "modified_at": "2023-04-11T22:23:14.167Z",
    "repository": "kara.moe",
    "songorder": 2,
    "tags": {
      "authors": [
        "db867b9b-f487-444d-9f24-142c4324a235"
      ],
      "collections": [
        "c7db86a0-ff64-4044-9be4-66dd1ef1d1c1"
      ],
      "creators": [
        "2b63c455-b186-46b8-8b60-f86c11144ac4"
      ],
      "families": [
        "0377db02-3af6-43b8-9b08-c759df3d25c3"
      ],
      "groups": [
        "8e209ae4-4381-438f-89dc-1b21752027d2"
      ],
      "langs": [
        "4dcf9614-7914-42aa-99f4-dbce2e059133"
      ],
      "origins": [
        "938de218-5343-4865-94d3-fb33f2eaa152"
      ],
      "series": [
        "8cd74d92-ced3-4c6b-aac1-74b90adb2e2d"
      ],
      "singers": [
        "e8c4fc36-61ec-445d-8890-7166482fffd0"
      ],
      "songtypes": [
        "f02ad9b3-0bd9-4aad-85b3-9976739ba0e4"
      ],
      "songwriters": [
        "e1cb1994-00a9-4fa6-b2fc-f828e8b0b3fb",
        "e8c4fc36-61ec-445d-8890-7166482fffd0"
      ],
      "franchises": [
        "e6b60e16-dac4-4bc2-8c7d-b80a4422fc3a"
      ]
    },
    "titles": {
      "eng": "SOUL GALAXY"
    },
    "titles_default_language": "eng",
    "year": 2023
  }
}