{
  "header": {
    "version": 4,
    "description": "Karaoke Mugen Karaoke Data File"
  },
  "medias": [
    {
      "version": "Default",
      "filename": "JPN - Yume no Crayon Oukoku - OP - N.paka March.mp4",
      "audiogain": -2.24,
      "loudnorm": "-16.72,-3.05,3.40,-26.93,-0.86",
      "filesize": 82143048,
      "duration": 89,
      "default": true,
      "lyrics": [
        {
          "filename": "JPN - Yume no Crayon Oukoku - OP - N.paka March.ass",
          "default": true,
          "version": "Default"
        }
      ]
    }
  ],
  "data": {
    "created_at": "2021-09-24T00:49:18.397Z",
    "kid": "894cdda6-6964-42d3-9803-1172b51da67b",
    "modified_at": "2021-09-24T00:53:10.490Z",
    "repository": "kara.moe",
    "tags": {
      "authors": [
        "1df04771-a378-4f14-a5e1-1455187d681a"
      ],
      "collections": [
        "c7db86a0-ff64-4044-9be4-66dd1ef1d1c1"
      ],
      "creators": [
        "f694bf43-b427-4244-9744-9d3f84fd8a31"
      ],
      "families": [
        "0377db02-3af6-43b8-9b08-c759df3d25c3"
      ],
      "groups": [
        "24db50aa-a126-4d34-a48a-e45db79c4245"
      ],
      "langs": [
        "4dcf9614-7914-42aa-99f4-dbce2e059133"
      ],
      "origins": [
        "938de218-5343-4865-94d3-fb33f2eaa152"
      ],
      "series": [
        "48b0cdd8-50e8-4ab6-aea2-27db2fc5a5b1"
      ],
      "singers": [
        "4052ac8e-5790-4893-a508-076018ffc8dc"
      ],
      "songtypes": [
        "f02ad9b3-0bd9-4aad-85b3-9976739ba0e4"
      ],
      "songwriters": [
        "0793d243-a9a0-41b7-ac05-2212b7cc0f70",
        "4677d0b9-ae34-4237-ab74-8c4019527044",
        "5f982f77-65c3-4060-9036-2180aee57799",
        "8becb533-dc8a-4326-9cc3-a52012db8517"
      ]
    },
    "titles": {
      "qro": "N・paka March",
      "jpn": "ン・パカ マーチ"
    },
    "title": "N・paka March",
    "year": 1997,
    "titles_default_language": "qro"
  }
}