{
  "header": {
    "version": 4,
    "description": "Karaoke Mugen Karaoke Data File"
  },
  "medias": [
    {
      "version": "Nambu-ben.",
      "filename": "JPN - Hal (ginger shimai) - MV - Usseewa ~ Nambu-ben Vers. ~ Cover Vers.mp4",
      "loudnorm": "-17.05,-6.91,3.80,-27.09,-0.36",
      "filesize": 29683185,
      "duration": 205,
      "default": true,
      "lyrics": [
        {
          "filename": "JPN - Hal (ginger shimai) - MV - Usseewa ~ Nambu-ben Vers. ~ Cover Vers.ass",
          "default": true,
          "version": "Default"
        }
      ]
    }
  ],
  "data": {
    "created_at": "2023-05-04T16:03:55.424Z",
    "ignoreHooks": false,
    "kid": "67770689-19a9-4b8b-acf5-58bb0248bc46",
    "modified_at": "2023-09-23T14:31:25.861Z",
    "parents": [
      "22caaf65-868b-427a-89fd-79fd6f9fc6b2"
    ],
    "repository": "kara.moe",
    "tags": {
      "authors": [
        "61865310-cb97-496c-a722-364b0a9ba90d"
      ],
      "collections": [
        "c7db86a0-ff64-4044-9be4-66dd1ef1d1c1",
        "dbcf2c22-524d-4708-99bb-601703633927"
      ],
      "creators": [
        "631af5bd-c0a4-4b48-b3f5-6c29458d8d7a"
      ],
      "families": [
        "0377db02-3af6-43b8-9b08-c759df3d25c3"
      ],
      "groups": [
        "8c22c899-b3ed-42da-a548-ce00f950798b",
        "8e209ae4-4381-438f-89dc-1b21752027d2"
      ],
      "langs": [
        "4dcf9614-7914-42aa-99f4-dbce2e059133"
      ],
      "singers": [
        "631af5bd-c0a4-4b48-b3f5-6c29458d8d7a"
      ],
      "songtypes": [
        "7be1b15c-cff8-4b37-a649-5c90f3d569a9"
      ],
      "songwriters": [
        "13c686dd-4df8-4056-a46a-39ba871cba8b"
      ],
      "versions": [
        "03e1e1d2-8641-47b7-bbcb-39a3df9ff21c"
      ]
    },
    "titles": {
      "jpn": "うっせぇわ ~ 南部弁 Vers.",
      "qro": "Usseewa ~ Nambu-ben Vers."
    },
    "titles_default_language": "qro",
    "year": 2021
  }
}