{
  "header": {
    "version": 4,
    "description": "Karaoke Mugen Karaoke Data File"
  },
  "medias": [
    {
      "version": "Default",
      "filename": "JPN - Tokyo Revengers - OP - Cry Baby ~ Off Vocal Vers.mp4",
      "audiogain": -6.54,
      "loudnorm": "-8.67,0.42,2.20,-18.77,-0.55",
      "filesize": 35548974,
      "duration": 91,
      "default": true,
      "lyrics": [
        {
          "filename": "JPN - Tokyo Revengers - OP - Cry Baby ~ Off Vocal Vers.ass",
          "default": true,
          "version": "Default"
        }
      ]
    }
  ],
  "data": {
    "created_at": "2022-06-01T23:00:34.082Z",
    "ignoreHooks": false,
    "kid": "f44c6088-1253-4211-abfb-572d790146e8",
    "modified_at": "2022-06-01T23:10:07.423Z",
    "parents": [
      "81fb079a-fd44-476b-b490-b8dda0d02ecb"
    ],
    "repository": "kara.moe",
    "tags": {
      "authors": [
        "9cdf3b70-3550-457c-bdb9-038f3253c6ad",
        "90698f28-1d62-4673-82c4-33ae96b1ba97"
      ],
      "collections": [
        "c7db86a0-ff64-4044-9be4-66dd1ef1d1c1"
      ],
      "creators": [
        "58186e9d-9478-47dc-8c95-eeea5c0a3317"
      ],
      "families": [
        "0377db02-3af6-43b8-9b08-c759df3d25c3"
      ],
      "groups": [
        "8e209ae4-4381-438f-89dc-1b21752027d2"
      ],
      "langs": [
        "4dcf9614-7914-42aa-99f4-dbce2e059133"
      ],
      "origins": [
        "938de218-5343-4865-94d3-fb33f2eaa152"
      ],
      "series": [
        "e82d7f67-ed96-4fa8-a64c-b2ac4680a7aa"
      ],
      "singers": [
        "a6faab1b-859e-4068-971a-c6ff47788c8a"
      ],
      "songtypes": [
        "f02ad9b3-0bd9-4aad-85b3-9976739ba0e4"
      ],
      "songwriters": [
        "ed300e84-8415-4842-8003-8244d2b2fb2c"
      ],
      "versions": [
        "c0cc87b9-55b9-40f0-878a-fbb9e34c151e"
      ]
    },
    "titles": {
      "eng": "Cry Baby"
    },
    "titles_default_language": "eng",
    "title": "Cry Baby",
    "year": 2021
  }
}