{
  "header": {
    "version": 4,
    "description": "Karaoke Mugen Karaoke Data File"
  },
  "medias": [
    {
      "version": "Default",
      "filename": "JPN - BTOB - MV - L.U.V.mp4",
      "audiogain": -8.47,
      "loudnorm": "-9.67,6.07,13.60,-20.32,-1.43",
      "filesize": 60099074,
      "duration": 306,
      "default": true,
      "lyrics": [
        {
          "filename": "JPN - BTOB - MV - L.U.V.ass",
          "default": true,
          "version": "Default"
        }
      ]
    }
  ],
  "data": {
    "created_at": "2019-10-06T20:26:20.000Z",
    "kid": "d4157d45-6566-4161-ae9c-9dbb90a6fe26",
    "modified_at": "2022-05-26T16:18:47.593Z",
    "repository": "kara.moe",
    "songorder": null,
    "tags": {
      "authors": [
        "622e2a6d-e4e8-4ff5-b218-890e8d7a3abf"
      ],
      "creators": [
        "0635fc01-24ee-40db-b419-7b9c81f23b0c"
      ],
      "families": [
        "5391f9fe-638c-415f-8dc9-958e3a2c5787"
      ],
      "groups": [
        "2b4e9972-5e17-481b-99f5-d0787c0ada56",
        "ae613721-1fbe-480d-ba6b-d6d0702b184d"
      ],
      "langs": [
        "4dcf9614-7914-42aa-99f4-dbce2e059133"
      ],
      "misc": [
        "86705d4b-24e4-4756-9687-2b9c98bcf366"
      ],
      "singers": [
        "e29ca23d-958f-47c3-892c-605e38dd0b41"
      ],
      "songtypes": [
        "7be1b15c-cff8-4b37-a649-5c90f3d569a9"
      ],
      "songwriters": [
        "350c41e1-b239-4aa7-bee8-a9ec23295a01",
        "3c0c5405-c669-4daa-8a2b-28db305d1a49",
        "984c585a-b4d4-4fcd-9b8d-17bb95e1ec48",
        "b8e3a14b-7348-489d-a482-35a400889a4f"
      ],
      "collections": [
        "dbcf2c22-524d-4708-99bb-601703633927"
      ]
    },
    "titles": {
      "eng": "L.U.V"
    },
    "titles_default_language": "eng",
    "title": "L.U.V",
    "year": 2016,
    "titles_aliases": [
      "LUV"
    ]
  }
}