{
  "header": {
    "version": 4,
    "description": "Karaoke Mugen Karaoke Data File"
  },
  "medias": [
    {
      "version": "Default",
      "filename": "JPN - K - OP - Kings.mp4",
      "audiogain": 3.26,
      "loudnorm": "-20.67,-12.58,3.50,-30.70,-0.51",
      "filesize": 96580874,
      "duration": 92,
      "default": true,
      "lyrics": [
        {
          "filename": "JPN - K - OP - Kings.ass",
          "default": true,
          "version": "Default"
        }
      ]
    }
  ],
  "data": {
    "created_at": "2017-10-11T17:02:27.000Z",
    "ignoreHooks": false,
    "kid": "2e806c37-b0c3-4e8c-864f-1aa48fa5bcd7",
    "modified_at": "2022-07-20T16:23:01.656Z",
    "repository": "kara.moe",
    "tags": {
      "authors": [
        "5bdaba57-27f8-4568-8806-76a807728766"
      ],
      "collections": [
        "c7db86a0-ff64-4044-9be4-66dd1ef1d1c1"
      ],
      "creators": [
        "c77da89b-5c99-43fa-a70d-bd25925074f6"
      ],
      "families": [
        "0377db02-3af6-43b8-9b08-c759df3d25c3"
      ],
      "groups": [
        "ae613721-1fbe-480d-ba6b-d6d0702b184d"
      ],
      "langs": [
        "4dcf9614-7914-42aa-99f4-dbce2e059133"
      ],
      "origins": [
        "938de218-5343-4865-94d3-fb33f2eaa152"
      ],
      "series": [
        "91ed54e0-cff6-45f0-bd09-54eaffcab86a"
      ],
      "singers": [
        "78d91182-ac66-49fb-9561-1d330667d6c4"
      ],
      "songtypes": [
        "f02ad9b3-0bd9-4aad-85b3-9976739ba0e4"
      ],
      "songwriters": [
        "06d98e92-d527-485d-8399-a951ff48e66c",
        "0b54e69d-4691-4415-be0e-0dd6fd5d4e1a"
      ],
      "franchises": [
        "91ed54e0-cff6-45f0-bd09-54eaffcab86a"
      ]
    },
    "titles": {
      "eng": "KINGS"
    },
    "titles_default_language": "eng",
    "title": "Kings",
    "year": 2012
  }
}