{
  "header": {
    "version": 4,
    "description": "Karaoke Mugen Karaoke Data File"
  },
  "medias": [
    {
      "version": "Chorus.",
      "filename": "JPN - Love Live! Superstar!! - ED - Mirai wa Kaze no You ni ~ Chorus Vers.mp4",
      "audiogain": 0.38,
      "loudnorm": "-17.23,-1.98,4.10,-27.44,-0.16",
      "filesize": 33409660,
      "duration": 99,
      "default": true,
      "lyrics": [
        {
          "filename": "JPN - Love Live! Superstar!! - ED - Mirai wa Kaze no You ni ~ Chorus Vers.ass",
          "default": true,
          "version": "Default"
        }
      ]
    }
  ],
  "data": {
    "created_at": "2021-11-04T20:55:23.932Z",
    "ignoreHooks": false,
    "kid": "e62caf4c-3ccb-4827-aae0-4a2a565c46b3",
    "modified_at": "2022-09-30T22:06:02.512Z",
    "repository": "kara.moe",
    "tags": {
      "authors": [
        "278c6742-0b75-43dd-b317-2ea112952b4a"
      ],
      "collections": [
        "c7db86a0-ff64-4044-9be4-66dd1ef1d1c1"
      ],
      "creators": [
        "ef8f80e1-d244-4aea-b7f0-984d6dd4b82b"
      ],
      "families": [
        "0377db02-3af6-43b8-9b08-c759df3d25c3"
      ],
      "genres": [
        "caa86df2-0d59-474b-885c-f240a9e891b0"
      ],
      "groups": [
        "8c22c899-b3ed-42da-a548-ce00f950798b",
        "8e209ae4-4381-438f-89dc-1b21752027d2"
      ],
      "langs": [
        "4dcf9614-7914-42aa-99f4-dbce2e059133"
      ],
      "origins": [
        "938de218-5343-4865-94d3-fb33f2eaa152"
      ],
      "series": [
        "ed46191b-997b-4c2d-8088-bb30a5e6d4ca"
      ],
      "singers": [
        "4a1c9511-daa2-4172-9367-5afb3312234e",
        "4e66c19f-a55a-4be7-a948-4eb45796b71f",
        "8a484e8b-1945-416f-b778-97a887ff24eb",
        "8b1d7f16-0b3e-4c63-82c1-bd60518b86a8",
        "c1fd3a67-0c3b-4d95-9cd8-f6aa2c8cc5a8"
      ],
      "singergroups": [
        "f3e5b1d3-30b1-4548-95c8-6cf77216bdbd"
      ],
      "songtypes": [
        "38c77c56-2b95-4040-b676-0994a8cb0597"
      ],
      "songwriters": [
        "21db1826-ce89-42a8-8fda-a9753576f238",
        "c6f679b1-a1e8-4ab2-80fa-5edf792440ce",
        "f41e7218-6c19-4e19-9b5f-4612dcd58243"
      ],
      "franchises": [
        "fd5d066e-e85a-4eea-8688-2979a887450a"
      ]
    },
    "titles": {
      "jpn": "未来は風のように ~ Chorus Vers.",
      "qro": "Mirai wa Kaze no You ni ~ Chorus Vers."
    },
    "titles_default_language": "qro",
    "title": "Mirai wa Kaze no You ni ~ Chorus Vers.",
    "year": 2021
  }
}