{
  "header": {
    "version": 4,
    "description": "Karaoke Mugen Karaoke Data File"
  },
  "medias": [
    {
      "version": "Default",
      "filename": "JPN - Foreground Eclipse - AUDIO - Dorabu.mp3",
      "audiogain": -9.03,
      "loudnorm": "-7.71,0.96,5.30,-17.96,-1.04",
      "filesize": 2302227,
      "duration": 125,
      "default": true,
      "lyrics": [
        {
          "filename": "JPN - Foreground Eclipse - AUDIO - Dorabu.ass",
          "default": true,
          "version": "Default"
        }
      ]
    }
  ],
  "data": {
    "created_at": "2020-07-12T20:32:29.733Z",
    "ignoreHooks": false,
    "kid": "79e11b57-d5fb-455b-8a5a-4083ef204303",
    "modified_at": "2022-10-15T19:10:35.922Z",
    "repository": "kara.moe",
    "tags": {
      "authors": [
        "1c9f3b53-973d-419e-9e29-9067c9896139"
      ],
      "collections": [
        "c7db86a0-ff64-4044-9be4-66dd1ef1d1c1"
      ],
      "creators": [
        "118022d4-b72b-42d1-a814-c031d53bebd2"
      ],
      "groups": [
        "60defa7b-774e-4680-8321-51b742c2e009",
        "ae613721-1fbe-480d-ba6b-d6d0702b184d"
      ],
      "langs": [
        "4dcf9614-7914-42aa-99f4-dbce2e059133"
      ],
      "singers": [
        "118022d4-b72b-42d1-a814-c031d53bebd2"
      ],
      "songtypes": [
        "42a262ae-acba-4ab5-a446-c5789c96c821"
      ],
      "songwriters": [
        "118022d4-b72b-42d1-a814-c031d53bebd2",
        "695b8c03-b9af-46c3-aac3-463bd341c4ba",
        "3f9424ef-88f8-4829-91c7-827a28d9420c"
      ]
    },
    "titles": {
      "jpn": "ドラブ",
      "qro": "Dorabu"
    },
    "titles_default_language": "qro",
    "title": "Dorabu",
    "year": 2011
  }
}