{
  "header": {
    "version": 4,
    "description": "Karaoke Mugen Karaoke Data File"
  },
  "medias": [
    {
      "version": "Default",
      "filename": "JPN - Princess Connect! Re Dive - GAME MV - Lost Princess ~ Full Vers.mp4",
      "audiogain": -1.54,
      "loudnorm": "-17.11,-8.33,5.60,-27.23,-0.73",
      "filesize": 66429656,
      "duration": 233,
      "default": true,
      "lyrics": [
        {
          "filename": "JPN - Princess Connect! Re Dive - GAME MV - Lost Princess ~ Full Vers.ass",
          "default": true,
          "version": "Default"
        }
      ]
    }
  ],
  "data": {
    "created_at": "2022-04-21T20:35:28.289Z",
    "ignoreHooks": false,
    "kid": "0c27e884-7789-43b4-b22b-a7f68a60e054",
    "modified_at": "2022-12-27T23:05:50.592Z",
    "parents": [
      "7ddf957a-c662-4a08-9f73-fd94d3366b57",
      "dfb0b096-e3d9-4b50-8c16-95f3b92ddacb"
    ],
    "repository": "kara.moe",
    "tags": {
      "authors": [
        "06852e02-b77e-4106-b6f7-2d03942ad0ea",
        "278c6742-0b75-43dd-b317-2ea112952b4a"
      ],
      "collections": [
        "c7db86a0-ff64-4044-9be4-66dd1ef1d1c1"
      ],
      "creators": [
        "61e12252-9c98-4e41-83db-6031c354b920"
      ],
      "groups": [
        "8c22c899-b3ed-42da-a548-ce00f950798b",
        "8e209ae4-4381-438f-89dc-1b21752027d2"
      ],
      "langs": [
        "4dcf9614-7914-42aa-99f4-dbce2e059133"
      ],
      "misc": [
        "fe819ff1-9db8-4a0f-85dc-0e322c9126c4"
      ],
      "platforms": [
        "213a1a15-e73a-4a08-b3f6-b6e2745a82e5"
      ],
      "series": [
        "ab7828d2-8048-4392-bd92-4c8aed8d6089"
      ],
      "singers": [
        "43822411-dbd3-4e3f-b498-1d3a9ba8ea30",
        "6bb7da54-8669-4b2f-815b-e1e38c881781",
        "dfddf0a7-15e4-4fa7-90e7-fead611ee6c7"
      ],
      "songtypes": [
        "7be1b15c-cff8-4b37-a649-5c90f3d569a9"
      ],
      "songwriters": [
        "2461dcff-0d44-481a-9841-a8ae3e3d53db",
        "2d718c99-fcaf-494b-8216-06f2d66e66a5",
        "8ac88d22-022b-4d8e-a806-b27551a9b0d5"
      ],
      "versions": [
        "c2143a7f-6970-450e-8a79-0302db9220a9"
      ],
      "franchises": [
        "ab7828d2-8048-4392-bd92-4c8aed8d6089"
      ],
      "origins": [
        "dbedd6b3-d125-4cd8-aa32-c4175e4ca3a3"
      ]
    },
    "titles": {
      "eng": "Lost Princess"
    },
    "titles_default_language": "eng",
    "year": 2020
  }
}