{
  "header": {
    "version": 4,
    "description": "Karaoke Mugen Karaoke Data File"
  },
  "medias": [
    {
      "version": "Default",
      "filename": "JPN - Ado - MV - Usseewa.mp4",
      "audiogain": -11.9,
      "loudnorm": "-5.43,2.20,3.10,-15.53,-0.45",
      "filesize": 53065426,
      "duration": 204,
      "default": true,
      "lyrics": [
        {
          "filename": "JPN - Ado - MV - Usseewa.ass",
          "default": true,
          "version": "Default"
        }
      ]
    }
  ],
  "data": {
    "created_at": "2021-05-07T15:52:27.520Z",
    "kid": "22caaf65-868b-427a-89fd-79fd6f9fc6b2",
    "modified_at": "2021-11-12T21:27:13.890Z",
    "repository": "kara.moe",
    "tags": {
      "authors": [
        "84157b43-8a7a-482c-95d3-516757353835"
      ],
      "collections": [
        "c7db86a0-ff64-4044-9be4-66dd1ef1d1c1"
      ],
      "families": [
        "0377db02-3af6-43b8-9b08-c759df3d25c3"
      ],
      "groups": [
        "8e209ae4-4381-438f-89dc-1b21752027d2"
      ],
      "langs": [
        "4dcf9614-7914-42aa-99f4-dbce2e059133"
      ],
      "singers": [
        "98152dec-f25d-410b-b827-fd9fe2ac5a15"
      ],
      "songtypes": [
        "7be1b15c-cff8-4b37-a649-5c90f3d569a9"
      ],
      "songwriters": [
        "13c686dd-4df8-4056-a46a-39ba871cba8b"
      ]
    },
    "titles": {
      "qro": "Usseewa",
      "jpn": "うっせぇわ"
    },
    "title": "Usseewa",
    "year": 2020,
    "titles_default_language": "qro"
  }
}