{
  "header": {
    "version": 4,
    "description": "Karaoke Mugen Karaoke Data File"
  },
  "medias": [
    {
      "version": "Default",
      "filename": "JPN - Boku no Hero Academia S2 - MV - Sora ni Utaeba ~ Full Vers.mp4",
      "audiogain": -5.66,
      "loudnorm": "-12.65,-0.56,5.30,-22.75,-0.74",
      "filesize": 56600207,
      "duration": 234,
      "default": true,
      "lyrics": [
        {
          "filename": "JPN - Boku no Hero Academia S2 - MV - Sora ni Utaeba ~ Full Vers.ass",
          "default": true,
          "version": "Default"
        }
      ]
    }
  ],
  "data": {
    "created_at": "2020-05-14T00:36:27.836Z",
    "kid": "d7c0ac0c-77c4-4812-a828-be159cbea59e",
    "modified_at": "2022-06-04T00:18:06.915Z",
    "parents": [
      "9e7847d0-dfc2-43ec-9ea1-8e5e4bf95e9c"
    ],
    "repository": "kara.moe",
    "songorder": null,
    "tags": {
      "authors": [
        "87096920-112f-485f-a310-04156cb4624d"
      ],
      "creators": [
        "9f10c180-4ed1-4a4e-9e39-c37e09b91d5f"
      ],
      "families": [
        "5391f9fe-638c-415f-8dc9-958e3a2c5787"
      ],
      "groups": [
        "60defa7b-774e-4680-8321-51b742c2e009",
        "ae613721-1fbe-480d-ba6b-d6d0702b184d"
      ],
      "langs": [
        "4dcf9614-7914-42aa-99f4-dbce2e059133"
      ],
      "series": [
        "b7ec833e-eba9-491f-8a17-509dcc537870"
      ],
      "singers": [
        "1e10b608-d701-4b51-9725-ccf808c44ce0"
      ],
      "songtypes": [
        "7be1b15c-cff8-4b37-a649-5c90f3d569a9"
      ],
      "songwriters": [
        "1e10b608-d701-4b51-9725-ccf808c44ce0",
        "c01fe3d2-92cb-4a8d-90c1-9de20842e57b",
        "caff84bc-059e-4a6e-b273-c857050e75f7"
      ],
      "versions": [
        "c2143a7f-6970-450e-8a79-0302db9220a9"
      ],
      "collections": [
        "dbcf2c22-524d-4708-99bb-601703633927"
      ],
      "franchises": [
        "8c9bbcc8-9928-46d1-aecd-7a31a8c9bba3"
      ]
    },
    "titles": {
      "qro": "Sora ni Utaeba",
      "jpn": "空に歌えば"
    },
    "titles_default_language": "qro",
    "title": "Sora ni Utaeba",
    "year": 2017
  }
}