{
  "header": {
    "version": 4,
    "description": "Karaoke Mugen Karaoke Data File"
  },
  "medias": [
    {
      "version": "Default",
      "filename": "JPN - Shoujo Kageki Revue Starlight Movie - MOVIE IN - Super Star Spectacle.mp4",
      "loudnorm": "-8.08,0.95,9.90,-18.77,-1.49",
      "filesize": 205811641,
      "duration": 530,
      "default": true,
      "lyrics": [
        {
          "filename": "JPN - Shoujo Kageki Revue Starlight Movie - MOVIE IN - Super Star Spectacle.ass",
          "default": true,
          "version": "Default"
        }
      ]
    }
  ],
  "data": {
    "created_at": "2023-08-27T00:36:42.646Z",
    "ignoreHooks": false,
    "kid": "096bff78-cbd8-4045-9650-ba93e12a4acb",
    "modified_at": "2023-08-27T00:36:42.832Z",
    "repository": "kara.moe",
    "tags": {
      "authors": [
        "7848b5dc-a5df-4577-b640-147be5288cec"
      ],
      "collections": [
        "c7db86a0-ff64-4044-9be4-66dd1ef1d1c1"
      ],
      "creators": [
        "08df259d-c4ec-458e-a066-af38a9f7ccc5"
      ],
      "families": [
        "0377db02-3af6-43b8-9b08-c759df3d25c3"
      ],
      "groups": [
        "8e209ae4-4381-438f-89dc-1b21752027d2"
      ],
      "langs": [
        "4dcf9614-7914-42aa-99f4-dbce2e059133"
      ],
      "misc": [
        "86705d4b-24e4-4756-9687-2b9c98bcf366"
      ],
      "origins": [
        "c8ca9dea-d8b4-48fe-8427-d911653232e9"
      ],
      "series": [
        "f628ef85-4ab4-4c62-b458-7ca124a665c5"
      ],
      "singers": [
        "4fc68333-b1f6-44ce-b2be-ac4866b78932",
        "0691da5a-1612-40fe-91a3-898cce043c3e"
      ],
      "songtypes": [
        "5e5250d9-351a-4a82-98eb-55db50ad8962"
      ],
      "songwriters": [
        "ead196cc-e1e3-43a4-8804-dd4199e89c4e",
        "03537d59-35c7-493e-a807-54263253a072",
        "9e5dc7fc-58a3-4ae7-95b4-d3a3b57fbb11"
      ]
    },
    "titles": {
      "qro": "Super Star Spectacle",
      "jpn": "スーパー スタァ スペクタクル"
    },
    "titles_default_language": "qro",
    "year": 2021
  }
}