{
  "header": {
    "version": 4,
    "description": "Karaoke Mugen Karaoke Data File"
  },
  "medias": [
    {
      "version": "Default",
      "filename": "JPN - BTOB - MV - Dear Bride.mp4",
      "audiogain": -9.38,
      "loudnorm": "-7.97,2.39,5.00,-18.09,-0.44",
      "filesize": 59564987,
      "duration": 303,
      "default": true,
      "lyrics": [
        {
          "filename": "JPN - BTOB - MV - Dear Bride.ass",
          "default": true,
          "version": "Default"
        }
      ]
    }
  ],
  "data": {
    "created_at": "2019-10-06T15:44:02.000Z",
    "kid": "6c8c94c6-d68e-4a82-822e-667e93393877",
    "modified_at": "2022-05-26T16:19:23.562Z",
    "repository": "kara.moe",
    "songorder": null,
    "tags": {
      "authors": [
        "622e2a6d-e4e8-4ff5-b218-890e8d7a3abf"
      ],
      "creators": [
        "0635fc01-24ee-40db-b419-7b9c81f23b0c"
      ],
      "families": [
        "5391f9fe-638c-415f-8dc9-958e3a2c5787"
      ],
      "groups": [
        "2b4e9972-5e17-481b-99f5-d0787c0ada56",
        "ae613721-1fbe-480d-ba6b-d6d0702b184d"
      ],
      "langs": [
        "4dcf9614-7914-42aa-99f4-dbce2e059133"
      ],
      "misc": [
        "86705d4b-24e4-4756-9687-2b9c98bcf366"
      ],
      "singers": [
        "e29ca23d-958f-47c3-892c-605e38dd0b41"
      ],
      "songtypes": [
        "7be1b15c-cff8-4b37-a649-5c90f3d569a9"
      ],
      "collections": [
        "dbcf2c22-524d-4708-99bb-601703633927"
      ]
    },
    "titles": {
      "eng": "Dear Bride"
    },
    "titles_default_language": "eng",
    "title": "Dear Bride",
    "year": 2016
  }
}