{
  "header": {
    "version": 4,
    "description": "Karaoke Mugen Karaoke Data File"
  },
  "medias": [
    {
      "version": "Default",
      "filename": "JPN - Hagane no Renkinjutsushi Fullmetal Alchemist - OP5 - Rain.mp4",
      "audiogain": -10.32,
      "loudnorm": "-7.08,1.45,5.80,-17.19,-1.69",
      "filesize": 44820841,
      "duration": 90,
      "default": true,
      "lyrics": [
        {
          "filename": "JPN - Hagane no Renkinjutsushi Fullmetal Alchemist - OP5 - Rain.ass",
          "default": true,
          "version": "Default",
          "subchecksum": "4e4bc344733940a2233dcdc54ae955e7"
        }
      ]
    }
  ],
  "data": {
    "created_at": "2017-10-11T17:02:23.000Z",
    "kid": "d38f5cf7-890d-40f2-aabd-8e986af51122",
    "modified_at": "2021-02-25T11:35:21.208Z",
    "repository": "kara.moe",
    "songorder": 5,
    "tags": {
      "authors": [
        "5bdaba57-27f8-4568-8806-76a807728766"
      ],
      "collections": [
        "c7db86a0-ff64-4044-9be4-66dd1ef1d1c1"
      ],
      "creators": [
        "57ffcdd9-7e4f-4971-85ce-0fb3aa8151ac"
      ],
      "families": [
        "0377db02-3af6-43b8-9b08-c759df3d25c3"
      ],
      "genres": [
        "a0aeef4a-6428-45ff-a6e1-468b595930c2"
      ],
      "groups": [
        "ae613721-1fbe-480d-ba6b-d6d0702b184d"
      ],
      "langs": [
        "4dcf9614-7914-42aa-99f4-dbce2e059133"
      ],
      "origins": [
        "938de218-5343-4865-94d3-fb33f2eaa152"
      ],
      "series": [
        "9efa9cb0-6474-4f49-9757-08aed6e3274d"
      ],
      "singers": [
        "bc46a63f-6339-4e30-8f6f-a8d487273f8b"
      ],
      "songtypes": [
        "f02ad9b3-0bd9-4aad-85b3-9976739ba0e4"
      ],
      "songwriters": [
        "4cd542cf-abb6-443f-a653-7e2bf5d90985",
        "b4b4097c-cf29-48ee-97e1-90f166ca2dc5"
      ],
      "franchises": [
        "3df1aaa7-e69a-4a6f-86cb-75544f0dd48a"
      ]
    },
    "title": "Rain",
    "titles": {
      "eng": "Rain",
      "jpn": "レイン"
    },
    "year": 2010,
    "titles_default_language": "eng"
  }
}