{
  "header": {
    "version": 4,
    "description": "Karaoke Mugen Karaoke Data File"
  },
  "medias": [
    {
      "version": "Default",
      "filename": "JPN - Suzumiya Haruhi no Yuuutsu - AUDIO CS - Megassa Koukishin.mp3",
      "loudnorm": "-9.25,1.72,5.70,-19.35,-0.80",
      "filesize": 5161172,
      "duration": 313,
      "default": true,
      "lyrics": [
        {
          "filename": "JPN - Suzumiya Haruhi no Yuuutsu - AUDIO CS - Megassa Koukishin.ass",
          "default": true,
          "version": "Default"
        }
      ]
    }
  ],
  "data": {
    "comment": "#8874",
    "created_at": "2023-09-30T09:23:09.270Z",
    "ignoreHooks": false,
    "kid": "5a3dc507-f2cd-4b85-b9f5-9f97de8e0b35",
    "modified_at": "2023-09-30T09:24:31.014Z",
    "repository": "kara.moe",
    "tags": {
      "authors": [
        "4749577f-84d7-470b-bfa8-09c6f9a97c32"
      ],
      "collections": [
        "c7db86a0-ff64-4044-9be4-66dd1ef1d1c1",
        "dbcf2c22-524d-4708-99bb-601703633927"
      ],
      "creators": [
        "b2805292-730e-473a-96f0-fd8e7ffd1fd7"
      ],
      "groups": [
        "3c14c864-533c-49e6-a3cc-6969f1233775"
      ],
      "langs": [
        "4dcf9614-7914-42aa-99f4-dbce2e059133"
      ],
      "series": [
        "4f132535-c7b6-4147-a324-6995aad44df7"
      ],
      "singers": [
        "0bc9a85f-a977-4907-9028-31a80d815119"
      ],
      "songtypes": [
        "42a262ae-acba-4ab5-a446-c5789c96c821",
        "a8a2616c-b5a1-4df3-ad6f-89291bc67dee"
      ],
      "songwriters": [
        "5241d5a1-f19d-4af6-9cf6-d41a69c3d481",
        "c507c86f-5ea0-4335-87bc-c515853d9424",
        "f41e7218-6c19-4e19-9b5f-4612dcd58243"
      ],
      "franchises": [
        "4f132535-c7b6-4147-a324-6995aad44df7"
      ],
      "misc": [
        "86705d4b-24e4-4756-9687-2b9c98bcf366"
      ]
    },
    "titles": {
      "jpn": "めがっさ好奇心",
      "qro": "Megassa Koukishin"
    },
    "titles_default_language": "qro",
    "year": 2006
  }
}