{
  "header": {
    "version": 4,
    "description": "Karaoke Mugen Karaoke Data File"
  },
  "medias": [
    {
      "version": "Default",
      "filename": "JPN - Kidou Tenshi Angelic Layer - AUDIO ED2 - Ameagari ~ Full Off Vocal Vers.mp3",
      "audiogain": -9.64,
      "loudnorm": "-7.34,0.89,3.30,-17.41,-0.54",
      "filesize": 7328245,
      "duration": 300,
      "default": true,
      "lyrics": [
        {
          "filename": "JPN - Kidou Tenshi Angelic Layer - AUDIO ED2 - Ameagari ~ Full Off Vocal Vers.ass",
          "default": true,
          "version": "Default"
        }
      ]
    }
  ],
  "data": {
    "created_at": "2023-07-13T16:03:39.705Z",
    "ignoreHooks": false,
    "kid": "8c7781d0-396c-4b30-9e8c-13fcc8581e69",
    "modified_at": "2023-07-13T16:03:39.791Z",
    "parents": [
      "e6a9a523-31ae-4057-b081-c6eab110af31"
    ],
    "repository": "kara.moe",
    "songorder": 2,
    "tags": {
      "authors": [
        "1db1738f-acdc-42fc-aec3-60f4bddf660d"
      ],
      "collections": [
        "dbcf2c22-524d-4708-99bb-601703633927"
      ],
      "creators": [
        "90caf15e-bc86-46e1-8793-9af7906c8310"
      ],
      "groups": [
        "3c14c864-533c-49e6-a3cc-6969f1233775"
      ],
      "langs": [
        "4dcf9614-7914-42aa-99f4-dbce2e059133"
      ],
      "series": [
        "5966797b-6a37-4c81-b2b5-790c199c2aa0"
      ],
      "singers": [
        "7a264aad-0996-452a-bb8f-963a804245a9"
      ],
      "songtypes": [
        "38c77c56-2b95-4040-b676-0994a8cb0597",
        "42a262ae-acba-4ab5-a446-c5789c96c821"
      ],
      "songwriters": [
        "38e2407f-e820-4cfc-a866-99454e901138",
        "a96154d0-c6e0-494b-b8e6-bb26228b595b",
        "ec884f1d-0a6a-47f8-81df-84a79934f28e"
      ],
      "versions": [
        "c2143a7f-6970-450e-8a79-0302db9220a9",
        "c0cc87b9-55b9-40f0-878a-fbb9e34c151e"
      ]
    },
    "titles": {
      "jpn": "雨あがり",
      "qro": "Ameagari"
    },
    "titles_default_language": "qro",
    "year": 2001
  }
}