{
  "header": {
    "version": 4,
    "description": "Karaoke Mugen Karaoke Data File"
  },
  "medias": [
    {
      "version": "Default",
      "filename": "JPN - Yoroiden Samurai Troopers - OP1 - Stardust Eyes.mp4",
      "audiogain": -5.01,
      "loudnorm": "-12.58,0.03,4.10,-22.58,-0.65",
      "filesize": 24285126,
      "duration": 88,
      "default": true,
      "lyrics": [
        {
          "filename": "JPN - Yoroiden Samurai Troopers - OP1 - Stardust Eyes.ass",
          "default": true,
          "version": "Default",
          "subchecksum": "941c98758d2c73c469ac0669a668d72d"
        }
      ]
    }
  ],
  "data": {
    "created_at": "2017-10-11T17:01:42.000Z",
    "kid": "3f56f0b2-cf45-42e8-9ba6-9953f8ce5389",
    "modified_at": "2021-02-25T13:39:59.349Z",
    "repository": "kara.moe",
    "songorder": 1,
    "tags": {
      "authors": [
        "63170f92-dc2b-438f-b9bb-b686a60876b0"
      ],
      "collections": [
        "c7db86a0-ff64-4044-9be4-66dd1ef1d1c1"
      ],
      "creators": [
        "ef8f80e1-d244-4aea-b7f0-984d6dd4b82b"
      ],
      "families": [
        "0377db02-3af6-43b8-9b08-c759df3d25c3"
      ],
      "groups": [
        "7792cc27-9ff9-4d47-9287-2338b7db1575"
      ],
      "langs": [
        "4dcf9614-7914-42aa-99f4-dbce2e059133"
      ],
      "misc": [
        "fe819ff1-9db8-4a0f-85dc-0e322c9126c4"
      ],
      "origins": [
        "938de218-5343-4865-94d3-fb33f2eaa152"
      ],
      "series": [
        "67327f74-9d50-4e1d-8873-7d6bb2a1a0fa"
      ],
      "singers": [
        "38a219af-00c9-48d0-922c-9b2d7c8e68c6"
      ],
      "songtypes": [
        "f02ad9b3-0bd9-4aad-85b3-9976739ba0e4"
      ],
      "songwriters": [
        "3a1e9825-7b6d-45bd-854a-1a1d9fba3a1d",
        "d27eb436-65b1-404c-9b7c-93bc90e133e0"
      ]
    },
    "title": "Stardust Eyes",
    "titles": {
      "eng": "Stardust Eyes",
      "jpn": "スターダストアイズ"
    },
    "year": 1988,
    "titles_default_language": "eng"
  }
}