{
  "header": {
    "version": 4,
    "description": "Karaoke Mugen Karaoke Data File"
  },
  "medias": [
    {
      "version": "Default",
      "filename": "JPN - BUMP OF CHICKEN - MV - Tensai Kansoku.mp4",
      "audiogain": -5.04,
      "loudnorm": "-11.80,-1.12,2.30,-21.91,-0.91",
      "filesize": 60103192,
      "duration": 271,
      "default": true,
      "lyrics": [
        {
          "filename": "JPN - BUMP OF CHICKEN - MV - Tensai Kansoku.ass",
          "default": true,
          "version": "Default"
        }
      ]
    }
  ],
  "data": {
    "created_at": "2022-01-21T22:22:10.688Z",
    "kid": "b15a0dce-b948-4738-8d63-8bb8d8a6a8ac",
    "modified_at": "2022-06-04T00:20:46.679Z",
    "repository": "kara.moe",
    "songorder": null,
    "tags": {
      "authors": [
        "06852e02-b77e-4106-b6f7-2d03942ad0ea"
      ],
      "creators": [
        "6697d31b-7f60-4d11-b237-8eb72740fd8a"
      ],
      "families": [
        "5391f9fe-638c-415f-8dc9-958e3a2c5787"
      ],
      "groups": [
        "3c14c864-533c-49e6-a3cc-6969f1233775"
      ],
      "langs": [
        "4dcf9614-7914-42aa-99f4-dbce2e059133"
      ],
      "singers": [
        "a027724c-6136-4dc1-b585-7ae8f780c8d2"
      ],
      "songtypes": [
        "7be1b15c-cff8-4b37-a649-5c90f3d569a9"
      ],
      "songwriters": [
        "20a392bf-0517-4d22-a08c-46345d1077fe"
      ],
      "collections": [
        "dbcf2c22-524d-4708-99bb-601703633927"
      ]
    },
    "titles": {
      "qro": "Tentai Kansoku",
      "jpn": "天体観測"
    },
    "titles_default_language": "qro",
    "title": "Tensai Kansoku",
    "year": 2001
  }
}