{
  "header": {
    "version": 4,
    "description": "Karaoke Mugen Karaoke Data File"
  },
  "medias": [
    {
      "version": "Default",
      "filename": "JPN - Love Live! Sunshine!! - MV - PURE PHRASE.mp4",
      "audiogain": 0.08,
      "loudnorm": "-17.18,-7.92,4.70,-27.27,-1.33",
      "filesize": 41801343,
      "duration": 307,
      "default": true,
      "lyrics": [
        {
          "filename": "JPN - Love Live! Sunshine!! - MV - PURE PHRASE.ass",
          "default": true,
          "version": "Default",
          "subchecksum": "5adee2f91a21d96758551349ed00a6f7"
        }
      ]
    }
  ],
  "data": {
    "created_at": "2020-11-22T02:07:01.223Z",
    "kid": "a1b66932-e153-4bf4-b585-90641f8bca86",
    "modified_at": "2021-02-25T12:14:31.365Z",
    "repository": "kara.moe",
    "tags": {
      "authors": [
        "278c6742-0b75-43dd-b317-2ea112952b4a"
      ],
      "collections": [
        "c7db86a0-ff64-4044-9be4-66dd1ef1d1c1"
      ],
      "creators": [
        "b2805292-730e-473a-96f0-fd8e7ffd1fd7"
      ],
      "families": [
        "0377db02-3af6-43b8-9b08-c759df3d25c3"
      ],
      "genres": [
        "caa86df2-0d59-474b-885c-f240a9e891b0"
      ],
      "groups": [
        "8c22c899-b3ed-42da-a548-ce00f950798b",
        "8e209ae4-4381-438f-89dc-1b21752027d2"
      ],
      "langs": [
        "4dcf9614-7914-42aa-99f4-dbce2e059133"
      ],
      "misc": [
        "86705d4b-24e4-4756-9687-2b9c98bcf366"
      ],
      "series": [
        "63466536-1102-4f91-b167-4380d274e2a3"
      ],
      "singers": [
        "81f96b53-701d-4886-80ba-71f256e051a2"
      ],
      "songtypes": [
        "7be1b15c-cff8-4b37-a649-5c90f3d569a9"
      ],
      "songwriters": [
        "523d1d14-61df-43ec-8b43-45acf400bcd6",
        "f41e7218-6c19-4e19-9b5f-4612dcd58243"
      ],
      "franchises": [
        "fd5d066e-e85a-4eea-8688-2979a887450a"
      ]
    },
    "title": "PURE PHRASE",
    "titles": {
      "eng": "PURE PHRASE"
    },
    "year": 2020,
    "titles_default_language": "eng"
  }
}