{
  "header": {
    "version": 4,
    "description": "Karaoke Mugen Karaoke Data File"
  },
  "medias": [
    {
      "version": "Default",
      "filename": "JPN - Touhou Memories of Phantasm - OVA OP2 - Tsuki ni Murakumo Hana ni Kaze.mp4",
      "audiogain": -10.2,
      "loudnorm": "-6.73,1.20,6.70,-16.93,-0.27",
      "filesize": 32089268,
      "duration": 112,
      "default": true,
      "lyrics": [
        {
          "filename": "JPN - Touhou Memories of Phantasm - OVA OP2 - Tsuki ni Murakumo Hana ni Kaze.ass",
          "default": true,
          "version": "Default"
        }
      ]
    }
  ],
  "data": {
    "created_at": "2017-10-11T17:02:51.000Z",
    "ignoreHooks": false,
    "kid": "ab38390f-090a-4ef5-a13b-fec751b06188",
    "modified_at": "2023-02-04T14:09:48.294Z",
    "repository": "kara.moe",
    "songorder": 2,
    "tags": {
      "authors": [
        "c2205bc1-b31a-4bbd-8953-7070204b5cbf"
      ],
      "collections": [
        "c7db86a0-ff64-4044-9be4-66dd1ef1d1c1"
      ],
      "creators": [
        "c8511993-c6df-4250-8f38-5bb8abc6b942"
      ],
      "families": [
        "0377db02-3af6-43b8-9b08-c759df3d25c3"
      ],
      "groups": [
        "8c22c899-b3ed-42da-a548-ce00f950798b",
        "ae613721-1fbe-480d-ba6b-d6d0702b184d"
      ],
      "langs": [
        "4dcf9614-7914-42aa-99f4-dbce2e059133"
      ],
      "origins": [
        "2a6ef087-a000-4f8e-aeb5-9a7968756a36"
      ],
      "series": [
        "1bf5248b-57fe-4e4f-ba6c-d508cc427b16"
      ],
      "singers": [
        "7f848493-f1e9-49d7-bfdd-df6ff41dec94"
      ],
      "songtypes": [
        "f02ad9b3-0bd9-4aad-85b3-9976739ba0e4"
      ],
      "songwriters": [
        "26cb5252-8510-49e0-897c-a611a05fc056",
        "6539217d-b35c-4316-87b0-f25b3a86d289",
        "6c57bb27-313a-463c-8260-05a064851212"
      ],
      "franchises": [
        "1bdaa5a1-dfa6-4365-b746-7a0b194dafd6"
      ]
    },
    "titles": {
      "jpn": "月に叢雲華に風",
      "qro": "Tsuki ni Murakumo Hana ni Kaze"
    },
    "titles_default_language": "qro",
    "year": 2013
  }
}