{
  "header": {
    "version": 4,
    "description": "Karaoke Mugen Karaoke Data File"
  },
  "medias": [
    {
      "version": "Default",
      "filename": "JPN - Tenshi no Nichou Kenjuu Angelos Armas - GAME OP2 - Kesshou.mp4",
      "audiogain": -9.66,
      "loudnorm": "-8.64,0.64,7.90,-18.66,-1.94",
      "filesize": 54254166,
      "duration": 90,
      "default": true,
      "lyrics": [
        {
          "filename": "JPN - Tenshi no Nichou Kenjuu Angelos Armas - GAME OP2 - Kesshou.ass",
          "default": true,
          "version": "Default"
        }
      ]
    }
  ],
  "data": {
    "created_at": "2017-10-11T17:03:11.000Z",
    "ignoreHooks": false,
    "kid": "85670a57-c802-4824-8ac5-5906aa191fb9",
    "modified_at": "2022-07-24T21:38:02.151Z",
    "repository": "kara.moe",
    "songorder": 2,
    "tags": {
      "authors": [
        "5bdaba57-27f8-4568-8806-76a807728766"
      ],
      "collections": [
        "c7db86a0-ff64-4044-9be4-66dd1ef1d1c1"
      ],
      "creators": [
        "d8c36618-4baf-4969-a667-188a901a1f00"
      ],
      "groups": [
        "3c14c864-533c-49e6-a3cc-6969f1233775"
      ],
      "langs": [
        "4dcf9614-7914-42aa-99f4-dbce2e059133"
      ],
      "series": [
        "c87a7f7b-20cf-4d7d-98fb-722910f4eec6"
      ],
      "singers": [
        "3b97f60d-23e3-4e23-bf7f-9835bba682a7"
      ],
      "songtypes": [
        "f02ad9b3-0bd9-4aad-85b3-9976739ba0e4"
      ],
      "songwriters": [
        "090f4e68-cddb-4760-814d-465e101a3b91",
        "cde0e979-7f7a-4450-a2cc-faf3251b09fe",
        "eae43792-43ca-44cd-871b-5d46e5531c45"
      ],
      "origins": [
        "dbedd6b3-d125-4cd8-aa32-c4175e4ca3a3"
      ]
    },
    "titles": {
      "qro": "Kesshô",
      "jpn": "結晶"
    },
    "titles_default_language": "qro",
    "titles_aliases": [
      "Kesshou"
    ],
    "title": "Kesshô",
    "year": 2004
  }
}