{
  "header": {
    "version": 4,
    "description": "Karaoke Mugen Karaoke Data File"
  },
  "medias": [
    {
      "version": "Default",
      "filename": "JPN - Macross Frontier - OP3 - LION.mp4",
      "audiogain": -9.86,
      "loudnorm": "-7.65,0.06,3.40,-17.76,-0.61",
      "filesize": 46482879,
      "duration": 91,
      "default": true,
      "lyrics": [
        {
          "filename": "JPN - Macross Frontier - OP3 - LION.ass",
          "default": true,
          "version": "Default"
        }
      ]
    }
  ],
  "data": {
    "created_at": "2017-10-11T17:01:59.000Z",
    "ignoreHooks": false,
    "kid": "057ff76e-ca7b-42ba-a7cc-34b6a75315fe",
    "modified_at": "2023-05-07T20:20:51.872Z",
    "repository": "kara.moe",
    "songorder": 3,
    "tags": {
      "authors": [
        "fa399f2f-ea1d-4902-8796-ea6d8218aff0"
      ],
      "collections": [
        "c7db86a0-ff64-4044-9be4-66dd1ef1d1c1"
      ],
      "creators": [
        "0041fabf-4b82-4ecd-961b-e4c49b8c88be"
      ],
      "families": [
        "0377db02-3af6-43b8-9b08-c759df3d25c3"
      ],
      "genres": [
        "caa86df2-0d59-474b-885c-f240a9e891b0",
        "f60ba57d-5ef4-49e0-b93b-d0dcbcff6592"
      ],
      "groups": [
        "3c14c864-533c-49e6-a3cc-6969f1233775",
        "9a8e0fbc-dcae-4989-be82-7cad3436f1f5"
      ],
      "langs": [
        "4dcf9614-7914-42aa-99f4-dbce2e059133"
      ],
      "misc": [
        "1d6ceadf-a885-47e5-b23b-c07bf668a424",
        "fe819ff1-9db8-4a0f-85dc-0e322c9126c4"
      ],
      "origins": [
        "938de218-5343-4865-94d3-fb33f2eaa152"
      ],
      "series": [
        "2d597a9c-87d8-4da3-a258-7c510480530a"
      ],
      "singers": [
        "73b841c7-d13c-44b4-9018-1727721742d1",
        "5d438e3b-b8e6-43c9-9fdf-2016a6bbc42f"
      ],
      "songtypes": [
        "f02ad9b3-0bd9-4aad-85b3-9976739ba0e4"
      ],
      "songwriters": [
        "54000730-0779-445e-b865-bf6cf2175579",
        "af0be06d-ea2d-4f46-85d1-58cf9f42532a"
      ],
      "franchises": [
        "01b9b958-2d2a-43d0-a5dd-efb5b14675ea"
      ]
    },
    "titles": {
      "eng": "LION",
      "jpn": "ライオン"
    },
    "titles_default_language": "eng",
    "year": 2008
  }
}