{
  "header": {
    "version": 4,
    "description": "Karaoke Mugen Karaoke Data File"
  },
  "medias": [
    {
      "version": "Default",
      "filename": "JPN - AKB0048 - IN - Aitakatta.mp4",
      "audiogain": -2.97,
      "loudnorm": "-14.83,-2.09,3.10,-24.83,-0.22",
      "filesize": 80993387,
      "duration": 106,
      "default": true,
      "lyrics": [
        {
          "filename": "JPN - AKB0048 - IN - Aitakatta.ass",
          "default": true,
          "version": "Default",
          "subchecksum": "6296b1ffa900c58c87f866cc6cb174f1"
        }
      ]
    }
  ],
  "data": {
    "created_at": "2017-10-11T17:01:17.000Z",
    "kid": "5793bc60-e44b-466a-b8f1-84a7fbf16514",
    "modified_at": "2021-02-25T10:40:46.604Z",
    "parents": [
      "4141ce47-cc80-4b89-8271-b0038efcbd67"
    ],
    "repository": "kara.moe",
    "tags": {
      "authors": [
        "5bdaba57-27f8-4568-8806-76a807728766"
      ],
      "collections": [
        "c7db86a0-ff64-4044-9be4-66dd1ef1d1c1"
      ],
      "creators": [
        "0041fabf-4b82-4ecd-961b-e4c49b8c88be"
      ],
      "families": [
        "0377db02-3af6-43b8-9b08-c759df3d25c3"
      ],
      "genres": [
        "caa86df2-0d59-474b-885c-f240a9e891b0"
      ],
      "groups": [
        "ae613721-1fbe-480d-ba6b-d6d0702b184d"
      ],
      "langs": [
        "4dcf9614-7914-42aa-99f4-dbce2e059133"
      ],
      "origins": [
        "938de218-5343-4865-94d3-fb33f2eaa152"
      ],
      "series": [
        "bd559e4c-b15d-43e3-b340-1de2c302b0d7"
      ],
      "singers": [
        "0efdee07-82c8-47e8-8872-b0c279007c30"
      ],
      "songtypes": [
        "5e5250d9-351a-4a82-98eb-55db50ad8962"
      ],
      "songwriters": [
        "19045a57-4bc4-4c83-ad1c-3fa9a3b701b1",
        "dc26c201-943f-46f0-8195-19d80b3761dc"
      ],
      "franchises": [
        "bd559e4c-b15d-43e3-b340-1de2c302b0d7"
      ]
    },
    "title": "Aitakatta",
    "titles": {
      "qro": "Aitakatta",
      "jpn": "会いたかった"
    },
    "year": 2012,
    "titles_default_language": "qro"
  }
}