{
  "header": {
    "version": 4,
    "description": "Karaoke Mugen Karaoke Data File"
  },
  "medias": [
    {
      "version": "Default",
      "filename": "JPN - Genjitsu no Yohane -SUNSHINE in the MIRROR- - IN - Forever U & I.mp4",
      "loudnorm": "-16.99,-5.03,11.60,-27.80,-2.05",
      "filesize": 53114800,
      "duration": 103,
      "default": true,
      "lyrics": [
        {
          "filename": "JPN - Genjitsu no Yohane -SUNSHINE in the MIRROR- - IN - Forever U & I.ass",
          "default": true,
          "version": "Default"
        }
      ]
    }
  ],
  "data": {
    "created_at": "2023-09-11T19:12:50.751Z",
    "ignoreHooks": false,
    "kid": "86e96cef-3a11-4638-98e7-849f96c9143f",
    "modified_at": "2023-09-11T19:12:50.751Z",
    "repository": "kara.moe",
    "tags": {
      "authors": [
        "449844e4-3a1f-46e1-8a92-bf72e2d1b6f1"
      ],
      "collections": [
        "c7db86a0-ff64-4044-9be4-66dd1ef1d1c1"
      ],
      "creators": [
        "b2805292-730e-473a-96f0-fd8e7ffd1fd7"
      ],
      "families": [
        "0377db02-3af6-43b8-9b08-c759df3d25c3"
      ],
      "genres": [
        "caa86df2-0d59-474b-885c-f240a9e891b0"
      ],
      "groups": [
        "8e209ae4-4381-438f-89dc-1b21752027d2"
      ],
      "langs": [
        "4dcf9614-7914-42aa-99f4-dbce2e059133"
      ],
      "series": [
        "7088e690-114c-45fb-8044-1839b7151723"
      ],
      "singers": [
        "8f1cdf03-baf0-4294-bfdf-fdeedcdbeac5"
      ],
      "singergroups": [
        "b34161c7-a60d-4f1a-8436-11abc0875436"
      ],
      "songtypes": [
        "5e5250d9-351a-4a82-98eb-55db50ad8962"
      ],
      "songwriters": [
        "70fe407b-f62f-4f2d-afdc-201cd297c05f",
        "a72bfa42-bb54-4832-b1cc-023ffde9ef60"
      ],
      "franchises": [
        "fd5d066e-e85a-4eea-8688-2979a887450a"
      ]
    },
    "titles": {
      "eng": "Forever U & I"
    },
    "titles_default_language": "eng",
    "year": 2023
  }
}