{
  "header": {
    "version": 4,
    "description": "Karaoke Mugen Karaoke Data File"
  },
  "medias": [
    {
      "version": "Orchestra.",
      "filename": "JPN - Houseki no Kuni (2017) - ED3 - Kyoumen no Nami ~ Orchestra Vers.mp4",
      "audiogain": 5.22,
      "loudnorm": "-23.97,-9.15,16.20,-35.51,-0.42",
      "filesize": 24118346,
      "duration": 133,
      "default": true,
      "lyrics": [
        {
          "filename": "JPN - Houseki no Kuni (2017) - ED3 - Kyoumen no Nami ~ Orchestra Vers.ass",
          "default": true,
          "version": "Default"
        }
      ]
    }
  ],
  "data": {
    "created_at": "2018-02-07T22:35:58.000Z",
    "ignoreHooks": false,
    "kid": "6abc6de2-b0f4-4057-a936-0bb15a8e5650",
    "modified_at": "2023-03-26T18:26:19.646Z",
    "parents": [
      "351b8349-6319-4851-a059-d142f381406e"
    ],
    "repository": "kara.moe",
    "songorder": 3,
    "tags": {
      "authors": [
        "79e03303-5603-41e6-bbe5-660afcbe41c4",
        "79e0aa7d-da9a-4e9a-aa2b-64056a83b49b"
      ],
      "collections": [
        "c7db86a0-ff64-4044-9be4-66dd1ef1d1c1"
      ],
      "creators": [
        "7d0aa18d-25ee-4f9d-9df1-dccc3d805f1d"
      ],
      "families": [
        "0377db02-3af6-43b8-9b08-c759df3d25c3"
      ],
      "groups": [
        "ae613721-1fbe-480d-ba6b-d6d0702b184d"
      ],
      "langs": [
        "4dcf9614-7914-42aa-99f4-dbce2e059133"
      ],
      "origins": [
        "938de218-5343-4865-94d3-fb33f2eaa152"
      ],
      "series": [
        "4b46e294-086a-48da-9a2b-9d4219f4c522"
      ],
      "singers": [
        "6668cc52-b622-41d7-b7b7-24d48a08045c"
      ],
      "songtypes": [
        "38c77c56-2b95-4040-b676-0994a8cb0597"
      ],
      "songwriters": [
        "6d22cf96-cd29-4069-b38e-1c86e78c2dd0",
        "8222585a-dc0f-42e4-ad35-1af82651de95"
      ]
    },
    "titles": {
      "jpn": "鏡面の波 ~ Orchestra Vers.",
      "qro": "Kyômen no Nami ~ Orchestra Vers."
    },
    "titles_default_language": "qro",
    "titles_aliases": [
      "Kyoumen"
    ],
    "year": 2017
  }
}