{
  "header": {
    "version": 4,
    "description": "Karaoke Mugen Karaoke Data File"
  },
  "medias": [
    {
      "version": "Default",
      "filename": "JPN - Suzumiya Haruhi no Yuuutsu - AUDIO CS - SELECT question_mark.mp3",
      "loudnorm": "-10.62,1.99,7.20,-20.75,-1.09",
      "filesize": 4281438,
      "duration": 260,
      "default": true,
      "lyrics": [
        {
          "filename": "JPN - Suzumiya Haruhi no Yuuutsu - AUDIO CS - SELECT question_mark.ass",
          "default": true,
          "version": "Default"
        }
      ]
    }
  ],
  "data": {
    "comment": "#8764 ; https://vgmdb.net/album/41091 piste 2",
    "created_at": "2023-09-05T13:36:19.821Z",
    "ignoreHooks": false,
    "kid": "5fa0e4b9-7647-4b3a-8ce5-a8626f1df03d",
    "modified_at": "2023-09-05T13:36:19.821Z",
    "repository": "kara.moe",
    "tags": {
      "authors": [
        "4749577f-84d7-470b-bfa8-09c6f9a97c32"
      ],
      "collections": [
        "dbcf2c22-524d-4708-99bb-601703633927",
        "c7db86a0-ff64-4044-9be4-66dd1ef1d1c1"
      ],
      "creators": [
        "b2805292-730e-473a-96f0-fd8e7ffd1fd7"
      ],
      "groups": [
        "3c14c864-533c-49e6-a3cc-6969f1233775"
      ],
      "langs": [
        "4dcf9614-7914-42aa-99f4-dbce2e059133"
      ],
      "series": [
        "4f132535-c7b6-4147-a324-6995aad44df7"
      ],
      "singers": [
        "8c3ef7dd-5265-4527-ac49-c604ab822add"
      ],
      "songtypes": [
        "42a262ae-acba-4ab5-a446-c5789c96c821",
        "a8a2616c-b5a1-4df3-ad6f-89291bc67dee"
      ],
      "songwriters": [
        "f41e7218-6c19-4e19-9b5f-4612dcd58243",
        "85947522-a6d4-453f-94c1-6079ce98da3f",
        "7561b8a7-eb50-40ea-b0ea-49f7b4f0b3e0",
        "2e00e240-6c06-49c3-869e-fbd5bb970a44"
      ],
      "franchises": [
        "4f132535-c7b6-4147-a324-6995aad44df7"
      ]
    },
    "titles": {
      "eng": "SELECT?"
    },
    "titles_default_language": "eng",
    "year": 2006
  }
}