{
  "header": {
    "version": 4,
    "description": "Karaoke Mugen Karaoke Data File"
  },
  "medias": [
    {
      "version": "Default",
      "filename": "JPN - WORLD ORDER - MV - Have a Nice Day.mp4",
      "audiogain": -9.93,
      "loudnorm": "-6.90,2.12,3.60,-16.94,-0.70",
      "filesize": 45276923,
      "duration": 241,
      "default": true,
      "lyrics": [
        {
          "filename": "JPN - WORLD ORDER - MV - Have a Nice Day.ass",
          "default": true,
          "version": "Default"
        }
      ]
    }
  ],
  "data": {
    "created_at": "2018-06-18T19:40:28.000Z",
    "kid": "108786d2-3e7a-4a5b-b58f-0b961c6540b7",
    "modified_at": "2022-06-04T00:19:26.853Z",
    "repository": "kara.moe",
    "songorder": null,
    "tags": {
      "authors": [
        "09c0bae3-a2f0-4e47-bf66-629df6dc4b55"
      ],
      "creators": [
        "97e62433-0f2f-4e1b-ba1e-109eec95dc11"
      ],
      "families": [
        "5391f9fe-638c-415f-8dc9-958e3a2c5787"
      ],
      "groups": [
        "8c22c899-b3ed-42da-a548-ce00f950798b",
        "ae613721-1fbe-480d-ba6b-d6d0702b184d"
      ],
      "langs": [
        "4dcf9614-7914-42aa-99f4-dbce2e059133"
      ],
      "singers": [
        "94c8e59b-1e6a-43cc-80b1-720ea6a20942"
      ],
      "songtypes": [
        "7be1b15c-cff8-4b37-a649-5c90f3d569a9"
      ],
      "songwriters": [
        "fbf2ca7b-7c3e-4c42-b7c3-16733b0e6324"
      ],
      "collections": [
        "dbcf2c22-524d-4708-99bb-601703633927"
      ]
    },
    "titles": {
      "eng": "HAVE A NICE DAY"
    },
    "titles_default_language": "eng",
    "title": "Have a Nice Day",
    "year": 2014
  }
}