{
  "header": {
    "version": 4,
    "description": "Karaoke Mugen Karaoke Data File"
  },
  "medias": [
    {
      "version": "Default",
      "filename": "JPN - Gekijouban Hagane no Renkinjutsushi Shambala o Yuku Mono - LIVE - Link ~ Full Vers.mp4",
      "audiogain": -11.09,
      "loudnorm": "-5.24,2.41,1.90,-15.24,-0.15",
      "filesize": 221486165,
      "duration": 284,
      "default": true,
      "lyrics": [
        {
          "filename": "JPN - Gekijouban Hagane no Renkinjutsushi Shambala o Yuku Mono - LIVE - Link ~ Full Vers.ass",
          "default": true,
          "version": "Default"
        }
      ]
    }
  ],
  "data": {
    "created_at": "2021-06-08T21:33:50.951Z",
    "ignoreHooks": false,
    "kid": "e3429d95-5e46-480d-b16f-d2a7bfec0995",
    "modified_at": "2022-12-21T22:36:36.361Z",
    "parents": [
      "8c945639-c97b-44f6-803d-a29ffea2deee"
    ],
    "repository": "kara.moe",
    "tags": {
      "authors": [
        "70e26885-c0b5-4a01-b95b-2f492b8a8f10"
      ],
      "collections": [
        "dbcf2c22-524d-4708-99bb-601703633927"
      ],
      "creators": [
        "6df34030-d5ec-4480-a1c2-20103a7c0b63"
      ],
      "families": [
        "5391f9fe-638c-415f-8dc9-958e3a2c5787"
      ],
      "groups": [
        "ae613721-1fbe-480d-ba6b-d6d0702b184d"
      ],
      "langs": [
        "4dcf9614-7914-42aa-99f4-dbce2e059133"
      ],
      "series": [
        "8179f306-102b-4319-a631-e369e5442aa1"
      ],
      "singers": [
        "4061a0fb-641d-4a33-9968-b26313bab59c"
      ],
      "songtypes": [
        "a0167949-580c-4de3-bf13-497e462e02f3"
      ],
      "songwriters": [
        "214cd260-b324-44ae-8172-6e6dbbf4b776",
        "d9dfb8ac-7af2-46de-b963-b91d5d1a580c"
      ],
      "versions": [
        "c2143a7f-6970-450e-8a79-0302db9220a9"
      ],
      "franchises": [
        "3df1aaa7-e69a-4a6f-86cb-75544f0dd48a"
      ]
    },
    "titles": {
      "eng": "Link"
    },
    "titles_default_language": "eng",
    "year": 2015
  }
}