{
  "header": {
    "version": 4,
    "description": "Karaoke Mugen Karaoke Data File"
  },
  "medias": [
    {
      "version": "Default",
      "filename": "JPN - Shingeki no Kyojin - MV - Guren no Yumiya ~ Full Vers.mp4",
      "audiogain": 4.07,
      "loudnorm": "-21.34,-8.62,4.70,-31.52,-0.68",
      "filesize": 155546098,
      "duration": 317,
      "default": true,
      "lyrics": [
        {
          "filename": "JPN - Shingeki no Kyojin - MV - Guren no Yumiya ~ Full Vers.ass",
          "default": true,
          "version": "Default"
        }
      ]
    }
  ],
  "data": {
    "created_at": "2019-10-28T16:54:51.000Z",
    "kid": "b38fe848-4d02-4f6b-9fbf-41e03692299d",
    "modified_at": "2022-06-04T00:14:28.408Z",
    "parents": [
      "7083ef77-d7bb-4024-beed-b95ffafa4ca0"
    ],
    "repository": "kara.moe",
    "songorder": null,
    "tags": {
      "authors": [
        "1db1738f-acdc-42fc-aec3-60f4bddf660d"
      ],
      "creators": [
        "97e62433-0f2f-4e1b-ba1e-109eec95dc11"
      ],
      "families": [
        "5391f9fe-638c-415f-8dc9-958e3a2c5787"
      ],
      "groups": [
        "ae613721-1fbe-480d-ba6b-d6d0702b184d"
      ],
      "langs": [
        "4dcf9614-7914-42aa-99f4-dbce2e059133"
      ],
      "misc": [
        "86705d4b-24e4-4756-9687-2b9c98bcf366"
      ],
      "series": [
        "1086e47f-30cd-4219-9454-4ad608f07481"
      ],
      "singers": [
        "b8a6a413-a6a1-4661-a39f-68b153a9a131"
      ],
      "songtypes": [
        "7be1b15c-cff8-4b37-a649-5c90f3d569a9"
      ],
      "songwriters": [
        "f632783b-a47f-44ce-b8c8-1908873bc83c"
      ],
      "versions": [
        "c2143a7f-6970-450e-8a79-0302db9220a9"
      ],
      "collections": [
        "dbcf2c22-524d-4708-99bb-601703633927"
      ],
      "franchises": [
        "1086e47f-30cd-4219-9454-4ad608f07481"
      ]
    },
    "titles": {
      "qro": "Guren no Yumiya",
      "jpn": "紅蓮の弓矢"
    },
    "titles_default_language": "qro",
    "title": "Guren no Yumiya",
    "year": 2013
  }
}