{
  "header": {
    "version": 4,
    "description": "Karaoke Mugen Karaoke Data File"
  },
  "medias": [
    {
      "version": "Default",
      "filename": "JPN - Touhou - MV - Hi Touitsu Mahou Sekairon.mp4",
      "audiogain": -10.65,
      "loudnorm": "-6.11,0.69,1.00,-16.20,-0.79",
      "filesize": 47952941,
      "duration": 112,
      "default": true,
      "lyrics": [
        {
          "filename": "JPN - Touhou - MV - Hi Touitsu Mahou Sekairon.ass",
          "default": true,
          "version": "Default"
        }
      ]
    }
  ],
  "data": {
    "created_at": "2023-06-19T16:38:49.391Z",
    "ignoreHooks": false,
    "kid": "6b5c7c6c-cb84-4927-9a6a-3e1cb7470ad2",
    "modified_at": "2023-06-19T17:28:35.082Z",
    "repository": "kara.moe",
    "tags": {
      "authors": [
        "1fbfef73-6731-40df-ba51-65a54b9d1605"
      ],
      "collections": [
        "c7db86a0-ff64-4044-9be4-66dd1ef1d1c1"
      ],
      "creators": [
        "ca654b25-30b5-4054-a2c0-35028fdcae22"
      ],
      "families": [
        "0377db02-3af6-43b8-9b08-c759df3d25c3"
      ],
      "groups": [
        "ae613721-1fbe-480d-ba6b-d6d0702b184d"
      ],
      "langs": [
        "4dcf9614-7914-42aa-99f4-dbce2e059133"
      ],
      "origins": [
        "ac5085db-52d8-44b4-8fbb-1697b24d2046"
      ],
      "series": [
        "1bdaa5a1-dfa6-4365-b746-7a0b194dafd6"
      ],
      "singers": [
        "d5f9e745-a3ca-4184-a2bc-07369a2485b4"
      ],
      "songtypes": [
        "7be1b15c-cff8-4b37-a649-5c90f3d569a9"
      ],
      "songwriters": [
        "23351848-e3cc-4420-b564-db2bfe2b7f3d",
        "26cb5252-8510-49e0-897c-a611a05fc056",
        "61e4ef3a-b598-4a83-8696-f40ed9ee3fe9"
      ],
      "franchises": [
        "1bdaa5a1-dfa6-4365-b746-7a0b194dafd6"
      ]
    },
    "titles": {
      "jpn": "非統一魔法世界論",
      "qro": "Hi Touitsu Mahou Sekairon"
    },
    "titles_default_language": "qro",
    "titles_aliases": [
      "Disunified Magic World Theory"
    ],
    "year": 2013
  }
}