{
  "header": {
    "version": 4,
    "description": "Karaoke Mugen Karaoke Data File"
  },
  "medias": [
    {
      "version": "Default",
      "filename": "JPN - Hagane no Renkinjutsushi Fullmetal Alchemist - MV - RAY OF LIGHT ~ Full Vers.mp4",
      "audiogain": -8.69,
      "loudnorm": "-9.61,0.96,5.60,-19.72,-1.10",
      "filesize": 25415635,
      "duration": 275,
      "default": true,
      "lyrics": [
        {
          "filename": "JPN - Hagane no Renkinjutsushi Fullmetal Alchemist - MV - RAY OF LIGHT ~ Full Vers.ass",
          "default": true,
          "version": "Default"
        }
      ]
    }
  ],
  "data": {
    "created_at": "2020-04-05T15:10:01.633Z",
    "kid": "34ae6d9c-8eec-47bc-96db-39a869837358",
    "modified_at": "2022-06-04T00:21:30.706Z",
    "parents": [
      "fdcd7de0-edc9-4efe-b6ff-a43706314024"
    ],
    "repository": "kara.moe",
    "songorder": null,
    "tags": {
      "authors": [
        "1db1738f-acdc-42fc-aec3-60f4bddf660d"
      ],
      "creators": [
        "9f10c180-4ed1-4a4e-9e39-c37e09b91d5f"
      ],
      "families": [
        "5391f9fe-638c-415f-8dc9-958e3a2c5787"
      ],
      "groups": [
        "ae613721-1fbe-480d-ba6b-d6d0702b184d"
      ],
      "langs": [
        "4dcf9614-7914-42aa-99f4-dbce2e059133"
      ],
      "series": [
        "9efa9cb0-6474-4f49-9757-08aed6e3274d"
      ],
      "singers": [
        "f569a1bf-160b-42ba-98e7-ac9f61514f2f"
      ],
      "songtypes": [
        "7be1b15c-cff8-4b37-a649-5c90f3d569a9"
      ],
      "songwriters": [
        "42fdb554-1721-4c31-885b-770ac8656a2a",
        "a4e00f50-db92-4078-be76-22abb4fd05f6",
        "f569a1bf-160b-42ba-98e7-ac9f61514f2f"
      ],
      "versions": [
        "c2143a7f-6970-450e-8a79-0302db9220a9"
      ],
      "collections": [
        "dbcf2c22-524d-4708-99bb-601703633927"
      ],
      "franchises": [
        "3df1aaa7-e69a-4a6f-86cb-75544f0dd48a"
      ]
    },
    "titles": {
      "eng": "RAY OF LIGHT"
    },
    "titles_default_language": "eng",
    "title": "RAY OF LIGHT",
    "year": 2010
  }
}