{
  "header": {
    "version": 4,
    "description": "Karaoke Mugen Karaoke Data File"
  },
  "medias": [
    {
      "version": "Default",
      "filename": "JPN - Ren'ai Boukun - ED1 - Suki o Oshiete.mp4",
      "audiogain": -1.59,
      "loudnorm": "-15.51,-0.08,5.20,-25.57,-1.19",
      "filesize": 25175130,
      "duration": 90,
      "default": true,
      "lyrics": [
        {
          "filename": "JPN - Ren'ai Boukun - ED1 - Suki o Oshiete.ass",
          "default": true,
          "version": "Default"
        }
      ]
    }
  ],
  "data": {
    "created_at": "2018-07-27T21:13:26.000Z",
    "ignoreHooks": false,
    "kid": "95751d69-be8d-4f25-96cd-dbe82fa52f57",
    "modified_at": "2022-10-02T12:09:05.098Z",
    "repository": "kara.moe",
    "songorder": 1,
    "tags": {
      "authors": [
        "b5116310-e69b-4ed4-9e47-c5c53ee69023"
      ],
      "collections": [
        "c7db86a0-ff64-4044-9be4-66dd1ef1d1c1"
      ],
      "creators": [
        "071a90e9-1f9a-43e1-bac1-e583277d8420"
      ],
      "families": [
        "0377db02-3af6-43b8-9b08-c759df3d25c3"
      ],
      "groups": [
        "ae613721-1fbe-480d-ba6b-d6d0702b184d"
      ],
      "langs": [
        "4dcf9614-7914-42aa-99f4-dbce2e059133"
      ],
      "origins": [
        "938de218-5343-4865-94d3-fb33f2eaa152"
      ],
      "series": [
        "ec2a3a46-2cd4-4877-9c70-89027343dda0"
      ],
      "singers": [
        "ee535980-4cea-48ec-bb1d-15ac628104ad"
      ],
      "songtypes": [
        "38c77c56-2b95-4040-b676-0994a8cb0597"
      ],
      "songwriters": [
        "05559b85-9031-49a0-8a89-d31c2dbca6bc"
      ]
    },
    "titles": {
      "jpn": "「スキ」を教えて",
      "qro": "\"Suki\" o Oshiete"
    },
    "titles_default_language": "qro",
    "titles_aliases": [
      "Suki wo"
    ],
    "title": "\"Suki\" o Oshiete",
    "year": 2017
  }
}