{
  "header": {
    "version": 4,
    "description": "Karaoke Mugen Karaoke Data File"
  },
  "medias": [
    {
      "version": "Default",
      "filename": "JPN - Eve - MV - Nonsense Bungaku ~ Cover Vers.mp4",
      "audiogain": -12.41,
      "loudnorm": "-4.75,2.91,2.70,-14.77,-0.33",
      "filesize": 44206395,
      "duration": 206,
      "default": true,
      "lyrics": [
        {
          "filename": "JPN - Eve - MV - Nonsense Bungaku ~ Cover Vers.ass",
          "default": true,
          "version": "Default"
        }
      ]
    }
  ],
  "data": {
    "created_at": "2023-04-30T22:24:51.742Z",
    "ignoreHooks": false,
    "kid": "ef5becf8-aa8c-43d8-961c-565b9ee15b43",
    "modified_at": "2023-05-02T16:35:41.088Z",
    "parents": [
      "0832984e-e647-43a6-9832-5c65f8842202"
    ],
    "repository": "kara.moe",
    "tags": {
      "authors": [
        "a3a99b23-6c42-4d38-8863-491153187437"
      ],
      "collections": [
        "c7db86a0-ff64-4044-9be4-66dd1ef1d1c1"
      ],
      "creators": [
        "34c95391-29a5-4091-a5a7-af4913abb5c7"
      ],
      "families": [
        "0377db02-3af6-43b8-9b08-c759df3d25c3"
      ],
      "genres": [
        "45623cae-6d68-4304-a49b-896d1d6f4580"
      ],
      "groups": [
        "ae613721-1fbe-480d-ba6b-d6d0702b184d"
      ],
      "langs": [
        "4dcf9614-7914-42aa-99f4-dbce2e059133"
      ],
      "misc": [
        "ec4fee75-71fb-45b4-9772-2ca374b4b600"
      ],
      "singers": [
        "a84f6a9f-4785-48bb-9f07-fdede3de7cae"
      ],
      "songtypes": [
        "7be1b15c-cff8-4b37-a649-5c90f3d569a9"
      ],
      "songwriters": [
        "a84f6a9f-4785-48bb-9f07-fdede3de7cae"
      ],
      "versions": [
        "03e1e1d2-8641-47b7-bbcb-39a3df9ff21c"
      ]
    },
    "titles": {
      "eng": "Literary Nonsense",
      "jpn": "ナンセンス文学",
      "qro": "Nonsense Bungaku"
    },
    "titles_default_language": "qro",
    "year": 2017
  }
}