{
  "header": {
    "version": 4,
    "description": "Karaoke Mugen Karaoke Data File"
  },
  "medias": [
    {
      "version": "Default",
      "filename": "JPN - Kyou Kara Ore Wa!! - OP - Otoko no Kunshou.mp4",
      "audiogain": 4.18,
      "loudnorm": "-21.49,-8.60,9.40,-32.02,0.28",
      "filesize": 64242199,
      "duration": 84,
      "default": true,
      "lyrics": [
        {
          "filename": "JPN - Kyou Kara Ore Wa!! - OP - Otoko no Kunshou.ass",
          "default": true,
          "version": "Default"
        }
      ]
    }
  ],
  "data": {
    "created_at": "2019-02-05T20:09:35.000Z",
    "ignoreHooks": false,
    "kid": "7094221d-ff9f-46ed-b28f-22e1e8356ffd",
    "modified_at": "2022-09-30T20:42:21.738Z",
    "repository": "kara.moe",
    "tags": {
      "authors": [
        "4607780c-f1ef-47cf-9c1c-b13e8f731699"
      ],
      "collections": [
        "dbcf2c22-524d-4708-99bb-601703633927"
      ],
      "creators": [
        "7156eab9-e60b-4ce6-9cd4-f2fb405f8b71"
      ],
      "families": [
        "5391f9fe-638c-415f-8dc9-958e3a2c5787"
      ],
      "groups": [
        "ae613721-1fbe-480d-ba6b-d6d0702b184d"
      ],
      "langs": [
        "4dcf9614-7914-42aa-99f4-dbce2e059133"
      ],
      "origins": [
        "938de218-5343-4865-94d3-fb33f2eaa152"
      ],
      "series": [
        "26aab52d-849c-4996-8689-9c2046d0fc4d"
      ],
      "singers": [
        "fcfa03ab-10ee-4f80-9d2b-1d363d7ada52"
      ],
      "songtypes": [
        "f02ad9b3-0bd9-4aad-85b3-9976739ba0e4"
      ],
      "songwriters": [
        "edc41ce8-e8ab-4201-a64b-5864b494040b"
      ],
      "genres": [
        "28650021-2b2a-4a55-aff4-85dd4896c687"
      ]
    },
    "titles": {
      "jpn": "男の勲章",
      "qro": "Otoko no Kunshô"
    },
    "titles_default_language": "qro",
    "title": "Otoko no Kunshô",
    "year": 2018,
    "titles_aliases": [
      "Kunshou"
    ]
  }
}