{
  "header": {
    "version": 4,
    "description": "Karaoke Mugen Karaoke Data File"
  },
  "medias": [
    {
      "version": "Default",
      "filename": "JPN - Kidou Senshi Gundam SEED Destiny ~ HD Remaster - ED4 - Shinkai no Kodoku ~ReTracks.mp4",
      "loudnorm": "-17.77,-5.31,10.90,-28.39,-0.15",
      "filesize": 99836606,
      "duration": 82,
      "default": true,
      "lyrics": [
        {
          "filename": "JPN - Kidou Senshi Gundam SEED Destiny ~ HD Remaster - ED4 - Shinkai no Kodoku ~ReTracks.ass",
          "default": true,
          "version": "Default"
        }
      ]
    }
  ],
  "data": {
    "comment": "Alors je ne sais pas ou plus quel numéro mettre à cet ED spécial, donc je vous laisse faire, désolé encore",
    "created_at": "2023-08-26T22:56:40.936Z",
    "ignoreHooks": false,
    "kid": "c564334e-2cd4-4fe6-98eb-e15a8d700811",
    "modified_at": "2023-08-26T23:06:03.492Z",
    "repository": "kara.moe",
    "songorder": 4,
    "tags": {
      "authors": [
        "df9cb48f-334e-4ceb-b26e-e254ad323492"
      ],
      "collections": [
        "c7db86a0-ff64-4044-9be4-66dd1ef1d1c1"
      ],
      "creators": [
        "ef8f80e1-d244-4aea-b7f0-984d6dd4b82b"
      ],
      "families": [
        "0377db02-3af6-43b8-9b08-c759df3d25c3"
      ],
      "genres": [
        "f60ba57d-5ef4-49e0-b93b-d0dcbcff6592"
      ],
      "groups": [
        "3c14c864-533c-49e6-a3cc-6969f1233775",
        "966d1e74-d1f2-41e2-ab04-24279c22f562",
        "ae613721-1fbe-480d-ba6b-d6d0702b184d"
      ],
      "langs": [
        "4dcf9614-7914-42aa-99f4-dbce2e059133"
      ],
      "series": [
        "ee11fef1-6c52-4b00-bd72-3e5dfe0f691c"
      ],
      "singers": [
        "646f2a74-6f62-4685-94eb-7c3dd0fa474f"
      ],
      "songtypes": [
        "38c77c56-2b95-4040-b676-0994a8cb0597"
      ],
      "songwriters": [
        "1f324dc7-f858-415b-bbc1-41fcce3d6ac7"
      ],
      "franchises": [
        "e6ade589-c2e4-49a1-acdb-ea9b03e57240"
      ]
    },
    "titles": {
      "jpn": "深海の孤独 ~ReTracks",
      "qro": "Shinkai no Kodoku ~ReTracks"
    },
    "titles_default_language": "qro",
    "year": 2013
  }
}