{
  "header": {
    "version": 4,
    "description": "Karaoke Mugen Karaoke Data File"
  },
  "medias": [
    {
      "version": "Default",
      "filename": "JPN - Miku Hatsune - MV - Ura-omote Lovers.mp4",
      "audiogain": -11.32,
      "loudnorm": "-5.98,1.93,1.10,-16.08,-1.02",
      "filesize": 11761833,
      "duration": 187,
      "default": true,
      "lyrics": [
        {
          "filename": "JPN - Miku Hatsune - MV - Ura-omote Lovers.ass",
          "default": true,
          "version": "Default"
        }
      ]
    }
  ],
  "data": {
    "created_at": "2018-04-05T22:51:26.000Z",
    "ignoreHooks": false,
    "kid": "050472ab-93d3-41be-a8a7-985c37c6d43a",
    "modified_at": "2022-03-31T16:21:59.534Z",
    "repository": "kara.moe",
    "tags": {
      "authors": [
        "a5dbab74-510b-48c5-9cea-5a537a81c974"
      ],
      "collections": [
        "c7db86a0-ff64-4044-9be4-66dd1ef1d1c1"
      ],
      "genres": [
        "45623cae-6d68-4304-a49b-896d1d6f4580"
      ],
      "groups": [
        "3c14c864-533c-49e6-a3cc-6969f1233775",
        "8c22c899-b3ed-42da-a548-ce00f950798b"
      ],
      "langs": [
        "4dcf9614-7914-42aa-99f4-dbce2e059133"
      ],
      "misc": [
        "ec4fee75-71fb-45b4-9772-2ca374b4b600"
      ],
      "singers": [
        "4407ba0e-5de7-4add-870f-7ac95a4804c9"
      ],
      "songtypes": [
        "7be1b15c-cff8-4b37-a649-5c90f3d569a9"
      ],
      "songwriters": [
        "b08f2c69-8493-4187-a86d-495b91f1a6a5"
      ]
    },
    "titles": {
      "eng": "Two-Sided Lovers",
      "qro": "Ura-omote Lovers",
      "jpn": "裏表ラバーズ"
    },
    "titles_default_language": "eng",
    "title": "Ura-omote Lovers",
    "year": 2009,
    "titles_aliases": [
      "Two-Faced Lovers"
    ]
  }
}