{
  "header": {
    "version": 4,
    "description": "Karaoke Mugen Karaoke Data File"
  },
  "medias": [
    {
      "version": "Default",
      "filename": "JPN - Bakuman (drama) - MV - Shin Takarajima.mp4",
      "audiogain": -9.18,
      "loudnorm": "-7.54,1.54,4.70,-17.64,-0.56",
      "filesize": 128855571,
      "duration": 312,
      "default": true,
      "lyrics": [
        {
          "filename": "JPN - Bakuman (drama) - MV - Shin Takarajima.ass",
          "default": true,
          "version": "Default"
        }
      ]
    }
  ],
  "data": {
    "created_at": "2020-04-10T07:49:02.029Z",
    "kid": "0e90f7db-d6ef-4bca-b1b0-7bf1eacbb31b",
    "modified_at": "2022-06-04T00:16:22.208Z",
    "repository": "kara.moe",
    "songorder": null,
    "tags": {
      "authors": [
        "0081300d-c0f9-4cff-a4f7-e726a293a76b"
      ],
      "creators": [
        "e8da43a3-7058-4162-9d31-2f331dee993e"
      ],
      "families": [
        "5391f9fe-638c-415f-8dc9-958e3a2c5787"
      ],
      "groups": [
        "ae613721-1fbe-480d-ba6b-d6d0702b184d"
      ],
      "langs": [
        "4dcf9614-7914-42aa-99f4-dbce2e059133"
      ],
      "misc": [
        "86705d4b-24e4-4756-9687-2b9c98bcf366"
      ],
      "series": [
        "dc286b55-4558-4134-972a-e2ca06ae6fcd"
      ],
      "singers": [
        "6cbe79c2-994b-4f11-a7fd-0ed785d9c1e0"
      ],
      "songtypes": [
        "7be1b15c-cff8-4b37-a649-5c90f3d569a9"
      ],
      "songwriters": [
        "7e7d1006-8cf1-454a-9744-fea47952f2c7"
      ],
      "collections": [
        "dbcf2c22-524d-4708-99bb-601703633927"
      ],
      "franchises": [
        "ceb7f741-fbeb-407d-8130-28291ce3cc92"
      ]
    },
    "titles": {
      "qro": "Shin Takarajima",
      "jpn": "新宝島"
    },
    "titles_default_language": "qro",
    "title": "Shin Takarajima",
    "year": 2015
  }
}