{
  "header": {
    "version": 4,
    "description": "Karaoke Mugen Karaoke Data File"
  },
  "medias": [
    {
      "version": "Default",
      "filename": "JPN - Touhou - AUDIO - Matsurifu Kamiasobi no Uta.mp3",
      "audiogain": -11.56,
      "loudnorm": "-6.18,2.84,4.00,-16.25,-0.34",
      "filesize": 14765470,
      "duration": 362,
      "default": true,
      "lyrics": [
        {
          "filename": "JPN - Touhou - AUDIO - Matsurifu Kamiasobi no Uta.ass",
          "default": true,
          "version": "Default"
        }
      ]
    }
  ],
  "data": {
    "created_at": "2023-07-16T14:10:13.161Z",
    "ignoreHooks": false,
    "kid": "18863c93-a8a9-4955-8687-ddc909a6b586",
    "modified_at": "2023-07-16T14:11:17.205Z",
    "repository": "kara.moe",
    "tags": {
      "authors": [
        "cc329a5a-10a0-4e38-ac8d-d4f939d37f10"
      ],
      "collections": [
        "c7db86a0-ff64-4044-9be4-66dd1ef1d1c1"
      ],
      "creators": [
        "551690a1-6c76-4376-a64c-8bbef223a304"
      ],
      "groups": [
        "ae613721-1fbe-480d-ba6b-d6d0702b184d"
      ],
      "langs": [
        "4dcf9614-7914-42aa-99f4-dbce2e059133"
      ],
      "misc": [
        "86705d4b-24e4-4756-9687-2b9c98bcf366"
      ],
      "origins": [
        "ac5085db-52d8-44b4-8fbb-1697b24d2046"
      ],
      "series": [
        "1bdaa5a1-dfa6-4365-b746-7a0b194dafd6"
      ],
      "singers": [
        "d08d5ec3-0d71-4d8d-97de-0a2432b331bd"
      ],
      "singergroups": [
        "551690a1-6c76-4376-a64c-8bbef223a304"
      ],
      "songtypes": [
        "42a262ae-acba-4ab5-a446-c5789c96c821"
      ],
      "songwriters": [
        "26cb5252-8510-49e0-897c-a611a05fc056",
        "e25b1955-f5a7-44af-9fa4-544c7dadf3ac"
      ],
      "franchises": [
        "1bdaa5a1-dfa6-4365-b746-7a0b194dafd6"
      ]
    },
    "titles": {
      "jpn": "祭符「神遊びの唄」",
      "qro": "Matsurifu \"Kamiasobi no Uta\""
    },
    "titles_default_language": "qro",
    "titles_aliases": [
      "Festival Sign The Song for God’s Amusement"
    ],
    "year": 2016
  }
}