{
  "header": {
    "version": 4,
    "description": "Karaoke Mugen Karaoke Data File"
  },
  "medias": [
    {
      "version": "Default",
      "filename": "JPN - League of Legends - GAME PC MV - Battle Queens.mp4",
      "audiogain": -0.31,
      "loudnorm": "-16.79,-6.44,9.50,-27.08,-1.85",
      "filesize": 54099648,
      "duration": 256,
      "default": true,
      "lyrics": [
        {
          "filename": "JPN - League of Legends - GAME PC MV - Battle Queens.ass",
          "default": true,
          "version": "Default"
        }
      ]
    }
  ],
  "data": {
    "created_at": "2021-03-07T12:16:22.466Z",
    "ignoreHooks": false,
    "kid": "bde71d93-0af9-4a12-8a74-e07fee863440",
    "modified_at": "2022-12-27T23:05:49.880Z",
    "repository": "kara.moe",
    "tags": {
      "authors": [
        "faa8becc-83b6-45d9-a3d0-a4c2c8b336c8"
      ],
      "collections": [
        "c7db86a0-ff64-4044-9be4-66dd1ef1d1c1"
      ],
      "creators": [
        "4d1b9aac-f0ca-42de-a2f0-eff2869ea6e3"
      ],
      "groups": [
        "8c22c899-b3ed-42da-a548-ce00f950798b",
        "8e209ae4-4381-438f-89dc-1b21752027d2"
      ],
      "langs": [
        "4dcf9614-7914-42aa-99f4-dbce2e059133"
      ],
      "platforms": [
        "3c15f758-e1bc-4266-8bb9-3c14112f504a"
      ],
      "series": [
        "f76f47b0-f820-454f-8cc5-2ec0bf5b3d28"
      ],
      "singers": [
        "8ac88d22-022b-4d8e-a806-b27551a9b0d5"
      ],
      "songtypes": [
        "7be1b15c-cff8-4b37-a649-5c90f3d569a9"
      ],
      "songwriters": [
        "04abdffe-8b06-4350-b521-8a5789a75890"
      ],
      "franchises": [
        "f76f47b0-f820-454f-8cc5-2ec0bf5b3d28"
      ],
      "origins": [
        "dbedd6b3-d125-4cd8-aa32-c4175e4ca3a3"
      ]
    },
    "titles": {
      "eng": "Battle Queens"
    },
    "titles_default_language": "eng",
    "year": 2020
  }
}