{
  "header": {
    "version": 4,
    "description": "Karaoke Mugen Karaoke Data File"
  },
  "medias": [
    {
      "version": "Default",
      "filename": "JPN - Fate stay night Realta Nua - PSV GAME OP2 - Horizon.mp4",
      "audiogain": -4.15,
      "loudnorm": "-12.59,-2.60,4.70,-22.81,-0.98",
      "filesize": 78882429,
      "duration": 91,
      "default": true,
      "lyrics": [
        {
          "filename": "JPN - Fate stay night Realta Nua - PSV GAME OP2 - Horizon.ass",
          "default": true,
          "version": "Default",
          "subchecksum": "26965e518fbb53187705bdc2752435f2"
        }
      ]
    }
  ],
  "data": {
    "created_at": "2017-10-11T15:01:58.000Z",
    "kid": "a79a4eae-0d9d-4e8a-8291-95301012c159",
    "modified_at": "2021-02-25T11:19:03.819Z",
    "repository": "kara.moe",
    "songorder": 2,
    "tags": {
      "authors": [
        "ad713171-dcf0-4076-911c-6764037096a1"
      ],
      "collections": [
        "c7db86a0-ff64-4044-9be4-66dd1ef1d1c1"
      ],
      "creators": [
        "211ed332-b979-4c23-9fac-c48ad71f3b8f"
      ],
      "groups": [
        "8c22c899-b3ed-42da-a548-ce00f950798b",
        "ae613721-1fbe-480d-ba6b-d6d0702b184d"
      ],
      "langs": [
        "4dcf9614-7914-42aa-99f4-dbce2e059133"
      ],
      "origins": [
        "2f96e82c-c61b-4413-817e-e6b247509b95",
        "dbedd6b3-d125-4cd8-aa32-c4175e4ca3a3"
      ],
      "platforms": [
        "e791f168-068f-4c05-aa36-e8d63726aa06"
      ],
      "series": [
        "4aa4b152-bc02-48b6-b61a-d5baa09f5855"
      ],
      "singers": [
        "188b2cdb-6748-41da-8c87-121f3e447cb4"
      ],
      "songtypes": [
        "f02ad9b3-0bd9-4aad-85b3-9976739ba0e4"
      ],
      "songwriters": [
        "2d5d6566-491e-46fb-b2ee-74a7308d21e9",
        "eb05d553-46d2-46dd-9d77-f74681796e13"
      ],
      "franchises": [
        "564373dc-4cfa-454e-8af1-bcccb886c007"
      ]
    },
    "title": "Horizon",
    "titles": {
      "eng": "HORIZON"
    },
    "year": 2012,
    "titles_default_language": "eng"
  }
}