{
  "header": {
    "version": 4,
    "description": "Karaoke Mugen Karaoke Data File"
  },
  "medias": [
    {
      "version": "Default",
      "filename": "JPN - D4DJ Groovy Mix - GAME MV - Undercover ~ Cover Vers.mp4",
      "audiogain": -9.63,
      "loudnorm": "-6.92,2.15,4.40,-17.12,-1.16",
      "filesize": 28953436,
      "duration": 123,
      "default": true,
      "lyrics": [
        {
          "filename": "JPN - D4DJ Groovy Mix - GAME MV - Undercover ~ Cover Vers.ass",
          "default": true,
          "version": "Default"
        }
      ]
    }
  ],
  "data": {
    "created_at": "2023-01-12T02:29:09.408Z",
    "ignoreHooks": false,
    "kid": "39a54a85-4239-4552-93ea-9a1674627ea4",
    "modified_at": "2023-01-12T02:41:29.704Z",
    "parents": [
      "84fafffd-9a31-4b12-a416-671d14920088"
    ],
    "repository": "kara.moe",
    "tags": {
      "authors": [
        "7848b5dc-a5df-4577-b640-147be5288cec",
        "fb28c6d3-a81e-40c0-9a4c-e3268c60a64b"
      ],
      "collections": [
        "c7db86a0-ff64-4044-9be4-66dd1ef1d1c1"
      ],
      "creators": [
        "bd4564a8-44e5-454a-9c57-bd2a3c8a537e"
      ],
      "families": [
        "0377db02-3af6-43b8-9b08-c759df3d25c3"
      ],
      "genres": [
        "caa86df2-0d59-474b-885c-f240a9e891b0"
      ],
      "groups": [
        "8e209ae4-4381-438f-89dc-1b21752027d2"
      ],
      "langs": [
        "4dcf9614-7914-42aa-99f4-dbce2e059133"
      ],
      "misc": [
        "1d6ceadf-a885-47e5-b23b-c07bf668a424"
      ],
      "platforms": [
        "213a1a15-e73a-4a08-b3f6-b6e2745a82e5"
      ],
      "series": [
        "93077816-d626-4bdb-a4a6-39300f0159cf"
      ],
      "singers": [
        "1253cac2-9e2b-48a3-b7d9-79f739324d99",
        "1f0e2ce4-7d83-4edf-a05b-9bdd3a32f4f4",
        "3d1280ed-40ec-4bc8-b2c9-51286031769a",
        "c334f05e-70be-45f4-b133-2340b9bc85f3"
      ],
      "singergroups": [
        "9a527178-bc61-4c35-9bed-794d61115d5d"
      ],
      "songtypes": [
        "7be1b15c-cff8-4b37-a649-5c90f3d569a9"
      ],
      "songwriters": [
        "5f20186f-004f-4053-927a-0d2929836f3f",
        "6d9eaa90-048f-41d5-a264-8d73df69cc22"
      ],
      "versions": [
        "03e1e1d2-8641-47b7-bbcb-39a3df9ff21c"
      ],
      "franchises": [
        "e2e9382c-e3bd-4db9-abaf-194d09099ab0"
      ],
      "origins": [
        "dbedd6b3-d125-4cd8-aa32-c4175e4ca3a3"
      ]
    },
    "titles": {
      "eng": "Undercover",
      "jpn": "アンダーカバー",
      "qro": "Undercover"
    },
    "titles_default_language": "qro",
    "year": 2021
  }
}