{
  "header": {
    "version": 4,
    "description": "Karaoke Mugen Karaoke Data File"
  },
  "medias": [
    {
      "version": "Default",
      "filename": "JPN - D.Gray-man - MV - INNOCENT SORROW ~ Full Vers.mp4",
      "audiogain": 11.27,
      "loudnorm": "-28.11,-14.60,6.10,-38.22,-0.63",
      "filesize": 69523956,
      "duration": 304,
      "default": true,
      "lyrics": [
        {
          "filename": "JPN - D.Gray-man - MV - INNOCENT SORROW ~ Full Vers.ass",
          "default": true,
          "version": "Default"
        }
      ]
    }
  ],
  "data": {
    "created_at": "2020-08-16T14:55:34.755Z",
    "ignoreHooks": false,
    "kid": "944c56b7-b8c7-4b65-8318-9e4e8deb7e89",
    "modified_at": "2023-02-04T19:27:43.120Z",
    "parents": [
      "bb6c6f5e-6ccf-4e25-b8ab-c806940780df"
    ],
    "repository": "kara.moe",
    "tags": {
      "authors": [
        "cfb0d374-1cfc-4ae2-bf3a-f851b2849483"
      ],
      "collections": [
        "dbcf2c22-524d-4708-99bb-601703633927"
      ],
      "creators": [
        "221d01d3-cf22-45d6-b187-5e7806dd6d1e"
      ],
      "families": [
        "5391f9fe-638c-415f-8dc9-958e3a2c5787"
      ],
      "groups": [
        "3c14c864-533c-49e6-a3cc-6969f1233775"
      ],
      "langs": [
        "4dcf9614-7914-42aa-99f4-dbce2e059133"
      ],
      "misc": [
        "86705d4b-24e4-4756-9687-2b9c98bcf366"
      ],
      "series": [
        "8024310d-f718-4b8a-bae9-da27e3ddb950"
      ],
      "singergroups": [
        "e0b53e4d-f2be-4a8d-b31a-04fef6e2492b"
      ],
      "songtypes": [
        "7be1b15c-cff8-4b37-a649-5c90f3d569a9"
      ],
      "songwriters": [
        "8afb7356-e7ab-4581-9891-5fd8abd49a7f",
        "f9a97890-5c76-42ee-a96b-f8e21b1b1fa0"
      ],
      "versions": [
        "c2143a7f-6970-450e-8a79-0302db9220a9"
      ],
      "franchises": [
        "8024310d-f718-4b8a-bae9-da27e3ddb950"
      ]
    },
    "titles": {
      "eng": "INNOCENT SORROW"
    },
    "titles_default_language": "eng",
    "year": 2006
  }
}