{
  "header": {
    "version": 4,
    "description": "Karaoke Mugen Karaoke Data File"
  },
  "medias": [
    {
      "version": "Default",
      "filename": "JPN - Hagane no Renkinjutsushi - MV - Tobira no mukou he ~ Full Vers.mp4",
      "audiogain": 3.25,
      "loudnorm": "-21.09,-8.82,4.50,-31.36,-0.56",
      "filesize": 24453916,
      "duration": 286,
      "default": true,
      "lyrics": [
        {
          "filename": "JPN - Hagane no Renkinjutsushi - MV - Tobira no mukou he ~ Full Vers.ass",
          "default": true,
          "version": "Default"
        }
      ]
    }
  ],
  "data": {
    "created_at": "2020-03-31T21:15:36.555Z",
    "kid": "09f09e34-41b0-4f34-98a5-9f5218826cde",
    "modified_at": "2022-06-04T00:16:17.235Z",
    "parents": [
      "a16068b2-a846-4885-9abf-30d1b7c4bb1a"
    ],
    "repository": "kara.moe",
    "songorder": null,
    "tags": {
      "authors": [
        "1db1738f-acdc-42fc-aec3-60f4bddf660d"
      ],
      "creators": [
        "566082ee-060d-4470-ac6f-4a537a50a613"
      ],
      "families": [
        "5391f9fe-638c-415f-8dc9-958e3a2c5787"
      ],
      "groups": [
        "3c14c864-533c-49e6-a3cc-6969f1233775"
      ],
      "langs": [
        "4dcf9614-7914-42aa-99f4-dbce2e059133"
      ],
      "series": [
        "3df1aaa7-e69a-4a6f-86cb-75544f0dd48a"
      ],
      "singers": [
        "bc7665f2-a1fc-40aa-ac27-3f4a89b42456"
      ],
      "songtypes": [
        "7be1b15c-cff8-4b37-a649-5c90f3d569a9"
      ],
      "songwriters": [
        "bc7665f2-a1fc-40aa-ac27-3f4a89b42456",
        "d4a9e35b-2e45-479c-9c54-37e58f117ca9"
      ],
      "versions": [
        "c2143a7f-6970-450e-8a79-0302db9220a9"
      ],
      "collections": [
        "dbcf2c22-524d-4708-99bb-601703633927"
      ],
      "franchises": [
        "3df1aaa7-e69a-4a6f-86cb-75544f0dd48a"
      ]
    },
    "titles": {
      "qro": "Tobira no mukô he",
      "jpn": "扉の向こうへ"
    },
    "titles_default_language": "qro",
    "titles_aliases": [
      "mukou"
    ],
    "title": "Tobira no mukô he",
    "year": 2003
  }
}