{
  "header": {
    "version": 4,
    "description": "Karaoke Mugen Karaoke Data File"
  },
  "medias": [
    {
      "version": "Default",
      "filename": "JPN - Niji no Conquistador - MV - Triangle Dreamer.mp4",
      "loudnorm": "-15.05,-7.09,1.80,-25.08,-0.43",
      "filesize": 129123458,
      "duration": 351,
      "default": true,
      "lyrics": [
        {
          "filename": "JPN - Niji no Conquistador - MV - Triangle Dreamer.ass",
          "default": true,
          "version": "Default"
        }
      ]
    }
  ],
  "data": {
    "created_at": "2022-10-16T20:28:32.352Z",
    "ignoreHooks": false,
    "kid": "ac1fe7af-9ec0-4428-9aad-2d3557d2444c",
    "modified_at": "2023-09-27T21:41:10.494Z",
    "repository": "kara.moe",
    "tags": {
      "authors": [
        "f5fd83aa-5022-41ab-82ec-4b9dc38ea653"
      ],
      "collections": [
        "dbcf2c22-524d-4708-99bb-601703633927"
      ],
      "creators": [
        "8e289542-8c5b-4c3b-9589-c2a33588d90b",
        "d2a29c19-019f-4a3d-86ad-2dae9e41a4b1"
      ],
      "families": [
        "5391f9fe-638c-415f-8dc9-958e3a2c5787"
      ],
      "genres": [
        "caa86df2-0d59-474b-885c-f240a9e891b0"
      ],
      "groups": [
        "ae613721-1fbe-480d-ba6b-d6d0702b184d"
      ],
      "langs": [
        "4dcf9614-7914-42aa-99f4-dbce2e059133"
      ],
      "misc": [
        "86705d4b-24e4-4756-9687-2b9c98bcf366"
      ],
      "singers": [
        "0771116e-f2d9-49c1-a7b2-76ff316fb7e5",
        "1fd85c26-4f43-4a32-b4a2-24231c1d3bf8",
        "3aeeedc0-5593-4f72-b67a-86ffff196b63",
        "91b9923f-139d-4d2e-baf1-bf3e1b1cb1a4",
        "addaacb7-de68-4314-81ed-9c7a989bafe9",
        "cc1f6e96-9272-4946-9c6b-cdcdfb3a7271",
        "db8efa93-ee13-4ff4-87f4-4d736562cb7e",
        "e1e4b485-673f-44a5-a0ac-27aa9533458d",
        "f5b4b12d-10ce-4ecf-b5a4-04c9a9ee0878"
      ],
      "singergroups": [
        "6070aa61-d694-4626-921d-e62a7f4a47ba"
      ],
      "songtypes": [
        "7be1b15c-cff8-4b37-a649-5c90f3d569a9"
      ],
      "songwriters": [
        "1e22fa88-8ade-42fc-ac42-27a1c5f0d135"
      ]
    },
    "titles": {
      "eng": "Triangle Dreamer",
      "jpn": "トライアングル ドリーマー"
    },
    "titles_default_language": "eng",
    "year": 2018
  }
}