{
  "header": {
    "version": 4,
    "description": "Karaoke Mugen Karaoke Data File"
  },
  "medias": [
    {
      "version": "Default",
      "filename": "JPN - Nisemonogatari - OP3 - Platinum Disco.mp4",
      "audiogain": 4.06,
      "loudnorm": "-20.53,-11.40,2.10,-30.64,-0.07",
      "filesize": 66930566,
      "duration": 91,
      "default": true,
      "lyrics": [
        {
          "filename": "JPN - Nisemonogatari - OP3 - Platinum Disco.ass",
          "default": true,
          "version": "Default"
        }
      ]
    }
  ],
  "data": {
    "created_at": "2017-10-11T17:01:16.000Z",
    "ignoreHooks": false,
    "kid": "20935983-514b-4a45-b827-8b6eb526ea85",
    "modified_at": "2023-08-15T23:04:43.774Z",
    "repository": "kara.moe",
    "songorder": 3,
    "tags": {
      "authors": [
        "fa399f2f-ea1d-4902-8796-ea6d8218aff0"
      ],
      "collections": [
        "c7db86a0-ff64-4044-9be4-66dd1ef1d1c1"
      ],
      "creators": [
        "c3bd80ef-d1fe-427f-913f-a2ba2fe66114"
      ],
      "families": [
        "0377db02-3af6-43b8-9b08-c759df3d25c3"
      ],
      "groups": [
        "9a8e0fbc-dcae-4989-be82-7cad3436f1f5",
        "ae613721-1fbe-480d-ba6b-d6d0702b184d"
      ],
      "langs": [
        "4dcf9614-7914-42aa-99f4-dbce2e059133"
      ],
      "misc": [
        "fe819ff1-9db8-4a0f-85dc-0e322c9126c4"
      ],
      "origins": [
        "938de218-5343-4865-94d3-fb33f2eaa152"
      ],
      "series": [
        "62309243-9578-4358-a71b-719983813476"
      ],
      "singers": [
        "d638c586-47e1-44e4-9976-ad1e47c75c5a"
      ],
      "songtypes": [
        "f02ad9b3-0bd9-4aad-85b3-9976739ba0e4"
      ],
      "songwriters": [
        "81d493c9-3353-40d4-b94d-7fa42d3b4229",
        "d7658a75-7945-4f08-8233-02f38dc385ba"
      ],
      "franchises": [
        "94c05ef3-bfff-4a4d-a1a4-b07c32389971"
      ]
    },
    "titles": {
      "eng": "Platinum Disco",
      "jpn": "白金ディスコ"
    },
    "titles_default_language": "eng",
    "year": 2012
  }
}