{
  "header": {
    "version": 4,
    "description": "Karaoke Mugen Karaoke Data File"
  },
  "medias": [
    {
      "version": "Default",
      "filename": "JPN - BTOB - LIVE - Mata Aeru Kara ~ Full Vers.mp4",
      "audiogain": -3.59,
      "loudnorm": "-15.07,-0.63,14.00,-25.80,-1.53",
      "filesize": 91122088,
      "duration": 346,
      "default": true,
      "lyrics": [
        {
          "filename": "JPN - BTOB - LIVE - Mata Aeru Kara ~ Full Vers.ass",
          "default": true,
          "version": "Default"
        }
      ]
    }
  ],
  "data": {
    "created_at": "2019-10-06T20:40:58.000Z",
    "ignoreHooks": false,
    "kid": "dffa4ac3-e487-4225-8d22-6447448b7182",
    "modified_at": "2022-12-21T22:36:37.578Z",
    "repository": "kara.moe",
    "tags": {
      "authors": [
        "622e2a6d-e4e8-4ff5-b218-890e8d7a3abf"
      ],
      "collections": [
        "dbcf2c22-524d-4708-99bb-601703633927"
      ],
      "creators": [
        "0635fc01-24ee-40db-b419-7b9c81f23b0c"
      ],
      "families": [
        "5391f9fe-638c-415f-8dc9-958e3a2c5787"
      ],
      "groups": [
        "2b4e9972-5e17-481b-99f5-d0787c0ada56",
        "ae613721-1fbe-480d-ba6b-d6d0702b184d"
      ],
      "langs": [
        "4dcf9614-7914-42aa-99f4-dbce2e059133"
      ],
      "misc": [
        "86705d4b-24e4-4756-9687-2b9c98bcf366"
      ],
      "singers": [
        "e29ca23d-958f-47c3-892c-605e38dd0b41"
      ],
      "songtypes": [
        "a0167949-580c-4de3-bf13-497e462e02f3"
      ],
      "versions": [
        "c2143a7f-6970-450e-8a79-0302db9220a9"
      ]
    },
    "titles": {
      "jpn": "また会えるから",
      "qro": "Mata Aeru Kara"
    },
    "titles_default_language": "qro",
    "year": 2016
  }
}