{
  "header": {
    "version": 4,
    "description": "Karaoke Mugen Karaoke Data File"
  },
  "medias": [
    {
      "version": "Default",
      "filename": "JPN - Slam Dunk - ED2 - Sekai ga Owaru made wa.mp4",
      "audiogain": -9.24,
      "loudnorm": "-7.73,2.69,3.80,-17.82,-0.75",
      "filesize": 25188393,
      "duration": 93,
      "default": true,
      "lyrics": [
        {
          "filename": "JPN - Slam Dunk - ED2 - Sekai ga Owaru made wa.ass",
          "default": true,
          "version": "Default",
          "subchecksum": "c50a2447a562c301d393bf90e9700bad"
        }
      ]
    }
  ],
  "data": {
    "created_at": "2017-10-11T17:02:03.000Z",
    "kid": "b34c690e-4bd1-4408-ac1b-9267a25cdfc8",
    "modified_at": "2021-02-25T13:08:26.139Z",
    "repository": "kara.moe",
    "songorder": 2,
    "tags": {
      "authors": [
        "4607780c-f1ef-47cf-9c1c-b13e8f731699"
      ],
      "collections": [
        "c7db86a0-ff64-4044-9be4-66dd1ef1d1c1"
      ],
      "creators": [
        "f694bf43-b427-4244-9744-9d3f84fd8a31"
      ],
      "families": [
        "0377db02-3af6-43b8-9b08-c759df3d25c3"
      ],
      "genres": [
        "a0aeef4a-6428-45ff-a6e1-468b595930c2"
      ],
      "groups": [
        "24db50aa-a126-4d34-a48a-e45db79c4245"
      ],
      "langs": [
        "4dcf9614-7914-42aa-99f4-dbce2e059133"
      ],
      "origins": [
        "938de218-5343-4865-94d3-fb33f2eaa152"
      ],
      "series": [
        "1b24ad45-d64c-4569-94f7-65dc73d2dbf0"
      ],
      "singers": [
        "e1cf4f22-cf62-4945-843b-791793400629"
      ],
      "songtypes": [
        "38c77c56-2b95-4040-b676-0994a8cb0597"
      ],
      "songwriters": [
        "54703657-2832-4d1c-bb11-e9254f365cfd",
        "f033fd1e-2987-4a47-bc43-5f2639e21e57"
      ]
    },
    "title": "Sekai ga Owaru made wa…",
    "titles": {
      "qro": "Sekai ga Owaru made wa…",
      "jpn": "世界が終るまでは..."
    },
    "year": 1993,
    "titles_default_language": "qro"
  }
}