{
  "header": {
    "version": 4,
    "description": "Karaoke Mugen Karaoke Data File"
  },
  "medias": [
    {
      "version": "Default",
      "filename": "JPN - Touhou - MV - Nitori no Uta.mp4",
      "audiogain": -8.07,
      "loudnorm": "-9.71,0.74,5.50,-20.13,-0.70",
      "filesize": 26231853,
      "duration": 113,
      "default": true,
      "lyrics": [
        {
          "filename": "JPN - Touhou - MV - Nitori no Uta.ass",
          "default": true,
          "version": "Default"
        }
      ]
    }
  ],
  "data": {
    "created_at": "2017-10-11T17:02:32.000Z",
    "ignoreHooks": false,
    "kid": "cb6e3e1f-0427-4881-b4e3-c91d3564afcb",
    "modified_at": "2022-10-22T22:34:40.638Z",
    "repository": "kara.moe",
    "tags": {
      "authors": [
        "fa399f2f-ea1d-4902-8796-ea6d8218aff0"
      ],
      "collections": [
        "c7db86a0-ff64-4044-9be4-66dd1ef1d1c1"
      ],
      "creators": [
        "79eec9f8-58d3-40c5-9fd9-f72805591c2f",
        "a56ed9e7-a3dc-4203-b91c-4128bcf7bfa9"
      ],
      "families": [
        "0377db02-3af6-43b8-9b08-c759df3d25c3"
      ],
      "groups": [
        "ae613721-1fbe-480d-ba6b-d6d0702b184d"
      ],
      "langs": [
        "4dcf9614-7914-42aa-99f4-dbce2e059133"
      ],
      "series": [
        "1bdaa5a1-dfa6-4365-b746-7a0b194dafd6"
      ],
      "singers": [
        "d08d5ec3-0d71-4d8d-97de-0a2432b331bd"
      ],
      "songtypes": [
        "7be1b15c-cff8-4b37-a649-5c90f3d569a9"
      ],
      "songwriters": [
        "26cb5252-8510-49e0-897c-a611a05fc056"
      ],
      "franchises": [
        "1bdaa5a1-dfa6-4365-b746-7a0b194dafd6"
      ]
    },
    "titles": {
      "jpn": "にとりの唄",
      "qro": "Nitori no Uta"
    },
    "titles_default_language": "qro",
    "titles_aliases": [
      "河童にとり",
      "Kappa Nitori",
      "Nitori's song"
    ],
    "title": "Nitori no Uta",
    "year": 2010
  }
}