{
  "header": {
    "version": 4,
    "description": "Karaoke Mugen Karaoke Data File"
  },
  "medias": [
    {
      "version": "Default",
      "filename": "JPN - Accel World - AUDIO ED1 - RightunfinishedRight ~ Full Vers.mp3",
      "audiogain": -11.21,
      "loudnorm": "-5.43,2.40,5.30,-15.63,-0.63",
      "filesize": 11406899,
      "duration": 282,
      "default": true,
      "lyrics": [
        {
          "filename": "JPN - Accel World - AUDIO ED1 - RightunfinishedRight ~ Full Vers.ass",
          "default": true,
          "version": "Default"
        }
      ]
    }
  ],
  "data": {
    "created_at": "2023-08-19T04:08:53.588Z",
    "ignoreHooks": false,
    "kid": "ec31004e-4d68-402d-a236-f10fc16a4ff2",
    "modified_at": "2023-08-19T04:08:53.767Z",
    "parents": [
      "a397fb37-825a-46b1-8e02-e74ff704a557"
    ],
    "repository": "kara.moe",
    "songorder": 1,
    "tags": {
      "authors": [
        "7848b5dc-a5df-4577-b640-147be5288cec"
      ],
      "collections": [
        "dbcf2c22-524d-4708-99bb-601703633927"
      ],
      "genres": [
        "4b80eca6-f44f-4262-a8d0-b6879d6b70cb"
      ],
      "groups": [
        "ae613721-1fbe-480d-ba6b-d6d0702b184d"
      ],
      "langs": [
        "4dcf9614-7914-42aa-99f4-dbce2e059133"
      ],
      "origins": [
        "938de218-5343-4865-94d3-fb33f2eaa152"
      ],
      "series": [
        "1978e19d-61f9-4a84-8712-86020545c8a0"
      ],
      "singers": [
        "06c618ba-0261-4ad5-9a40-e2d31ef6c330"
      ],
      "songtypes": [
        "42a262ae-acba-4ab5-a446-c5789c96c821",
        "38c77c56-2b95-4040-b676-0994a8cb0597"
      ],
      "songwriters": [
        "06c618ba-0261-4ad5-9a40-e2d31ef6c330",
        "71621442-5ffe-4f44-afd0-c2dbdc192d85"
      ],
      "versions": [
        "c2143a7f-6970-450e-8a79-0302db9220a9"
      ]
    },
    "titles": {
      "eng": "→unfinished→"
    },
    "titles_default_language": "eng",
    "year": 2012
  }
}