{
  "header": {
    "version": 4,
    "description": "Karaoke Mugen Karaoke Data File"
  },
  "medias": [
    {
      "version": "Emiri Kimidori.",
      "filename": "JPN - Suzumiya Haruhi no Yuuutsu - AUDIO CS - Hare Hare Yukai ~ Emiri Kimidori Vers.mp3",
      "loudnorm": "-11.01,1.04,7.80,-21.30,-0.86",
      "filesize": 4870079,
      "duration": 290,
      "default": true,
      "lyrics": [
        {
          "filename": "JPN - Suzumiya Haruhi no Yuuutsu - AUDIO CS - Hare Hare Yukai ~ Emiri Kimidori Vers.ass",
          "default": true,
          "version": "Default"
        }
      ]
    }
  ],
  "data": {
    "comment": "#8874 ; retouche précision des timing et du découpage du soramimi pour que l’instrumentale soit plus facile à chanter ; corr. d’erreurs dans les paroles",
    "created_at": "2021-06-06T20:56:07.734Z",
    "ignoreHooks": false,
    "kid": "ac37ff55-98f6-424d-9804-2779812eba45",
    "modified_at": "2023-09-24T09:02:19.687Z",
    "parents": [
      "2fea8b45-38ba-40ed-b2ca-100c0328c95c"
    ],
    "repository": "kara.moe",
    "tags": {
      "authors": [
        "1db1738f-acdc-42fc-aec3-60f4bddf660d",
        "4749577f-84d7-470b-bfa8-09c6f9a97c32"
      ],
      "collections": [
        "c7db86a0-ff64-4044-9be4-66dd1ef1d1c1"
      ],
      "creators": [
        "b2805292-730e-473a-96f0-fd8e7ffd1fd7"
      ],
      "groups": [
        "3c14c864-533c-49e6-a3cc-6969f1233775"
      ],
      "langs": [
        "4dcf9614-7914-42aa-99f4-dbce2e059133"
      ],
      "series": [
        "4f132535-c7b6-4147-a324-6995aad44df7"
      ],
      "singers": [
        "f0016d29-2631-4f30-9261-063e9012bdd7"
      ],
      "songtypes": [
        "42a262ae-acba-4ab5-a446-c5789c96c821",
        "a8a2616c-b5a1-4df3-ad6f-89291bc67dee"
      ],
      "songwriters": [
        "4f8ba040-1f56-4340-807d-eefa481ae17f",
        "f41e7218-6c19-4e19-9b5f-4612dcd58243"
      ],
      "franchises": [
        "4f132535-c7b6-4147-a324-6995aad44df7"
      ]
    },
    "titles": {
      "jpn": "ハレ晴レユカイ ~ 喜緑江美里 Vers.",
      "qro": "Hare Hare Yukai ~ Emiri Kimidori Vers."
    },
    "titles_default_language": "qro",
    "year": 2007
  }
}