{
  "header": {
    "version": 4,
    "description": "Karaoke Mugen Karaoke Data File"
  },
  "medias": [
    {
      "version": "Default",
      "filename": "JPN - ClariS - LIVE - secret base ~Kimi ga Kureta Mono~ ~ Cover Full Vers.mp4",
      "audiogain": -6.6,
      "loudnorm": "-11.32,-0.40,9.20,-21.69,-1.48",
      "filesize": 241713346,
      "duration": 324,
      "default": true,
      "lyrics": [
        {
          "filename": "JPN - ClariS - LIVE - secret base ~Kimi ga Kureta Mono~ ~ Cover Full Vers.ass",
          "default": true,
          "version": "Default"
        }
      ]
    }
  ],
  "data": {
    "created_at": "2020-05-17T16:21:04.425Z",
    "ignoreHooks": false,
    "kid": "4a96d847-49b9-4185-a69b-fff22180cc02",
    "modified_at": "2022-12-22T15:40:55.802Z",
    "parents": [
      "e43a4862-fb35-4b38-83e9-43166ffbfef9"
    ],
    "repository": "kara.moe",
    "tags": {
      "authors": [
        "fa399f2f-ea1d-4902-8796-ea6d8218aff0"
      ],
      "collections": [
        "dbcf2c22-524d-4708-99bb-601703633927"
      ],
      "creators": [
        "9f10c180-4ed1-4a4e-9e39-c37e09b91d5f"
      ],
      "families": [
        "5391f9fe-638c-415f-8dc9-958e3a2c5787"
      ],
      "groups": [
        "ae613721-1fbe-480d-ba6b-d6d0702b184d"
      ],
      "langs": [
        "4dcf9614-7914-42aa-99f4-dbce2e059133"
      ],
      "misc": [
        "86705d4b-24e4-4756-9687-2b9c98bcf366"
      ],
      "singers": [
        "ff590105-5f65-4b1f-adf9-2cfb5b789428"
      ],
      "songtypes": [
        "a0167949-580c-4de3-bf13-497e462e02f3"
      ],
      "songwriters": [
        "1ce20fa6-a13b-471e-b6dc-988e4774cb65"
      ],
      "versions": [
        "c2143a7f-6970-450e-8a79-0302db9220a9",
        "03e1e1d2-8641-47b7-bbcb-39a3df9ff21c"
      ]
    },
    "titles": {
      "jpn": "secret base ～君がくれたもの～",
      "qro": "secret base ~Kimi ga Kureta Mono~"
    },
    "titles_default_language": "qro",
    "year": 2019
  }
}