{
  "header": {
    "version": 4,
    "description": "Karaoke Mugen Karaoke Data File"
  },
  "medias": [
    {
      "version": "Default",
      "filename": "JPN - Bokurano - MV - Uninstall ~ Full Off Vocal Vers.mp4",
      "audiogain": -6.55,
      "loudnorm": "-10.55,1.09,5.40,-20.65,-0.43",
      "filesize": 83240739,
      "duration": 293,
      "default": true,
      "lyrics": [
        {
          "filename": "JPN - Bokurano - MV - Uninstall ~ Full Off Vocal Vers.ass",
          "default": true,
          "version": "Default"
        }
      ]
    }
  ],
  "data": {
    "created_at": "2023-07-11T19:39:43.352Z",
    "ignoreHooks": false,
    "kid": "22f0dc7f-5326-4b69-8c20-1997197197aa",
    "modified_at": "2023-07-15T10:20:43.220Z",
    "parents": [
      "9461c6e1-98bf-4b3e-ae70-2b12016d6059"
    ],
    "repository": "kara.moe",
    "tags": {
      "authors": [
        "1db1738f-acdc-42fc-aec3-60f4bddf660d"
      ],
      "collections": [
        "dbcf2c22-524d-4708-99bb-601703633927"
      ],
      "creators": [
        "e8da43a3-7058-4162-9d31-2f331dee993e"
      ],
      "families": [
        "5391f9fe-638c-415f-8dc9-958e3a2c5787"
      ],
      "groups": [
        "3c14c864-533c-49e6-a3cc-6969f1233775"
      ],
      "langs": [
        "4dcf9614-7914-42aa-99f4-dbce2e059133"
      ],
      "series": [
        "f32e7fbe-6453-4c2e-9270-215e3d1be92c"
      ],
      "singers": [
        "7d007ea2-a183-4f90-a60e-a2b401190292"
      ],
      "songtypes": [
        "7be1b15c-cff8-4b37-a649-5c90f3d569a9"
      ],
      "songwriters": [
        "7d007ea2-a183-4f90-a60e-a2b401190292"
      ],
      "versions": [
        "c0cc87b9-55b9-40f0-878a-fbb9e34c151e",
        "c2143a7f-6970-450e-8a79-0302db9220a9"
      ]
    },
    "titles": {
      "eng": "Uninstall",
      "jpn": "アンインストール",
      "qro": "Uninstall"
    },
    "titles_default_language": "eng",
    "year": 2007
  }
}