{
  "header": {
    "version": 4,
    "description": "Karaoke Mugen Karaoke Data File"
  },
  "medias": [
    {
      "version": "Default",
      "filename": "JPN - Hortensia Saga - GAME OP - Kimi no Namae no Kaze ga Fuku.mp4",
      "audiogain": -6.35,
      "loudnorm": "-12.00,0.28,10.20,-22.26,-2.15",
      "filesize": 12670435,
      "duration": 96,
      "default": true,
      "lyrics": [
        {
          "filename": "JPN - Hortensia Saga - GAME OP - Kimi no Namae no Kaze ga Fuku.ass",
          "default": true,
          "version": "Default",
          "subchecksum": "575216747d7c7bd3640e6b499e1f58ce"
        }
      ]
    }
  ],
  "data": {
    "created_at": "2020-08-30T11:39:27.587Z",
    "kid": "77131bb0-a5a3-459d-abef-5c76103fd0f6",
    "modified_at": "2021-02-25T11:43:26.685Z",
    "repository": "kara.moe",
    "tags": {
      "authors": [
        "8605a8b9-3b45-44b9-9d98-1a25096bf702"
      ],
      "collections": [
        "c7db86a0-ff64-4044-9be4-66dd1ef1d1c1"
      ],
      "creators": [
        "b8a3778d-0864-4135-9053-1def02d3262e"
      ],
      "groups": [
        "ae613721-1fbe-480d-ba6b-d6d0702b184d"
      ],
      "langs": [
        "4dcf9614-7914-42aa-99f4-dbce2e059133"
      ],
      "platforms": [
        "213a1a15-e73a-4a08-b3f6-b6e2745a82e5"
      ],
      "series": [
        "6390f2f1-6023-42db-985c-2d8987213221"
      ],
      "singers": [
        "3b97f60d-23e3-4e23-bf7f-9835bba682a7"
      ],
      "songtypes": [
        "f02ad9b3-0bd9-4aad-85b3-9976739ba0e4"
      ],
      "songwriters": [
        "1376e8b2-e7ab-4338-a4b3-5235a4adb7a2",
        "653179ef-2784-4f33-b4be-5ba46eccf5a2"
      ],
      "origins": [
        "dbedd6b3-d125-4cd8-aa32-c4175e4ca3a3"
      ]
    },
    "title": "Kimi no Namae no Kaze ga Fuku",
    "titles": {
      "qro": "Kimi no Namae no Kaze ga Fuku",
      "jpn": "君の名前の風が吹く"
    },
    "year": 2015,
    "titles_default_language": "qro"
  }
}