{
  "header": {
    "version": 4,
    "description": "Karaoke Mugen Karaoke Data File"
  },
  "medias": [
    {
      "version": "Default",
      "filename": "JPN - Shuumatsu Nani Shitemasuka question_mark Isogashii Desuka Sukutte Moratte Ii Desuka - ED1 - From.mp4",
      "audiogain": -1.99,
      "loudnorm": "-16.03,-7.85,7.50,-26.20,-1.38",
      "filesize": 26621680,
      "duration": 90,
      "default": true,
      "lyrics": [
        {
          "filename": "JPN - Shuumatsu Nani Shitemasuka question_mark Isogashii Desuka Sukutte Moratte Ii Desuka - ED1 - From.ass",
          "default": true,
          "version": "Default",
          "subchecksum": "80f98f461f1483eaff013bff7f6b9d4b"
        }
      ]
    }
  ],
  "data": {
    "created_at": "2018-07-28T11:49:06.000Z",
    "kid": "7d3ef06e-2362-465e-a2f0-38f65b3f73c4",
    "modified_at": "2021-02-25T13:07:52.072Z",
    "repository": "kara.moe",
    "songorder": 1,
    "tags": {
      "authors": [
        "b5116310-e69b-4ed4-9e47-c5c53ee69023"
      ],
      "collections": [
        "c7db86a0-ff64-4044-9be4-66dd1ef1d1c1"
      ],
      "creators": [
        "0041fabf-4b82-4ecd-961b-e4c49b8c88be",
        "c5b27231-6ac3-4a71-9d0c-06aa0282f55f"
      ],
      "families": [
        "0377db02-3af6-43b8-9b08-c759df3d25c3"
      ],
      "groups": [
        "ae613721-1fbe-480d-ba6b-d6d0702b184d"
      ],
      "langs": [
        "4dcf9614-7914-42aa-99f4-dbce2e059133"
      ],
      "origins": [
        "938de218-5343-4865-94d3-fb33f2eaa152"
      ],
      "series": [
        "686610bd-65e7-4695-a0e1-8144111685c2"
      ],
      "singers": [
        "61c5e3d4-6a0e-46b6-b622-06f5bc6d3294"
      ],
      "songtypes": [
        "38c77c56-2b95-4040-b676-0994a8cb0597"
      ],
      "songwriters": [
        "7e72484d-b638-4d9a-95f2-5947c59d721b",
        "ad73a27b-de24-4a08-99fc-a16caf59f60d"
      ]
    },
    "title": "From",
    "titles": {
      "eng": "From",
      "jpn": "フロム"
    },
    "year": 2017,
    "titles_default_language": "eng"
  }
}