{
  "header": {
    "version": 4,
    "description": "Karaoke Mugen Karaoke Data File"
  },
  "medias": [
    {
      "version": "Default",
      "filename": "JPN - Touhou - MV - Junjou Armeria.mp4",
      "loudnorm": "-17.03,-8.47,6.50,-27.30,-0.63",
      "filesize": 76565656,
      "duration": 283,
      "default": true,
      "lyrics": [
        {
          "filename": "JPN - Touhou - MV - Junjou Armeria.ass",
          "default": true,
          "version": "Default"
        }
      ]
    }
  ],
  "data": {
    "created_at": "2023-09-23T13:14:43.348Z",
    "ignoreHooks": false,
    "kid": "9b9d563e-5810-464f-bad3-ee547acd5ecf",
    "modified_at": "2023-09-23T13:52:43.571Z",
    "repository": "kara.moe",
    "tags": {
      "authors": [
        "61865310-cb97-496c-a722-364b0a9ba90d"
      ],
      "collections": [
        "c7db86a0-ff64-4044-9be4-66dd1ef1d1c1"
      ],
      "creators": [
        "b32c5858-4bde-4ca6-a86a-b934161f3d0b",
        "d491218b-90a4-469f-8049-029bdc93017e"
      ],
      "families": [
        "0377db02-3af6-43b8-9b08-c759df3d25c3"
      ],
      "groups": [
        "8c22c899-b3ed-42da-a548-ce00f950798b",
        "ae613721-1fbe-480d-ba6b-d6d0702b184d"
      ],
      "langs": [
        "4dcf9614-7914-42aa-99f4-dbce2e059133"
      ],
      "origins": [
        "ac5085db-52d8-44b4-8fbb-1697b24d2046"
      ],
      "series": [
        "1bdaa5a1-dfa6-4365-b746-7a0b194dafd6"
      ],
      "singers": [
        "df7eaeb6-af8a-4277-8527-ce1a41d4cd39"
      ],
      "singergroups": [
        "e079fece-a1e3-4d31-adcb-07a9adf01df6"
      ],
      "songtypes": [
        "7be1b15c-cff8-4b37-a649-5c90f3d569a9"
      ],
      "songwriters": [
        "8326602c-48a0-41e8-b7ca-5a9cd9a27010",
        "9677e10e-aa5b-4d1d-9861-df3a624bb8d9",
        "26cb5252-8510-49e0-897c-a611a05fc056"
      ],
      "franchises": [
        "1bdaa5a1-dfa6-4365-b746-7a0b194dafd6"
      ]
    },
    "titles": {
      "jpn": "純情アルメリア",
      "qro": "Junjô Armeria"
    },
    "titles_default_language": "qro",
    "titles_aliases": [
      "junjou",
      "Pure-Hearted",
      "Junjou"
    ],
    "year": 2016
  }
}