{
  "header": {
    "version": 4,
    "description": "Karaoke Mugen Karaoke Data File"
  },
  "medias": [
    {
      "version": "Default",
      "filename": "JPN - D4DJ Double Mix - LIVE - FAKE OFF ~ Full Vers.mp4",
      "audiogain": -0.42,
      "loudnorm": "-16.92,-5.84,3.60,-26.99,-0.72",
      "filesize": 344791787,
      "duration": 316,
      "default": true,
      "lyrics": [
        {
          "filename": "JPN - D4DJ Double Mix - LIVE - FAKE OFF ~ Full Vers.ass",
          "default": true,
          "version": "Default"
        }
      ]
    }
  ],
  "data": {
    "created_at": "2023-08-16T13:38:04.227Z",
    "ignoreHooks": false,
    "kid": "d8c71157-42b3-4811-a9d2-b807b833c438",
    "modified_at": "2023-08-16T13:57:49.550Z",
    "parents": [
      "5f594d83-cbda-4248-b273-fb89134c258f"
    ],
    "repository": "kara.moe",
    "tags": {
      "authors": [
        "002873d6-a84e-4e5a-85aa-fbe3969143c6"
      ],
      "collections": [
        "dbcf2c22-524d-4708-99bb-601703633927"
      ],
      "creators": [
        "4e1122b4-c09f-445f-bdfa-cbad9581f2dc",
        "bd4564a8-44e5-454a-9c57-bd2a3c8a537e"
      ],
      "families": [
        "5391f9fe-638c-415f-8dc9-958e3a2c5787"
      ],
      "genres": [
        "caa86df2-0d59-474b-885c-f240a9e891b0"
      ],
      "groups": [
        "8e209ae4-4381-438f-89dc-1b21752027d2"
      ],
      "langs": [
        "4dcf9614-7914-42aa-99f4-dbce2e059133"
      ],
      "misc": [
        "1d6ceadf-a885-47e5-b23b-c07bf668a424",
        "86705d4b-24e4-4756-9687-2b9c98bcf366"
      ],
      "series": [
        "a181df66-60c8-4446-b7ac-769a9ef32904"
      ],
      "singers": [
        "030f2e64-365e-40a8-a0c5-63e7c8463fc2",
        "4c03d862-2bec-46eb-a044-ad87dc8fba87",
        "64b30fd2-3902-4f54-abbf-71fb39b5bae3",
        "81548020-23db-4eee-82e0-826eebefda45",
        "a5c02dc9-4484-476d-bf85-b82ea08a8459",
        "e1737fa3-d27b-4d11-8aae-4d7992486bcb"
      ],
      "singergroups": [
        "8ee92c32-35d2-4688-b196-f0c19cabbeaf",
        "96ce6d74-77d4-4e1d-9387-23f2273ea9af"
      ],
      "songtypes": [
        "a0167949-580c-4de3-bf13-497e462e02f3"
      ],
      "songwriters": [
        "4d1ee848-819f-4ace-9ab5-56a1137d0c12"
      ],
      "versions": [
        "c2143a7f-6970-450e-8a79-0302db9220a9"
      ],
      "franchises": [
        "e2e9382c-e3bd-4db9-abaf-194d09099ab0"
      ]
    },
    "titles": {
      "eng": "FAKE OFF"
    },
    "titles_default_language": "eng",
    "year": 2022
  }
}