{
  "header": {
    "version": 4,
    "description": "Karaoke Mugen Karaoke Data File"
  },
  "medias": [
    {
      "version": "Default",
      "filename": "JPN - Hypnosis Mic -Division Rap Battle- - MV - Bad Ass Temple Funky Sounds.mp4",
      "audiogain": -9.66,
      "loudnorm": "-7.51,1.47,3.80,-17.63,-0.38",
      "filesize": 121381744,
      "duration": 269,
      "default": true,
      "lyrics": [
        {
          "filename": "JPN - Hypnosis Mic -Division Rap Battle- - MV - Bad Ass Temple Funky Sounds.ass",
          "default": true,
          "version": "Default"
        }
      ]
    }
  ],
  "data": {
    "created_at": "2020-01-15T14:21:50.883Z",
    "ignoreHooks": false,
    "kid": "7a1048f8-f4f6-4ea9-8f5f-451f119b08bb",
    "modified_at": "2022-08-10T21:00:09.757Z",
    "repository": "kara.moe",
    "tags": {
      "authors": [
        "2a9bbf75-0722-4b4a-9935-caa92f38fdd1"
      ],
      "collections": [
        "c7db86a0-ff64-4044-9be4-66dd1ef1d1c1"
      ],
      "creators": [
        "57922aa1-eae2-4c1d-946c-bb320505b549",
        "769af53e-df08-4cb5-9cad-7503576dee49",
        "98ab71c6-8066-4d59-84a2-9833a27ec461",
        "d2a29c19-019f-4a3d-86ad-2dae9e41a4b1"
      ],
      "families": [
        "0377db02-3af6-43b8-9b08-c759df3d25c3"
      ],
      "groups": [
        "ae613721-1fbe-480d-ba6b-d6d0702b184d"
      ],
      "langs": [
        "4dcf9614-7914-42aa-99f4-dbce2e059133"
      ],
      "misc": [
        "ec4fee75-71fb-45b4-9772-2ca374b4b600"
      ],
      "series": [
        "8969c1d9-a552-4216-837c-36945e5e730a"
      ],
      "singers": [
        "245206bf-7e1c-4da3-8001-7f7b61aa65ec",
        "28aa4244-7868-43ff-8c35-c67e636e858c",
        "d3d2814b-b117-43bd-b221-e09926080f54"
      ],
      "singergroups": [
        "be071892-82b3-4b8e-85cf-ea9ae502ae67"
      ],
      "songtypes": [
        "7be1b15c-cff8-4b37-a649-5c90f3d569a9"
      ],
      "songwriters": [
        "03a7004b-d87c-4b14-b463-c1dc1a7e7525",
        "0659c4d4-b908-49ae-b504-2fee544e50c7",
        "09136595-03be-4a9a-8183-14420193c0ba",
        "69947b25-a0cd-470c-b90a-4bc09cba6ef3",
        "d94eda36-5488-4b77-9b0c-b25f8c2f0933",
        "f0af9a77-435a-471b-b44e-8c1766b6c257"
      ],
      "franchises": [
        "8969c1d9-a552-4216-837c-36945e5e730a"
      ]
    },
    "titles": {
      "eng": "Bad Ass Temple Funky Sounds"
    },
    "titles_default_language": "eng",
    "title": "Bad Ass Temple Funky Sounds",
    "year": 2019
  }
}