{
  "header": {
    "version": 4,
    "description": "Karaoke Mugen Karaoke Data File"
  },
  "medias": [
    {
      "version": "Default",
      "filename": "JPN - Yuusha Ou GaoGaiGar FINAL Grand Glorious Gathering - ED4 - Lion Reine Hyper Mode.mp4",
      "audiogain": -1.03,
      "loudnorm": "-17.09,-3.41,6.20,-27.19,-1.12",
      "filesize": 44142842,
      "duration": 117,
      "default": true,
      "lyrics": [
        {
          "filename": "JPN - Yuusha Ou GaoGaiGar FINAL Grand Glorious Gathering - ED4 - Lion Reine Hyper Mode.ass",
          "default": true,
          "version": "Default",
          "subchecksum": "60bbbbc9f89e74ef6afc53983433a72f"
        }
      ]
    }
  ],
  "data": {
    "created_at": "2021-04-06T15:00:02.420Z",
    "kid": "bed37a96-bc1b-410c-afc2-abfa39af78e6",
    "modified_at": "2021-05-17T21:00:50.247Z",
    "parents": [
      "85bf8f06-5f0b-4513-b25b-a601d6eb2f27"
    ],
    "repository": "kara.moe",
    "songorder": 4,
    "tags": {
      "authors": [
        "a5dbab74-510b-48c5-9cea-5a537a81c974"
      ],
      "collections": [
        "c7db86a0-ff64-4044-9be4-66dd1ef1d1c1"
      ],
      "creators": [
        "ef8f80e1-d244-4aea-b7f0-984d6dd4b82b"
      ],
      "families": [
        "0377db02-3af6-43b8-9b08-c759df3d25c3"
      ],
      "genres": [
        "f60ba57d-5ef4-49e0-b93b-d0dcbcff6592"
      ],
      "groups": [
        "3c14c864-533c-49e6-a3cc-6969f1233775",
        "8c22c899-b3ed-42da-a548-ce00f950798b"
      ],
      "langs": [
        "4dcf9614-7914-42aa-99f4-dbce2e059133"
      ],
      "misc": [
        "fe819ff1-9db8-4a0f-85dc-0e322c9126c4"
      ],
      "origins": [
        "938de218-5343-4865-94d3-fb33f2eaa152"
      ],
      "series": [
        "db3805f5-b9b6-4d39-91eb-db8bc3b057dd"
      ],
      "singers": [
        "f7a1aa6a-4cc9-433f-a6a0-924653b6fd7f"
      ],
      "songtypes": [
        "38c77c56-2b95-4040-b676-0994a8cb0597"
      ],
      "songwriters": [
        "2461dcff-0d44-481a-9841-a8ae3e3d53db",
        "6331c258-62f2-49e2-904c-75ea1e41f086"
      ],
      "franchises": [
        "0a99dee4-b69c-4108-a211-096e644abb72"
      ]
    },
    "title": "Lion Reine Hyper Mode",
    "titles": {
      "eng": "Lion Reine Hyper Mode",
      "jpn": "獅子の女王-ハイパーモード-"
    },
    "year": 2005,
    "titles_default_language": "eng"
  }
}