{
  "header": {
    "version": 4,
    "description": "Karaoke Mugen Karaoke Data File"
  },
  "medias": [
    {
      "version": "Default",
      "filename": "JPN - NEEDY GIRL OVERDOSE - GAME SWITCH MV - INTERNET YAMERO ~ Off Vocal Vers.mp4",
      "audiogain": -7.67,
      "loudnorm": "-7.51,1.74,12.20,-18.11,-1.02",
      "filesize": 147235994,
      "duration": 244,
      "default": true,
      "lyrics": [
        {
          "filename": "JPN - NEEDY GIRL OVERDOSE - GAME SWITCH MV - INTERNET YAMERO ~ Off Vocal Vers.ass",
          "default": true,
          "version": "Default"
        }
      ]
    }
  ],
  "data": {
    "created_at": "2023-05-02T21:13:32.511Z",
    "ignoreHooks": false,
    "kid": "5d19f50c-40ab-42e6-8360-a1b3d5c09489",
    "modified_at": "2023-05-02T21:13:32.638Z",
    "parents": [
      "ff99f94d-2548-4a8a-868a-e773b57daafe"
    ],
    "repository": "kara.moe",
    "tags": {
      "authors": [
        "a3a99b23-6c42-4d38-8863-491153187437",
        "10891649-d475-46eb-b515-8eb3c1e14622"
      ],
      "collections": [
        "c7db86a0-ff64-4044-9be4-66dd1ef1d1c1"
      ],
      "creators": [
        "10958ba4-35c0-4a21-b6ff-752745939779",
        "1f4d93b0-b99c-4ee9-aa49-fa7095bdb8e6",
        "294d23cd-3f3c-4829-930d-71b2eefe17f9",
        "46a36dbc-e808-4e66-a5a6-24410d26abdb",
        "4dc49968-1a41-4d24-adac-46756e49a955",
        "4ec756ea-6f89-4c61-a442-0db32dbb536e",
        "53b7d772-045f-4ec1-a3ef-247d9462cefb",
        "5e39560d-21fe-45df-b4e6-66f9384203c4",
        "7cd163bb-05a7-4616-b186-51d265ea2ad9",
        "a35b8ce8-da75-49cc-a965-c29c44c026b5",
        "a8206e82-eafb-4680-9b58-13398f10caf9",
        "db4c7a6c-6619-4527-8268-03ab368db101",
        "ed4c4d03-34a9-4e64-9ee8-7a57a7b1495e"
      ],
      "groups": [
        "8e209ae4-4381-438f-89dc-1b21752027d2"
      ],
      "langs": [
        "4dcf9614-7914-42aa-99f4-dbce2e059133"
      ],
      "misc": [
        "ec4fee75-71fb-45b4-9772-2ca374b4b600"
      ],
      "origins": [
        "dbedd6b3-d125-4cd8-aa32-c4175e4ca3a3"
      ],
      "platforms": [
        "0a880bfc-d0e5-448b-98d2-4ba7b3106641",
        "3c15f758-e1bc-4266-8bb9-3c14112f504a"
      ],
      "series": [
        "dea464df-b3a6-4d94-ab80-3a658d79fb95"
      ],
      "singers": [
        "06c618ba-0261-4ad5-9a40-e2d31ef6c330"
      ],
      "songtypes": [
        "7be1b15c-cff8-4b37-a649-5c90f3d569a9"
      ],
      "songwriters": [
        "17d8bcf5-b197-41fd-9e23-2b8826f83995"
      ],
      "versions": [
        "c0cc87b9-55b9-40f0-878a-fbb9e34c151e"
      ],
      "warnings": [
        "51288600-29e0-4e41-a42b-77f0498e5691"
      ]
    },
    "titles": {
      "eng": "INTERNET YAMERO"
    },
    "titles_default_language": "eng",
    "year": 2023
  }
}