{
  "header": {
    "version": 4,
    "description": "Karaoke Mugen Karaoke Data File"
  },
  "medias": [
    {
      "version": "Default",
      "filename": "JPN - Touhou - MV - Murasame UNITED The Unbelievable Alice Assault.mp4",
      "audiogain": -0.54,
      "loudnorm": "-17.06,-6.62,2.90,-27.09,-0.64",
      "filesize": 35492130,
      "duration": 256,
      "default": true,
      "lyrics": [
        {
          "filename": "JPN - Touhou - MV - Murasame UNITED The Unbelievable Alice Assault.ass",
          "default": true,
          "version": "Default"
        }
      ]
    }
  ],
  "data": {
    "created_at": "2022-02-20T16:57:41.466Z",
    "kid": "c1c13344-6c6d-4dd3-97d7-a6c307c65297",
    "modified_at": "2022-09-30T20:15:31.502Z",
    "repository": "kara.moe",
    "tags": {
      "series": [
        "1bdaa5a1-dfa6-4365-b746-7a0b194dafd6"
      ],
      "singers": [
        "5d048562-347d-4258-b50a-a7b3b41e92cb",
        "92cfca54-6864-4b38-8083-a81fdcfd7b15",
        "b87c99b9-70ea-4e0b-9873-36651a384fe5"
      ],
      "songtypes": [
        "7be1b15c-cff8-4b37-a649-5c90f3d569a9"
      ],
      "creators": [
        "25fc251a-0514-4bf5-a818-dd0547723f4a"
      ],
      "langs": [
        "4dcf9614-7914-42aa-99f4-dbce2e059133"
      ],
      "authors": [
        "1631228b-9125-497a-aafc-66f920a44a02"
      ],
      "songwriters": [
        "bbcb98c4-2b9d-4796-9ec7-e621d8ce56e7",
        "826126a7-31a4-4dbe-a072-112b731dc065"
      ],
      "groups": [
        "8c22c899-b3ed-42da-a548-ce00f950798b",
        "ae613721-1fbe-480d-ba6b-d6d0702b184d"
      ],
      "families": [
        "0377db02-3af6-43b8-9b08-c759df3d25c3"
      ],
      "origins": [
        "ac5085db-52d8-44b4-8fbb-1697b24d2046"
      ],
      "collections": [
        "c7db86a0-ff64-4044-9be4-66dd1ef1d1c1"
      ],
      "franchises": [
        "1bdaa5a1-dfa6-4365-b746-7a0b194dafd6"
      ]
    },
    "titles": {
      "eng": "Murasame UNITED: The Unbelievable Alice Assault",
      "qro": "Murasame UNITED: Masaka no Alice Totsugeki-hen",
      "jpn": "紫雨UNITED まさかのアリス突撃編"
    },
    "titles_default_language": "eng",
    "titles_aliases": [
      "Purple Rain"
    ],
    "title": "Murasame UNITED: The Unbelievable Alice Assault ",
    "year": 2010,
    "titles_default_language": "eng"
  }
}