{
  "header": {
    "version": 4,
    "description": "Karaoke Mugen Karaoke Data File"
  },
  "medias": [
    {
      "version": "Default",
      "filename": "JPN - Ginga Tetsudou 999 (1979) - MOVIE IN - Yasashiku Shinaide.mp4",
      "audiogain": 3.58,
      "loudnorm": "-22.39,-5.91,9.40,-32.74,-0.61",
      "filesize": 14583805,
      "duration": 116,
      "default": true,
      "lyrics": [
        {
          "filename": "JPN - Ginga Tetsudou 999 (1979) - MOVIE IN - Yasashiku Shinaide.ass",
          "default": true,
          "version": "Default",
          "subchecksum": "607658313759e581e24aa7975e14ed71"
        }
      ]
    }
  ],
  "data": {
    "created_at": "2018-11-26T01:21:15.000Z",
    "kid": "32ae6724-4b29-4aba-be06-2ee57e47f887",
    "modified_at": "2021-02-25T11:28:22.245Z",
    "repository": "kara.moe",
    "tags": {
      "authors": [
        "3f0f8e56-946b-4091-a385-d992733b346f"
      ],
      "collections": [
        "c7db86a0-ff64-4044-9be4-66dd1ef1d1c1"
      ],
      "creators": [
        "f694bf43-b427-4244-9744-9d3f84fd8a31"
      ],
      "families": [
        "0377db02-3af6-43b8-9b08-c759df3d25c3"
      ],
      "groups": [
        "57e5e0c0-e02e-4871-a6cb-d48ea604ebab"
      ],
      "langs": [
        "4dcf9614-7914-42aa-99f4-dbce2e059133"
      ],
      "origins": [
        "c8ca9dea-d8b4-48fe-8427-d911653232e9"
      ],
      "series": [
        "3b5c8512-ca99-4a2d-bc8f-d360fd045b9b"
      ],
      "singers": [
        "b6a28c23-92bb-450d-ba29-841d3e8fdcbb"
      ],
      "songtypes": [
        "5e5250d9-351a-4a82-98eb-55db50ad8962"
      ],
      "songwriters": [
        "2128b628-bf8a-4721-b623-799d19ca05d7",
        "311f557d-22cb-489d-b9e2-91b99661e8ab",
        "ff8190eb-f785-4ef3-938a-3a833a591e7e"
      ],
      "franchises": [
        "36223d15-7e02-4b37-a168-136b1578f362"
      ]
    },
    "title": "Yasashiku Shinaide",
    "titles": {
      "qro": "Yasashikushinaide",
      "jpn": "やさしくしないで"
    },
    "year": 1979,
    "titles_default_language": "qro"
  }
}