{
  "header": {
    "version": 4,
    "description": "Karaoke Mugen Karaoke Data File"
  },
  "medias": [
    {
      "version": "Default",
      "filename": "JPN - Shin Koihime Musou Otome Tairan - ED - Yuuki Rinrin.avi",
      "audiogain": -4.8,
      "loudnorm": "-14.01,-3.06,5.00,-24.19,-0.38",
      "filesize": 72570880,
      "duration": 89,
      "default": true,
      "lyrics": [
        {
          "filename": "JPN - Shin Koihime Musou Otome Tairan - ED - Yuuki Rinrin.ass",
          "default": true,
          "version": "Default"
        }
      ]
    }
  ],
  "data": {
    "created_at": "2017-10-11T17:02:29.000Z",
    "ignoreHooks": false,
    "kid": "f4c3dc5b-5f8c-4fe5-83c9-5d064a6756f4",
    "modified_at": "2022-10-03T17:35:23.862Z",
    "repository": "kara.moe",
    "tags": {
      "authors": [
        "5bdaba57-27f8-4568-8806-76a807728766"
      ],
      "collections": [
        "c7db86a0-ff64-4044-9be4-66dd1ef1d1c1"
      ],
      "creators": [
        "5b10d972-08a8-419d-9663-46930cc2c347"
      ],
      "families": [
        "0377db02-3af6-43b8-9b08-c759df3d25c3"
      ],
      "groups": [
        "ae613721-1fbe-480d-ba6b-d6d0702b184d"
      ],
      "langs": [
        "4dcf9614-7914-42aa-99f4-dbce2e059133"
      ],
      "origins": [
        "938de218-5343-4865-94d3-fb33f2eaa152"
      ],
      "series": [
        "c402bb5b-4710-4046-b086-4eac59641083"
      ],
      "singers": [
        "88a4e923-4d65-455c-bb6b-4b77c7f5cf22",
        "9676d157-5aad-4926-ac70-af71560cea6a",
        "e07b123a-4b7e-439b-bab6-19265494f5aa"
      ],
      "songtypes": [
        "38c77c56-2b95-4040-b676-0994a8cb0597"
      ],
      "songwriters": [
        "36a4860d-57a2-4254-8473-45367da94d31",
        "bf5fe578-cbe7-48b6-bcb9-1f3380732013"
      ],
      "franchises": [
        "408dd1b5-2967-485e-b8dc-2ef292928766"
      ]
    },
    "titles": {
      "jpn": "勇気凛凛",
      "qro": "Yûki Rinrin"
    },
    "titles_default_language": "qro",
    "titles_aliases": [
      "Yuuki"
    ],
    "title": "Yûki Rinrin",
    "year": 2010
  }
}