{
  "header": {
    "version": 4,
    "description": "Karaoke Mugen Karaoke Data File"
  },
  "medias": [
    {
      "version": "Default",
      "filename": "JPN - Suzumiya Haruhi no Yuuutsu - AUDIO IS - Aishite! ~ Off Vocal Vers.mp3",
      "audiogain": -9.08,
      "loudnorm": "-8.53,1.82,4.40,-18.61,-0.32",
      "filesize": 5859393,
      "duration": 254,
      "default": true,
      "lyrics": [
        {
          "filename": "JPN - Suzumiya Haruhi no Yuuutsu - AUDIO IS - Aishite! ~ Off Vocal Vers.ass",
          "default": true,
          "version": "Default"
        }
      ]
    }
  ],
  "data": {
    "comment": "Piste 4 de l’album Super Driver (https://vgmdb.net/album/35017) ; j’ai resynchronisé avec la piste 2 pour pouvoir conserver le même .ass",
    "created_at": "2023-06-25T21:23:10.152Z",
    "ignoreHooks": false,
    "kid": "4bacda07-8c2e-4a38-b066-9c25a1a4f0bf",
    "modified_at": "2023-06-25T21:31:34.434Z",
    "parents": [
      "2f5596ec-c230-4a2a-9a70-2260d32378ec"
    ],
    "repository": "kara.moe",
    "tags": {
      "authors": [
        "4749577f-84d7-470b-bfa8-09c6f9a97c32"
      ],
      "collections": [
        "c7db86a0-ff64-4044-9be4-66dd1ef1d1c1",
        "dbcf2c22-524d-4708-99bb-601703633927"
      ],
      "creators": [
        "b2805292-730e-473a-96f0-fd8e7ffd1fd7"
      ],
      "groups": [
        "3c14c864-533c-49e6-a3cc-6969f1233775"
      ],
      "langs": [
        "4dcf9614-7914-42aa-99f4-dbce2e059133"
      ],
      "series": [
        "4f132535-c7b6-4147-a324-6995aad44df7"
      ],
      "singers": [
        "488aea99-01a0-4c2c-b475-b61d99efe994"
      ],
      "songtypes": [
        "10a1ad3e-a05c-4f5c-84b6-f491e3e3a92e",
        "42a262ae-acba-4ab5-a446-c5789c96c821"
      ],
      "songwriters": [
        "28b975a1-0b59-49b7-aa1d-987c9b4fe7ae",
        "488aea99-01a0-4c2c-b475-b61d99efe994"
      ],
      "versions": [
        "c0cc87b9-55b9-40f0-878a-fbb9e34c151e"
      ],
      "franchises": [
        "4f132535-c7b6-4147-a324-6995aad44df7"
      ]
    },
    "titles": {
      "jpn": "アイシテ!",
      "qro": "Aishite!"
    },
    "titles_default_language": "qro",
    "year": 2009
  }
}