{
  "header": {
    "version": 4,
    "description": "Karaoke Mugen Karaoke Data File"
  },
  "medias": [
    {
      "version": "Default",
      "filename": "JPN - Link! Like! Love Live! - AUDIO - Kibouteki Prism ~ Full Vers.mp3",
      "audiogain": -9.06,
      "loudnorm": "-8.20,1.88,7.90,-18.43,-1.26",
      "filesize": 4453229,
      "duration": 257,
      "default": true,
      "lyrics": [
        {
          "filename": "JPN - Link! Like! Love Live! - AUDIO - Kibouteki Prism ~ Full Vers.ass",
          "default": true,
          "version": "Default"
        }
      ]
    }
  ],
  "data": {
    "created_at": "2023-07-15T15:52:09.554Z",
    "ignoreHooks": false,
    "kid": "ee1db101-2b82-40a9-bfa6-f7047dc070ea",
    "modified_at": "2023-07-15T15:52:09.554Z",
    "repository": "kara.moe",
    "tags": {
      "authors": [
        "16b136eb-921f-4c07-be38-ff92d5cc4313"
      ],
      "collections": [
        "dbcf2c22-524d-4708-99bb-601703633927"
      ],
      "creators": [
        "b2805292-730e-473a-96f0-fd8e7ffd1fd7"
      ],
      "genres": [
        "caa86df2-0d59-474b-885c-f240a9e891b0"
      ],
      "groups": [
        "8e209ae4-4381-438f-89dc-1b21752027d2"
      ],
      "langs": [
        "4dcf9614-7914-42aa-99f4-dbce2e059133"
      ],
      "series": [
        "c6245b47-6ad8-498a-b790-e6b8a50fea5e"
      ],
      "singers": [
        "4e39a0e7-c012-4be9-a2c9-f09cf8d3a31b",
        "f5569c82-f01f-4cdb-b1c2-a0db10706211"
      ],
      "singergroups": [
        "4af676a8-9381-477e-99c2-e693b416f095"
      ],
      "songtypes": [
        "42a262ae-acba-4ab5-a446-c5789c96c821"
      ],
      "songwriters": [
        "fa13cb11-f348-4daa-a019-92209fe7eb49",
        "ccdcdf15-dcc6-4505-b0e7-015123a04ef9",
        "38860e76-0ef2-49b6-8db2-559a3b558b13",
        "d60fc66b-e684-4228-b80d-d5327935ef28",
        "12d20d70-db4c-4a7d-9767-3400f29496f4"
      ],
      "versions": [
        "c2143a7f-6970-450e-8a79-0302db9220a9"
      ],
      "franchises": [
        "fd5d066e-e85a-4eea-8688-2979a887450a"
      ]
    },
    "titles": {
      "qro": "Kibouteki Prism"
    },
    "titles_default_language": "qro",
    "year": 2023
  }
}