{
  "header": {
    "version": 4,
    "description": "Karaoke Mugen Karaoke Data File"
  },
  "medias": [
    {
      "version": "Default",
      "filename": "JPN - Touhou - MV - Itsumo no futari.mp4",
      "audiogain": -11.46,
      "loudnorm": "-7.07,1.62,6.00,-17.33,-0.33",
      "filesize": 43374317,
      "duration": 267,
      "default": true,
      "lyrics": [
        {
          "filename": "JPN - Touhou - MV - Itsumo no futari.ass",
          "default": true,
          "version": "Default"
        }
      ]
    }
  ],
  "data": {
    "created_at": "2022-10-05T18:38:25.810Z",
    "ignoreHooks": false,
    "kid": "f25efcaa-a1f5-4ee8-afbb-e4cd7ffdd44d",
    "modified_at": "2023-07-02T21:50:00.138Z",
    "repository": "kara.moe",
    "tags": {
      "authors": [
        "1fbfef73-6731-40df-ba51-65a54b9d1605"
      ],
      "collections": [
        "c7db86a0-ff64-4044-9be4-66dd1ef1d1c1"
      ],
      "creators": [
        "0fa12705-e060-490d-82c9-838989a929bc"
      ],
      "families": [
        "0377db02-3af6-43b8-9b08-c759df3d25c3"
      ],
      "groups": [
        "ae613721-1fbe-480d-ba6b-d6d0702b184d"
      ],
      "langs": [
        "4dcf9614-7914-42aa-99f4-dbce2e059133"
      ],
      "origins": [
        "ac5085db-52d8-44b4-8fbb-1697b24d2046"
      ],
      "series": [
        "1bdaa5a1-dfa6-4365-b746-7a0b194dafd6"
      ],
      "singers": [
        "91c5c312-83d5-447e-9f03-91b11cf2efa1"
      ],
      "singergroups": [
        "0fa12705-e060-490d-82c9-838989a929bc"
      ],
      "songtypes": [
        "7be1b15c-cff8-4b37-a649-5c90f3d569a9"
      ],
      "songwriters": [
        "26cb5252-8510-49e0-897c-a611a05fc056",
        "cbb6b661-766c-45ef-ae72-26bc37a71ba9"
      ],
      "franchises": [
        "1bdaa5a1-dfa6-4365-b746-7a0b194dafd6"
      ]
    },
    "titles": {
      "jpn": "いつもの二人",
      "qro": "Itsumo no futari"
    },
    "titles_default_language": "qro",
    "titles_aliases": [
      "those",
      "these",
      "two as always"
    ],
    "year": 2012
  }
}