{
  "header": {
    "version": 4,
    "description": "Karaoke Mugen Karaoke Data File"
  },
  "medias": [
    {
      "version": "Default",
      "filename": "JPN - NANA - ED5 - stand by me.mp4",
      "audiogain": -2.97,
      "loudnorm": "-13.98,-3.52,4.10,-24.34,-0.82",
      "filesize": 5079844,
      "duration": 72,
      "default": true,
      "lyrics": [
        {
          "filename": "JPN - NANA - ED5 - stand by me.ass",
          "default": true,
          "version": "Default",
          "subchecksum": "98c896adbbc9184e8ddb958786f9c72c"
        }
      ]
    }
  ],
  "data": {
    "created_at": "2017-10-11T17:02:37.000Z",
    "kid": "212b7f98-25bd-4e3b-ad1e-5eafa85d3f8d",
    "modified_at": "2021-02-25T12:32:32.583Z",
    "repository": "kara.moe",
    "songorder": 5,
    "tags": {
      "authors": [
        "8c22c899-b3ed-42da-a548-ce00f950798b"
      ],
      "collections": [
        "c7db86a0-ff64-4044-9be4-66dd1ef1d1c1"
      ],
      "creators": [
        "9c5cf6ba-0bc8-4cfe-a63c-e9be3a14e9fd"
      ],
      "families": [
        "0377db02-3af6-43b8-9b08-c759df3d25c3"
      ],
      "groups": [
        "3c14c864-533c-49e6-a3cc-6969f1233775",
        "8c22c899-b3ed-42da-a548-ce00f950798b"
      ],
      "langs": [
        "4dcf9614-7914-42aa-99f4-dbce2e059133"
      ],
      "origins": [
        "938de218-5343-4865-94d3-fb33f2eaa152"
      ],
      "series": [
        "6393edba-8ecb-44e6-8a1d-e80b6e007a12"
      ],
      "singers": [
        "79fe6a77-a6a7-4aba-aa82-600b1baed8e4"
      ],
      "songtypes": [
        "38c77c56-2b95-4040-b676-0994a8cb0597"
      ],
      "songwriters": [
        "4bd83bc3-5247-47c6-9811-5d74fc5d5ac0"
      ]
    },
    "title": "stand by me",
    "titles": {
      "eng": "stand by me"
    },
    "year": 2006,
    "titles_default_language": "eng"
  }
}