{
  "header": {
    "version": 4,
    "description": "Karaoke Mugen Karaoke Data File"
  },
  "medias": [
    {
      "version": "Default",
      "filename": "JPN - angela - AUDIO - CORE introduction.mp3",
      "audiogain": -4.98,
      "loudnorm": "-13.76,-1.47,13.50,-24.72,-1.66",
      "filesize": 4546836,
      "duration": 109,
      "default": true,
      "lyrics": [
        {
          "filename": "JPN - angela - AUDIO - CORE introduction.ass",
          "default": true,
          "version": "Default"
        }
      ]
    }
  ],
  "data": {
    "created_at": "2023-06-19T22:39:36.669Z",
    "ignoreHooks": false,
    "kid": "0f589296-6c8d-4f8b-9858-c23783f6108b",
    "modified_at": "2023-06-21T02:34:04.135Z",
    "repository": "kara.moe",
    "tags": {
      "authors": [
        "1db1738f-acdc-42fc-aec3-60f4bddf660d",
        "7848b5dc-a5df-4577-b640-147be5288cec"
      ],
      "collections": [
        "dbcf2c22-524d-4708-99bb-601703633927"
      ],
      "creators": [
        "61cc9c5d-9e95-4a55-b6ab-2529fb6153b5"
      ],
      "groups": [
        "3c14c864-533c-49e6-a3cc-6969f1233775"
      ],
      "langs": [
        "4dcf9614-7914-42aa-99f4-dbce2e059133"
      ],
      "singers": [
        "78d91182-ac66-49fb-9561-1d330667d6c4"
      ],
      "songtypes": [
        "42a262ae-acba-4ab5-a446-c5789c96c821"
      ],
      "songwriters": [
        "0b54e69d-4691-4415-be0e-0dd6fd5d4e1a",
        "84a20b00-fd06-43fd-b78e-9c1a2b7b7795"
      ]
    },
    "titles": {
      "eng": "CORE introduction"
    },
    "titles_default_language": "eng",
    "year": 2004
  }
}