{
  "header": {
    "version": 4,
    "description": "Karaoke Mugen Karaoke Data File"
  },
  "medias": [
    {
      "version": "Default",
      "filename": "JPN - Ken Hirai - AUDIO - Pop Star ~ Off Vocal Vers.mp3",
      "audiogain": -9.79,
      "loudnorm": "-7.64,2.36,5.00,-17.84,-0.74",
      "filesize": 12885404,
      "duration": 285,
      "default": true,
      "lyrics": [
        {
          "filename": "JPN - Ken Hirai - AUDIO - Pop Star ~ Off Vocal Vers.ass",
          "default": true,
          "version": "Default"
        }
      ]
    }
  ],
  "data": {
    "created_at": "2023-07-16T13:37:40.274Z",
    "ignoreHooks": false,
    "kid": "2060a75c-43e1-48fc-9a3c-621a1d994e02",
    "modified_at": "2023-07-22T10:11:05.155Z",
    "parents": [
      "d6f4c834-f999-4d97-8b63-d20fcec5f31e"
    ],
    "repository": "kara.moe",
    "tags": {
      "authors": [
        "444f6842-1a6b-4ade-b8fa-e48490ebc39d"
      ],
      "collections": [
        "dbcf2c22-524d-4708-99bb-601703633927"
      ],
      "creators": [
        "566082ee-060d-4470-ac6f-4a537a50a613"
      ],
      "families": [
        "5391f9fe-638c-415f-8dc9-958e3a2c5787"
      ],
      "groups": [
        "3c14c864-533c-49e6-a3cc-6969f1233775"
      ],
      "langs": [
        "4dcf9614-7914-42aa-99f4-dbce2e059133"
      ],
      "singers": [
        "2a84fc98-9e66-474d-b3e2-d1985293dac5"
      ],
      "songtypes": [
        "42a262ae-acba-4ab5-a446-c5789c96c821"
      ],
      "versions": [
        "c0cc87b9-55b9-40f0-878a-fbb9e34c151e"
      ]
    },
    "titles": {
      "eng": "Pop Star"
    },
    "titles_default_language": "eng",
    "year": 2005
  }
}