{
  "header": {
    "version": 4,
    "description": "Karaoke Mugen Karaoke Data File"
  },
  "medias": [
    {
      "version": "Default",
      "filename": "JPN - Love Live! Nijigasaki Gakuen School Idol Doukoukai - LIVE - Aion no Uta ~ Full Vers.mp4",
      "audiogain": -8.07,
      "loudnorm": "-8.98,1.98,19.40,-19.91,-1.83",
      "filesize": 145313871,
      "duration": 293,
      "default": true,
      "lyrics": [
        {
          "filename": "JPN - Love Live! Nijigasaki Gakuen School Idol Doukoukai - LIVE - Aion no Uta ~ Full Vers.ass",
          "default": true,
          "version": "Default"
        }
      ]
    }
  ],
  "data": {
    "created_at": "2023-07-05T18:42:14.227Z",
    "ignoreHooks": false,
    "kid": "755c3e5a-1147-4fe8-9e80-2cef1327f61f",
    "modified_at": "2023-07-20T22:15:57.695Z",
    "repository": "kara.moe",
    "tags": {
      "authors": [
        "795f4b22-38e3-4bb9-afc1-0b197150525f"
      ],
      "collections": [
        "dbcf2c22-524d-4708-99bb-601703633927"
      ],
      "creators": [
        "b2805292-730e-473a-96f0-fd8e7ffd1fd7"
      ],
      "families": [
        "5391f9fe-638c-415f-8dc9-958e3a2c5787"
      ],
      "genres": [
        "caa86df2-0d59-474b-885c-f240a9e891b0"
      ],
      "groups": [
        "8e209ae4-4381-438f-89dc-1b21752027d2",
        "966d1e74-d1f2-41e2-ab04-24279c22f562"
      ],
      "langs": [
        "4dcf9614-7914-42aa-99f4-dbce2e059133"
      ],
      "series": [
        "9609e3a6-60db-412a-9d81-e9d9d2e0fb79"
      ],
      "singers": [
        "e73e8731-3f33-4d6a-b8f1-d2a6137480be"
      ],
      "singergroups": [
        "425f6083-f574-451a-b719-1257f1d38957"
      ],
      "songtypes": [
        "a0167949-580c-4de3-bf13-497e462e02f3"
      ],
      "songwriters": [
        "72c4064a-540f-4cb0-805a-170ab2ebdfb8",
        "d7c0309b-f971-479e-9ff7-bb276b6cd923"
      ],
      "versions": [
        "c2143a7f-6970-450e-8a79-0302db9220a9"
      ],
      "franchises": [
        "fd5d066e-e85a-4eea-8688-2979a887450a"
      ]
    },
    "titles": {
      "qro": "Aion no Uta"
    },
    "titles_default_language": "qro",
    "year": 2020
  }
}