{
  "header": {
    "version": 4,
    "description": "Karaoke Mugen Karaoke Data File"
  },
  "medias": [
    {
      "version": "Default",
      "filename": "JPN - Mirai Koushi Harima SACLA - ONA CM - pico scope-SACLA-.mp4",
      "audiogain": -7.33,
      "loudnorm": "-10.31,0.97,5.30,-20.67,-0.76",
      "filesize": 41279987,
      "duration": 66,
      "default": true,
      "lyrics": [
        {
          "filename": "JPN - Mirai Koushi Harima SACLA - ONA CM - pico scope-SACLA-.ass",
          "default": true,
          "version": "Default",
          "subchecksum": "a9a6f23a86129db63fc4d1ed3719e0e9"
        }
      ]
    }
  ],
  "data": {
    "created_at": "2018-03-17T18:50:13.000Z",
    "kid": "1469e72e-4d5d-4f17-acfe-15b28cb0c9b4",
    "modified_at": "2021-02-25T12:28:35.913Z",
    "repository": "kara.moe",
    "tags": {
      "authors": [
        "611aa6ee-ebf8-4ef5-8eed-9f1eaec5117e"
      ],
      "collections": [
        "c7db86a0-ff64-4044-9be4-66dd1ef1d1c1"
      ],
      "creators": [
        "3564a06f-167e-4708-be2e-c05bc5b2be5a"
      ],
      "families": [
        "0377db02-3af6-43b8-9b08-c759df3d25c3"
      ],
      "groups": [
        "ae613721-1fbe-480d-ba6b-d6d0702b184d"
      ],
      "langs": [
        "4dcf9614-7914-42aa-99f4-dbce2e059133"
      ],
      "origins": [
        "8db3e098-06ef-45e5-bba9-cb04a21c1e66"
      ],
      "series": [
        "d41cabef-5f9e-4b76-977a-07a4d6c21be7"
      ],
      "singers": [
        "ffabfc86-2f8d-4ffd-99a8-e24eb877f235"
      ],
      "songtypes": [
        "2ddb5358-e674-46fa-a6e1-7f5c5d56f8fa"
      ],
      "songwriters": [
        "71621442-5ffe-4f44-afd0-c2dbdc192d85"
      ]
    },
    "title": "pico scope-SACLA-",
    "titles": {
      "qro": "pico scope-SACLA-"
    },
    "year": 2013,
    "titles_default_language": "qro"
  }
}