{
  "header": {
    "version": 4,
    "description": "Karaoke Mugen Karaoke Data File"
  },
  "medias": [
    {
      "version": "Default",
      "filename": "JPN - Kobo Kanaeru - MV - Tondemo WONDERS ~ Cover Vers.mp4",
      "audiogain": -7.53,
      "loudnorm": "-8.98,0.15,3.10,-19.17,-0.63",
      "filesize": 65417327,
      "duration": 196,
      "default": true,
      "lyrics": [
        {
          "filename": "JPN - Kobo Kanaeru - MV - Tondemo WONDERS ~ Cover Vers.ass",
          "default": true,
          "version": "Default"
        }
      ]
    }
  ],
  "data": {
    "created_at": "2022-07-02T14:33:37.900Z",
    "ignoreHooks": false,
    "kid": "0a69302e-9804-4275-9338-638d354a4d95",
    "modified_at": "2022-07-02T15:22:52.827Z",
    "parents": [
      "227131d6-0298-4a2e-a86c-82121c39915a"
    ],
    "repository": "kara.moe",
    "tags": {
      "authors": [
        "611aa6ee-ebf8-4ef5-8eed-9f1eaec5117e"
      ],
      "collections": [
        "c7db86a0-ff64-4044-9be4-66dd1ef1d1c1"
      ],
      "creators": [
        "0263d413-17bb-4cee-a311-6dd896eda1c9"
      ],
      "families": [
        "0377db02-3af6-43b8-9b08-c759df3d25c3"
      ],
      "groups": [
        "8e209ae4-4381-438f-89dc-1b21752027d2"
      ],
      "langs": [
        "4dcf9614-7914-42aa-99f4-dbce2e059133"
      ],
      "origins": [
        "5106d71b-a78e-4d19-a16d-f8fb6719538a"
      ],
      "singers": [
        "6e7be716-e468-4993-ace1-141cf3f8ca60"
      ],
      "songtypes": [
        "7be1b15c-cff8-4b37-a649-5c90f3d569a9"
      ],
      "songwriters": [
        "94fe32fb-525a-47a6-a97c-4cf3bb0f963c",
        "b6cd556d-b111-4866-84f6-14f6f8fe8bad"
      ],
      "versions": [
        "03e1e1d2-8641-47b7-bbcb-39a3df9ff21c"
      ]
    },
    "titles": {
      "jpn": "トンデモワンダーズ",
      "qro": "Tondemo WONDERS"
    },
    "titles_default_language": "qro",
    "title": "Tondemo WONDERS",
    "year": 2022
  }
}