{
  "header": {
    "version": 4,
    "description": "Karaoke Mugen Karaoke Data File"
  },
  "medias": [
    {
      "version": "Default",
      "filename": "JPN - NANA - ED1 - A Little Pain.mp4",
      "audiogain": 0.45,
      "loudnorm": "-18.65,-5.75,6.60,-28.75,-1.61",
      "filesize": 36650773,
      "duration": 85,
      "default": true,
      "lyrics": [
        {
          "filename": "JPN - NANA - ED1 - A Little Pain.ass",
          "default": true,
          "version": "Default",
          "subchecksum": "febf71db6cbba917545916f2bda9608c"
        }
      ]
    }
  ],
  "data": {
    "created_at": "2017-10-11T17:02:19.000Z",
    "kid": "f303a0f9-4635-400c-9f7b-1f69605640ab",
    "modified_at": "2021-02-25T12:32:28.784Z",
    "repository": "kara.moe",
    "songorder": 1,
    "tags": {
      "authors": [
        "5bdaba57-27f8-4568-8806-76a807728766"
      ],
      "collections": [
        "c7db86a0-ff64-4044-9be4-66dd1ef1d1c1"
      ],
      "creators": [
        "9c5cf6ba-0bc8-4cfe-a63c-e9be3a14e9fd"
      ],
      "families": [
        "0377db02-3af6-43b8-9b08-c759df3d25c3"
      ],
      "groups": [
        "3c14c864-533c-49e6-a3cc-6969f1233775"
      ],
      "langs": [
        "4dcf9614-7914-42aa-99f4-dbce2e059133"
      ],
      "origins": [
        "938de218-5343-4865-94d3-fb33f2eaa152"
      ],
      "series": [
        "6393edba-8ecb-44e6-8a1d-e80b6e007a12"
      ],
      "singers": [
        "1b4d0d00-1f9e-40ad-b560-f69c7dbe8d55"
      ],
      "songtypes": [
        "38c77c56-2b95-4040-b676-0994a8cb0597"
      ],
      "songwriters": [
        "1b4d0d00-1f9e-40ad-b560-f69c7dbe8d55",
        "d3b758f4-dc52-40d5-b672-121e3084d1b2",
        "deb4e577-f911-481a-a9bf-8eb838a00c90"
      ]
    },
    "title": "A Little Pain",
    "titles": {
      "eng": "a little pain"
    },
    "year": 2006,
    "titles_default_language": "eng"
  }
}