{
  "header": {
    "version": 4,
    "description": "Karaoke Mugen Karaoke Data File"
  },
  "medias": [
    {
      "version": "Default",
      "filename": "JPN - Code Breaker - OP - Dark Shame.mp4",
      "audiogain": 3.27,
      "loudnorm": "-20.24,-8.94,3.30,-30.27,-0.73",
      "filesize": 60339175,
      "duration": 91,
      "default": true,
      "lyrics": [
        {
          "filename": "JPN - Code Breaker - OP - Dark Shame.ass",
          "default": true,
          "version": "Default",
          "subchecksum": "86ac2596fd83fe642c818d69132f74fa"
        }
      ]
    }
  ],
  "data": {
    "created_at": "2017-10-11T17:03:04.000Z",
    "kid": "c33ae2e3-5472-4554-879a-653094a30f32",
    "modified_at": "2021-02-25T11:04:02.986Z",
    "repository": "kara.moe",
    "tags": {
      "authors": [
        "5bdaba57-27f8-4568-8806-76a807728766"
      ],
      "collections": [
        "c7db86a0-ff64-4044-9be4-66dd1ef1d1c1"
      ],
      "creators": [
        "08df259d-c4ec-458e-a066-af38a9f7ccc5"
      ],
      "families": [
        "0377db02-3af6-43b8-9b08-c759df3d25c3"
      ],
      "genres": [
        "a0aeef4a-6428-45ff-a6e1-468b595930c2"
      ],
      "groups": [
        "ae613721-1fbe-480d-ba6b-d6d0702b184d"
      ],
      "langs": [
        "4dcf9614-7914-42aa-99f4-dbce2e059133"
      ],
      "origins": [
        "938de218-5343-4865-94d3-fb33f2eaa152"
      ],
      "series": [
        "096fab35-ce9d-4862-9e8a-516c7552d636"
      ],
      "singers": [
        "213ca674-9084-40ad-a7a8-c84d8108fce9"
      ],
      "songtypes": [
        "f02ad9b3-0bd9-4aad-85b3-9976739ba0e4"
      ],
      "songwriters": [
        "8e1f109c-a1d4-40d6-9a55-32abdb12993c",
        "b26b49e2-d439-48b3-8c0f-c7c25648c48a"
      ]
    },
    "title": "Dark Shame",
    "titles": {
      "eng": "DARK SHAME"
    },
    "year": 2012,
    "titles_default_language": "eng"
  }
}