{
  "header": {
    "version": 4,
    "description": "Karaoke Mugen Karaoke Data File"
  },
  "medias": [
    {
      "version": "Default",
      "filename": "JPN - Ansatsu Kyoushitsu - OP4 - Bye Bye Yesterday.mp4",
      "audiogain": 0.06,
      "loudnorm": "-18.16,-9.14,4.60,-28.23,-0.88",
      "filesize": 92241861,
      "duration": 92,
      "default": true,
      "lyrics": [
        {
          "filename": "JPN - Ansatsu Kyoushitsu - OP4 - Bye Bye Yesterday.ass",
          "default": true,
          "version": "Default",
          "subchecksum": "09f24315e5dbdba6f5e2fe259882fb05"
        }
      ]
    }
  ],
  "data": {
    "created_at": "2017-10-11T17:01:59.000Z",
    "kid": "c6fb62d3-3de4-4fbf-aefd-3d7998b4f481",
    "modified_at": "2021-02-25T10:44:15.879Z",
    "repository": "kara.moe",
    "songorder": 4,
    "tags": {
      "authors": [
        "7e0645e0-bd68-47e4-89bd-259ef2032083"
      ],
      "collections": [
        "c7db86a0-ff64-4044-9be4-66dd1ef1d1c1"
      ],
      "creators": [
        "20a71a02-6670-4e6a-a5be-ad8d71df94f7"
      ],
      "families": [
        "0377db02-3af6-43b8-9b08-c759df3d25c3"
      ],
      "groups": [
        "ae613721-1fbe-480d-ba6b-d6d0702b184d"
      ],
      "langs": [
        "4dcf9614-7914-42aa-99f4-dbce2e059133"
      ],
      "origins": [
        "938de218-5343-4865-94d3-fb33f2eaa152"
      ],
      "series": [
        "b8ae1cec-3c80-4d3a-9cc3-816f21488b4f"
      ],
      "singers": [
        "80941abb-e2fd-46a0-a710-29832817b9c2"
      ],
      "songtypes": [
        "f02ad9b3-0bd9-4aad-85b3-9976739ba0e4"
      ],
      "songwriters": [
        "ad9de3e0-673e-459b-ac88-178ae5e04341",
        "e3ee7463-3bb3-4b7a-9ff3-82881517993f"
      ]
    },
    "title": "Bye Bye Yesterday",
    "titles": {
      "eng": "Bye Bye Yesterday",
      "jpn": "バイバイ YESTERDAY"
    },
    "year": 2016,
    "titles_default_language": "eng"
  }
}