{
  "header": {
    "version": 4,
    "description": "Karaoke Mugen Karaoke Data File"
  },
  "medias": [
    {
      "version": "Revue Starlight.",
      "filename": "JPN - Senki Zesshou Symphogear G - AUDIO IN - Fushichou no Flamme ~ Revue Starlight Vers. ~ Cover Full Vers.mp3",
      "audiogain": -5.28,
      "loudnorm": "-12.87,-2.00,4.70,-22.97,-0.69",
      "filesize": 11517878,
      "duration": 283,
      "default": true,
      "lyrics": [
        {
          "filename": "JPN - Senki Zesshou Symphogear G - AUDIO IN - Fushichou no Flamme ~ Revue Starlight Vers. ~ Cover Full Vers.ass",
          "default": true,
          "version": "Default"
        }
      ]
    }
  ],
  "data": {
    "created_at": "2021-02-27T22:36:09.299Z",
    "ignoreHooks": false,
    "kid": "c0727945-32a9-4cdb-8eed-99cda3f50588",
    "modified_at": "2022-07-22T18:22:33.425Z",
    "parents": [
      "d7840b81-6062-4bcb-b19f-6467b96d94d7"
    ],
    "repository": "kara.moe",
    "tags": {
      "authors": [
        "5cb3d0c5-479e-4224-b6ec-b27209e933a0",
        "87096920-112f-485f-a310-04156cb4624d"
      ],
      "collections": [
        "c7db86a0-ff64-4044-9be4-66dd1ef1d1c1"
      ],
      "creators": [
        "bd4564a8-44e5-454a-9c57-bd2a3c8a537e"
      ],
      "groups": [
        "60defa7b-774e-4680-8321-51b742c2e009",
        "8e209ae4-4381-438f-89dc-1b21752027d2"
      ],
      "langs": [
        "4dcf9614-7914-42aa-99f4-dbce2e059133"
      ],
      "misc": [
        "1d6ceadf-a885-47e5-b23b-c07bf668a424"
      ],
      "series": [
        "f56a6158-95bb-4dc3-a8fc-2626a9a9b89e"
      ],
      "singers": [
        "371f95d8-5385-4728-8dbb-0cd3e5892ce4",
        "67f4e548-9fc9-48f1-bc2c-8c24fd88f5f2"
      ],
      "songtypes": [
        "42a262ae-acba-4ab5-a446-c5789c96c821",
        "5e5250d9-351a-4a82-98eb-55db50ad8962"
      ],
      "songwriters": [
        "af3ffe51-8059-461c-bbb8-78ea388731f3"
      ],
      "versions": [
        "03e1e1d2-8641-47b7-bbcb-39a3df9ff21c",
        "c2143a7f-6970-450e-8a79-0302db9220a9"
      ],
      "franchises": [
        "61b24082-a6a9-482b-b126-0ad7be595791"
      ]
    },
    "titles": {
      "qro": "Fushichô no Flamme ~ Revue Starlight Vers.",
      "jpn": "不死鳥のフランメ ~ レヴュー・スタァライト Vers."
    },
    "titles_default_language": "qro",
    "titles_aliases": [
      "Fushichou"
    ],
    "title": "Fushichô no Flamme ~ Revue Starlight Vers.",
    "year": 2021
  }
}