{
  "header": {
    "version": 4,
    "description": "Karaoke Mugen Karaoke Data File"
  },
  "medias": [
    {
      "version": "Default",
      "filename": "JPN - DAOKO - MV - Suisei.mp4",
      "audiogain": -7.35,
      "loudnorm": "-10.15,-0.01,5.10,-20.24,-1.00",
      "filesize": 35690097,
      "duration": 275,
      "default": true,
      "lyrics": [
        {
          "filename": "JPN - DAOKO - MV - Suisei.ass",
          "default": true,
          "version": "Default"
        }
      ]
    }
  ],
  "data": {
    "created_at": "2019-09-04T20:23:05.000Z",
    "kid": "c907716f-b61e-4a00-afc2-aa013f8a1ac6",
    "modified_at": "2022-06-04T00:14:00.837Z",
    "repository": "kara.moe",
    "songorder": null,
    "tags": {
      "authors": [
        "6dbda234-2ff7-481d-8d83-c275a9fd7bee"
      ],
      "families": [
        "5391f9fe-638c-415f-8dc9-958e3a2c5787"
      ],
      "groups": [
        "2b4e9972-5e17-481b-99f5-d0787c0ada56",
        "ae613721-1fbe-480d-ba6b-d6d0702b184d"
      ],
      "langs": [
        "4dcf9614-7914-42aa-99f4-dbce2e059133"
      ],
      "singers": [
        "e6c2a199-b3fe-4f4e-b3b0-c793f2d18ac5"
      ],
      "songtypes": [
        "7be1b15c-cff8-4b37-a649-5c90f3d569a9"
      ],
      "songwriters": [
        "e6c2a199-b3fe-4f4e-b3b0-c793f2d18ac5",
        "f92593ae-2834-467d-9560-dea4dde167b0"
      ],
      "collections": [
        "dbcf2c22-524d-4708-99bb-601703633927"
      ]
    },
    "titles": {
      "qro": "Suisei",
      "jpn": "水星"
    },
    "titles_default_language": "qro",
    "title": "Suisei",
    "year": 2015
  }
}