{
  "header": {
    "version": 4,
    "description": "Karaoke Mugen Karaoke Data File"
  },
  "medias": [
    {
      "version": "Default",
      "filename": "JPN - Ado - MV - missing.mp4",
      "audiogain": -13.78,
      "loudnorm": "-3.95,1.33,7.20,-13.99,-0.71",
      "filesize": 92279491,
      "duration": 196,
      "default": true,
      "lyrics": [
        {
          "filename": "JPN - Ado - MV - missing.ass",
          "default": true,
          "version": "Default"
        }
      ]
    }
  ],
  "data": {
    "created_at": "2023-04-24T20:24:44.733Z",
    "ignoreHooks": false,
    "kid": "2c1c1a96-0426-4dc1-a79b-003a665ad2cc",
    "modified_at": "2023-04-24T20:24:44.733Z",
    "repository": "kara.moe",
    "tags": {
      "authors": [
        "78d42fee-8d3e-4bd5-9c44-98ce55f7d21f",
        "90698f28-1d62-4673-82c4-33ae96b1ba97"
      ],
      "collections": [
        "dbcf2c22-524d-4708-99bb-601703633927"
      ],
      "creators": [
        "7e4b3966-9e00-4593-8047-1b67f358d2b9"
      ],
      "families": [
        "0377db02-3af6-43b8-9b08-c759df3d25c3"
      ],
      "groups": [
        "8e209ae4-4381-438f-89dc-1b21752027d2"
      ],
      "langs": [
        "4dcf9614-7914-42aa-99f4-dbce2e059133"
      ],
      "singers": [
        "98152dec-f25d-410b-b827-fd9fe2ac5a15"
      ],
      "songtypes": [
        "7be1b15c-cff8-4b37-a649-5c90f3d569a9"
      ],
      "songwriters": [
        "d282be84-08cb-48bc-b95e-7463865d2788"
      ]
    },
    "titles": {
      "eng": "missing",
      "jpn": "行方知れず",
      "qro": "Yukue Shirezu"
    },
    "titles_default_language": "eng",
    "year": 2022
  }
}