{
  "header": {
    "version": 4,
    "description": "Karaoke Mugen Karaoke Data File"
  },
  "medias": [
    {
      "version": "Default",
      "filename": "JPN - Kokoro Connect - ED4 - I Scream Chocolatl.mp4",
      "audiogain": 0.73,
      "loudnorm": "-18.35,-6.57,3.10,-28.49,-0.29",
      "filesize": 17127895,
      "duration": 90,
      "default": true,
      "lyrics": [
        {
          "filename": "JPN - Kokoro Connect - ED4 - I Scream Chocolatl.ass",
          "default": true,
          "version": "Default"
        }
      ]
    }
  ],
  "data": {
    "created_at": "2021-03-11T15:41:30.229Z",
    "ignoreHooks": false,
    "kid": "7abeb6a1-f03d-4d3a-b9dc-7796887a5317",
    "modified_at": "2022-03-29T17:22:24.040Z",
    "repository": "kara.moe",
    "songorder": 4,
    "tags": {
      "authors": [
        "ba4c7606-1e96-4c45-8e21-d5103477336b"
      ],
      "collections": [
        "c7db86a0-ff64-4044-9be4-66dd1ef1d1c1"
      ],
      "creators": [
        "bee26a9b-bc7b-4cdc-9317-6c9ee6707706"
      ],
      "families": [
        "0377db02-3af6-43b8-9b08-c759df3d25c3"
      ],
      "groups": [
        "2b4e9972-5e17-481b-99f5-d0787c0ada56",
        "ae613721-1fbe-480d-ba6b-d6d0702b184d"
      ],
      "langs": [
        "4dcf9614-7914-42aa-99f4-dbce2e059133"
      ],
      "origins": [
        "938de218-5343-4865-94d3-fb33f2eaa152"
      ],
      "series": [
        "e10cbe47-b801-4ebb-8d3d-2e0157d54b57"
      ],
      "singers": [
        "bb51b8eb-d68c-4210-9a94-c8d67daa14d3",
        "11846a94-2965-4798-9603-a9dec631ad3e"
      ],
      "songtypes": [
        "38c77c56-2b95-4040-b676-0994a8cb0597"
      ],
      "songwriters": [
        "353c94da-0e1e-4cf1-b6de-ee5b81a4e332",
        "11846a94-2965-4798-9603-a9dec631ad3e"
      ]
    },
    "titles": {
      "eng": "I Scream Chocolatl"
    },
    "titles_default_language": "eng",
    "title": "I Scream Chocolatl",
    "year": 2012
  }
}