{
  "header": {
    "version": 4,
    "description": "Karaoke Mugen Karaoke Data File"
  },
  "medias": [
    {
      "version": "Default",
      "filename": "JPN - BanG Dream! 2nd Season - IN - Louder.mp4",
      "audiogain": -3.44,
      "loudnorm": "-13.45,-0.03,2.30,-23.53,-0.08",
      "filesize": 95253331,
      "duration": 108,
      "default": true,
      "lyrics": [
        {
          "filename": "JPN - BanG Dream! 2nd Season - IN - Louder.ass",
          "default": true,
          "version": "Default",
          "subchecksum": "44ba0d7514160de988f2d653a9d90cb8"
        }
      ]
    }
  ],
  "data": {
    "created_at": "2019-04-01T01:25:51.000Z",
    "kid": "891c0b61-3f6b-46a4-ae65-f3da79804ae8",
    "modified_at": "2021-02-25T10:50:46.970Z",
    "repository": "kara.moe",
    "tags": {
      "authors": [
        "34fb11c3-d473-4bb4-b185-d9ab528da1ea"
      ],
      "collections": [
        "c7db86a0-ff64-4044-9be4-66dd1ef1d1c1"
      ],
      "creators": [
        "4e1122b4-c09f-445f-bdfa-cbad9581f2dc",
        "bd4564a8-44e5-454a-9c57-bd2a3c8a537e"
      ],
      "families": [
        "0377db02-3af6-43b8-9b08-c759df3d25c3"
      ],
      "groups": [
        "ae613721-1fbe-480d-ba6b-d6d0702b184d"
      ],
      "langs": [
        "4dcf9614-7914-42aa-99f4-dbce2e059133"
      ],
      "origins": [
        "938de218-5343-4865-94d3-fb33f2eaa152"
      ],
      "series": [
        "4817b8e9-de06-4c38-be88-d4dca2ee7200"
      ],
      "singers": [
        "371f95d8-5385-4728-8dbb-0cd3e5892ce4",
        "b6ca1298-fced-405c-9c84-eab18ebc38ba"
      ],
      "songtypes": [
        "5e5250d9-351a-4a82-98eb-55db50ad8962"
      ],
      "songwriters": [
        "178dcba7-6d20-40b9-baea-d7d3e38e2c25",
        "60c782e0-d553-46c4-a470-bf13b3c88689"
      ],
      "franchises": [
        "a65e956d-39ab-4995-9ede-889c30a5cbf0"
      ]
    },
    "title": "Louder",
    "titles": {
      "eng": "LOUDER"
    },
    "year": 2019,
    "titles_default_language": "eng"
  }
}