{
  "header": {
    "version": 4,
    "description": "Karaoke Mugen Karaoke Data File"
  },
  "medias": [
    {
      "version": "Default",
      "filename": "JPN - Tokyo Revengers - ED1 - Koko de Iki wo Shite.mp4",
      "audiogain": 0.83,
      "loudnorm": "-17.37,-7.37,9.20,-27.72,-0.70",
      "filesize": 38422507,
      "duration": 89,
      "default": true,
      "lyrics": [
        {
          "filename": "JPN - Tokyo Revengers - ED1 - Koko de Iki wo Shite.ass",
          "default": true,
          "version": "Default"
        }
      ]
    }
  ],
  "data": {
    "created_at": "2022-12-18T16:23:21.410Z",
    "ignoreHooks": false,
    "kid": "3e355b99-6968-488d-9c36-486c8c53b5b9",
    "modified_at": "2022-12-18T16:24:03.951Z",
    "repository": "kara.moe",
    "songorder": 1,
    "tags": {
      "authors": [
        "5b7a2e7c-6d18-4330-897a-590dc0afd5d1"
      ],
      "collections": [
        "c7db86a0-ff64-4044-9be4-66dd1ef1d1c1"
      ],
      "creators": [
        "58186e9d-9478-47dc-8c95-eeea5c0a3317"
      ],
      "families": [
        "0377db02-3af6-43b8-9b08-c759df3d25c3"
      ],
      "groups": [
        "8c22c899-b3ed-42da-a548-ce00f950798b",
        "8e209ae4-4381-438f-89dc-1b21752027d2"
      ],
      "langs": [
        "4dcf9614-7914-42aa-99f4-dbce2e059133"
      ],
      "origins": [
        "938de218-5343-4865-94d3-fb33f2eaa152"
      ],
      "series": [
        "e82d7f67-ed96-4fa8-a64c-b2ac4680a7aa"
      ],
      "singers": [
        "73d63b30-90d3-49ea-bbab-0e2eb6010dff"
      ],
      "songtypes": [
        "38c77c56-2b95-4040-b676-0994a8cb0597"
      ],
      "songwriters": [
        "555464a8-5d71-45b6-9b0b-0b7b8dd32f40",
        "73d63b30-90d3-49ea-bbab-0e2eb6010dff"
      ]
    },
    "titles": {
      "jpn": "ここで息をして",
      "qro": "Koko de Iki wo Shite"
    },
    "titles_default_language": "qro",
    "year": 2021
  }
}