{
  "header": {
    "version": 4,
    "description": "Karaoke Mugen Karaoke Data File"
  },
  "medias": [
    {
      "version": "Default",
      "filename": "JPN - Touhou - MV - Owata ＼(^o^)／ Asia.mp4",
      "audiogain": -5.28,
      "loudnorm": "-11.08,-2.74,2.20,-21.19,-0.05",
      "filesize": 17801290,
      "duration": 192,
      "default": true,
      "lyrics": [
        {
          "filename": "JPN - Touhou - MV - Owata ＼(^o^)／ Asia.ass",
          "default": true,
          "version": "Default"
        }
      ]
    }
  ],
  "data": {
    "created_at": "2022-10-05T19:26:49.943Z",
    "ignoreHooks": false,
    "kid": "94151583-cb86-4550-b800-3dacf814ace8",
    "modified_at": "2022-10-05T20:52:57.465Z",
    "repository": "kara.moe",
    "tags": {
      "authors": [
        "1fbfef73-6731-40df-ba51-65a54b9d1605"
      ],
      "collections": [
        "c7db86a0-ff64-4044-9be4-66dd1ef1d1c1"
      ],
      "creators": [
        "11846a94-2965-4798-9603-a9dec631ad3e"
      ],
      "families": [
        "0377db02-3af6-43b8-9b08-c759df3d25c3"
      ],
      "groups": [
        "ae613721-1fbe-480d-ba6b-d6d0702b184d"
      ],
      "langs": [
        "4dcf9614-7914-42aa-99f4-dbce2e059133"
      ],
      "origins": [
        "ac5085db-52d8-44b4-8fbb-1697b24d2046"
      ],
      "series": [
        "1bdaa5a1-dfa6-4365-b746-7a0b194dafd6"
      ],
      "singers": [
        "353c94da-0e1e-4cf1-b6de-ee5b81a4e332"
      ],
      "songtypes": [
        "7be1b15c-cff8-4b37-a649-5c90f3d569a9"
      ],
      "songwriters": [
        "353c94da-0e1e-4cf1-b6de-ee5b81a4e332"
      ],
      "franchises": [
        "1bdaa5a1-dfa6-4365-b746-7a0b194dafd6"
      ]
    },
    "titles": {
      "jpn": "オワタ＼(^o^)／エイジア",
      "qro": "Owata ＼(^o^)／ Asia"
    },
    "titles_default_language": "qro",
    "titles_aliases": [
      "owatta"
    ],
    "title": "Owata ＼(^o^)／ Asia",
    "year": 2010
  }
}