{
  "header": {
    "version": 4,
    "description": "Karaoke Mugen Karaoke Data File"
  },
  "medias": [
    {
      "version": "Default",
      "filename": "JPN - Go-Toubun no Hanayome Fortissimo - OP - Go-Toubun no Katachi.mp4",
      "audiogain": -0.89,
      "loudnorm": "-17.96,-5.82,9.30,-28.29,-1.80",
      "filesize": 54220343,
      "duration": 89,
      "default": true,
      "lyrics": [
        {
          "filename": "JPN - Go-Toubun no Hanayome Fortissimo - OP - Go-Toubun no Katachi.ass",
          "default": true,
          "version": "Default"
        }
      ]
    }
  ],
  "data": {
    "created_at": "2021-01-08T21:12:16.981Z",
    "ignoreHooks": false,
    "kid": "9557bec6-ef42-402b-8898-a42838f1c0a2",
    "modified_at": "2022-10-01T10:11:16.232Z",
    "repository": "kara.moe",
    "tags": {
      "authors": [
        "1df04771-a378-4f14-a5e1-1455187d681a"
      ],
      "collections": [
        "c7db86a0-ff64-4044-9be4-66dd1ef1d1c1"
      ],
      "creators": [
        "6086c170-04fa-4ad3-9b42-7379793e889d"
      ],
      "families": [
        "0377db02-3af6-43b8-9b08-c759df3d25c3"
      ],
      "groups": [
        "8e209ae4-4381-438f-89dc-1b21752027d2"
      ],
      "langs": [
        "4dcf9614-7914-42aa-99f4-dbce2e059133"
      ],
      "misc": [
        "1d6ceadf-a885-47e5-b23b-c07bf668a424"
      ],
      "origins": [
        "938de218-5343-4865-94d3-fb33f2eaa152"
      ],
      "series": [
        "4aba5bdc-799c-4ffb-801f-4739816e1ae3"
      ],
      "singers": [
        "0d6225a1-ad68-4580-9ab4-7806a4ceb0d9",
        "16c170fe-1ada-4916-a0be-42b19eca6ae3",
        "43822411-dbd3-4e3f-b498-1d3a9ba8ea30",
        "458739df-9990-45ea-a8e7-ae6348c7534d",
        "7e153b87-dd5f-4ce1-b187-9941ca95ce3e",
        "8839799f-e64a-4548-8ad1-3aefa0817b0c"
      ],
      "songtypes": [
        "f02ad9b3-0bd9-4aad-85b3-9976739ba0e4"
      ],
      "songwriters": [
        "dbed6c2b-51b3-42df-b107-cd169d87b7c8"
      ],
      "franchises": [
        "78d84b11-1b68-4e09-bb1a-d0fceac5a679"
      ]
    },
    "titles": {
      "jpn": "五等分のカタチ",
      "qro": "Go-Tôbun no Katachi"
    },
    "titles_default_language": "qro",
    "title": "Go-Tôbun no Katachi",
    "year": 2021,
    "titles_aliases": [
      "Go-Toubun"
    ]
  }
}