{
  "header": {
    "version": 4,
    "description": "Karaoke Mugen Karaoke Data File"
  },
  "medias": [
    {
      "version": "Default",
      "filename": "JPN - ONE OK ROCK - MV - Re make.mp4",
      "audiogain": 1.11,
      "loudnorm": "-18.47,-8.63,5.80,-28.52,-1.20",
      "filesize": 120287373,
      "duration": 205,
      "default": true,
      "lyrics": [
        {
          "filename": "JPN - ONE OK ROCK - MV - Re make.ass",
          "default": true,
          "version": "Default"
        }
      ]
    }
  ],
  "data": {
    "created_at": "2021-09-11T23:08:07.762Z",
    "kid": "ab37d303-090e-4b54-84d8-6f8aa82c2b3c",
    "modified_at": "2022-06-04T00:14:32.401Z",
    "repository": "kara.moe",
    "songorder": null,
    "tags": {
      "authors": [
        "4d71ce82-eed1-4c44-ac85-5f7255f3dad3"
      ],
      "creators": [
        "424f77b6-39e2-48a2-8135-295a801bacab"
      ],
      "families": [
        "5391f9fe-638c-415f-8dc9-958e3a2c5787"
      ],
      "groups": [
        "ae613721-1fbe-480d-ba6b-d6d0702b184d"
      ],
      "langs": [
        "4dcf9614-7914-42aa-99f4-dbce2e059133"
      ],
      "singers": [
        "57f7774c-51be-4b54-abce-d69eac0feb74"
      ],
      "songtypes": [
        "7be1b15c-cff8-4b37-a649-5c90f3d569a9"
      ],
      "songwriters": [
        "71e19eb8-f2da-4188-9dd6-2a7d5c4e970b",
        "d568ce8d-a855-473c-95fe-8fcf621ae48f"
      ],
      "collections": [
        "dbcf2c22-524d-4708-99bb-601703633927"
      ]
    },
    "titles": {
      "eng": "Re:make"
    },
    "titles_default_language": "eng",
    "title": "Re:make",
    "year": 2011
  }
}