{
  "header": {
    "version": 4,
    "description": "Karaoke Mugen Karaoke Data File"
  },
  "medias": [
    {
      "version": "Default",
      "filename": "JPN - Aquarion Evol - ED1 - Gekkou Symphonia.mp4",
      "audiogain": -7.42,
      "loudnorm": "-10.49,0.11,9.30,-20.68,-1.23",
      "filesize": 46539567,
      "duration": 92,
      "default": true,
      "lyrics": [
        {
          "filename": "JPN - Aquarion Evol - ED1 - Gekkou Symphonia.ass",
          "default": true,
          "version": "Default",
          "subchecksum": "fc42c3161df6d2bb1cc16c49e5341c88"
        }
      ]
    }
  ],
  "data": {
    "created_at": "2017-10-11T17:02:46.000Z",
    "kid": "b68b4961-9929-4c22-b7b9-6f5cf9cdce56",
    "modified_at": "2021-02-25T10:45:08.728Z",
    "repository": "kara.moe",
    "songorder": 1,
    "tags": {
      "authors": [
        "5bdaba57-27f8-4568-8806-76a807728766"
      ],
      "collections": [
        "c7db86a0-ff64-4044-9be4-66dd1ef1d1c1"
      ],
      "creators": [
        "0041fabf-4b82-4ecd-961b-e4c49b8c88be",
        "126e5cf8-763f-43e2-9b09-8a30b586f256"
      ],
      "families": [
        "0377db02-3af6-43b8-9b08-c759df3d25c3"
      ],
      "groups": [
        "ae613721-1fbe-480d-ba6b-d6d0702b184d"
      ],
      "langs": [
        "4dcf9614-7914-42aa-99f4-dbce2e059133"
      ],
      "origins": [
        "938de218-5343-4865-94d3-fb33f2eaa152"
      ],
      "series": [
        "b1c32168-b0d1-4e28-9769-449925330668"
      ],
      "singers": [
        "77e713a8-64e9-4142-84cf-68fab4092956",
        "d64446ba-b6de-465e-8a1d-2dea222eebc9"
      ],
      "songtypes": [
        "38c77c56-2b95-4040-b676-0994a8cb0597"
      ],
      "songwriters": [
        "54000730-0779-445e-b865-bf6cf2175579",
        "af0be06d-ea2d-4f46-85d1-58cf9f42532a"
      ],
      "franchises": [
        "c257e40c-7877-474d-8d75-db1491197c92"
      ]
    },
    "title": "Gekkou Symphonia",
    "titles": {
      "qro": "Gekkou Symphonia",
      "jpn": "月光シンフォニア"
    },
    "year": 2012,
    "titles_default_language": "qro"
  }
}