{
  "header": {
    "version": 4,
    "description": "Karaoke Mugen Karaoke Data File"
  },
  "medias": [
    {
      "version": "Default",
      "filename": "JPN - Tomori Kusunoki - MV - StrangeX.mp4",
      "loudnorm": "-8.14,1.77,5.50,-18.21,-0.86",
      "filesize": 88915530,
      "duration": 212,
      "default": true,
      "lyrics": [
        {
          "filename": "JPN - Tomori Kusunoki - MV - StrangeX.ass",
          "default": true,
          "version": "Default"
        }
      ]
    }
  ],
  "data": {
    "created_at": "2023-09-16T23:27:12.549Z",
    "ignoreHooks": false,
    "kid": "a61d7af5-4667-4afe-b92e-1ea5a24f8c35",
    "modified_at": "2023-09-16T23:27:59.238Z",
    "repository": "kara.moe",
    "tags": {
      "authors": [
        "16b136eb-921f-4c07-be38-ff92d5cc4313"
      ],
      "collections": [
        "dbcf2c22-524d-4708-99bb-601703633927"
      ],
      "creators": [
        "771735da-6b67-403d-8d5c-2761a0665168"
      ],
      "families": [
        "0377db02-3af6-43b8-9b08-c759df3d25c3"
      ],
      "groups": [
        "8e209ae4-4381-438f-89dc-1b21752027d2"
      ],
      "langs": [
        "4dcf9614-7914-42aa-99f4-dbce2e059133"
      ],
      "singers": [
        "1fd01df9-13c6-4442-a8c9-4d7922152b32"
      ],
      "songtypes": [
        "7be1b15c-cff8-4b37-a649-5c90f3d569a9"
      ],
      "songwriters": [
        "935a0f63-c75d-48b2-b611-6fa99f0d32e6"
      ]
    },
    "titles": {
      "eng": "StrangeX"
    },
    "titles_default_language": "eng",
    "year": 2023
  }
}