{
  "header": {
    "version": 4,
    "description": "Karaoke Mugen Karaoke Data File"
  },
  "medias": [
    {
      "version": "Default",
      "filename": "JPN - YOASOBI - MV - Moshimo Inochi ga Egaketara ~ Full Off Vocal Vers.mp4",
      "audiogain": -5.07,
      "loudnorm": "-12.06,0.90,8.20,-22.22,-1.23",
      "filesize": 97495478,
      "duration": 202,
      "default": true,
      "lyrics": [
        {
          "filename": "JPN - YOASOBI - MV - Moshimo Inochi ga Egaketara ~ Full Off Vocal Vers.ass",
          "default": true,
          "version": "Default"
        }
      ]
    }
  ],
  "data": {
    "created_at": "2022-02-01T21:05:18.408Z",
    "ignoreHooks": false,
    "kid": "2e0b689d-1a2c-4ba3-a143-4a2d0667b74e",
    "modified_at": "2022-11-19T23:39:35.963Z",
    "parents": [
      "5d9b5f4f-3984-4ac2-8e9b-66cd92f87c30"
    ],
    "repository": "kara.moe",
    "tags": {
      "authors": [
        "90698f28-1d62-4673-82c4-33ae96b1ba97",
        "e4cf4923-113a-4d74-a0b5-277b6090bd6f"
      ],
      "collections": [
        "c7db86a0-ff64-4044-9be4-66dd1ef1d1c1"
      ],
      "creators": [
        "e76d027c-b04e-40e5-a2f5-38905bd6d68f"
      ],
      "families": [
        "0377db02-3af6-43b8-9b08-c759df3d25c3"
      ],
      "groups": [
        "8e209ae4-4381-438f-89dc-1b21752027d2"
      ],
      "langs": [
        "4dcf9614-7914-42aa-99f4-dbce2e059133"
      ],
      "singers": [
        "92d1e6ad-8f3c-4ace-a028-d78798510043"
      ],
      "singergroups": [
        "e028a7e9-d3f2-4df7-a6ba-c7f78e98b549"
      ],
      "songtypes": [
        "7be1b15c-cff8-4b37-a649-5c90f3d569a9"
      ],
      "songwriters": [
        "ac03c264-7085-486b-a47f-3e7574e51a33"
      ],
      "versions": [
        "c0cc87b9-55b9-40f0-878a-fbb9e34c151e",
        "c2143a7f-6970-450e-8a79-0302db9220a9"
      ]
    },
    "titles": {
      "jpn": "もしも命が描けたら",
      "qro": "Moshimo Inochi ga Egaketara"
    },
    "titles_default_language": "qro",
    "year": 2021
  }
}