{
  "header": {
    "version": 4,
    "description": "Karaoke Mugen Karaoke Data File"
  },
  "medias": [
    {
      "version": "Default",
      "filename": "JPN - Ore no Imouto ga Konna ni Kawaii Wake ga Nai - ED4 - Shiroi Kokoro.mp4",
      "audiogain": 2.76,
      "loudnorm": "-20.31,-7.64,4.60,-30.49,-0.56",
      "filesize": 51562610,
      "duration": 90,
      "default": true,
      "lyrics": [
        {
          "filename": "JPN - Ore no Imouto ga Konna ni Kawaii Wake ga Nai - ED4 - Shiroi Kokoro.ass",
          "default": true,
          "version": "Default"
        }
      ]
    }
  ],
  "data": {
    "created_at": "2019-05-08T02:42:38.000Z",
    "kid": "ce21d623-3089-463d-a6b0-585912e9e278",
    "modified_at": "2021-07-22T19:11:44.497Z",
    "repository": "kara.moe",
    "songorder": 4,
    "tags": {
      "authors": [
        "57e2d8c3-b3f3-4b82-88a4-2491946b24d9"
      ],
      "collections": [
        "c7db86a0-ff64-4044-9be4-66dd1ef1d1c1"
      ],
      "creators": [
        "d4f12628-2031-48c0-b2c7-7c07aaf8af94"
      ],
      "families": [
        "0377db02-3af6-43b8-9b08-c759df3d25c3"
      ],
      "groups": [
        "2b4e9972-5e17-481b-99f5-d0787c0ada56",
        "ae613721-1fbe-480d-ba6b-d6d0702b184d"
      ],
      "langs": [
        "4dcf9614-7914-42aa-99f4-dbce2e059133"
      ],
      "origins": [
        "938de218-5343-4865-94d3-fb33f2eaa152"
      ],
      "series": [
        "cb627837-d44e-4474-b165-0de71e159e39"
      ],
      "singers": [
        "1e2a522f-776f-491a-882a-6892d061b4a2"
      ],
      "songtypes": [
        "38c77c56-2b95-4040-b676-0994a8cb0597"
      ],
      "songwriters": [
        "e2da8ec2-787f-4361-a1a5-0b0c623a7499"
      ],
      "franchises": [
        "abae2fb3-81e2-4938-95ef-c8e4d4098f17"
      ]
    },
    "title": "Shiroi Kokoro",
    "titles": {
      "qro": "Shiroi Kokoro",
      "jpn": "白いココロ"
    },
    "year": 2010,
    "titles_default_language": "qro"
  }
}