{
  "header": {
    "version": 4,
    "description": "Karaoke Mugen Karaoke Data File"
  },
  "medias": [
    {
      "version": "Default",
      "filename": "JPN - Kaiketsu Zorro - OP - ZORRO.mp4",
      "audiogain": -6.31,
      "loudnorm": "-13.18,-0.67,5.70,-23.24,-0.84",
      "filesize": 32144899,
      "duration": 89,
      "default": true,
      "lyrics": [
        {
          "filename": "JPN - Kaiketsu Zorro - OP - ZORRO.ass",
          "default": true,
          "version": "Default",
          "subchecksum": "bd39abd34d592dc3db12a27a4b2f50aa"
        }
      ]
    }
  ],
  "data": {
    "created_at": "2017-10-11T17:01:14.000Z",
    "kid": "d3f06bd2-0e9c-40c5-bd3e-6ab89fbc2a39",
    "modified_at": "2021-02-25T11:51:39.528Z",
    "repository": "kara.moe",
    "tags": {
      "authors": [
        "4607780c-f1ef-47cf-9c1c-b13e8f731699"
      ],
      "collections": [
        "c7db86a0-ff64-4044-9be4-66dd1ef1d1c1"
      ],
      "creators": [
        "fa1cbae7-2b13-45ec-8233-15807fd5f1a3"
      ],
      "families": [
        "0377db02-3af6-43b8-9b08-c759df3d25c3"
      ],
      "groups": [
        "24db50aa-a126-4d34-a48a-e45db79c4245"
      ],
      "langs": [
        "4dcf9614-7914-42aa-99f4-dbce2e059133"
      ],
      "origins": [
        "938de218-5343-4865-94d3-fb33f2eaa152"
      ],
      "series": [
        "5f734ec6-e73f-4744-9b5f-2736344f9cf5"
      ],
      "singers": [
        "331793cb-f1c3-4be7-a765-ab7fc5801031"
      ],
      "songtypes": [
        "f02ad9b3-0bd9-4aad-85b3-9976739ba0e4"
      ],
      "songwriters": [
        "813f690e-15f7-4900-9b9e-45d13db10733",
        "877154b8-b127-4226-93eb-3da7ab76f250"
      ],
      "franchises": [
        "5275a3ea-51b3-48bd-bd6c-0f01fbf1404a"
      ]
    },
    "title": "ZORRO",
    "titles": {
      "eng": "ZORRO"
    },
    "year": 1995,
    "titles_default_language": "eng"
  }
}