{
  "header": {
    "version": 4,
    "description": "Karaoke Mugen Karaoke Data File"
  },
  "medias": [
    {
      "version": "Default",
      "filename": "JPN - Kidou Senshi Gundam Tekketsu no Orphans 2nd Season - ED1 - Shounen no hate.mp4",
      "audiogain": 2.05,
      "loudnorm": "-19.96,-6.68,7.70,-30.17,-1.70",
      "filesize": 40360711,
      "duration": 91,
      "default": true,
      "lyrics": [
        {
          "filename": "JPN - Kidou Senshi Gundam Tekketsu no Orphans 2nd Season - ED1 - Shounen no hate.ass",
          "default": true,
          "version": "Default",
          "subchecksum": "2b79f04664ea1922222bd0a09fdaa3af"
        }
      ]
    }
  ],
  "data": {
    "created_at": "2019-09-07T10:55:03.000Z",
    "kid": "4e28fdf7-bedb-4a86-9f05-9f554439a397",
    "modified_at": "2021-02-25T12:00:23.737Z",
    "repository": "kara.moe",
    "songorder": 1,
    "tags": {
      "authors": [
        "06852e02-b77e-4106-b6f7-2d03942ad0ea"
      ],
      "collections": [
        "c7db86a0-ff64-4044-9be4-66dd1ef1d1c1"
      ],
      "creators": [
        "ef8f80e1-d244-4aea-b7f0-984d6dd4b82b"
      ],
      "families": [
        "0377db02-3af6-43b8-9b08-c759df3d25c3"
      ],
      "genres": [
        "f60ba57d-5ef4-49e0-b93b-d0dcbcff6592"
      ],
      "groups": [
        "ae613721-1fbe-480d-ba6b-d6d0702b184d"
      ],
      "langs": [
        "4dcf9614-7914-42aa-99f4-dbce2e059133"
      ],
      "misc": [
        "fe819ff1-9db8-4a0f-85dc-0e322c9126c4"
      ],
      "origins": [
        "938de218-5343-4865-94d3-fb33f2eaa152"
      ],
      "series": [
        "9bd0b83b-53ca-444e-b54d-021feb5fb967"
      ],
      "singers": [
        "213ca674-9084-40ad-a7a8-c84d8108fce9"
      ],
      "songtypes": [
        "38c77c56-2b95-4040-b676-0994a8cb0597"
      ],
      "songwriters": [
        "8e1f109c-a1d4-40d6-9a55-32abdb12993c",
        "b26b49e2-d439-48b3-8c0f-c7c25648c48a"
      ],
      "franchises": [
        "e6ade589-c2e4-49a1-acdb-ea9b03e57240"
      ]
    },
    "title": "Shounen no hate",
    "titles": {
      "qro": "Shounen no Hate",
      "jpn": "少年の果て"
    },
    "year": 2016,
    "titles_default_language": "qro"
  }
}