{
  "header": {
    "version": 4,
    "description": "Karaoke Mugen Karaoke Data File"
  },
  "medias": [
    {
      "version": "Default",
      "filename": "JPN - Touhou - REMIX MV - Infinite World.mp4",
      "audiogain": -2.31,
      "loudnorm": "-15.38,-6.96,3.70,-25.51,-1.18",
      "filesize": 33275517,
      "duration": 126,
      "default": true,
      "lyrics": [
        {
          "filename": "JPN - Touhou - REMIX MV - Infinite World.ass",
          "default": true,
          "version": "Default"
        }
      ]
    }
  ],
  "data": {
    "created_at": "2022-09-18T16:46:41.806Z",
    "ignoreHooks": false,
    "kid": "5ca4e580-961b-48d3-963d-0a8e8322979e",
    "modified_at": "2022-10-01T23:22:53.161Z",
    "repository": "kara.moe",
    "tags": {
      "authors": [
        "1fbfef73-6731-40df-ba51-65a54b9d1605"
      ],
      "collections": [
        "c7db86a0-ff64-4044-9be4-66dd1ef1d1c1"
      ],
      "creators": [
        "ca654b25-30b5-4054-a2c0-35028fdcae22"
      ],
      "families": [
        "0377db02-3af6-43b8-9b08-c759df3d25c3"
      ],
      "groups": [
        "ae613721-1fbe-480d-ba6b-d6d0702b184d"
      ],
      "langs": [
        "4dcf9614-7914-42aa-99f4-dbce2e059133"
      ],
      "misc": [
        "ec4360fa-3e3c-4f6f-b0e1-fb8b12b6dd18"
      ],
      "origins": [
        "ac5085db-52d8-44b4-8fbb-1697b24d2046"
      ],
      "series": [
        "1bdaa5a1-dfa6-4365-b746-7a0b194dafd6"
      ],
      "singers": [
        "d5f9e745-a3ca-4184-a2bc-07369a2485b4"
      ],
      "songtypes": [
        "7be1b15c-cff8-4b37-a649-5c90f3d569a9"
      ],
      "songwriters": [
        "23351848-e3cc-4420-b564-db2bfe2b7f3d",
        "61e4ef3a-b598-4a83-8696-f40ed9ee3fe9"
      ],
      "franchises": [
        "1bdaa5a1-dfa6-4365-b746-7a0b194dafd6"
      ]
    },
    "titles": {
      "eng": "Infinite World"
    },
    "titles_default_language": "eng",
    "title": "Infinite World",
    "year": 2010
  }
}