{
  "header": {
    "version": 4,
    "description": "Karaoke Mugen Karaoke Data File"
  },
  "medias": [
    {
      "version": "Default",
      "filename": "JPN - Project SEKAI COLORFUL STAGE! - GAME MV - 1, 2 Fanclub ~ Cover Short Vers.mp4",
      "audiogain": -9.13,
      "loudnorm": "-8.51,1.02,5.00,-18.67,-1.48",
      "filesize": 42972951,
      "duration": 126,
      "default": true,
      "lyrics": [
        {
          "filename": "JPN - Project SEKAI COLORFUL STAGE! - GAME MV - 1, 2 Fanclub ~ Cover Short Vers.ass",
          "default": true,
          "version": "Default"
        }
      ]
    }
  ],
  "data": {
    "created_at": "2022-03-15T01:48:52.661Z",
    "ignoreHooks": false,
    "kid": "bc811dc8-722b-4882-9ad8-1dbf272c357f",
    "modified_at": "2022-12-26T19:33:46.991Z",
    "parents": [
      "88a7f740-0c8e-4812-a7a7-6d9b9d3f1c46"
    ],
    "repository": "kara.moe",
    "tags": {
      "authors": [
        "5a629611-96b4-422c-b309-ba7a58e263a2",
        "8c22c899-b3ed-42da-a548-ce00f950798b"
      ],
      "collections": [
        "c7db86a0-ff64-4044-9be4-66dd1ef1d1c1"
      ],
      "creators": [
        "1e5648fb-22fc-474d-b865-254eb31fa000"
      ],
      "genres": [
        "45623cae-6d68-4304-a49b-896d1d6f4580"
      ],
      "groups": [
        "56f41a2e-80fb-4bbe-9df0-420ee4c8997a",
        "8c22c899-b3ed-42da-a548-ce00f950798b",
        "8e209ae4-4381-438f-89dc-1b21752027d2"
      ],
      "langs": [
        "4dcf9614-7914-42aa-99f4-dbce2e059133"
      ],
      "misc": [
        "1d6ceadf-a885-47e5-b23b-c07bf668a424"
      ],
      "platforms": [
        "213a1a15-e73a-4a08-b3f6-b6e2745a82e5"
      ],
      "series": [
        "192b33fb-638a-4680-bdb2-a5adb9889849"
      ],
      "singers": [
        "1a2a3b83-6635-4b06-8574-4154df44feac",
        "48dc9597-7cd1-482f-8dc0-3e7c72f4b7c3",
        "c889c0b5-a571-408f-8b6a-b3c1d4c6296f",
        "dbb8d613-a120-46c7-bb42-bc6c1efb61f7",
        "fae72c0f-4ef4-4268-9bff-465a0dec95e4"
      ],
      "singergroups": [
        "3978f3e3-2631-47a9-bfc8-9d2804c1074d"
      ],
      "songtypes": [
        "7be1b15c-cff8-4b37-a649-5c90f3d569a9"
      ],
      "songwriters": [
        "7b3b2c24-f297-4c2a-82a5-bc9c9102567c"
      ],
      "versions": [
        "03e1e1d2-8641-47b7-bbcb-39a3df9ff21c",
        "d125c80a-86c1-4321-88e9-07b7800679b6"
      ],
      "origins": [
        "dbedd6b3-d125-4cd8-aa32-c4175e4ca3a3"
      ]
    },
    "titles": {
      "eng": "1, 2 Fanclub",
      "jpn": "いーあるふぁんくらぶ",
      "qro": "Ii Aru Fanclub"
    },
    "titles_default_language": "eng",
    "titles_aliases": [
      "Yī Èr Fanclub",
      "Yi Er Fanclub",
      "1 2 funclub",
      "1 2 Fan Club"
    ],
    "year": 2022
  }
}