{
  "header": {
    "version": 4,
    "description": "Karaoke Mugen Karaoke Data File"
  },
  "medias": [
    {
      "version": "Default",
      "filename": "JPN - World Dai Star - ED1 - Two of Us.mp4",
      "audiogain": -4.33,
      "loudnorm": "-12.63,-2.77,3.70,-22.80,-0.57",
      "filesize": 17354321,
      "duration": 90,
      "default": true,
      "lyrics": [
        {
          "filename": "JPN - World Dai Star - ED1 - Two of Us.ass",
          "default": true,
          "version": "Default"
        }
      ]
    }
  ],
  "data": {
    "created_at": "2023-06-24T16:13:45.741Z",
    "ignoreHooks": false,
    "kid": "f5973cc9-2401-48c2-9f16-02526576ef1b",
    "modified_at": "2023-07-05T20:06:00.806Z",
    "repository": "kara.moe",
    "songorder": 1,
    "tags": {
      "authors": [
        "7848b5dc-a5df-4577-b640-147be5288cec"
      ],
      "collections": [
        "c7db86a0-ff64-4044-9be4-66dd1ef1d1c1"
      ],
      "creators": [
        "20a71a02-6670-4e6a-a5be-ad8d71df94f7"
      ],
      "families": [
        "0377db02-3af6-43b8-9b08-c759df3d25c3"
      ],
      "genres": [
        "caa86df2-0d59-474b-885c-f240a9e891b0"
      ],
      "groups": [
        "8e209ae4-4381-438f-89dc-1b21752027d2"
      ],
      "langs": [
        "4dcf9614-7914-42aa-99f4-dbce2e059133"
      ],
      "misc": [
        "1d6ceadf-a885-47e5-b23b-c07bf668a424",
        "fe819ff1-9db8-4a0f-85dc-0e322c9126c4"
      ],
      "origins": [
        "938de218-5343-4865-94d3-fb33f2eaa152"
      ],
      "series": [
        "2c110cf5-c605-4d05-9893-6a6d06dbe311"
      ],
      "singers": [
        "3612666b-1c13-4d11-8211-718aff40d7ad",
        "89f91e06-0831-44e4-92f6-64b612cd19d0"
      ],
      "songtypes": [
        "38c77c56-2b95-4040-b676-0994a8cb0597"
      ],
      "songwriters": [
        "2171ee13-d4af-4a9c-8d59-dc098b4d3669",
        "25ff1805-c080-4568-82bd-09fb7676665a"
      ],
      "franchises": [
        "04483789-101b-4d59-94e2-09be1fb8b9d3"
      ]
    },
    "titles": {
      "eng": "Two of Us",
      "jpn": "トゥ・オブ・アス",
      "qro": "Two of Us"
    },
    "titles_default_language": "qro",
    "year": 2023
  }
}