{
  "header": {
    "version": 4,
    "description": "Karaoke Mugen Karaoke Data File"
  },
  "medias": [
    {
      "version": "Default",
      "filename": "JPN - Ranpo Kitan Game of Laplace - MV - Speed to Masatsu.mp4",
      "audiogain": -2.98,
      "loudnorm": "-15.02,-5.63,9.30,-25.55,-1.58",
      "filesize": 61214945,
      "duration": 229,
      "default": true,
      "lyrics": [
        {
          "filename": "JPN - Ranpo Kitan Game of Laplace - MV - Speed to Masatsu.ass",
          "default": true,
          "version": "Default"
        }
      ]
    }
  ],
  "data": {
    "created_at": "2019-06-16T19:42:59.000Z",
    "ignoreHooks": false,
    "kid": "c1df7406-5ddc-47b5-bd3d-fa1ae1c79db1",
    "modified_at": "2022-10-01T23:53:05.155Z",
    "parents": [
      "eeb32c23-2b4d-48a2-ab29-b7f5503c113b"
    ],
    "repository": "kara.moe",
    "tags": {
      "authors": [
        "57e2d8c3-b3f3-4b82-88a4-2491946b24d9"
      ],
      "collections": [
        "dbcf2c22-524d-4708-99bb-601703633927"
      ],
      "creators": [
        "9f10c180-4ed1-4a4e-9e39-c37e09b91d5f"
      ],
      "families": [
        "5391f9fe-638c-415f-8dc9-958e3a2c5787"
      ],
      "groups": [
        "2b4e9972-5e17-481b-99f5-d0787c0ada56",
        "ae613721-1fbe-480d-ba6b-d6d0702b184d"
      ],
      "langs": [
        "4dcf9614-7914-42aa-99f4-dbce2e059133"
      ],
      "series": [
        "fb5a2127-56a0-4f19-a1b6-4667fa163d3f"
      ],
      "singers": [
        "1e10b608-d701-4b51-9725-ccf808c44ce0"
      ],
      "songtypes": [
        "7be1b15c-cff8-4b37-a649-5c90f3d569a9"
      ],
      "songwriters": [
        "1e10b608-d701-4b51-9725-ccf808c44ce0"
      ]
    },
    "titles": {
      "qro": "Speed to Masatsu",
      "jpn": "スピードと摩擦"
    },
    "titles_default_language": "qro",
    "title": "Speed to Masatsu",
    "year": 2015
  }
}