{
  "header": {
    "version": 4,
    "description": "Karaoke Mugen Karaoke Data File"
  },
  "medias": [
    {
      "version": "Default",
      "filename": "JPN - Densetsu Kyojin Ideon - OP - Fukkatsu no Ideon.mp4",
      "audiogain": 0.41,
      "loudnorm": "-18.96,-6.41,8.80,-29.52,-1.46",
      "filesize": 31670684,
      "duration": 80,
      "default": true,
      "lyrics": [
        {
          "filename": "JPN - Densetsu Kyojin Ideon - OP - Fukkatsu no Ideon.ass",
          "default": true,
          "version": "Default",
          "subchecksum": "8b4a54bef392a942e5c8250ef469e1aa"
        }
      ]
    }
  ],
  "data": {
    "created_at": "2017-10-11T17:01:09.000Z",
    "kid": "a9a28c3e-c003-4107-8767-2d13cdf6c9b6",
    "modified_at": "2021-02-25T11:08:39.867Z",
    "repository": "kara.moe",
    "tags": {
      "authors": [
        "5bdaba57-27f8-4568-8806-76a807728766"
      ],
      "collections": [
        "c7db86a0-ff64-4044-9be4-66dd1ef1d1c1"
      ],
      "creators": [
        "ef8f80e1-d244-4aea-b7f0-984d6dd4b82b"
      ],
      "families": [
        "0377db02-3af6-43b8-9b08-c759df3d25c3"
      ],
      "genres": [
        "f60ba57d-5ef4-49e0-b93b-d0dcbcff6592"
      ],
      "groups": [
        "7792cc27-9ff9-4d47-9287-2338b7db1575"
      ],
      "langs": [
        "4dcf9614-7914-42aa-99f4-dbce2e059133"
      ],
      "origins": [
        "938de218-5343-4865-94d3-fb33f2eaa152"
      ],
      "series": [
        "299da804-0d16-497a-86ac-92ea2362b5a1"
      ],
      "singers": [
        "85217a62-2a08-4dfa-b1fe-fb7a3a0d44bc"
      ],
      "songtypes": [
        "f02ad9b3-0bd9-4aad-85b3-9976739ba0e4"
      ],
      "songwriters": [
        "38e17194-fe7b-48e3-8f52-0ac018250a1b",
        "edb3c675-645d-476c-b15e-a4fc45e3704b"
      ],
      "franchises": [
        "299da804-0d16-497a-86ac-92ea2362b5a1"
      ]
    },
    "title": "Fukkatsu no Ideon",
    "titles": {
      "qro": "Fukkatsu no Ideon",
      "jpn": "復活のイデオン"
    },
    "year": 1980,
    "titles_default_language": "qro"
  }
}