{
  "header": {
    "version": 4,
    "description": "Karaoke Mugen Karaoke Data File"
  },
  "medias": [
    {
      "version": "Default",
      "filename": "JPN - NieR Automata - PS4 XBOXONE PC GAME AMV - Tough & Alone.mp4",
      "audiogain": -6.37,
      "loudnorm": "-9.55,0.55,5.00,-19.67,-0.68",
      "filesize": 99014133,
      "duration": 231,
      "default": true,
      "lyrics": [
        {
          "filename": "JPN - NieR Automata - PS4 XBOXONE PC GAME AMV - Tough & Alone.ass",
          "default": true,
          "version": "Default",
          "subchecksum": "b7f08309c5a7a835552c9d24a3b9c353"
        }
      ]
    }
  ],
  "data": {
    "created_at": "2020-02-27T19:41:25.552Z",
    "kid": "733cd4da-0df8-46fd-b0b0-77775de8bad8",
    "modified_at": "2021-02-25T12:36:35.877Z",
    "repository": "kara.moe",
    "tags": {
      "authors": [
        "037c94c8-6f53-42d0-ab3d-8d057729ba17"
      ],
      "collections": [
        "c7db86a0-ff64-4044-9be4-66dd1ef1d1c1"
      ],
      "creators": [
        "ac4a5180-97af-4679-adcd-70ab39919d48"
      ],
      "groups": [
        "60defa7b-774e-4680-8321-51b742c2e009",
        "ae613721-1fbe-480d-ba6b-d6d0702b184d"
      ],
      "langs": [
        "4dcf9614-7914-42aa-99f4-dbce2e059133",
        "de5eda1c-5fb3-46a6-9606-d4554fc5a1d6"
      ],
      "platforms": [
        "22840d76-7030-4c3f-ab35-4a863adce093",
        "248d92ee-8c02-43bc-86e2-cc6029883564",
        "3c15f758-e1bc-4266-8bb9-3c14112f504a"
      ],
      "series": [
        "be7d088d-2997-41a2-af7f-d2a0cef2465b"
      ],
      "singers": [
        "80421b19-c148-48d8-af54-ac45aae600c6"
      ],
      "songtypes": [
        "a6c79ce5-89ee-4d50-afe8-3abd7317f6c2"
      ],
      "songwriters": [
        "e23950b8-7176-46bc-bb23-3d2cb566dc78"
      ],
      "franchises": [
        "c1316bef-8063-4d9b-ae4f-3fbd68424764"
      ],
      "origins": [
        "dbedd6b3-d125-4cd8-aa32-c4175e4ca3a3"
      ]
    },
    "title": "Tough & Alone",
    "titles": {
      "eng": "Tough & Alone"
    },
    "year": 2017,
    "titles_default_language": "eng"
  }
}