{
  "header": {
    "version": 4,
    "description": "Karaoke Mugen Karaoke Data File"
  },
  "medias": [
    {
      "version": "Default",
      "filename": "JPN - Bloodivores - OP1 - Yogakyoumei -NENTEN-.mp4",
      "audiogain": -0.26,
      "loudnorm": "-16.14,-3.93,10.10,-26.45,-1.03",
      "filesize": 27041060,
      "duration": 89,
      "default": true,
      "lyrics": [
        {
          "filename": "JPN - Bloodivores - OP1 - Yogakyoumei -NENTEN-.ass",
          "default": true,
          "version": "Default",
          "subchecksum": "53563bc225abe660da377860d35053e6"
        }
      ]
    }
  ],
  "data": {
    "created_at": "2018-10-14T19:07:16.000Z",
    "kid": "27c25245-9ded-477a-b1c3-82f0650f091f",
    "modified_at": "2021-02-25T10:55:12.689Z",
    "repository": "kara.moe",
    "songorder": 1,
    "tags": {
      "authors": [
        "b5116310-e69b-4ed4-9e47-c5c53ee69023"
      ],
      "collections": [
        "c7db86a0-ff64-4044-9be4-66dd1ef1d1c1"
      ],
      "creators": [
        "c252889a-eb7a-4c3d-92c7-90a87aa7997c"
      ],
      "families": [
        "0377db02-3af6-43b8-9b08-c759df3d25c3"
      ],
      "groups": [
        "ae613721-1fbe-480d-ba6b-d6d0702b184d"
      ],
      "langs": [
        "4dcf9614-7914-42aa-99f4-dbce2e059133"
      ],
      "origins": [
        "938de218-5343-4865-94d3-fb33f2eaa152"
      ],
      "series": [
        "7abd7438-4b72-48d1-b5a8-8befebc23f2d"
      ],
      "singers": [
        "f6cd900b-9a73-446f-b54e-84663b3cfb75"
      ],
      "songtypes": [
        "f02ad9b3-0bd9-4aad-85b3-9976739ba0e4"
      ],
      "songwriters": [
        "a1b5be43-a6b7-40a5-88cf-7449a9da5422",
        "f6cd900b-9a73-446f-b54e-84663b3cfb75"
      ]
    },
    "title": "Yogakyoumei -NENTEN-",
    "titles": {
      "qro": "Yogakyoumei: Nenten",
      "jpn": "与我共鳴-NENTEN-"
    },
    "year": 2016,
    "titles_aliases": [
      "Yu Wo Gongming: Nenten"
    ],
    "titles_default_language": "qro"
  }
}