{
  "header": {
    "version": 4,
    "description": "Karaoke Mugen Karaoke Data File"
  },
  "medias": [
    {
      "version": "Default",
      "filename": "JPN - Love Live! School Idol Project - LIVE - Dancing stars on me! ~ Full Vers.mp4",
      "audiogain": -7.11,
      "loudnorm": "-8.96,0.32,5.90,-18.99,-0.90",
      "filesize": 177709953,
      "duration": 295,
      "default": true,
      "lyrics": [
        {
          "filename": "JPN - Love Live! School Idol Project - LIVE - Dancing stars on me! ~ Full Vers.ass",
          "default": true,
          "version": "Default"
        }
      ]
    }
  ],
  "data": {
    "created_at": "2018-06-18T19:40:28.000Z",
    "ignoreHooks": false,
    "kid": "b1bd1764-c630-4087-bd84-dfc176c1b283",
    "modified_at": "2022-12-22T16:08:55.633Z",
    "repository": "kara.moe",
    "tags": {
      "authors": [
        "f1710fab-7461-468f-a8dd-11eebe4e1fc0"
      ],
      "collections": [
        "dbcf2c22-524d-4708-99bb-601703633927"
      ],
      "creators": [
        "b2805292-730e-473a-96f0-fd8e7ffd1fd7"
      ],
      "families": [
        "5391f9fe-638c-415f-8dc9-958e3a2c5787"
      ],
      "genres": [
        "caa86df2-0d59-474b-885c-f240a9e891b0"
      ],
      "groups": [
        "8c22c899-b3ed-42da-a548-ce00f950798b",
        "ae613721-1fbe-480d-ba6b-d6d0702b184d"
      ],
      "langs": [
        "4dcf9614-7914-42aa-99f4-dbce2e059133"
      ],
      "series": [
        "dd93f278-a55d-4040-aaab-d0c50b58b087"
      ],
      "singergroups": [
        "fc107f1a-4759-4869-857f-fc1966f345f9"
      ],
      "songtypes": [
        "a0167949-580c-4de3-bf13-497e462e02f3"
      ],
      "songwriters": [
        "a566b6fa-e4ee-40c0-9954-1c4327723d5d",
        "f41e7218-6c19-4e19-9b5f-4612dcd58243"
      ],
      "versions": [
        "c2143a7f-6970-450e-8a79-0302db9220a9"
      ],
      "franchises": [
        "fd5d066e-e85a-4eea-8688-2979a887450a"
      ]
    },
    "titles": {
      "eng": "Dancing stars on me!"
    },
    "titles_default_language": "eng",
    "year": 2014
  }
}