{
  "header": {
    "version": 4,
    "description": "Karaoke Mugen Karaoke Data File"
  },
  "medias": [
    {
      "version": "Default",
      "filename": "JPN - Kemono Friends - REMIX MV - Doremifa Rondo (Friends Vers.).mp4",
      "audiogain": -11.33,
      "loudnorm": "-6.25,1.87,2.70,-16.31,-0.81",
      "filesize": 17510352,
      "duration": 202,
      "default": true,
      "lyrics": [
        {
          "filename": "JPN - Kemono Friends - REMIX MV - Doremifa Rondo (Friends Vers.).ass",
          "default": true,
          "version": "Default"
        }
      ]
    }
  ],
  "data": {
    "created_at": "2018-04-05T16:52:28.000Z",
    "ignoreHooks": false,
    "kid": "a129e8c5-89ce-4f06-bbba-b5963e938c5f",
    "modified_at": "2023-08-09T09:58:53.873Z",
    "parents": [
      "f08a296c-cca2-44e0-9bd9-4abd6caab2f9"
    ],
    "repository": "kara.moe",
    "tags": {
      "authors": [
        "79e0aa7d-da9a-4e9a-aa2b-64056a83b49b"
      ],
      "collections": [
        "c7db86a0-ff64-4044-9be4-66dd1ef1d1c1"
      ],
      "families": [
        "0377db02-3af6-43b8-9b08-c759df3d25c3"
      ],
      "groups": [
        "ae613721-1fbe-480d-ba6b-d6d0702b184d"
      ],
      "langs": [
        "4dcf9614-7914-42aa-99f4-dbce2e059133"
      ],
      "misc": [
        "ec4360fa-3e3c-4f6f-b0e1-fb8b12b6dd18"
      ],
      "series": [
        "501b5b23-d377-444d-9d73-8a937825eba1"
      ],
      "singers": [
        "0c6daf8e-34c1-438f-8fd4-c5a59d7acf4a",
        "1d78156e-3eb3-409b-b0e0-82e8ef7efe01",
        "3123af14-cfe1-4831-9f38-8a98612c003c",
        "371f95d8-5385-4728-8dbb-0cd3e5892ce4",
        "43aac84b-cf1f-439c-86b3-5b420304a518",
        "a767fbe2-230f-478b-92f0-73ac76d3ffd1",
        "d22efb7a-969a-4ba8-937e-d1bac2b1ae99",
        "db3f622e-11ec-4c6a-b86d-1ff73275baa3",
        "deb1d400-c0ec-4bc5-9055-56c6a6acf6f1",
        "e6dd0d75-8fc9-4478-a3be-1f691d4f0400",
        "ee6170c9-21f6-4c6a-996f-70cde54ab83f"
      ],
      "songtypes": [
        "7be1b15c-cff8-4b37-a649-5c90f3d569a9"
      ],
      "songwriters": [
        "ca0ed795-716a-4e9b-ae11-2f3f1c7f63a9"
      ],
      "franchises": [
        "501b5b23-d377-444d-9d73-8a937825eba1"
      ]
    },
    "titles": {
      "jpn": "ドレミファロンド（フレンズ ver.）",
      "qro": "Doremifa Rondo (Friends Vers.)",
      "eng": "Do Re Mi Fa Rondo (Friends Vers.)"
    },
    "titles_default_language": "qro",
    "year": 2018
  }
}