{
  "header": {
    "version": 4,
    "description": "Karaoke Mugen Karaoke Data File"
  },
  "medias": [
    {
      "version": "Default",
      "filename": "JPN - Danganronpa 3 The End of Kibougamine Gakuen - Zetsubou Hen - AUDIO OP - Kamiiroawase ~ Full Vers.mp3",
      "loudnorm": "-6.21,0.60,5.00,-16.33,-1.05",
      "filesize": 11346824,
      "duration": 274,
      "default": true,
      "lyrics": [
        {
          "filename": "JPN - Danganronpa 3 The End of Kibougamine Gakuen - Zetsubou Hen - AUDIO OP - Kamiiroawase ~ Full Vers.ass",
          "default": true,
          "version": "Default"
        }
      ]
    }
  ],
  "data": {
    "created_at": "2023-08-26T05:04:20.695Z",
    "ignoreHooks": false,
    "kid": "cc399360-d3e2-468d-aaf6-cd58433d4f66",
    "modified_at": "2023-08-26T05:04:58.808Z",
    "parents": [
      "94ea4b42-63a0-41af-962c-520d36a70e92"
    ],
    "repository": "kara.moe",
    "tags": {
      "authors": [
        "7848b5dc-a5df-4577-b640-147be5288cec",
        "b332f604-b144-4f33-9145-ff61cb670a4f"
      ],
      "collections": [
        "c7db86a0-ff64-4044-9be4-66dd1ef1d1c1"
      ],
      "creators": [
        "a2eb054b-5c11-4dfc-90ed-b0e0f289b838"
      ],
      "families": [
        "0377db02-3af6-43b8-9b08-c759df3d25c3"
      ],
      "groups": [
        "8c22c899-b3ed-42da-a548-ce00f950798b",
        "9a8e0fbc-dcae-4989-be82-7cad3436f1f5",
        "ae613721-1fbe-480d-ba6b-d6d0702b184d"
      ],
      "langs": [
        "4dcf9614-7914-42aa-99f4-dbce2e059133"
      ],
      "origins": [
        "938de218-5343-4865-94d3-fb33f2eaa152"
      ],
      "series": [
        "aa212355-9f74-4f51-9a20-4d6873078da1"
      ],
      "singers": [
        "1d4bf64f-1fc5-4e97-a6cf-a15ab7517229",
        "a73335e3-1229-47e6-b17b-33f4fe647afe"
      ],
      "singergroups": [
        "7366a2f0-befb-4621-8973-acb09162a249"
      ],
      "songtypes": [
        "42a262ae-acba-4ab5-a446-c5789c96c821",
        "f02ad9b3-0bd9-4aad-85b3-9976739ba0e4"
      ],
      "songwriters": [
        "a73335e3-1229-47e6-b17b-33f4fe647afe"
      ],
      "versions": [
        "c2143a7f-6970-450e-8a79-0302db9220a9"
      ],
      "franchises": [
        "15c7ca82-8e24-43d6-8d65-42df016c2c8c"
      ]
    },
    "titles": {
      "jpn": "カミイロアワセ",
      "qro": "Kamiiroawase"
    },
    "titles_default_language": "qro",
    "titles_aliases": [
      "kami-iro",
      "awase",
      "iro"
    ],
    "year": 2016
  }
}