{
  "header": {
    "version": 4,
    "description": "Karaoke Mugen Karaoke Data File"
  },
  "medias": [
    {
      "version": "Default",
      "filename": "JPN - BanG Dream! It's MyGO!!!!! - ED - Shiori.mp4",
      "audiogain": 7.24,
      "loudnorm": "-24.43,-13.58,2.90,-34.48,-0.57",
      "filesize": 5999524,
      "duration": 96,
      "default": true,
      "lyrics": [
        {
          "filename": "JPN - BanG Dream! It's MyGO!!!!! - ED - Shiori.ass",
          "default": true,
          "version": "Default"
        }
      ]
    }
  ],
  "data": {
    "created_at": "2023-08-22T23:17:20.113Z",
    "ignoreHooks": false,
    "kid": "85b353f5-f6b4-4cb1-bcd2-1eadc9260540",
    "modified_at": "2023-08-22T23:23:43.331Z",
    "repository": "kara.moe",
    "tags": {
      "authors": [
        "002873d6-a84e-4e5a-85aa-fbe3969143c6"
      ],
      "collections": [
        "c7db86a0-ff64-4044-9be4-66dd1ef1d1c1"
      ],
      "creators": [
        "4e1122b4-c09f-445f-bdfa-cbad9581f2dc"
      ],
      "families": [
        "0377db02-3af6-43b8-9b08-c759df3d25c3"
      ],
      "groups": [
        "8e209ae4-4381-438f-89dc-1b21752027d2"
      ],
      "langs": [
        "4dcf9614-7914-42aa-99f4-dbce2e059133"
      ],
      "origins": [
        "938de218-5343-4865-94d3-fb33f2eaa152"
      ],
      "series": [
        "bb899abf-8fd8-4761-ac9b-d2befbec1265"
      ],
      "singers": [
        "dd1e4e5c-1d91-4f0e-9e73-62260c1cb101"
      ],
      "singergroups": [
        "9b80b584-8851-4ab1-bd72-ef917f3c82fd"
      ],
      "songtypes": [
        "38c77c56-2b95-4040-b676-0994a8cb0597"
      ],
      "songwriters": [
        "30e4f047-50d7-4ed7-8ed3-57cef0f20489",
        "60c782e0-d553-46c4-a470-bf13b3c88689"
      ],
      "franchises": [
        "a65e956d-39ab-4995-9ede-889c30a5cbf0"
      ]
    },
    "titles": {
      "jpn": "栞",
      "qro": "Shiori"
    },
    "titles_default_language": "qro",
    "year": 2023
  }
}