{
  "header": {
    "version": 4,
    "description": "Karaoke Mugen Karaoke Data File"
  },
  "medias": [
    {
      "version": "Default",
      "filename": "JPN - Love Live! Sunshine!! - LIVE - OKAWARI Happy life! ~ Full Vers.mp4",
      "loudnorm": "-7.26,3.77,1.90,-17.32,-0.23",
      "filesize": 215182176,
      "duration": 234,
      "default": true,
      "lyrics": [
        {
          "filename": "JPN - Love Live! Sunshine!! - LIVE - OKAWARI Happy life! ~ Full Vers.ass",
          "default": true,
          "version": "Default"
        }
      ]
    }
  ],
  "data": {
    "created_at": "2023-09-19T18:47:20.289Z",
    "ignoreHooks": false,
    "kid": "aab7b378-a0c6-417b-b52c-3e153b554581",
    "modified_at": "2023-09-21T22:40:22.042Z",
    "repository": "kara.moe",
    "tags": {
      "authors": [
        "449844e4-3a1f-46e1-8a92-bf72e2d1b6f1",
        "98184f10-4aac-4c00-81a7-c31073c95e7c",
        "16b136eb-921f-4c07-be38-ff92d5cc4313"
      ],
      "collections": [
        "dbcf2c22-524d-4708-99bb-601703633927"
      ],
      "creators": [
        "b2805292-730e-473a-96f0-fd8e7ffd1fd7"
      ],
      "families": [
        "5391f9fe-638c-415f-8dc9-958e3a2c5787"
      ],
      "genres": [
        "caa86df2-0d59-474b-885c-f240a9e891b0"
      ],
      "groups": [
        "8e209ae4-4381-438f-89dc-1b21752027d2"
      ],
      "langs": [
        "4dcf9614-7914-42aa-99f4-dbce2e059133"
      ],
      "series": [
        "63466536-1102-4f91-b167-4380d274e2a3"
      ],
      "singers": [
        "5db2e941-73cc-4374-af8e-a078458645ca"
      ],
      "singergroups": [
        "b34161c7-a60d-4f1a-8436-11abc0875436"
      ],
      "songtypes": [
        "a0167949-580c-4de3-bf13-497e462e02f3"
      ],
      "songwriters": [
        "c1a5b6a7-a07b-49e0-881c-e2ccea5d4216",
        "d4ad9897-5bcb-4474-aa6d-47a902bd2ff0",
        "f41e7218-6c19-4e19-9b5f-4612dcd58243",
        "9e676bc2-fb05-4a4b-b98a-d09b11979902"
      ],
      "versions": [
        "c2143a7f-6970-450e-8a79-0302db9220a9"
      ],
      "franchises": [
        "fd5d066e-e85a-4eea-8688-2979a887450a"
      ]
    },
    "titles": {
      "qro": "OKAWARI Happy life!"
    },
    "titles_default_language": "qro",
    "year": 2023
  }
}