{
  "header": {
    "version": 4,
    "description": "Karaoke Mugen Karaoke Data File"
  },
  "medias": [
    {
      "version": "Default",
      "filename": "JPN - Gekijouban Gintama 2 Kanketsu-hen ~ Yorozuya yo Eien Nare - MV - Genjou Destruction ~ Full Vers.mp4",
      "audiogain": -11.27,
      "loudnorm": "-5.24,1.54,2.10,-15.34,-0.39",
      "filesize": 53387726,
      "duration": 221,
      "default": true,
      "lyrics": [
        {
          "filename": "JPN - Gekijouban Gintama 2 Kanketsu-hen ~ Yorozuya yo Eien Nare - MV - Genjou Destruction ~ Full Vers.ass",
          "default": true,
          "version": "Default"
        }
      ]
    }
  ],
  "data": {
    "created_at": "2020-04-17T22:43:44.803Z",
    "kid": "4116460a-454b-4330-a580-637599f28fd5",
    "modified_at": "2022-06-04T00:13:12.441Z",
    "repository": "kara.moe",
    "songorder": null,
    "tags": {
      "authors": [
        "65761521-3090-419e-846a-a6160d8a9f22"
      ],
      "creators": [
        "9f10c180-4ed1-4a4e-9e39-c37e09b91d5f"
      ],
      "families": [
        "5391f9fe-638c-415f-8dc9-958e3a2c5787"
      ],
      "groups": [
        "60defa7b-774e-4680-8321-51b742c2e009",
        "ae613721-1fbe-480d-ba6b-d6d0702b184d"
      ],
      "langs": [
        "4dcf9614-7914-42aa-99f4-dbce2e059133"
      ],
      "series": [
        "e89802a7-f72d-4574-9f73-41fbc453fd9d"
      ],
      "singers": [
        "27a41af1-3aa1-4e1e-b747-8c06ed4fa4ef"
      ],
      "songtypes": [
        "7be1b15c-cff8-4b37-a649-5c90f3d569a9"
      ],
      "songwriters": [
        "366e2924-fd0f-40ea-a1d9-f8490aaac6cd",
        "5d794fd1-b9a5-4b9b-8ea1-4daebc2121fc"
      ],
      "versions": [
        "c2143a7f-6970-450e-8a79-0302db9220a9"
      ],
      "collections": [
        "dbcf2c22-524d-4708-99bb-601703633927"
      ],
      "franchises": [
        "0433ab0b-74bb-4837-8f1b-fd17a9e0c526"
      ]
    },
    "titles": {
      "qro": "Genjô Destruction",
      "jpn": "現状ディストラクション"
    },
    "titles_default_language": "qro",
    "titles_aliases": [
      "Genjou"
    ],
    "title": "Genjô Destruction",
    "year": 2013
  }
}