{
  "header": {
    "version": 4,
    "description": "Karaoke Mugen Karaoke Data File"
  },
  "medias": [
    {
      "version": "Default",
      "filename": "JPN - HAMBURGER BOYS - MV - R.M.O -RUMOI.MASHIKE.OBIRA-.mp4",
      "audiogain": 0.72,
      "loudnorm": "-17.07,-5.52,3.10,-27.18,-0.18",
      "filesize": 45751809,
      "duration": 224,
      "default": true,
      "lyrics": [
        {
          "filename": "JPN - HAMBURGER BOYS - MV - R.M.O -RUMOI.MASHIKE.OBIRA-.ass",
          "default": true,
          "version": "Default"
        }
      ]
    }
  ],
  "data": {
    "created_at": "2023-03-05T10:08:40.260Z",
    "ignoreHooks": false,
    "kid": "3df93d71-466d-42a2-afd2-cea2ada48f05",
    "modified_at": "2023-04-14T15:47:15.328Z",
    "repository": "kara.moe",
    "tags": {
      "authors": [
        "61865310-cb97-496c-a722-364b0a9ba90d"
      ],
      "collections": [
        "dbcf2c22-524d-4708-99bb-601703633927"
      ],
      "creators": [
        "5dd67975-1477-4b7b-9046-8780997c5dc1"
      ],
      "families": [
        "5391f9fe-638c-415f-8dc9-958e3a2c5787"
      ],
      "groups": [
        "8c22c899-b3ed-42da-a548-ce00f950798b",
        "ae613721-1fbe-480d-ba6b-d6d0702b184d"
      ],
      "langs": [
        "4dcf9614-7914-42aa-99f4-dbce2e059133"
      ],
      "singers": [
        "a7292c00-dd82-43ed-b379-a0cbf708b0ff"
      ],
      "singergroups": [
        "f8cba873-61a0-411d-b6b0-ee008d91f0ad"
      ],
      "songtypes": [
        "7be1b15c-cff8-4b37-a649-5c90f3d569a9"
      ],
      "songwriters": [
        "f8cba873-61a0-411d-b6b0-ee008d91f0ad",
        "a7292c00-dd82-43ed-b379-a0cbf708b0ff",
        "e3b3c41d-e3eb-4606-b9d0-398e7f0fc8be"
      ]
    },
    "titles": {
      "qro": "R.M.O -RUMOI.MASHIKE.OBIRA-",
      "jpn": "R.M.O -留萌・増毛・小平-"
    },
    "titles_default_language": "qro",
    "titles_aliases": [
      "Rumoi mashike obira",
      "RMO"
    ],
    "year": 2019
  }
}