{
  "header": {
    "version": 4,
    "description": "Karaoke Mugen Karaoke Data File"
  },
  "medias": [
    {
      "version": "Default",
      "filename": "JPN - Haikyuu!! 2nd Season - OP2 - FLY HIGH!!.mp4",
      "audiogain": 4.22,
      "loudnorm": "-20.43,-12.10,2.80,-30.46,-0.51",
      "filesize": 45106466,
      "duration": 92,
      "default": true,
      "lyrics": [
        {
          "filename": "JPN - Haikyuu!! 2nd Season - OP2 - FLY HIGH!!.ass",
          "default": true,
          "version": "Default",
          "subchecksum": "8eb9d74cbd2e97efcdc36100a8537deb"
        }
      ]
    }
  ],
  "data": {
    "created_at": "2017-10-11T17:01:37.000Z",
    "kid": "f38b7dc8-c09f-4091-bd26-e7f941a12bff",
    "modified_at": "2021-02-25T11:35:36.984Z",
    "repository": "kara.moe",
    "songorder": 2,
    "tags": {
      "authors": [
        "deacaabb-cdea-40d3-a80d-585eac4d5dd8"
      ],
      "collections": [
        "c7db86a0-ff64-4044-9be4-66dd1ef1d1c1"
      ],
      "creators": [
        "20d023d6-5195-4e4f-bae3-8b28ad6334e2"
      ],
      "families": [
        "0377db02-3af6-43b8-9b08-c759df3d25c3"
      ],
      "genres": [
        "a0aeef4a-6428-45ff-a6e1-468b595930c2"
      ],
      "groups": [
        "ae613721-1fbe-480d-ba6b-d6d0702b184d"
      ],
      "langs": [
        "4dcf9614-7914-42aa-99f4-dbce2e059133"
      ],
      "origins": [
        "938de218-5343-4865-94d3-fb33f2eaa152"
      ],
      "series": [
        "40fdeb06-c6c7-4d5b-812f-17c4d24b09e7"
      ],
      "singers": [
        "00b1f396-3c50-4135-9300-a0d8d4dcc2d2"
      ],
      "songtypes": [
        "f02ad9b3-0bd9-4aad-85b3-9976739ba0e4"
      ],
      "songwriters": [
        "cdedeeab-6067-4b78-9299-3a131423641a"
      ],
      "franchises": [
        "0d698d58-0e52-45a0-83e9-43c2c215554c"
      ]
    },
    "title": "FLY HIGH!!",
    "titles": {
      "eng": "FLY HIGH!!"
    },
    "year": 2015,
    "titles_default_language": "eng"
  }
}