{
  "header": {
    "version": 4,
    "description": "Karaoke Mugen Karaoke Data File"
  },
  "medias": [
    {
      "version": "Default",
      "filename": "JPN - Senki Zesshou Symphogear XV - AUDIO CS - Kono Ima wo Ikiru Hikari.mp3",
      "audiogain": -6.45,
      "loudnorm": "-11.51,-3.16,4.80,-21.75,-0.20",
      "filesize": 12288500,
      "duration": 301,
      "default": true,
      "lyrics": []
    }
  ],
  "data": {
    "created_at": "2023-05-29T23:52:03.051Z",
    "ignoreHooks": false,
    "kid": "bcaf7f80-4267-4c72-bf1f-ce7317d171eb",
    "modified_at": "2023-05-29T23:52:03.143Z",
    "repository": "kara.moe",
    "tags": {
      "authors": [
        "87096920-112f-485f-a310-04156cb4624d"
      ],
      "collections": [
        "c7db86a0-ff64-4044-9be4-66dd1ef1d1c1"
      ],
      "langs": [
        "4dcf9614-7914-42aa-99f4-dbce2e059133"
      ],
      "series": [
        "5a0d57d7-a6e9-45bf-9960-334128e43e0a"
      ],
      "singers": [
        "f2e9d52b-1b80-4fb5-8754-628462e094e5"
      ],
      "songtypes": [
        "a8a2616c-b5a1-4df3-ad6f-89291bc67dee",
        "42a262ae-acba-4ab5-a446-c5789c96c821"
      ],
      "songwriters": [
        "af3ffe51-8059-461c-bbb8-78ea388731f3",
        "178dcba7-6d20-40b9-baea-d7d3e38e2c25"
      ],
      "franchises": [
        "61b24082-a6a9-482b-b126-0ad7be595791"
      ],
      "groups": [
        "ae613721-1fbe-480d-ba6b-d6d0702b184d",
        "60defa7b-774e-4680-8321-51b742c2e009"
      ],
      "misc": [
        "86705d4b-24e4-4756-9687-2b9c98bcf366"
      ]
    },
    "titles": {
      "jpn": "此の今を生きるヒカリ",
      "qro": "Kono Ima wo Ikiru Hikari"
    },
    "titles_default_language": "qro",
    "year": 2019
  }
}