{
  "header": {
    "version": 4,
    "description": "Karaoke Mugen Karaoke Data File"
  },
  "medias": [
    {
      "version": "Default",
      "filename": "JPN - Love Live! Superstar!! - MV - What a Wonderful Dream!! ~ Full Vers.mp4",
      "audiogain": -8.82,
      "loudnorm": "-8.19,1.28,3.80,-18.24,-1.22",
      "filesize": 52555046,
      "duration": 236,
      "default": true,
      "lyrics": [
        {
          "filename": "JPN - Love Live! Superstar!! - MV - What a Wonderful Dream!! ~ Full Vers.ass",
          "default": true,
          "version": "Default"
        }
      ]
    }
  ],
  "data": {
    "created_at": "2022-03-06T02:14:52.379Z",
    "kid": "a1911be1-ec16-4edf-b173-d4a8433e9510",
    "modified_at": "2022-08-23T20:39:13.334Z",
    "repository": "kara.moe",
    "tags": {
      "series": [
        "ed46191b-997b-4c2d-8088-bb30a5e6d4ca"
      ],
      "singers": [
        "4a1c9511-daa2-4172-9367-5afb3312234e",
        "4e66c19f-a55a-4be7-a948-4eb45796b71f",
        "8a484e8b-1945-416f-b778-97a887ff24eb",
        "8b1d7f16-0b3e-4c63-82c1-bd60518b86a8",
        "c1fd3a67-0c3b-4d95-9cd8-f6aa2c8cc5a8"
      ],
      "songtypes": [
        "7be1b15c-cff8-4b37-a649-5c90f3d569a9"
      ],
      "creators": [
        "b2805292-730e-473a-96f0-fd8e7ffd1fd7"
      ],
      "langs": [
        "4dcf9614-7914-42aa-99f4-dbce2e059133"
      ],
      "authors": [
        "449844e4-3a1f-46e1-8a92-bf72e2d1b6f1"
      ],
      "songwriters": [
        "0b44d345-2524-4d13-8e72-fe9518a888e6",
        "20ef9dfa-d124-4b66-9a25-0041e56ae79c",
        "f77f4be8-1af3-4bab-9411-759dbd5bb583"
      ],
      "groups": [
        "8e209ae4-4381-438f-89dc-1b21752027d2"
      ],
      "families": [
        "5391f9fe-638c-415f-8dc9-958e3a2c5787"
      ],
      "genres": [
        "caa86df2-0d59-474b-885c-f240a9e891b0"
      ],
      "versions": [
        "c2143a7f-6970-450e-8a79-0302db9220a9"
      ],
      "collections": [
        "dbcf2c22-524d-4708-99bb-601703633927"
      ],
      "singergroups": [
        "f3e5b1d3-30b1-4548-95c8-6cf77216bdbd"
      ],
      "franchises": [
        "fd5d066e-e85a-4eea-8688-2979a887450a"
      ]
    },
    "titles": {
      "eng": "What a Wonderful Dream!!"
    },
    "titles_default_language": "eng",
    "title": "What a Wonderful Dream!!",
    "year": 2022
  }
}