{
  "header": {
    "version": 4,
    "description": "Karaoke Mugen Karaoke Data File"
  },
  "medias": [
    {
      "version": "Default",
      "filename": "JPN - Touhou - MV - Marisa Stole the Precious Thing.mp4",
      "audiogain": -9.54,
      "loudnorm": "-6.63,4.02,6.10,-16.93,-0.85",
      "filesize": 63634544,
      "duration": 241,
      "default": true,
      "lyrics": [
        {
          "filename": "JPN - Touhou - MV - Marisa Stole the Precious Thing.ass",
          "default": true,
          "version": "Default"
        }
      ]
    }
  ],
  "data": {
    "created_at": "2017-10-11T17:01:41.000Z",
    "kid": "f9d9e339-8ef6-4dae-80e8-4cd00c4c54bc",
    "modified_at": "2021-05-01T21:43:18.734Z",
    "repository": "kara.moe",
    "songorder": null,
    "tags": {
      "authors": [
        "1df04771-a378-4f14-a5e1-1455187d681a"
      ],
      "collections": [
        "c7db86a0-ff64-4044-9be4-66dd1ef1d1c1"
      ],
      "creators": [
        "25fc251a-0514-4bf5-a818-dd0547723f4a",
        "a56ed9e7-a3dc-4203-b91c-4128bcf7bfa9",
        "dfdca219-b7f2-4e7b-a18a-0229108ff1cd"
      ],
      "families": [
        "0377db02-3af6-43b8-9b08-c759df3d25c3"
      ],
      "groups": [
        "3c14c864-533c-49e6-a3cc-6969f1233775"
      ],
      "langs": [
        "4dcf9614-7914-42aa-99f4-dbce2e059133"
      ],
      "series": [
        "1bdaa5a1-dfa6-4365-b746-7a0b194dafd6"
      ],
      "singers": [
        "63c7ee79-bff6-41ba-aa5b-547cb44012bc"
      ],
      "songtypes": [
        "7be1b15c-cff8-4b37-a649-5c90f3d569a9"
      ],
      "songwriters": [
        "1dae52a9-d1e0-447b-8dd3-cfd10119a3a8",
        "26cb5252-8510-49e0-897c-a611a05fc056",
        "feceb592-efac-4eda-9b03-c27cf509004c"
      ],
      "franchises": [
        "1bdaa5a1-dfa6-4365-b746-7a0b194dafd6"
      ]
    },
    "titles": {
      "eng": "Marisa Stole the Precious Thing",
      "qro": "Marisa wa Taihen na Mono wo Nusunde Ikimashita",
      "jpn": "魔理沙は大変なものを盗んでいきました"
    },
    "title": "Marisa Stole the Precious Thing",
    "year": 2006,
    "titles_default_language": "eng"
  }
}