{
  "header": {
    "version": 4,
    "description": "Karaoke Mugen Karaoke Data File"
  },
  "medias": [
    {
      "version": "Default",
      "filename": "JPN - Megatera Zero - MV - Yoidore Shirazu ~ Cover Vers.mp4",
      "audiogain": -7.63,
      "loudnorm": "-10.05,1.55,5.30,-20.13,-0.93",
      "filesize": 5176803,
      "duration": 134,
      "default": true,
      "lyrics": [
        {
          "filename": "JPN - Megatera Zero - MV - Yoidore Shirazu ~ Cover Vers.ass",
          "default": true,
          "version": "Default"
        }
      ]
    }
  ],
  "data": {
    "created_at": "2022-05-24T23:28:42.056Z",
    "ignoreHooks": false,
    "kid": "3e395057-42be-493d-9ec7-51344e23d03c",
    "modified_at": "2022-11-17T09:47:51.508Z",
    "parents": [
      "378308bd-0c89-495d-946b-51a43972cd11"
    ],
    "repository": "kara.moe",
    "tags": {
      "authors": [
        "10891649-d475-46eb-b515-8eb3c1e14622"
      ],
      "collections": [
        "c7db86a0-ff64-4044-9be4-66dd1ef1d1c1"
      ],
      "creators": [
        "9333257c-8240-474d-a6a4-72298664634d"
      ],
      "families": [
        "0377db02-3af6-43b8-9b08-c759df3d25c3"
      ],
      "genres": [
        "45623cae-6d68-4304-a49b-896d1d6f4580"
      ],
      "groups": [
        "8e209ae4-4381-438f-89dc-1b21752027d2"
      ],
      "langs": [
        "4dcf9614-7914-42aa-99f4-dbce2e059133"
      ],
      "singers": [
        "cf4b9403-67df-49e1-be64-d3af35735c21"
      ],
      "songtypes": [
        "7be1b15c-cff8-4b37-a649-5c90f3d569a9"
      ],
      "songwriters": [
        "13b026cd-6c17-4bd1-93ab-f49335c91799"
      ],
      "versions": [
        "03e1e1d2-8641-47b7-bbcb-39a3df9ff21c"
      ]
    },
    "titles": {
      "jpn": "酔いどれ知らず",
      "qro": "Yoidore Shirazu"
    },
    "titles_default_language": "qro",
    "year": 2022
  }
}