{
  "header": {
    "version": 4,
    "description": "Karaoke Mugen Karaoke Data File"
  },
  "medias": [
    {
      "version": "Default",
      "filename": "JPN - Mana Ashida - MV - Suteki na Nichiyoubi.mp4",
      "audiogain": -10.39,
      "loudnorm": "-7.22,1.22,3.20,-17.29,-1.24",
      "filesize": 33477568,
      "duration": 271,
      "default": true,
      "lyrics": [
        {
          "filename": "JPN - Mana Ashida - MV - Suteki na Nichiyoubi.ass",
          "default": true,
          "version": "Default"
        }
      ]
    }
  ],
  "data": {
    "created_at": "2019-07-21T16:31:53.000Z",
    "ignoreHooks": false,
    "kid": "83af635f-b169-47e5-8c35-34ed030363a7",
    "modified_at": "2022-10-01T19:21:56.746Z",
    "repository": "kara.moe",
    "tags": {
      "authors": [
        "57e2d8c3-b3f3-4b82-88a4-2491946b24d9"
      ],
      "collections": [
        "dbcf2c22-524d-4708-99bb-601703633927"
      ],
      "creators": [
        "f963181a-1214-47f8-b6f9-1705cbc33779"
      ],
      "families": [
        "5391f9fe-638c-415f-8dc9-958e3a2c5787"
      ],
      "groups": [
        "2b4e9972-5e17-481b-99f5-d0787c0ada56",
        "ae613721-1fbe-480d-ba6b-d6d0702b184d"
      ],
      "langs": [
        "4dcf9614-7914-42aa-99f4-dbce2e059133"
      ],
      "singers": [
        "adda2d46-759e-454a-ad10-b468f04daa89"
      ],
      "songtypes": [
        "7be1b15c-cff8-4b37-a649-5c90f3d569a9"
      ],
      "songwriters": [
        "6b5b09c9-e087-416b-891d-3296de552d9d",
        "8c67056d-d624-4a36-a2d6-1de8e015fdea"
      ]
    },
    "titles": {
      "jpn": "ステキな日曜日",
      "qro": "Suteki na Nichiyôbi"
    },
    "titles_default_language": "qro",
    "titles_aliases": [
      "Nichiyoubi"
    ],
    "title": "Suteki na Nichiyôbi",
    "year": 2011
  }
}