{
  "header": {
    "version": 4,
    "description": "Karaoke Mugen Karaoke Data File"
  },
  "medias": [
    {
      "version": "Default",
      "filename": "JPN - Mawaru Penguindrum - IN - ROCK OVER JAPAN.mp4",
      "audiogain": -0.22,
      "loudnorm": "-17.59,-7.74,2.00,-27.72,-0.31",
      "filesize": 29018742,
      "duration": 60,
      "default": true,
      "lyrics": [
        {
          "filename": "JPN - Mawaru Penguindrum - IN - ROCK OVER JAPAN.ass",
          "default": true,
          "version": "Default"
        }
      ]
    }
  ],
  "data": {
    "created_at": "2017-10-11T17:01:12.000Z",
    "ignoreHooks": false,
    "kid": "68a57800-9b23-4c62-bcc8-a77fb103b798",
    "modified_at": "2022-12-23T15:52:44.807Z",
    "repository": "kara.moe",
    "tags": {
      "authors": [
        "cfdaf046-d5cd-419c-9e71-16d69a8eabca"
      ],
      "collections": [
        "c7db86a0-ff64-4044-9be4-66dd1ef1d1c1"
      ],
      "creators": [
        "a06f41a3-31b6-462a-a195-e48a11386da3"
      ],
      "families": [
        "0377db02-3af6-43b8-9b08-c759df3d25c3"
      ],
      "groups": [
        "8c22c899-b3ed-42da-a548-ce00f950798b",
        "ae613721-1fbe-480d-ba6b-d6d0702b184d"
      ],
      "langs": [
        "4dcf9614-7914-42aa-99f4-dbce2e059133"
      ],
      "origins": [
        "938de218-5343-4865-94d3-fb33f2eaa152"
      ],
      "series": [
        "1b9ed73e-d0a9-4251-be35-76eec2210c83"
      ],
      "singers": [
        "48778367-9535-40c9-ba5f-1fb95953c289",
        "c2ad3556-d4ad-4e54-a826-aa771dd4ec35",
        "7bd78e68-dd41-4e1b-984b-a247d6e6addf"
      ],
      "singergroups": [
        "2ff670b4-88e3-4e09-af1b-e74293757fb3"
      ],
      "songtypes": [
        "5e5250d9-351a-4a82-98eb-55db50ad8962"
      ],
      "songwriters": [
        "94b4bfc1-9222-40f0-8913-b37074695595",
        "eaf5b034-ddf3-46d4-83af-285fd6cb91df"
      ],
      "franchises": [
        "1b9ed73e-d0a9-4251-be35-76eec2210c83"
      ]
    },
    "titles": {
      "eng": "ROCK OVER JAPAN"
    },
    "titles_default_language": "eng",
    "year": 2011
  }
}