{
  "header": {
    "version": 4,
    "description": "Karaoke Mugen Karaoke Data File"
  },
  "medias": [
    {
      "version": "Default",
      "filename": "JPN - The Little Mermaid - LIVE - Part of Your World.mp4",
      "audiogain": 9.39,
      "loudnorm": "-27.26,-16.80,11.00,-37.79,-1.46",
      "filesize": 146382988,
      "duration": 205,
      "default": true,
      "lyrics": [
        {
          "filename": "JPN - The Little Mermaid - LIVE - Part of Your World.ass",
          "default": true,
          "version": "Default"
        }
      ]
    }
  ],
  "data": {
    "created_at": "2023-02-05T19:14:10.471Z",
    "ignoreHooks": false,
    "kid": "8865546c-7e50-49e9-965a-7eee34cfbf8e",
    "modified_at": "2023-07-17T21:33:53.023Z",
    "parents": [
      "12a3297e-7a4d-40cf-871a-093ca39166d6"
    ],
    "repository": "kara.moe",
    "tags": {
      "authors": [
        "fa399f2f-ea1d-4902-8796-ea6d8218aff0"
      ],
      "collections": [
        "dbcf2c22-524d-4708-99bb-601703633927"
      ],
      "creators": [
        "c800ba78-ac66-4419-9903-fa8fdb3fc377"
      ],
      "families": [
        "5391f9fe-638c-415f-8dc9-958e3a2c5787"
      ],
      "groups": [
        "8e209ae4-4381-438f-89dc-1b21752027d2",
        "f5e7d2fc-0cbb-4fb9-a84a-b25dfb0e9e77"
      ],
      "langs": [
        "4dcf9614-7914-42aa-99f4-dbce2e059133"
      ],
      "origins": [
        "8dd8d2a4-913a-4b0b-a555-1121cc603a57"
      ],
      "series": [
        "3b7ef1cb-0408-448c-9e77-d76a17f2a828"
      ],
      "singers": [
        "78726a5c-35c9-4c82-9307-3564797ff50b"
      ],
      "songtypes": [
        "a0167949-580c-4de3-bf13-497e462e02f3"
      ],
      "songwriters": [
        "576c81c7-d0c0-4cf9-aeb0-6b40a14d2c7c",
        "95fcb428-a4b0-4564-9ef7-ab6474736236"
      ]
    },
    "titles": {
      "eng": "Part of Your World",
      "fre": "Partir là-bas",
      "jpn": "パート・オブ・ユア・ワールド"
    },
    "titles_default_language": "eng",
    "year": 2020
  }
}