{
  "header": {
    "version": 4,
    "description": "Karaoke Mugen Karaoke Data File"
  },
  "medias": [
    {
      "version": "Symphogear Live 2016.",
      "filename": "JPN - Senki Zesshou Symphogear - LIVE - Just Loving X-Edge ~ Symphogear Live 2016 Vers. ~ Full Vers.mp4",
      "audiogain": -9.58,
      "loudnorm": "-7.85,3.00,2.10,-17.88,-0.40",
      "filesize": 120807214,
      "duration": 247,
      "default": true,
      "lyrics": [
        {
          "filename": "JPN - Senki Zesshou Symphogear - LIVE - Just Loving X-Edge ~ Symphogear Live 2016 Vers. ~ Full Vers.ass",
          "default": true,
          "version": "Default"
        }
      ]
    }
  ],
  "data": {
    "created_at": "2018-06-18T19:40:28.000Z",
    "ignoreHooks": false,
    "kid": "3794f53d-9dd1-482a-afd9-dd544645b0e4",
    "modified_at": "2022-12-28T06:06:47.561Z",
    "parents": [
      "2d0adde6-b2eb-43b6-9bca-1222ed64ca14"
    ],
    "repository": "kara.moe",
    "tags": {
      "authors": [
        "a5dbab74-510b-48c5-9cea-5a537a81c974"
      ],
      "collections": [
        "dbcf2c22-524d-4708-99bb-601703633927"
      ],
      "creators": [
        "d2a29c19-019f-4a3d-86ad-2dae9e41a4b1"
      ],
      "families": [
        "5391f9fe-638c-415f-8dc9-958e3a2c5787"
      ],
      "groups": [
        "8c22c899-b3ed-42da-a548-ce00f950798b",
        "ae613721-1fbe-480d-ba6b-d6d0702b184d"
      ],
      "langs": [
        "4dcf9614-7914-42aa-99f4-dbce2e059133"
      ],
      "misc": [
        "1d6ceadf-a885-47e5-b23b-c07bf668a424"
      ],
      "series": [
        "61b24082-a6a9-482b-b126-0ad7be595791"
      ],
      "singers": [
        "7779578c-3d4e-4aa5-8f54-77023879e8e6",
        "d2bf0734-aede-4e5c-b3a6-6d68b18192dc"
      ],
      "songtypes": [
        "a0167949-580c-4de3-bf13-497e462e02f3"
      ],
      "songwriters": [
        "24926282-3ed9-47bd-867c-404398fbecf9",
        "a50ecbe0-14d8-4fdc-a6f2-e6263689a4f3",
        "af3ffe51-8059-461c-bbb8-78ea388731f3"
      ],
      "versions": [
        "c2143a7f-6970-450e-8a79-0302db9220a9"
      ],
      "franchises": [
        "61b24082-a6a9-482b-b126-0ad7be595791"
      ]
    },
    "titles": {
      "eng": "Just Loving X-Edge ~ Symphogear Live 2016 Vers."
    },
    "titles_default_language": "eng",
    "year": 2016
  }
}