{
  "header": {
    "version": 4,
    "description": "Karaoke Mugen Karaoke Data File"
  },
  "medias": [
    {
      "version": "Default",
      "filename": "JPN - Just Because! - ED - behind.mp4",
      "audiogain": -9.63,
      "loudnorm": "-8.28,0.92,8.50,-18.51,-1.98",
      "filesize": 30497621,
      "duration": 91,
      "default": true,
      "lyrics": [
        {
          "filename": "JPN - Just Because! - ED - behind.ass",
          "default": true,
          "version": "Default",
          "subchecksum": "576bd9e404df2c62bc19c97a3c99f7df"
        }
      ]
    }
  ],
  "data": {
    "created_at": "2018-07-26T18:24:06.000Z",
    "kid": "97e6429b-40eb-407a-b90f-6c6b2beb3357",
    "modified_at": "2021-02-25T11:50:12.399Z",
    "repository": "kara.moe",
    "tags": {
      "authors": [
        "b5116310-e69b-4ed4-9e47-c5c53ee69023"
      ],
      "collections": [
        "c7db86a0-ff64-4044-9be4-66dd1ef1d1c1"
      ],
      "creators": [
        "7658875f-1eb3-4c13-b590-08b3d5d67b06"
      ],
      "families": [
        "0377db02-3af6-43b8-9b08-c759df3d25c3"
      ],
      "groups": [
        "ae613721-1fbe-480d-ba6b-d6d0702b184d"
      ],
      "langs": [
        "4dcf9614-7914-42aa-99f4-dbce2e059133"
      ],
      "origins": [
        "938de218-5343-4865-94d3-fb33f2eaa152"
      ],
      "series": [
        "67269540-2674-4ab0-8e9b-91ed30784ea5"
      ],
      "singers": [
        "55fbc1b8-18a8-401d-a379-0bec73d035c6",
        "a9484f95-3c8f-4229-8631-777b1096678a",
        "b607e60e-e507-476f-9738-d1bf01ed0898"
      ],
      "songtypes": [
        "38c77c56-2b95-4040-b676-0994a8cb0597"
      ],
      "songwriters": [
        "1d4bf64f-1fc5-4e97-a6cf-a15ab7517229"
      ]
    },
    "title": "behind",
    "titles": {
      "eng": "behind"
    },
    "year": 2017,
    "titles_default_language": "eng"
  }
}