{
  "header": {
    "version": 4,
    "description": "Karaoke Mugen Karaoke Data File"
  },
  "medias": [
    {
      "version": "Default",
      "filename": "JPN - BanG Dream! Girls Band Party - GAME AUDIO - This game ~ Cover Short Vers.mp3",
      "audiogain": -5.71,
      "loudnorm": "-11.59,-1.15,13.70,-22.45,-2.34",
      "filesize": 2226321,
      "duration": 122,
      "default": true,
      "lyrics": [
        {
          "filename": "JPN - BanG Dream! Girls Band Party - GAME AUDIO - This game ~ Cover Short Vers.ass",
          "default": true,
          "version": "Default"
        }
      ]
    }
  ],
  "data": {
    "created_at": "2022-12-13T00:17:52.191Z",
    "ignoreHooks": false,
    "kid": "2340ee35-2ad5-4492-a815-12ab915887f3",
    "modified_at": "2022-12-14T16:00:38.957Z",
    "parents": [
      "62ffc54c-08f9-466e-8e38-2e60bd97721c"
    ],
    "repository": "kara.moe",
    "tags": {
      "authors": [
        "a3a99b23-6c42-4d38-8863-491153187437"
      ],
      "collections": [
        "c7db86a0-ff64-4044-9be4-66dd1ef1d1c1"
      ],
      "creators": [
        "bd4564a8-44e5-454a-9c57-bd2a3c8a537e",
        "f829a95c-bda4-40bb-8528-910acd5ff2c0"
      ],
      "groups": [
        "ae613721-1fbe-480d-ba6b-d6d0702b184d"
      ],
      "langs": [
        "4dcf9614-7914-42aa-99f4-dbce2e059133"
      ],
      "platforms": [
        "213a1a15-e73a-4a08-b3f6-b6e2745a82e5"
      ],
      "series": [
        "c33cb766-6922-4340-8524-29bf7eca0fc1"
      ],
      "singers": [
        "371f95d8-5385-4728-8dbb-0cd3e5892ce4"
      ],
      "singergroups": [
        "0ac6c8a1-05d4-4e2b-af50-ed40a9a59e7a"
      ],
      "songtypes": [
        "42a262ae-acba-4ab5-a446-c5789c96c821"
      ],
      "songwriters": [
        "141fdefe-8346-413a-82ad-a21b9871dbfd",
        "595dd7ad-6df3-4757-94b3-4014f25dee23",
        "7eecb89b-1985-4fd9-927e-a43cc24f03a5"
      ],
      "versions": [
        "03e1e1d2-8641-47b7-bbcb-39a3df9ff21c",
        "d125c80a-86c1-4321-88e9-07b7800679b6"
      ],
      "franchises": [
        "35e953bf-1920-49e4-a9c3-57d62eadb133"
      ]
    },
    "titles": {
      "eng": "This game"
    },
    "titles_default_language": "eng",
    "year": 2019
  }
}