{
  "header": {
    "version": 4,
    "description": "Karaoke Mugen Karaoke Data File"
  },
  "medias": [
    {
      "version": "Default",
      "filename": "JPN - BABYMETAL - MV - Megitsune.mp4",
      "audiogain": -12.24,
      "loudnorm": "-4.23,3.71,1.20,-14.28,-0.30",
      "filesize": 35344659,
      "duration": 249,
      "default": true,
      "lyrics": [
        {
          "filename": "JPN - BABYMETAL - MV - Megitsune.ass",
          "default": true,
          "version": "Default"
        }
      ]
    }
  ],
  "data": {
    "created_at": "2020-08-15T22:23:02.565Z",
    "ignoreHooks": false,
    "kid": "fae30ce4-6cf3-4b7d-8e2b-2b9892ad7091",
    "modified_at": "2023-04-08T13:11:18.387Z",
    "repository": "kara.moe",
    "tags": {
      "authors": [
        "d96d3624-805c-45ec-beff-80c44b493714"
      ],
      "collections": [
        "dbcf2c22-524d-4708-99bb-601703633927"
      ],
      "creators": [
        "6b7472ff-6bb9-4420-8a59-a322b9677779"
      ],
      "families": [
        "5391f9fe-638c-415f-8dc9-958e3a2c5787"
      ],
      "groups": [
        "ae613721-1fbe-480d-ba6b-d6d0702b184d"
      ],
      "langs": [
        "4dcf9614-7914-42aa-99f4-dbce2e059133"
      ],
      "singergroups": [
        "e95f8edf-36e0-401f-8a73-dad70086a7eb"
      ],
      "songtypes": [
        "7be1b15c-cff8-4b37-a649-5c90f3d569a9"
      ],
      "songwriters": [
        "16f8122f-bb3c-4114-be7f-ef30d6c3135d",
        "d226c213-b4f5-4afe-b8ce-2446b750c5a9"
      ]
    },
    "titles": {
      "jpn": "メギツネ",
      "qro": "Megitsune"
    },
    "titles_default_language": "qro",
    "year": 2013
  }
}