{
  "header": {
    "version": 4,
    "description": "Karaoke Mugen Karaoke Data File"
  },
  "medias": [
    {
      "version": "Default",
      "filename": "JPN - Love Live! Superstar!! - LIVE - Nonfiction!! ~ Full Vers.mp4",
      "audiogain": 2.24,
      "loudnorm": "-19.15,-7.65,2.40,-29.27,-0.35",
      "filesize": 125161290,
      "duration": 203,
      "default": true,
      "lyrics": [
        {
          "filename": "JPN - Love Live! Superstar!! - LIVE - Nonfiction!! ~ Full Vers.ass",
          "default": true,
          "version": "Default"
        }
      ]
    }
  ],
  "data": {
    "created_at": "2022-04-15T22:24:42.023Z",
    "kid": "a2d1059f-3c75-4ac1-88f0-9f8b3ad67e2f",
    "modified_at": "2022-08-23T20:39:13.562Z",
    "repository": "kara.moe",
    "tags": {
      "series": [
        "ed46191b-997b-4c2d-8088-bb30a5e6d4ca"
      ],
      "singers": [
        "4a1c9511-daa2-4172-9367-5afb3312234e",
        "4e66c19f-a55a-4be7-a948-4eb45796b71f",
        "8a484e8b-1945-416f-b778-97a887ff24eb",
        "8b1d7f16-0b3e-4c63-82c1-bd60518b86a8",
        "c1fd3a67-0c3b-4d95-9cd8-f6aa2c8cc5a8"
      ],
      "songtypes": [
        "a0167949-580c-4de3-bf13-497e462e02f3"
      ],
      "creators": [
        "b2805292-730e-473a-96f0-fd8e7ffd1fd7"
      ],
      "langs": [
        "4dcf9614-7914-42aa-99f4-dbce2e059133"
      ],
      "authors": [
        "449844e4-3a1f-46e1-8a92-bf72e2d1b6f1"
      ],
      "songwriters": [
        "28fda933-ac02-4754-95b8-a2c80bb15937",
        "bbbc6873-d455-46b6-903b-152e41d11b82",
        "f77f4be8-1af3-4bab-9411-759dbd5bb583"
      ],
      "groups": [
        "8e209ae4-4381-438f-89dc-1b21752027d2"
      ],
      "families": [
        "5391f9fe-638c-415f-8dc9-958e3a2c5787"
      ],
      "origins": [
        "938de218-5343-4865-94d3-fb33f2eaa152"
      ],
      "genres": [
        "caa86df2-0d59-474b-885c-f240a9e891b0"
      ],
      "versions": [
        "c2143a7f-6970-450e-8a79-0302db9220a9"
      ],
      "collections": [
        "dbcf2c22-524d-4708-99bb-601703633927"
      ],
      "singergroups": [
        "f3e5b1d3-30b1-4548-95c8-6cf77216bdbd"
      ],
      "franchises": [
        "fd5d066e-e85a-4eea-8688-2979a887450a"
      ]
    },
    "titles": {
      "eng": "Nonfiction!!"
    },
    "titles_default_language": "eng",
    "title": "Nonfiction!!",
    "year": 2021
  }
}