{
  "header": {
    "version": 4,
    "description": "Karaoke Mugen Karaoke Data File"
  },
  "medias": [
    {
      "version": "Default",
      "filename": "JPN - Machikado Mazoku 2-Choume - OP - Tokimeki Rendezvous.mp4",
      "audiogain": 5.12,
      "loudnorm": "-21.62,-10.91,1.80,-31.69,-0.29",
      "filesize": 19189796,
      "duration": 90,
      "default": true,
      "lyrics": [
        {
          "filename": "JPN - Machikado Mazoku 2-Choume - OP - Tokimeki Rendezvous.ass",
          "default": true,
          "version": "Default"
        }
      ]
    }
  ],
  "data": {
    "comment": "nettoyage des kf + synchro plus précise + couleurs plus facilement distinguables",
    "created_at": "2022-11-08T20:29:28.168Z",
    "ignoreHooks": false,
    "kid": "9f20b07f-bf18-4ed7-9c42-7d9fc8f04e1c",
    "modified_at": "2023-06-04T20:44:48.081Z",
    "repository": "kara.moe",
    "tags": {
      "authors": [
        "4749577f-84d7-470b-bfa8-09c6f9a97c32"
      ],
      "collections": [
        "c7db86a0-ff64-4044-9be4-66dd1ef1d1c1"
      ],
      "creators": [
        "802a8ac8-b16f-40a4-944b-99956798c906"
      ],
      "families": [
        "0377db02-3af6-43b8-9b08-c759df3d25c3"
      ],
      "genres": [
        "b84e28f9-db1e-447f-b339-7954c3592523"
      ],
      "groups": [
        "8e209ae4-4381-438f-89dc-1b21752027d2"
      ],
      "langs": [
        "4dcf9614-7914-42aa-99f4-dbce2e059133"
      ],
      "misc": [
        "1d6ceadf-a885-47e5-b23b-c07bf668a424"
      ],
      "origins": [
        "938de218-5343-4865-94d3-fb33f2eaa152"
      ],
      "series": [
        "01026ab0-3629-4833-9db9-bc0ecba554fc"
      ],
      "singers": [
        "0df41f72-5e97-4788-99b7-93fe4b628367",
        "1ab36560-839c-4592-a10f-031039c39161",
        "f7607f83-89e8-44a2-9d9a-ed27e34506c3"
      ],
      "songtypes": [
        "f02ad9b3-0bd9-4aad-85b3-9976739ba0e4"
      ],
      "songwriters": [
        "921a2ca7-bf36-4562-b9bc-a1511fb5dbd2"
      ],
      "franchises": [
        "03af8968-ed66-4903-a6ee-2c0e64623e0f"
      ]
    },
    "titles": {
      "jpn": "ときめきランデヴー",
      "qro": "Tokimeki Rendezvous"
    },
    "titles_default_language": "qro",
    "year": 2022
  }
}