{
  "header": {
    "version": 4,
    "description": "Karaoke Mugen Karaoke Data File"
  },
  "medias": [
    {
      "version": "Default",
      "filename": "JPN - Touhou - AUDIO - GO 4 IT.mp3",
      "audiogain": -9.79,
      "loudnorm": "-6.90,1.88,2.30,-16.97,-0.37",
      "filesize": 5548168,
      "duration": 326,
      "default": true,
      "lyrics": [
        {
          "filename": "JPN - Touhou - AUDIO - GO 4 IT.ass",
          "default": true,
          "version": "Default"
        }
      ]
    }
  ],
  "data": {
    "created_at": "2023-04-30T23:39:44.229Z",
    "ignoreHooks": false,
    "kid": "6b7930b6-96be-42f1-a354-a5807ff2f2b1",
    "modified_at": "2023-04-30T23:40:13.081Z",
    "repository": "kara.moe",
    "tags": {
      "authors": [
        "74cb50bf-9693-47d3-bb83-be171fd9d71f"
      ],
      "collections": [
        "c7db86a0-ff64-4044-9be4-66dd1ef1d1c1"
      ],
      "groups": [
        "ae613721-1fbe-480d-ba6b-d6d0702b184d",
        "df5f446f-d161-4760-8e0c-822e70ea03ae"
      ],
      "langs": [
        "4dcf9614-7914-42aa-99f4-dbce2e059133"
      ],
      "misc": [
        "86705d4b-24e4-4756-9687-2b9c98bcf366"
      ],
      "series": [
        "1bdaa5a1-dfa6-4365-b746-7a0b194dafd6"
      ],
      "singers": [
        "2c425b5f-a30d-40b7-b26d-2f029341f1c9"
      ],
      "singergroups": [
        "d9aaaa69-b89d-4605-93e3-39b5e0a8f99d"
      ],
      "songtypes": [
        "42a262ae-acba-4ab5-a446-c5789c96c821"
      ],
      "songwriters": [
        "0fca8f52-755b-4385-a45c-6fa883996e80",
        "26cb5252-8510-49e0-897c-a611a05fc056",
        "2c425b5f-a30d-40b7-b26d-2f029341f1c9"
      ],
      "franchises": [
        "1bdaa5a1-dfa6-4365-b746-7a0b194dafd6"
      ]
    },
    "titles": {
      "eng": "GO 4 IT"
    },
    "titles_default_language": "eng",
    "titles_aliases": [
      "for"
    ],
    "year": 2015
  }
}