{
  "header": {
    "version": 4,
    "description": "Karaoke Mugen Karaoke Data File"
  },
  "medias": [
    {
      "version": "Default",
      "filename": "JPN - Hypnosis Mic -Division Rap Battle- - MV - Hypnosis Mic -Division Battle Anthem- Plus.mp4",
      "audiogain": -9.93,
      "loudnorm": "-7.06,2.14,2.00,-17.11,-0.32",
      "filesize": 185028176,
      "duration": 424,
      "default": true,
      "lyrics": [
        {
          "filename": "JPN - Hypnosis Mic -Division Rap Battle- - MV - Hypnosis Mic -Division Battle Anthem- Plus.ass",
          "default": true,
          "version": "Default"
        }
      ]
    }
  ],
  "data": {
    "created_at": "2020-03-15T14:40:53.972Z",
    "ignoreHooks": false,
    "kid": "a65fda19-53f0-4ac3-86aa-101947861920",
    "modified_at": "2023-02-02T18:58:59.985Z",
    "repository": "kara.moe",
    "tags": {
      "authors": [
        "2a9bbf75-0722-4b4a-9935-caa92f38fdd1"
      ],
      "collections": [
        "c7db86a0-ff64-4044-9be4-66dd1ef1d1c1"
      ],
      "creators": [
        "57922aa1-eae2-4c1d-946c-bb320505b549",
        "769af53e-df08-4cb5-9cad-7503576dee49",
        "98ab71c6-8066-4d59-84a2-9833a27ec461",
        "d2a29c19-019f-4a3d-86ad-2dae9e41a4b1"
      ],
      "families": [
        "0377db02-3af6-43b8-9b08-c759df3d25c3",
        "5391f9fe-638c-415f-8dc9-958e3a2c5787"
      ],
      "groups": [
        "8e209ae4-4381-438f-89dc-1b21752027d2"
      ],
      "langs": [
        "4dcf9614-7914-42aa-99f4-dbce2e059133"
      ],
      "misc": [
        "86705d4b-24e4-4756-9687-2b9c98bcf366",
        "ec4fee75-71fb-45b4-9772-2ca374b4b600"
      ],
      "series": [
        "8969c1d9-a552-4216-837c-36945e5e730a"
      ],
      "singers": [
        "001574c7-e714-429e-9f67-001d4ddbb080",
        "01c71ea7-b3d5-4ab2-927e-9f56fb3327fd",
        "245206bf-7e1c-4da3-8001-7f7b61aa65ec",
        "28aa4244-7868-43ff-8c35-c67e636e858c",
        "2ebbacb4-48f6-4b38-ab02-24fc5b7ffef8",
        "496d9fd8-7ed9-4c76-9567-332012b1c0ed",
        "67a15f6e-419f-4dae-a239-76648fa39fe5",
        "67b22a49-c3d2-48a9-90e8-4fb2842cfce5",
        "6fc680bc-6637-41af-884c-ec7d86524c41",
        "787d9b3d-2e20-4dca-b83c-6c9c1b9e2202",
        "78be834e-1d7a-4c34-95ae-cd02702bf1fb",
        "9a9da3af-c891-42ae-bd3e-f0696a361c04",
        "9b55465b-ae63-43ae-a2e9-39a86033392d",
        "d3d2814b-b117-43bd-b221-e09926080f54",
        "d72701c8-4aa0-4619-a4ea-aea77d37422c",
        "d7a900d6-65f2-4d9a-a4df-6a5e0f4ecb1e",
        "e3223255-4fea-4159-a18b-c8020079b4d2",
        "e88203e1-642b-4754-85b0-4ba62dc18563",
        "fb311ac5-75b0-4125-88e8-4a4f9ba32556"
      ],
      "singergroups": [
        "3038a30c-d18d-49bb-a54c-fe01c7288689",
        "3e33190c-5796-4b46-ba8f-53162959bb1c",
        "58083e61-6d68-48a8-a5b3-4bbfa418cf81",
        "e92f40ba-fd68-4f04-b44a-c1dced02c6c2"
      ],
      "songtypes": [
        "7be1b15c-cff8-4b37-a649-5c90f3d569a9"
      ],
      "songwriters": [
        "062f3fcb-63b9-4874-bd2a-8bc1c04c4b1a",
        "3c5557fb-c51c-45b5-b25c-52351c44f7e7",
        "df384477-4b4a-4877-979e-72c7f4311187"
      ],
      "franchises": [
        "8969c1d9-a552-4216-837c-36945e5e730a"
      ]
    },
    "titles": {
      "eng": "Hypnosis Mic -Division Battle Anthem-+",
      "jpn": "ヒプノシスマイク -Division Battle Anthem-+"
    },
    "titles_default_language": "eng",
    "year": 2020
  }
}