{
  "header": {
    "version": 4,
    "description": "Karaoke Mugen Karaoke Data File"
  },
  "medias": [
    {
      "version": "Default",
      "filename": "JPN - Kidou Senshi Gundam SEED Destiny - AUDIO OP1 - ignited ~ Full Vers.mp3",
      "loudnorm": "-7.14,1.42,4.10,-17.37,-0.39",
      "filesize": 8165012,
      "duration": 198,
      "default": true,
      "lyrics": [
        {
          "filename": "JPN - Kidou Senshi Gundam SEED Destiny - AUDIO OP1 - ignited ~ Full Vers.ass",
          "default": true,
          "version": "Default"
        }
      ]
    }
  ],
  "data": {
    "created_at": "2023-09-08T15:03:06.786Z",
    "ignoreHooks": false,
    "kid": "a86e2af0-b849-4f30-9d02-5bcd7635b6ea",
    "modified_at": "2023-09-08T15:03:06.960Z",
    "parents": [
      "44c655b3-4233-4144-b2de-a610195d6cd1"
    ],
    "repository": "kara.moe",
    "songorder": 1,
    "tags": {
      "authors": [
        "1db1738f-acdc-42fc-aec3-60f4bddf660d"
      ],
      "collections": [
        "c7db86a0-ff64-4044-9be4-66dd1ef1d1c1"
      ],
      "creators": [
        "221d01d3-cf22-45d6-b187-5e7806dd6d1e"
      ],
      "families": [
        "0377db02-3af6-43b8-9b08-c759df3d25c3"
      ],
      "genres": [
        "f60ba57d-5ef4-49e0-b93b-d0dcbcff6592"
      ],
      "groups": [
        "3c14c864-533c-49e6-a3cc-6969f1233775"
      ],
      "langs": [
        "4dcf9614-7914-42aa-99f4-dbce2e059133"
      ],
      "origins": [
        "938de218-5343-4865-94d3-fb33f2eaa152"
      ],
      "series": [
        "2e3ef498-e3f2-4609-8e34-916fbbf16ecf"
      ],
      "singers": [
        "43ccb9e9-fd05-40a3-8538-73d1959aed9f"
      ],
      "songtypes": [
        "f02ad9b3-0bd9-4aad-85b3-9976739ba0e4",
        "42a262ae-acba-4ab5-a446-c5789c96c821"
      ],
      "songwriters": [
        "51bbb12b-3034-4785-a7c8-0a55db6f0de9",
        "b79f0c92-c2b8-4170-8498-9a5defa67abb"
      ],
      "versions": [
        "c2143a7f-6970-450e-8a79-0302db9220a9"
      ],
      "franchises": [
        "e6ade589-c2e4-49a1-acdb-ea9b03e57240"
      ]
    },
    "titles": {
      "eng": "ignited",
      "jpn": "ignited-イグナイテッド-",
      "qro": "ignited"
    },
    "titles_default_language": "qro",
    "year": 2004
  }
}