{
  "header": {
    "version": 4,
    "description": "Karaoke Mugen Karaoke Data File"
  },
  "medias": [
    {
      "version": "Default",
      "filename": "JPN - Love Live! School Idol Project - LIVE - Snow halation ~ Full Vers.mp4",
      "audiogain": -10.85,
      "loudnorm": "-6.02,5.27,6.20,-16.14,-1.01",
      "filesize": 192321138,
      "duration": 260,
      "default": true,
      "lyrics": [
        {
          "filename": "JPN - Love Live! School Idol Project - LIVE - Snow halation ~ Full Vers.ass",
          "default": true,
          "version": "Default"
        }
      ]
    }
  ],
  "data": {
    "created_at": "2018-06-18T19:40:28.000Z",
    "ignoreHooks": false,
    "kid": "010bfa2e-cc7e-4a4a-b13e-2be66d94bd38",
    "modified_at": "2022-12-22T16:08:49.452Z",
    "parents": [
      "083300f9-75a5-49d8-b579-16171fb558c2"
    ],
    "repository": "kara.moe",
    "tags": {
      "authors": [
        "f1710fab-7461-468f-a8dd-11eebe4e1fc0"
      ],
      "collections": [
        "dbcf2c22-524d-4708-99bb-601703633927"
      ],
      "creators": [
        "b2805292-730e-473a-96f0-fd8e7ffd1fd7"
      ],
      "families": [
        "5391f9fe-638c-415f-8dc9-958e3a2c5787"
      ],
      "genres": [
        "caa86df2-0d59-474b-885c-f240a9e891b0"
      ],
      "groups": [
        "8c22c899-b3ed-42da-a548-ce00f950798b",
        "ae613721-1fbe-480d-ba6b-d6d0702b184d"
      ],
      "langs": [
        "4dcf9614-7914-42aa-99f4-dbce2e059133"
      ],
      "series": [
        "dd93f278-a55d-4040-aaab-d0c50b58b087"
      ],
      "singers": [
        "0218ed43-3fff-4261-9036-5a50a07406d9",
        "1d00d52c-e265-4be6-8902-55d7f425f86c",
        "1d78156e-3eb3-409b-b0e0-82e8ef7efe01",
        "4145e95c-bf18-4574-a027-80d61c2a2610",
        "4fc68333-b1f6-44ce-b2be-ac4866b78932",
        "5c779d94-5ed1-4326-9dee-41b3d9f7331c",
        "7779578c-3d4e-4aa5-8f54-77023879e8e6",
        "a1b1a298-ff71-4cda-a407-f1cbdb4f415d",
        "b051c80e-61d1-4d04-956b-c6e8f84cd828"
      ],
      "singergroups": [
        "fc107f1a-4759-4869-857f-fc1966f345f9"
      ],
      "songtypes": [
        "a0167949-580c-4de3-bf13-497e462e02f3"
      ],
      "songwriters": [
        "1f556f0c-f8a6-43c1-aa60-453b54a074fa",
        "e6861551-530e-4f20-aa42-01006b280e6a",
        "f41e7218-6c19-4e19-9b5f-4612dcd58243"
      ],
      "versions": [
        "c2143a7f-6970-450e-8a79-0302db9220a9"
      ],
      "franchises": [
        "fd5d066e-e85a-4eea-8688-2979a887450a"
      ]
    },
    "titles": {
      "eng": "Snow halation"
    },
    "titles_default_language": "eng",
    "year": 2010
  }
}