{
  "header": {
    "version": 4,
    "description": "Karaoke Mugen Karaoke Data File"
  },
  "medias": [
    {
      "version": "Default",
      "filename": "JPN - Ryza no Atelier Tokoyami no Joou to Himitsu no Kakurega - ED - Arrow.mp4",
      "loudnorm": "-15.03,-5.63,6.30,-25.25,-1.04",
      "filesize": 30001906,
      "duration": 88,
      "default": true,
      "lyrics": [
        {
          "filename": "JPN - Ryza no Atelier Tokoyami no Joou to Himitsu no Kakurega - ED - Arrow.ass",
          "default": true,
          "version": "Default"
        }
      ]
    }
  ],
  "data": {
    "created_at": "2023-08-30T14:24:46.156Z",
    "ignoreHooks": false,
    "kid": "edbb011e-4470-4a0e-b80c-4dfa5e354fdc",
    "modified_at": "2023-08-30T14:24:46.156Z",
    "repository": "kara.moe",
    "tags": {
      "authors": [
        "da677ad5-b5dd-4ab9-a1fe-5461e36338a2"
      ],
      "collections": [
        "c7db86a0-ff64-4044-9be4-66dd1ef1d1c1"
      ],
      "creators": [
        "58186e9d-9478-47dc-8c95-eeea5c0a3317"
      ],
      "families": [
        "0377db02-3af6-43b8-9b08-c759df3d25c3"
      ],
      "groups": [
        "8e209ae4-4381-438f-89dc-1b21752027d2"
      ],
      "langs": [
        "4dcf9614-7914-42aa-99f4-dbce2e059133"
      ],
      "origins": [
        "938de218-5343-4865-94d3-fb33f2eaa152"
      ],
      "series": [
        "d0da3bb9-eea9-4102-a216-4344531c546e"
      ],
      "singers": [
        "f9d28e31-58a2-47de-89cd-656020c20410"
      ],
      "songtypes": [
        "38c77c56-2b95-4040-b676-0994a8cb0597"
      ],
      "songwriters": [
        "a8f862e6-47f5-4d2e-b234-15fb74eb5a98",
        "2601fca0-a4d7-44b1-8958-304d5f551e06"
      ],
      "franchises": [
        "60ce9235-1314-497c-a74e-3f9f4b7b7c24"
      ]
    },
    "titles": {
      "jpn": "アロー",
      "qro": "Arrow"
    },
    "titles_default_language": "qro",
    "year": 2023
  }
}