{
  "header": {
    "version": 4,
    "description": "Karaoke Mugen Karaoke Data File"
  },
  "medias": [
    {
      "version": "Default",
      "filename": "JPN - Togainu no Chi - ED9 - Honed Moon -Togareta Tsuki-.mp4",
      "audiogain": -2.79,
      "loudnorm": "-13.90,-2.33,4.50,-24.06,-0.15",
      "filesize": 25187857,
      "duration": 100,
      "default": true,
      "lyrics": [
        {
          "filename": "JPN - Togainu no Chi - ED9 - Honed Moon -Togareta Tsuki-.ass",
          "default": true,
          "version": "Default",
          "subchecksum": "d96c05216cddcfa1a2ec5bb9dbd8b866"
        }
      ]
    }
  ],
  "data": {
    "created_at": "2020-08-23T11:41:44.511Z",
    "kid": "4928991a-3fac-469c-a3ef-05a178460eb9",
    "modified_at": "2021-02-25T13:24:34.202Z",
    "repository": "kara.moe",
    "songorder": 9,
    "tags": {
      "authors": [
        "8605a8b9-3b45-44b9-9d98-1a25096bf702"
      ],
      "collections": [
        "c7db86a0-ff64-4044-9be4-66dd1ef1d1c1"
      ],
      "creators": [
        "b96e3686-bbe0-4b9e-815a-a278d5ff31be"
      ],
      "families": [
        "0377db02-3af6-43b8-9b08-c759df3d25c3"
      ],
      "groups": [
        "ae613721-1fbe-480d-ba6b-d6d0702b184d"
      ],
      "langs": [
        "4dcf9614-7914-42aa-99f4-dbce2e059133"
      ],
      "origins": [
        "938de218-5343-4865-94d3-fb33f2eaa152"
      ],
      "series": [
        "d2725732-d0b0-43d2-80e3-f040fa13aa45"
      ],
      "singers": [
        "3b97f60d-23e3-4e23-bf7f-9835bba682a7"
      ],
      "songtypes": [
        "38c77c56-2b95-4040-b676-0994a8cb0597"
      ],
      "songwriters": [
        "8b3b3e30-0d28-43e0-90e0-ad0eef33509c",
        "eae43792-43ca-44cd-871b-5d46e5531c45"
      ]
    },
    "title": "Honed Moon -Togareta Tsuki-",
    "titles": {
      "qro": "Honed Moon -Togareta Tsuki-",
      "jpn": "Honed Moon-咎レタ月-"
    },
    "year": 2010,
    "titles_default_language": "qro"
  }
}