{
  "header": {
    "version": 4,
    "description": "Karaoke Mugen Karaoke Data File"
  },
  "medias": [
    {
      "version": "Default",
      "filename": "JPN - Pokemon Special - MV - Acacia.mp4",
      "audiogain": -8.65,
      "loudnorm": "-8.05,0.86,3.50,-18.31,-1.30",
      "filesize": 83071406,
      "duration": 156,
      "default": true,
      "lyrics": [
        {
          "filename": "JPN - Pokemon Special - MV - Acacia.ass",
          "default": true,
          "version": "Default"
        }
      ]
    }
  ],
  "data": {
    "created_at": "2020-09-29T16:43:12.994Z",
    "ignoreHooks": false,
    "kid": "66f3f651-dabc-4351-acb2-def911663d0b",
    "modified_at": "2022-10-15T19:28:37.875Z",
    "repository": "kara.moe",
    "tags": {
      "authors": [
        "06852e02-b77e-4106-b6f7-2d03942ad0ea",
        "5e93f02a-bcd1-40a9-ba7a-91ada6683aea"
      ],
      "collections": [
        "c7db86a0-ff64-4044-9be4-66dd1ef1d1c1"
      ],
      "creators": [
        "57ffcdd9-7e4f-4971-85ce-0fb3aa8151ac",
        "6697d31b-7f60-4d11-b237-8eb72740fd8a"
      ],
      "families": [
        "0377db02-3af6-43b8-9b08-c759df3d25c3"
      ],
      "groups": [
        "8e209ae4-4381-438f-89dc-1b21752027d2"
      ],
      "langs": [
        "4dcf9614-7914-42aa-99f4-dbce2e059133"
      ],
      "series": [
        "687391cf-e257-4693-abe1-48bcf45581b4"
      ],
      "singers": [
        "a027724c-6136-4dc1-b585-7ae8f780c8d2"
      ],
      "songtypes": [
        "7be1b15c-cff8-4b37-a649-5c90f3d569a9"
      ],
      "songwriters": [
        "20a392bf-0517-4d22-a08c-46345d1077fe",
        "2c9e45a6-46a9-4b11-8e16-ad2386fd3e65"
      ],
      "franchises": [
        "c6923c03-f8c0-4258-a478-8dfa08f3ccd0"
      ]
    },
    "titles": {
      "eng": "Acacia",
      "jpn": "アカシア"
    },
    "titles_default_language": "eng",
    "title": "Acacia",
    "year": 2020
  }
}