{
  "header": {
    "version": 4,
    "description": "Karaoke Mugen Karaoke Data File"
  },
  "medias": [
    {
      "version": "Default",
      "filename": "JPN - IA, Miku Hatsune - MV - Ifuudoudou.mp4",
      "audiogain": -11.11,
      "loudnorm": "-5.89,3.29,3.30,-16.03,-0.49",
      "filesize": 16332576,
      "duration": 200,
      "default": true,
      "lyrics": [
        {
          "filename": "JPN - IA, Miku Hatsune - MV - Ifuudoudou.ass",
          "default": true,
          "version": "Default"
        }
      ]
    }
  ],
  "data": {
    "created_at": "2020-08-15T23:28:25.828Z",
    "ignoreHooks": false,
    "kid": "bea60112-ddb2-46d9-8bba-d4eb547278b9",
    "modified_at": "2022-07-02T19:43:42.387Z",
    "repository": "kara.moe",
    "tags": {
      "authors": [
        "4d71ce82-eed1-4c44-ac85-5f7255f3dad3"
      ],
      "collections": [
        "c7db86a0-ff64-4044-9be4-66dd1ef1d1c1"
      ],
      "creators": [
        "3ebb1fa8-3175-4ce7-8078-5239177cd814"
      ],
      "families": [
        "0377db02-3af6-43b8-9b08-c759df3d25c3"
      ],
      "genres": [
        "45623cae-6d68-4304-a49b-896d1d6f4580"
      ],
      "groups": [
        "ae613721-1fbe-480d-ba6b-d6d0702b184d"
      ],
      "langs": [
        "4dcf9614-7914-42aa-99f4-dbce2e059133"
      ],
      "singers": [
        "4407ba0e-5de7-4add-870f-7ac95a4804c9",
        "65ec4b1d-fe71-43f7-959b-65586cf634a9",
        "79f710d5-270e-4b17-957e-037ff0eae3fe",
        "dafdeefa-0a96-44df-9653-aeb88c400e33",
        "dbb8d613-a120-46c7-bb42-bc6c1efb61f7"
      ],
      "songtypes": [
        "7be1b15c-cff8-4b37-a649-5c90f3d569a9"
      ],
      "songwriters": [
        "3c2f8246-6750-4231-b38c-a61902f16aac"
      ]
    },
    "titles": {
      "qro": "Ifûdôdô",
      "jpn": "威風堂々"
    },
    "titles_default_language": "qro",
    "titles_aliases": [
      "ifuudoudou",
      "Ifuudoudô"
    ],
    "title": "Ifûdôdô",
    "year": 2012
  }
}