{
  "header": {
    "version": 4,
    "description": "Karaoke Mugen Karaoke Data File"
  },
  "medias": [
    {
      "version": "Default",
      "filename": "JPN - Juusenki Heavy Metal L Gaim - ED - Starlight Shower.mp4",
      "audiogain": 4.16,
      "loudnorm": "-22.67,-9.54,10.50,-33.38,-1.66",
      "filesize": 46108246,
      "duration": 60,
      "default": true,
      "lyrics": [
        {
          "filename": "JPN - Juusenki Heavy Metal L Gaim - ED - Starlight Shower.ass",
          "default": true,
          "version": "Default",
          "subchecksum": "e835a8c22ba8449071d3117abefbdb27"
        }
      ]
    }
  ],
  "data": {
    "created_at": "2017-10-11T15:02:36.000Z",
    "kid": "a80c8216-b2b5-415d-b539-3def1c4d53d4",
    "modified_at": "2021-02-25T11:50:23.510Z",
    "repository": "kara.moe",
    "tags": {
      "authors": [
        "4607780c-f1ef-47cf-9c1c-b13e8f731699"
      ],
      "collections": [
        "c7db86a0-ff64-4044-9be4-66dd1ef1d1c1"
      ],
      "creators": [
        "ef8f80e1-d244-4aea-b7f0-984d6dd4b82b"
      ],
      "families": [
        "0377db02-3af6-43b8-9b08-c759df3d25c3"
      ],
      "genres": [
        "f60ba57d-5ef4-49e0-b93b-d0dcbcff6592"
      ],
      "groups": [
        "7792cc27-9ff9-4d47-9287-2338b7db1575"
      ],
      "langs": [
        "4dcf9614-7914-42aa-99f4-dbce2e059133"
      ],
      "origins": [
        "938de218-5343-4865-94d3-fb33f2eaa152"
      ],
      "series": [
        "4ac7ac80-15f9-4beb-8812-cc7e2acc68e4"
      ],
      "singers": [
        "cf75c4a2-d89d-4233-80ed-4f5e2a1f31d0"
      ],
      "songtypes": [
        "38c77c56-2b95-4040-b676-0994a8cb0597"
      ],
      "songwriters": [
        "38e17194-fe7b-48e3-8f52-0ac018250a1b",
        "a87d9f5c-27d7-44a2-82fe-8623aef82779"
      ]
    },
    "title": "Starlight Shower",
    "titles": {
      "eng": "Starlight Shower",
      "jpn": "スターライト・シャワー"
    },
    "year": 1984,
    "titles_default_language": "eng"
  }
}