{
  "header": {
    "version": 4,
    "description": "Karaoke Mugen Karaoke Data File"
  },
  "medias": [
    {
      "version": "Default",
      "filename": "JPN - K Seven Stories SIDE GREEN ~Uwagaki Sekai~ - MOVIE OP - SURVIVE!.mp4",
      "loudnorm": "-17.25,-4.45,6.10,-27.34,-0.87",
      "filesize": 20384978,
      "duration": 90,
      "default": true,
      "lyrics": [
        {
          "filename": "JPN - K Seven Stories SIDE GREEN ~Uwagaki Sekai~ - MOVIE OP - SURVIVE!.ass",
          "default": true,
          "version": "Default"
        }
      ]
    }
  ],
  "data": {
    "created_at": "2023-09-16T22:06:35.140Z",
    "ignoreHooks": false,
    "kid": "88025403-499a-4699-b60a-1f204786ad20",
    "modified_at": "2023-09-16T22:07:07.375Z",
    "repository": "kara.moe",
    "tags": {
      "authors": [
        "2a9bbf75-0722-4b4a-9935-caa92f38fdd1"
      ],
      "collections": [
        "c7db86a0-ff64-4044-9be4-66dd1ef1d1c1"
      ],
      "creators": [
        "c77da89b-5c99-43fa-a70d-bd25925074f6"
      ],
      "families": [
        "0377db02-3af6-43b8-9b08-c759df3d25c3"
      ],
      "groups": [
        "ae613721-1fbe-480d-ba6b-d6d0702b184d"
      ],
      "langs": [
        "4dcf9614-7914-42aa-99f4-dbce2e059133"
      ],
      "origins": [
        "c8ca9dea-d8b4-48fe-8427-d911653232e9"
      ],
      "series": [
        "e2e5c4b4-f493-425e-be27-9d3f0b5cd7f9"
      ],
      "singers": [
        "78d91182-ac66-49fb-9561-1d330667d6c4"
      ],
      "songtypes": [
        "f02ad9b3-0bd9-4aad-85b3-9976739ba0e4"
      ],
      "songwriters": [
        "0b54e69d-4691-4415-be0e-0dd6fd5d4e1a",
        "84a20b00-fd06-43fd-b78e-9c1a2b7b7795"
      ],
      "franchises": [
        "91ed54e0-cff6-45f0-bd09-54eaffcab86a"
      ]
    },
    "titles": {
      "eng": "SURVIVE!"
    },
    "titles_default_language": "eng",
    "year": 2018
  }
}