{
  "header": {
    "version": 4,
    "description": "Karaoke Mugen Karaoke Data File"
  },
  "medias": [
    {
      "version": "Default",
      "filename": "JPN - Baki (2020) - OP - Jounetsu wa oboeteiru.mp4",
      "audiogain": 6.75,
      "loudnorm": "-24.14,-15.31,5.10,-34.28,-1.87",
      "filesize": 35115358,
      "duration": 90,
      "default": true,
      "lyrics": [
        {
          "filename": "JPN - Baki (2020) - OP - Jounetsu wa oboeteiru.ass",
          "default": true,
          "version": "Default",
          "subchecksum": "a6287f4c82346491ea42aa8f5b3b745d"
        }
      ]
    }
  ],
  "data": {
    "created_at": "2020-07-25T10:13:19.199Z",
    "kid": "696e9a74-a761-4de9-9914-71594f0f092b",
    "modified_at": "2021-02-25T10:49:32.442Z",
    "repository": "kara.moe",
    "tags": {
      "authors": [
        "06852e02-b77e-4106-b6f7-2d03942ad0ea"
      ],
      "collections": [
        "c7db86a0-ff64-4044-9be4-66dd1ef1d1c1"
      ],
      "creators": [
        "53e900ec-a1ff-4c95-8b2d-a63995c2936f"
      ],
      "families": [
        "0377db02-3af6-43b8-9b08-c759df3d25c3"
      ],
      "genres": [
        "a0aeef4a-6428-45ff-a6e1-468b595930c2"
      ],
      "groups": [
        "8e209ae4-4381-438f-89dc-1b21752027d2"
      ],
      "langs": [
        "4dcf9614-7914-42aa-99f4-dbce2e059133"
      ],
      "misc": [
        "fe819ff1-9db8-4a0f-85dc-0e322c9126c4"
      ],
      "series": [
        "a501a661-ee11-4472-8531-9581907a6980"
      ],
      "singers": [
        "213ca674-9084-40ad-a7a8-c84d8108fce9"
      ],
      "songtypes": [
        "f02ad9b3-0bd9-4aad-85b3-9976739ba0e4"
      ],
      "songwriters": [
        "8e1f109c-a1d4-40d6-9a55-32abdb12993c",
        "b26b49e2-d439-48b3-8c0f-c7c25648c48a"
      ],
      "franchises": [
        "1a5e3216-f8a0-4314-9153-d230a7e6507c"
      ]
    },
    "title": "Jounetsu wa oboeteiru",
    "titles": {
      "qro": "Jounetsu wa Oboeteiru",
      "jpn": "情熱は覚えている"
    },
    "year": 2020,
    "titles_default_language": "qro"
  }
}