{
  "header": {
    "version": 4,
    "description": "Karaoke Mugen Karaoke Data File"
  },
  "medias": [
    {
      "version": "Default",
      "filename": "JPN - Love Live! Nijigasaki Gakuen School Idol Doukoukai 2 - LIVE - Yume ga Bokura no Taiyou sa ~ Full Vers.mp4",
      "loudnorm": "-6.42,1.50,2.20,-16.46,-0.36",
      "filesize": 281255886,
      "duration": 266,
      "default": true,
      "lyrics": [
        {
          "filename": "JPN - Love Live! Nijigasaki Gakuen School Idol Doukoukai 2 - LIVE - Yume ga Bokura no Taiyou sa ~ Full Vers.ass",
          "default": true,
          "version": "Default"
        }
      ]
    }
  ],
  "data": {
    "created_at": "2023-09-28T14:34:36.606Z",
    "ignoreHooks": false,
    "kid": "29d80b14-c6fe-4916-b4be-360d88d5c5c9",
    "modified_at": "2023-09-28T14:34:36.606Z",
    "parents": [
      "c71e931a-ea9e-4b99-8f28-99b97a62964f"
    ],
    "repository": "kara.moe",
    "tags": {
      "authors": [
        "16b136eb-921f-4c07-be38-ff92d5cc4313"
      ],
      "collections": [
        "dbcf2c22-524d-4708-99bb-601703633927"
      ],
      "creators": [
        "b2805292-730e-473a-96f0-fd8e7ffd1fd7"
      ],
      "families": [
        "5391f9fe-638c-415f-8dc9-958e3a2c5787"
      ],
      "genres": [
        "caa86df2-0d59-474b-885c-f240a9e891b0"
      ],
      "groups": [
        "8e209ae4-4381-438f-89dc-1b21752027d2"
      ],
      "langs": [
        "4dcf9614-7914-42aa-99f4-dbce2e059133"
      ],
      "misc": [
        "1d6ceadf-a885-47e5-b23b-c07bf668a424"
      ],
      "series": [
        "e3d58b47-ef1a-48ec-91ec-84afa663ab26"
      ],
      "singers": [
        "0c15c047-8230-45ba-a265-1297a3617158",
        "0df41f72-5e97-4788-99b7-93fe4b628367",
        "178c3a64-efbc-48d4-a7d3-1847414eebc1",
        "1fd01df9-13c6-4442-a8c9-4d7922152b32",
        "458ec0c5-db5e-4103-af88-b15a1699264d",
        "5c5a517e-2aec-467f-b21c-3b8e73e02cb8",
        "747cd011-3914-4212-9079-0da3dd845831",
        "8f4dc795-4e05-4e8f-a5fc-61e45e229402",
        "8fb3d553-3283-4508-bc26-5968c03cb89a",
        "a76efdf9-3d65-488d-bc3b-9ab329d3fb7f",
        "cd997481-e2ff-4d88-ab77-152bedb5041a",
        "e73e8731-3f33-4d6a-b8f1-d2a6137480be"
      ],
      "singergroups": [
        "425f6083-f574-451a-b719-1257f1d38957"
      ],
      "songtypes": [
        "a0167949-580c-4de3-bf13-497e462e02f3"
      ],
      "songwriters": [
        "c461caa6-f236-4e9d-89b9-359c644fddd5",
        "f41e7218-6c19-4e19-9b5f-4612dcd58243"
      ],
      "versions": [
        "c2143a7f-6970-450e-8a79-0302db9220a9"
      ],
      "franchises": [
        "fd5d066e-e85a-4eea-8688-2979a887450a"
      ]
    },
    "titles": {
      "jpn": "夢が僕らの太陽さ",
      "qro": "Yume ga Bokura no Taiyou sa"
    },
    "titles_default_language": "qro",
    "year": 2022
  }
}