{
  "header": {
    "version": 4,
    "description": "Karaoke Mugen Karaoke Data File"
  },
  "medias": [
    {
      "lyrics": [
        {
          "default": true,
          "version": "Default",
          "filename": "JPN - Domestic na Kanojo - OP - Kawaki wo Ameku.ass"
        }
      ],
      "default": true,
      "version": "Default",
      "duration": 92,
      "filename": "JPN - Domestic na Kanojo - OP - Kawaki wo Ameku.mp4",
      "filesize": 20791344,
      "loudnorm": "-19.94,-10.91,12.10,-30.31,-1.77",
      "audiogain": 2.3
    }
  ],
  "data": {
    "kid": "0e28276a-1b44-4ae2-ada4-65818ed93160",
    "tags": {
      "authors": [
        "5a629611-96b4-422c-b309-ba7a58e263a2"
      ],
      "collections": [
        "c7db86a0-ff64-4044-9be4-66dd1ef1d1c1"
      ],
      "creators": [
        "e9bbc92f-b99d-45d4-869c-39b36d70382e"
      ],
      "families": [
        "0377db02-3af6-43b8-9b08-c759df3d25c3"
      ],
      "groups": [
        "9a8e0fbc-dcae-4989-be82-7cad3436f1f5",
        "ae613721-1fbe-480d-ba6b-d6d0702b184d"
      ],
      "langs": [
        "4dcf9614-7914-42aa-99f4-dbce2e059133"
      ],
      "misc": [
        "fe819ff1-9db8-4a0f-85dc-0e322c9126c4"
      ],
      "origins": [
        "938de218-5343-4865-94d3-fb33f2eaa152"
      ],
      "series": [
        "6e7fe577-d2ca-45a4-9d24-e3c895b317ff"
      ],
      "singers": [
        "bbcb98c4-2b9d-4796-9ec7-e621d8ce56e7"
      ],
      "songtypes": [
        "f02ad9b3-0bd9-4aad-85b3-9976739ba0e4"
      ],
      "songwriters": [
        "baba293c-370c-4d88-84d6-6e7c92d3323f",
        "bbcb98c4-2b9d-4796-9ec7-e621d8ce56e7"
      ]
    },
    "year": 2019,
    "title": "Kawaki wo Ameku",
    "titles": {
      "qro": "Kawaki wo Ameku",
      "jpn": "カワキヲアメク"
    },
    "comment": "Remplacement de la vidéo par une version creditless. UniversJB",
    "created_at": "2019-03-24T01:21:07.000Z",
    "repository": "kara.moe",
    "modified_at": "2021-11-28T20:23:36.949Z",
    "titles_default_language": "qro"
  }
}