{
  "header": {
    "version": 4,
    "description": "Karaoke Mugen Karaoke Data File"
  },
  "medias": [
    {
      "version": "Kamishiro Rui.",
      "filename": "JPN - Project SEKAI COLORFUL STAGE! - GAME AUDIO - Nonsense Bungaku ~ Kamishiro Rui Vers. ~ Cover Short Vers.mp3",
      "loudnorm": "-9.21,1.54,3.40,-19.25,-0.62",
      "filesize": 2281394,
      "duration": 131,
      "default": true,
      "lyrics": [
        {
          "filename": "JPN - Project SEKAI COLORFUL STAGE! - GAME AUDIO - Nonsense Bungaku ~ Kamishiro Rui Vers. ~ Cover Short Vers.ass",
          "default": true,
          "version": "Default"
        }
      ]
    }
  ],
  "data": {
    "created_at": "2023-05-01T09:24:32.249Z",
    "ignoreHooks": false,
    "kid": "86eb0357-be41-48b0-b7c9-448fe9b7edbe",
    "modified_at": "2023-08-30T21:31:57.447Z",
    "parents": [
      "0832984e-e647-43a6-9832-5c65f8842202"
    ],
    "repository": "kara.moe",
    "tags": {
      "authors": [
        "a3a99b23-6c42-4d38-8863-491153187437"
      ],
      "collections": [
        "c7db86a0-ff64-4044-9be4-66dd1ef1d1c1"
      ],
      "creators": [
        "1e5648fb-22fc-474d-b865-254eb31fa000"
      ],
      "genres": [
        "45623cae-6d68-4304-a49b-896d1d6f4580"
      ],
      "groups": [
        "8e209ae4-4381-438f-89dc-1b21752027d2"
      ],
      "langs": [
        "4dcf9614-7914-42aa-99f4-dbce2e059133"
      ],
      "misc": [
        "ec4fee75-71fb-45b4-9772-2ca374b4b600"
      ],
      "origins": [
        "dbedd6b3-d125-4cd8-aa32-c4175e4ca3a3"
      ],
      "platforms": [
        "213a1a15-e73a-4a08-b3f6-b6e2745a82e5"
      ],
      "series": [
        "192b33fb-638a-4680-bdb2-a5adb9889849"
      ],
      "singers": [
        "48dc9597-7cd1-482f-8dc0-3e7c72f4b7c3"
      ],
      "songtypes": [
        "42a262ae-acba-4ab5-a446-c5789c96c821"
      ],
      "songwriters": [
        "a84f6a9f-4785-48bb-9f07-fdede3de7cae"
      ],
      "versions": [
        "03e1e1d2-8641-47b7-bbcb-39a3df9ff21c",
        "d125c80a-86c1-4321-88e9-07b7800679b6"
      ]
    },
    "titles": {
      "eng": "Literary Nonsense ~ Kamishiro Rui Vers.",
      "jpn": "ナンセンス文学 ~ Kamishiro Rui Vers.",
      "qro": "Nonsense Bungaku ~ Kamishiro Rui Vers."
    },
    "titles_default_language": "qro",
    "year": 2022
  }
}