{
  "header": {
    "version": 4,
    "description": "Karaoke Mugen Karaoke Data File"
  },
  "medias": [
    {
      "version": "Default",
      "filename": "JPN - Touhou - MV - Shingeki Resurrection.mp4",
      "audiogain": -11.63,
      "loudnorm": "-5.73,2.32,4.90,-15.84,-0.48",
      "filesize": 9475687,
      "duration": 101,
      "default": true,
      "lyrics": [
        {
          "filename": "JPN - Touhou - MV - Shingeki Resurrection.ass",
          "default": true,
          "version": "Default"
        }
      ]
    }
  ],
  "data": {
    "created_at": "2023-06-19T16:28:04.013Z",
    "ignoreHooks": false,
    "kid": "44434a4d-33f7-4eda-bd69-825735d38dbc",
    "modified_at": "2023-06-19T16:30:40.912Z",
    "repository": "kara.moe",
    "tags": {
      "authors": [
        "1fbfef73-6731-40df-ba51-65a54b9d1605"
      ],
      "collections": [
        "c7db86a0-ff64-4044-9be4-66dd1ef1d1c1"
      ],
      "creators": [
        "25fc251a-0514-4bf5-a818-dd0547723f4a"
      ],
      "families": [
        "0377db02-3af6-43b8-9b08-c759df3d25c3"
      ],
      "groups": [
        "ae613721-1fbe-480d-ba6b-d6d0702b184d"
      ],
      "langs": [
        "4dcf9614-7914-42aa-99f4-dbce2e059133"
      ],
      "origins": [
        "ac5085db-52d8-44b4-8fbb-1697b24d2046"
      ],
      "series": [
        "1bdaa5a1-dfa6-4365-b746-7a0b194dafd6"
      ],
      "singers": [
        "65860881-335a-4551-8df8-fa56ee102579"
      ],
      "songtypes": [
        "7be1b15c-cff8-4b37-a649-5c90f3d569a9"
      ],
      "songwriters": [
        "0b4707c5-9b13-470b-9f73-8fa3a118d7a3",
        "1dae52a9-d1e0-447b-8dd3-cfd10119a3a8",
        "26cb5252-8510-49e0-897c-a611a05fc056",
        "bbcb98c4-2b9d-4796-9ec7-e621d8ce56e7"
      ],
      "franchises": [
        "1bdaa5a1-dfa6-4365-b746-7a0b194dafd6"
      ]
    },
    "titles": {
      "jpn": "信撃リザレクション",
      "qro": "Shingeki Resurrection"
    },
    "titles_default_language": "qro",
    "year": 2010
  }
}