{
  "header": {
    "version": 4,
    "description": "Karaoke Mugen Karaoke Data File"
  },
  "medias": [
    {
      "version": "Default",
      "filename": "JPN - TWICE - MV - Candy Pop.mp4",
      "audiogain": -0.42,
      "loudnorm": "-17.22,-3.16,13.00,-27.83,0.00",
      "filesize": 80606017,
      "duration": 264,
      "default": true,
      "lyrics": [
        {
          "filename": "JPN - TWICE - MV - Candy Pop.ass",
          "default": true,
          "version": "Default"
        }
      ]
    }
  ],
  "data": {
    "created_at": "2022-04-19T20:29:09.681Z",
    "kid": "4cfebb7e-77a0-4d05-b205-7f99682a0e29",
    "modified_at": "2022-05-26T16:18:25.050Z",
    "repository": "kara.moe",
    "songorder": null,
    "tags": {
      "authors": [
        "dd4f1279-de1b-4d06-b80d-29c4878bfd8e"
      ],
      "creators": [
        "424f77b6-39e2-48a2-8135-295a801bacab"
      ],
      "families": [
        "0377db02-3af6-43b8-9b08-c759df3d25c3",
        "5391f9fe-638c-415f-8dc9-958e3a2c5787"
      ],
      "groups": [
        "8c22c899-b3ed-42da-a548-ce00f950798b",
        "ae613721-1fbe-480d-ba6b-d6d0702b184d"
      ],
      "langs": [
        "4dcf9614-7914-42aa-99f4-dbce2e059133"
      ],
      "singers": [
        "fe421082-61b7-4758-bcf2-71b03dd52a1d"
      ],
      "songtypes": [
        "7be1b15c-cff8-4b37-a649-5c90f3d569a9"
      ],
      "songwriters": [
        "3a39c80d-922e-45e8-9c3f-0acb8622bb9f",
        "9e7fe0d9-67d8-42aa-922c-48f2186483be"
      ],
      "collections": [
        "dbcf2c22-524d-4708-99bb-601703633927"
      ]
    },
    "titles": {
      "eng": "Candy Pop"
    },
    "titles_default_language": "eng",
    "title": "Candy Pop",
    "year": 2018
  }
}