{
  "header": {
    "version": 4,
    "description": "Karaoke Mugen Karaoke Data File"
  },
  "medias": [
    {
      "version": "Default",
      "filename": "JPN - Link! Like! Love Live! - AUDIO - Bokura no LIVE Kimi to no LIFE ~ Cover Short Vers.mp3",
      "loudnorm": "-9.20,1.13,3.10,-19.40,-0.64",
      "filesize": 6064132,
      "duration": 143,
      "default": true,
      "lyrics": [
        {
          "filename": "JPN - Link! Like! Love Live! - AUDIO - Bokura no LIVE Kimi to no LIFE ~ Cover Short Vers.ass",
          "default": true,
          "version": "Default"
        }
      ]
    }
  ],
  "data": {
    "created_at": "2023-09-23T22:30:23.746Z",
    "ignoreHooks": false,
    "kid": "5e1032a5-a471-468c-9ae2-1243db8be617",
    "modified_at": "2023-09-23T22:30:23.746Z",
    "parents": [
      "10fda7d6-cf45-47e4-beaf-44cf43719a94"
    ],
    "repository": "kara.moe",
    "tags": {
      "authors": [
        "16b136eb-921f-4c07-be38-ff92d5cc4313"
      ],
      "collections": [
        "dbcf2c22-524d-4708-99bb-601703633927"
      ],
      "creators": [
        "b2805292-730e-473a-96f0-fd8e7ffd1fd7"
      ],
      "genres": [
        "caa86df2-0d59-474b-885c-f240a9e891b0"
      ],
      "groups": [
        "8e209ae4-4381-438f-89dc-1b21752027d2"
      ],
      "langs": [
        "4dcf9614-7914-42aa-99f4-dbce2e059133"
      ],
      "misc": [
        "1d6ceadf-a885-47e5-b23b-c07bf668a424"
      ],
      "series": [
        "c6245b47-6ad8-498a-b790-e6b8a50fea5e"
      ],
      "singers": [
        "1a912ff3-ff2f-4e8a-92de-d2adbb19d0b3",
        "1f0b407a-7bf9-457c-aabf-7d7297c75be2",
        "f5569c82-f01f-4cdb-b1c2-a0db10706211",
        "4e39a0e7-c012-4be9-a2c9-f09cf8d3a31b",
        "17818c7e-96d1-49fa-963d-10736db97eaf",
        "e3d01809-fae7-4e97-bff3-73e4fc204ef3"
      ],
      "singergroups": [
        "dac54d91-1b9b-4d49-843a-122b083d310d"
      ],
      "songtypes": [
        "42a262ae-acba-4ab5-a446-c5789c96c821"
      ],
      "songwriters": [
        "1f556f0c-f8a6-43c1-aa60-453b54a074fa",
        "95f2365a-8fbb-4fa9-a920-bba23c20f93b",
        "f41e7218-6c19-4e19-9b5f-4612dcd58243"
      ],
      "versions": [
        "03e1e1d2-8641-47b7-bbcb-39a3df9ff21c",
        "d125c80a-86c1-4321-88e9-07b7800679b6"
      ],
      "franchises": [
        "fd5d066e-e85a-4eea-8688-2979a887450a"
      ]
    },
    "titles": {
      "jpn": "僕らのLIVE 君とのLIFE",
      "qro": "Bokura no LIVE Kimi to no LIFE"
    },
    "titles_default_language": "qro",
    "year": 2023
  }
}