{
  "header": {
    "version": 4,
    "description": "Karaoke Mugen Karaoke Data File"
  },
  "medias": [
    {
      "version": "Default",
      "filename": "JPN - Touhou - MV - Hide and Seek.mp4",
      "audiogain": -2.62,
      "loudnorm": "-14.82,-6.46,6.10,-24.99,-0.74",
      "filesize": 31052694,
      "duration": 197,
      "default": true,
      "lyrics": [
        {
          "filename": "JPN - Touhou - MV - Hide and Seek.ass",
          "default": true,
          "version": "Default"
        }
      ]
    }
  ],
  "data": {
    "created_at": "2023-07-09T00:39:55.646Z",
    "ignoreHooks": false,
    "kid": "4fda4be7-3325-4c9c-8d48-46bbb3103d51",
    "modified_at": "2023-07-09T00:39:55.882Z",
    "repository": "kara.moe",
    "tags": {
      "authors": [
        "1fbfef73-6731-40df-ba51-65a54b9d1605"
      ],
      "collections": [
        "c7db86a0-ff64-4044-9be4-66dd1ef1d1c1"
      ],
      "creators": [
        "358558ee-7a4f-48df-9b0a-5987c4be3191"
      ],
      "families": [
        "0377db02-3af6-43b8-9b08-c759df3d25c3"
      ],
      "groups": [
        "ae613721-1fbe-480d-ba6b-d6d0702b184d"
      ],
      "langs": [
        "4dcf9614-7914-42aa-99f4-dbce2e059133"
      ],
      "origins": [
        "ac5085db-52d8-44b4-8fbb-1697b24d2046"
      ],
      "series": [
        "1bdaa5a1-dfa6-4365-b746-7a0b194dafd6"
      ],
      "singers": [
        "076b21f0-5393-4d85-9975-8cf31278606f",
        "8ddbd9ac-6f36-4a1a-8953-cefbe0eef8a7",
        "5902bc4a-30b0-413e-9f23-e5866a2d709c"
      ],
      "songtypes": [
        "7be1b15c-cff8-4b37-a649-5c90f3d569a9"
      ],
      "songwriters": [
        "c4896271-4c7f-4ca4-b4ec-967f4c1fffb5"
      ],
      "franchises": [
        "1bdaa5a1-dfa6-4365-b746-7a0b194dafd6"
      ]
    },
    "titles": {
      "jpn": "かくれんぼ",
      "qro": "Kakurenbo",
      "eng": "Hide and Seek"
    },
    "titles_default_language": "eng",
    "year": 2011
  }
}