{
  "header": {
    "version": 4,
    "description": "Karaoke Mugen Karaoke Data File"
  },
  "medias": [
    {
      "version": "Default",
      "filename": "JPN - Chogakusei - MV - Unknown Mother-Goose ~ Cover Vers.mp4",
      "audiogain": -7.37,
      "loudnorm": "-9.09,0.14,3.80,-19.29,-0.10",
      "filesize": 25796326,
      "duration": 290,
      "default": true,
      "lyrics": [
        {
          "filename": "JPN - Chogakusei - MV - Unknown Mother-Goose ~ Cover Vers.ass",
          "default": true,
          "version": "Default"
        }
      ]
    }
  ],
  "data": {
    "created_at": "2022-04-18T18:56:57.870Z",
    "ignoreHooks": false,
    "kid": "98ee25bb-5dd2-4e26-b2c0-1a9ff6392062",
    "modified_at": "2022-06-04T14:14:13.087Z",
    "parents": [
      "caf75f7d-74cf-4d90-a195-3ff5c0b93ed7"
    ],
    "repository": "kara.moe",
    "tags": {
      "authors": [
        "10891649-d475-46eb-b515-8eb3c1e14622"
      ],
      "collections": [
        "c7db86a0-ff64-4044-9be4-66dd1ef1d1c1"
      ],
      "creators": [
        "0320ebd0-877c-4777-ac7e-8b6acfdb1f03",
        "b08f2c69-8493-4187-a86d-495b91f1a6a5"
      ],
      "families": [
        "5391f9fe-638c-415f-8dc9-958e3a2c5787"
      ],
      "genres": [
        "45623cae-6d68-4304-a49b-896d1d6f4580"
      ],
      "groups": [
        "8e209ae4-4381-438f-89dc-1b21752027d2"
      ],
      "langs": [
        "4dcf9614-7914-42aa-99f4-dbce2e059133"
      ],
      "misc": [
        "ec4fee75-71fb-45b4-9772-2ca374b4b600"
      ],
      "singers": [
        "0320ebd0-877c-4777-ac7e-8b6acfdb1f03"
      ],
      "songtypes": [
        "7be1b15c-cff8-4b37-a649-5c90f3d569a9"
      ],
      "songwriters": [
        "26f212a2-3dcc-40f0-8b0e-0e65b6bdb80e",
        "3d9cfa91-782e-450f-99d1-911f51560af7",
        "a1fa74a3-4185-4faf-aae6-d1b9f07784f0",
        "aa4108b3-914c-4ad6-8c72-2d13457e3ed3",
        "b08f2c69-8493-4187-a86d-495b91f1a6a5"
      ],
      "versions": [
        "03e1e1d2-8641-47b7-bbcb-39a3df9ff21c"
      ]
    },
    "titles": {
      "eng": "Unknown Mother-Goose",
      "jpn": "アンノウンマザーグース"
    },
    "titles_default_language": "eng",
    "title": "Unknown Mother-Goose",
    "year": 2022
  }
}