{
  "header": {
    "version": 4,
    "description": "Karaoke Mugen Karaoke Data File"
  },
  "medias": [
    {
      "version": "Default",
      "filename": "JPN - Love Live! Superstar!! - LIVE - Starlight Prologue ~ Full Vers.mp4",
      "loudnorm": "-10.91,0.24,5.90,-21.21,-0.36",
      "filesize": 110838337,
      "duration": 254,
      "default": true,
      "lyrics": [
        {
          "filename": "JPN - Love Live! Superstar!! - LIVE - Starlight Prologue ~ Full Vers.ass",
          "default": true,
          "version": "Default"
        }
      ]
    }
  ],
  "data": {
    "created_at": "2023-09-27T21:42:32.826Z",
    "ignoreHooks": false,
    "kid": "2a946c1b-7ba2-4d1f-a079-48bd0cc09419",
    "modified_at": "2023-09-27T21:42:32.826Z",
    "parents": [
      "ca85521d-3174-4a4a-9e2d-2624a8c473ea"
    ],
    "repository": "kara.moe",
    "tags": {
      "authors": [
        "c55f1e53-0ceb-4375-8df4-56a70f2bb916"
      ],
      "collections": [
        "dbcf2c22-524d-4708-99bb-601703633927"
      ],
      "creators": [
        "b2805292-730e-473a-96f0-fd8e7ffd1fd7"
      ],
      "families": [
        "5391f9fe-638c-415f-8dc9-958e3a2c5787"
      ],
      "genres": [
        "caa86df2-0d59-474b-885c-f240a9e891b0"
      ],
      "groups": [
        "8e209ae4-4381-438f-89dc-1b21752027d2"
      ],
      "langs": [
        "4dcf9614-7914-42aa-99f4-dbce2e059133"
      ],
      "origins": [
        "938de218-5343-4865-94d3-fb33f2eaa152"
      ],
      "series": [
        "ed46191b-997b-4c2d-8088-bb30a5e6d4ca"
      ],
      "singers": [
        "4a1c9511-daa2-4172-9367-5afb3312234e",
        "4e66c19f-a55a-4be7-a948-4eb45796b71f",
        "8a484e8b-1945-416f-b778-97a887ff24eb",
        "8b1d7f16-0b3e-4c63-82c1-bd60518b86a8",
        "c1fd3a67-0c3b-4d95-9cd8-f6aa2c8cc5a8"
      ],
      "singergroups": [
        "f3e5b1d3-30b1-4548-95c8-6cf77216bdbd"
      ],
      "songtypes": [
        "a0167949-580c-4de3-bf13-497e462e02f3"
      ],
      "songwriters": [
        "f77f4be8-1af3-4bab-9411-759dbd5bb583",
        "ff7e2e4c-6687-4c0b-a48f-2541871df77e",
        "2c387c24-2728-4d5a-9d07-0b1af6467cd0"
      ],
      "versions": [
        "c2143a7f-6970-450e-8a79-0302db9220a9"
      ],
      "franchises": [
        "fd5d066e-e85a-4eea-8688-2979a887450a"
      ]
    },
    "titles": {
      "eng": "Starlight Prologue"
    },
    "titles_default_language": "eng",
    "year": 2021
  }
}