{
  "header": {
    "version": 4,
    "description": "Karaoke Mugen Karaoke Data File"
  },
  "medias": [
    {
      "version": "Default",
      "filename": "JPN - Touhou - AUDIO - Yozakura kaidou.mp3",
      "loudnorm": "-8.96,1.26,3.20,-19.04,-0.43",
      "filesize": 11841726,
      "duration": 290,
      "default": true,
      "lyrics": [
        {
          "filename": "JPN - Touhou - AUDIO - Yozakura kaidou.ass",
          "default": true,
          "version": "Default"
        }
      ]
    }
  ],
  "data": {
    "created_at": "2023-09-28T20:18:48.281Z",
    "ignoreHooks": false,
    "kid": "9968e124-4d7c-45e7-a746-f42074f9914b",
    "modified_at": "2023-09-28T20:19:55.492Z",
    "repository": "kara.moe",
    "tags": {
      "authors": [
        "0d6a6894-c57e-47aa-90b1-8a673e277813"
      ],
      "collections": [
        "dbcf2c22-524d-4708-99bb-601703633927"
      ],
      "creators": [
        "3fb874fd-8e24-40ab-ae45-1e122016fbb1"
      ],
      "groups": [
        "ae613721-1fbe-480d-ba6b-d6d0702b184d",
        "df5f446f-d161-4760-8e0c-822e70ea03ae"
      ],
      "langs": [
        "4dcf9614-7914-42aa-99f4-dbce2e059133"
      ],
      "series": [
        "1bdaa5a1-dfa6-4365-b746-7a0b194dafd6"
      ],
      "singers": [
        "dc4535e8-94f1-477d-8489-b2ff8fff45c7"
      ],
      "singergroups": [
        "3fb874fd-8e24-40ab-ae45-1e122016fbb1"
      ],
      "songtypes": [
        "42a262ae-acba-4ab5-a446-c5789c96c821"
      ],
      "songwriters": [
        "0ea1ee68-c8b7-404a-926e-1388b464d270",
        "799af930-6654-4980-a8fd-8df7392a0c71"
      ],
      "franchises": [
        "1bdaa5a1-dfa6-4365-b746-7a0b194dafd6"
      ]
    },
    "titles": {
      "eng": "A Highway of Cherry Trees at Evening",
      "jpn": "夜桜街道",
      "qro": "Yozakura kaidô"
    },
    "titles_default_language": "qro",
    "titles_aliases": [
      "kaidou"
    ],
    "year": 2011
  }
}