{
  "header": {
    "version": 4,
    "description": "Karaoke Mugen Karaoke Data File"
  },
  "medias": [
    {
      "version": "Default",
      "filename": "JPN - Senki Zesshou Symphogear AXZ - AUDIO IN - Fuugestu no Shissou ~ Full Vers.mp3",
      "audiogain": -6.18,
      "loudnorm": "-11.69,-2.42,5.30,-21.87,-0.79",
      "filesize": 10078120,
      "duration": 247,
      "default": true,
      "lyrics": [
        {
          "filename": "JPN - Senki Zesshou Symphogear AXZ - AUDIO IN - Fuugestu no Shissou ~ Full Vers.ass",
          "default": true,
          "version": "Default"
        }
      ]
    }
  ],
  "data": {
    "created_at": "2023-05-05T20:04:15.632Z",
    "ignoreHooks": false,
    "kid": "269372f7-73ea-42d0-ac2a-ec1f0e5c921f",
    "modified_at": "2023-05-05T20:05:18.242Z",
    "repository": "kara.moe",
    "tags": {
      "authors": [
        "87096920-112f-485f-a310-04156cb4624d"
      ],
      "collections": [
        "c7db86a0-ff64-4044-9be4-66dd1ef1d1c1"
      ],
      "creators": [
        "0041fabf-4b82-4ecd-961b-e4c49b8c88be"
      ],
      "groups": [
        "60defa7b-774e-4680-8321-51b742c2e009",
        "ae613721-1fbe-480d-ba6b-d6d0702b184d"
      ],
      "langs": [
        "4dcf9614-7914-42aa-99f4-dbce2e059133"
      ],
      "series": [
        "84baaef4-5c5e-42fd-bb81-9151f280fa09"
      ],
      "singers": [
        "6d2045b2-80ab-45ff-a131-c4df02ef52d1",
        "7779578c-3d4e-4aa5-8f54-77023879e8e6"
      ],
      "songtypes": [
        "42a262ae-acba-4ab5-a446-c5789c96c821",
        "5e5250d9-351a-4a82-98eb-55db50ad8962"
      ],
      "songwriters": [
        "18a5b3b4-9796-4d50-869f-1a1ebb96b1c4",
        "30e4f047-50d7-4ed7-8ed3-57cef0f20489",
        "af3ffe51-8059-461c-bbb8-78ea388731f3"
      ],
      "versions": [
        "c2143a7f-6970-450e-8a79-0302db9220a9"
      ],
      "franchises": [
        "61b24082-a6a9-482b-b126-0ad7be595791"
      ]
    },
    "titles": {
      "jpn": "風月ノ疾双",
      "qro": "Fûgestu no Shissô"
    },
    "titles_default_language": "qro",
    "titles_aliases": [
      "Fuugestu",
      "Shissou"
    ],
    "year": 2017
  }
}