{
  "header": {
    "version": 4,
    "description": "Karaoke Mugen Karaoke Data File"
  },
  "medias": [
    {
      "version": "Default",
      "filename": "JPN - Boku no Hero Academia S6 - OP2 - Bokurano.mp4",
      "audiogain": -8.51,
      "loudnorm": "-7.84,0.47,3.30,-17.85,-0.69",
      "filesize": 37080557,
      "duration": 93,
      "default": true,
      "lyrics": [
        {
          "filename": "JPN - Boku no Hero Academia S6 - OP2 - Bokurano.ass",
          "default": true,
          "version": "Default"
        }
      ]
    }
  ],
  "data": {
    "comment": "https://www.youtube.com/watch?v=bzNXDsfqfVs",
    "created_at": "2023-05-25T21:12:32.603Z",
    "ignoreHooks": false,
    "kid": "fef67c52-7fa3-4a54-a911-f68369d43d6b",
    "modified_at": "2023-06-11T18:57:36.881Z",
    "repository": "kara.moe",
    "songorder": 2,
    "tags": {
      "authors": [
        "78d42fee-8d3e-4bd5-9c44-98ce55f7d21f",
        "90698f28-1d62-4673-82c4-33ae96b1ba97"
      ],
      "collections": [
        "c7db86a0-ff64-4044-9be4-66dd1ef1d1c1"
      ],
      "families": [
        "0377db02-3af6-43b8-9b08-c759df3d25c3"
      ],
      "groups": [
        "8e209ae4-4381-438f-89dc-1b21752027d2"
      ],
      "langs": [
        "4dcf9614-7914-42aa-99f4-dbce2e059133"
      ],
      "misc": [
        "fe819ff1-9db8-4a0f-85dc-0e322c9126c4"
      ],
      "series": [
        "8c50a7e3-d395-441e-99f8-0180dcd271e4"
      ],
      "singers": [
        "a84f6a9f-4785-48bb-9f07-fdede3de7cae"
      ],
      "songtypes": [
        "f02ad9b3-0bd9-4aad-85b3-9976739ba0e4"
      ],
      "songwriters": [
        "7d97bcee-9037-4264-8c64-95809c5d385f",
        "a84f6a9f-4785-48bb-9f07-fdede3de7cae"
      ],
      "franchises": [
        "8c9bbcc8-9928-46d1-aecd-7a31a8c9bba3"
      ]
    },
    "titles": {
      "jpn": "ぼくらの",
      "qro": "Bokurano"
    },
    "titles_default_language": "qro",
    "year": 2023
  }
}