{
  "header": {
    "version": 4,
    "description": "Karaoke Mugen Karaoke Data File"
  },
  "medias": [
    {
      "version": "Default",
      "filename": "JPN - Touhou - REMIX AUDIO - Necromantic ~ Acoustic Vers.mp3",
      "audiogain": -8.71,
      "loudnorm": "-9.52,1.12,2.80,-19.60,-0.37",
      "filesize": 5137048,
      "duration": 270,
      "default": true,
      "lyrics": [
        {
          "filename": "JPN - Touhou - REMIX AUDIO - Necromantic ~ Acoustic Vers.ass",
          "default": true,
          "version": "Default"
        }
      ]
    }
  ],
  "data": {
    "created_at": "2022-09-08T08:15:00.636Z",
    "ignoreHooks": false,
    "kid": "461017e8-bfda-4df4-9555-5865b0c6e177",
    "modified_at": "2023-05-20T13:13:52.063Z",
    "parents": [
      "e65b77da-1d17-42b5-b4de-2d58222ee6e6"
    ],
    "repository": "kara.moe",
    "tags": {
      "authors": [
        "84157b43-8a7a-482c-95d3-516757353835",
        "fb28c6d3-a81e-40c0-9a4c-e3268c60a64b"
      ],
      "collections": [
        "c7db86a0-ff64-4044-9be4-66dd1ef1d1c1"
      ],
      "groups": [
        "8e209ae4-4381-438f-89dc-1b21752027d2"
      ],
      "langs": [
        "4dcf9614-7914-42aa-99f4-dbce2e059133"
      ],
      "misc": [
        "ec4360fa-3e3c-4f6f-b0e1-fb8b12b6dd18"
      ],
      "series": [
        "1bdaa5a1-dfa6-4365-b746-7a0b194dafd6"
      ],
      "singers": [
        "a6e3509f-befc-4b8b-ac1c-3614e1c32447"
      ],
      "singergroups": [
        "eb49131c-b890-422d-9947-0e82292801e1"
      ],
      "songtypes": [
        "42a262ae-acba-4ab5-a446-c5789c96c821"
      ],
      "songwriters": [
        "26cb5252-8510-49e0-897c-a611a05fc056",
        "3059eca0-7b9f-41e0-a5a6-2e7e3be5d025",
        "a6e3509f-befc-4b8b-ac1c-3614e1c32447"
      ],
      "versions": [
        "dd5e063e-8a40-478e-a4c5-d477ce8f13f7"
      ],
      "franchises": [
        "1bdaa5a1-dfa6-4365-b746-7a0b194dafd6"
      ]
    },
    "titles": {
      "eng": "Necromantic"
    },
    "titles_default_language": "eng",
    "year": 2021
  }
}