{
  "header": {
    "version": 4,
    "description": "Karaoke Mugen Karaoke Data File"
  },
  "medias": [
    {
      "version": "Default",
      "filename": "JPN - Yuki Kaai - MV - Neoki Yashi no Ki.mp4",
      "audiogain": -7.62,
      "loudnorm": "-10.06,3.21,3.00,-20.24,-0.08",
      "filesize": 33065161,
      "duration": 116,
      "default": true,
      "lyrics": [
        {
          "filename": "JPN - Yuki Kaai - MV - Neoki Yashi no Ki.ass",
          "default": true,
          "version": "Default"
        }
      ]
    }
  ],
  "data": {
    "created_at": "2023-08-14T13:02:34.781Z",
    "ignoreHooks": false,
    "kid": "f6ed2564-5a40-420e-b69a-ed810e2cca65",
    "modified_at": "2023-08-14T13:02:34.960Z",
    "repository": "kara.moe",
    "tags": {
      "authors": [
        "79e0aa7d-da9a-4e9a-aa2b-64056a83b49b"
      ],
      "collections": [
        "c7db86a0-ff64-4044-9be4-66dd1ef1d1c1"
      ],
      "families": [
        "0377db02-3af6-43b8-9b08-c759df3d25c3"
      ],
      "genres": [
        "45623cae-6d68-4304-a49b-896d1d6f4580"
      ],
      "groups": [
        "8e209ae4-4381-438f-89dc-1b21752027d2"
      ],
      "langs": [
        "4dcf9614-7914-42aa-99f4-dbce2e059133"
      ],
      "singers": [
        "c772094d-498a-4918-a103-0dbe19b225ce"
      ],
      "songtypes": [
        "7be1b15c-cff8-4b37-a649-5c90f3d569a9"
      ],
      "songwriters": [
        "bb6f0f62-888f-4ad2-ada5-a0fa0073f07b"
      ]
    },
    "titles": {
      "jpn": "寝起きヤシの木",
      "qro": "Neoki Yashi no Ki"
    },
    "titles_default_language": "qro",
    "year": 2023
  }
}