{
  "header": {
    "version": 4,
    "description": "Karaoke Mugen Karaoke Data File"
  },
  "medias": [
    {
      "version": "Default",
      "filename": "JPN - TWO-MIX - AUDIO - BURNING.mp3",
      "loudnorm": "-7.41,2.15,3.60,-17.49,-0.22",
      "filesize": 10469445,
      "duration": 257,
      "default": true,
      "lyrics": [
        {
          "filename": "JPN - TWO-MIX - AUDIO - BURNING.ass",
          "default": true,
          "version": "Default"
        }
      ]
    }
  ],
  "data": {
    "created_at": "2023-09-07T13:27:23.027Z",
    "ignoreHooks": false,
    "kid": "85e5205b-f443-47e8-b534-fe6dc608fedc",
    "modified_at": "2023-09-07T13:27:23.186Z",
    "repository": "kara.moe",
    "tags": {
      "authors": [
        "1db1738f-acdc-42fc-aec3-60f4bddf660d"
      ],
      "collections": [
        "dbcf2c22-524d-4708-99bb-601703633927"
      ],
      "creators": [
        "61cc9c5d-9e95-4a55-b6ab-2529fb6153b5"
      ],
      "langs": [
        "4dcf9614-7914-42aa-99f4-dbce2e059133"
      ],
      "singers": [
        "67147cfc-f0f3-40a0-a9c0-39e6562b5296"
      ],
      "songtypes": [
        "42a262ae-acba-4ab5-a446-c5789c96c821"
      ],
      "songwriters": [
        "88d8ec06-a773-4778-bf44-745e4e8abb16",
        "e3008322-adbb-43ee-87ba-2322b9333d96"
      ],
      "groups": [
        "24db50aa-a126-4d34-a48a-e45db79c4245"
      ]
    },
    "titles": {
      "eng": "BURNING"
    },
    "titles_default_language": "eng",
    "year": 1997
  }
}