{
  "header": {
    "version": 4,
    "description": "Karaoke Mugen Karaoke Data File"
  },
  "medias": [
    {
      "version": "Default",
      "filename": "JPN - Mashiro no Oto - MV - BLIZZARD ~ Full Vers.mp4",
      "audiogain": -11.26,
      "loudnorm": "-5.76,2.02,2.90,-15.87,-0.35",
      "filesize": 82530616,
      "duration": 226,
      "default": true,
      "lyrics": [
        {
          "filename": "JPN - Mashiro no Oto - MV - BLIZZARD ~ Full Vers.ass",
          "default": true,
          "version": "Default"
        }
      ]
    }
  ],
  "data": {
    "created_at": "2023-06-04T16:35:46.252Z",
    "ignoreHooks": false,
    "kid": "055657fa-4e71-4b4c-9292-3e5046fed36d",
    "modified_at": "2023-06-04T16:35:47.332Z",
    "parents": [
      "bf2a3775-d662-4642-8c8e-4c1606636797"
    ],
    "repository": "kara.moe",
    "tags": {
      "authors": [
        "8605a8b9-3b45-44b9-9d98-1a25096bf702"
      ],
      "collections": [
        "dbcf2c22-524d-4708-99bb-601703633927"
      ],
      "creators": [
        "95277037-67e7-45e8-8227-b0693b9bbdac"
      ],
      "families": [
        "0377db02-3af6-43b8-9b08-c759df3d25c3"
      ],
      "groups": [
        "8e209ae4-4381-438f-89dc-1b21752027d2"
      ],
      "langs": [
        "4dcf9614-7914-42aa-99f4-dbce2e059133"
      ],
      "origins": [
        "938de218-5343-4865-94d3-fb33f2eaa152"
      ],
      "series": [
        "15ddf7fc-1cf3-4d57-9d25-11b9193cd5ee"
      ],
      "singers": [
        "00b1f396-3c50-4135-9300-a0d8d4dcc2d2"
      ],
      "songtypes": [
        "7be1b15c-cff8-4b37-a649-5c90f3d569a9"
      ],
      "songwriters": [
        "1bcafd36-008f-447c-9aec-f29a20de665a",
        "cdedeeab-6067-4b78-9299-3a131423641a"
      ],
      "versions": [
        "c2143a7f-6970-450e-8a79-0302db9220a9"
      ]
    },
    "titles": {
      "eng": "BLIZZARD"
    },
    "titles_default_language": "eng",
    "year": 2021
  }
}