{
  "header": {
    "version": 4,
    "description": "Karaoke Mugen Karaoke Data File"
  },
  "medias": [
    {
      "version": "Default",
      "filename": "JPN - One Punch Man - OP - THE HERO!! ~Okoreru Kobushi ni Hi wo Tsukero~.mp4",
      "audiogain": 1.48,
      "loudnorm": "-18.40,-5.53,11.00,-28.67,-1.44",
      "filesize": 49294922,
      "duration": 92,
      "default": true,
      "lyrics": [
        {
          "filename": "JPN - One Punch Man - OP - THE HERO!! ~Okoreru Kobushi ni Hi wo Tsukero~.ass",
          "default": true,
          "version": "Default",
          "subchecksum": "27adcda00613e94db399aa9123aec23d"
        }
      ]
    }
  ],
  "data": {
    "created_at": "2017-10-11T17:03:04.000Z",
    "kid": "3affa2ca-1881-479d-b00a-a9383d1447fa",
    "modified_at": "2021-02-25T12:41:23.226Z",
    "repository": "kara.moe",
    "tags": {
      "authors": [
        "5bdaba57-27f8-4568-8806-76a807728766"
      ],
      "collections": [
        "c7db86a0-ff64-4044-9be4-66dd1ef1d1c1"
      ],
      "creators": [
        "9c5cf6ba-0bc8-4cfe-a63c-e9be3a14e9fd"
      ],
      "families": [
        "0377db02-3af6-43b8-9b08-c759df3d25c3"
      ],
      "groups": [
        "9a8e0fbc-dcae-4989-be82-7cad3436f1f5",
        "ae613721-1fbe-480d-ba6b-d6d0702b184d",
        "f53332f8-daed-4ac5-97c9-64239b520db0"
      ],
      "langs": [
        "4dcf9614-7914-42aa-99f4-dbce2e059133"
      ],
      "origins": [
        "938de218-5343-4865-94d3-fb33f2eaa152"
      ],
      "series": [
        "a4c58d4b-e01e-467a-a50b-18bdf979ccc5"
      ],
      "singers": [
        "a14aaac9-98b8-4298-a7d6-ea4945750704"
      ],
      "songtypes": [
        "f02ad9b3-0bd9-4aad-85b3-9976739ba0e4"
      ],
      "songwriters": [
        "162799fe-de2f-4f72-99a2-8c606aee4f2d"
      ],
      "franchises": [
        "a4c58d4b-e01e-467a-a50b-18bdf979ccc5"
      ]
    },
    "title": "THE HERO!! ~Okoreru Kobushi ni Hi wo Tsukero~",
    "titles": {
      "qro": "THE HERO!! ~Okoreru Kobushi ni Hi wo Tsukero~",
      "jpn": "THE HERO !! ～怒れる拳に火をつけろ～"
    },
    "year": 2015,
    "titles_default_language": "qro"
  }
}