{
  "header": {
    "version": 4,
    "description": "Karaoke Mugen Karaoke Data File"
  },
  "medias": [
    {
      "version": "Default",
      "filename": "JPN - Miku Hatsune, Rin Kagamine - MV - Gekkou.mp4",
      "audiogain": -8.73,
      "loudnorm": "-8.33,1.52,4.60,-18.48,-0.28",
      "filesize": 58860857,
      "duration": 234,
      "default": true,
      "lyrics": [
        {
          "filename": "JPN - Miku Hatsune, Rin Kagamine - MV - Gekkou.ass",
          "default": true,
          "version": "Default"
        }
      ]
    }
  ],
  "data": {
    "created_at": "2022-05-31T12:59:28.008Z",
    "ignoreHooks": false,
    "kid": "a45b6c5f-6fad-426e-b24c-4e042b231cfc",
    "modified_at": "2022-05-31T13:37:45.683Z",
    "parents": [
      "bd54406b-6c39-4aff-a827-143d8a38ad1d"
    ],
    "repository": "kara.moe",
    "tags": {
      "authors": [
        "63d193aa-c3b3-4858-a7c9-d505d478dc3d"
      ],
      "collections": [
        "c7db86a0-ff64-4044-9be4-66dd1ef1d1c1"
      ],
      "creators": [
        "58a09c57-b9d5-4262-982c-b2742f1b5127"
      ],
      "families": [
        "0377db02-3af6-43b8-9b08-c759df3d25c3"
      ],
      "genres": [
        "45623cae-6d68-4304-a49b-896d1d6f4580"
      ],
      "groups": [
        "8e209ae4-4381-438f-89dc-1b21752027d2"
      ],
      "langs": [
        "4dcf9614-7914-42aa-99f4-dbce2e059133"
      ],
      "misc": [
        "1d6ceadf-a885-47e5-b23b-c07bf668a424"
      ],
      "singers": [
        "4407ba0e-5de7-4add-870f-7ac95a4804c9",
        "dbb8d613-a120-46c7-bb42-bc6c1efb61f7"
      ],
      "songtypes": [
        "7be1b15c-cff8-4b37-a649-5c90f3d569a9"
      ],
      "songwriters": [
        "03034fb5-a547-41f7-8229-d7086426d379",
        "e173a563-c4f5-4619-afcf-c53fb563526a"
      ]
    },
    "titles": {
      "jpn": "月光",
      "qro": "Gekkou",
      "eng": "Moonlight"
    },
    "titles_default_language": "qro",
    "title": "Gekkou",
    "year": 2022
  }
}