{
  "header": {
    "version": 4,
    "description": "Karaoke Mugen Karaoke Data File"
  },
  "medias": [
    {
      "version": "Default",
      "filename": "JPN - Touhou - AMV - Earphone Romance.mp4",
      "audiogain": -8.88,
      "loudnorm": "-8.75,1.36,3.90,-18.79,-0.52",
      "filesize": 113934163,
      "duration": 265,
      "default": true,
      "lyrics": [
        {
          "filename": "JPN - Touhou - AMV - Earphone Romance.ass",
          "default": true,
          "version": "Default"
        }
      ]
    }
  ],
  "data": {
    "created_at": "2021-09-01T22:09:47.297Z",
    "ignoreHooks": false,
    "kid": "2c854e9d-231b-46ba-b0af-5f702c2313f3",
    "modified_at": "2023-07-21T20:25:28.096Z",
    "repository": "kara.moe",
    "tags": {
      "authors": [
        "84157b43-8a7a-482c-95d3-516757353835"
      ],
      "collections": [
        "c7db86a0-ff64-4044-9be4-66dd1ef1d1c1"
      ],
      "creators": [
        "0263d413-17bb-4cee-a311-6dd896eda1c9",
        "25fc251a-0514-4bf5-a818-dd0547723f4a",
        "2b873ad5-a3ce-4abf-9f11-6f600e6e6ba0"
      ],
      "families": [
        "0377db02-3af6-43b8-9b08-c759df3d25c3"
      ],
      "groups": [
        "8e209ae4-4381-438f-89dc-1b21752027d2"
      ],
      "langs": [
        "4dcf9614-7914-42aa-99f4-dbce2e059133"
      ],
      "origins": [
        "5106d71b-a78e-4d19-a16d-f8fb6719538a"
      ],
      "series": [
        "1bdaa5a1-dfa6-4365-b746-7a0b194dafd6"
      ],
      "singers": [
        "77848990-54ab-4ef6-bba7-e1258fda78a5"
      ],
      "singergroups": [
        "2b873ad5-a3ce-4abf-9f11-6f600e6e6ba0"
      ],
      "songtypes": [
        "a6c79ce5-89ee-4d50-afe8-3abd7317f6c2"
      ],
      "songwriters": [
        "26cb5252-8510-49e0-897c-a611a05fc056",
        "5e9a5d91-ea80-4515-acdf-43f023a54467",
        "a76aee83-33a5-493a-9a0c-4b57d70ec877",
        "feceb592-efac-4eda-9b03-c27cf509004c"
      ],
      "franchises": [
        "1bdaa5a1-dfa6-4365-b746-7a0b194dafd6"
      ]
    },
    "titles": {
      "eng": "Earphone Romance",
      "jpn": "イヤホンロマンス"
    },
    "titles_default_language": "eng",
    "year": 2020
  }
}