{
  "header": {
    "version": 4,
    "description": "Karaoke Mugen Karaoke Data File"
  },
  "medias": [
    {
      "version": "Default",
      "filename": "JPN - Tetsujin 28-gou (1963) - LIVE - Tetsujin 28-gou.mp4",
      "loudnorm": "-11.26,0.55,2.60,-21.31,-0.34",
      "filesize": 10819124,
      "duration": 121,
      "default": true,
      "lyrics": [
        {
          "filename": "JPN - Tetsujin 28-gou (1963) - LIVE - Tetsujin 28-gou.ass",
          "default": true,
          "version": "Default"
        }
      ]
    }
  ],
  "data": {
    "created_at": "2023-08-11T22:08:09.691Z",
    "ignoreHooks": false,
    "kid": "d4e593d0-83ec-41de-aa4b-2f1d81e9b79c",
    "modified_at": "2023-08-26T22:52:55.035Z",
    "parents": [
      "ab8567cb-c638-4cde-8182-9e16d5e9712d"
    ],
    "repository": "kara.moe",
    "tags": {
      "authors": [
        "8a1a0563-b777-42f0-b5a2-dbfc92bb2f59"
      ],
      "collections": [
        "dbcf2c22-524d-4708-99bb-601703633927"
      ],
      "creators": [
        "fb5dab52-7a84-43a9-869c-4ba22e87f547"
      ],
      "families": [
        "5391f9fe-638c-415f-8dc9-958e3a2c5787"
      ],
      "genres": [
        "f60ba57d-5ef4-49e0-b93b-d0dcbcff6592"
      ],
      "langs": [
        "4dcf9614-7914-42aa-99f4-dbce2e059133"
      ],
      "misc": [
        "1d6ceadf-a885-47e5-b23b-c07bf668a424"
      ],
      "origins": [
        "938de218-5343-4865-94d3-fb33f2eaa152"
      ],
      "series": [
        "2a9b7c16-34de-4fa7-8bab-bbe4a143e500"
      ],
      "singers": [
        "734b82fb-f26c-4e94-ae55-933b81960d54"
      ],
      "songtypes": [
        "a0167949-580c-4de3-bf13-497e462e02f3"
      ],
      "songwriters": [
        "0d06c92a-bd62-4946-a02e-a101d66954be"
      ],
      "franchises": [
        "6f45cb95-ee8d-4d15-ac6e-accb9a97c78f"
      ],
      "groups": [
        "3c14c864-533c-49e6-a3cc-6969f1233775"
      ]
    },
    "titles": {
      "jpn": "鉄人28号",
      "qro": "Tetsujin 28-gô"
    },
    "titles_default_language": "qro",
    "titles_aliases": [
      "28-gou"
    ],
    "year": 2007
  }
}