{
  "header": {
    "version": 4,
    "description": "Karaoke Mugen Karaoke Data File"
  },
  "medias": [
    {
      "version": "Default",
      "filename": "JPN - Midori - AUDIO - Yukikosan.mp3",
      "audiogain": -11.17,
      "loudnorm": "-6.08,2.51,7.60,-16.30,-0.32",
      "filesize": 3128313,
      "duration": 188,
      "default": true,
      "lyrics": [
        {
          "filename": "JPN - Midori - AUDIO - Yukikosan.ass",
          "default": true,
          "version": "Default"
        }
      ]
    }
  ],
  "data": {
    "created_at": "2023-07-11T21:43:26.565Z",
    "ignoreHooks": false,
    "kid": "7a84fb53-84f0-43b2-b1c7-1852d63e4ebd",
    "modified_at": "2023-07-11T21:43:26.739Z",
    "repository": "kara.moe",
    "tags": {
      "authors": [
        "df5f446f-d161-4760-8e0c-822e70ea03ae"
      ],
      "collections": [
        "dbcf2c22-524d-4708-99bb-601703633927"
      ],
      "creators": [
        "5b29bf8d-93e9-4601-9992-0b2b6d87e27d"
      ],
      "groups": [
        "3c14c864-533c-49e6-a3cc-6969f1233775",
        "df5f446f-d161-4760-8e0c-822e70ea03ae"
      ],
      "langs": [
        "4dcf9614-7914-42aa-99f4-dbce2e059133"
      ],
      "singers": [
        "6cd3fbfe-59da-459b-8def-3102ac58e815"
      ],
      "songtypes": [
        "42a262ae-acba-4ab5-a446-c5789c96c821"
      ]
    },
    "titles": {
      "jpn": "ゆきこさん",
      "qro": "Yukikosan"
    },
    "titles_default_language": "qro",
    "year": 2008
  }
}