{
  "header": {
    "version": 4,
    "description": "Karaoke Mugen Karaoke Data File"
  },
  "medias": [
    {
      "version": "Default",
      "filename": "JPN - Otome Game no Hametsu Flag shika Nai Akuyaku Reijou ni Tensei Shiteshimatta... - ED - BAD END.mp4",
      "audiogain": 2.48,
      "loudnorm": "-19.39,-8.47,5.20,-29.58,-0.98",
      "filesize": 80241071,
      "duration": 90,
      "default": true,
      "lyrics": [
        {
          "filename": "JPN - Otome Game no Hametsu Flag shika Nai Akuyaku Reijou ni Tensei Shiteshimatta... - ED - BAD END.ass",
          "default": true,
          "version": "Default"
        }
      ]
    }
  ],
  "data": {
    "created_at": "2020-05-04T15:36:31.577Z",
    "ignoreHooks": false,
    "kid": "6410acc4-9789-4757-864c-92649056a4d7",
    "modified_at": "2022-08-22T15:01:12.710Z",
    "repository": "kara.moe",
    "tags": {
      "authors": [
        "e568de19-c003-4d37-8978-98f29ea61cb3"
      ],
      "collections": [
        "c7db86a0-ff64-4044-9be4-66dd1ef1d1c1"
      ],
      "creators": [
        "bee26a9b-bc7b-4cdc-9317-6c9ee6707706"
      ],
      "families": [
        "0377db02-3af6-43b8-9b08-c759df3d25c3"
      ],
      "groups": [
        "8e209ae4-4381-438f-89dc-1b21752027d2"
      ],
      "langs": [
        "4dcf9614-7914-42aa-99f4-dbce2e059133"
      ],
      "origins": [
        "938de218-5343-4865-94d3-fb33f2eaa152"
      ],
      "series": [
        "1a710169-6808-4171-a5f3-beb1ce914d9f"
      ],
      "singers": [
        "9c414b4c-422b-4857-b8fd-4556895a745c"
      ],
      "songtypes": [
        "38c77c56-2b95-4040-b676-0994a8cb0597"
      ],
      "songwriters": [
        "923e03e3-9cd5-49fb-8189-6b9474e8bfc9",
        "9cc61ab4-b106-40b2-9918-b07f514f1611",
        "bdf6aa3b-201e-4730-9183-8ff346d54ad3"
      ],
      "franchises": [
        "1a710169-6808-4171-a5f3-beb1ce914d9f"
      ]
    },
    "titles": {
      "eng": "BAD END"
    },
    "titles_default_language": "eng",
    "title": "BAD END",
    "year": 2020
  }
}