{
  "header": {
    "version": 4,
    "description": "Karaoke Mugen Karaoke Data File"
  },
  "medias": [
    {
      "version": "Default",
      "filename": "JPN - THE iDOLM@STER Cinderella Girls U149 - OP - Shine In The Sky.mp4",
      "audiogain": 2.83,
      "loudnorm": "-20.51,-10.90,2.70,-30.72,-0.14",
      "filesize": 57541226,
      "duration": 90,
      "default": true,
      "lyrics": [
        {
          "filename": "JPN - THE iDOLM@STER Cinderella Girls U149 - OP - Shine In The Sky.ass",
          "default": true,
          "version": "Default"
        }
      ]
    }
  ],
  "data": {
    "created_at": "2023-05-11T19:34:10.235Z",
    "ignoreHooks": false,
    "kid": "d58170ef-37ab-4ff8-833d-3db6ad7e8232",
    "modified_at": "2023-05-11T21:08:39.533Z",
    "repository": "kara.moe",
    "tags": {
      "authors": [
        "ba4c7606-1e96-4c45-8e21-d5103477336b"
      ],
      "collections": [
        "c7db86a0-ff64-4044-9be4-66dd1ef1d1c1"
      ],
      "creators": [
        "61e12252-9c98-4e41-83db-6031c354b920"
      ],
      "families": [
        "0377db02-3af6-43b8-9b08-c759df3d25c3"
      ],
      "genres": [
        "caa86df2-0d59-474b-885c-f240a9e891b0"
      ],
      "groups": [
        "2b4e9972-5e17-481b-99f5-d0787c0ada56",
        "8e209ae4-4381-438f-89dc-1b21752027d2"
      ],
      "langs": [
        "4dcf9614-7914-42aa-99f4-dbce2e059133"
      ],
      "series": [
        "af90ac92-4cee-46dc-9471-7d670dee57d8"
      ],
      "singers": [
        "12f8617b-9fb2-4a9a-8ac3-90ec152463ad",
        "1e9b607f-61f9-4c31-9b55-b71cf33cc4fd",
        "1f449de8-ba1a-4d99-9393-7589b72b68f0",
        "59ad2d1e-2a63-4f3e-815c-ef6ea61d6bd3",
        "85424e17-43d7-479f-9614-e9b78f9c61a5",
        "c4834b22-ee4b-4e0f-9c1a-c8d9e6821f72",
        "f818d231-0b49-4b4b-a977-8d5b2cdce16c",
        "f9a8c58c-cea8-4956-a6a1-60eb890145ba",
        "fbbfcd25-2f98-4f94-9b7b-cef201df2859"
      ],
      "singergroups": [
        "4af0c47d-08d1-4a99-a26b-ccb64f9dc0ea"
      ],
      "songtypes": [
        "f02ad9b3-0bd9-4aad-85b3-9976739ba0e4"
      ],
      "songwriters": [
        "05874530-2627-4ba1-904d-970a1dd3ae47",
        "c371fa85-ff14-4eb2-a813-9ab33d7d90d5"
      ],
      "franchises": [
        "d34ceea8-7d7c-4d85-9213-18d24d2b7666"
      ]
    },
    "titles": {
      "eng": "Shine In The Sky☆"
    },
    "titles_default_language": "eng",
    "year": 2023
  }
}