{
  "header": {
    "version": 4,
    "description": "Karaoke Mugen Karaoke Data File"
  },
  "medias": [
    {
      "version": "Default",
      "filename": "JPN - KAITO, Miku Hatsune - MV - Ohedo Julia-Night.mp4",
      "audiogain": -9.61,
      "loudnorm": "-6.79,3.05,3.10,-16.87,0.10",
      "filesize": 198087742,
      "duration": 229,
      "default": true,
      "lyrics": [
        {
          "filename": "JPN - KAITO, Miku Hatsune - MV - Ohedo Julia-Night.ass",
          "default": true,
          "version": "Default"
        }
      ]
    }
  ],
  "data": {
    "created_at": "2022-07-10T16:31:37.860Z",
    "kid": "e4287908-7c0e-4891-936b-9c12bc6d3d9f",
    "modified_at": "2022-07-20T11:41:04.339Z",
    "repository": "kara.moe",
    "tags": {
      "authors": [
        "ee8628c8-9b7f-415b-bc0d-9b712d5daf8c"
      ],
      "creators": [
        "4089cac9-5a6a-4ddd-9d66-d7e1a3070ad5",
        "df4b80ca-437a-498f-bae3-5bb31b5f53fe"
      ],
      "families": [
        "0377db02-3af6-43b8-9b08-c759df3d25c3"
      ],
      "genres": [
        "45623cae-6d68-4304-a49b-896d1d6f4580"
      ],
      "groups": [
        "ae613721-1fbe-480d-ba6b-d6d0702b184d"
      ],
      "langs": [
        "4dcf9614-7914-42aa-99f4-dbce2e059133"
      ],
      "singers": [
        "088ee286-73a1-4919-8503-68dbc81df761",
        "4407ba0e-5de7-4add-870f-7ac95a4804c9"
      ],
      "songtypes": [
        "7be1b15c-cff8-4b37-a649-5c90f3d569a9"
      ],
      "songwriters": [
        "cd1744e6-3151-4619-8782-1bfe15cb3f0b"
      ],
      "collections": [
        "c7db86a0-ff64-4044-9be4-66dd1ef1d1c1"
      ],
      "warnings": [
        "51288600-29e0-4e41-a42b-77f0498e5691"
      ]
    },
    "titles": {
      "jpn": "大江戸ジュリアナイト",
      "qro": "Ohedo Julia-Night"
    },
    "titles_default_language": "qro",
    "title": "Ohedo Julia-Night",
    "year": 2017
  }
}