{
  "header": {
    "version": 4,
    "description": "Karaoke Mugen Karaoke Data File"
  },
  "medias": [
    {
      "version": "Default",
      "filename": "JPN - Boku no Kokoro no Yabai Yatsu - OP - Shayou.mp4",
      "audiogain": 2.14,
      "loudnorm": "-20.18,-6.84,8.00,-30.45,-1.09",
      "filesize": 65779022,
      "duration": 90,
      "default": true,
      "lyrics": [
        {
          "filename": "JPN - Boku no Kokoro no Yabai Yatsu - OP - Shayou.ass",
          "default": true,
          "version": "Default"
        }
      ]
    }
  ],
  "data": {
    "created_at": "2023-05-25T16:58:21.356Z",
    "ignoreHooks": false,
    "kid": "84ec7257-92d7-458a-ae08-4231af1f7b92",
    "modified_at": "2023-05-25T17:03:05.091Z",
    "repository": "kara.moe",
    "tags": {
      "authors": [
        "684ce13c-fe6a-4010-8462-d6a1210fe1de"
      ],
      "collections": [
        "c7db86a0-ff64-4044-9be4-66dd1ef1d1c1"
      ],
      "creators": [
        "83c61ae6-0690-4baa-a3a1-28f1f68f986f"
      ],
      "families": [
        "0377db02-3af6-43b8-9b08-c759df3d25c3"
      ],
      "genres": [
        "a0aeef4a-6428-45ff-a6e1-468b595930c2"
      ],
      "groups": [
        "8e209ae4-4381-438f-89dc-1b21752027d2"
      ],
      "langs": [
        "4dcf9614-7914-42aa-99f4-dbce2e059133"
      ],
      "misc": [
        "fe819ff1-9db8-4a0f-85dc-0e322c9126c4"
      ],
      "series": [
        "a2a07ebe-0b7a-4bc9-8fa3-deed3a1072da"
      ],
      "singers": [
        "29159405-9d6e-482e-beb8-8a390e1184d7"
      ],
      "songtypes": [
        "f02ad9b3-0bd9-4aad-85b3-9976739ba0e4"
      ],
      "songwriters": [
        "41d76f46-52fe-4f5e-8bc6-40a18f29f540"
      ]
    },
    "titles": {
      "eng": "Setting Sun",
      "jpn": "斜陽",
      "qro": "Shayou"
    },
    "titles_default_language": "qro",
    "year": 2023
  }
}