{
  "header": {
    "version": 4,
    "description": "Karaoke Mugen Karaoke Data File"
  },
  "medias": [
    {
      "version": "Default",
      "filename": "JPN - Miku Hatsune - MV - Dramaturgy ~ Off Vocal Vers.mp4",
      "audiogain": -4.47,
      "loudnorm": "-13.85,-0.07,4.80,-24.05,-0.16",
      "filesize": 67016069,
      "duration": 245,
      "default": true,
      "lyrics": [
        {
          "filename": "JPN - Miku Hatsune - MV - Dramaturgy ~ Off Vocal Vers.ass",
          "default": true,
          "version": "Default"
        }
      ]
    }
  ],
  "data": {
    "created_at": "2022-07-17T12:35:13.407Z",
    "ignoreHooks": false,
    "kid": "1b478a3e-79f2-4f33-81eb-c220735928a3",
    "modified_at": "2022-08-22T20:00:57.012Z",
    "parents": [
      "4df62f82-35f7-4242-9708-8f99ceb4b8bd"
    ],
    "repository": "kara.moe",
    "tags": {
      "authors": [
        "90698f28-1d62-4673-82c4-33ae96b1ba97",
        "f7ce702e-09aa-4b22-8742-0c99cd7a5409"
      ],
      "collections": [
        "c7db86a0-ff64-4044-9be4-66dd1ef1d1c1"
      ],
      "families": [
        "0377db02-3af6-43b8-9b08-c759df3d25c3"
      ],
      "genres": [
        "45623cae-6d68-4304-a49b-896d1d6f4580"
      ],
      "groups": [
        "2b4e9972-5e17-481b-99f5-d0787c0ada56",
        "ae613721-1fbe-480d-ba6b-d6d0702b184d"
      ],
      "langs": [
        "4dcf9614-7914-42aa-99f4-dbce2e059133"
      ],
      "singers": [
        "4407ba0e-5de7-4add-870f-7ac95a4804c9"
      ],
      "songtypes": [
        "7be1b15c-cff8-4b37-a649-5c90f3d569a9"
      ],
      "songwriters": [
        "a84f6a9f-4785-48bb-9f07-fdede3de7cae"
      ],
      "versions": [
        "c0cc87b9-55b9-40f0-878a-fbb9e34c151e"
      ]
    },
    "titles": {
      "eng": "Dramaturgy",
      "jpn": "ドラマツルギー"
    },
    "titles_default_language": "eng",
    "title": "Dramaturgy",
    "year": 2017
  }
}