{
  "header": {
    "version": 4,
    "description": "Karaoke Mugen Karaoke Data File"
  },
  "medias": [
    {
      "version": "Default",
      "filename": "JPN - Link! Like! Love Live! - MV - DEEPNESS ~ Full Vers.mp4",
      "audiogain": -3.33,
      "loudnorm": "-14.67,-0.75,6.10,-24.71,-0.75",
      "filesize": 113415668,
      "duration": 265,
      "default": true,
      "lyrics": [
        {
          "filename": "JPN - Link! Like! Love Live! - MV - DEEPNESS ~ Full Vers.ass",
          "default": true,
          "version": "Default"
        }
      ]
    }
  ],
  "data": {
    "created_at": "2023-08-25T21:59:37.836Z",
    "ignoreHooks": false,
    "kid": "da93a29f-850d-4116-aa11-eede10c5e67a",
    "modified_at": "2023-08-25T22:13:34.474Z",
    "repository": "kara.moe",
    "tags": {
      "authors": [
        "16b136eb-921f-4c07-be38-ff92d5cc4313"
      ],
      "collections": [
        "dbcf2c22-524d-4708-99bb-601703633927"
      ],
      "creators": [
        "b2805292-730e-473a-96f0-fd8e7ffd1fd7"
      ],
      "genres": [
        "caa86df2-0d59-474b-885c-f240a9e891b0"
      ],
      "groups": [
        "8e209ae4-4381-438f-89dc-1b21752027d2"
      ],
      "langs": [
        "4dcf9614-7914-42aa-99f4-dbce2e059133"
      ],
      "misc": [
        "1d6ceadf-a885-47e5-b23b-c07bf668a424"
      ],
      "series": [
        "c6245b47-6ad8-498a-b790-e6b8a50fea5e"
      ],
      "singers": [
        "1a912ff3-ff2f-4e8a-92de-d2adbb19d0b3",
        "1f0b407a-7bf9-457c-aabf-7d7297c75be2",
        "4e39a0e7-c012-4be9-a2c9-f09cf8d3a31b",
        "f5569c82-f01f-4cdb-b1c2-a0db10706211"
      ],
      "singergroups": [
        "4af676a8-9381-477e-99c2-e693b416f095",
        "c60ae79c-f8cf-466f-abc1-d008ff6cab25"
      ],
      "songtypes": [
        "7be1b15c-cff8-4b37-a649-5c90f3d569a9"
      ],
      "songwriters": [
        "203d18bc-3ec2-4cf0-8c08-73a3a2781a4c",
        "25ff1805-c080-4568-82bd-09fb7676665a",
        "f19cf85d-9d49-467a-b1ff-9fb60fbc6647"
      ],
      "versions": [
        "c2143a7f-6970-450e-8a79-0302db9220a9"
      ],
      "franchises": [
        "fd5d066e-e85a-4eea-8688-2979a887450a"
      ]
    },
    "titles": {
      "eng": "DEEPNESS"
    },
    "titles_default_language": "eng",
    "year": 2023
  }
}