{
  "header": {
    "version": 4,
    "description": "Karaoke Mugen Karaoke Data File"
  },
  "medias": [
    {
      "version": "Asuna, Negi, Setsuna, Konoka.",
      "filename": "JPN - Negima! question_mark - OP1 - 1000 percent SPARKING! ~ Asuna, Negi, Setsuna, Konoka Vers.mp4",
      "audiogain": 0.24,
      "loudnorm": "-18.60,-6.92,4.20,-28.72,-0.67",
      "filesize": 45355916,
      "duration": 90,
      "default": true,
      "lyrics": [
        {
          "filename": "JPN - Negima! question_mark - OP1 - 1000 percent SPARKING! ~ Asuna, Negi, Setsuna, Konoka Vers.ass",
          "default": true,
          "version": "Default"
        }
      ]
    }
  ],
  "data": {
    "created_at": "2017-10-11T17:02:16.000Z",
    "ignoreHooks": false,
    "kid": "1f9e473b-e993-4388-9f39-d4290c5dc848",
    "modified_at": "2022-08-20T15:52:36.642Z",
    "repository": "kara.moe",
    "songorder": 1,
    "tags": {
      "authors": [
        "fa399f2f-ea1d-4902-8796-ea6d8218aff0"
      ],
      "collections": [
        "c7db86a0-ff64-4044-9be4-66dd1ef1d1c1"
      ],
      "creators": [
        "c3bd80ef-d1fe-427f-913f-a2ba2fe66114"
      ],
      "families": [
        "0377db02-3af6-43b8-9b08-c759df3d25c3"
      ],
      "groups": [
        "3c14c864-533c-49e6-a3cc-6969f1233775"
      ],
      "langs": [
        "4dcf9614-7914-42aa-99f4-dbce2e059133"
      ],
      "origins": [
        "938de218-5343-4865-94d3-fb33f2eaa152"
      ],
      "series": [
        "6683a0c8-9c2b-41ca-b71a-0cafbd07f66d"
      ],
      "singers": [
        "07a71ffb-6960-46c9-87a9-8cc3e0f7319a",
        "2b32d4b1-3b3a-4081-a3eb-a5ed652b9570",
        "450e6184-5fb6-4456-9bb6-50323f29890b",
        "c4bfcd03-d02d-48d2-bc55-da6a1ab92f7b"
      ],
      "songtypes": [
        "f02ad9b3-0bd9-4aad-85b3-9976739ba0e4"
      ],
      "songwriters": [
        "36ed7846-c93a-4e89-b677-34c3a8371964",
        "a618878a-b37b-46a6-84b0-4422ebe2bc2f",
        "e3aca029-c16e-4507-b0b8-04db599cc83c"
      ],
      "franchises": [
        "601c1fcb-8218-407e-be99-ceea5eecfd03"
      ]
    },
    "titles": {
      "eng": "1000%SPARKING!"
    },
    "titles_default_language": "eng",
    "title": "1000% SPARKING! ~ Asuna, Negi, Setsuna, Konoka Vers.",
    "year": 2006
  }
}