{
  "header": {
    "version": 4,
    "description": "Karaoke Mugen Karaoke Data File"
  },
  "medias": [
    {
      "version": "Default",
      "filename": "JPN - Miku Hatsune - MV - Senbonzakura.mp4",
      "audiogain": -9.44,
      "loudnorm": "-6.81,2.12,0.70,-16.93,-0.06",
      "filesize": 182235106,
      "duration": 244,
      "default": true,
      "lyrics": [
        {
          "filename": "JPN - Miku Hatsune - MV - Senbonzakura.ass",
          "default": true,
          "version": "Default"
        }
      ]
    }
  ],
  "data": {
    "created_at": "2019-08-29T21:28:54.000Z",
    "kid": "7ab22078-31ab-4983-8878-669eb062752b",
    "modified_at": "2021-12-28T20:50:36.721Z",
    "repository": "kara.moe",
    "tags": {
      "authors": [
        "88321964-7c14-4305-85c1-0f4941aadfde"
      ],
      "collections": [
        "c7db86a0-ff64-4044-9be4-66dd1ef1d1c1"
      ],
      "creators": [
        "12111ebf-6481-4c2c-8963-069a2d596468",
        "e420fb57-577e-46d8-86c4-f697b026e9a5"
      ],
      "families": [
        "0377db02-3af6-43b8-9b08-c759df3d25c3"
      ],
      "genres": [
        "45623cae-6d68-4304-a49b-896d1d6f4580"
      ],
      "groups": [
        "2b4e9972-5e17-481b-99f5-d0787c0ada56",
        "ae613721-1fbe-480d-ba6b-d6d0702b184d"
      ],
      "langs": [
        "4dcf9614-7914-42aa-99f4-dbce2e059133"
      ],
      "singers": [
        "4407ba0e-5de7-4add-870f-7ac95a4804c9"
      ],
      "songtypes": [
        "7be1b15c-cff8-4b37-a649-5c90f3d569a9"
      ],
      "songwriters": [
        "3983820b-bf9d-4263-bdf7-310753587ef8"
      ]
    },
    "titles": {
      "eng": "Thousand Cherry Blossoms",
      "qro": "Senbonzakura",
      "jpn": "千本桜"
    },
    "title": "Senbonzakura",
    "year": 2011,
    "titles_aliases": [
      "Thousands of Cherry Trees"
    ],
    "titles_default_language": "eng"
  }
}