{
  "header": {
    "version": 4,
    "description": "Karaoke Mugen Karaoke Data File"
  },
  "medias": [
    {
      "version": "Default",
      "filename": "JPN - Blood Lad - OP - ViViD.mp4",
      "audiogain": -3.24,
      "loudnorm": "-14.79,-6.20,3.50,-24.95,-1.14",
      "filesize": 50127264,
      "duration": 91,
      "default": true,
      "lyrics": [
        {
          "filename": "JPN - Blood Lad - OP - ViViD.ass",
          "default": true,
          "version": "Default"
        }
      ]
    }
  ],
  "data": {
    "created_at": "2017-10-11T17:01:38.000Z",
    "ignoreHooks": false,
    "kid": "17cce2ee-0ba4-4b49-b24e-0bae5346748c",
    "modified_at": "2023-05-07T20:20:37.623Z",
    "repository": "kara.moe",
    "tags": {
      "authors": [
        "5bdaba57-27f8-4568-8806-76a807728766"
      ],
      "collections": [
        "c7db86a0-ff64-4044-9be4-66dd1ef1d1c1"
      ],
      "creators": [
        "a06f41a3-31b6-462a-a195-e48a11386da3"
      ],
      "families": [
        "0377db02-3af6-43b8-9b08-c759df3d25c3"
      ],
      "groups": [
        "ae613721-1fbe-480d-ba6b-d6d0702b184d"
      ],
      "langs": [
        "4dcf9614-7914-42aa-99f4-dbce2e059133"
      ],
      "origins": [
        "938de218-5343-4865-94d3-fb33f2eaa152"
      ],
      "series": [
        "2e45ca18-0641-4afa-b0f1-031af85e9015"
      ],
      "singers": [
        "5d438e3b-b8e6-43c9-9fdf-2016a6bbc42f"
      ],
      "songtypes": [
        "f02ad9b3-0bd9-4aad-85b3-9976739ba0e4"
      ],
      "songwriters": [
        "13877dd1-3894-45db-a10d-a3b1fb434eb7",
        "ad9de3e0-673e-459b-ac88-178ae5e04341"
      ]
    },
    "titles": {
      "eng": "ViViD"
    },
    "titles_default_language": "eng",
    "year": 2013
  }
}