{
  "header": {
    "version": 4,
    "description": "Karaoke Mugen Karaoke Data File"
  },
  "medias": [
    {
      "version": "Default",
      "filename": "JPN - Tokimeki Memorial Girl's Side - PS2 GAME OP - Signal.mp4",
      "audiogain": 15.73,
      "loudnorm": "-33.41,-21.56,4.00,-43.54,-0.11",
      "filesize": 9152153,
      "duration": 98,
      "default": true,
      "lyrics": [
        {
          "filename": "JPN - Tokimeki Memorial Girl's Side - PS2 GAME OP - Signal.ass",
          "default": true,
          "version": "Default",
          "subchecksum": "53fd59a11b1613a8c826f2cc842cc5e7"
        }
      ]
    }
  ],
  "data": {
    "created_at": "2019-05-03T21:36:45.000Z",
    "kid": "c9025b79-294e-48a7-b44e-e775fd4fb03d",
    "modified_at": "2021-02-25T13:24:41.577Z",
    "repository": "kara.moe",
    "tags": {
      "authors": [
        "2a9bbf75-0722-4b4a-9935-caa92f38fdd1"
      ],
      "collections": [
        "c7db86a0-ff64-4044-9be4-66dd1ef1d1c1"
      ],
      "creators": [
        "22092200-b324-4277-8269-b8b0929f42c1"
      ],
      "groups": [
        "3c14c864-533c-49e6-a3cc-6969f1233775"
      ],
      "langs": [
        "4dcf9614-7914-42aa-99f4-dbce2e059133"
      ],
      "origins": [
        "2f96e82c-c61b-4413-817e-e6b247509b95",
        "dbedd6b3-d125-4cd8-aa32-c4175e4ca3a3"
      ],
      "platforms": [
        "2173004e-21da-45c9-9dfb-26014423c566"
      ],
      "series": [
        "bbadfa4a-dd98-411f-ab44-edc59ce232b8"
      ],
      "singers": [
        "272ec887-6430-4ecb-8a3e-ffbf468869db"
      ],
      "songtypes": [
        "f02ad9b3-0bd9-4aad-85b3-9976739ba0e4"
      ],
      "songwriters": [
        "013cdc4c-c2ef-4faa-8b5b-592f99905124",
        "a5d6baf8-ed49-4a4c-8eb5-83d87db9e9b2"
      ],
      "franchises": [
        "90987a71-57dc-4687-92f6-574b88f39bbb"
      ],
      "genres": [
        "7025ae3c-7bd6-4787-8912-2c15063343bb"
      ]
    },
    "title": "Signal",
    "titles": {
      "eng": "SIGNAL"
    },
    "year": 2002,
    "titles_default_language": "eng"
  }
}