{
  "header": {
    "version": 4,
    "description": "Karaoke Mugen Karaoke Data File"
  },
  "medias": [
    {
      "version": "Default",
      "filename": "JPN - Ojamajo Doremi - OP - Ojamajo Carnival!!.mp4",
      "audiogain": 1.92,
      "loudnorm": "-19.21,-5.18,1.30,-29.28,-0.24",
      "filesize": 43942013,
      "duration": 91,
      "default": true,
      "lyrics": [
        {
          "filename": "JPN - Ojamajo Doremi - OP - Ojamajo Carnival!!.ass",
          "default": true,
          "version": "Default",
          "subchecksum": "ffd2b6ece6c95bbaff4e3d97c42166e4"
        }
      ]
    }
  ],
  "data": {
    "created_at": "2017-10-11T17:01:07.000Z",
    "kid": "b528ed4f-4827-4aac-aaf7-8a295ab220a2",
    "modified_at": "2021-02-25T12:40:14.014Z",
    "repository": "kara.moe",
    "tags": {
      "authors": [
        "1df04771-a378-4f14-a5e1-1455187d681a"
      ],
      "collections": [
        "c7db86a0-ff64-4044-9be4-66dd1ef1d1c1"
      ],
      "creators": [
        "f694bf43-b427-4244-9744-9d3f84fd8a31"
      ],
      "families": [
        "0377db02-3af6-43b8-9b08-c759df3d25c3"
      ],
      "genres": [
        "b84e28f9-db1e-447f-b339-7954c3592523"
      ],
      "groups": [
        "24db50aa-a126-4d34-a48a-e45db79c4245"
      ],
      "langs": [
        "4dcf9614-7914-42aa-99f4-dbce2e059133"
      ],
      "misc": [
        "fe819ff1-9db8-4a0f-85dc-0e322c9126c4"
      ],
      "origins": [
        "938de218-5343-4865-94d3-fb33f2eaa152"
      ],
      "series": [
        "000c6a2f-ee2c-4a5f-9d9f-09a2f6655e0f"
      ],
      "singers": [
        "0bc9a85f-a977-4907-9028-31a80d815119",
        "80b76527-54fa-44c5-887c-b16cce4f8922",
        "c95ee4be-5591-48a5-b79c-b69e5e5c9f0f",
        "ca72f57f-20ef-4aab-a677-650df8a2d3e2"
      ],
      "songtypes": [
        "f02ad9b3-0bd9-4aad-85b3-9976739ba0e4"
      ],
      "songwriters": [
        "4c786551-95e2-4aaa-9aca-792796abd9ec",
        "5eea063b-c020-48c5-9675-6988a2159cb2"
      ],
      "franchises": [
        "bfcefd13-8780-49fe-88aa-f64bdc8f6103"
      ]
    },
    "title": "Ojamajo Carnival!!",
    "titles": {
      "qro": "Ojamajo Carnival!!",
      "jpn": "おジャ魔女カーニバル!!"
    },
    "year": 1999,
    "titles_default_language": "qro"
  }
}