{
  "header": {
    "version": 4,
    "description": "Karaoke Mugen Karaoke Data File"
  },
  "medias": [
    {
      "version": "Default",
      "filename": "JPN - Seiren - OP - Kimi no Hana.mp4",
      "audiogain": -3.16,
      "loudnorm": "-16.04,-1.55,8.40,-26.10,-1.91",
      "filesize": 34660646,
      "duration": 91,
      "default": true,
      "lyrics": [
        {
          "filename": "JPN - Seiren - OP - Kimi no Hana.ass",
          "default": true,
          "version": "Default",
          "subchecksum": "e8f00cc67186ef67f2c6b6c9ed012c3c"
        }
      ]
    }
  ],
  "data": {
    "created_at": "2018-07-28T10:26:47.000Z",
    "kid": "6314b968-0f63-4d9d-b6b7-727f7b78eb6d",
    "modified_at": "2021-02-25T12:59:04.102Z",
    "repository": "kara.moe",
    "tags": {
      "authors": [
        "b5116310-e69b-4ed4-9e47-c5c53ee69023"
      ],
      "collections": [
        "c7db86a0-ff64-4044-9be4-66dd1ef1d1c1"
      ],
      "creators": [
        "500eceed-d0a7-4d91-89cb-75df457a9cee",
        "7226816c-fb45-4f3a-bd39-7f4f616553bf"
      ],
      "families": [
        "0377db02-3af6-43b8-9b08-c759df3d25c3"
      ],
      "groups": [
        "ae613721-1fbe-480d-ba6b-d6d0702b184d"
      ],
      "langs": [
        "4dcf9614-7914-42aa-99f4-dbce2e059133"
      ],
      "origins": [
        "938de218-5343-4865-94d3-fb33f2eaa152"
      ],
      "series": [
        "0824a7bd-225a-47d3-9715-d2c9553a523d"
      ],
      "singers": [
        "d5735ada-f09d-47b2-9f50-39c66c926b9b"
      ],
      "songtypes": [
        "f02ad9b3-0bd9-4aad-85b3-9976739ba0e4"
      ],
      "songwriters": [
        "d5735ada-f09d-47b2-9f50-39c66c926b9b"
      ]
    },
    "title": "Kimi no Hana",
    "titles": {
      "qro": "Kimi no Hana",
      "jpn": "キミの花"
    },
    "year": 2017,
    "titles_default_language": "qro"
  }
}