{
  "header": {
    "version": 4,
    "description": "Karaoke Mugen Karaoke Data File"
  },
  "medias": [
    {
      "version": "Default",
      "filename": "JPN - Kidou Senshi Gundam SEED - AUDIO IN - Akatsuki no Kuruma ~ Full Off Vocal Vers.mp3",
      "audiogain": -8.09,
      "loudnorm": "-8.81,0.85,16.20,-20.09,-1.86",
      "filesize": 12275588,
      "duration": 302,
      "default": true,
      "lyrics": [
        {
          "filename": "JPN - Kidou Senshi Gundam SEED - AUDIO IN - Akatsuki no Kuruma ~ Full Off Vocal Vers.ass",
          "default": true,
          "version": "Default"
        }
      ]
    }
  ],
  "data": {
    "created_at": "2023-06-24T23:53:27.307Z",
    "ignoreHooks": false,
    "kid": "271df06c-1227-4b4e-8f70-adfabcbc8221",
    "modified_at": "2023-07-01T11:32:46.570Z",
    "parents": [
      "a1dc7cad-7f6f-4e07-adb5-1005d0f8a7fb"
    ],
    "repository": "kara.moe",
    "tags": {
      "authors": [
        "1db1738f-acdc-42fc-aec3-60f4bddf660d"
      ],
      "collections": [
        "dbcf2c22-524d-4708-99bb-601703633927"
      ],
      "creators": [
        "e8da43a3-7058-4162-9d31-2f331dee993e"
      ],
      "genres": [
        "f60ba57d-5ef4-49e0-b93b-d0dcbcff6592"
      ],
      "groups": [
        "3c14c864-533c-49e6-a3cc-6969f1233775"
      ],
      "langs": [
        "4dcf9614-7914-42aa-99f4-dbce2e059133"
      ],
      "misc": [
        "86705d4b-24e4-4756-9687-2b9c98bcf366"
      ],
      "series": [
        "3a518b75-68e5-411a-8ac8-ed7d6168b599"
      ],
      "singers": [
        "f628390a-1a0f-4e4f-9207-28f6aef85616"
      ],
      "songtypes": [
        "42a262ae-acba-4ab5-a446-c5789c96c821",
        "5e5250d9-351a-4a82-98eb-55db50ad8962"
      ],
      "songwriters": [
        "1f324dc7-f858-415b-bbc1-41fcce3d6ac7"
      ],
      "versions": [
        "c0cc87b9-55b9-40f0-878a-fbb9e34c151e",
        "c2143a7f-6970-450e-8a79-0302db9220a9"
      ],
      "franchises": [
        "e6ade589-c2e4-49a1-acdb-ea9b03e57240"
      ]
    },
    "titles": {
      "jpn": "暁の車",
      "qro": "Akatsuki no Kuruma"
    },
    "titles_default_language": "qro",
    "year": 2004
  }
}