{
  "header": {
    "version": 4,
    "description": "Karaoke Mugen Karaoke Data File"
  },
  "medias": [
    {
      "version": "Default",
      "filename": "JPN - Love Live! Sunshine!! - LIVE - Shadow gate to love ~ Full Vers.mp4",
      "audiogain": 4.58,
      "loudnorm": "-22.69,-10.30,6.80,-33.09,-0.52",
      "filesize": 152647252,
      "duration": 246,
      "default": true,
      "lyrics": [
        {
          "filename": "JPN - Love Live! Sunshine!! - LIVE - Shadow gate to love ~ Full Vers.ass",
          "default": true,
          "version": "Default"
        }
      ]
    }
  ],
  "data": {
    "created_at": "2022-06-05T20:33:02.577Z",
    "ignoreHooks": false,
    "kid": "54454517-0aa8-43b8-b8cf-9c9081e6bd21",
    "modified_at": "2022-11-15T18:33:38.313Z",
    "repository": "kara.moe",
    "tags": {
      "authors": [
        "449844e4-3a1f-46e1-8a92-bf72e2d1b6f1"
      ],
      "collections": [
        "dbcf2c22-524d-4708-99bb-601703633927"
      ],
      "creators": [
        "b2805292-730e-473a-96f0-fd8e7ffd1fd7"
      ],
      "families": [
        "5391f9fe-638c-415f-8dc9-958e3a2c5787"
      ],
      "genres": [
        "caa86df2-0d59-474b-885c-f240a9e891b0"
      ],
      "groups": [
        "8e209ae4-4381-438f-89dc-1b21752027d2"
      ],
      "langs": [
        "4dcf9614-7914-42aa-99f4-dbce2e059133"
      ],
      "series": [
        "63466536-1102-4f91-b167-4380d274e2a3"
      ],
      "singers": [
        "81f96b53-701d-4886-80ba-71f256e051a2",
        "8f1cdf03-baf0-4294-bfdf-fdeedcdbeac5",
        "e3ef4054-6292-4b5f-ad14-1008bae5e375"
      ],
      "singergroups": [
        "8a711d9c-42de-40fd-a050-fe72b5460a26"
      ],
      "songtypes": [
        "a0167949-580c-4de3-bf13-497e462e02f3"
      ],
      "songwriters": [
        "35cfbd28-2928-4003-8e29-7d50dfc2d9cc",
        "f41e7218-6c19-4e19-9b5f-4612dcd58243"
      ],
      "versions": [
        "c2143a7f-6970-450e-8a79-0302db9220a9"
      ],
      "franchises": [
        "fd5d066e-e85a-4eea-8688-2979a887450a"
      ]
    },
    "titles": {
      "eng": "Shadow gate to love"
    },
    "titles_default_language": "eng",
    "year": 2021
  }
}