{
  "header": {
    "version": 4,
    "description": "Karaoke Mugen Karaoke Data File"
  },
  "medias": [
    {
      "version": "Default",
      "filename": "JPN - Watashi no Yuri wa Oshigoto desu! - OP - Himitsu Melody.mp4",
      "audiogain": 0.41,
      "loudnorm": "-17.49,-5.11,8.20,-27.76,-1.35",
      "filesize": 36652379,
      "duration": 90,
      "default": true,
      "lyrics": [
        {
          "filename": "JPN - Watashi no Yuri wa Oshigoto desu! - OP - Himitsu Melody.ass",
          "default": true,
          "version": "Default"
        }
      ]
    }
  ],
  "data": {
    "comment": "j’hésite à mettre chant de groupe vu qu’il y a superposition de paroles ; au niveau des paroles on a une ligne où elle chante quelque chose de différent que les paroles de lyricalnonsense, j’ai donc corrigé pour correspondre à ce qui est réellement chanté ; pour le tag de l’œuvre, peut-être rajouter l’alias watayuri",
    "created_at": "2023-05-31T20:26:16.471Z",
    "ignoreHooks": false,
    "kid": "4606fff8-1e1c-46b1-8c6e-d4eb0e0f05ce",
    "modified_at": "2023-05-31T20:32:48.382Z",
    "repository": "kara.moe",
    "tags": {
      "authors": [
        "4749577f-84d7-470b-bfa8-09c6f9a97c32"
      ],
      "collections": [
        "c7db86a0-ff64-4044-9be4-66dd1ef1d1c1"
      ],
      "creators": [
        "d0d3eef5-23de-46d2-9c0a-6323793395ae"
      ],
      "families": [
        "0377db02-3af6-43b8-9b08-c759df3d25c3"
      ],
      "genres": [
        "c994fbce-5c5a-441c-88b4-9a6805f7ee85"
      ],
      "groups": [
        "8e209ae4-4381-438f-89dc-1b21752027d2"
      ],
      "langs": [
        "4dcf9614-7914-42aa-99f4-dbce2e059133"
      ],
      "misc": [
        "fe819ff1-9db8-4a0f-85dc-0e322c9126c4",
        "1d6ceadf-a885-47e5-b23b-c07bf668a424"
      ],
      "origins": [
        "938de218-5343-4865-94d3-fb33f2eaa152"
      ],
      "series": [
        "f3f22f73-1a36-4039-9712-1510c7a13559"
      ],
      "singers": [
        "d7c26167-fe7e-4450-8191-65a53fc7db66"
      ],
      "songtypes": [
        "f02ad9b3-0bd9-4aad-85b3-9976739ba0e4"
      ],
      "songwriters": [
        "615358a2-f34c-43e9-94b1-f64400670128"
      ]
    },
    "titles": {
      "jpn": "秘密♡Melody",
      "qro": "Himitsu♡Melody"
    },
    "titles_default_language": "qro",
    "year": 2023
  }
}