{
  "header": {
    "version": 4,
    "description": "Karaoke Mugen Karaoke Data File"
  },
  "medias": [
    {
      "version": "Default",
      "filename": "JPN - Oshi no Ko - AUDIO IN - Sign wa B -New Arrange Ver.- ~ Full Vers.mp3",
      "audiogain": -10.76,
      "loudnorm": "-6.25,0.28,2.60,-16.31,-0.19",
      "filesize": 9055414,
      "duration": 224,
      "default": true,
      "lyrics": [
        {
          "filename": "JPN - Oshi no Ko - AUDIO IN - Sign wa B -New Arrange Ver.- ~ Full Vers.ass",
          "default": true,
          "version": "Default"
        }
      ]
    }
  ],
  "data": {
    "created_at": "2023-07-20T21:24:29.798Z",
    "ignoreHooks": false,
    "kid": "4b122e99-774b-410d-9505-f73bb92e2dbd",
    "modified_at": "2023-07-21T13:31:50.229Z",
    "parents": [
      "f159e145-b3a6-42d0-bcf3-247dea0b9a1a"
    ],
    "repository": "kara.moe",
    "tags": {
      "authors": [
        "795f4b22-38e3-4bb9-afc1-0b197150525f"
      ],
      "collections": [
        "c7db86a0-ff64-4044-9be4-66dd1ef1d1c1"
      ],
      "creators": [
        "cc52425c-a381-4a81-a4b9-ac0d5ccba5ab"
      ],
      "genres": [
        "caa86df2-0d59-474b-885c-f240a9e891b0"
      ],
      "groups": [
        "8e209ae4-4381-438f-89dc-1b21752027d2",
        "966d1e74-d1f2-41e2-ab04-24279c22f562"
      ],
      "langs": [
        "4dcf9614-7914-42aa-99f4-dbce2e059133"
      ],
      "origins": [
        "938de218-5343-4865-94d3-fb33f2eaa152"
      ],
      "series": [
        "2f23efae-dc36-4438-8e8d-66c0cd746cd0"
      ],
      "singers": [
        "127ee859-3f8d-4345-8ed8-05e9347ce7d0",
        "12da0cf0-214b-40ab-a860-8ba72d9c494d",
        "7ccfdae3-fdfb-4181-9cfd-0ea63201900a"
      ],
      "singergroups": [
        "e9d18df2-6893-483d-ab73-d7e1d4ca70e9"
      ],
      "songtypes": [
        "42a262ae-acba-4ab5-a446-c5789c96c821",
        "5e5250d9-351a-4a82-98eb-55db50ad8962"
      ],
      "songwriters": [
        "241521eb-f66d-48e6-9b58-2f957edddaff",
        "b531ddea-8318-4347-a511-cda312bf5182"
      ],
      "versions": [
        "c2143a7f-6970-450e-8a79-0302db9220a9"
      ]
    },
    "titles": {
      "jpn": "サインはB -New Arrange Ver.-",
      "qro": "Sign wa B -New Arrange Ver.-"
    },
    "titles_default_language": "qro",
    "year": 2023
  }
}