{
  "header": {
    "version": 4,
    "description": "Karaoke Mugen Karaoke Data File"
  },
  "medias": [
    {
      "version": "Default",
      "filename": "JPN - Link! Like! Love Live! - GAME OP - Dream Believers.mp4",
      "audiogain": -4.1,
      "loudnorm": "-13.14,-3.12,4.00,-23.27,-0.80",
      "filesize": 89644681,
      "duration": 136,
      "default": true,
      "lyrics": [
        {
          "filename": "JPN - Link! Like! Love Live! - GAME OP - Dream Believers.ass",
          "default": true,
          "version": "Default"
        }
      ]
    }
  ],
  "data": {
    "created_at": "2023-04-03T19:20:33.931Z",
    "ignoreHooks": false,
    "kid": "09988a3b-d603-41ec-b56c-b22446b0a4a8",
    "modified_at": "2023-04-03T19:55:29.807Z",
    "repository": "kara.moe",
    "tags": {
      "authors": [
        "449844e4-3a1f-46e1-8a92-bf72e2d1b6f1"
      ],
      "collections": [
        "c7db86a0-ff64-4044-9be4-66dd1ef1d1c1"
      ],
      "creators": [
        "b2805292-730e-473a-96f0-fd8e7ffd1fd7"
      ],
      "families": [
        "0377db02-3af6-43b8-9b08-c759df3d25c3"
      ],
      "genres": [
        "caa86df2-0d59-474b-885c-f240a9e891b0"
      ],
      "groups": [
        "8e209ae4-4381-438f-89dc-1b21752027d2"
      ],
      "langs": [
        "4dcf9614-7914-42aa-99f4-dbce2e059133"
      ],
      "misc": [
        "1d6ceadf-a885-47e5-b23b-c07bf668a424"
      ],
      "origins": [
        "dbedd6b3-d125-4cd8-aa32-c4175e4ca3a3"
      ],
      "series": [
        "c6245b47-6ad8-498a-b790-e6b8a50fea5e"
      ],
      "singers": [
        "17818c7e-96d1-49fa-963d-10736db97eaf",
        "1a912ff3-ff2f-4e8a-92de-d2adbb19d0b3",
        "1f0b407a-7bf9-457c-aabf-7d7297c75be2",
        "4e39a0e7-c012-4be9-a2c9-f09cf8d3a31b",
        "e3d01809-fae7-4e97-bff3-73e4fc204ef3",
        "f5569c82-f01f-4cdb-b1c2-a0db10706211"
      ],
      "singergroups": [
        "dac54d91-1b9b-4d49-843a-122b083d310d"
      ],
      "songtypes": [
        "f02ad9b3-0bd9-4aad-85b3-9976739ba0e4"
      ],
      "songwriters": [
        "5a90ba74-5e7c-4ccb-a054-a95cc78e8522",
        "d60fc66b-e684-4228-b80d-d5327935ef28",
        "f41e7218-6c19-4e19-9b5f-4612dcd58243"
      ],
      "franchises": [
        "fd5d066e-e85a-4eea-8688-2979a887450a"
      ]
    },
    "titles": {
      "eng": "Dream Believers"
    },
    "titles_default_language": "eng",
    "year": 2023
  }
}