{
  "header": {
    "version": 4,
    "description": "Karaoke Mugen Karaoke Data File"
  },
  "medias": [
    {
      "version": "Default",
      "filename": "JPN - Keyakizaka46 - MV - Glass wo Ware!.mp4",
      "audiogain": -10.84,
      "loudnorm": "-6.32,1.05,3.80,-16.50,-0.92",
      "filesize": 78307753,
      "duration": 228,
      "default": true,
      "lyrics": [
        {
          "filename": "JPN - Keyakizaka46 - MV - Glass wo Ware!.ass",
          "default": true,
          "version": "Default"
        }
      ]
    }
  ],
  "data": {
    "created_at": "2022-07-09T12:51:43.009Z",
    "ignoreHooks": false,
    "kid": "224dc090-e8c4-44d8-8e7a-30087c43676c",
    "modified_at": "2022-07-09T12:51:44.230Z",
    "repository": "kara.moe",
    "tags": {
      "authors": [
        "4d71ce82-eed1-4c44-ac85-5f7255f3dad3"
      ],
      "collections": [
        "dbcf2c22-524d-4708-99bb-601703633927"
      ],
      "creators": [
        "6fa9de67-21cf-420b-9ddb-57edb5abe523"
      ],
      "families": [
        "5391f9fe-638c-415f-8dc9-958e3a2c5787"
      ],
      "langs": [
        "4dcf9614-7914-42aa-99f4-dbce2e059133"
      ],
      "singers": [
        "937f5e6f-fe45-4aab-9df6-276625999118"
      ],
      "songtypes": [
        "7be1b15c-cff8-4b37-a649-5c90f3d569a9"
      ],
      "songwriters": [
        "4323212f-95b8-4092-940b-2337bf063c26",
        "af780346-6e8d-4c9f-8261-dbe7ed519309",
        "19045a57-4bc4-4c83-ad1c-3fa9a3b701b1"
      ],
      "groups": [
        "ae613721-1fbe-480d-ba6b-d6d0702b184d"
      ]
    },
    "titles": {
      "jpn": "ガラスを割れ!",
      "qro": "Glass wo Ware!"
    },
    "titles_default_language": "qro",
    "title": "Glass wo Ware!",
    "year": 2018
  }
}