{
  "header": {
    "version": 4,
    "description": "Karaoke Mugen Karaoke Data File"
  },
  "medias": [
    {
      "version": "Default",
      "filename": "JPN - Classroom Crisis - ED - Anemone.mp4",
      "audiogain": 2.69,
      "loudnorm": "-21.07,-10.34,7.50,-31.40,-1.37",
      "filesize": 27954231,
      "duration": 91,
      "default": true,
      "lyrics": [
        {
          "filename": "JPN - Classroom Crisis - ED - Anemone.ass",
          "default": true,
          "version": "Default",
          "subchecksum": "da240067b8fa38b07aadab67cdd6f284"
        }
      ]
    }
  ],
  "data": {
    "created_at": "2017-10-11T17:02:48.000Z",
    "kid": "28532a4d-c62b-430e-9fff-3e0da5059dd6",
    "modified_at": "2021-02-25T11:03:39.333Z",
    "repository": "kara.moe",
    "tags": {
      "authors": [
        "5bdaba57-27f8-4568-8806-76a807728766"
      ],
      "collections": [
        "c7db86a0-ff64-4044-9be4-66dd1ef1d1c1"
      ],
      "creators": [
        "4265e6a3-41bf-46ca-903a-b6e4551a901f"
      ],
      "families": [
        "0377db02-3af6-43b8-9b08-c759df3d25c3"
      ],
      "groups": [
        "9a8e0fbc-dcae-4989-be82-7cad3436f1f5",
        "ae613721-1fbe-480d-ba6b-d6d0702b184d"
      ],
      "langs": [
        "4dcf9614-7914-42aa-99f4-dbce2e059133"
      ],
      "origins": [
        "938de218-5343-4865-94d3-fb33f2eaa152"
      ],
      "series": [
        "ad36a9cc-4744-4b25-86bf-7bec709762e1"
      ],
      "singers": [
        "ff590105-5f65-4b1f-adf9-2cfb5b789428"
      ],
      "songtypes": [
        "38c77c56-2b95-4040-b676-0994a8cb0597"
      ],
      "songwriters": [
        "05f2c0ff-ffeb-4b8f-9e6c-e611b0d9cb9b"
      ]
    },
    "title": "Anemone",
    "titles": {
      "eng": "Anemone"
    },
    "year": 2015,
    "titles_default_language": "eng"
  }
}