{
  "header": {
    "version": 4,
    "description": "Karaoke Mugen Karaoke Data File"
  },
  "medias": [
    {
      "version": "Default",
      "filename": "JPN - Ajin (2016) - MV - Yoru wa Nemureru kai ~ Full Vers.mp4",
      "audiogain": -6.49,
      "loudnorm": "-10.21,0.50,5.60,-20.33,-1.30",
      "filesize": 140659787,
      "duration": 232,
      "default": true,
      "lyrics": [
        {
          "filename": "JPN - Ajin (2016) - MV - Yoru wa Nemureru kai ~ Full Vers.ass",
          "default": true,
          "version": "Default"
        }
      ]
    }
  ],
  "data": {
    "created_at": "2019-06-17T17:39:40.000Z",
    "kid": "71197448-3496-4a64-a4c0-895dcd802413",
    "modified_at": "2022-06-04T00:24:34.463Z",
    "parents": [
      "50520621-d684-4b02-8495-758bb8a1b482"
    ],
    "repository": "kara.moe",
    "songorder": null,
    "tags": {
      "authors": [
        "1502f6a0-6ae2-4c74-926f-4aa0b8f1e110"
      ],
      "creators": [
        "6b7472ff-6bb9-4420-8a59-a322b9677779"
      ],
      "families": [
        "5391f9fe-638c-415f-8dc9-958e3a2c5787"
      ],
      "groups": [
        "2b4e9972-5e17-481b-99f5-d0787c0ada56",
        "ae613721-1fbe-480d-ba6b-d6d0702b184d"
      ],
      "langs": [
        "4dcf9614-7914-42aa-99f4-dbce2e059133"
      ],
      "series": [
        "ce3cbe3c-b6ef-419b-9c8f-8be5470046a0"
      ],
      "singers": [
        "6c1b58ed-075a-472a-9ac0-58966e6c9e42"
      ],
      "songtypes": [
        "7be1b15c-cff8-4b37-a649-5c90f3d569a9"
      ],
      "songwriters": [
        "5ea8c5fd-06b3-4dfa-9281-3a4f5ad1a3c2",
        "e2b90d87-7794-4901-9d14-5ef61fc14a10"
      ],
      "versions": [
        "c2143a7f-6970-450e-8a79-0302db9220a9"
      ],
      "collections": [
        "dbcf2c22-524d-4708-99bb-601703633927"
      ],
      "franchises": [
        "253f8dfb-cf9a-4d52-aacc-c575ac2af94a"
      ]
    },
    "titles": {
      "qro": "Yoru wa Nemurerukai?",
      "jpn": "夜は眠れるかい?"
    },
    "titles_default_language": "qro",
    "title": "Yoru wa Nemureru kai",
    "year": 2016
  }
}