{
  "header": {
    "version": 4,
    "description": "Karaoke Mugen Karaoke Data File"
  },
  "medias": [
    {
      "version": "Default",
      "filename": "JPN - Touhou - AUDIO - Koishi-chan to amama ni sugosu juu no houhou.mp3",
      "audiogain": -7.58,
      "loudnorm": "-8.91,-1.46,2.30,-19.15,-0.07",
      "filesize": 3998243,
      "duration": 63,
      "default": true,
      "lyrics": [
        {
          "filename": "JPN - Touhou - AUDIO - Koishi-chan to amama ni sugosu juu no houhou.ass",
          "default": true,
          "version": "Default"
        }
      ]
    }
  ],
  "data": {
    "comment": "Sankyuu.",
    "created_at": "2021-08-31T19:41:05.747Z",
    "ignoreHooks": false,
    "kid": "93268169-d4f5-428a-b38f-b90f6c8aabe0",
    "modified_at": "2022-12-24T22:57:56.887Z",
    "repository": "kara.moe",
    "tags": {
      "authors": [
        "fb28c6d3-a81e-40c0-9a4c-e3268c60a64b"
      ],
      "collections": [
        "2fa2fe3f-bb56-45ee-aa38-eae60e76f224"
      ],
      "creators": [
        "ad4c9a45-6385-48ff-9468-1a056c486239"
      ],
      "groups": [
        "3c14c864-533c-49e6-a3cc-6969f1233775"
      ],
      "langs": [
        "4dcf9614-7914-42aa-99f4-dbce2e059133"
      ],
      "misc": [
        "cef35a27-3bf0-48c9-beb2-d245ba62ea6b"
      ],
      "origins": [
        "ac5085db-52d8-44b4-8fbb-1697b24d2046"
      ],
      "series": [
        "1bdaa5a1-dfa6-4365-b746-7a0b194dafd6"
      ],
      "singers": [
        "ad4c9a45-6385-48ff-9468-1a056c486239"
      ],
      "songtypes": [
        "42a262ae-acba-4ab5-a446-c5789c96c821"
      ],
      "songwriters": [
        "26cb5252-8510-49e0-897c-a611a05fc056",
        "ad4c9a45-6385-48ff-9468-1a056c486239"
      ],
      "franchises": [
        "1bdaa5a1-dfa6-4365-b746-7a0b194dafd6"
      ]
    },
    "titles": {
      "jpn": "こいしちゃんと甘々に過ごす十の方法",
      "qro": "Koishi-chan to amâma ni sugosu jû no hôhô"
    },
    "titles_default_language": "qro",
    "titles_aliases": [
      "Going Through the Ten Ways in Which Koishi is Properly Sweet",
      "amaama",
      "juu",
      "houhou"
    ],
    "year": 2009
  }
}