{
  "header": {
    "version": 4,
    "description": "Karaoke Mugen Karaoke Data File"
  },
  "medias": [
    {
      "version": "Ren.",
      "filename": "JPN - Love Live! Superstar!! - ED - Mirai wa Kaze no You ni ~ Ren Vers.mp4",
      "loudnorm": "-15.41,-6.27,5.10,-25.75,-0.47",
      "filesize": 33723150,
      "duration": 101,
      "default": true,
      "lyrics": [
        {
          "filename": "JPN - Love Live! Superstar!! - ED - Mirai wa Kaze no You ni ~ Ren Vers.ass",
          "default": true,
          "version": "Default"
        }
      ]
    }
  ],
  "data": {
    "comment": "seule Ren chante dans cette version",
    "created_at": "2022-02-14T00:58:18.863Z",
    "ignoreHooks": false,
    "kid": "f90dad9c-59d4-4caa-a684-45540ba8b85b",
    "modified_at": "2023-09-25T16:56:08.395Z",
    "repository": "kara.moe",
    "tags": {
      "authors": [
        "da677ad5-b5dd-4ab9-a1fe-5461e36338a2"
      ],
      "collections": [
        "c7db86a0-ff64-4044-9be4-66dd1ef1d1c1"
      ],
      "creators": [
        "ef8f80e1-d244-4aea-b7f0-984d6dd4b82b"
      ],
      "families": [
        "0377db02-3af6-43b8-9b08-c759df3d25c3"
      ],
      "genres": [
        "caa86df2-0d59-474b-885c-f240a9e891b0"
      ],
      "groups": [
        "8e209ae4-4381-438f-89dc-1b21752027d2"
      ],
      "langs": [
        "4dcf9614-7914-42aa-99f4-dbce2e059133"
      ],
      "origins": [
        "938de218-5343-4865-94d3-fb33f2eaa152"
      ],
      "series": [
        "ed46191b-997b-4c2d-8088-bb30a5e6d4ca"
      ],
      "singers": [
        "4a1c9511-daa2-4172-9367-5afb3312234e"
      ],
      "songtypes": [
        "38c77c56-2b95-4040-b676-0994a8cb0597"
      ],
      "songwriters": [
        "21db1826-ce89-42a8-8fda-a9753576f238",
        "c6f679b1-a1e8-4ab2-80fa-5edf792440ce",
        "f41e7218-6c19-4e19-9b5f-4612dcd58243"
      ],
      "franchises": [
        "fd5d066e-e85a-4eea-8688-2979a887450a"
      ]
    },
    "titles": {
      "jpn": "未来は風のように ~ Ren Vers.",
      "qro": "Mirai wa Kaze no You ni ~ Ren Vers."
    },
    "titles_default_language": "qro",
    "year": 2021
  }
}