{
  "header": {
    "version": 4,
    "description": "Karaoke Mugen Karaoke Data File"
  },
  "medias": [
    {
      "version": "Default",
      "filename": "JPN - Lucky Star - ED17 - Kaorin no Theme.mp4",
      "audiogain": 1.45,
      "loudnorm": "-19.89,-5.16,3.90,-29.96,0.02",
      "filesize": 38897351,
      "duration": 90,
      "default": true,
      "lyrics": [
        {
          "filename": "JPN - Lucky Star - ED17 - Kaorin no Theme.ass",
          "default": true,
          "version": "Default",
          "subchecksum": "27ec222f8020408194c84fcf03fd140a"
        }
      ]
    }
  ],
  "data": {
    "created_at": "2017-10-11T17:02:28.000Z",
    "kid": "08b99249-b693-40dc-bfd0-9105935040f8",
    "modified_at": "2021-02-25T12:14:52.994Z",
    "repository": "kara.moe",
    "songorder": 17,
    "tags": {
      "authors": [
        "28052415-69de-4ed5-aeab-1bbb99b8c4b2"
      ],
      "collections": [
        "c7db86a0-ff64-4044-9be4-66dd1ef1d1c1"
      ],
      "creators": [
        "d93786af-5098-49b2-9928-37edfb3d0322"
      ],
      "families": [
        "0377db02-3af6-43b8-9b08-c759df3d25c3"
      ],
      "groups": [
        "3c14c864-533c-49e6-a3cc-6969f1233775"
      ],
      "langs": [
        "4dcf9614-7914-42aa-99f4-dbce2e059133"
      ],
      "origins": [
        "938de218-5343-4865-94d3-fb33f2eaa152"
      ],
      "series": [
        "010a52bf-ce74-42be-b259-d167d72d2ea8"
      ],
      "singers": [
        "e0cff347-f5d1-4b0b-835f-f238bed63716"
      ],
      "songtypes": [
        "38c77c56-2b95-4040-b676-0994a8cb0597"
      ],
      "songwriters": [
        "e0cff347-f5d1-4b0b-835f-f238bed63716"
      ],
      "franchises": [
        "010a52bf-ce74-42be-b259-d167d72d2ea8"
      ]
    },
    "title": "Kaorin no Theme",
    "titles": {
      "qro": "Kaorin no Theme",
      "jpn": "かおりんのテーマ"
    },
    "year": 2007,
    "titles_default_language": "qro"
  }
}