{
  "header": {
    "version": 4,
    "description": "Karaoke Mugen Karaoke Data File"
  },
  "medias": [
    {
      "version": "Default",
      "filename": "JPN - BanG Dream! Girls Band Party - GAME AUDIO - Migikata no Chou ~ Cover Full Vers.mp3",
      "audiogain": -9.41,
      "loudnorm": "-6.73,2.06,2.30,-16.78,-0.48",
      "filesize": 3666113,
      "duration": 276,
      "default": true,
      "lyrics": [
        {
          "filename": "JPN - BanG Dream! Girls Band Party - GAME AUDIO - Migikata no Chou ~ Cover Full Vers.ass",
          "default": true,
          "version": "Default"
        }
      ]
    }
  ],
  "data": {
    "created_at": "2023-03-24T16:25:51.970Z",
    "ignoreHooks": false,
    "kid": "0dff487c-820f-4e1d-8735-781b4bfad58d",
    "modified_at": "2023-03-29T15:57:13.518Z",
    "parents": [
      "2b81cdda-891b-47af-b50e-0062a37f0311"
    ],
    "repository": "kara.moe",
    "tags": {
      "authors": [
        "a3a99b23-6c42-4d38-8863-491153187437"
      ],
      "collections": [
        "c7db86a0-ff64-4044-9be4-66dd1ef1d1c1"
      ],
      "creators": [
        "bd4564a8-44e5-454a-9c57-bd2a3c8a537e",
        "f829a95c-bda4-40bb-8528-910acd5ff2c0"
      ],
      "families": [
        "0377db02-3af6-43b8-9b08-c759df3d25c3"
      ],
      "genres": [
        "45623cae-6d68-4304-a49b-896d1d6f4580"
      ],
      "groups": [
        "8e209ae4-4381-438f-89dc-1b21752027d2"
      ],
      "langs": [
        "4dcf9614-7914-42aa-99f4-dbce2e059133"
      ],
      "origins": [
        "dbedd6b3-d125-4cd8-aa32-c4175e4ca3a3"
      ],
      "platforms": [
        "213a1a15-e73a-4a08-b3f6-b6e2745a82e5"
      ],
      "series": [
        "c33cb766-6922-4340-8524-29bf7eca0fc1"
      ],
      "singers": [
        "371f95d8-5385-4728-8dbb-0cd3e5892ce4"
      ],
      "singergroups": [
        "0ac6c8a1-05d4-4e2b-af50-ed40a9a59e7a"
      ],
      "songtypes": [
        "42a262ae-acba-4ab5-a446-c5789c96c821"
      ],
      "songwriters": [
        "07d192ba-bd58-4f44-8014-0cd5fb3fbffa",
        "865e5270-3622-40db-a0f3-d493efec7c51",
        "b57bca46-3fed-4181-8291-e1fe3a286045"
      ],
      "versions": [
        "03e1e1d2-8641-47b7-bbcb-39a3df9ff21c",
        "c2143a7f-6970-450e-8a79-0302db9220a9"
      ],
      "franchises": [
        "a65e956d-39ab-4995-9ede-889c30a5cbf0"
      ]
    },
    "titles": {
      "eng": "Butterfly on your Right Shoulder",
      "jpn": "右肩の蝶",
      "kor": "오른 어깨위의 나비",
      "qro": "Migikata no Chou"
    },
    "titles_default_language": "qro",
    "titles_aliases": [
      "Butterfly of the Right Shoulder",
      "Oreun Eokkaewiui Nabi"
    ],
    "year": 2020
  }
}