{
  "header": {
    "version": 4,
    "description": "Karaoke Mugen Karaoke Data File"
  },
  "medias": [
    {
      "version": "Default",
      "filename": "JPN - ASIAN KUNG-FU GENERATION - MV - Jihei Tansaku.mp4",
      "audiogain": -9.31,
      "loudnorm": "-6.86,1.39,2.50,-16.99,-0.69",
      "filesize": 29943046,
      "duration": 210,
      "default": true,
      "lyrics": [
        {
          "filename": "JPN - ASIAN KUNG-FU GENERATION - MV - Jihei Tansaku.ass",
          "default": true,
          "version": "Default"
        }
      ]
    }
  ],
  "data": {
    "created_at": "2020-05-10T22:18:24.602Z",
    "kid": "99b27643-1ad2-4606-bcb8-685646883d0f",
    "modified_at": "2022-06-04T00:20:20.049Z",
    "repository": "kara.moe",
    "songorder": null,
    "tags": {
      "authors": [
        "1c9f3b53-973d-419e-9e29-9067c9896139"
      ],
      "creators": [
        "6df34030-d5ec-4480-a1c2-20103a7c0b63"
      ],
      "families": [
        "5391f9fe-638c-415f-8dc9-958e3a2c5787"
      ],
      "groups": [
        "60defa7b-774e-4680-8321-51b742c2e009",
        "ae613721-1fbe-480d-ba6b-d6d0702b184d"
      ],
      "langs": [
        "4dcf9614-7914-42aa-99f4-dbce2e059133"
      ],
      "singers": [
        "6d7243f4-797e-40a2-980d-1fc467d456d8"
      ],
      "songtypes": [
        "7be1b15c-cff8-4b37-a649-5c90f3d569a9"
      ],
      "songwriters": [
        "8bede077-b96f-415c-8057-552e236fe01a"
      ],
      "collections": [
        "dbcf2c22-524d-4708-99bb-601703633927"
      ]
    },
    "titles": {
      "qro": "Jihei Tansaku",
      "jpn": "自閉探索"
    },
    "titles_default_language": "qro",
    "title": "Jihei Tansaku",
    "year": 2012
  }
}