{
  "header": {
    "version": 4,
    "description": "Karaoke Mugen Karaoke Data File"
  },
  "medias": [
    {
      "version": "Default",
      "filename": "JPN - Ai Otsuka - AUDIO - U-Boat.mp3",
      "audiogain": -9.11,
      "loudnorm": "-6.88,0.56,2.20,-16.90,-0.62",
      "filesize": 7036935,
      "duration": 282,
      "default": true,
      "lyrics": [
        {
          "filename": "JPN - Ai Otsuka - AUDIO - U-Boat.ass",
          "default": true,
          "version": "Default"
        }
      ]
    }
  ],
  "data": {
    "created_at": "2023-06-23T03:18:52.130Z",
    "ignoreHooks": false,
    "kid": "623bfe6d-8acc-4b60-b5c6-22f705b57479",
    "modified_at": "2023-06-23T03:18:52.212Z",
    "repository": "kara.moe",
    "tags": {
      "authors": [
        "1db1738f-acdc-42fc-aec3-60f4bddf660d"
      ],
      "collections": [
        "dbcf2c22-524d-4708-99bb-601703633927"
      ],
      "creators": [
        "90caf15e-bc86-46e1-8793-9af7906c8310"
      ],
      "langs": [
        "4dcf9614-7914-42aa-99f4-dbce2e059133"
      ],
      "singers": [
        "7527572f-940e-471e-ad41-91600900baec"
      ],
      "songtypes": [
        "42a262ae-acba-4ab5-a446-c5789c96c821"
      ],
      "songwriters": [
        "7527572f-940e-471e-ad41-91600900baec",
        "fe960be2-0662-45d4-91a5-feaa93583a71"
      ],
      "groups": [
        "3c14c864-533c-49e6-a3cc-6969f1233775"
      ]
    },
    "titles": {
      "jpn": "U-ボート",
      "qro": "U-Boat"
    },
    "titles_default_language": "qro",
    "year": 2005
  }
}