{
  "header": {
    "version": 4,
    "description": "Karaoke Mugen Karaoke Data File"
  },
  "medias": [
    {
      "version": "Default",
      "filename": "JPN - Love Live! Sunshine!! - AUDIO CS - Ao no AURORA ~ Full Vers.mp3",
      "loudnorm": "-9.11,1.53,6.60,-19.16,-0.95",
      "filesize": 4163321,
      "duration": 245,
      "default": true,
      "lyrics": [
        {
          "filename": "JPN - Love Live! Sunshine!! - AUDIO CS - Ao no AURORA ~ Full Vers.ass",
          "default": true,
          "version": "Default"
        }
      ]
    }
  ],
  "data": {
    "created_at": "2023-09-11T20:13:09.536Z",
    "ignoreHooks": false,
    "kid": "44f81d04-629e-4b78-83f6-23fce0b07169",
    "modified_at": "2023-09-11T20:22:39.322Z",
    "repository": "kara.moe",
    "tags": {
      "authors": [
        "065907f6-055d-41ba-b83b-d92f99d8fec9"
      ],
      "collections": [
        "dbcf2c22-524d-4708-99bb-601703633927"
      ],
      "creators": [
        "b2805292-730e-473a-96f0-fd8e7ffd1fd7"
      ],
      "genres": [
        "caa86df2-0d59-474b-885c-f240a9e891b0"
      ],
      "groups": [
        "8e209ae4-4381-438f-89dc-1b21752027d2"
      ],
      "langs": [
        "4dcf9614-7914-42aa-99f4-dbce2e059133"
      ],
      "series": [
        "63466536-1102-4f91-b167-4380d274e2a3"
      ],
      "singers": [
        "18b9be9d-c627-47d1-ab88-56201f59a609"
      ],
      "singergroups": [
        "b34161c7-a60d-4f1a-8436-11abc0875436"
      ],
      "songtypes": [
        "42a262ae-acba-4ab5-a446-c5789c96c821",
        "a8a2616c-b5a1-4df3-ad6f-89291bc67dee"
      ],
      "songwriters": [
        "f2955e31-9340-46e8-b322-07fc3a86cb00"
      ],
      "versions": [
        "c2143a7f-6970-450e-8a79-0302db9220a9"
      ],
      "franchises": [
        "fd5d066e-e85a-4eea-8688-2979a887450a"
      ]
    },
    "titles": {
      "jpn": "海空のオーロラ",
      "qro": "Ao no AURORA"
    },
    "titles_default_language": "qro",
    "titles_aliases": [
      "Aurora"
    ],
    "year": 2023
  }
}