{
  "header": {
    "version": 4,
    "description": "Karaoke Mugen Karaoke Data File"
  },
  "medias": [
    {
      "version": "Default",
      "filename": "JPN - Touhou - MV - Kanzen Hanzai BANG! ~ Off Vocal Vers.mp4",
      "audiogain": -7.61,
      "loudnorm": "-8.66,1.01,2.60,-18.69,-0.51",
      "filesize": 87836010,
      "duration": 225,
      "default": true,
      "lyrics": [
        {
          "filename": "JPN - Touhou - MV - Kanzen Hanzai BANG! ~ Off Vocal Vers.ass",
          "default": true,
          "version": "Default"
        }
      ]
    }
  ],
  "data": {
    "created_at": "2022-04-12T22:17:47.285Z",
    "ignoreHooks": false,
    "kid": "692745ab-dcad-43a0-a94e-ea774079b47e",
    "modified_at": "2022-04-12T22:17:50.674Z",
    "parents": [
      "f6e395e4-ff92-485f-9bcd-d26d520bebc2"
    ],
    "repository": "kara.moe",
    "tags": {
      "authors": [
        "9cdf3b70-3550-457c-bdb9-038f3253c6ad"
      ],
      "collections": [
        "c7db86a0-ff64-4044-9be4-66dd1ef1d1c1"
      ],
      "creators": [
        "be87985d-c332-46bf-b207-4830e44ff1ce"
      ],
      "families": [
        "0377db02-3af6-43b8-9b08-c759df3d25c3"
      ],
      "groups": [
        "ae613721-1fbe-480d-ba6b-d6d0702b184d"
      ],
      "langs": [
        "4dcf9614-7914-42aa-99f4-dbce2e059133"
      ],
      "origins": [
        "ac5085db-52d8-44b4-8fbb-1697b24d2046"
      ],
      "series": [
        "1bdaa5a1-dfa6-4365-b746-7a0b194dafd6"
      ],
      "singers": [
        "cf6d7c36-312d-4167-bdf3-e6e8e6d75be1"
      ],
      "songtypes": [
        "7be1b15c-cff8-4b37-a649-5c90f3d569a9"
      ],
      "songwriters": [
        "cf6d7c36-312d-4167-bdf3-e6e8e6d75be1"
      ],
      "versions": [
        "c0cc87b9-55b9-40f0-878a-fbb9e34c151e"
      ],
      "franchises": [
        "1bdaa5a1-dfa6-4365-b746-7a0b194dafd6"
      ]
    },
    "titles": {
      "qro": "Kanzen Hanzai ⑥⑥BANG!",
      "jpn": "完全犯罪⑥⑥BANG!"
    },
    "titles_default_language": "qro",
    "titles_aliases": [
      "(6) (6) Bang",
      "66Bang",
      "(6)(6)Bang",
      "Perfect Crime",
      "Rock",
      "Roku"
    ],
    "title": "Kanzen Hanzai ⑥⑥BANG!",
    "year": 2017
  }
}