{
  "header": {
    "version": 4,
    "description": "Karaoke Mugen Karaoke Data File"
  },
  "medias": [
    {
      "version": "Default",
      "filename": "JPN - Kono Subarashii Sekai ni Bakuen wo! - ED - JUMP IN.mp4",
      "audiogain": 6.39,
      "loudnorm": "-23.25,-11.68,3.80,-33.54,-0.54",
      "filesize": 49904438,
      "duration": 90,
      "default": true,
      "lyrics": [
        {
          "filename": "JPN - Kono Subarashii Sekai ni Bakuen wo! - ED - JUMP IN.ass",
          "default": true,
          "version": "Default"
        }
      ]
    }
  ],
  "data": {
    "created_at": "2023-06-12T21:57:02.606Z",
    "ignoreHooks": false,
    "kid": "bf03f626-2376-4ebb-a27f-180c2f7e77dc",
    "modified_at": "2023-06-12T22:17:17.374Z",
    "repository": "kara.moe",
    "tags": {
      "authors": [
        "9cdf3b70-3550-457c-bdb9-038f3253c6ad"
      ],
      "collections": [
        "c7db86a0-ff64-4044-9be4-66dd1ef1d1c1"
      ],
      "creators": [
        "f4e4afb2-befa-4d3c-850f-96bb44f25cf9"
      ],
      "families": [
        "0377db02-3af6-43b8-9b08-c759df3d25c3"
      ],
      "groups": [
        "8e209ae4-4381-438f-89dc-1b21752027d2"
      ],
      "langs": [
        "4dcf9614-7914-42aa-99f4-dbce2e059133"
      ],
      "misc": [
        "1d6ceadf-a885-47e5-b23b-c07bf668a424"
      ],
      "origins": [
        "938de218-5343-4865-94d3-fb33f2eaa152"
      ],
      "series": [
        "03ff93c6-3d40-4a95-90d1-6587940edcfb"
      ],
      "singers": [
        "a0ac6bca-c73a-49d9-956f-3378f1d6fe8c",
        "e57f782d-e2ef-4248-ba60-4627cb31f522"
      ],
      "songtypes": [
        "38c77c56-2b95-4040-b676-0994a8cb0597"
      ],
      "songwriters": [
        "082799a7-5cda-4ed5-80ed-b65a9e039d7b",
        "d8cb731d-5218-46e7-a76e-c1c49d8243fc"
      ],
      "franchises": [
        "ceff44d0-4781-4f13-a43b-c84ddb017294"
      ]
    },
    "titles": {
      "eng": "JUMP IN"
    },
    "titles_default_language": "eng",
    "year": 2023
  }
}