{
  "header": {
    "version": 4,
    "description": "Karaoke Mugen Karaoke Data File"
  },
  "medias": [
    {
      "version": "Default",
      "filename": "JPN - Love Live! Sunshine!! - OP - Aozora Jumping Heart.mp4",
      "audiogain": -1.58,
      "loudnorm": "-15.97,-9.62,3.20,-26.10,-0.35",
      "filesize": 65160730,
      "duration": 92,
      "default": true,
      "lyrics": [
        {
          "filename": "JPN - Love Live! Sunshine!! - OP - Aozora Jumping Heart.ass",
          "default": true,
          "version": "Default"
        }
      ]
    }
  ],
  "data": {
    "created_at": "2018-05-08T17:44:46.000Z",
    "ignoreHooks": false,
    "kid": "4dcbd6fe-fd6d-4e7c-9e33-8632a1cb16b9",
    "modified_at": "2023-02-06T21:29:37.965Z",
    "repository": "kara.moe",
    "tags": {
      "authors": [
        "583e5531-426e-4d73-9aab-9cac10efb432"
      ],
      "collections": [
        "c7db86a0-ff64-4044-9be4-66dd1ef1d1c1"
      ],
      "creators": [
        "ef8f80e1-d244-4aea-b7f0-984d6dd4b82b"
      ],
      "families": [
        "0377db02-3af6-43b8-9b08-c759df3d25c3"
      ],
      "genres": [
        "caa86df2-0d59-474b-885c-f240a9e891b0"
      ],
      "groups": [
        "ae613721-1fbe-480d-ba6b-d6d0702b184d"
      ],
      "langs": [
        "4dcf9614-7914-42aa-99f4-dbce2e059133"
      ],
      "misc": [
        "fe819ff1-9db8-4a0f-85dc-0e322c9126c4"
      ],
      "origins": [
        "938de218-5343-4865-94d3-fb33f2eaa152"
      ],
      "series": [
        "63466536-1102-4f91-b167-4380d274e2a3"
      ],
      "singergroups": [
        "b34161c7-a60d-4f1a-8436-11abc0875436"
      ],
      "songtypes": [
        "f02ad9b3-0bd9-4aad-85b3-9976739ba0e4"
      ],
      "songwriters": [
        "0641a745-f1d3-4003-9f76-4ccc472fddad",
        "445d6e5a-3503-4837-8830-d54f911e77c4",
        "f41e7218-6c19-4e19-9b5f-4612dcd58243"
      ],
      "franchises": [
        "fd5d066e-e85a-4eea-8688-2979a887450a"
      ]
    },
    "titles": {
      "jpn": "青空Jumping Heart",
      "qro": "Aozora Jumping Heart"
    },
    "titles_default_language": "qro",
    "year": 2016
  }
}