{
  "header": {
    "version": 4,
    "description": "Karaoke Mugen Karaoke Data File"
  },
  "medias": [
    {
      "version": "Default",
      "filename": "JPN - Senki Zesshou Symphogear GX - AUDIO IN - Senkin Dur da Bla ~ Full Vers.mp3",
      "audiogain": -6.47,
      "loudnorm": "-11.36,-2.96,3.70,-21.41,-0.23",
      "filesize": 11672578,
      "duration": 283,
      "default": true,
      "lyrics": [
        {
          "filename": "JPN - Senki Zesshou Symphogear GX - AUDIO IN - Senkin Dur da Bla ~ Full Vers.ass",
          "default": true,
          "version": "Default"
        }
      ]
    }
  ],
  "data": {
    "created_at": "2022-12-27T21:49:19.252Z",
    "ignoreHooks": false,
    "kid": "bbcb9ddf-0133-4b02-9a2f-f9d116df7930",
    "modified_at": "2022-12-27T22:03:39.142Z",
    "repository": "kara.moe",
    "tags": {
      "authors": [
        "87096920-112f-485f-a310-04156cb4624d"
      ],
      "collections": [
        "c7db86a0-ff64-4044-9be4-66dd1ef1d1c1"
      ],
      "creators": [
        "d2a29c19-019f-4a3d-86ad-2dae9e41a4b1",
        "0041fabf-4b82-4ecd-961b-e4c49b8c88be"
      ],
      "genres": [
        "b84e28f9-db1e-447f-b339-7954c3592523",
        "caa86df2-0d59-474b-885c-f240a9e891b0"
      ],
      "groups": [
        "60defa7b-774e-4680-8321-51b742c2e009",
        "ae613721-1fbe-480d-ba6b-d6d0702b184d"
      ],
      "langs": [
        "4dcf9614-7914-42aa-99f4-dbce2e059133"
      ],
      "origins": [
        "938de218-5343-4865-94d3-fb33f2eaa152"
      ],
      "series": [
        "86627e91-4551-4e88-899b-2cb017e853e0"
      ],
      "singers": [
        "7e153b87-dd5f-4ce1-b187-9941ca95ce3e"
      ],
      "songtypes": [
        "42a262ae-acba-4ab5-a446-c5789c96c821",
        "5e5250d9-351a-4a82-98eb-55db50ad8962"
      ],
      "songwriters": [
        "5d1704bf-c5e0-4295-b1a4-f74d6afe89e8",
        "af3ffe51-8059-461c-bbb8-78ea388731f3"
      ],
      "versions": [
        "c2143a7f-6970-450e-8a79-0302db9220a9"
      ],
      "franchises": [
        "61b24082-a6a9-482b-b126-0ad7be595791"
      ]
    },
    "titles": {
      "jpn": "殲琴・ダウルダブラ",
      "qro": "Senkin Dur da Blá"
    },
    "titles_default_language": "qro",
    "year": 2015
  }
}