{
  "header": {
    "version": 4,
    "description": "Karaoke Mugen Karaoke Data File"
  },
  "medias": [
    {
      "version": "Default",
      "filename": "JPN - Aldnoah.Zero - MV - A Z ~ Full Off Vocal Vers.mp4",
      "audiogain": -6.59,
      "loudnorm": "-10.39,1.82,9.00,-20.69,-1.66",
      "filesize": 52823884,
      "duration": 317,
      "default": true,
      "lyrics": [
        {
          "filename": "JPN - Aldnoah.Zero - MV - A Z ~ Full Off Vocal Vers.ass",
          "default": true,
          "version": "Default"
        }
      ]
    }
  ],
  "data": {
    "created_at": "2023-06-03T14:44:24.181Z",
    "ignoreHooks": false,
    "kid": "5298c9c3-289d-43b5-8338-d1b49b9ce4ca",
    "modified_at": "2023-06-03T14:59:12.760Z",
    "parents": [
      "fb4f82d0-e416-45aa-aa01-8e4ec4a2e4c4"
    ],
    "repository": "kara.moe",
    "tags": {
      "authors": [
        "8605a8b9-3b45-44b9-9d98-1a25096bf702"
      ],
      "collections": [
        "dbcf2c22-524d-4708-99bb-601703633927"
      ],
      "creators": [
        "6fa9de67-21cf-420b-9ddb-57edb5abe523"
      ],
      "families": [
        "5391f9fe-638c-415f-8dc9-958e3a2c5787"
      ],
      "genres": [
        "f60ba57d-5ef4-49e0-b93b-d0dcbcff6592"
      ],
      "groups": [
        "ae613721-1fbe-480d-ba6b-d6d0702b184d"
      ],
      "langs": [
        "4dcf9614-7914-42aa-99f4-dbce2e059133"
      ],
      "misc": [
        "86705d4b-24e4-4756-9687-2b9c98bcf366"
      ],
      "series": [
        "a30691d4-41a8-4b3c-a4e3-29d89ebd0948"
      ],
      "singers": [
        "860997b6-f748-4703-8625-bae1052e1158"
      ],
      "songtypes": [
        "7be1b15c-cff8-4b37-a649-5c90f3d569a9"
      ],
      "songwriters": [
        "59621685-8dc1-4ce1-93b3-cf6c11dda3aa"
      ],
      "versions": [
        "c0cc87b9-55b9-40f0-878a-fbb9e34c151e",
        "c2143a7f-6970-450e-8a79-0302db9220a9"
      ]
    },
    "titles": {
      "eng": "A/Z"
    },
    "titles_default_language": "eng",
    "year": 2014
  }
}