{
  "header": {
    "version": 4,
    "description": "Karaoke Mugen Karaoke Data File"
  },
  "medias": [
    {
      "version": "Default",
      "filename": "JPN - Kimi ga Nozomu Eien ~ Ayu Mayu Gekijou - ED - Koi no Bakudan Date.mp4",
      "audiogain": -5.32,
      "loudnorm": "-12.21,-0.26,1.60,-22.29,0.06",
      "filesize": 19252555,
      "duration": 88,
      "default": true,
      "lyrics": [
        {
          "filename": "JPN - Kimi ga Nozomu Eien ~ Ayu Mayu Gekijou - ED - Koi no Bakudan Date.ass",
          "default": true,
          "version": "Default",
          "subchecksum": "02caa1f3e6bed7a8828657eee956fe21"
        }
      ]
    }
  ],
  "data": {
    "created_at": "2017-10-11T17:02:15.000Z",
    "kid": "f1840ab6-26ba-4c5e-b2ca-34aac1691823",
    "modified_at": "2021-02-25T12:01:53.780Z",
    "repository": "kara.moe",
    "tags": {
      "authors": [
        "1b2f4ffc-ba49-4646-9eab-d19abe7e4081"
      ],
      "collections": [
        "c7db86a0-ff64-4044-9be4-66dd1ef1d1c1"
      ],
      "creators": [
        "9cba136b-aa28-4bc1-bf57-2e51df526a35"
      ],
      "families": [
        "0377db02-3af6-43b8-9b08-c759df3d25c3"
      ],
      "groups": [
        "3c14c864-533c-49e6-a3cc-6969f1233775",
        "8c22c899-b3ed-42da-a548-ce00f950798b"
      ],
      "langs": [
        "4dcf9614-7914-42aa-99f4-dbce2e059133"
      ],
      "origins": [
        "938de218-5343-4865-94d3-fb33f2eaa152"
      ],
      "series": [
        "69d2989c-feef-4f60-9cd0-8b05239ca95a"
      ],
      "singers": [
        "552745c5-f9fa-4fee-afc7-c8f21412a483"
      ],
      "songtypes": [
        "38c77c56-2b95-4040-b676-0994a8cb0597"
      ],
      "songwriters": [
        "f41e7218-6c19-4e19-9b5f-4612dcd58243"
      ],
      "franchises": [
        "e9f64e46-1496-4399-9787-66a0ed3c6a4a"
      ]
    },
    "title": "Koi no Bakudan Date",
    "titles": {
      "qro": "Koi no Bakudan De Ito",
      "jpn": "恋の爆弾でいと"
    },
    "year": 2006,
    "titles_default_language": "qro"
  }
}