{
  "header": {
    "version": 4,
    "description": "Karaoke Mugen Karaoke Data File"
  },
  "medias": [
    {
      "version": "Default",
      "filename": "JPN - Seiyou Kottou Yougashiten Antique - AUDIO OP - Life goes on~side K~ ~ Full Off Vocal Vers.mp3",
      "audiogain": -10.8,
      "loudnorm": "-5.75,1.31,3.50,-15.77,-0.89",
      "filesize": 9357700,
      "duration": 230,
      "default": true,
      "lyrics": [
        {
          "filename": "JPN - Seiyou Kottou Yougashiten Antique - AUDIO OP - Life goes on~side K~ ~ Full Off Vocal Vers.ass",
          "default": true,
          "version": "Default"
        }
      ]
    }
  ],
  "data": {
    "created_at": "2023-06-23T04:06:17.438Z",
    "ignoreHooks": false,
    "kid": "83c0f692-4eea-4087-8a8d-33caf78bee84",
    "modified_at": "2023-06-23T12:38:24.846Z",
    "parents": [
      "22cd877c-c1df-4549-aa9b-6055ad7be21c"
    ],
    "repository": "kara.moe",
    "tags": {
      "authors": [
        "1db1738f-acdc-42fc-aec3-60f4bddf660d"
      ],
      "collections": [
        "dbcf2c22-524d-4708-99bb-601703633927"
      ],
      "creators": [
        "566082ee-060d-4470-ac6f-4a537a50a613"
      ],
      "genres": [
        "724d2d80-a531-4579-bdaf-4a0db9a313d9"
      ],
      "groups": [
        "3c14c864-533c-49e6-a3cc-6969f1233775"
      ],
      "langs": [
        "4dcf9614-7914-42aa-99f4-dbce2e059133"
      ],
      "series": [
        "b759fd9d-10e4-448e-ac13-0a49e0417e40"
      ],
      "singers": [
        "e50b6a83-1cb1-4db2-9248-4137930362f0"
      ],
      "songtypes": [
        "42a262ae-acba-4ab5-a446-c5789c96c821",
        "f02ad9b3-0bd9-4aad-85b3-9976739ba0e4"
      ],
      "songwriters": [
        "02db6563-9515-4ba5-b080-fff7fae158bf",
        "d0814ae6-54df-440a-8227-7a1390e65e71",
        "db0de85c-8468-4914-972f-ed2926f12e00"
      ],
      "versions": [
        "c0cc87b9-55b9-40f0-878a-fbb9e34c151e",
        "c2143a7f-6970-450e-8a79-0302db9220a9"
      ]
    },
    "titles": {
      "eng": "Life goes on~side K~"
    },
    "titles_default_language": "eng",
    "year": 2008
  }
}