{
  "header": {
    "version": 4,
    "description": "Karaoke Mugen Karaoke Data File"
  },
  "medias": [
    {
      "version": "Default",
      "filename": "JPN - Project SEKAI COLORFUL STAGE! - GAME MV - Umiyuri Kaiteitan ~ Cover Short Vers.mp4",
      "audiogain": -9.94,
      "loudnorm": "-6.99,1.49,2.80,-17.05,-0.10",
      "filesize": 60380271,
      "duration": 105,
      "default": true,
      "lyrics": [
        {
          "filename": "JPN - Project SEKAI COLORFUL STAGE! - GAME MV - Umiyuri Kaiteitan ~ Cover Short Vers.ass",
          "default": true,
          "version": "Default"
        }
      ]
    }
  ],
  "data": {
    "created_at": "2022-12-23T20:44:53.580Z",
    "ignoreHooks": false,
    "kid": "5f89520a-b217-4897-8d8e-9986887053e5",
    "modified_at": "2022-12-26T22:02:41.322Z",
    "repository": "kara.moe",
    "tags": {
      "authors": [
        "a3a99b23-6c42-4d38-8863-491153187437"
      ],
      "collections": [
        "c7db86a0-ff64-4044-9be4-66dd1ef1d1c1"
      ],
      "creators": [
        "1e5648fb-22fc-474d-b865-254eb31fa000"
      ],
      "genres": [
        "45623cae-6d68-4304-a49b-896d1d6f4580"
      ],
      "groups": [
        "8e209ae4-4381-438f-89dc-1b21752027d2"
      ],
      "langs": [
        "4dcf9614-7914-42aa-99f4-dbce2e059133"
      ],
      "misc": [
        "1d6ceadf-a885-47e5-b23b-c07bf668a424"
      ],
      "platforms": [
        "213a1a15-e73a-4a08-b3f6-b6e2745a82e5"
      ],
      "series": [
        "192b33fb-638a-4680-bdb2-a5adb9889849"
      ],
      "singers": [
        "20d2fab3-1e7c-4a00-889e-272eacc68e10",
        "4407ba0e-5de7-4add-870f-7ac95a4804c9",
        "45350754-a9ee-4836-a3ab-a88a43e419e8"
      ],
      "singergroups": [
        "fbfee5ed-dbac-4e0a-861b-b4a40d32ef6e"
      ],
      "songtypes": [
        "7be1b15c-cff8-4b37-a649-5c90f3d569a9"
      ],
      "songwriters": [
        "41d76f46-52fe-4f5e-8bc6-40a18f29f540"
      ],
      "versions": [
        "03e1e1d2-8641-47b7-bbcb-39a3df9ff21c",
        "d125c80a-86c1-4321-88e9-07b7800679b6"
      ],
      "origins": [
        "dbedd6b3-d125-4cd8-aa32-c4175e4ca3a3"
      ]
    },
    "titles": {
      "eng": "Tale of the Deep Sea Lily",
      "jpn": "ウミユリ海底譚",
      "qro": "Umiyuri Kaiteitan"
    },
    "titles_default_language": "qro",
    "year": 2020
  }
}