{
  "header": {
    "version": 4,
    "description": "Karaoke Mugen Karaoke Data File"
  },
  "medias": [
    {
      "version": "Default",
      "filename": "JPN - Go-Toubun no Hanayome Fortissimo ~Natsu no Omoide mo Go-Toubun~ - GAME PC PS4 SWITCH OP - Minami Kaze.mp4",
      "audiogain": -5.72,
      "loudnorm": "-13.14,0.18,5.80,-23.24,-0.91",
      "filesize": 65561959,
      "duration": 89,
      "default": true,
      "lyrics": [
        {
          "filename": "JPN - Go-Toubun no Hanayome Fortissimo ~Natsu no Omoide mo Go-Toubun~ - GAME PC PS4 SWITCH OP - Minami Kaze.ass",
          "default": true,
          "version": "Default"
        }
      ]
    }
  ],
  "data": {
    "created_at": "2021-12-25T18:20:32.647Z",
    "kid": "5305298c-697f-46db-bdb7-aa746c742120",
    "modified_at": "2021-12-25T18:27:17.914Z",
    "repository": "kara.moe",
    "tags": {
      "authors": [
        "1df04771-a378-4f14-a5e1-1455187d681a"
      ],
      "collections": [
        "c7db86a0-ff64-4044-9be4-66dd1ef1d1c1"
      ],
      "creators": [
        "72dbd867-2321-4176-8a3e-d126127fae45"
      ],
      "groups": [
        "8e209ae4-4381-438f-89dc-1b21752027d2"
      ],
      "langs": [
        "4dcf9614-7914-42aa-99f4-dbce2e059133"
      ],
      "misc": [
        "1d6ceadf-a885-47e5-b23b-c07bf668a424"
      ],
      "origins": [
        "2f96e82c-c61b-4413-817e-e6b247509b95",
        "dbedd6b3-d125-4cd8-aa32-c4175e4ca3a3"
      ],
      "platforms": [
        "0a880bfc-d0e5-448b-98d2-4ba7b3106641",
        "248d92ee-8c02-43bc-86e2-cc6029883564",
        "3c15f758-e1bc-4266-8bb9-3c14112f504a"
      ],
      "series": [
        "85590897-98ae-4db7-80fe-6a09b5767a02"
      ],
      "singers": [
        "0d6225a1-ad68-4580-9ab4-7806a4ceb0d9",
        "16c170fe-1ada-4916-a0be-42b19eca6ae3",
        "43822411-dbd3-4e3f-b498-1d3a9ba8ea30",
        "458739df-9990-45ea-a8e7-ae6348c7534d",
        "7e153b87-dd5f-4ce1-b187-9941ca95ce3e",
        "8839799f-e64a-4548-8ad1-3aefa0817b0c"
      ],
      "songtypes": [
        "f02ad9b3-0bd9-4aad-85b3-9976739ba0e4"
      ],
      "songwriters": [
        "b5a9ff97-087c-4f78-809c-133ee3966df2",
        "c461caa6-f236-4e9d-89b9-359c644fddd5"
      ],
      "franchises": [
        "78d84b11-1b68-4e09-bb1a-d0fceac5a679"
      ]
    },
    "titles": {
      "qro": "Minami Kaze",
      "jpn": "みなみかぜ"
    },
    "title": "Minami Kaze",
    "year": 2021,
    "titles_default_language": "qro"
  }
}