{
  "header": {
    "version": 4,
    "description": "Karaoke Mugen Karaoke Data File"
  },
  "medias": [
    {
      "version": "Default",
      "filename": "JPN - Ensemble Stars! - GAME MV - Acanthe ~ Short Vers.mp4",
      "audiogain": -9.54,
      "loudnorm": "-8.02,1.27,7.80,-18.18,-1.50",
      "filesize": 50665938,
      "duration": 156,
      "default": true,
      "lyrics": [
        {
          "filename": "JPN - Ensemble Stars! - GAME MV - Acanthe ~ Short Vers.ass",
          "default": true,
          "version": "Default"
        }
      ]
    }
  ],
  "data": {
    "created_at": "2023-01-30T18:48:00.334Z",
    "ignoreHooks": false,
    "kid": "87154c9f-a462-43c5-8174-834610bf3890",
    "modified_at": "2023-01-30T19:28:28.733Z",
    "repository": "kara.moe",
    "tags": {
      "authors": [
        "25f0d905-da48-4aa1-88a8-3bff827bf92d"
      ],
      "collections": [
        "c7db86a0-ff64-4044-9be4-66dd1ef1d1c1"
      ],
      "creators": [
        "5b938ceb-1629-4653-bbd2-27af0dd5aebf"
      ],
      "genres": [
        "caa86df2-0d59-474b-885c-f240a9e891b0"
      ],
      "langs": [
        "4dcf9614-7914-42aa-99f4-dbce2e059133"
      ],
      "misc": [
        "1d6ceadf-a885-47e5-b23b-c07bf668a424"
      ],
      "series": [
        "d1184e31-716b-4ed1-8c81-9cd0d42afdc2"
      ],
      "singers": [
        "37553623-034c-4cfc-ae55-c936028f8e2d",
        "e5a67f06-d08b-4f63-800b-31c7f90995be"
      ],
      "singergroups": [
        "fad35df8-5511-4433-b93d-3e844f742349"
      ],
      "songtypes": [
        "7be1b15c-cff8-4b37-a649-5c90f3d569a9"
      ],
      "songwriters": [
        "05f19984-0588-43e4-b0da-b8e145b95c91",
        "6d261e24-e254-480a-b1df-f4b8eec5839c"
      ],
      "versions": [
        "d125c80a-86c1-4321-88e9-07b7800679b6"
      ],
      "groups": [
        "8e209ae4-4381-438f-89dc-1b21752027d2"
      ],
      "origins": [
        "dbedd6b3-d125-4cd8-aa32-c4175e4ca3a3"
      ]
    },
    "titles": {
      "eng": "Acanthe"
    },
    "titles_default_language": "eng",
    "year": 2022
  }
}