{
  "header": {
    "version": 4,
    "description": "Karaoke Mugen Karaoke Data File"
  },
  "medias": [
    {
      "version": "Default",
      "filename": "JPN - Haiyore! Nyaruko-san W - ED4 - Sister, Friend, Lover.mp4",
      "audiogain": -1.84,
      "loudnorm": "-16.09,-1.54,5.60,-26.22,-0.78",
      "filesize": 50792275,
      "duration": 91,
      "default": true,
      "lyrics": [
        {
          "filename": "JPN - Haiyore! Nyaruko-san W - ED4 - Sister, Friend, Lover.ass",
          "default": true,
          "version": "Default"
        }
      ]
    }
  ],
  "data": {
    "comment": "Réponse à la suggestion de l'issue #1978",
    "created_at": "2021-12-05T16:19:50.883Z",
    "kid": "9b732bbb-d0f1-484d-b7fc-c7d290b91af2",
    "modified_at": "2021-12-05T16:25:41.829Z",
    "repository": "kara.moe",
    "songorder": 4,
    "tags": {
      "authors": [
        "6bebcb04-2694-453c-9e0c-eb1a2e2718d9"
      ],
      "collections": [
        "c7db86a0-ff64-4044-9be4-66dd1ef1d1c1"
      ],
      "creators": [
        "0e26434a-c89a-4366-85b5-9e5c4b7d4195"
      ],
      "families": [
        "0377db02-3af6-43b8-9b08-c759df3d25c3"
      ],
      "groups": [
        "ae613721-1fbe-480d-ba6b-d6d0702b184d"
      ],
      "langs": [
        "4dcf9614-7914-42aa-99f4-dbce2e059133"
      ],
      "misc": [
        "fe819ff1-9db8-4a0f-85dc-0e322c9126c4"
      ],
      "origins": [
        "938de218-5343-4865-94d3-fb33f2eaa152"
      ],
      "series": [
        "6ab24ae4-f234-43b5-bbe9-8955e7134ed4"
      ],
      "singers": [
        "0efe23fd-d217-40ad-b373-c726d9705b44",
        "3fe54d58-95cd-40ce-b636-b9bc093c5714",
        "e702ae4c-9297-4c78-8f46-089d47fc6113"
      ],
      "songtypes": [
        "38c77c56-2b95-4040-b676-0994a8cb0597"
      ],
      "songwriters": [
        "8e95ab4f-1fb5-430c-a3b2-1285d99fcdea",
        "ad9de3e0-673e-459b-ac88-178ae5e04341"
      ],
      "franchises": [
        "ebf006f9-8aa4-4d3f-8ea4-d800ea13d5ba"
      ]
    },
    "titles": {
      "eng": "Sister, Friend, Lover"
    },
    "title": "Sister, Friend, Lover",
    "year": 2013,
    "titles_default_language": "eng"
  }
}