{
  "header": {
    "version": 4,
    "description": "Karaoke Mugen Karaoke Data File"
  },
  "medias": [
    {
      "version": "Default",
      "filename": "JPN - Durarara!!x2 Ketsu Dufufufu!! - SPECIAL ED - CLROWN.mp4",
      "audiogain": 1.31,
      "loudnorm": "-19.13,-7.95,4.10,-29.16,-1.19",
      "filesize": 10914128,
      "duration": 94,
      "default": true,
      "lyrics": [
        {
          "filename": "JPN - Durarara!!x2 Ketsu Dufufufu!! - SPECIAL ED - CLROWN.ass",
          "default": true,
          "version": "Default"
        }
      ]
    }
  ],
  "data": {
    "created_at": "2022-06-26T14:51:02.655Z",
    "ignoreHooks": false,
    "kid": "e079fa3a-dea5-449a-931b-1166d1704e63",
    "modified_at": "2022-11-14T18:52:36.118Z",
    "repository": "kara.moe",
    "tags": {
      "authors": [
        "ee8628c8-9b7f-415b-bc0d-9b712d5daf8c"
      ],
      "collections": [
        "c7db86a0-ff64-4044-9be4-66dd1ef1d1c1"
      ],
      "creators": [
        "6fe330e2-40c8-460a-bbd7-a657ee85c385"
      ],
      "families": [
        "0377db02-3af6-43b8-9b08-c759df3d25c3"
      ],
      "groups": [
        "ae613721-1fbe-480d-ba6b-d6d0702b184d"
      ],
      "langs": [
        "4dcf9614-7914-42aa-99f4-dbce2e059133"
      ],
      "origins": [
        "65f74288-49a5-47b0-82f5-8cd84d1e3dc0"
      ],
      "series": [
        "ebee6fdb-f682-42f3-af44-7b5a8560a5ee"
      ],
      "singers": [
        "5eb0c9ec-bb8e-4e9a-9b0b-2732ba2029f0"
      ],
      "songtypes": [
        "38c77c56-2b95-4040-b676-0994a8cb0597"
      ],
      "songwriters": [
        "5eb0c9ec-bb8e-4e9a-9b0b-2732ba2029f0"
      ],
      "franchises": [
        "e045db8b-053c-41b5-b99f-470d02b871fa"
      ]
    },
    "titles": {
      "eng": "C\"LR\"OWN"
    },
    "titles_default_language": "eng",
    "titles_aliases": [
      "clrown"
    ],
    "year": 2016
  }
}