{
  "header": {
    "version": 4,
    "description": "Karaoke Mugen Karaoke Data File"
  },
  "medias": [
    {
      "version": "Default",
      "filename": "JPN - Devilman - OP - Devilman no Uta.mp4",
      "audiogain": -5.94,
      "loudnorm": "-11.95,-0.03,2.90,-22.08,0.18",
      "filesize": 21889844,
      "duration": 91,
      "default": true,
      "lyrics": [
        {
          "filename": "JPN - Devilman - OP - Devilman no Uta.ass",
          "default": true,
          "version": "Default",
          "subchecksum": "c034720489681f245fa3fd66344e04da"
        }
      ]
    }
  ],
  "data": {
    "created_at": "2017-10-11T17:02:05.000Z",
    "kid": "d4399e95-0c87-4747-afd1-a2b0b25281cc",
    "modified_at": "2021-02-25T11:09:06.489Z",
    "repository": "kara.moe",
    "tags": {
      "authors": [
        "5bdaba57-27f8-4568-8806-76a807728766"
      ],
      "collections": [
        "c7db86a0-ff64-4044-9be4-66dd1ef1d1c1"
      ],
      "creators": [
        "f694bf43-b427-4244-9744-9d3f84fd8a31"
      ],
      "families": [
        "0377db02-3af6-43b8-9b08-c759df3d25c3"
      ],
      "groups": [
        "57e5e0c0-e02e-4871-a6cb-d48ea604ebab"
      ],
      "langs": [
        "4dcf9614-7914-42aa-99f4-dbce2e059133"
      ],
      "origins": [
        "938de218-5343-4865-94d3-fb33f2eaa152"
      ],
      "series": [
        "53f4edb2-7295-40a3-bc75-bda0ca485d65"
      ],
      "singers": [
        "c868f0a4-7c87-4d6f-93b8-de0407ee5434"
      ],
      "songtypes": [
        "f02ad9b3-0bd9-4aad-85b3-9976739ba0e4"
      ],
      "songwriters": [
        "9d554b2e-bdf4-49d4-915e-293769843d52",
        "db7941a6-06be-4405-8e2c-a8cdcb6ea5d8"
      ],
      "franchises": [
        "53f4edb2-7295-40a3-bc75-bda0ca485d65"
      ]
    },
    "title": "Devilman no Uta",
    "titles": {
      "qro": "Devilman no Uta",
      "jpn": "デビルマンのうた"
    },
    "year": 1972,
    "titles_default_language": "qro"
  }
}