{
  "header": {
    "version": 4,
    "description": "Karaoke Mugen Karaoke Data File"
  },
  "medias": [
    {
      "version": "Default",
      "filename": "JPN - KAFU - MV - Watashi wa, Watashitachi wa.mp4",
      "audiogain": -6.96,
      "loudnorm": "-10.04,2.43,10.20,-20.34,-1.21",
      "filesize": 29125638,
      "duration": 242,
      "default": true,
      "lyrics": [
        {
          "filename": "JPN - KAFU - MV - Watashi wa, Watashitachi wa.ass",
          "default": true,
          "version": "Default"
        }
      ]
    }
  ],
  "data": {
    "comment": "BOOLANGERIE",
    "created_at": "2023-03-20T22:51:01.177Z",
    "ignoreHooks": false,
    "kid": "cc36dd7d-2135-4729-98e6-d9dc457644db",
    "modified_at": "2023-03-21T22:21:24.303Z",
    "repository": "kara.moe",
    "tags": {
      "authors": [
        "9e3661b6-cae5-45ef-a2d9-788d92a8deec"
      ],
      "collections": [
        "c7db86a0-ff64-4044-9be4-66dd1ef1d1c1"
      ],
      "creators": [
        "494a675f-32d5-4d04-9ce0-17205c63a733"
      ],
      "families": [
        "0377db02-3af6-43b8-9b08-c759df3d25c3"
      ],
      "genres": [
        "45623cae-6d68-4304-a49b-896d1d6f4580"
      ],
      "groups": [
        "8e209ae4-4381-438f-89dc-1b21752027d2"
      ],
      "langs": [
        "4dcf9614-7914-42aa-99f4-dbce2e059133"
      ],
      "singers": [
        "d71f2321-f26d-46bf-8f0d-932453888b62"
      ],
      "songtypes": [
        "7be1b15c-cff8-4b37-a649-5c90f3d569a9"
      ],
      "songwriters": [
        "cab84cf1-1f94-417f-bfb0-d81a397ec3dd"
      ]
    },
    "titles": {
      "eng": "I am, We are",
      "jpn": "私は、私達は",
      "qro": "Watashi wa, Watashitachi wa"
    },
    "titles_default_language": "qro",
    "year": 2023
  }
}