{
  "header": {
    "version": 4,
    "description": "Karaoke Mugen Karaoke Data File"
  },
  "medias": [
    {
      "version": "Default",
      "filename": "JPN - Hibike! Euphonium 2 - MV - SOUNDSCAPE ~ Full Vers.mp4",
      "audiogain": -2.89,
      "loudnorm": "-14.38,-5.96,2.50,-24.77,-0.39",
      "filesize": 61963742,
      "duration": 311,
      "default": true,
      "lyrics": [
        {
          "filename": "JPN - Hibike! Euphonium 2 - MV - SOUNDSCAPE ~ Full Vers.ass",
          "default": true,
          "version": "Default"
        }
      ]
    }
  ],
  "data": {
    "created_at": "2020-08-10T18:25:22.930Z",
    "kid": "b5e79dff-a299-4a58-93c1-858c0189953e",
    "modified_at": "2022-06-04T00:23:14.521Z",
    "repository": "kara.moe",
    "songorder": null,
    "tags": {
      "authors": [
        "5e93f02a-bcd1-40a9-ba7a-91ada6683aea"
      ],
      "creators": [
        "d93786af-5098-49b2-9928-37edfb3d0322"
      ],
      "families": [
        "5391f9fe-638c-415f-8dc9-958e3a2c5787"
      ],
      "groups": [
        "9a8e0fbc-dcae-4989-be82-7cad3436f1f5",
        "ae613721-1fbe-480d-ba6b-d6d0702b184d"
      ],
      "langs": [
        "4dcf9614-7914-42aa-99f4-dbce2e059133"
      ],
      "misc": [
        "86705d4b-24e4-4756-9687-2b9c98bcf366"
      ],
      "origins": [
        "938de218-5343-4865-94d3-fb33f2eaa152"
      ],
      "series": [
        "88f4dc4d-8a78-4bda-8d4d-0878feb5b0cf"
      ],
      "singers": [
        "61c5e3d4-6a0e-46b6-b622-06f5bc6d3294"
      ],
      "songtypes": [
        "7be1b15c-cff8-4b37-a649-5c90f3d569a9"
      ],
      "songwriters": [
        "5a90ba74-5e7c-4ccb-a054-a95cc78e8522",
        "7e72484d-b638-4d9a-95f2-5947c59d721b"
      ],
      "versions": [
        "c2143a7f-6970-450e-8a79-0302db9220a9"
      ],
      "collections": [
        "dbcf2c22-524d-4708-99bb-601703633927"
      ],
      "franchises": [
        "7e9d2ecf-5993-4bb0-99ab-051277eaf525"
      ]
    },
    "titles": {
      "eng": "Soundscape",
      "jpn": "サウンドスケープ"
    },
    "titles_default_language": "eng",
    "title": "SOUNDSCAPE",
    "year": 2016
  }
}