{
  "header": {
    "version": 4,
    "description": "Karaoke Mugen Karaoke Data File"
  },
  "medias": [
    {
      "version": "Default",
      "filename": "JPN - Miku Hatsune - MV - Lucky Orb.mp4",
      "audiogain": -7.45,
      "loudnorm": "-9.16,2.22,5.50,-19.52,-0.95",
      "filesize": 149718651,
      "duration": 280,
      "default": true,
      "lyrics": [
        {
          "filename": "JPN - Miku Hatsune - MV - Lucky Orb.ass",
          "default": true,
          "version": "Default"
        }
      ]
    }
  ],
  "data": {
    "created_at": "2020-03-25T20:10:35.804Z",
    "ignoreHooks": false,
    "kid": "9940d466-41d2-4415-bfbc-93de5946d662",
    "modified_at": "2022-09-19T12:57:39.140Z",
    "repository": "kara.moe",
    "tags": {
      "authors": [
        "1df04771-a378-4f14-a5e1-1455187d681a"
      ],
      "collections": [
        "c7db86a0-ff64-4044-9be4-66dd1ef1d1c1"
      ],
      "creators": [
        "20b56382-518e-44f2-bcec-fe6ba945fba9"
      ],
      "families": [
        "0377db02-3af6-43b8-9b08-c759df3d25c3"
      ],
      "genres": [
        "45623cae-6d68-4304-a49b-896d1d6f4580"
      ],
      "groups": [
        "ae613721-1fbe-480d-ba6b-d6d0702b184d"
      ],
      "langs": [
        "4dcf9614-7914-42aa-99f4-dbce2e059133"
      ],
      "singers": [
        "4407ba0e-5de7-4add-870f-7ac95a4804c9"
      ],
      "songtypes": [
        "7be1b15c-cff8-4b37-a649-5c90f3d569a9"
      ],
      "songwriters": [
        "68d33eae-6942-4af7-bd92-c07f953b0094"
      ]
    },
    "titles": {
      "eng": "Lucky☆Orb",
      "jpn": "ラッキー☆オーブ"
    },
    "titles_default_language": "eng",
    "title": "Lucky☆Orb",
    "year": 2019
  }
}