{
  "header": {
    "version": 4,
    "description": "Karaoke Mugen Karaoke Data File"
  },
  "medias": [
    {
      "version": "Default",
      "filename": "JPN - TOOBOE - MV - Shinzou ~ Off Vocal Vers.mp4",
      "audiogain": -8.36,
      "loudnorm": "-13.21,0.75,3.90,-23.29,-0.76",
      "filesize": 165046849,
      "duration": 238,
      "default": true,
      "lyrics": [
        {
          "filename": "JPN - TOOBOE - MV - Shinzou ~ Off Vocal Vers.ass",
          "default": true,
          "version": "Default"
        }
      ]
    }
  ],
  "data": {
    "created_at": "2023-05-30T11:59:43.791Z",
    "ignoreHooks": false,
    "kid": "b4920224-9ffb-4bc4-9d13-ffbba666b223",
    "modified_at": "2023-05-30T18:59:32.122Z",
    "parents": [
      "8a44d2ae-032a-4df4-8891-3cd9cbf1e833"
    ],
    "repository": "kara.moe",
    "tags": {
      "authors": [
        "9cdf3b70-3550-457c-bdb9-038f3253c6ad"
      ],
      "collections": [
        "dbcf2c22-524d-4708-99bb-601703633927"
      ],
      "creators": [
        "53bad625-849a-47cc-849b-c7a9c9119adf"
      ],
      "families": [
        "0377db02-3af6-43b8-9b08-c759df3d25c3",
        "5391f9fe-638c-415f-8dc9-958e3a2c5787"
      ],
      "groups": [
        "8e209ae4-4381-438f-89dc-1b21752027d2"
      ],
      "langs": [
        "4dcf9614-7914-42aa-99f4-dbce2e059133"
      ],
      "singers": [
        "65286ee1-decd-4f50-9c69-2aa08afb63b2"
      ],
      "songtypes": [
        "7be1b15c-cff8-4b37-a649-5c90f3d569a9"
      ],
      "songwriters": [
        "0b86619b-36e3-44e0-8ca8-7f8e58f3ad77",
        "62bbe0b4-211d-4ed7-abf5-4e27cd09ac1b",
        "65286ee1-decd-4f50-9c69-2aa08afb63b2"
      ],
      "versions": [
        "c0cc87b9-55b9-40f0-878a-fbb9e34c151e"
      ],
      "warnings": [
        "e82ce681-6d7b-4fb6-abe4-daa8aaa9bbf9"
      ]
    },
    "titles": {
      "jpn": "心臓",
      "qro": "Shinzô"
    },
    "titles_default_language": "qro",
    "titles_aliases": [
      "shinzou",
      "Shinzou"
    ],
    "year": 2022
  }
}