{
  "header": {
    "version": 4,
    "description": "Karaoke Mugen Karaoke Data File"
  },
  "medias": [
    {
      "version": "Default",
      "filename": "JPN - Jijou wo shiranai tenkousei ga guigui kuru - ED - Kokorone.mp4",
      "audiogain": -0.84,
      "loudnorm": "-16.56,-5.78,8.10,-26.65,-1.41",
      "filesize": 90359914,
      "duration": 88,
      "default": true,
      "lyrics": [
        {
          "filename": "JPN - Jijou wo shiranai tenkousei ga guigui kuru - ED - Kokorone.ass",
          "default": true,
          "version": "Default"
        }
      ]
    }
  ],
  "data": {
    "created_at": "2023-04-21T23:42:43.818Z",
    "ignoreHooks": false,
    "kid": "750446dc-7000-4c21-8079-e4ac1e6d03ed",
    "modified_at": "2023-04-21T23:50:30.841Z",
    "repository": "kara.moe",
    "tags": {
      "authors": [
        "db867b9b-f487-444d-9f24-142c4324a235"
      ],
      "collections": [
        "c7db86a0-ff64-4044-9be4-66dd1ef1d1c1"
      ],
      "creators": [
        "14fe3eb5-30d6-4e71-b056-024e5d579624"
      ],
      "families": [
        "0377db02-3af6-43b8-9b08-c759df3d25c3"
      ],
      "groups": [
        "8e209ae4-4381-438f-89dc-1b21752027d2"
      ],
      "langs": [
        "4dcf9614-7914-42aa-99f4-dbce2e059133"
      ],
      "origins": [
        "938de218-5343-4865-94d3-fb33f2eaa152"
      ],
      "series": [
        "643d6bcf-029d-4b8d-8d8d-f5b02fb51e69"
      ],
      "singers": [
        "85bf88cf-5822-41e5-bb7b-93fd7ef5786d"
      ],
      "songtypes": [
        "38c77c56-2b95-4040-b676-0994a8cb0597"
      ],
      "songwriters": [
        "df1bed11-964e-439c-a4dc-79c2cc9373e1",
        "fdfd22d2-7e17-4bcb-ae2d-2211063e3ac7"
      ]
    },
    "titles": {
      "jpn": "ココロネ",
      "qro": "Kokorone"
    },
    "titles_default_language": "qro",
    "year": 2023
  }
}