{
  "header": {
    "version": 4,
    "description": "Karaoke Mugen Karaoke Data File"
  },
  "medias": [
    {
      "version": "Default",
      "filename": "JPN - Ookami to Koushinryou II - OP - Mitsu no Yoake.mp4",
      "audiogain": 2.42,
      "loudnorm": "-19.57,-9.32,5.60,-29.69,-1.34",
      "filesize": 49036456,
      "duration": 91,
      "default": true,
      "lyrics": [
        {
          "filename": "JPN - Ookami to Koushinryou II - OP - Mitsu no Yoake.ass",
          "default": true,
          "version": "Default"
        }
      ]
    }
  ],
  "data": {
    "comment": "'refait tout le time + correction",
    "created_at": "2017-10-11T17:02:32.000Z",
    "kid": "084be1b8-6fd5-4ecf-add7-909da2454a31",
    "modified_at": "2021-08-15T23:59:36.633Z",
    "repository": "kara.moe",
    "tags": {
      "authors": [
        "9cdf3b70-3550-457c-bdb9-038f3253c6ad"
      ],
      "collections": [
        "c7db86a0-ff64-4044-9be4-66dd1ef1d1c1"
      ],
      "creators": [
        "464500b8-5cee-4ac6-906b-6acfad8d8195",
        "a06f41a3-31b6-462a-a195-e48a11386da3"
      ],
      "families": [
        "0377db02-3af6-43b8-9b08-c759df3d25c3"
      ],
      "groups": [
        "3c14c864-533c-49e6-a3cc-6969f1233775",
        "9a8e0fbc-dcae-4989-be82-7cad3436f1f5"
      ],
      "langs": [
        "4dcf9614-7914-42aa-99f4-dbce2e059133"
      ],
      "origins": [
        "938de218-5343-4865-94d3-fb33f2eaa152"
      ],
      "series": [
        "d27daf4d-63bc-49c7-9622-566e13cd38cd"
      ],
      "singers": [
        "9aad3216-29d1-4e8f-b113-d5eed0deb1a4"
      ],
      "songtypes": [
        "f02ad9b3-0bd9-4aad-85b3-9976739ba0e4"
      ],
      "songwriters": [
        "9aad3216-29d1-4e8f-b113-d5eed0deb1a4"
      ],
      "franchises": [
        "95925674-a1b6-44d2-8710-c64961f5d700"
      ]
    },
    "title": "Mitsu no Yoake",
    "titles": {
      "qro": "Mitsu no Yoake",
      "jpn": "蜜の夜明け"
    },
    "year": 2009,
    "titles_default_language": "qro"
  }
}