{
  "header": {
    "version": 4,
    "description": "Karaoke Mugen Karaoke Data File"
  },
  "medias": [
    {
      "version": "Default",
      "filename": "JPN - Gyakuten Sekai no Denchi Shoujo - MV - Reverse-Rebirth ~ Full Vers.mp4",
      "loudnorm": "-11.87,0.14,4.60,-21.97,-0.91",
      "filesize": 92009491,
      "duration": 209,
      "default": true,
      "lyrics": [
        {
          "filename": "JPN - Gyakuten Sekai no Denchi Shoujo - MV - Reverse-Rebirth ~ Full Vers.ass",
          "default": true,
          "version": "Default"
        }
      ]
    }
  ],
  "data": {
    "comment": "La musique a également servi d'ending pour l'anime Rumble Garanndoll (non-présent sur le site)",
    "created_at": "2023-09-28T11:59:27.314Z",
    "ignoreHooks": false,
    "kid": "bf6e3df3-c824-4110-b2cf-d2b30be574dd",
    "modified_at": "2023-09-28T11:59:27.314Z",
    "repository": "kara.moe",
    "tags": {
      "authors": [
        "d641461a-403a-4a6b-83a0-207352713591"
      ],
      "collections": [
        "dbcf2c22-524d-4708-99bb-601703633927"
      ],
      "creators": [
        "b2805292-730e-473a-96f0-fd8e7ffd1fd7"
      ],
      "families": [
        "5391f9fe-638c-415f-8dc9-958e3a2c5787"
      ],
      "groups": [
        "8e209ae4-4381-438f-89dc-1b21752027d2"
      ],
      "langs": [
        "4dcf9614-7914-42aa-99f4-dbce2e059133"
      ],
      "series": [
        "12f7bba0-e737-4c11-a12e-2efa2c321a4e"
      ],
      "singers": [
        "e3ef4054-6292-4b5f-ad14-1008bae5e375"
      ],
      "songtypes": [
        "7be1b15c-cff8-4b37-a649-5c90f3d569a9"
      ],
      "songwriters": [
        "8a6467ef-ecf0-4458-b405-fe0475ecef3a",
        "bfeec776-8f0c-470b-a57b-fae35fe0a3a6",
        "864a344e-0bfc-4dfe-9cff-0738b6630a85"
      ],
      "versions": [
        "c2143a7f-6970-450e-8a79-0302db9220a9"
      ]
    },
    "titles": {
      "eng": "Reverse-Rebirth"
    },
    "titles_default_language": "eng",
    "year": 2021
  }
}