{
  "header": {
    "version": 4,
    "description": "Karaoke Mugen Karaoke Data File"
  },
  "medias": [
    {
      "version": "Default",
      "filename": "JPN - Ame wo Tsugeru Hyouryuu Danchi - MOVIE MV - Blush ~ Off Vocal Vers.mp4",
      "audiogain": -9.9,
      "loudnorm": "-7.99,0.74,4.90,-18.14,-0.56",
      "filesize": 62099943,
      "duration": 258,
      "default": true,
      "lyrics": [
        {
          "filename": "JPN - Ame wo Tsugeru Hyouryuu Danchi - MOVIE MV - Blush ~ Off Vocal Vers.ass",
          "default": true,
          "version": "Default"
        }
      ]
    }
  ],
  "data": {
    "created_at": "2023-06-23T22:22:25.845Z",
    "ignoreHooks": false,
    "kid": "1a1ebce8-658d-4667-a9c0-5095a1f293c0",
    "modified_at": "2023-06-25T20:15:09.283Z",
    "parents": [
      "d507d572-877b-47e1-936f-583cc9f81910"
    ],
    "repository": "kara.moe",
    "tags": {
      "authors": [
        "78d42fee-8d3e-4bd5-9c44-98ce55f7d21f",
        "90698f28-1d62-4673-82c4-33ae96b1ba97"
      ],
      "collections": [
        "c7db86a0-ff64-4044-9be4-66dd1ef1d1c1",
        "dbcf2c22-524d-4708-99bb-601703633927"
      ],
      "creators": [
        "7e4b3966-9e00-4593-8047-1b67f358d2b9"
      ],
      "families": [
        "0377db02-3af6-43b8-9b08-c759df3d25c3"
      ],
      "groups": [
        "8e209ae4-4381-438f-89dc-1b21752027d2"
      ],
      "langs": [
        "4dcf9614-7914-42aa-99f4-dbce2e059133"
      ],
      "origins": [
        "c8ca9dea-d8b4-48fe-8427-d911653232e9"
      ],
      "series": [
        "0d7126d0-eac3-48ee-806f-9194fbd0921e"
      ],
      "singers": [
        "d3f693d0-7d45-465e-82ed-a6723c600008"
      ],
      "singergroups": [
        "c7d361f6-c1cf-44b2-b40a-a18aa90f2d8f"
      ],
      "songtypes": [
        "7be1b15c-cff8-4b37-a649-5c90f3d569a9"
      ],
      "songwriters": [
        "c7d361f6-c1cf-44b2-b40a-a18aa90f2d8f",
        "c83db176-81d3-42fe-bd43-daaa2790da33",
        "d3f693d0-7d45-465e-82ed-a6723c600008"
      ],
      "versions": [
        "c0cc87b9-55b9-40f0-878a-fbb9e34c151e"
      ]
    },
    "titles": {
      "eng": "Blush",
      "jpn": "消えてしまいそうです",
      "qro": "kiete shimaisou desu"
    },
    "titles_default_language": "eng",
    "year": 2022
  }
}