{
  "header": {
    "version": 4,
    "description": "Karaoke Mugen Karaoke Data File"
  },
  "medias": [
    {
      "version": "Default",
      "filename": "JPN - Love Live! Superstar!! - LIVE - Nonfiction!! ~ Acoustic Full Vers.mp4",
      "audiogain": -0.65,
      "loudnorm": "-16.70,-1.90,8.60,-27.19,-0.77",
      "filesize": 117587697,
      "duration": 202,
      "default": true,
      "lyrics": [
        {
          "filename": "JPN - Love Live! Superstar!! - LIVE - Nonfiction!! ~ Acoustic Full Vers.ass",
          "default": true,
          "version": "Default"
        }
      ]
    }
  ],
  "data": {
    "created_at": "2022-09-28T14:08:06.751Z",
    "ignoreHooks": false,
    "kid": "ec4229ed-990b-4202-9570-5abf132f65f4",
    "modified_at": "2022-09-29T20:51:04.648Z",
    "parents": [
      "e667a850-359d-47d2-8aad-6030feed3001"
    ],
    "repository": "kara.moe",
    "tags": {
      "authors": [
        "449844e4-3a1f-46e1-8a92-bf72e2d1b6f1"
      ],
      "collections": [
        "dbcf2c22-524d-4708-99bb-601703633927"
      ],
      "creators": [
        "b2805292-730e-473a-96f0-fd8e7ffd1fd7",
        "ef8f80e1-d244-4aea-b7f0-984d6dd4b82b"
      ],
      "families": [
        "5391f9fe-638c-415f-8dc9-958e3a2c5787"
      ],
      "genres": [
        "caa86df2-0d59-474b-885c-f240a9e891b0"
      ],
      "groups": [
        "8e209ae4-4381-438f-89dc-1b21752027d2"
      ],
      "langs": [
        "4dcf9614-7914-42aa-99f4-dbce2e059133"
      ],
      "origins": [
        "938de218-5343-4865-94d3-fb33f2eaa152"
      ],
      "series": [
        "ed46191b-997b-4c2d-8088-bb30a5e6d4ca"
      ],
      "singers": [
        "4a1c9511-daa2-4172-9367-5afb3312234e",
        "4e66c19f-a55a-4be7-a948-4eb45796b71f",
        "8a484e8b-1945-416f-b778-97a887ff24eb",
        "8b1d7f16-0b3e-4c63-82c1-bd60518b86a8",
        "c1fd3a67-0c3b-4d95-9cd8-f6aa2c8cc5a8"
      ],
      "singergroups": [
        "f3e5b1d3-30b1-4548-95c8-6cf77216bdbd"
      ],
      "songtypes": [
        "a0167949-580c-4de3-bf13-497e462e02f3"
      ],
      "songwriters": [
        "28fda933-ac02-4754-95b8-a2c80bb15937",
        "bbbc6873-d455-46b6-903b-152e41d11b82",
        "f77f4be8-1af3-4bab-9411-759dbd5bb583"
      ],
      "versions": [
        "c2143a7f-6970-450e-8a79-0302db9220a9",
        "dd5e063e-8a40-478e-a4c5-d477ce8f13f7"
      ],
      "franchises": [
        "fd5d066e-e85a-4eea-8688-2979a887450a"
      ]
    },
    "titles": {
      "eng": "Nonfiction!!",
      "jpn": "ノンフィクション!!"
    },
    "titles_default_language": "eng",
    "title": "Nonfiction!!",
    "year": 2022
  }
}