{
  "header": {
    "version": 4,
    "description": "Karaoke Mugen Karaoke Data File"
  },
  "medias": [
    {
      "version": "Default",
      "filename": "JPN - TUYU - MV - Kuraberarekko.mp4",
      "audiogain": -4.77,
      "loudnorm": "-12.85,-2.16,4.80,-22.89,-1.11",
      "filesize": 68966819,
      "duration": 216,
      "default": true,
      "lyrics": [
        {
          "filename": "JPN - TUYU - MV - Kuraberarekko.ass",
          "default": true,
          "version": "Default"
        }
      ]
    }
  ],
  "data": {
    "created_at": "2020-07-01T18:19:17.726Z",
    "ignoreHooks": false,
    "kid": "0e051ce7-299e-40ab-8c7d-9363fe3a5007",
    "modified_at": "2023-06-28T11:52:24.901Z",
    "repository": "kara.moe",
    "tags": {
      "authors": [
        "faa8becc-83b6-45d9-a3d0-a4c2c8b336c8"
      ],
      "collections": [
        "dbcf2c22-524d-4708-99bb-601703633927"
      ],
      "creators": [
        "619dd7d4-0caa-41b9-9676-89a430b42949",
        "97e62433-0f2f-4e1b-ba1e-109eec95dc11"
      ],
      "families": [
        "0377db02-3af6-43b8-9b08-c759df3d25c3"
      ],
      "groups": [
        "8c22c899-b3ed-42da-a548-ce00f950798b",
        "ae613721-1fbe-480d-ba6b-d6d0702b184d"
      ],
      "langs": [
        "4dcf9614-7914-42aa-99f4-dbce2e059133"
      ],
      "singers": [
        "59d1295f-d723-464c-9422-96bb55789689"
      ],
      "singergroups": [
        "c76b646b-7af3-4828-988d-c62bc0b6a1d1"
      ],
      "songtypes": [
        "7be1b15c-cff8-4b37-a649-5c90f3d569a9"
      ],
      "songwriters": [
        "85027205-042c-46ec-bc47-f7bd83c694de"
      ]
    },
    "titles": {
      "jpn": "くらべられっ子",
      "qro": "Kuraberarekko"
    },
    "titles_default_language": "qro",
    "year": 2019
  }
}