{
  "header": {
    "version": 4,
    "description": "Karaoke Mugen Karaoke Data File"
  },
  "medias": [
    {
      "version": "Default",
      "filename": "JPN - Chikyuu Shoujo Arjuna - LIVE - Mameshiba ~ Full Vers.mp4",
      "audiogain": -9.19,
      "loudnorm": "-8.24,0.34,5.30,-18.34,-1.12",
      "filesize": 202583675,
      "duration": 360,
      "default": true,
      "lyrics": [
        {
          "filename": "JPN - Chikyuu Shoujo Arjuna - LIVE - Mameshiba ~ Full Vers.ass",
          "default": true,
          "version": "Default"
        }
      ]
    }
  ],
  "data": {
    "created_at": "2020-01-11T23:18:45.614Z",
    "ignoreHooks": false,
    "kid": "22fd20fc-7a85-41da-b350-14fae4b9813d",
    "modified_at": "2022-12-21T22:36:30.537Z",
    "parents": [
      "2e9976f1-429c-4e4d-be05-e5c79f8a169c"
    ],
    "repository": "kara.moe",
    "tags": {
      "authors": [
        "1db1738f-acdc-42fc-aec3-60f4bddf660d"
      ],
      "collections": [
        "dbcf2c22-524d-4708-99bb-601703633927"
      ],
      "creators": [
        "e8da43a3-7058-4162-9d31-2f331dee993e"
      ],
      "families": [
        "5391f9fe-638c-415f-8dc9-958e3a2c5787"
      ],
      "groups": [
        "3c14c864-533c-49e6-a3cc-6969f1233775"
      ],
      "langs": [
        "4dcf9614-7914-42aa-99f4-dbce2e059133"
      ],
      "misc": [
        "86705d4b-24e4-4756-9687-2b9c98bcf366"
      ],
      "series": [
        "5b2648fa-82b6-4eff-954a-4df48b41cb8e"
      ],
      "singers": [
        "1e93160f-11bb-4d02-b716-4660cb29206e"
      ],
      "songtypes": [
        "a0167949-580c-4de3-bf13-497e462e02f3"
      ],
      "songwriters": [
        "af0be06d-ea2d-4f46-85d1-58cf9f42532a"
      ],
      "versions": [
        "c2143a7f-6970-450e-8a79-0302db9220a9"
      ]
    },
    "titles": {
      "jpn": "マメシバ",
      "qro": "Mameshiba"
    },
    "titles_default_language": "qro",
    "year": 2001
  }
}