{
  "header": {
    "version": 4,
    "description": "Karaoke Mugen Karaoke Data File"
  },
  "medias": [
    {
      "version": "Default",
      "filename": "JPN - Akazukin Chacha - AUDIO OP1 - Kimi Iro Omoi ~ Full Vers.mp3",
      "audiogain": -11.05,
      "loudnorm": "-6.36,1.39,3.50,-16.46,-0.79",
      "filesize": 11449067,
      "duration": 282,
      "default": true,
      "lyrics": [
        {
          "filename": "JPN - Akazukin Chacha - AUDIO OP1 - Kimi Iro Omoi ~ Full Vers.ass",
          "default": true,
          "version": "Default"
        }
      ]
    }
  ],
  "data": {
    "created_at": "2023-06-06T22:49:09.709Z",
    "ignoreHooks": false,
    "kid": "4c764ddd-820f-40e5-82b5-d9bb637cd4c1",
    "modified_at": "2023-06-06T22:49:42.707Z",
    "parents": [
      "aaa5dd76-72b0-4663-98fe-ffd5bbf881d6"
    ],
    "repository": "kara.moe",
    "songorder": 1,
    "tags": {
      "authors": [
        "1db1738f-acdc-42fc-aec3-60f4bddf660d",
        "7848b5dc-a5df-4577-b640-147be5288cec"
      ],
      "collections": [
        "dbcf2c22-524d-4708-99bb-601703633927"
      ],
      "creators": [
        "e8da43a3-7058-4162-9d31-2f331dee993e"
      ],
      "groups": [
        "24db50aa-a126-4d34-a48a-e45db79c4245"
      ],
      "langs": [
        "4dcf9614-7914-42aa-99f4-dbce2e059133"
      ],
      "series": [
        "e2666c8b-28d0-4501-97e3-b5e061dbfb98"
      ],
      "singers": [
        "ab915358-7324-4d1e-9c96-7cd707e10991"
      ],
      "songtypes": [
        "42a262ae-acba-4ab5-a446-c5789c96c821",
        "f02ad9b3-0bd9-4aad-85b3-9976739ba0e4"
      ],
      "songwriters": [
        "0adbff55-4d15-4176-86b9-130a8c122410",
        "b6f3cc48-27eb-4ea6-8373-797ea538f063"
      ],
      "versions": [
        "c2143a7f-6970-450e-8a79-0302db9220a9"
      ]
    },
    "titles": {
      "jpn": "君色思い",
      "qro": "Kimi Iro Omoi"
    },
    "titles_default_language": "qro",
    "titles_aliases": [
      "Kimi-iro Omoi"
    ],
    "year": 1994
  }
}