{
  "header": {
    "version": 4,
    "description": "Karaoke Mugen Karaoke Data File"
  },
  "medias": [
    {
      "version": "Default",
      "filename": "JPN - Lodoss-tou senki - OVA OP - Adesso e Fortuna.mp4",
      "audiogain": -3.39,
      "loudnorm": "-16.13,-0.83,6.70,-26.29,-1.05",
      "filesize": 25197478,
      "duration": 81,
      "default": true,
      "lyrics": [
        {
          "filename": "JPN - Lodoss-tou senki - OVA OP - Adesso e Fortuna.ass",
          "default": true,
          "version": "Default",
          "subchecksum": "fbefd6787879e28e6e853273908454f8"
        }
      ]
    }
  ],
  "data": {
    "created_at": "2017-10-11T17:02:21.000Z",
    "kid": "87f6af27-306f-4c20-b434-ac9199d93815",
    "modified_at": "2021-02-25T12:10:59.395Z",
    "repository": "kara.moe",
    "tags": {
      "authors": [
        "5bdaba57-27f8-4568-8806-76a807728766"
      ],
      "collections": [
        "c7db86a0-ff64-4044-9be4-66dd1ef1d1c1"
      ],
      "creators": [
        "9c5cf6ba-0bc8-4cfe-a63c-e9be3a14e9fd"
      ],
      "families": [
        "0377db02-3af6-43b8-9b08-c759df3d25c3"
      ],
      "groups": [
        "24db50aa-a126-4d34-a48a-e45db79c4245"
      ],
      "langs": [
        "4dcf9614-7914-42aa-99f4-dbce2e059133"
      ],
      "origins": [
        "2a6ef087-a000-4f8e-aeb5-9a7968756a36"
      ],
      "series": [
        "ddd2e2c9-9be3-4c6b-91aa-4e942cbe13e6"
      ],
      "singers": [
        "1d178438-f5f1-42c0-b740-8d54b146a034"
      ],
      "songtypes": [
        "f02ad9b3-0bd9-4aad-85b3-9976739ba0e4"
      ],
      "songwriters": [
        "9aad3216-29d1-4e8f-b113-d5eed0deb1a4"
      ],
      "franchises": [
        "ddd2e2c9-9be3-4c6b-91aa-4e942cbe13e6"
      ]
    },
    "title": "Adesso e Fortuna",
    "titles": {
      "qro": "Adesso e Fortuna~Honoo to Eien",
      "jpn": "Adesso e Fortuna~炎と永遠"
    },
    "year": 1990,
    "titles_default_language": "qro"
  }
}