{
  "header": {
    "version": 4,
    "description": "Karaoke Mugen Karaoke Data File"
  },
  "medias": [
    {
      "version": "Default",
      "filename": "JPN - Rurouni Kenshin Meiji Kenkaku Romantan - LIVE - the Fourth Avenue Cafe ~ Full Vers.mp4",
      "audiogain": -6.32,
      "loudnorm": "-10.16,0.38,3.40,-20.22,0.06",
      "filesize": 74082155,
      "duration": 294,
      "default": true,
      "lyrics": [
        {
          "filename": "JPN - Rurouni Kenshin Meiji Kenkaku Romantan - LIVE - the Fourth Avenue Cafe ~ Full Vers.ass",
          "default": true,
          "version": "Default"
        }
      ]
    }
  ],
  "data": {
    "created_at": "2020-08-16T14:41:46.990Z",
    "ignoreHooks": false,
    "kid": "d1241886-516b-4945-9b56-e844ba31c1d7",
    "modified_at": "2022-12-21T22:36:36.751Z",
    "parents": [
      "7e13030c-fe91-4b8e-beb9-a8578dd50f98"
    ],
    "repository": "kara.moe",
    "tags": {
      "authors": [
        "70e26885-c0b5-4a01-b95b-2f492b8a8f10"
      ],
      "collections": [
        "dbcf2c22-524d-4708-99bb-601703633927"
      ],
      "creators": [
        "6df34030-d5ec-4480-a1c2-20103a7c0b63"
      ],
      "families": [
        "5391f9fe-638c-415f-8dc9-958e3a2c5787"
      ],
      "groups": [
        "ae613721-1fbe-480d-ba6b-d6d0702b184d"
      ],
      "langs": [
        "4dcf9614-7914-42aa-99f4-dbce2e059133"
      ],
      "series": [
        "b4865b94-04c8-4892-b7c9-128f5071d1f4"
      ],
      "singers": [
        "4061a0fb-641d-4a33-9968-b26313bab59c"
      ],
      "songtypes": [
        "a0167949-580c-4de3-bf13-497e462e02f3"
      ],
      "songwriters": [
        "d9dfb8ac-7af2-46de-b963-b91d5d1a580c"
      ],
      "versions": [
        "c2143a7f-6970-450e-8a79-0302db9220a9"
      ],
      "franchises": [
        "49303ca9-7e49-459b-b115-6f3e067d0c11"
      ]
    },
    "titles": {
      "eng": "the Fourth Avenue Cafe"
    },
    "titles_default_language": "eng",
    "year": 2012
  }
}