{
  "header": {
    "version": 4,
    "description": "Karaoke Mugen Karaoke Data File"
  },
  "medias": [
    {
      "version": "Default",
      "filename": "JPN - Touhou - REMIX MV - Horobi no Rakuen - to the seventh heaven -.mp4",
      "audiogain": -9.96,
      "loudnorm": "-7.73,0.96,8.00,-17.79,-1.33",
      "filesize": 54086365,
      "duration": 245,
      "default": true,
      "lyrics": [
        {
          "filename": "JPN - Touhou - REMIX MV - Horobi no Rakuen - to the seventh heaven -.ass",
          "default": true,
          "version": "Default"
        }
      ]
    }
  ],
  "data": {
    "created_at": "2022-10-10T20:40:08.645Z",
    "ignoreHooks": false,
    "kid": "6ddbb6cc-05cb-4d46-ba28-a66f325250f4",
    "modified_at": "2022-10-10T21:31:40.643Z",
    "repository": "kara.moe",
    "tags": {
      "authors": [
        "1fbfef73-6731-40df-ba51-65a54b9d1605"
      ],
      "collections": [
        "c7db86a0-ff64-4044-9be4-66dd1ef1d1c1"
      ],
      "creators": [
        "ca654b25-30b5-4054-a2c0-35028fdcae22"
      ],
      "families": [
        "0377db02-3af6-43b8-9b08-c759df3d25c3"
      ],
      "groups": [
        "ae613721-1fbe-480d-ba6b-d6d0702b184d"
      ],
      "langs": [
        "4dcf9614-7914-42aa-99f4-dbce2e059133"
      ],
      "misc": [
        "ec4360fa-3e3c-4f6f-b0e1-fb8b12b6dd18"
      ],
      "origins": [
        "ac5085db-52d8-44b4-8fbb-1697b24d2046"
      ],
      "series": [
        "1bdaa5a1-dfa6-4365-b746-7a0b194dafd6"
      ],
      "singers": [
        "7339f837-69b2-4b50-b2e6-a77c5061c563"
      ],
      "songtypes": [
        "7be1b15c-cff8-4b37-a649-5c90f3d569a9"
      ],
      "songwriters": [
        "23351848-e3cc-4420-b564-db2bfe2b7f3d",
        "26cb5252-8510-49e0-897c-a611a05fc056"
      ],
      "franchises": [
        "1bdaa5a1-dfa6-4365-b746-7a0b194dafd6"
      ]
    },
    "titles": {
      "eng": " Paradise of Ruin - to the seventh heaven -",
      "jpn": "滅びの楽園 - to the seventh heaven -",
      "qro": " Horobi no Rakuen - to the seventh heaven -"
    },
    "titles_default_language": "qro",
    "title": " Horobi no Rakuen - to the seventh heaven -",
    "year": 2012
  }
}