{
  "header": {
    "version": 4,
    "description": "Karaoke Mugen Karaoke Data File"
  },
  "medias": [
    {
      "version": "Alternative.",
      "filename": "JPN - Hataraku Maou-sama! - ED1 - Gekka ~ Alternative Vers.mp4",
      "audiogain": 0.35,
      "loudnorm": "-17.61,-8.11,4.70,-27.93,-1.09",
      "filesize": 20592392,
      "duration": 90,
      "default": true,
      "lyrics": [
        {
          "filename": "JPN - Hataraku Maou-sama! - ED1 - Gekka ~ Alternative Vers.ass",
          "default": true,
          "version": "Default",
          "subchecksum": "cfa39c48d11f565bd98e0be725a78b10"
        }
      ]
    }
  ],
  "data": {
    "created_at": "2017-10-11T15:01:33.000Z",
    "kid": "1e27847a-7043-4b38-be81-0279aee5db42",
    "modified_at": "2021-05-23T22:38:24.954Z",
    "parents": [
      "d96bc508-127b-44cf-a47a-1072d02750f3"
    ],
    "repository": "kara.moe",
    "songorder": 1,
    "tags": {
      "authors": [
        "4ac9beaf-6d3c-4c22-b202-03b4d88198aa"
      ],
      "collections": [
        "c7db86a0-ff64-4044-9be4-66dd1ef1d1c1"
      ],
      "creators": [
        "01b5630b-d291-4ad5-a781-2cb717804d18"
      ],
      "families": [
        "0377db02-3af6-43b8-9b08-c759df3d25c3"
      ],
      "genres": [
        "4b80eca6-f44f-4262-a8d0-b6879d6b70cb"
      ],
      "groups": [
        "8c22c899-b3ed-42da-a548-ce00f950798b",
        "ae613721-1fbe-480d-ba6b-d6d0702b184d"
      ],
      "langs": [
        "4dcf9614-7914-42aa-99f4-dbce2e059133"
      ],
      "origins": [
        "938de218-5343-4865-94d3-fb33f2eaa152"
      ],
      "series": [
        "4d2c32fc-93bf-43bd-82fa-2e9547f2d825"
      ],
      "singers": [
        "705e40f8-00f0-46e5-838a-4181d93de4b2"
      ],
      "songtypes": [
        "38c77c56-2b95-4040-b676-0994a8cb0597"
      ],
      "songwriters": [
        "222ae5d2-c7d4-4ba9-852c-681baf61ece4",
        "832bbda8-bb5b-4e9d-b7e6-460541a144d8"
      ],
      "versions": [
        "9f63c359-d1bf-425a-bcf5-b245c2c9211d"
      ]
    },
    "title": "Gekka",
    "titles": {
      "qro": "Gekka",
      "jpn": "月花"
    },
    "year": 2013,
    "titles_default_language": "qro"
  }
}