{
  "header": {
    "version": 4,
    "description": "Karaoke Mugen Karaoke Data File"
  },
  "medias": [
    {
      "version": "Default",
      "filename": "JPN - Inuyashiki - OP - My Hero.mp4",
      "audiogain": -1.32,
      "loudnorm": "-15.71,-5.02,6.90,-26.06,-1.11",
      "filesize": 59553338,
      "duration": 92,
      "default": true,
      "lyrics": [
        {
          "filename": "JPN - Inuyashiki - OP - My Hero.ass",
          "default": true,
          "version": "Default",
          "subchecksum": "6b08fdbb44986277cf7c2d89f808264b"
        }
      ]
    }
  ],
  "data": {
    "created_at": "2017-11-06T20:41:59.000Z",
    "kid": "b1a21d67-4039-4369-bb84-24b966cd488c",
    "modified_at": "2021-02-25T11:47:45.595Z",
    "repository": "kara.moe",
    "tags": {
      "authors": [
        "5a629611-96b4-422c-b309-ba7a58e263a2",
        "6bebcb04-2694-453c-9e0c-eb1a2e2718d9"
      ],
      "collections": [
        "c7db86a0-ff64-4044-9be4-66dd1ef1d1c1"
      ],
      "creators": [
        "0a86e9ea-5e17-4371-8f2a-60c818324d58"
      ],
      "families": [
        "0377db02-3af6-43b8-9b08-c759df3d25c3"
      ],
      "groups": [
        "33881a14-788e-4e2a-a97d-1e5f51542a26",
        "9a8e0fbc-dcae-4989-be82-7cad3436f1f5",
        "ae613721-1fbe-480d-ba6b-d6d0702b184d"
      ],
      "langs": [
        "4dcf9614-7914-42aa-99f4-dbce2e059133"
      ],
      "origins": [
        "938de218-5343-4865-94d3-fb33f2eaa152"
      ],
      "series": [
        "62f6a68f-fc0f-4ff4-9074-b059719f4268"
      ],
      "singers": [
        "814943f5-30aa-4229-b2ed-120f25825b27"
      ],
      "songtypes": [
        "f02ad9b3-0bd9-4aad-85b3-9976739ba0e4"
      ],
      "songwriters": [
        "3dde98ed-a3a6-473d-8fd2-3dd81eb92b26",
        "6cb0e364-b9d2-4fa9-8dfb-98b095c7ac47"
      ]
    },
    "title": "My Hero",
    "titles": {
      "eng": "My Hero"
    },
    "year": 2017,
    "titles_default_language": "eng"
  }
}