{
  "header": {
    "version": 4,
    "description": "Karaoke Mugen Karaoke Data File"
  },
  "medias": [
    {
      "version": "Default",
      "filename": "JPN - Senki Zesshou Symphogear GX - AUDIO - Arigatou wo Utai Nagara.mp3",
      "audiogain": -6.36,
      "loudnorm": "-11.97,-0.65,7.40,-22.22,-0.82",
      "filesize": 7046053,
      "duration": 278,
      "default": true,
      "lyrics": [
        {
          "filename": "JPN - Senki Zesshou Symphogear GX - AUDIO - Arigatou wo Utai Nagara.ass",
          "default": true,
          "version": "Default"
        }
      ]
    }
  ],
  "data": {
    "created_at": "2020-12-06T17:28:17.048Z",
    "ignoreHooks": false,
    "kid": "9d97eee4-da24-4a50-82df-eaeaed37a208",
    "modified_at": "2022-09-30T21:12:45.164Z",
    "repository": "kara.moe",
    "tags": {
      "authors": [
        "5cb3d0c5-479e-4224-b6ec-b27209e933a0"
      ],
      "collections": [
        "c7db86a0-ff64-4044-9be4-66dd1ef1d1c1"
      ],
      "creators": [
        "d2a29c19-019f-4a3d-86ad-2dae9e41a4b1"
      ],
      "groups": [
        "60defa7b-774e-4680-8321-51b742c2e009",
        "ae613721-1fbe-480d-ba6b-d6d0702b184d"
      ],
      "langs": [
        "4dcf9614-7914-42aa-99f4-dbce2e059133"
      ],
      "origins": [
        "938de218-5343-4865-94d3-fb33f2eaa152"
      ],
      "series": [
        "86627e91-4551-4e88-899b-2cb017e853e0"
      ],
      "singers": [
        "7779578c-3d4e-4aa5-8f54-77023879e8e6",
        "d2bf0734-aede-4e5c-b3a6-6d68b18192dc",
        "f2e9d52b-1b80-4fb5-8754-628462e094e5"
      ],
      "songtypes": [
        "42a262ae-acba-4ab5-a446-c5789c96c821"
      ],
      "songwriters": [
        "a50ecbe0-14d8-4fdc-a6f2-e6263689a4f3",
        "af3ffe51-8059-461c-bbb8-78ea388731f3"
      ],
      "franchises": [
        "61b24082-a6a9-482b-b126-0ad7be595791"
      ]
    },
    "titles": {
      "jpn": "『ありがとう』を唄いながら",
      "qro": "Arigatô wo Utai Nagara"
    },
    "titles_default_language": "qro",
    "titles_aliases": [
      "Arigatou"
    ],
    "title": "Arigatô wo Utai Nagara",
    "year": 2016
  }
}