{
  "header": {
    "version": 4,
    "description": "Karaoke Mugen Karaoke Data File"
  },
  "medias": [
    {
      "version": "Default",
      "filename": "JPN - The iDOLM@STER Cinderella Girls 2 - OP2 - Shine!!.mp4",
      "audiogain": 0.67,
      "loudnorm": "-17.29,-7.21,2.80,-27.38,-0.67",
      "filesize": 50785636,
      "duration": 92,
      "default": true,
      "lyrics": [
        {
          "filename": "JPN - The iDOLM@STER Cinderella Girls 2 - OP2 - Shine!!.ass",
          "default": true,
          "version": "Default",
          "subchecksum": "51a00f1129090da53a88a64d364c19fe"
        }
      ]
    }
  ],
  "data": {
    "created_at": "2017-10-11T17:02:14.000Z",
    "kid": "4d351741-fa9b-4920-838e-48ada64890a9",
    "modified_at": "2021-02-25T13:21:38.784Z",
    "repository": "kara.moe",
    "songorder": 2,
    "tags": {
      "authors": [
        "5bdaba57-27f8-4568-8806-76a807728766"
      ],
      "collections": [
        "c7db86a0-ff64-4044-9be4-66dd1ef1d1c1"
      ],
      "creators": [
        "b96e3686-bbe0-4b9e-815a-a278d5ff31be"
      ],
      "families": [
        "0377db02-3af6-43b8-9b08-c759df3d25c3"
      ],
      "genres": [
        "caa86df2-0d59-474b-885c-f240a9e891b0"
      ],
      "groups": [
        "ae613721-1fbe-480d-ba6b-d6d0702b184d"
      ],
      "langs": [
        "4dcf9614-7914-42aa-99f4-dbce2e059133"
      ],
      "origins": [
        "938de218-5343-4865-94d3-fb33f2eaa152"
      ],
      "series": [
        "684c0a10-9bb5-4bfe-a1fc-590fa8098e59"
      ],
      "singers": [
        "4c6501f8-16c1-48e0-8156-dc541f1dc099",
        "58b21a71-099b-4723-955f-ad08271d96c2",
        "5a76913d-4ff8-4d38-b609-ed7ab3587d43",
        "8077c2cf-274a-4867-9416-dd7a779dca88",
        "88432a3e-73f6-47c1-b0f7-ad35c463c9fa",
        "8ab6e3f9-a691-4fd0-9c55-5426f2218c5d",
        "8c07b462-ab63-415d-8790-37c186abb525",
        "9332cf9e-20a6-4738-98a2-f6ef30529681",
        "99216b8e-b014-41b1-9015-e98d2df6d03e",
        "add519dc-0acf-4ba2-af62-0b6fe9943828",
        "b602c372-ec01-497a-b4d2-aa758830b76a",
        "b7460704-94c8-4850-98f3-07a179e4b834",
        "c4927d85-e42d-415b-9486-be693c8a8bfe",
        "d73946db-0a7e-4845-b00b-2ece8ddfddd8",
        "fbbfcd25-2f98-4f94-9b7b-cef201df2859"
      ],
      "songtypes": [
        "f02ad9b3-0bd9-4aad-85b3-9976739ba0e4"
      ],
      "songwriters": [
        "12bf3975-e982-4cf7-900b-1784cbbae224",
        "615358a2-f34c-43e9-94b1-f64400670128"
      ],
      "franchises": [
        "d34ceea8-7d7c-4d85-9213-18d24d2b7666"
      ]
    },
    "title": "Shine!!",
    "titles": {
      "eng": "Shine!!"
    },
    "year": 2015,
    "titles_default_language": "eng"
  }
}