{
  "header": {
    "version": 4,
    "description": "Karaoke Mugen Karaoke Data File"
  },
  "medias": [
    {
      "version": "Default",
      "filename": "JPN - Tensei Shitara Slime Datta Ken (2021) - IN - Reimei.mp4",
      "audiogain": -0.12,
      "loudnorm": "-17.18,-4.55,7.60,-27.71,-0.76",
      "filesize": 221635583,
      "duration": 281,
      "default": true,
      "lyrics": [
        {
          "filename": "JPN - Tensei Shitara Slime Datta Ken (2021) - IN - Reimei.ass",
          "default": true,
          "version": "Default"
        }
      ]
    }
  ],
  "data": {
    "created_at": "2021-05-11T12:51:04.262Z",
    "kid": "0ad5a4c5-f542-4f31-a6c9-3ff93f6d4aea",
    "modified_at": "2022-07-20T11:40:17.213Z",
    "repository": "kara.moe",
    "tags": {
      "authors": [
        "56b54c89-86ae-4635-992f-ddc1234b8015"
      ],
      "creators": [
        "126e5cf8-763f-43e2-9b09-8a30b586f256"
      ],
      "families": [
        "0377db02-3af6-43b8-9b08-c759df3d25c3"
      ],
      "genres": [
        "4b80eca6-f44f-4262-a8d0-b6879d6b70cb"
      ],
      "groups": [
        "8c22c899-b3ed-42da-a548-ce00f950798b",
        "8e209ae4-4381-438f-89dc-1b21752027d2"
      ],
      "langs": [
        "4dcf9614-7914-42aa-99f4-dbce2e059133"
      ],
      "origins": [
        "938de218-5343-4865-94d3-fb33f2eaa152"
      ],
      "series": [
        "1a7f8735-7ec2-42d4-aaa9-2f09722e03aa"
      ],
      "singers": [
        "61c5e3d4-6a0e-46b6-b622-06f5bc6d3294"
      ],
      "songtypes": [
        "5e5250d9-351a-4a82-98eb-55db50ad8962"
      ],
      "songwriters": [
        "0b44d345-2524-4d13-8e72-fe9518a888e6",
        "61c5e3d4-6a0e-46b6-b622-06f5bc6d3294",
        "7e72484d-b638-4d9a-95f2-5947c59d721b"
      ],
      "collections": [
        "c7db86a0-ff64-4044-9be4-66dd1ef1d1c1"
      ],
      "warnings": [
        "24371984-5e4c-4485-a937-fb0c480ca23b"
      ],
      "franchises": [
        "b78fd943-4356-4bc8-b962-8bb0252f11ce"
      ]
    },
    "titles": {
      "qro": "Reimei",
      "jpn": "黎明"
    },
    "titles_default_language": "qro",
    "title": "Reimei",
    "year": 2021
  }
}