{
  "header": {
    "version": 4,
    "description": "Karaoke Mugen Karaoke Data File"
  },
  "medias": [
    {
      "version": "Default",
      "filename": "JPN - One Piece - OP4 - Bon Voyage!.mp4",
      "audiogain": -3.43,
      "loudnorm": "-14.15,-0.59,3.20,-24.18,-0.09",
      "filesize": 24036182,
      "duration": 82,
      "default": true,
      "lyrics": [
        {
          "filename": "JPN - One Piece - OP4 - Bon Voyage!.ass",
          "default": true,
          "version": "Default",
          "subchecksum": "ec18ad20d7149f41cf99c49c29a8f071"
        }
      ]
    }
  ],
  "data": {
    "created_at": "2017-10-11T17:01:21.000Z",
    "kid": "e71daa0c-a32c-4249-aa66-58f3f828abcc",
    "modified_at": "2021-02-25T12:41:10.340Z",
    "repository": "kara.moe",
    "songorder": 4,
    "tags": {
      "authors": [
        "5bdaba57-27f8-4568-8806-76a807728766"
      ],
      "collections": [
        "c7db86a0-ff64-4044-9be4-66dd1ef1d1c1"
      ],
      "creators": [
        "f694bf43-b427-4244-9744-9d3f84fd8a31"
      ],
      "families": [
        "0377db02-3af6-43b8-9b08-c759df3d25c3"
      ],
      "genres": [
        "a0aeef4a-6428-45ff-a6e1-468b595930c2"
      ],
      "groups": [
        "3c14c864-533c-49e6-a3cc-6969f1233775"
      ],
      "langs": [
        "4dcf9614-7914-42aa-99f4-dbce2e059133"
      ],
      "origins": [
        "938de218-5343-4865-94d3-fb33f2eaa152"
      ],
      "series": [
        "955758fc-ef9b-441e-b9e3-33dd2caf2753"
      ],
      "singers": [
        "c28f0830-a600-4fe1-bf0f-d04b61b1650c"
      ],
      "songtypes": [
        "f02ad9b3-0bd9-4aad-85b3-9976739ba0e4"
      ],
      "songwriters": [
        "9906c0ca-9969-49d0-9d9e-4c0edf882f81",
        "fff79331-b5f3-4815-bde5-5571006a6f1f"
      ],
      "franchises": [
        "955758fc-ef9b-441e-b9e3-33dd2caf2753"
      ]
    },
    "title": "Bon Voyage!",
    "titles": {
      "fre": "Bon Voyage!"
    },
    "year": 2003,
    "titles_default_language": "fre"
  }
}