{
  "header": {
    "version": 4,
    "description": "Karaoke Mugen Karaoke Data File"
  },
  "medias": [
    {
      "version": "Default",
      "filename": "JPN - Link! Like! Love Live! - AUDIO - Eien no Euphoria ~ Full Vers.mp3",
      "audiogain": -10.44,
      "loudnorm": "-6.89,3.56,2.40,-16.94,-0.26",
      "filesize": 4695515,
      "duration": 276,
      "default": true,
      "lyrics": [
        {
          "filename": "JPN - Link! Like! Love Live! - AUDIO - Eien no Euphoria ~ Full Vers.ass",
          "default": true,
          "version": "Default"
        }
      ]
    }
  ],
  "data": {
    "created_at": "2023-06-23T14:29:50.530Z",
    "ignoreHooks": false,
    "kid": "c357aee1-af5d-4bb8-b847-c44681322a48",
    "modified_at": "2023-06-23T14:29:50.530Z",
    "repository": "kara.moe",
    "tags": {
      "authors": [
        "16b136eb-921f-4c07-be38-ff92d5cc4313"
      ],
      "collections": [
        "dbcf2c22-524d-4708-99bb-601703633927"
      ],
      "creators": [
        "b2805292-730e-473a-96f0-fd8e7ffd1fd7"
      ],
      "genres": [
        "caa86df2-0d59-474b-885c-f240a9e891b0"
      ],
      "groups": [
        "8e209ae4-4381-438f-89dc-1b21752027d2"
      ],
      "langs": [
        "4dcf9614-7914-42aa-99f4-dbce2e059133"
      ],
      "series": [
        "c6245b47-6ad8-498a-b790-e6b8a50fea5e"
      ],
      "singers": [
        "1a912ff3-ff2f-4e8a-92de-d2adbb19d0b3",
        "1f0b407a-7bf9-457c-aabf-7d7297c75be2",
        "f5569c82-f01f-4cdb-b1c2-a0db10706211",
        "4e39a0e7-c012-4be9-a2c9-f09cf8d3a31b",
        "e3d01809-fae7-4e97-bff3-73e4fc204ef3",
        "17818c7e-96d1-49fa-963d-10736db97eaf"
      ],
      "singergroups": [
        "dac54d91-1b9b-4d49-843a-122b083d310d"
      ],
      "songtypes": [
        "42a262ae-acba-4ab5-a446-c5789c96c821"
      ],
      "songwriters": [
        "040091a5-2f27-4313-9c33-7ae7ea54a3e1",
        "9e85a747-2a38-40d0-abd7-c16a2bc8101b",
        "2c387c24-2728-4d5a-9d07-0b1af6467cd0"
      ],
      "versions": [
        "c2143a7f-6970-450e-8a79-0302db9220a9"
      ],
      "franchises": [
        "fd5d066e-e85a-4eea-8688-2979a887450a"
      ]
    },
    "titles": {
      "qro": "Eien no Euphoria"
    },
    "titles_default_language": "qro",
    "titles_aliases": [],
    "year": 2023
  }
}