{
  "header": {
    "version": 4,
    "description": "Karaoke Mugen Karaoke Data File"
  },
  "medias": [
    {
      "version": "Default",
      "filename": "JPN - Abenobashi Mahou Shoutengai - OP - Treat or Goblins.mp4",
      "audiogain": 3.36,
      "loudnorm": "-22.39,-6.19,2.60,-32.47,-0.55",
      "filesize": 5396837,
      "duration": 90,
      "default": true,
      "lyrics": [
        {
          "filename": "JPN - Abenobashi Mahou Shoutengai - OP - Treat or Goblins.ass",
          "default": true,
          "version": "Default",
          "subchecksum": "fcabedd03e252cf436c1322e915581df"
        }
      ]
    }
  ],
  "data": {
    "created_at": "2019-08-14T19:37:59.000Z",
    "kid": "15945b3e-56a5-464f-9225-5e5c23c8fd37",
    "modified_at": "2021-02-25T10:35:42.398Z",
    "repository": "kara.moe",
    "tags": {
      "authors": [
        "06852e02-b77e-4106-b6f7-2d03942ad0ea",
        "1db1738f-acdc-42fc-aec3-60f4bddf660d"
      ],
      "collections": [
        "c7db86a0-ff64-4044-9be4-66dd1ef1d1c1"
      ],
      "creators": [
        "9c5cf6ba-0bc8-4cfe-a63c-e9be3a14e9fd",
        "dd729cab-2a78-4282-a402-b242e927a0a5"
      ],
      "families": [
        "0377db02-3af6-43b8-9b08-c759df3d25c3"
      ],
      "groups": [
        "3c14c864-533c-49e6-a3cc-6969f1233775"
      ],
      "langs": [
        "4dcf9614-7914-42aa-99f4-dbce2e059133",
        "de5eda1c-5fb3-46a6-9606-d4554fc5a1d6"
      ],
      "misc": [
        "fe819ff1-9db8-4a0f-85dc-0e322c9126c4"
      ],
      "series": [
        "fb5fc59d-cb67-4f09-9fa2-c7be77c90721"
      ],
      "singers": [
        "326621ef-f074-4b13-9921-9728c65a6dff"
      ],
      "songtypes": [
        "f02ad9b3-0bd9-4aad-85b3-9976739ba0e4"
      ],
      "songwriters": [
        "05e11f1f-17c0-457c-8901-ff08e9cab76c",
        "1266402e-e598-4757-af27-07ed359402cb",
        "1a8b4fb4-31df-4439-be70-245d23b46bff",
        "5999862c-f141-4d99-acb7-3701f5cbf1f9"
      ]
    },
    "title": "Treat or Goblins",
    "titles": {
      "eng": "Treat or Goblins"
    },
    "year": 2002,
    "titles_default_language": "eng"
  }
}