{
  "header": {
    "version": 4,
    "description": "Karaoke Mugen Karaoke Data File"
  },
  "medias": [
    {
      "version": "Default",
      "filename": "JPN - AKB48 - MV - Yume no Kawa.mp4",
      "audiogain": -9.94,
      "loudnorm": "-8.57,1.51,10.40,-18.97,-1.62",
      "filesize": 72636426,
      "duration": 283,
      "default": true,
      "lyrics": [
        {
          "filename": "JPN - AKB48 - MV - Yume no Kawa.ass",
          "default": true,
          "version": "Default"
        }
      ]
    }
  ],
  "data": {
    "created_at": "2019-06-25T20:49:17.000Z",
    "kid": "cef1edf6-60f9-476b-bb5f-84d171e4da4f",
    "modified_at": "2022-06-04T00:15:26.228Z",
    "repository": "kara.moe",
    "songorder": null,
    "tags": {
      "authors": [
        "6dff9198-29f1-470b-bac6-8a60032ca8b8"
      ],
      "families": [
        "5391f9fe-638c-415f-8dc9-958e3a2c5787"
      ],
      "groups": [
        "2b4e9972-5e17-481b-99f5-d0787c0ada56",
        "ae613721-1fbe-480d-ba6b-d6d0702b184d"
      ],
      "langs": [
        "4dcf9614-7914-42aa-99f4-dbce2e059133"
      ],
      "singers": [
        "0efdee07-82c8-47e8-8872-b0c279007c30"
      ],
      "songtypes": [
        "7be1b15c-cff8-4b37-a649-5c90f3d569a9"
      ],
      "songwriters": [
        "19045a57-4bc4-4c83-ad1c-3fa9a3b701b1",
        "fd027eba-068d-4055-b2da-a7ec8ab28803"
      ],
      "collections": [
        "dbcf2c22-524d-4708-99bb-601703633927"
      ]
    },
    "titles": {
      "qro": "Yume no Kawa",
      "jpn": "夢の河"
    },
    "titles_default_language": "qro",
    "title": "Yume no Kawa",
    "year": 2012
  }
}