{
  "header": {
    "version": 4,
    "description": "Karaoke Mugen Karaoke Data File"
  },
  "medias": [
    {
      "version": "Default",
      "filename": "JPN - D4DJ All Mix - IN - Arcana.mp4",
      "audiogain": 1.27,
      "loudnorm": "-17.74,-1.19,4.00,-27.82,-0.40",
      "filesize": 113768494,
      "duration": 108,
      "default": true,
      "lyrics": [
        {
          "filename": "JPN - D4DJ All Mix - IN - Arcana.ass",
          "default": true,
          "version": "Default"
        }
      ]
    }
  ],
  "data": {
    "created_at": "2023-02-26T03:39:43.130Z",
    "ignoreHooks": false,
    "kid": "0ed40c7d-59e4-4da4-8e33-751143a277f0",
    "modified_at": "2023-02-26T03:58:07.348Z",
    "repository": "kara.moe",
    "tags": {
      "authors": [
        "7848b5dc-a5df-4577-b640-147be5288cec"
      ],
      "collections": [
        "c7db86a0-ff64-4044-9be4-66dd1ef1d1c1"
      ],
      "creators": [
        "bd4564a8-44e5-454a-9c57-bd2a3c8a537e"
      ],
      "families": [
        "0377db02-3af6-43b8-9b08-c759df3d25c3"
      ],
      "genres": [
        "caa86df2-0d59-474b-885c-f240a9e891b0"
      ],
      "groups": [
        "8e209ae4-4381-438f-89dc-1b21752027d2"
      ],
      "langs": [
        "4dcf9614-7914-42aa-99f4-dbce2e059133"
      ],
      "misc": [
        "1d6ceadf-a885-47e5-b23b-c07bf668a424"
      ],
      "series": [
        "ea16412c-3971-45f5-b229-15bb481eb447"
      ],
      "singers": [
        "81548020-23db-4eee-82e0-826eebefda45",
        "99d0d6e9-abba-404c-9316-8aa6577762e7",
        "e1737fa3-d27b-4d11-8aae-4d7992486bcb"
      ],
      "singergroups": [
        "8ee92c32-35d2-4688-b196-f0c19cabbeaf"
      ],
      "songtypes": [
        "5e5250d9-351a-4a82-98eb-55db50ad8962"
      ],
      "songwriters": [
        "06e7f257-ef02-4e30-b624-0357f36dfa92"
      ],
      "franchises": [
        "e2e9382c-e3bd-4db9-abaf-194d09099ab0"
      ]
    },
    "titles": {
      "eng": "Arcana"
    },
    "titles_default_language": "eng",
    "year": 2023
  }
}