{
  "header": {
    "version": 4,
    "description": "Karaoke Mugen Karaoke Data File"
  },
  "medias": [
    {
      "version": "Default",
      "filename": "JPN - Eiga Precure All Stars Haru no Carnival - MOVIE ED - Ima Koko kara.mp4",
      "loudnorm": "-15.30,-3.83,15.90,-26.11,-2.39",
      "filesize": 78022762,
      "duration": 188,
      "default": true,
      "lyrics": [
        {
          "filename": "JPN - Eiga Precure All Stars Haru no Carnival - MOVIE ED - Ima Koko kara.ass",
          "default": true,
          "version": "Default"
        }
      ]
    }
  ],
  "data": {
    "created_at": "2023-09-11T18:54:12.228Z",
    "ignoreHooks": false,
    "kid": "768939a9-815f-4cb7-bfac-e7c75180f6ec",
    "modified_at": "2023-09-12T16:13:38.563Z",
    "parents": [
      "e2787614-2c39-4dcc-b851-abd858461522"
    ],
    "repository": "kara.moe",
    "tags": {
      "authors": [
        "2941868f-535f-4ea6-99f9-a0192e0e4dc7"
      ],
      "collections": [
        "c7db86a0-ff64-4044-9be4-66dd1ef1d1c1"
      ],
      "creators": [
        "f694bf43-b427-4244-9744-9d3f84fd8a31"
      ],
      "families": [
        "0377db02-3af6-43b8-9b08-c759df3d25c3",
        "5391f9fe-638c-415f-8dc9-958e3a2c5787"
      ],
      "genres": [
        "b84e28f9-db1e-447f-b339-7954c3592523"
      ],
      "groups": [
        "ae613721-1fbe-480d-ba6b-d6d0702b184d"
      ],
      "langs": [
        "4dcf9614-7914-42aa-99f4-dbce2e059133"
      ],
      "origins": [
        "c8ca9dea-d8b4-48fe-8427-d911653232e9"
      ],
      "series": [
        "3b38aef3-5f92-411d-94c5-1bf26c35210f"
      ],
      "singers": [
        "070b95ba-16d6-4953-9a6e-e44dda5708d3",
        "1ecda4db-a97c-4bc7-aaf2-50210fdb2399",
        "1f3b689f-a870-4bfb-8dca-1b2d0ab3403a",
        "2964e8ab-4b1b-4326-b747-8d80a0acd81b",
        "2a61c337-1e3b-4a4b-b61b-900091ede0b2",
        "2c05cd82-cd70-4293-b4ea-835448416b0c",
        "434fd535-1b85-41c3-a4f6-e04696abd1b6",
        "92b66c8e-263a-439d-bc81-2eff9aab57ab",
        "97561480-935d-4565-8a98-123a17db3810",
        "9c7f44aa-510c-4ffa-bed8-a43398721054",
        "b09fd046-1130-48c0-893a-304552ea4603",
        "c86e5410-4b44-4d68-b29c-4d0e5aff206f",
        "dd7c9615-2702-4903-8dcd-0e6b92d346a9"
      ],
      "singergroups": [
        "94320683-0d79-407f-a8ae-5b0c2a19f187"
      ],
      "songtypes": [
        "38c77c56-2b95-4040-b676-0994a8cb0597"
      ],
      "songwriters": [
        "8d57f381-7300-4980-94d5-6cf8b4f6912b",
        "b929fec7-a44a-473e-bc10-439574dea27e",
        "e3aca029-c16e-4507-b0b8-04db599cc83c"
      ],
      "franchises": [
        "0067bd2a-ad9f-49eb-9e57-4a3ee0c9622a"
      ]
    },
    "titles": {
      "eng": "From Here And Now",
      "jpn": "イマココカラ",
      "qro": "Ima Koko kara"
    },
    "titles_default_language": "qro",
    "year": 2015
  }
}