{
  "header": {
    "version": 4,
    "description": "Karaoke Mugen Karaoke Data File"
  },
  "medias": [
    {
      "version": "Default",
      "filename": "JPN - You Kamiyama - MV - Yellow.mp4",
      "audiogain": -9.54,
      "loudnorm": "-7.57,2.02,4.60,-17.63,-0.65",
      "filesize": 24475322,
      "duration": 180,
      "default": true,
      "lyrics": [
        {
          "filename": "JPN - You Kamiyama - MV - Yellow.ass",
          "default": true,
          "version": "Default",
          "subchecksum": "1f90fa912b2631a5d8b07ca6212b8ae4"
        }
      ]
    }
  ],
  "data": {
    "created_at": "2020-04-24T22:45:34.581Z",
    "kid": "a6da4cad-36ad-4a84-b31a-ef9262a07a11",
    "modified_at": "2021-02-25T13:40:24.302Z",
    "repository": "kara.moe",
    "tags": {
      "authors": [
        "6b38e6cc-bc88-4cf5-9bfc-a46c03435bab"
      ],
      "collections": [
        "c7db86a0-ff64-4044-9be4-66dd1ef1d1c1"
      ],
      "families": [
        "0377db02-3af6-43b8-9b08-c759df3d25c3"
      ],
      "groups": [
        "ae613721-1fbe-480d-ba6b-d6d0702b184d"
      ],
      "langs": [
        "4dcf9614-7914-42aa-99f4-dbce2e059133"
      ],
      "singers": [
        "48f8bfe5-dde8-4f10-87d0-9dd8c71f04e6"
      ],
      "songtypes": [
        "7be1b15c-cff8-4b37-a649-5c90f3d569a9"
      ],
      "songwriters": [
        "48f8bfe5-dde8-4f10-87d0-9dd8c71f04e6"
      ]
    },
    "title": "Yellow",
    "titles": {
      "eng": "YELLOW"
    },
    "year": 2019,
    "titles_default_language": "eng"
  }
}