{
  "header": {
    "version": 4,
    "description": "Karaoke Mugen Karaoke Data File"
  },
  "medias": [
    {
      "version": "Default",
      "filename": "JPN - Shoujo Kageki Revue Starlight Movie - MOVIE IN - MEDAL SUZDAL PANIC.mp4",
      "audiogain": -7.92,
      "loudnorm": "-10.39,0.10,10.50,-20.80,-0.47",
      "filesize": 80735397,
      "duration": 505,
      "default": true,
      "lyrics": [
        {
          "filename": "JPN - Shoujo Kageki Revue Starlight Movie - MOVIE IN - MEDAL SUZDAL PANIC.ass",
          "default": true,
          "version": "Default"
        }
      ]
    }
  ],
  "data": {
    "created_at": "2023-07-14T20:15:48.389Z",
    "ignoreHooks": false,
    "kid": "a274310d-1ac0-465e-9dd6-04ca134fa1bd",
    "modified_at": "2023-07-14T20:15:48.492Z",
    "repository": "kara.moe",
    "tags": {
      "authors": [
        "7848b5dc-a5df-4577-b640-147be5288cec"
      ],
      "collections": [
        "c7db86a0-ff64-4044-9be4-66dd1ef1d1c1"
      ],
      "creators": [
        "08df259d-c4ec-458e-a066-af38a9f7ccc5"
      ],
      "families": [
        "0377db02-3af6-43b8-9b08-c759df3d25c3"
      ],
      "groups": [
        "8e209ae4-4381-438f-89dc-1b21752027d2"
      ],
      "langs": [
        "4dcf9614-7914-42aa-99f4-dbce2e059133"
      ],
      "origins": [
        "c8ca9dea-d8b4-48fe-8427-d911653232e9"
      ],
      "series": [
        "f628ef85-4ab4-4c62-b458-7ca124a665c5"
      ],
      "singers": [
        "e3ec5558-2fa7-44e9-a4a4-59910a7a3370",
        "4fc68333-b1f6-44ce-b2be-ac4866b78932"
      ],
      "songtypes": [
        "5e5250d9-351a-4a82-98eb-55db50ad8962"
      ],
      "songwriters": [
        "ead196cc-e1e3-43a4-8804-dd4199e89c4e",
        "fa5642c5-e986-4ef6-92ca-e100df0e615f",
        "c42d04e6-cbdd-4427-b0ed-82563ca591c4"
      ],
      "misc": [
        "86705d4b-24e4-4756-9687-2b9c98bcf366"
      ]
    },
    "titles": {
      "qro": "MEDAL SUZDAL PANIC◎〇●"
    },
    "titles_default_language": "qro",
    "year": 2021
  }
}