{
  "header": {
    "version": 4,
    "description": "Karaoke Mugen Karaoke Data File"
  },
  "medias": [
    {
      "version": "Default",
      "filename": "JPN - Touhou - MV - Jikan yo tomare.mp4",
      "audiogain": -1.16,
      "loudnorm": "-17.12,-1.05,9.10,-27.46,0.17",
      "filesize": 61053975,
      "duration": 306,
      "default": true,
      "lyrics": [
        {
          "filename": "JPN - Touhou - MV - Jikan yo tomare.ass",
          "default": true,
          "version": "Default"
        }
      ]
    }
  ],
  "data": {
    "created_at": "2023-02-26T18:05:47.553Z",
    "ignoreHooks": false,
    "kid": "7bc42c55-30ca-4e57-8857-8a75df668584",
    "modified_at": "2023-06-24T15:40:59.415Z",
    "repository": "kara.moe",
    "tags": {
      "authors": [
        "61865310-cb97-496c-a722-364b0a9ba90d"
      ],
      "collections": [
        "c7db86a0-ff64-4044-9be4-66dd1ef1d1c1"
      ],
      "creators": [
        "e079fece-a1e3-4d31-adcb-07a9adf01df6"
      ],
      "families": [
        "0377db02-3af6-43b8-9b08-c759df3d25c3"
      ],
      "groups": [
        "8c22c899-b3ed-42da-a548-ce00f950798b",
        "8e209ae4-4381-438f-89dc-1b21752027d2"
      ],
      "langs": [
        "4dcf9614-7914-42aa-99f4-dbce2e059133"
      ],
      "misc": [
        "1d6ceadf-a885-47e5-b23b-c07bf668a424",
        "86705d4b-24e4-4756-9687-2b9c98bcf366"
      ],
      "series": [
        "1bdaa5a1-dfa6-4365-b746-7a0b194dafd6"
      ],
      "singers": [
        "5d2078a0-229a-45b3-8fc9-00ca24211a4d",
        "df7eaeb6-af8a-4277-8527-ce1a41d4cd39"
      ],
      "singergroups": [
        "e079fece-a1e3-4d31-adcb-07a9adf01df6"
      ],
      "songtypes": [
        "7be1b15c-cff8-4b37-a649-5c90f3d569a9"
      ],
      "songwriters": [
        "26cb5252-8510-49e0-897c-a611a05fc056",
        "832445d7-4bc0-4c33-ab22-ecca31746885",
        "9677e10e-aa5b-4d1d-9861-df3a624bb8d9",
        "ad6c8a13-bad9-4897-974d-d03b9f8dd685"
      ],
      "franchises": [
        "1bdaa5a1-dfa6-4365-b746-7a0b194dafd6"
      ]
    },
    "titles": {
      "jpn": "時間よ止まれ",
      "qro": "Jikan yo tomare"
    },
    "titles_default_language": "qro",
    "year": 2021
  }
}