{
  "header": {
    "version": 4,
    "description": "Karaoke Mugen Karaoke Data File"
  },
  "medias": [
    {
      "version": "Default",
      "filename": "JPN - Mahou Sensou - OP - Senkou no PRISONER.mp4",
      "audiogain": 1.76,
      "loudnorm": "-19.99,-8.71,4.00,-30.07,-0.71",
      "filesize": 45211115,
      "duration": 91,
      "default": true,
      "lyrics": [
        {
          "filename": "JPN - Mahou Sensou - OP - Senkou no PRISONER.ass",
          "default": true,
          "version": "Default"
        }
      ]
    }
  ],
  "data": {
    "created_at": "2017-10-11T17:01:16.000Z",
    "ignoreHooks": false,
    "kid": "951dc0a6-066e-4365-90c1-e3aaad15b782",
    "modified_at": "2022-09-30T20:04:25.852Z",
    "repository": "kara.moe",
    "tags": {
      "authors": [
        "5bdaba57-27f8-4568-8806-76a807728766"
      ],
      "collections": [
        "c7db86a0-ff64-4044-9be4-66dd1ef1d1c1"
      ],
      "creators": [
        "9c5cf6ba-0bc8-4cfe-a63c-e9be3a14e9fd"
      ],
      "families": [
        "0377db02-3af6-43b8-9b08-c759df3d25c3"
      ],
      "groups": [
        "ae613721-1fbe-480d-ba6b-d6d0702b184d"
      ],
      "langs": [
        "4dcf9614-7914-42aa-99f4-dbce2e059133"
      ],
      "origins": [
        "938de218-5343-4865-94d3-fb33f2eaa152"
      ],
      "series": [
        "c2211f08-3b3b-4848-9eea-51ee4040c8a2"
      ],
      "singers": [
        "11717b5d-db4e-4b3f-9de0-1a9c03dc0871"
      ],
      "songtypes": [
        "f02ad9b3-0bd9-4aad-85b3-9976739ba0e4"
      ],
      "songwriters": [
        "7e72484d-b638-4d9a-95f2-5947c59d721b",
        "a23e6b58-22ee-4a65-9199-07bb49271033"
      ]
    },
    "titles": {
      "jpn": "閃光のPRISONER",
      "qro": "Senkô no PRISONER"
    },
    "titles_default_language": "qro",
    "title": "Senkô no PRISONER",
    "year": 2014,
    "titles_aliases": [
      "Senkou"
    ]
  }
}