{
  "header": {
    "version": 4,
    "description": "Karaoke Mugen Karaoke Data File"
  },
  "medias": [
    {
      "version": "Default",
      "filename": "JPN - Tensei Shitara Ken Deshita - OP - Tensei Shitara Ken Deshita.mp4",
      "audiogain": 7.54,
      "loudnorm": "-24.52,-11.74,3.20,-34.53,-0.48",
      "filesize": 75284511,
      "duration": 89,
      "default": true,
      "lyrics": [
        {
          "filename": "JPN - Tensei Shitara Ken Deshita - OP - Tensei Shitara Ken Deshita.ass",
          "default": true,
          "version": "Default"
        }
      ]
    }
  ],
  "data": {
    "created_at": "2022-11-03T11:08:09.543Z",
    "ignoreHooks": false,
    "kid": "849297f1-fcd1-4160-a085-e559cdc36178",
    "modified_at": "2022-11-03T11:08:09.651Z",
    "repository": "kara.moe",
    "tags": {
      "authors": [
        "9cdf3b70-3550-457c-bdb9-038f3253c6ad"
      ],
      "collections": [
        "c7db86a0-ff64-4044-9be4-66dd1ef1d1c1"
      ],
      "creators": [
        "c5b27231-6ac3-4a71-9d0c-06aa0282f55f"
      ],
      "families": [
        "0377db02-3af6-43b8-9b08-c759df3d25c3"
      ],
      "genres": [
        "4b80eca6-f44f-4262-a8d0-b6879d6b70cb"
      ],
      "langs": [
        "4dcf9614-7914-42aa-99f4-dbce2e059133"
      ],
      "origins": [
        "938de218-5343-4865-94d3-fb33f2eaa152"
      ],
      "series": [
        "cb421696-1bbb-4807-a271-516822900870"
      ],
      "singers": [
        "e1ee7c73-a565-4e83-b1b3-d7789a512415"
      ],
      "songtypes": [
        "f02ad9b3-0bd9-4aad-85b3-9976739ba0e4"
      ],
      "songwriters": [
        "30efaa5a-83a8-46db-89cb-130bcf0e4cb9"
      ],
      "groups": [
        "8e209ae4-4381-438f-89dc-1b21752027d2"
      ]
    },
    "titles": {
      "jpn": "転生したら剣でした",
      "qro": "Tensei Shitara Ken Deshita"
    },
    "titles_default_language": "qro",
    "title": "Tensei Shitara Ken Deshita",
    "year": 2022
  }
}