{
  "header": {
    "version": 4,
    "description": "Karaoke Mugen Karaoke Data File"
  },
  "medias": [
    {
      "version": "Default",
      "filename": "JPN - Ojamajo Doremi Dokkaan! - ED2 - Ojamajo Ondo de Happippi!!.mp4",
      "audiogain": -3,
      "loudnorm": "-16.67,-0.05,3.20,-26.76,-0.52",
      "filesize": 17991952,
      "duration": 90,
      "default": true,
      "lyrics": [
        {
          "filename": "JPN - Ojamajo Doremi Dokkaan! - ED2 - Ojamajo Ondo de Happippi!!.ass",
          "default": true,
          "version": "Default",
          "subchecksum": "65bd8964c1f79bc91e12cc6e659d414c"
        }
      ]
    }
  ],
  "data": {
    "created_at": "2017-10-11T17:02:01.000Z",
    "kid": "d447f7cc-9f56-4af3-8f64-2d051ff6342c",
    "modified_at": "2021-02-25T12:40:15.540Z",
    "repository": "kara.moe",
    "songorder": 2,
    "tags": {
      "authors": [
        "6bebcb04-2694-453c-9e0c-eb1a2e2718d9"
      ],
      "collections": [
        "c7db86a0-ff64-4044-9be4-66dd1ef1d1c1"
      ],
      "creators": [
        "f694bf43-b427-4244-9744-9d3f84fd8a31"
      ],
      "families": [
        "0377db02-3af6-43b8-9b08-c759df3d25c3"
      ],
      "genres": [
        "b84e28f9-db1e-447f-b339-7954c3592523"
      ],
      "groups": [
        "3c14c864-533c-49e6-a3cc-6969f1233775"
      ],
      "langs": [
        "4dcf9614-7914-42aa-99f4-dbce2e059133"
      ],
      "origins": [
        "938de218-5343-4865-94d3-fb33f2eaa152"
      ],
      "series": [
        "7fea6e6e-a8d3-473e-bbf7-035b84e97760"
      ],
      "singers": [
        "0b79f981-6449-42f6-b73b-269652c5c866",
        "0bc9a85f-a977-4907-9028-31a80d815119",
        "80b76527-54fa-44c5-887c-b16cce4f8922",
        "a25e433f-89a6-47d2-b3df-5dcd692df4c1",
        "c3f6904e-fd32-454b-92d6-d507a4ff559f",
        "c95ee4be-5591-48a5-b79c-b69e5e5c9f0f",
        "ca72f57f-20ef-4aab-a677-650df8a2d3e2"
      ],
      "songtypes": [
        "38c77c56-2b95-4040-b676-0994a8cb0597"
      ],
      "songwriters": [
        "285df0bd-134b-4b8a-95b1-7dbc278df8fa"
      ],
      "franchises": [
        "bfcefd13-8780-49fe-88aa-f64bdc8f6103"
      ]
    },
    "title": "Ojamajo Ondo de Happippi!!",
    "titles": {
      "qro": "Ojamajo Ondo de Happippi!!",
      "jpn": "おジャ魔女音頭でハッピッピ!!"
    },
    "year": 2002,
    "titles_default_language": "qro"
  }
}