{
  "header": {
    "version": 4,
    "description": "Karaoke Mugen Karaoke Data File"
  },
  "medias": [
    {
      "version": "Alternative.",
      "filename": "JPN - Sakura Taisen 3 Paris wa Moeteiru ka - PS2 PC GAME OP1 - Mihata no Moto ni ~ Alternative Vers.mp4",
      "audiogain": -8.3,
      "loudnorm": "-11.20,0.19,7.80,-21.38,-1.16",
      "filesize": 68617536,
      "duration": 104,
      "default": true,
      "lyrics": [
        {
          "filename": "JPN - Sakura Taisen 3 Paris wa Moeteiru ka - PS2 PC GAME OP1 - Mihata no Moto ni ~ Alternative Vers.ass",
          "default": true,
          "version": "Default",
          "subchecksum": "5c6d42b47748feba6d2dbdd64328b228"
        }
      ]
    }
  ],
  "data": {
    "created_at": "2020-05-24T00:34:45.469Z",
    "kid": "1f40df4d-37c4-4709-b667-7deac71fb1e5",
    "modified_at": "2021-05-23T22:38:25.453Z",
    "parents": [
      "08a4f377-1093-4cac-94d6-b1015c66a6e4"
    ],
    "repository": "kara.moe",
    "songorder": 1,
    "tags": {
      "authors": [
        "1df04771-a378-4f14-a5e1-1455187d681a"
      ],
      "collections": [
        "c7db86a0-ff64-4044-9be4-66dd1ef1d1c1"
      ],
      "creators": [
        "500e2283-ec1c-46cf-a559-8e11e3e86d99",
        "b8a3778d-0864-4135-9053-1def02d3262e",
        "ea2c97ab-72a6-4867-a3a7-1e7f0dfbcfc6"
      ],
      "genres": [
        "f60ba57d-5ef4-49e0-b93b-d0dcbcff6592"
      ],
      "groups": [
        "ae613721-1fbe-480d-ba6b-d6d0702b184d"
      ],
      "langs": [
        "4dcf9614-7914-42aa-99f4-dbce2e059133"
      ],
      "platforms": [
        "2173004e-21da-45c9-9dfb-26014423c566",
        "3c15f758-e1bc-4266-8bb9-3c14112f504a",
        "cf4a3dd9-affa-49b4-ad4c-67cbadf09c8d"
      ],
      "series": [
        "0f249c53-0ce0-4d64-8ed0-50586148b8f9"
      ],
      "singers": [
        "45d60c9a-d4a2-4fcc-b101-24005218f36e",
        "5fe433a6-1604-4892-b859-b71bc8212b78",
        "6fbd9a22-5015-4f6d-9d67-a81c2291ac55",
        "8f7f8994-bfef-4fc9-b2e7-a0eeffbca01e",
        "9eba9b17-ad7f-4b5b-876c-3e5c0254c9d4"
      ],
      "songtypes": [
        "f02ad9b3-0bd9-4aad-85b3-9976739ba0e4"
      ],
      "songwriters": [
        "2461dcff-0d44-481a-9841-a8ae3e3d53db",
        "2d718c99-fcaf-494b-8216-06f2d66e66a5",
        "7cc5d197-4923-4d92-a0e8-deffcf49b1cf"
      ],
      "versions": [
        "9f63c359-d1bf-425a-bcf5-b245c2c9211d"
      ],
      "franchises": [
        "3843ae35-0d40-4fef-9bda-0c222c2e5682"
      ],
      "origins": [
        "dbedd6b3-d125-4cd8-aa32-c4175e4ca3a3"
      ]
    },
    "title": "Mihata no Moto ni",
    "titles": {
      "qro": "Mihata no Moto ni",
      "jpn": "御旗のもとに"
    },
    "year": 2010,
    "titles_default_language": "qro"
  }
}