{
  "header": {
    "version": 4,
    "description": "Karaoke Mugen Karaoke Data File"
  },
  "medias": [
    {
      "version": "Default",
      "filename": "JPN - Project SEKAI COLORFUL STAGE! - GAME MV - drop pop candy ~ Cover Short Vers.mp4",
      "audiogain": -9.98,
      "loudnorm": "-6.96,2.84,5.90,-16.99,-1.42",
      "filesize": 41377220,
      "duration": 115,
      "default": true,
      "lyrics": [
        {
          "filename": "JPN - Project SEKAI COLORFUL STAGE! - GAME MV - drop pop candy ~ Cover Short Vers.ass",
          "default": true,
          "version": "Default"
        }
      ]
    }
  ],
  "data": {
    "created_at": "2022-01-30T16:28:37.953Z",
    "ignoreHooks": false,
    "kid": "7fbb28d6-99e2-4dab-9a4e-b57436b04581",
    "modified_at": "2023-02-05T12:42:05.705Z",
    "parents": [
      "7fbeb5f7-7c8f-4857-9768-d6201ae80290"
    ],
    "repository": "kara.moe",
    "tags": {
      "authors": [
        "244ec47a-1d4d-472d-9588-67e859bf27df",
        "5a629611-96b4-422c-b309-ba7a58e263a2"
      ],
      "collections": [
        "c7db86a0-ff64-4044-9be4-66dd1ef1d1c1"
      ],
      "creators": [
        "1e5648fb-22fc-474d-b865-254eb31fa000"
      ],
      "genres": [
        "45623cae-6d68-4304-a49b-896d1d6f4580"
      ],
      "groups": [
        "8c22c899-b3ed-42da-a548-ce00f950798b",
        "8e209ae4-4381-438f-89dc-1b21752027d2"
      ],
      "langs": [
        "4dcf9614-7914-42aa-99f4-dbce2e059133"
      ],
      "misc": [
        "1d6ceadf-a885-47e5-b23b-c07bf668a424"
      ],
      "platforms": [
        "213a1a15-e73a-4a08-b3f6-b6e2745a82e5"
      ],
      "series": [
        "192b33fb-638a-4680-bdb2-a5adb9889849"
      ],
      "singers": [
        "79f710d5-270e-4b17-957e-037ff0eae3fe",
        "c06de857-8928-41e9-b5db-d5af620d0f89",
        "dbb8d613-a120-46c7-bb42-bc6c1efb61f7",
        "e53db9de-5632-41d6-8911-afb2f27545b0"
      ],
      "singergroups": [
        "e1de7634-8683-4738-9dfb-a66121ec36c5"
      ],
      "songtypes": [
        "7be1b15c-cff8-4b37-a649-5c90f3d569a9"
      ],
      "songwriters": [
        "466ad700-8ba6-4dea-80a7-c0b763548a72",
        "ff1aec1d-751a-40ff-bbff-a3f0fd5e9749"
      ],
      "versions": [
        "03e1e1d2-8641-47b7-bbcb-39a3df9ff21c",
        "d125c80a-86c1-4321-88e9-07b7800679b6"
      ],
      "origins": [
        "dbedd6b3-d125-4cd8-aa32-c4175e4ca3a3"
      ]
    },
    "titles": {
      "eng": "drop pop candy"
    },
    "titles_default_language": "eng",
    "year": 2021
  }
}