{
  "header": {
    "version": 4,
    "description": "Karaoke Mugen Karaoke Data File"
  },
  "medias": [
    {
      "version": "Default",
      "filename": "JPN - Touhou - GAME PC AUDIO - Ooeyama Drinking Song.mp3",
      "audiogain": -8.83,
      "loudnorm": "-7.59,1.20,3.10,-17.68,-0.48",
      "filesize": 11067542,
      "duration": 268,
      "default": true,
      "lyrics": [
        {
          "filename": "JPN - Touhou - GAME PC AUDIO - Ooeyama Drinking Song.ass",
          "default": true,
          "version": "Default"
        }
      ]
    }
  ],
  "data": {
    "created_at": "2022-01-07T17:26:27.334Z",
    "kid": "f21ddaa2-994f-4517-be88-72a3de08a6f2",
    "modified_at": "2022-01-07T17:35:15.266Z",
    "repository": "kara.moe",
    "tags": {
      "authors": [
        "db867b9b-f487-444d-9f24-142c4324a235"
      ],
      "collections": [
        "c7db86a0-ff64-4044-9be4-66dd1ef1d1c1"
      ],
      "creators": [
        "ca654b25-30b5-4054-a2c0-35028fdcae22"
      ],
      "groups": [
        "3c14c864-533c-49e6-a3cc-6969f1233775"
      ],
      "langs": [
        "4dcf9614-7914-42aa-99f4-dbce2e059133"
      ],
      "platforms": [
        "3c15f758-e1bc-4266-8bb9-3c14112f504a"
      ],
      "series": [
        "1bdaa5a1-dfa6-4365-b746-7a0b194dafd6"
      ],
      "singers": [
        "cf05e69c-6005-4262-98cd-4a9884d721ea"
      ],
      "songtypes": [
        "42a262ae-acba-4ab5-a446-c5789c96c821"
      ],
      "songwriters": [
        "1ea59253-bc48-45fa-a27d-40d976321261",
        "23351848-e3cc-4420-b564-db2bfe2b7f3d",
        "26cb5252-8510-49e0-897c-a611a05fc056"
      ],
      "franchises": [
        "1bdaa5a1-dfa6-4365-b746-7a0b194dafd6"
      ]
    },
    "titles": {
      "qro": "Ooeyama Nonbee Ondo",
      "jpn": "大江山呑んべぇ音頭"
    },
    "title": "Ooeyama Drinking Song",
    "year": 2009,
    "titles_default_language": "qro"
  }
}