{
  "header": {
    "version": 4,
    "description": "Karaoke Mugen Karaoke Data File"
  },
  "medias": [
    {
      "version": "Default",
      "filename": "JPN - Go! Princess PreCure - OP - Miracle Go! Princess PreCure.mp4",
      "audiogain": 4.22,
      "loudnorm": "-23.74,-8.63,5.10,-33.93,0.88",
      "filesize": 67827834,
      "duration": 107,
      "default": true,
      "lyrics": [
        {
          "filename": "JPN - Go! Princess PreCure - OP - Miracle Go! Princess PreCure.ass",
          "default": true,
          "version": "Default",
          "subchecksum": "dfbb7a83688caf390d00a0499f5216c6"
        }
      ]
    }
  ],
  "data": {
    "created_at": "2017-10-11T17:03:03.000Z",
    "kid": "0a07ae3c-2196-49ef-9a7d-8bfa76b2645c",
    "modified_at": "2021-02-25T11:30:09.905Z",
    "repository": "kara.moe",
    "tags": {
      "authors": [
        "5bdaba57-27f8-4568-8806-76a807728766"
      ],
      "collections": [
        "c7db86a0-ff64-4044-9be4-66dd1ef1d1c1"
      ],
      "creators": [
        "f694bf43-b427-4244-9744-9d3f84fd8a31"
      ],
      "families": [
        "0377db02-3af6-43b8-9b08-c759df3d25c3"
      ],
      "genres": [
        "b84e28f9-db1e-447f-b339-7954c3592523"
      ],
      "groups": [
        "ae613721-1fbe-480d-ba6b-d6d0702b184d"
      ],
      "langs": [
        "4dcf9614-7914-42aa-99f4-dbce2e059133"
      ],
      "origins": [
        "938de218-5343-4865-94d3-fb33f2eaa152"
      ],
      "series": [
        "07c8585a-d342-44a2-bd84-13a167521983"
      ],
      "singers": [
        "b607e60e-e507-476f-9738-d1bf01ed0898"
      ],
      "songtypes": [
        "f02ad9b3-0bd9-4aad-85b3-9976739ba0e4"
      ],
      "songwriters": [
        "5eea063b-c020-48c5-9675-6988a2159cb2",
        "99fc4480-0acb-46e3-b1f1-50c0df44fa0f"
      ],
      "franchises": [
        "0067bd2a-ad9f-49eb-9e57-4a3ee0c9622a"
      ]
    },
    "title": "Miracle Go! Princess PreCure",
    "titles": {
      "qro": "Miracle Go! Princess PreCure",
      "jpn": "Miracle Gо!プリンセスプリキュア"
    },
    "year": 2015,
    "titles_default_language": "qro"
  }
}