{
  "header": {
    "version": 4,
    "description": "Karaoke Mugen Karaoke Data File"
  },
  "medias": [
    {
      "version": "Default",
      "filename": "JPN - ASIAN KUNG-FU GENERATION - LIVE - Last Scene ~ Full Vers.mp4",
      "audiogain": -3.76,
      "loudnorm": "-13.96,0.09,9.30,-24.21,-1.81",
      "filesize": 29643445,
      "duration": 233,
      "default": true,
      "lyrics": [
        {
          "filename": "JPN - ASIAN KUNG-FU GENERATION - LIVE - Last Scene ~ Full Vers.ass",
          "default": true,
          "version": "Default"
        }
      ]
    }
  ],
  "data": {
    "created_at": "2020-05-10T23:02:34.191Z",
    "ignoreHooks": false,
    "kid": "b525c52d-c563-4fa2-9f0a-0125f342835c",
    "modified_at": "2022-12-21T22:36:36.313Z",
    "repository": "kara.moe",
    "tags": {
      "authors": [
        "1c9f3b53-973d-419e-9e29-9067c9896139"
      ],
      "collections": [
        "dbcf2c22-524d-4708-99bb-601703633927"
      ],
      "creators": [
        "6df34030-d5ec-4480-a1c2-20103a7c0b63"
      ],
      "families": [
        "5391f9fe-638c-415f-8dc9-958e3a2c5787"
      ],
      "groups": [
        "3c14c864-533c-49e6-a3cc-6969f1233775",
        "60defa7b-774e-4680-8321-51b742c2e009"
      ],
      "langs": [
        "4dcf9614-7914-42aa-99f4-dbce2e059133"
      ],
      "singers": [
        "6d7243f4-797e-40a2-980d-1fc467d456d8"
      ],
      "songtypes": [
        "a0167949-580c-4de3-bf13-497e462e02f3"
      ],
      "songwriters": [
        "8bede077-b96f-415c-8057-552e236fe01a"
      ],
      "versions": [
        "c2143a7f-6970-450e-8a79-0302db9220a9"
      ]
    },
    "titles": {
      "eng": "Last Scene"
    },
    "titles_default_language": "eng",
    "year": 2005
  }
}