{
  "header": {
    "version": 4,
    "description": "Karaoke Mugen Karaoke Data File"
  },
  "medias": [
    {
      "version": "Default",
      "filename": "JPN - Golden Kamuy 2nd Season - OP - Reimei.mp4",
      "audiogain": -1.74,
      "loudnorm": "-15.99,-7.76,3.70,-25.99,-0.67",
      "filesize": 44962292,
      "duration": 89,
      "default": true,
      "lyrics": [
        {
          "filename": "JPN - Golden Kamuy 2nd Season - OP - Reimei.ass",
          "default": true,
          "version": "Default",
          "subchecksum": "b74089c54daef453a62338172b7a3794"
        }
      ]
    }
  ],
  "data": {
    "created_at": "2018-11-20T18:48:53.000Z",
    "kid": "0eeb4962-037b-404c-8756-a6a2d551e11e",
    "modified_at": "2021-02-25T11:31:00.454Z",
    "repository": "kara.moe",
    "tags": {
      "authors": [
        "6bebcb04-2694-453c-9e0c-eb1a2e2718d9"
      ],
      "collections": [
        "c7db86a0-ff64-4044-9be4-66dd1ef1d1c1"
      ],
      "creators": [
        "d5b08f0d-4f4f-4c95-afa9-77ba410400c6"
      ],
      "families": [
        "0377db02-3af6-43b8-9b08-c759df3d25c3"
      ],
      "groups": [
        "ae613721-1fbe-480d-ba6b-d6d0702b184d"
      ],
      "langs": [
        "4dcf9614-7914-42aa-99f4-dbce2e059133"
      ],
      "origins": [
        "938de218-5343-4865-94d3-fb33f2eaa152"
      ],
      "series": [
        "ece11756-32ef-442d-8a83-5417fa4d6545"
      ],
      "singers": [
        "8e0404ba-681e-45f0-8ad0-45ca8f4687fb",
        "ce798a98-0f9a-45b2-8efa-d9ecf4beb31c"
      ],
      "songtypes": [
        "f02ad9b3-0bd9-4aad-85b3-9976739ba0e4"
      ],
      "songwriters": [
        "3fef9b58-8606-46d4-988e-0fcf47ca2284",
        "8e0404ba-681e-45f0-8ad0-45ca8f4687fb",
        "ea7fabf6-4b9d-4215-857a-91672064b648"
      ],
      "franchises": [
        "58a234b2-1593-4fbd-ab65-b47a5a5f771a"
      ]
    },
    "title": "Reimei",
    "titles": {
      "qro": "Reimei",
      "jpn": "レイメイ"
    },
    "year": 2018,
    "titles_default_language": "qro"
  }
}