{
  "header": {
    "version": 4,
    "description": "Karaoke Mugen Karaoke Data File"
  },
  "medias": [
    {
      "version": "Default",
      "filename": "JPN - B-Project Zecchou Emotion - IN - Juggler.mp4",
      "audiogain": 6.01,
      "loudnorm": "-22.69,-11.80,2.30,-32.69,-0.62",
      "filesize": 61645021,
      "duration": 101,
      "default": true,
      "lyrics": [
        {
          "filename": "JPN - B-Project Zecchou Emotion - IN - Juggler.ass",
          "default": true,
          "version": "Default"
        }
      ]
    }
  ],
  "data": {
    "created_at": "2022-06-26T15:04:34.147Z",
    "ignoreHooks": false,
    "kid": "630f09b1-9836-4fd2-a4e6-747d4f22205d",
    "modified_at": "2023-07-15T10:31:12.258Z",
    "repository": "kara.moe",
    "tags": {
      "authors": [
        "ee8628c8-9b7f-415b-bc0d-9b712d5daf8c"
      ],
      "collections": [
        "c7db86a0-ff64-4044-9be4-66dd1ef1d1c1"
      ],
      "creators": [
        "4d17b0cf-92fd-4ab3-8035-8a260a772e51"
      ],
      "families": [
        "0377db02-3af6-43b8-9b08-c759df3d25c3"
      ],
      "genres": [
        "caa86df2-0d59-474b-885c-f240a9e891b0"
      ],
      "groups": [
        "ae613721-1fbe-480d-ba6b-d6d0702b184d"
      ],
      "langs": [
        "4dcf9614-7914-42aa-99f4-dbce2e059133"
      ],
      "origins": [
        "938de218-5343-4865-94d3-fb33f2eaa152"
      ],
      "series": [
        "e4cd5a29-2489-4ce0-a690-e93d53580ed6"
      ],
      "singers": [
        "353d6e2a-1c87-4ef1-9062-c69f9eba2d33",
        "5eb0c9ec-bb8e-4e9a-9b0b-2732ba2029f0",
        "62d5bb3a-941a-4df6-9cfb-43504d844d52",
        "76c8ddd3-7c0b-43be-a5f5-57695e9b9063",
        "7b2309a3-647f-4e4e-9c18-354e4f479a54",
        "a2456f57-e751-4761-9440-91a986997e92",
        "f2917fb2-23ae-4fbd-bedc-bc9b77f11603"
      ],
      "singergroups": [
        "120ff882-45d0-4054-8418-277e50b197e1",
        "057d038f-b2bf-41b4-a53b-fb43ca57df54"
      ],
      "songtypes": [
        "5e5250d9-351a-4a82-98eb-55db50ad8962"
      ],
      "songwriters": [
        "1eb078bb-70d7-4671-9c71-86b7b42358ec"
      ],
      "franchises": [
        "df601cc6-5e12-403e-9a71-8d4e1ddc6055"
      ]
    },
    "titles": {
      "eng": "Juggler"
    },
    "titles_default_language": "eng",
    "year": 2019
  }
}