{
  "header": {
    "version": 4,
    "description": "Karaoke Mugen Karaoke Data File"
  },
  "medias": [
    {
      "version": "Default",
      "filename": "JPN - Hibike! Euphonium 2 - OP - Soundscape ~ Kana Vers.mp4",
      "audiogain": 4.3,
      "loudnorm": "-21.91,-9.15,2.10,-32.01,-0.09",
      "filesize": 43903090,
      "duration": 91,
      "default": true,
      "lyrics": [
        {
          "filename": "JPN - Hibike! Euphonium 2 - OP - Soundscape ~ Kana Vers.ass",
          "default": true,
          "version": "Default"
        }
      ]
    }
  ],
  "data": {
    "created_at": "2022-11-13T15:19:33.416Z",
    "ignoreHooks": false,
    "kid": "3a861744-9f77-4856-8541-a32b6af3e136",
    "modified_at": "2023-02-25T23:51:20.312Z",
    "parents": [
      "51b141d1-3588-4083-92e5-7f55348ed4c4"
    ],
    "repository": "kara.moe",
    "tags": {
      "authors": [
        "b5116310-e69b-4ed4-9e47-c5c53ee69023"
      ],
      "collections": [
        "f2462778-f986-4844-a4b8-e1d3ccdb861b"
      ],
      "creators": [
        "d93786af-5098-49b2-9928-37edfb3d0322"
      ],
      "families": [
        "0377db02-3af6-43b8-9b08-c759df3d25c3"
      ],
      "groups": [
        "9a8e0fbc-dcae-4989-be82-7cad3436f1f5",
        "ae613721-1fbe-480d-ba6b-d6d0702b184d"
      ],
      "langs": [
        "4dcf9614-7914-42aa-99f4-dbce2e059133"
      ],
      "origins": [
        "938de218-5343-4865-94d3-fb33f2eaa152"
      ],
      "series": [
        "88f4dc4d-8a78-4bda-8d4d-0878feb5b0cf"
      ],
      "singers": [
        "61c5e3d4-6a0e-46b6-b622-06f5bc6d3294"
      ],
      "songtypes": [
        "f02ad9b3-0bd9-4aad-85b3-9976739ba0e4"
      ],
      "songwriters": [
        "5a90ba74-5e7c-4ccb-a054-a95cc78e8522",
        "7e72484d-b638-4d9a-95f2-5947c59d721b"
      ],
      "versions": [
        "12d21e9c-3427-4677-a5bd-1301a0f7358a"
      ],
      "franchises": [
        "7e9d2ecf-5993-4bb0-99ab-051277eaf525"
      ]
    },
    "titles": {
      "eng": "Soundscape",
      "jpn": "サウンドスケープ"
    },
    "titles_default_language": "eng",
    "year": 2016
  }
}