{
  "header": {
    "version": 4,
    "description": "Karaoke Mugen Karaoke Data File"
  },
  "medias": [
    {
      "version": "Default",
      "filename": "JPN - TWICE - LIVE - Wonderful Day.mp4",
      "audiogain": -0.27,
      "loudnorm": "-17.04,-7.70,4.00,-27.15,-1.01",
      "filesize": 84700375,
      "duration": 223,
      "default": true,
      "lyrics": [
        {
          "filename": "JPN - TWICE - LIVE - Wonderful Day.ass",
          "default": true,
          "version": "Default"
        }
      ]
    }
  ],
  "data": {
    "created_at": "2023-03-05T11:11:47.141Z",
    "ignoreHooks": false,
    "kid": "5108eeef-38fb-47a2-b1e0-586ebfbb2db8",
    "modified_at": "2023-03-05T11:19:09.015Z",
    "repository": "kara.moe",
    "tags": {
      "authors": [
        "dd4f1279-de1b-4d06-b80d-29c4878bfd8e"
      ],
      "collections": [
        "dbcf2c22-524d-4708-99bb-601703633927"
      ],
      "creators": [
        "424f77b6-39e2-48a2-8135-295a801bacab"
      ],
      "families": [
        "5391f9fe-638c-415f-8dc9-958e3a2c5787"
      ],
      "groups": [
        "8c22c899-b3ed-42da-a548-ce00f950798b",
        "8e209ae4-4381-438f-89dc-1b21752027d2"
      ],
      "langs": [
        "4dcf9614-7914-42aa-99f4-dbce2e059133"
      ],
      "singers": [
        "fe421082-61b7-4758-bcf2-71b03dd52a1d"
      ],
      "songtypes": [
        "a0167949-580c-4de3-bf13-497e462e02f3"
      ],
      "songwriters": [
        "9ba6e0fa-4966-47aa-9b99-22ec88bfa125",
        "ad6cdc9d-52c5-44cd-a047-f846fc7d3588",
        "ad9de3e0-673e-459b-ac88-178ae5e04341",
        "c96f6dda-8519-4ea7-a146-14cef00545e7"
      ]
    },
    "titles": {
      "eng": "Wonderful Day"
    },
    "titles_default_language": "eng",
    "year": 2021
  }
}