{
  "header": {
    "version": 4,
    "description": "Karaoke Mugen Karaoke Data File"
  },
  "medias": [
    {
      "version": "Default",
      "filename": "JPN - Love Live! Superstar!! 2nd Season - AUDIO - Irozuite Toumei.mp3",
      "loudnorm": "-8.96,1.93,7.50,-19.06,-1.44",
      "filesize": 9225958,
      "duration": 223,
      "default": true,
      "lyrics": [
        {
          "filename": "JPN - Love Live! Superstar!! 2nd Season - AUDIO - Irozuite Toumei.ass",
          "default": true,
          "version": "Default"
        }
      ]
    }
  ],
  "data": {
    "created_at": "2023-09-23T22:38:20.292Z",
    "ignoreHooks": false,
    "kid": "bc15cc38-52a9-4cba-a289-02415065e2ea",
    "modified_at": "2023-09-23T22:38:20.292Z",
    "repository": "kara.moe",
    "tags": {
      "authors": [
        "16b136eb-921f-4c07-be38-ff92d5cc4313"
      ],
      "collections": [
        "dbcf2c22-524d-4708-99bb-601703633927"
      ],
      "creators": [
        "b2805292-730e-473a-96f0-fd8e7ffd1fd7"
      ],
      "genres": [
        "caa86df2-0d59-474b-885c-f240a9e891b0"
      ],
      "groups": [
        "8e209ae4-4381-438f-89dc-1b21752027d2"
      ],
      "langs": [
        "4dcf9614-7914-42aa-99f4-dbce2e059133"
      ],
      "misc": [
        "1d6ceadf-a885-47e5-b23b-c07bf668a424"
      ],
      "series": [
        "51ceccbb-3e30-4e99-b378-a0d09a5a5786"
      ],
      "singers": [
        "c1fd3a67-0c3b-4d95-9cd8-f6aa2c8cc5a8",
        "4a1c9511-daa2-4172-9367-5afb3312234e",
        "8a484e8b-1945-416f-b778-97a887ff24eb",
        "8b1d7f16-0b3e-4c63-82c1-bd60518b86a8",
        "4e66c19f-a55a-4be7-a948-4eb45796b71f",
        "ac31fbd5-633b-4b85-8e6b-33976419c240",
        "d8060e7f-5362-405e-9e83-b9c854ca6e3c",
        "a8ce4769-f4d8-4ac8-ad84-731f9895ad9f",
        "7b8b38f7-9945-4ee3-9e38-25ddf137f1e0"
      ],
      "singergroups": [
        "f3e5b1d3-30b1-4548-95c8-6cf77216bdbd"
      ],
      "songtypes": [
        "42a262ae-acba-4ab5-a446-c5789c96c821"
      ],
      "songwriters": [
        "f77f4be8-1af3-4bab-9411-759dbd5bb583",
        "48f78fad-7da7-406e-9f84-9ac38e8d3367",
        "8681d449-ff9e-4dc0-8890-2a800af6df91"
      ],
      "franchises": [
        "fd5d066e-e85a-4eea-8688-2979a887450a"
      ]
    },
    "titles": {
      "qro": "Irozuite Toumei",
      "jpn": "色づいて透明"
    },
    "titles_default_language": "qro",
    "year": 2022
  }
}