{
  "header": {
    "version": 4,
    "description": "Karaoke Mugen Karaoke Data File"
  },
  "medias": [
    {
      "version": "Default",
      "filename": "JPN - Hibike! Euphonium - OP - DREAM SOLISTER.mp4",
      "audiogain": 4.63,
      "loudnorm": "-22.26,-11.83,4.30,-32.34,-0.44",
      "filesize": 42941467,
      "duration": 91,
      "default": true,
      "lyrics": [
        {
          "filename": "JPN - Hibike! Euphonium - OP - DREAM SOLISTER.ass",
          "default": true,
          "version": "Default",
          "subchecksum": "65427b74a399ef0c5008839b91a4ebc1"
        }
      ]
    }
  ],
  "data": {
    "created_at": "2017-10-11T17:01:47.000Z",
    "kid": "9535122a-9082-4b2e-aed9-e4dc86d8ae25",
    "modified_at": "2021-02-25T11:40:14.666Z",
    "repository": "kara.moe",
    "tags": {
      "authors": [
        "5bdaba57-27f8-4568-8806-76a807728766"
      ],
      "collections": [
        "c7db86a0-ff64-4044-9be4-66dd1ef1d1c1"
      ],
      "creators": [
        "d93786af-5098-49b2-9928-37edfb3d0322"
      ],
      "families": [
        "0377db02-3af6-43b8-9b08-c759df3d25c3"
      ],
      "groups": [
        "ae613721-1fbe-480d-ba6b-d6d0702b184d"
      ],
      "langs": [
        "4dcf9614-7914-42aa-99f4-dbce2e059133"
      ],
      "origins": [
        "938de218-5343-4865-94d3-fb33f2eaa152"
      ],
      "series": [
        "7e9d2ecf-5993-4bb0-99ab-051277eaf525"
      ],
      "singers": [
        "61c5e3d4-6a0e-46b6-b622-06f5bc6d3294"
      ],
      "songtypes": [
        "f02ad9b3-0bd9-4aad-85b3-9976739ba0e4"
      ],
      "songwriters": [
        "3dddfa51-de14-4da0-8baf-2b40c94f3eb2",
        "7e72484d-b638-4d9a-95f2-5947c59d721b"
      ],
      "franchises": [
        "7e9d2ecf-5993-4bb0-99ab-051277eaf525"
      ]
    },
    "title": "DREAM SOLISTER",
    "titles": {
      "eng": "DREAM SOLISTER"
    },
    "year": 2015,
    "titles_default_language": "eng"
  }
}