{
  "header": {
    "version": 4,
    "description": "Karaoke Mugen Karaoke Data File"
  },
  "medias": [
    {
      "version": "Default",
      "filename": "JPN - Kobayashi-san Chi no Maidragon S - ED - Maid with Dragons.mp4",
      "audiogain": 2.08,
      "loudnorm": "-19.02,-8.92,3.60,-29.09,-0.68",
      "filesize": 26981134,
      "duration": 90,
      "default": true,
      "lyrics": [
        {
          "filename": "JPN - Kobayashi-san Chi no Maidragon S - ED - Maid with Dragons.ass",
          "default": true,
          "version": "Default",
          "subchecksum": "5d93a359d13277161d89cacaf7111473"
        }
      ]
    }
  ],
  "data": {
    "created_at": "2021-07-11T12:34:13.110Z",
    "kid": "832814ef-89bf-4e4b-8b9d-42d7c16a8aaf",
    "modified_at": "2021-07-11T18:48:35.467Z",
    "repository": "kara.moe",
    "tags": {
      "authors": [
        "1df04771-a378-4f14-a5e1-1455187d681a"
      ],
      "collections": [
        "c7db86a0-ff64-4044-9be4-66dd1ef1d1c1"
      ],
      "creators": [
        "d93786af-5098-49b2-9928-37edfb3d0322"
      ],
      "families": [
        "0377db02-3af6-43b8-9b08-c759df3d25c3"
      ],
      "groups": [
        "8e209ae4-4381-438f-89dc-1b21752027d2"
      ],
      "langs": [
        "4dcf9614-7914-42aa-99f4-dbce2e059133"
      ],
      "misc": [
        "fe819ff1-9db8-4a0f-85dc-0e322c9126c4"
      ],
      "origins": [
        "938de218-5343-4865-94d3-fb33f2eaa152"
      ],
      "series": [
        "84bb8e1d-f343-43a8-9b48-64f985f11eec"
      ],
      "singers": [
        "07078d40-4516-43c5-a80e-0bd28a8b98d0",
        "27204220-fdf3-4aff-a78d-ad3fb9ffe8ff",
        "68d2e51a-6d7b-4931-a9e4-21db092739ce",
        "92b64c3b-8ece-445f-a1ac-4749b6a9d9ab",
        "b563ef47-6af0-46cd-a6b8-0bc7d7951b05",
        "c14c8d98-5d46-40db-a5dd-ab07a03957a6"
      ],
      "songtypes": [
        "38c77c56-2b95-4040-b676-0994a8cb0597"
      ],
      "songwriters": [
        "2171ee13-d4af-4a9c-8d59-dc098b4d3669",
        "dd69cea8-a0e4-4c91-9376-ddfbdde58058"
      ],
      "franchises": [
        "9e0ac297-6165-4361-aa36-1e1d5e8294eb"
      ]
    },
    "title": "Maid with Dragons❤︎",
    "titles": {
      "eng": "Maid with Dragons❤︎",
      "jpn": "めいど・うぃず・どらごんず❤︎"
    },
    "year": 2021,
    "titles_default_language": "eng"
  }
}