{
  "header": {
    "version": 4,
    "description": "Karaoke Mugen Karaoke Data File"
  },
  "medias": [
    {
      "version": "Default",
      "filename": "JPN - Ao no Exorcist - MV - Take Off ~ Full Vers.mp4",
      "audiogain": -8.73,
      "loudnorm": "-8.48,1.89,7.10,-18.61,-1.07",
      "filesize": 13992166,
      "duration": 201,
      "default": true,
      "lyrics": [
        {
          "filename": "JPN - Ao no Exorcist - MV - Take Off ~ Full Vers.ass",
          "default": true,
          "version": "Default"
        }
      ]
    }
  ],
  "data": {
    "created_at": "2019-10-28T12:18:17.000Z",
    "kid": "09a45144-e3d0-4cc8-beec-8cc04d167268",
    "modified_at": "2022-06-04T00:18:23.480Z",
    "parents": [
      "dfdcb155-da49-4a76-b522-3acdc2d7f677"
    ],
    "repository": "kara.moe",
    "songorder": null,
    "tags": {
      "authors": [
        "1db1738f-acdc-42fc-aec3-60f4bddf660d"
      ],
      "creators": [
        "b2805292-730e-473a-96f0-fd8e7ffd1fd7"
      ],
      "families": [
        "5391f9fe-638c-415f-8dc9-958e3a2c5787"
      ],
      "groups": [
        "ae613721-1fbe-480d-ba6b-d6d0702b184d"
      ],
      "langs": [
        "4dcf9614-7914-42aa-99f4-dbce2e059133"
      ],
      "series": [
        "999a8251-15ba-4a1a-b934-cc6f15a44919"
      ],
      "singers": [
        "44837964-5cfd-4aa1-b97c-d2a157d8b3b5"
      ],
      "songtypes": [
        "7be1b15c-cff8-4b37-a649-5c90f3d569a9"
      ],
      "songwriters": [
        "040091a5-2f27-4313-9c33-7ae7ea54a3e1",
        "10098cc7-c80d-4656-bb68-c5de9ab7a0d7",
        "2dd37024-3f5a-42b9-b448-c64c5b888890",
        "2f3208df-db2b-49d2-a769-79913280e384",
        "8b0a2ae0-faea-458e-b3a1-2b793296ae05"
      ],
      "versions": [
        "c2143a7f-6970-450e-8a79-0302db9220a9"
      ],
      "collections": [
        "dbcf2c22-524d-4708-99bb-601703633927"
      ],
      "franchises": [
        "999a8251-15ba-4a1a-b934-cc6f15a44919"
      ]
    },
    "titles": {
      "eng": "Take off"
    },
    "titles_default_language": "eng",
    "title": "Take Off",
    "year": 2011
  }
}