{
  "header": {
    "version": 4,
    "description": "Karaoke Mugen Karaoke Data File"
  },
  "medias": [
    {
      "version": "Default",
      "filename": "JPN - Senki Zesshou Symphogear G - LIVE - Vitalization ~ Full Vers.mp4",
      "audiogain": -3.61,
      "loudnorm": "-12.40,-0.13,2.70,-22.45,-0.33",
      "filesize": 127409757,
      "duration": 248,
      "default": true,
      "lyrics": [
        {
          "filename": "JPN - Senki Zesshou Symphogear G - LIVE - Vitalization ~ Full Vers.ass",
          "default": true,
          "version": "Default"
        }
      ]
    }
  ],
  "data": {
    "created_at": "2021-02-21T11:44:58.172Z",
    "ignoreHooks": false,
    "kid": "fb23056b-88a8-4c27-9b81-5aac82518e3e",
    "modified_at": "2022-12-21T22:36:39.031Z",
    "parents": [
      "10f6b61d-4c67-4a4a-bb4c-e2c3de347873"
    ],
    "repository": "kara.moe",
    "tags": {
      "authors": [
        "5cb3d0c5-479e-4224-b6ec-b27209e933a0"
      ],
      "collections": [
        "dbcf2c22-524d-4708-99bb-601703633927"
      ],
      "creators": [
        "d2a29c19-019f-4a3d-86ad-2dae9e41a4b1"
      ],
      "families": [
        "5391f9fe-638c-415f-8dc9-958e3a2c5787"
      ],
      "groups": [
        "60defa7b-774e-4680-8321-51b742c2e009",
        "ae613721-1fbe-480d-ba6b-d6d0702b184d"
      ],
      "langs": [
        "4dcf9614-7914-42aa-99f4-dbce2e059133"
      ],
      "series": [
        "f56a6158-95bb-4dc3-a8fc-2626a9a9b89e"
      ],
      "singers": [
        "6d2045b2-80ab-45ff-a131-c4df02ef52d1"
      ],
      "songtypes": [
        "a0167949-580c-4de3-bf13-497e462e02f3"
      ],
      "songwriters": [
        "6d2045b2-80ab-45ff-a131-c4df02ef52d1",
        "af3ffe51-8059-461c-bbb8-78ea388731f3"
      ],
      "versions": [
        "c2143a7f-6970-450e-8a79-0302db9220a9"
      ],
      "franchises": [
        "61b24082-a6a9-482b-b126-0ad7be595791"
      ]
    },
    "titles": {
      "eng": "Vitalization"
    },
    "titles_default_language": "eng",
    "year": 2014
  }
}