{
  "header": {
    "version": 4,
    "description": "Karaoke Mugen Karaoke Data File"
  },
  "medias": [
    {
      "version": "Default",
      "filename": "JPN - D4DJ Groovy Mix - AUDIO - Nirvana ~ Full Vers.mp3",
      "audiogain": -10.66,
      "loudnorm": "-6.34,2.08,2.90,-16.38,-0.30",
      "filesize": 10514314,
      "duration": 258,
      "default": true,
      "lyrics": [
        {
          "filename": "JPN - D4DJ Groovy Mix - AUDIO - Nirvana ~ Full Vers.ass",
          "default": true,
          "version": "Default"
        }
      ]
    }
  ],
  "data": {
    "created_at": "2023-04-22T17:55:11.611Z",
    "ignoreHooks": false,
    "kid": "202143bd-1adb-47f3-8be8-57ae3952c9f4",
    "modified_at": "2023-04-22T21:43:09.013Z",
    "repository": "kara.moe",
    "tags": {
      "authors": [
        "fdd0c00e-6501-4e49-860a-2e85c187b497"
      ],
      "collections": [
        "c7db86a0-ff64-4044-9be4-66dd1ef1d1c1"
      ],
      "creators": [
        "bd4564a8-44e5-454a-9c57-bd2a3c8a537e"
      ],
      "groups": [
        "8e209ae4-4381-438f-89dc-1b21752027d2"
      ],
      "langs": [
        "4dcf9614-7914-42aa-99f4-dbce2e059133"
      ],
      "series": [
        "93077816-d626-4bdb-a4a6-39300f0159cf"
      ],
      "singers": [
        "81548020-23db-4eee-82e0-826eebefda45"
      ],
      "singergroups": [
        "8ee92c32-35d2-4688-b196-f0c19cabbeaf"
      ],
      "songtypes": [
        "42a262ae-acba-4ab5-a446-c5789c96c821"
      ],
      "songwriters": [
        "045904e7-ad2b-4d4d-958d-6b3ff02d6d01",
        "06e7f257-ef02-4e30-b624-0357f36dfa92"
      ],
      "versions": [
        "c2143a7f-6970-450e-8a79-0302db9220a9"
      ],
      "franchises": [
        "e2e9382c-e3bd-4db9-abaf-194d09099ab0"
      ]
    },
    "titles": {
      "eng": "Nirvana",
      "jpn": "ニルヴァナ",
      "qro": "Nirvana"
    },
    "titles_default_language": "qro",
    "year": 2020
  }
}