{
  "header": {
    "version": 4,
    "description": "Karaoke Mugen Karaoke Data File"
  },
  "medias": [
    {
      "version": "Default",
      "filename": "JPN - Touhou - MV - Itazura TODAY.mp4",
      "audiogain": -8.54,
      "loudnorm": "-8.87,0.87,3.40,-19.14,-0.15",
      "filesize": 29389471,
      "duration": 205,
      "default": true,
      "lyrics": [
        {
          "filename": "JPN - Touhou - MV - Itazura TODAY.ass",
          "default": true,
          "version": "Default"
        }
      ]
    }
  ],
  "data": {
    "created_at": "2023-07-09T00:22:05.228Z",
    "ignoreHooks": false,
    "kid": "d9425f5c-c5ec-48fa-8958-5ce9239f2b66",
    "modified_at": "2023-07-09T00:22:05.485Z",
    "repository": "kara.moe",
    "tags": {
      "authors": [
        "1fbfef73-6731-40df-ba51-65a54b9d1605"
      ],
      "collections": [
        "c7db86a0-ff64-4044-9be4-66dd1ef1d1c1"
      ],
      "creators": [
        "ca654b25-30b5-4054-a2c0-35028fdcae22"
      ],
      "families": [
        "0377db02-3af6-43b8-9b08-c759df3d25c3"
      ],
      "groups": [
        "ae613721-1fbe-480d-ba6b-d6d0702b184d"
      ],
      "langs": [
        "4dcf9614-7914-42aa-99f4-dbce2e059133"
      ],
      "origins": [
        "ac5085db-52d8-44b4-8fbb-1697b24d2046"
      ],
      "series": [
        "1bdaa5a1-dfa6-4365-b746-7a0b194dafd6"
      ],
      "singers": [
        "1c0b5fc9-d42e-4cac-b4b1-e067756e9e3d"
      ],
      "songtypes": [
        "7be1b15c-cff8-4b37-a649-5c90f3d569a9"
      ],
      "songwriters": [
        "3fb85349-d73b-48e8-ab41-3fdad776182a",
        "23351848-e3cc-4420-b564-db2bfe2b7f3d",
        "26cb5252-8510-49e0-897c-a611a05fc056"
      ],
      "franchises": [
        "1bdaa5a1-dfa6-4365-b746-7a0b194dafd6"
      ]
    },
    "titles": {
      "jpn": "イタズラTODAY",
      "qro": "Itazura TODAY"
    },
    "titles_default_language": "qro",
    "year": 2013
  }
}