{
  "header": {
    "version": 4,
    "description": "Karaoke Mugen Karaoke Data File"
  },
  "medias": [
    {
      "version": "Default",
      "filename": "JPN - Taiyou no Kiba Dougram - OP - Sayonara Yasashiki Hibi yo.mp4",
      "audiogain": 0.21,
      "loudnorm": "-18.19,-5.20,3.50,-28.30,-0.39",
      "filesize": 68913147,
      "duration": 90,
      "default": true,
      "lyrics": [
        {
          "filename": "JPN - Taiyou no Kiba Dougram - OP - Sayonara Yasashiki Hibi yo.ass",
          "default": true,
          "version": "Default",
          "subchecksum": "d2b16909baec1767548b8c91a7836f58"
        }
      ]
    }
  ],
  "data": {
    "created_at": "2017-10-11T15:01:37.000Z",
    "kid": "875c1150-e3f6-448b-bb79-7b0712001432",
    "modified_at": "2021-02-25T13:16:05.104Z",
    "repository": "kara.moe",
    "tags": {
      "authors": [
        "8c22c899-b3ed-42da-a548-ce00f950798b"
      ],
      "collections": [
        "c7db86a0-ff64-4044-9be4-66dd1ef1d1c1"
      ],
      "creators": [
        "ef8f80e1-d244-4aea-b7f0-984d6dd4b82b"
      ],
      "families": [
        "0377db02-3af6-43b8-9b08-c759df3d25c3"
      ],
      "genres": [
        "f60ba57d-5ef4-49e0-b93b-d0dcbcff6592"
      ],
      "groups": [
        "7792cc27-9ff9-4d47-9287-2338b7db1575",
        "8c22c899-b3ed-42da-a548-ce00f950798b"
      ],
      "langs": [
        "4dcf9614-7914-42aa-99f4-dbce2e059133"
      ],
      "origins": [
        "938de218-5343-4865-94d3-fb33f2eaa152"
      ],
      "series": [
        "338b21cc-25b8-4568-96d1-c9df273edd75"
      ],
      "singers": [
        "ad8758e2-add0-416e-b57b-a3bdac61b1d3"
      ],
      "songtypes": [
        "f02ad9b3-0bd9-4aad-85b3-9976739ba0e4"
      ],
      "songwriters": [
        "65fce0bb-dd7e-4c7e-84bf-04256812f9dd",
        "b5a334cf-6f8d-499d-aaed-294d69f933bc"
      ]
    },
    "title": "Sayonara Yasashiki Hibi yo",
    "titles": {
      "qro": "Saraba Yasashiki Hibi yo",
      "jpn": "さらばやさしき日々よ"
    },
    "year": 1981,
    "titles_default_language": "qro"
  }
}