{
  "header": {
    "version": 4,
    "description": "Karaoke Mugen Karaoke Data File"
  },
  "medias": [
    {
      "version": "Default",
      "filename": "JPN - Midnight Grand Orchestra - MV - Moonlightspeed.mp4",
      "audiogain": -10.73,
      "loudnorm": "-6.72,2.09,6.20,-16.93,-0.83",
      "filesize": 98394135,
      "duration": 204,
      "default": true,
      "lyrics": [
        {
          "filename": "JPN - Midnight Grand Orchestra - MV - Moonlightspeed.ass",
          "default": true,
          "version": "Default"
        }
      ]
    }
  ],
  "data": {
    "created_at": "2022-12-16T12:04:38.105Z",
    "ignoreHooks": false,
    "kid": "c79d7c33-c595-4823-91d1-f834387c2484",
    "modified_at": "2022-12-16T12:04:38.717Z",
    "repository": "kara.moe",
    "tags": {
      "authors": [
        "79e0aa7d-da9a-4e9a-aa2b-64056a83b49b"
      ],
      "collections": [
        "c7db86a0-ff64-4044-9be4-66dd1ef1d1c1"
      ],
      "creators": [
        "6697d31b-7f60-4d11-b237-8eb72740fd8a",
        "0263d413-17bb-4cee-a311-6dd896eda1c9"
      ],
      "families": [
        "0377db02-3af6-43b8-9b08-c759df3d25c3"
      ],
      "groups": [
        "8e209ae4-4381-438f-89dc-1b21752027d2"
      ],
      "langs": [
        "4dcf9614-7914-42aa-99f4-dbce2e059133"
      ],
      "origins": [
        "5106d71b-a78e-4d19-a16d-f8fb6719538a"
      ],
      "singers": [
        "83b3a34b-d13b-452c-8574-d63545edf650"
      ],
      "singergroups": [
        "2a0449e5-8487-459c-9c24-e906ef8bb853"
      ],
      "songtypes": [
        "7be1b15c-cff8-4b37-a649-5c90f3d569a9"
      ],
      "songwriters": [
        "c8882365-d34e-4765-b2cd-b1751b26620c"
      ]
    },
    "titles": {
      "eng": "Moonlightspeed"
    },
    "titles_default_language": "eng",
    "year": 2022
  }
}