{
  "header": {
    "version": 4,
    "description": "Karaoke Mugen Karaoke Data File"
  },
  "medias": [
    {
      "version": "Default",
      "filename": "JPN - Yuuki Yuuna wa Yuusha de Aru Washio Sumi no Shou 3 - Yakusoku - MOVIE ED - Yakusoku.mp4",
      "audiogain": -1.91,
      "loudnorm": "-16.04,-3.82,9.80,-26.39,-1.49",
      "filesize": 6921156,
      "duration": 89,
      "default": true,
      "lyrics": [
        {
          "filename": "JPN - Yuuki Yuuna wa Yuusha de Aru Washio Sumi no Shou 3 - Yakusoku - MOVIE ED - Yakusoku.ass",
          "default": true,
          "version": "Default"
        }
      ]
    }
  ],
  "data": {
    "created_at": "2022-01-23T18:06:07.902Z",
    "ignoreHooks": false,
    "kid": "435c5f29-76c9-4a11-a031-0ef868daeffc",
    "modified_at": "2022-01-23T18:06:07.902Z",
    "repository": "kara.moe",
    "tags": {
      "authors": [
        "523ead5e-981e-4993-af29-12524f7edcf1"
      ],
      "collections": [
        "c7db86a0-ff64-4044-9be4-66dd1ef1d1c1"
      ],
      "creators": [
        "7226816c-fb45-4f3a-bd39-7f4f616553bf"
      ],
      "families": [
        "0377db02-3af6-43b8-9b08-c759df3d25c3"
      ],
      "groups": [
        "2b4e9972-5e17-481b-99f5-d0787c0ada56",
        "ae613721-1fbe-480d-ba6b-d6d0702b184d"
      ],
      "langs": [
        "4dcf9614-7914-42aa-99f4-dbce2e059133"
      ],
      "origins": [
        "c8ca9dea-d8b4-48fe-8427-d911653232e9"
      ],
      "series": [
        "2e1384e9-480c-46b6-84d7-32be70ddf468"
      ],
      "singers": [
        "458739df-9990-45ea-a8e7-ae6348c7534d",
        "4fc68333-b1f6-44ce-b2be-ac4866b78932"
      ],
      "songtypes": [
        "38c77c56-2b95-4040-b676-0994a8cb0597"
      ],
      "songwriters": [
        "ead196cc-e1e3-43a4-8804-dd4199e89c4e",
        "cd131960-bd83-41c5-bc76-2ce0579296ed",
        "2c1c22da-a9ad-4a3d-866b-da1cf0a49d38"
      ],
      "franchises": [
        "f57709e6-ded9-43e0-b72f-f5e5cca8382a"
      ]
    },
    "titles": {
      "qro": "Yakusoku",
      "jpn": "やくそく"
    },
    "title": "Yakusoku",
    "year": 2017,
    "titles_default_language": "qro"
  }
}