{
  "header": {
    "version": 4,
    "description": "Karaoke Mugen Karaoke Data File"
  },
  "medias": [
    {
      "version": "Default",
      "filename": "JPN - Kimetsu no Yaiba Mugen Ressha-hen - MOVIE AMV - Homura ~ Full Vers.mp4",
      "audiogain": -3.69,
      "loudnorm": "-14.22,-4.35,11.80,-24.75,-1.40",
      "filesize": 75533853,
      "duration": 270,
      "default": true,
      "lyrics": [
        {
          "filename": "JPN - Kimetsu no Yaiba Mugen Ressha-hen - MOVIE AMV - Homura ~ Full Vers.ass",
          "default": true,
          "version": "Default"
        }
      ]
    }
  ],
  "data": {
    "created_at": "2022-05-28T16:47:15.644Z",
    "ignoreHooks": false,
    "kid": "fe9afb4f-7da5-4324-8dab-e15a0cb90a87",
    "modified_at": "2023-07-02T19:35:00.686Z",
    "repository": "kara.moe",
    "tags": {
      "authors": [
        "5a629611-96b4-422c-b309-ba7a58e263a2"
      ],
      "collections": [
        "c7db86a0-ff64-4044-9be4-66dd1ef1d1c1"
      ],
      "creators": [
        "749bc738-9f5a-4a8c-9567-c89300632e1e",
        "e1972c4c-a95d-4849-a5e2-8c6b3d26c6fa"
      ],
      "families": [
        "0377db02-3af6-43b8-9b08-c759df3d25c3"
      ],
      "genres": [
        "a0aeef4a-6428-45ff-a6e1-468b595930c2"
      ],
      "groups": [
        "8e209ae4-4381-438f-89dc-1b21752027d2"
      ],
      "langs": [
        "4dcf9614-7914-42aa-99f4-dbce2e059133"
      ],
      "origins": [
        "c8ca9dea-d8b4-48fe-8427-d911653232e9"
      ],
      "series": [
        "e9077c12-f032-48c9-9647-1230349e383d"
      ],
      "singers": [
        "41f045f2-1576-496d-91b1-c0f28bab57a4"
      ],
      "songtypes": [
        "a6c79ce5-89ee-4d50-afe8-3abd7317f6c2"
      ],
      "songwriters": [
        "1f324dc7-f858-415b-bbc1-41fcce3d6ac7"
      ],
      "versions": [
        "c2143a7f-6970-450e-8a79-0302db9220a9"
      ],
      "warnings": [
        "24371984-5e4c-4485-a937-fb0c480ca23b"
      ],
      "franchises": [
        "fedb7dc4-978d-425b-85ab-4cec99cee4f8"
      ]
    },
    "titles": {
      "jpn": "炎",
      "qro": "Homura"
    },
    "titles_default_language": "qro",
    "year": 2020
  }
}