{
  "header": {
    "version": 4,
    "description": "Karaoke Mugen Karaoke Data File"
  },
  "medias": [
    {
      "version": "Default",
      "filename": "JPN - Saijaku Muhai no Bahamut - OP - Hiryuu no Kishi.mp4",
      "audiogain": -0.63,
      "loudnorm": "-17.06,-7.05,4.20,-27.11,-0.82",
      "filesize": 56916236,
      "duration": 92,
      "default": true,
      "lyrics": [
        {
          "filename": "JPN - Saijaku Muhai no Bahamut - OP - Hiryuu no Kishi.ass",
          "default": true,
          "version": "Default"
        }
      ]
    }
  ],
  "data": {
    "created_at": "2017-10-11T17:02:48.000Z",
    "ignoreHooks": false,
    "kid": "2bf4847b-bfe4-413e-992c-26286e2fd8a7",
    "modified_at": "2022-09-30T21:19:25.586Z",
    "repository": "kara.moe",
    "tags": {
      "authors": [
        "5bdaba57-27f8-4568-8806-76a807728766"
      ],
      "collections": [
        "c7db86a0-ff64-4044-9be4-66dd1ef1d1c1"
      ],
      "creators": [
        "20a71a02-6670-4e6a-a5be-ad8d71df94f7"
      ],
      "families": [
        "0377db02-3af6-43b8-9b08-c759df3d25c3"
      ],
      "groups": [
        "ae613721-1fbe-480d-ba6b-d6d0702b184d"
      ],
      "langs": [
        "4dcf9614-7914-42aa-99f4-dbce2e059133"
      ],
      "origins": [
        "938de218-5343-4865-94d3-fb33f2eaa152"
      ],
      "series": [
        "dac696a7-53b1-4271-90f4-e55758915a2f"
      ],
      "singers": [
        "61c5e3d4-6a0e-46b6-b622-06f5bc6d3294"
      ],
      "songtypes": [
        "f02ad9b3-0bd9-4aad-85b3-9976739ba0e4"
      ],
      "songwriters": [
        "376eaf29-c973-4b62-8c87-fe029bbcdfec",
        "7e72484d-b638-4d9a-95f2-5947c59d721b"
      ]
    },
    "titles": {
      "jpn": "飛竜の騎士",
      "qro": "Hiryû no Kishi"
    },
    "titles_default_language": "qro",
    "title": "Hiryû no Kishi",
    "year": 2016,
    "titles_aliases": [
      "Hiryuu"
    ]
  }
}