{
  "header": {
    "version": 4,
    "description": "Karaoke Mugen Karaoke Data File"
  },
  "medias": [
    {
      "version": "Default",
      "filename": "JPN - High School Fleet - OP - High Free Spirit.mp4",
      "audiogain": -2.01,
      "loudnorm": "-16.04,-6.24,5.50,-26.25,-1.60",
      "filesize": 45767646,
      "duration": 92,
      "default": true,
      "lyrics": [
        {
          "filename": "JPN - High School Fleet - OP - High Free Spirit.ass",
          "default": true,
          "version": "Default",
          "subchecksum": "5860a28e20d4d1d777c4fd7ed30ecc50"
        }
      ]
    }
  ],
  "data": {
    "created_at": "2017-10-11T17:01:37.000Z",
    "kid": "d9cf759e-fe65-49c4-bfba-112627d45f19",
    "modified_at": "2021-02-25T11:40:56.126Z",
    "repository": "kara.moe",
    "tags": {
      "authors": [
        "faa4da6e-45c2-491e-80f1-bf44f457b228"
      ],
      "collections": [
        "c7db86a0-ff64-4044-9be4-66dd1ef1d1c1"
      ],
      "creators": [
        "fc687079-2e13-485f-a3ab-4474872175a8"
      ],
      "families": [
        "0377db02-3af6-43b8-9b08-c759df3d25c3"
      ],
      "groups": [
        "ae613721-1fbe-480d-ba6b-d6d0702b184d"
      ],
      "langs": [
        "4dcf9614-7914-42aa-99f4-dbce2e059133"
      ],
      "origins": [
        "938de218-5343-4865-94d3-fb33f2eaa152"
      ],
      "series": [
        "57ebf0f6-b58a-4f84-9869-e05af222cebb"
      ],
      "singers": [
        "42c260b0-8661-4bb8-ae30-ed0c607060ab"
      ],
      "songtypes": [
        "f02ad9b3-0bd9-4aad-85b3-9976739ba0e4"
      ],
      "songwriters": [
        "15e75495-70f0-4086-8a6c-6b8d522c872e"
      ]
    },
    "title": "High Free Spirit",
    "titles": {
      "eng": "High Free Spirit"
    },
    "year": 2016,
    "titles_default_language": "eng"
  }
}