{
  "header": {
    "version": 4,
    "description": "Karaoke Mugen Karaoke Data File"
  },
  "medias": [
    {
      "version": "Default",
      "filename": "JPN - Love Live! School Idol Musical - AUDIO - Mikansei Dream!.mp3",
      "loudnorm": "-6.53,3.65,3.40,-16.64,-0.52",
      "filesize": 9741780,
      "duration": 237,
      "default": true,
      "lyrics": [
        {
          "filename": "JPN - Love Live! School Idol Musical - AUDIO - Mikansei Dream!.ass",
          "default": true,
          "version": "Default"
        }
      ]
    }
  ],
  "data": {
    "comment": "j'ai rajouté Ryota Kojima en tag dans Music Band sans faire exprès :(",
    "created_at": "2023-09-27T21:24:36.145Z",
    "ignoreHooks": false,
    "kid": "3bc44702-0bf4-427c-87da-8ff12800d5a9",
    "modified_at": "2023-09-27T21:24:36.145Z",
    "repository": "kara.moe",
    "tags": {
      "authors": [
        "16b136eb-921f-4c07-be38-ff92d5cc4313"
      ],
      "collections": [
        "dbcf2c22-524d-4708-99bb-601703633927"
      ],
      "creators": [
        "b2805292-730e-473a-96f0-fd8e7ffd1fd7"
      ],
      "genres": [
        "caa86df2-0d59-474b-885c-f240a9e891b0"
      ],
      "groups": [
        "8e209ae4-4381-438f-89dc-1b21752027d2"
      ],
      "langs": [
        "4dcf9614-7914-42aa-99f4-dbce2e059133"
      ],
      "misc": [
        "1d6ceadf-a885-47e5-b23b-c07bf668a424"
      ],
      "series": [
        "2c80d835-0bd0-42ca-9639-a16560c17a8c"
      ],
      "singers": [
        "4bfed7eb-b740-4ee7-a70a-96ca7be7ff59",
        "7dfe20ef-af57-488b-a061-47d61fc8d0ea",
        "f54d4193-cf0c-4dc0-bada-ec29522265e8",
        "60d2a137-3b84-4b45-9d71-2109c5fedd60",
        "0dc54158-90bf-4f9d-a632-0be968cb0e9b",
        "2b2b3e80-abd6-4ae4-adfd-26a5cbca4ca7",
        "3f92d0b0-8d32-46fc-92ae-7dcc66512f66",
        "ad5a6f8d-c689-4dfe-baca-81241a74009b",
        "80a2108a-9f37-45f3-9392-47339e47c5c0",
        "8e69c5f5-e284-4596-bec0-2788dc8fddec",
        "f6194dcb-5873-4fce-85c8-ed2f12085757",
        "e0b32876-e942-474d-b847-67f94979f9ac"
      ],
      "singergroups": [
        "afec7364-cb03-4b41-995b-aa34d7b90d22"
      ],
      "songtypes": [
        "42a262ae-acba-4ab5-a446-c5789c96c821"
      ],
      "songwriters": [
        "f41e7218-6c19-4e19-9b5f-4612dcd58243",
        "729707aa-0805-4cd4-8dcf-38c2ab8dcc51",
        "6012157c-f65c-4e69-a57f-0da948905c83"
      ],
      "franchises": [
        "fd5d066e-e85a-4eea-8688-2979a887450a"
      ]
    },
    "titles": {
      "qro": "Mikansei Dream!",
      "jpn": "未完成ドリーム！"
    },
    "titles_default_language": "qro",
    "year": 2022
  }
}