{
  "header": {
    "version": 4,
    "description": "Karaoke Mugen Karaoke Data File"
  },
  "medias": [
    {
      "version": "Default",
      "filename": "JPN - Accel World - ED2 - Unite.mp4",
      "audiogain": -0.3,
      "loudnorm": "-17.89,-7.54,4.50,-28.05,-0.31",
      "filesize": 33807699,
      "duration": 81,
      "default": true,
      "lyrics": [
        {
          "filename": "JPN - Accel World - ED2 - Unite.ass",
          "default": true,
          "version": "Default",
          "subchecksum": "b2ce07f9e9e745739a6354555771c36e"
        }
      ]
    }
  ],
  "data": {
    "created_at": "2017-10-11T17:02:11.000Z",
    "kid": "65987535-89ee-4c55-8d8e-4f9cbac999a7",
    "modified_at": "2021-02-25T10:35:51.494Z",
    "repository": "kara.moe",
    "songorder": 2,
    "tags": {
      "authors": [
        "5bdaba57-27f8-4568-8806-76a807728766"
      ],
      "collections": [
        "c7db86a0-ff64-4044-9be4-66dd1ef1d1c1"
      ],
      "creators": [
        "ef8f80e1-d244-4aea-b7f0-984d6dd4b82b"
      ],
      "families": [
        "0377db02-3af6-43b8-9b08-c759df3d25c3"
      ],
      "genres": [
        "4b80eca6-f44f-4262-a8d0-b6879d6b70cb"
      ],
      "groups": [
        "ae613721-1fbe-480d-ba6b-d6d0702b184d"
      ],
      "langs": [
        "4dcf9614-7914-42aa-99f4-dbce2e059133"
      ],
      "origins": [
        "938de218-5343-4865-94d3-fb33f2eaa152"
      ],
      "series": [
        "1978e19d-61f9-4a84-8712-86020545c8a0"
      ],
      "singers": [
        "b0adee55-f63f-4b1a-b15e-edc78d184469"
      ],
      "songtypes": [
        "38c77c56-2b95-4040-b676-0994a8cb0597"
      ],
      "songwriters": [
        "05f19984-0588-43e4-b0da-b8e145b95c91",
        "0d2b535f-2cf1-450c-bbda-c98328299139"
      ]
    },
    "title": "Unite",
    "titles": {
      "eng": "Unite",
      "jpn": "ユナイト"
    },
    "year": 2012,
    "titles_default_language": "eng"
  }
}