{
  "header": {
    "version": 4,
    "description": "Karaoke Mugen Karaoke Data File"
  },
  "medias": [
    {
      "version": "Default",
      "filename": "JPN - Project SEKAI COLORFUL STAGE! - GAME AUDIO - Totemo Itai Itagaritai ~ Short Vers.mp3",
      "audiogain": -10.67,
      "loudnorm": "-8.63,1.31,7.70,-18.65,-0.84",
      "filesize": 2040553,
      "duration": 113,
      "default": true,
      "lyrics": [
        {
          "filename": "JPN - Project SEKAI COLORFUL STAGE! - GAME AUDIO - Totemo Itai Itagaritai ~ Short Vers.ass",
          "default": true,
          "version": "Default"
        }
      ]
    }
  ],
  "data": {
    "created_at": "2022-12-13T22:31:07.303Z",
    "ignoreHooks": false,
    "kid": "9e80cfe0-80b8-4a47-bdbb-582e33004828",
    "modified_at": "2022-12-26T22:27:10.360Z",
    "repository": "kara.moe",
    "tags": {
      "authors": [
        "a3a99b23-6c42-4d38-8863-491153187437"
      ],
      "collections": [
        "c7db86a0-ff64-4044-9be4-66dd1ef1d1c1"
      ],
      "creators": [
        "1e5648fb-22fc-474d-b865-254eb31fa000"
      ],
      "genres": [
        "45623cae-6d68-4304-a49b-896d1d6f4580"
      ],
      "groups": [
        "8e209ae4-4381-438f-89dc-1b21752027d2"
      ],
      "langs": [
        "4dcf9614-7914-42aa-99f4-dbce2e059133"
      ],
      "misc": [
        "ec4fee75-71fb-45b4-9772-2ca374b4b600"
      ],
      "platforms": [
        "213a1a15-e73a-4a08-b3f6-b6e2745a82e5"
      ],
      "series": [
        "192b33fb-638a-4680-bdb2-a5adb9889849"
      ],
      "singers": [
        "3b69a0cb-7d65-464c-8401-7790dd57217c"
      ],
      "songtypes": [
        "42a262ae-acba-4ab5-a446-c5789c96c821"
      ],
      "songwriters": [
        "84182097-1db6-476a-8bac-82312909545f"
      ],
      "versions": [
        "d125c80a-86c1-4321-88e9-07b7800679b6"
      ]
    },
    "titles": {
      "jpn": "とても痛い痛がりたい",
      "qro": "Totemo Itai Itagaritai"
    },
    "titles_default_language": "qro",
    "titles_aliases": [
      "Hurting for a Very Hurtful Pain"
    ],
    "year": 2021
  }
}