{
  "header": {
    "version": 4,
    "description": "Karaoke Mugen Karaoke Data File"
  },
  "medias": [
    {
      "version": "Default",
      "filename": "JPN - El Cazador de la Bruja - LIVE - Cazador del Amor ~ Full Vers.mp4",
      "audiogain": -10.01,
      "loudnorm": "-7.30,1.63,4.50,-17.46,-0.67",
      "filesize": 23154253,
      "duration": 293,
      "default": true,
      "lyrics": [
        {
          "filename": "JPN - El Cazador de la Bruja - LIVE - Cazador del Amor ~ Full Vers.ass",
          "default": true,
          "version": "Default"
        }
      ]
    }
  ],
  "data": {
    "created_at": "2020-01-12T18:10:27.715Z",
    "ignoreHooks": false,
    "kid": "6b594a48-68b8-452f-818a-92694ded6561",
    "modified_at": "2022-12-21T22:36:33.331Z",
    "repository": "kara.moe",
    "tags": {
      "authors": [
        "1db1738f-acdc-42fc-aec3-60f4bddf660d"
      ],
      "collections": [
        "dbcf2c22-524d-4708-99bb-601703633927"
      ],
      "creators": [
        "e8da43a3-7058-4162-9d31-2f331dee993e"
      ],
      "families": [
        "5391f9fe-638c-415f-8dc9-958e3a2c5787"
      ],
      "groups": [
        "3c14c864-533c-49e6-a3cc-6969f1233775"
      ],
      "langs": [
        "4dcf9614-7914-42aa-99f4-dbce2e059133"
      ],
      "series": [
        "72d1acaf-9399-4fca-8044-a1fddc6c1851"
      ],
      "singers": [
        "f628390a-1a0f-4e4f-9207-28f6aef85616"
      ],
      "songtypes": [
        "a0167949-580c-4de3-bf13-497e462e02f3"
      ],
      "songwriters": [
        "1f324dc7-f858-415b-bbc1-41fcce3d6ac7"
      ],
      "versions": [
        "c2143a7f-6970-450e-8a79-0302db9220a9"
      ]
    },
    "titles": {
      "spa": "Cazador del Amor"
    },
    "titles_default_language": "spa",
    "year": 2007
  }
}