{
  "header": {
    "version": 4,
    "description": "Karaoke Mugen Karaoke Data File"
  },
  "medias": [
    {
      "version": "Default",
      "filename": "JPN - Yu-Gi-Oh! SEVENS - OP2 - Harevutai.mp4",
      "loudnorm": "-18.73,-10.37,3.00,-28.81,-0.65",
      "filesize": 56147118,
      "duration": 91,
      "default": true,
      "lyrics": [
        {
          "filename": "JPN - Yu-Gi-Oh! SEVENS - OP2 - Harevutai.ass",
          "default": true,
          "version": "Default"
        }
      ]
    }
  ],
  "data": {
    "created_at": "2021-06-24T10:36:14.209Z",
    "ignoreHooks": false,
    "kid": "b39dcb88-48ca-429d-9813-d4a2722b7228",
    "modified_at": "2023-09-20T07:30:24.158Z",
    "repository": "kara.moe",
    "songorder": 2,
    "tags": {
      "authors": [
        "05c1e4ad-32ba-490e-8f3c-5cd491c96d85"
      ],
      "collections": [
        "c7db86a0-ff64-4044-9be4-66dd1ef1d1c1"
      ],
      "creators": [
        "2b63c455-b186-46b8-8b60-f86c11144ac4"
      ],
      "families": [
        "0377db02-3af6-43b8-9b08-c759df3d25c3"
      ],
      "genres": [
        "a0aeef4a-6428-45ff-a6e1-468b595930c2"
      ],
      "groups": [
        "8e209ae4-4381-438f-89dc-1b21752027d2"
      ],
      "langs": [
        "4dcf9614-7914-42aa-99f4-dbce2e059133"
      ],
      "origins": [
        "938de218-5343-4865-94d3-fb33f2eaa152"
      ],
      "series": [
        "62aa412f-1bc5-44c6-ba06-dbd56f9ce1d0"
      ],
      "singers": [
        "7ebbe021-e2c6-4f43-aa90-b2469c2ab310"
      ],
      "songtypes": [
        "f02ad9b3-0bd9-4aad-85b3-9976739ba0e4"
      ],
      "songwriters": [
        "bfc26c72-534f-4ad1-b6e3-a3b71b80c07f"
      ],
      "franchises": [
        "e6b60e16-dac4-4bc2-8c7d-b80a4422fc3a"
      ]
    },
    "titles": {
      "jpn": "ハレヴタイ",
      "qro": "Harevutai"
    },
    "titles_default_language": "qro",
    "year": 2021
  }
}