{
  "header": {
    "version": 4,
    "description": "Karaoke Mugen Karaoke Data File"
  },
  "medias": [
    {
      "version": "Default",
      "filename": "JPN - Tsukipro The Animation 2 - OP3 - YOUR FREEDOM.mp4",
      "audiogain": -2.12,
      "loudnorm": "-15.95,-6.73,8.40,-26.07,-2.28",
      "filesize": 81225546,
      "duration": 88,
      "default": true,
      "lyrics": [
        {
          "filename": "JPN - Tsukipro The Animation 2 - OP3 - YOUR FREEDOM.ass",
          "default": true,
          "version": "Default"
        }
      ]
    }
  ],
  "data": {
    "created_at": "2022-11-14T17:08:20.043Z",
    "ignoreHooks": false,
    "kid": "33d5192c-df0f-48af-b883-53726a76c62f",
    "modified_at": "2022-11-14T17:08:20.372Z",
    "repository": "kara.moe",
    "songorder": 3,
    "tags": {
      "authors": [
        "ee8628c8-9b7f-415b-bc0d-9b712d5daf8c"
      ],
      "collections": [
        "c7db86a0-ff64-4044-9be4-66dd1ef1d1c1"
      ],
      "creators": [
        "422a4f90-c9f2-49c3-b1d1-ee7de65ba052"
      ],
      "families": [
        "0377db02-3af6-43b8-9b08-c759df3d25c3"
      ],
      "genres": [
        "caa86df2-0d59-474b-885c-f240a9e891b0"
      ],
      "groups": [
        "8e209ae4-4381-438f-89dc-1b21752027d2"
      ],
      "langs": [
        "4dcf9614-7914-42aa-99f4-dbce2e059133"
      ],
      "origins": [
        "938de218-5343-4865-94d3-fb33f2eaa152"
      ],
      "series": [
        "052fd93d-feb8-4d26-b908-40d9722f521f"
      ],
      "singers": [
        "a2927d91-114a-49a3-b849-8fae00c596b3",
        "62d5bb3a-941a-4df6-9cfb-43504d844d52",
        "ee6dbf3d-98f8-4be8-99b2-2e26dc03085f",
        "faccd344-8de0-46c3-b499-cce1c8456153"
      ],
      "singergroups": [
        "ff06f1db-9f2a-4088-91c3-c0680e6d008a"
      ],
      "songtypes": [
        "f02ad9b3-0bd9-4aad-85b3-9976739ba0e4"
      ],
      "songwriters": [
        "6fbbc58f-436e-4f51-832c-cfc66e202a79"
      ],
      "franchises": [
        "ac8c6bdb-a96f-4893-b434-78d9fbdf673e"
      ]
    },
    "titles": {
      "eng": "YOUR FREEDOM"
    },
    "titles_default_language": "eng",
    "year": 2021
  }
}