{
  "header": {
    "version": 4,
    "description": "Karaoke Mugen Karaoke Data File"
  },
  "medias": [
    {
      "version": "Default",
      "filename": "JPN - Sayuri - AUDIO - Ru-rararu-ra-rurararu-ra-.mp3",
      "audiogain": -5.55,
      "loudnorm": "-11.77,-4.67,4.50,-21.87,-1.08",
      "filesize": 5589531,
      "duration": 196,
      "default": true,
      "lyrics": [
        {
          "filename": "JPN - Sayuri - AUDIO - Ru-rararu-ra-rurararu-ra-.ass",
          "default": true,
          "version": "Default",
          "subchecksum": "5fe7e06e4a97fc72909d0b7768eaebf7"
        }
      ]
    }
  ],
  "data": {
    "created_at": "2020-07-17T15:56:18.261Z",
    "kid": "d76c4621-da98-4145-82bf-250e3422ee18",
    "modified_at": "2021-02-25T12:57:53.233Z",
    "repository": "kara.moe",
    "tags": {
      "authors": [
        "87096920-112f-485f-a310-04156cb4624d"
      ],
      "collections": [
        "c7db86a0-ff64-4044-9be4-66dd1ef1d1c1"
      ],
      "creators": [
        "f49e3aff-8f9c-4b83-accb-b1d31f4a0289"
      ],
      "groups": [
        "60defa7b-774e-4680-8321-51b742c2e009",
        "ae613721-1fbe-480d-ba6b-d6d0702b184d"
      ],
      "langs": [
        "4dcf9614-7914-42aa-99f4-dbce2e059133"
      ],
      "singers": [
        "8e0404ba-681e-45f0-8ad0-45ca8f4687fb"
      ],
      "songtypes": [
        "42a262ae-acba-4ab5-a446-c5789c96c821"
      ],
      "songwriters": [
        "8e0404ba-681e-45f0-8ad0-45ca8f4687fb"
      ]
    },
    "title": "Ru-rararu-ra-rurararu-ra-",
    "titles": {
      "qro": "Ru-rararu-ra-rurararu-ra-",
      "jpn": "るーららるーらーるららるーらー"
    },
    "year": 2016,
    "titles_default_language": "qro"
  }
}