{
  "header": {
    "version": 4,
    "description": "Karaoke Mugen Karaoke Data File"
  },
  "medias": [
    {
      "version": "Default",
      "filename": "JPN - Naruto - MV - Yurayura ~ Full Vers.mp4",
      "audiogain": -6.32,
      "loudnorm": "-11.29,-0.02,4.00,-21.42,-0.66",
      "filesize": 50265488,
      "duration": 295,
      "default": true,
      "lyrics": [
        {
          "filename": "JPN - Naruto - MV - Yurayura ~ Full Vers.ass",
          "default": true,
          "version": "Default"
        }
      ]
    }
  ],
  "data": {
    "created_at": "2021-06-06T17:53:52.753Z",
    "kid": "cd1231b8-e9d8-4410-b65d-f41f454b6a50",
    "modified_at": "2022-06-04T00:18:01.813Z",
    "parents": [
      "8c50480a-670f-4a09-abc8-27a67a9fee6f"
    ],
    "repository": "kara.moe",
    "songorder": null,
    "tags": {
      "authors": [
        "1db1738f-acdc-42fc-aec3-60f4bddf660d"
      ],
      "creators": [
        "221d01d3-cf22-45d6-b187-5e7806dd6d1e"
      ],
      "families": [
        "5391f9fe-638c-415f-8dc9-958e3a2c5787"
      ],
      "groups": [
        "3c14c864-533c-49e6-a3cc-6969f1233775"
      ],
      "langs": [
        "4dcf9614-7914-42aa-99f4-dbce2e059133"
      ],
      "series": [
        "3201e723-3e75-46f9-bb21-d991f4f7731e"
      ],
      "singers": [
        "0a5925c1-83fc-4375-9051-7407133409b3"
      ],
      "songtypes": [
        "7be1b15c-cff8-4b37-a649-5c90f3d569a9"
      ],
      "songwriters": [
        "0a5925c1-83fc-4375-9051-7407133409b3"
      ],
      "versions": [
        "c2143a7f-6970-450e-8a79-0302db9220a9"
      ],
      "collections": [
        "dbcf2c22-524d-4708-99bb-601703633927"
      ],
      "franchises": [
        "3201e723-3e75-46f9-bb21-d991f4f7731e"
      ]
    },
    "titles": {
      "qro": "Yurayura",
      "jpn": "ユラユラ"
    },
    "titles_default_language": "qro",
    "title": "Yurayura",
    "year": 2002
  }
}