{
  "header": {
    "version": 4,
    "description": "Karaoke Mugen Karaoke Data File"
  },
  "medias": [
    {
      "version": "Default",
      "filename": "JPN - Love Live! School Idol Project - LIVE - MOMENT RING - Mu's Final LoveLive! ~Mu'sic Forever ~ ~ Full Vers.mp4",
      "audiogain": -8.89,
      "loudnorm": "-8.01,0.13,2.80,-18.01,-0.45",
      "filesize": 339116917,
      "duration": 367,
      "default": true,
      "lyrics": [
        {
          "filename": "JPN - Love Live! School Idol Project - LIVE - MOMENT RING - Mu's Final LoveLive! ~Mu'sic Forever ~ ~ Full Vers.ass",
          "default": true,
          "version": "Default"
        }
      ]
    }
  ],
  "data": {
    "created_at": "2020-12-28T21:54:22.630Z",
    "ignoreHooks": false,
    "kid": "edc60f65-d957-4002-88fe-d8b7267baadb",
    "modified_at": "2023-08-25T21:29:28.621Z",
    "parents": [
      "5c7e743b-9030-4efa-b855-2cec157fe2e0"
    ],
    "repository": "kara.moe",
    "tags": {
      "authors": [
        "78d42fee-8d3e-4bd5-9c44-98ce55f7d21f",
        "90698f28-1d62-4673-82c4-33ae96b1ba97"
      ],
      "collections": [
        "dbcf2c22-524d-4708-99bb-601703633927"
      ],
      "creators": [
        "b2805292-730e-473a-96f0-fd8e7ffd1fd7"
      ],
      "families": [
        "5391f9fe-638c-415f-8dc9-958e3a2c5787"
      ],
      "genres": [
        "caa86df2-0d59-474b-885c-f240a9e891b0"
      ],
      "groups": [
        "ae613721-1fbe-480d-ba6b-d6d0702b184d"
      ],
      "langs": [
        "4dcf9614-7914-42aa-99f4-dbce2e059133"
      ],
      "misc": [
        "86705d4b-24e4-4756-9687-2b9c98bcf366",
        "1d6ceadf-a885-47e5-b23b-c07bf668a424"
      ],
      "origins": [
        "938de218-5343-4865-94d3-fb33f2eaa152"
      ],
      "series": [
        "dd93f278-a55d-4040-aaab-d0c50b58b087"
      ],
      "singers": [
        "0218ed43-3fff-4261-9036-5a50a07406d9",
        "1d00d52c-e265-4be6-8902-55d7f425f86c",
        "1d78156e-3eb3-409b-b0e0-82e8ef7efe01",
        "4145e95c-bf18-4574-a027-80d61c2a2610",
        "4fc68333-b1f6-44ce-b2be-ac4866b78932",
        "5c779d94-5ed1-4326-9dee-41b3d9f7331c",
        "7779578c-3d4e-4aa5-8f54-77023879e8e6",
        "a1b1a298-ff71-4cda-a407-f1cbdb4f415d",
        "b051c80e-61d1-4d04-956b-c6e8f84cd828"
      ],
      "singergroups": [
        "fc107f1a-4759-4869-857f-fc1966f345f9"
      ],
      "songtypes": [
        "a0167949-580c-4de3-bf13-497e462e02f3"
      ],
      "songwriters": [
        "95f2365a-8fbb-4fa9-a920-bba23c20f93b",
        "f41e7218-6c19-4e19-9b5f-4612dcd58243"
      ],
      "versions": [
        "c2143a7f-6970-450e-8a79-0302db9220a9"
      ],
      "franchises": [
        "fd5d066e-e85a-4eea-8688-2979a887450a"
      ]
    },
    "titles": {
      "eng": "MOMENT RING - µ's Final LoveLive! ~µ'sic Forever♪♪♪♪♪♪♪♪♪~"
    },
    "titles_default_language": "eng",
    "year": 2016
  }
}