{
  "header": {
    "version": 4,
    "description": "Karaoke Mugen Karaoke Data File"
  },
  "medias": [
    {
      "version": "Default",
      "filename": "JPN - Aho Girl - OP - Zenryoku Summer.mp4",
      "audiogain": -5.82,
      "loudnorm": "-11.90,0.07,5.40,-22.05,-0.89",
      "filesize": 14729980,
      "duration": 62,
      "default": true,
      "lyrics": [
        {
          "filename": "JPN - Aho Girl - OP - Zenryoku Summer.ass",
          "default": true,
          "version": "Default"
        }
      ]
    }
  ],
  "data": {
    "created_at": "2018-07-23T17:23:42.000Z",
    "ignoreHooks": false,
    "kid": "1004b032-aeda-4d2f-956f-3588998974ff",
    "modified_at": "2022-07-20T16:22:22.388Z",
    "repository": "kara.moe",
    "tags": {
      "authors": [
        "1df04771-a378-4f14-a5e1-1455187d681a",
        "b5116310-e69b-4ed4-9e47-c5c53ee69023"
      ],
      "collections": [
        "c7db86a0-ff64-4044-9be4-66dd1ef1d1c1"
      ],
      "creators": [
        "e9bbc92f-b99d-45d4-869c-39b36d70382e"
      ],
      "families": [
        "0377db02-3af6-43b8-9b08-c759df3d25c3"
      ],
      "groups": [
        "ae613721-1fbe-480d-ba6b-d6d0702b184d"
      ],
      "langs": [
        "4dcf9614-7914-42aa-99f4-dbce2e059133"
      ],
      "origins": [
        "938de218-5343-4865-94d3-fb33f2eaa152"
      ],
      "series": [
        "ae2d9234-1e8d-4f0f-b194-9f5e4c2513d8"
      ],
      "singers": [
        "78d91182-ac66-49fb-9561-1d330667d6c4"
      ],
      "songtypes": [
        "f02ad9b3-0bd9-4aad-85b3-9976739ba0e4"
      ],
      "songwriters": [
        "06d98e92-d527-485d-8399-a951ff48e66c",
        "0b54e69d-4691-4415-be0e-0dd6fd5d4e1a"
      ]
    },
    "titles": {
      "qro": "Zenryoku☆Summer",
      "jpn": "全力☆Summer!"
    },
    "titles_default_language": "qro",
    "title": "Zenryoku☆Summer",
    "year": 2017
  }
}