{
  "header": {
    "version": 4,
    "description": "Karaoke Mugen Karaoke Data File"
  },
  "medias": [
    {
      "version": "Default",
      "filename": "JPN - Touhou - MV - Bad Apple!!.mp4",
      "audiogain": -8.13,
      "loudnorm": "-6.92,0.77,3.10,-16.97,-0.45",
      "filesize": 34691653,
      "duration": 219,
      "default": true,
      "lyrics": [
        {
          "filename": "JPN - Touhou - MV - Bad Apple!!.ass",
          "default": true,
          "version": "Default"
        }
      ]
    }
  ],
  "data": {
    "created_at": "2017-10-11T17:02:49.000Z",
    "ignoreHooks": false,
    "kid": "c8e61289-31fd-430a-8a56-f0ed95f84d50",
    "modified_at": "2023-02-16T10:54:54.306Z",
    "repository": "kara.moe",
    "tags": {
      "authors": [
        "5bdaba57-27f8-4568-8806-76a807728766"
      ],
      "collections": [
        "c7db86a0-ff64-4044-9be4-66dd1ef1d1c1"
      ],
      "creators": [
        "d57e7ffa-d32f-41d8-b909-5b10126283f4",
        "dcab7259-efff-4dd3-917c-aec97652b5df"
      ],
      "families": [
        "0377db02-3af6-43b8-9b08-c759df3d25c3"
      ],
      "groups": [
        "3c14c864-533c-49e6-a3cc-6969f1233775"
      ],
      "langs": [
        "4dcf9614-7914-42aa-99f4-dbce2e059133"
      ],
      "origins": [
        "ac5085db-52d8-44b4-8fbb-1697b24d2046"
      ],
      "series": [
        "1bdaa5a1-dfa6-4365-b746-7a0b194dafd6"
      ],
      "singers": [
        "69a7b753-798b-421d-9d86-45239b749da1"
      ],
      "songtypes": [
        "7be1b15c-cff8-4b37-a649-5c90f3d569a9"
      ],
      "songwriters": [
        "161b51ee-adbb-4e39-84c6-bde865a368bf",
        "26cb5252-8510-49e0-897c-a611a05fc056",
        "9607f3c8-c583-4471-9075-308f46745afd"
      ],
      "franchises": [
        "1bdaa5a1-dfa6-4365-b746-7a0b194dafd6"
      ]
    },
    "titles": {
      "eng": "Bad Apple!!"
    },
    "titles_default_language": "eng",
    "year": 2009
  }
}