{
  "header": {
    "version": 4,
    "description": "Karaoke Mugen Karaoke Data File"
  },
  "medias": [
    {
      "version": "Default",
      "filename": "JPN - Genjitsu no Yohane -SUNSHINE in the MIRROR- - AUDIO IN - Far far away ~ Full Off Vocal Vers.mp3",
      "audiogain": -5.31,
      "loudnorm": "-11.66,1.12,5.40,-21.83,-1.07",
      "filesize": 9837627,
      "duration": 240,
      "default": true,
      "lyrics": [
        {
          "filename": "JPN - Genjitsu no Yohane -SUNSHINE in the MIRROR- - AUDIO IN - Far far away ~ Full Off Vocal Vers.ass",
          "default": true,
          "version": "Default"
        }
      ]
    }
  ],
  "data": {
    "created_at": "2023-07-08T14:33:07.513Z",
    "ignoreHooks": false,
    "kid": "f419add3-bbf3-47a3-b7d7-4ddfbd79f1b7",
    "modified_at": "2023-07-08T14:33:07.595Z",
    "parents": [
      "45e9d419-d254-4490-8dbe-d882c6b366c7"
    ],
    "repository": "kara.moe",
    "tags": {
      "authors": [
        "449844e4-3a1f-46e1-8a92-bf72e2d1b6f1"
      ],
      "collections": [
        "dbcf2c22-524d-4708-99bb-601703633927"
      ],
      "creators": [
        "b2805292-730e-473a-96f0-fd8e7ffd1fd7"
      ],
      "genres": [
        "caa86df2-0d59-474b-885c-f240a9e891b0"
      ],
      "groups": [
        "8e209ae4-4381-438f-89dc-1b21752027d2"
      ],
      "langs": [
        "4dcf9614-7914-42aa-99f4-dbce2e059133"
      ],
      "origins": [
        "938de218-5343-4865-94d3-fb33f2eaa152"
      ],
      "series": [
        "7088e690-114c-45fb-8044-1839b7151723"
      ],
      "singers": [
        "8f1cdf03-baf0-4294-bfdf-fdeedcdbeac5"
      ],
      "singergroups": [
        "b34161c7-a60d-4f1a-8436-11abc0875436"
      ],
      "songtypes": [
        "42a262ae-acba-4ab5-a446-c5789c96c821",
        "5e5250d9-351a-4a82-98eb-55db50ad8962"
      ],
      "songwriters": [
        "70fe407b-f62f-4f2d-afdc-201cd297c05f",
        "76e68206-5ed7-47fd-8cae-fb5c84ff0d1f",
        "a72bfa42-bb54-4832-b1cc-023ffde9ef60"
      ],
      "versions": [
        "c2143a7f-6970-450e-8a79-0302db9220a9",
        "c0cc87b9-55b9-40f0-878a-fbb9e34c151e"
      ],
      "franchises": [
        "fd5d066e-e85a-4eea-8688-2979a887450a"
      ]
    },
    "titles": {
      "eng": "Far far away"
    },
    "titles_default_language": "eng",
    "year": 2023
  }
}