{
  "header": {
    "version": 4,
    "description": "Karaoke Mugen Karaoke Data File"
  },
  "medias": [
    {
      "version": "Default",
      "filename": "JPN - Touhou - AUDIO - Getsurei 11.3 no Candle Magic.mp3",
      "audiogain": 0.15,
      "loudnorm": "-17.42,-7.17,4.80,-27.42,-0.80",
      "filesize": 7119754,
      "duration": 391,
      "default": true,
      "lyrics": [
        {
          "filename": "JPN - Touhou - AUDIO - Getsurei 11.3 no Candle Magic.ass",
          "default": true,
          "version": "Default"
        }
      ]
    }
  ],
  "data": {
    "created_at": "2023-02-26T11:24:54.957Z",
    "ignoreHooks": false,
    "kid": "059b8b0b-681b-49f0-8056-87178d06f971",
    "modified_at": "2023-02-26T11:27:47.101Z",
    "repository": "kara.moe",
    "tags": {
      "authors": [
        "61865310-cb97-496c-a722-364b0a9ba90d"
      ],
      "collections": [
        "c7db86a0-ff64-4044-9be4-66dd1ef1d1c1"
      ],
      "creators": [
        "b7e7890d-0aad-4432-b374-00aed612d4ba"
      ],
      "groups": [
        "8c22c899-b3ed-42da-a548-ce00f950798b",
        "ae613721-1fbe-480d-ba6b-d6d0702b184d"
      ],
      "langs": [
        "4dcf9614-7914-42aa-99f4-dbce2e059133"
      ],
      "misc": [
        "86705d4b-24e4-4756-9687-2b9c98bcf366"
      ],
      "origins": [
        "ac5085db-52d8-44b4-8fbb-1697b24d2046"
      ],
      "series": [
        "1bdaa5a1-dfa6-4365-b746-7a0b194dafd6"
      ],
      "singers": [
        "65860881-335a-4551-8df8-fa56ee102579"
      ],
      "songtypes": [
        "42a262ae-acba-4ab5-a446-c5789c96c821"
      ],
      "songwriters": [
        "26cb5252-8510-49e0-897c-a611a05fc056",
        "27d6df47-73c9-4643-bbc9-74abf5e85f4c"
      ],
      "franchises": [
        "1bdaa5a1-dfa6-4365-b746-7a0b194dafd6"
      ]
    },
    "titles": {
      "jpn": "月齢11.3のキャンドルマジック",
      "qro": "Getsurei 11.3 no Candle Magic"
    },
    "titles_default_language": "qro",
    "titles_aliases": [
      "Lunar"
    ],
    "year": 2010
  }
}