{
  "header": {
    "version": 4,
    "description": "Karaoke Mugen Karaoke Data File"
  },
  "medias": [
    {
      "version": "Default",
      "filename": "JPN - Kidou Senshi Gundam Tekketsu no Orphans 2nd Season - ED2 - Freesia.mp4",
      "audiogain": 2.33,
      "loudnorm": "-19.68,-9.71,7.10,-30.08,-1.02",
      "filesize": 34176216,
      "duration": 91,
      "default": true,
      "lyrics": [
        {
          "filename": "JPN - Kidou Senshi Gundam Tekketsu no Orphans 2nd Season - ED2 - Freesia.ass",
          "default": true,
          "version": "Default",
          "subchecksum": "33169c823e5cbcad58f2f72c64c7817e"
        }
      ]
    }
  ],
  "data": {
    "created_at": "2019-09-07T11:44:56.000Z",
    "kid": "9baf8b64-d308-42f1-8183-582b364c060a",
    "modified_at": "2021-02-25T12:00:23.301Z",
    "repository": "kara.moe",
    "songorder": 2,
    "tags": {
      "authors": [
        "06852e02-b77e-4106-b6f7-2d03942ad0ea"
      ],
      "collections": [
        "c7db86a0-ff64-4044-9be4-66dd1ef1d1c1"
      ],
      "creators": [
        "ef8f80e1-d244-4aea-b7f0-984d6dd4b82b"
      ],
      "families": [
        "0377db02-3af6-43b8-9b08-c759df3d25c3"
      ],
      "genres": [
        "f60ba57d-5ef4-49e0-b93b-d0dcbcff6592"
      ],
      "groups": [
        "ae613721-1fbe-480d-ba6b-d6d0702b184d"
      ],
      "langs": [
        "4dcf9614-7914-42aa-99f4-dbce2e059133"
      ],
      "misc": [
        "fe819ff1-9db8-4a0f-85dc-0e322c9126c4"
      ],
      "origins": [
        "938de218-5343-4865-94d3-fb33f2eaa152"
      ],
      "series": [
        "9bd0b83b-53ca-444e-b54d-021feb5fb967"
      ],
      "singers": [
        "0d66d0d1-476f-470d-bc03-34ff08e41435"
      ],
      "songtypes": [
        "38c77c56-2b95-4040-b676-0994a8cb0597"
      ],
      "songwriters": [
        "4a6c04a7-be2e-4cc8-b010-65a3acce82a2",
        "69a3579a-2a6d-4b35-829e-65fd0ac1e99e"
      ],
      "franchises": [
        "e6ade589-c2e4-49a1-acdb-ea9b03e57240"
      ]
    },
    "title": "Freesia",
    "titles": {
      "eng": "Freesia",
      "jpn": "フリージア"
    },
    "year": 2017,
    "titles_default_language": "eng"
  }
}