{
  "header": {
    "version": 4,
    "description": "Karaoke Mugen Karaoke Data File"
  },
  "medias": [
    {
      "version": "Default",
      "filename": "JPN - Diabolik Lovers - OP - Mr.SADISTIC NIGHT.mp4",
      "audiogain": 4.13,
      "loudnorm": "-20.81,-9.25,3.60,-30.85,-0.32",
      "filesize": 34725574,
      "duration": 92,
      "default": true,
      "lyrics": [
        {
          "filename": "JPN - Diabolik Lovers - OP - Mr.SADISTIC NIGHT.ass",
          "default": true,
          "version": "Default",
          "subchecksum": "e273f3593d40b1163fbb0ce002e1c17f"
        }
      ]
    }
  ],
  "data": {
    "created_at": "2017-10-11T17:02:18.000Z",
    "kid": "0857b4a3-4d9c-4315-8a82-c096b5a70faf",
    "modified_at": "2021-02-25T11:09:18.734Z",
    "repository": "kara.moe",
    "tags": {
      "authors": [
        "5bdaba57-27f8-4568-8806-76a807728766"
      ],
      "collections": [
        "c7db86a0-ff64-4044-9be4-66dd1ef1d1c1"
      ],
      "creators": [
        "e898a827-3b74-4637-b57c-c40c8c2fc0cc"
      ],
      "families": [
        "0377db02-3af6-43b8-9b08-c759df3d25c3"
      ],
      "groups": [
        "ae613721-1fbe-480d-ba6b-d6d0702b184d"
      ],
      "langs": [
        "4dcf9614-7914-42aa-99f4-dbce2e059133"
      ],
      "origins": [
        "938de218-5343-4865-94d3-fb33f2eaa152"
      ],
      "series": [
        "39784028-8340-444b-a430-8cd97967ef30"
      ],
      "singers": [
        "1b061bf9-73e5-4365-b3f3-c31872fd8dab",
        "45487374-6f70-47e7-81b0-ce3cc1d88f4e"
      ],
      "songtypes": [
        "f02ad9b3-0bd9-4aad-85b3-9976739ba0e4"
      ],
      "songwriters": [
        "c41cb891-206a-45e5-bf1c-5b98f2958b89",
        "dc4c9e3c-e1ff-4397-9312-6f04e79ef712"
      ],
      "franchises": [
        "39784028-8340-444b-a430-8cd97967ef30"
      ]
    },
    "title": "Mr.SADISTIC NIGHT",
    "titles": {
      "eng": "Mr.SADISTIC NIGHT"
    },
    "year": 2013,
    "titles_default_language": "eng"
  }
}