{
  "header": {
    "version": 4,
    "description": "Karaoke Mugen Karaoke Data File"
  },
  "medias": [
    {
      "version": "Default",
      "filename": "JPN - Touhou - AUDIO - Nihil Kagura ~ Full Vers.mp3",
      "audiogain": -9.6,
      "loudnorm": "-7.29,1.31,1.70,-17.38,-0.06",
      "filesize": 4375736,
      "duration": 261,
      "default": true,
      "lyrics": [
        {
          "filename": "JPN - Touhou - AUDIO - Nihil Kagura ~ Full Vers.ass",
          "default": true,
          "version": "Default"
        }
      ]
    }
  ],
  "data": {
    "created_at": "2020-04-18T17:42:53.440Z",
    "ignoreHooks": false,
    "kid": "8b2e5338-bdd5-448f-a3d1-72aa3cb0b43a",
    "modified_at": "2023-02-04T14:08:43.642Z",
    "repository": "kara.moe",
    "tags": {
      "authors": [
        "dacb0560-9eee-45e3-a97e-294ca9f49d23"
      ],
      "collections": [
        "c7db86a0-ff64-4044-9be4-66dd1ef1d1c1"
      ],
      "creators": [
        "5ba06772-0887-4b88-950b-bb7bdf97dd10"
      ],
      "groups": [
        "8c22c899-b3ed-42da-a548-ce00f950798b",
        "ae613721-1fbe-480d-ba6b-d6d0702b184d"
      ],
      "langs": [
        "4dcf9614-7914-42aa-99f4-dbce2e059133"
      ],
      "origins": [
        "ac5085db-52d8-44b4-8fbb-1697b24d2046"
      ],
      "series": [
        "1bdaa5a1-dfa6-4365-b746-7a0b194dafd6"
      ],
      "singers": [
        "7f848493-f1e9-49d7-bfdd-df6ff41dec94"
      ],
      "songtypes": [
        "42a262ae-acba-4ab5-a446-c5789c96c821"
      ],
      "songwriters": [
        "26cb5252-8510-49e0-897c-a611a05fc056",
        "2e2964df-7dec-475e-bf11-62dc72e4fc6c",
        "6539217d-b35c-4316-87b0-f25b3a86d289"
      ],
      "versions": [
        "c2143a7f-6970-450e-8a79-0302db9220a9"
      ],
      "franchises": [
        "1bdaa5a1-dfa6-4365-b746-7a0b194dafd6"
      ]
    },
    "titles": {
      "jpn": "ニヒル神楽",
      "qro": "Nihil Kagura"
    },
    "titles_default_language": "qro",
    "year": 2013
  }
}