{
  "header": {
    "version": 4,
    "description": "Karaoke Mugen Karaoke Data File"
  },
  "medias": [
    {
      "version": "Default",
      "filename": "JPN - Suzumiya Haruhi no Yuuutsu - AUDIO CS - Hare Hare Yukai ~ Kyon Vers. ~ Off Vocal Vers.mp3",
      "loudnorm": "-11.22,-0.01,9.20,-21.53,-1.08",
      "filesize": 4980854,
      "duration": 303,
      "default": true,
      "lyrics": [
        {
          "filename": "JPN - Suzumiya Haruhi no Yuuutsu - AUDIO CS - Hare Hare Yukai ~ Kyon Vers. ~ Off Vocal Vers.ass",
          "default": true,
          "version": "Default"
        }
      ]
    }
  ],
  "data": {
    "comment": "#8874, synchronisée avec la version vocale",
    "created_at": "2023-09-16T22:20:59.614Z",
    "ignoreHooks": false,
    "kid": "fa97ffed-f9f3-4c54-82a1-052aa68f85b3",
    "modified_at": "2023-09-16T22:20:59.614Z",
    "parents": [
      "2fea8b45-38ba-40ed-b2ca-100c0328c95c"
    ],
    "repository": "kara.moe",
    "tags": {
      "authors": [
        "4749577f-84d7-470b-bfa8-09c6f9a97c32"
      ],
      "collections": [
        "dbcf2c22-524d-4708-99bb-601703633927",
        "c7db86a0-ff64-4044-9be4-66dd1ef1d1c1"
      ],
      "creators": [
        "b2805292-730e-473a-96f0-fd8e7ffd1fd7"
      ],
      "groups": [
        "3c14c864-533c-49e6-a3cc-6969f1233775"
      ],
      "langs": [
        "4dcf9614-7914-42aa-99f4-dbce2e059133"
      ],
      "series": [
        "4f132535-c7b6-4147-a324-6995aad44df7"
      ],
      "singers": [
        "7ed26e66-b3b8-4fb0-8874-bec0d0158f07"
      ],
      "songtypes": [
        "42a262ae-acba-4ab5-a446-c5789c96c821",
        "a8a2616c-b5a1-4df3-ad6f-89291bc67dee"
      ],
      "songwriters": [
        "f41e7218-6c19-4e19-9b5f-4612dcd58243",
        "4f8ba040-1f56-4340-807d-eefa481ae17f",
        "f2cadf55-15ce-47f1-be10-ed75ec34d17e"
      ],
      "versions": [
        "c0cc87b9-55b9-40f0-878a-fbb9e34c151e"
      ],
      "franchises": [
        "4f132535-c7b6-4147-a324-6995aad44df7"
      ]
    },
    "titles": {
      "jpn": "ハレ晴レユカイ~ キョン Vers.",
      "qro": "Hare Hare Yukai ~ Kyon Vers."
    },
    "titles_default_language": "qro",
    "year": 2007
  }
}