{
  "header": {
    "version": 4,
    "description": "Karaoke Mugen Karaoke Data File"
  },
  "medias": [
    {
      "version": "Default",
      "filename": "JPN - Touhou - REMIX MV - Captain Marine no Ketsu Anchor ~ Cover Vers.mp4",
      "audiogain": -9.25,
      "loudnorm": "-8.47,0.96,5.00,-18.55,-0.61",
      "filesize": 59029078,
      "duration": 197,
      "default": true,
      "lyrics": [
        {
          "filename": "JPN - Touhou - REMIX MV - Captain Marine no Ketsu Anchor ~ Cover Vers.ass",
          "default": true,
          "version": "Default",
          "subchecksum": "1828393e3f1644246ec1055000655063"
        }
      ]
    }
  ],
  "data": {
    "created_at": "2021-06-22T20:04:53.524Z",
    "kid": "44911faf-8d03-4120-bcc7-bd22fa91559c",
    "modified_at": "2021-06-26T10:56:08.330Z",
    "repository": "kara.moe",
    "tags": {
      "authors": [
        "84157b43-8a7a-482c-95d3-516757353835"
      ],
      "collections": [
        "c7db86a0-ff64-4044-9be4-66dd1ef1d1c1"
      ],
      "creators": [
        "0263d413-17bb-4cee-a311-6dd896eda1c9",
        "25fc251a-0514-4bf5-a818-dd0547723f4a"
      ],
      "families": [
        "0377db02-3af6-43b8-9b08-c759df3d25c3"
      ],
      "groups": [
        "8e209ae4-4381-438f-89dc-1b21752027d2"
      ],
      "langs": [
        "4dcf9614-7914-42aa-99f4-dbce2e059133"
      ],
      "misc": [
        "ec4360fa-3e3c-4f6f-b0e1-fb8b12b6dd18"
      ],
      "origins": [
        "5106d71b-a78e-4d19-a16d-f8fb6719538a"
      ],
      "series": [
        "1bdaa5a1-dfa6-4365-b746-7a0b194dafd6"
      ],
      "singers": [
        "77848990-54ab-4ef6-bba7-e1258fda78a5"
      ],
      "songtypes": [
        "7be1b15c-cff8-4b37-a649-5c90f3d569a9"
      ],
      "songwriters": [
        "1dae52a9-d1e0-447b-8dd3-cfd10119a3a8",
        "26cb5252-8510-49e0-897c-a611a05fc056",
        "feceb592-efac-4eda-9b03-c27cf509004c"
      ],
      "versions": [
        "03e1e1d2-8641-47b7-bbcb-39a3df9ff21c"
      ],
      "franchises": [
        "1bdaa5a1-dfa6-4365-b746-7a0b194dafd6"
      ]
    },
    "title": "Captain Marine no Ketsu Anchor",
    "titles": {
      "qro": "Captain Marine no Ketsu Anchor",
      "jpn": "キャプテン・マリンのケツアンカー"
    },
    "year": 2020,
    "titles_default_language": "qro"
  }
}