{
  "header": {
    "version": 4,
    "description": "Karaoke Mugen Karaoke Data File"
  },
  "medias": [
    {
      "version": "Default",
      "filename": "JPN - InuYasha - MV - Fukai Mori ~ Full Off Vocal Vers.mp4",
      "loudnorm": "-8.05,2.16,7.10,-18.27,-1.61",
      "filesize": 14543408,
      "duration": 256,
      "default": true,
      "lyrics": [
        {
          "filename": "JPN - InuYasha - MV - Fukai Mori ~ Full Off Vocal Vers.ass",
          "default": true,
          "version": "Default"
        }
      ]
    }
  ],
  "data": {
    "created_at": "2023-08-21T02:39:28.275Z",
    "ignoreHooks": false,
    "kid": "72d09c96-2dcb-420d-87e4-506645bb1e28",
    "modified_at": "2023-08-31T13:47:34.261Z",
    "parents": [
      "a9379528-308f-48f9-b3ab-ad708da8163c"
    ],
    "repository": "kara.moe",
    "tags": {
      "authors": [
        "1db1738f-acdc-42fc-aec3-60f4bddf660d"
      ],
      "collections": [
        "dbcf2c22-524d-4708-99bb-601703633927"
      ],
      "creators": [
        "8fb6d342-5573-4d48-9085-a238b0c36968"
      ],
      "families": [
        "5391f9fe-638c-415f-8dc9-958e3a2c5787"
      ],
      "genres": [
        "a0aeef4a-6428-45ff-a6e1-468b595930c2"
      ],
      "groups": [
        "3c14c864-533c-49e6-a3cc-6969f1233775"
      ],
      "langs": [
        "4dcf9614-7914-42aa-99f4-dbce2e059133"
      ],
      "origins": [
        "938de218-5343-4865-94d3-fb33f2eaa152"
      ],
      "series": [
        "6dee9f39-547e-4426-8484-3d375fd586da"
      ],
      "singers": [
        "7035ce59-1dbb-43ec-bdc8-17bafdaeb45a"
      ],
      "singergroups": [
        "6f1aaccd-0f96-4fa9-ae5f-4e9d47f103a6"
      ],
      "songtypes": [
        "7be1b15c-cff8-4b37-a649-5c90f3d569a9"
      ],
      "songwriters": [
        "6f1aaccd-0f96-4fa9-ae5f-4e9d47f103a6"
      ],
      "versions": [
        "c0cc87b9-55b9-40f0-878a-fbb9e34c151e",
        "c2143a7f-6970-450e-8a79-0302db9220a9"
      ],
      "franchises": [
        "6dee9f39-547e-4426-8484-3d375fd586da"
      ]
    },
    "titles": {
      "jpn": "深い森",
      "qro": "Fukai Mori"
    },
    "titles_default_language": "qro",
    "year": 2001
  }
}