{
  "header": {
    "version": 4,
    "description": "Karaoke Mugen Karaoke Data File"
  },
  "medias": [
    {
      "version": "Default",
      "filename": "JPN - Aishiteru ze Baby - AUDIO ED - Nennensaisai ~ Full Vers.mp3",
      "audiogain": -7.49,
      "loudnorm": "-10.62,1.05,10.50,-20.96,-0.91",
      "filesize": 11163636,
      "duration": 274,
      "default": true,
      "lyrics": [
        {
          "filename": "JPN - Aishiteru ze Baby - AUDIO ED - Nennensaisai ~ Full Vers.ass",
          "default": true,
          "version": "Default"
        }
      ]
    }
  ],
  "data": {
    "created_at": "2023-06-06T21:32:50.244Z",
    "ignoreHooks": false,
    "kid": "1a4a8b7f-2eef-4289-b0f9-9faf95ba830b",
    "modified_at": "2023-06-06T21:32:50.344Z",
    "parents": [
      "0ec6f5b1-9c5c-4124-b6e6-05f20b1e0ad5"
    ],
    "repository": "kara.moe",
    "tags": {
      "authors": [
        "1db1738f-acdc-42fc-aec3-60f4bddf660d"
      ],
      "collections": [
        "dbcf2c22-524d-4708-99bb-601703633927"
      ],
      "creators": [
        "28a02f79-daaf-4037-8897-3458e80a5b41"
      ],
      "groups": [
        "3c14c864-533c-49e6-a3cc-6969f1233775"
      ],
      "langs": [
        "4dcf9614-7914-42aa-99f4-dbce2e059133"
      ],
      "series": [
        "6642f234-2189-4c3b-bb66-8ee574089661"
      ],
      "singers": [
        "5b0ba4ca-f297-4c2c-a404-8c38d6840e84"
      ],
      "songtypes": [
        "38c77c56-2b95-4040-b676-0994a8cb0597",
        "42a262ae-acba-4ab5-a446-c5789c96c821"
      ],
      "songwriters": [
        "4fffbd0d-4dc7-46b7-942e-f6255df5e261"
      ],
      "versions": [
        "c2143a7f-6970-450e-8a79-0302db9220a9"
      ]
    },
    "titles": {
      "jpn": "年年歳歳",
      "qro": "Nennensaisai"
    },
    "titles_default_language": "qro",
    "titles_aliases": [
      "Nennen Saisai"
    ],
    "year": 2004
  }
}