{
  "header": {
    "version": 4,
    "description": "Karaoke Mugen Karaoke Data File"
  },
  "medias": [
    {
      "version": "Default",
      "filename": "JPN - Touhou - REMIX MV - Meguru Harvest.mp4",
      "audiogain": -11.67,
      "loudnorm": "-5.34,1.38,1.60,-15.39,0.02",
      "filesize": 55744781,
      "duration": 234,
      "default": true,
      "lyrics": [
        {
          "filename": "JPN - Touhou - REMIX MV - Meguru Harvest.ass",
          "default": true,
          "version": "Default"
        }
      ]
    }
  ],
  "data": {
    "created_at": "2021-11-11T18:54:19.799Z",
    "kid": "2533cf4c-160c-4140-803d-75ecbe97a244",
    "modified_at": "2022-09-19T07:46:19.262Z",
    "repository": "kara.moe",
    "tags": {
      "series": [
        "1bdaa5a1-dfa6-4365-b746-7a0b194dafd6"
      ],
      "singers": [
        "4cb575ae-a999-4234-9417-31580bcfab94"
      ],
      "songtypes": [
        "7be1b15c-cff8-4b37-a649-5c90f3d569a9"
      ],
      "creators": [
        "ad4c9a45-6385-48ff-9468-1a056c486239"
      ],
      "langs": [
        "4dcf9614-7914-42aa-99f4-dbce2e059133"
      ],
      "authors": [
        "fb28c6d3-a81e-40c0-9a4c-e3268c60a64b"
      ],
      "misc": [
        "ec4360fa-3e3c-4f6f-b0e1-fb8b12b6dd18"
      ],
      "songwriters": [
        "26cb5252-8510-49e0-897c-a611a05fc056",
        "ad4c9a45-6385-48ff-9468-1a056c486239"
      ],
      "groups": [
        "ae613721-1fbe-480d-ba6b-d6d0702b184d"
      ],
      "origins": [
        "ac5085db-52d8-44b4-8fbb-1697b24d2046"
      ],
      "collections": [
        "c7db86a0-ff64-4044-9be4-66dd1ef1d1c1"
      ],
      "franchises": [
        "1bdaa5a1-dfa6-4365-b746-7a0b194dafd6"
      ]
    },
    "titles": {
      "qro": "Meguru Harvest",
      "jpn": "巡るHarvest"
    },
    "titles_default_language": "qro",
    "title": "Meguru Harvest",
    "year": 2018
  }
}