{
  "header": {
    "version": 4,
    "description": "Karaoke Mugen Karaoke Data File"
  },
  "medias": [
    {
      "version": "Default",
      "filename": "JPN - Love Live! Superstar!! - LIVE - Kono Machi de Ima Kimi to ~ Full Vers.mp4",
      "audiogain": -9.22,
      "loudnorm": "-8.07,1.00,6.20,-18.30,-0.72",
      "filesize": 262503534,
      "duration": 264,
      "default": true,
      "lyrics": [
        {
          "filename": "JPN - Love Live! Superstar!! - LIVE - Kono Machi de Ima Kimi to ~ Full Vers.ass",
          "default": true,
          "version": "Default"
        }
      ]
    }
  ],
  "data": {
    "created_at": "2023-07-17T20:26:41.984Z",
    "ignoreHooks": false,
    "kid": "e128d6f0-b462-458d-b156-18f931054ab3",
    "modified_at": "2023-07-17T20:26:45.297Z",
    "repository": "kara.moe",
    "tags": {
      "authors": [
        "ba4c7606-1e96-4c45-8e21-d5103477336b"
      ],
      "collections": [
        "dbcf2c22-524d-4708-99bb-601703633927"
      ],
      "creators": [
        "b2805292-730e-473a-96f0-fd8e7ffd1fd7"
      ],
      "families": [
        "5391f9fe-638c-415f-8dc9-958e3a2c5787"
      ],
      "genres": [
        "caa86df2-0d59-474b-885c-f240a9e891b0"
      ],
      "groups": [
        "2b4e9972-5e17-481b-99f5-d0787c0ada56",
        "8e209ae4-4381-438f-89dc-1b21752027d2"
      ],
      "langs": [
        "4dcf9614-7914-42aa-99f4-dbce2e059133"
      ],
      "series": [
        "ed46191b-997b-4c2d-8088-bb30a5e6d4ca"
      ],
      "singers": [
        "4a1c9511-daa2-4172-9367-5afb3312234e",
        "4e66c19f-a55a-4be7-a948-4eb45796b71f",
        "8a484e8b-1945-416f-b778-97a887ff24eb",
        "8b1d7f16-0b3e-4c63-82c1-bd60518b86a8",
        "c1fd3a67-0c3b-4d95-9cd8-f6aa2c8cc5a8"
      ],
      "singergroups": [
        "f3e5b1d3-30b1-4548-95c8-6cf77216bdbd"
      ],
      "songtypes": [
        "a0167949-580c-4de3-bf13-497e462e02f3"
      ],
      "songwriters": [
        "71f2ca71-a588-4eae-88a9-bd194e224fce",
        "d70187b8-ecb4-42d9-860d-523ff88a0525",
        "f77f4be8-1af3-4bab-9411-759dbd5bb583"
      ],
      "versions": [
        "c2143a7f-6970-450e-8a79-0302db9220a9"
      ],
      "franchises": [
        "fd5d066e-e85a-4eea-8688-2979a887450a"
      ]
    },
    "titles": {
      "jpn": "この街でいまキミと",
      "qro": "Kono Machi de Ima Kimi to"
    },
    "titles_default_language": "qro",
    "year": 2021
  }
}