{
  "header": {
    "version": 4,
    "description": "Karaoke Mugen Karaoke Data File"
  },
  "medias": [
    {
      "version": "Default",
      "filename": "JPN - BanG Dream! - IN5 - Mae e Susume!.mp4",
      "loudnorm": "-14.39,-0.03,5.20,-24.60,-1.04",
      "filesize": 87807168,
      "duration": 135,
      "default": true,
      "lyrics": [
        {
          "filename": "JPN - BanG Dream! - IN5 - Mae e Susume!.ass",
          "default": true,
          "version": "Default"
        }
      ]
    }
  ],
  "data": {
    "created_at": "2019-07-15T17:15:26.000Z",
    "ignoreHooks": false,
    "kid": "bea9e488-6bd2-4b50-ba7a-0d94dfb6b1f3",
    "modified_at": "2023-09-17T15:08:49.075Z",
    "repository": "kara.moe",
    "songorder": 5,
    "tags": {
      "authors": [
        "8ba639a3-3640-4ffc-81a5-0b13be29f7d2"
      ],
      "collections": [
        "c7db86a0-ff64-4044-9be4-66dd1ef1d1c1"
      ],
      "creators": [
        "0e26434a-c89a-4366-85b5-9e5c4b7d4195",
        "bd4564a8-44e5-454a-9c57-bd2a3c8a537e",
        "e1cefe44-c011-4eb9-8a45-341a57c3b1e9"
      ],
      "families": [
        "0377db02-3af6-43b8-9b08-c759df3d25c3"
      ],
      "groups": [
        "ae613721-1fbe-480d-ba6b-d6d0702b184d"
      ],
      "langs": [
        "4dcf9614-7914-42aa-99f4-dbce2e059133"
      ],
      "misc": [
        "fe819ff1-9db8-4a0f-85dc-0e322c9126c4"
      ],
      "origins": [
        "938de218-5343-4865-94d3-fb33f2eaa152"
      ],
      "series": [
        "a65e956d-39ab-4995-9ede-889c30a5cbf0"
      ],
      "singers": [
        "1477f7cf-7a03-4ecc-a3eb-81fe697202ed",
        "360a527f-69b3-47e2-b028-d2b176bfaaa2",
        "505910d1-e37a-4c15-8d91-3965a217ea6f",
        "721a998c-a803-416e-a40c-98294656ed8e",
        "8ab6e3f9-a691-4fd0-9c55-5426f2218c5d"
      ],
      "singergroups": [
        "adb2af59-5df0-4e18-a0d1-b377416ef134"
      ],
      "songtypes": [
        "5e5250d9-351a-4a82-98eb-55db50ad8962"
      ],
      "songwriters": [
        "30e4f047-50d7-4ed7-8ed3-57cef0f20489",
        "74b347e5-fb3c-43c3-afe0-a2863f36d366",
        "af3ffe51-8059-461c-bbb8-78ea388731f3"
      ],
      "franchises": [
        "a65e956d-39ab-4995-9ede-889c30a5cbf0"
      ]
    },
    "titles": {
      "jpn": "前へススメ!",
      "qro": "Mae e Susume!"
    },
    "titles_default_language": "qro",
    "year": 2017
  }
}