{
  "header": {
    "version": 4,
    "description": "Karaoke Mugen Karaoke Data File"
  },
  "medias": [
    {
      "version": "Default",
      "filename": "JPN - Kidou Tenshi Angelic Layer - MV - The Starry Sky ~ Full Vers.mp4",
      "audiogain": -5.88,
      "loudnorm": "-11.64,-0.25,6.90,-21.85,-1.33",
      "filesize": 19414282,
      "duration": 271,
      "default": true,
      "lyrics": [
        {
          "filename": "JPN - Kidou Tenshi Angelic Layer - MV - The Starry Sky ~ Full Vers.ass",
          "default": true,
          "version": "Default"
        }
      ]
    }
  ],
  "data": {
    "created_at": "2019-10-28T11:17:45.000Z",
    "kid": "05d3c4a2-28b6-4715-906a-066116a3be0f",
    "modified_at": "2022-06-04T00:19:30.124Z",
    "parents": [
      "f38ea28e-0c0a-4dec-a00c-1c6aa60c1a42"
    ],
    "repository": "kara.moe",
    "songorder": null,
    "tags": {
      "authors": [
        "1db1738f-acdc-42fc-aec3-60f4bddf660d"
      ],
      "creators": [
        "90caf15e-bc86-46e1-8793-9af7906c8310"
      ],
      "families": [
        "5391f9fe-638c-415f-8dc9-958e3a2c5787"
      ],
      "groups": [
        "3c14c864-533c-49e6-a3cc-6969f1233775"
      ],
      "langs": [
        "4dcf9614-7914-42aa-99f4-dbce2e059133"
      ],
      "series": [
        "5966797b-6a37-4c81-b2b5-790c199c2aa0"
      ],
      "singers": [
        "7b03b824-9e49-4fbb-b336-257e32204860"
      ],
      "songtypes": [
        "7be1b15c-cff8-4b37-a649-5c90f3d569a9"
      ],
      "songwriters": [
        "307a233f-606e-4971-9e90-8b1cd7077361",
        "c38cd38a-d3de-46ac-b219-26724e64e3b5",
        "f5c52f69-0422-4bb1-8c9b-332fd6ef187c"
      ],
      "versions": [
        "c2143a7f-6970-450e-8a79-0302db9220a9"
      ],
      "collections": [
        "dbcf2c22-524d-4708-99bb-601703633927"
      ]
    },
    "titles": {
      "eng": "☆the starry sky☆"
    },
    "titles_default_language": "eng",
    "title": "The Starry Sky",
    "year": 2001
  }
}