{
  "header": {
    "version": 4,
    "description": "Karaoke Mugen Karaoke Data File"
  },
  "medias": [
    {
      "version": "Default",
      "filename": "JPN - Shoujo Kageki Revue Starlight Movie - MOVIE AUDIO ED - Watashitachi wa mou Butai no Ue ~ Full Vers.mp3",
      "audiogain": -10.59,
      "loudnorm": "-6.62,1.26,3.10,-16.68,-0.27",
      "filesize": 12835463,
      "duration": 314,
      "default": true,
      "lyrics": [
        {
          "filename": "JPN - Shoujo Kageki Revue Starlight Movie - MOVIE AUDIO ED - Watashitachi wa mou Butai no Ue ~ Full Vers.ass",
          "default": true,
          "version": "Default"
        }
      ]
    }
  ],
  "data": {
    "created_at": "2023-01-13T00:20:17.362Z",
    "ignoreHooks": false,
    "kid": "d33184dc-5573-4edf-9901-d38946e53bce",
    "modified_at": "2023-01-13T02:33:14.826Z",
    "parents": [
      "9f248914-24e8-45c6-9786-e780f94925ce"
    ],
    "repository": "kara.moe",
    "tags": {
      "authors": [
        "02a290f1-5fb0-4cdc-b68a-6e9a6f2a7495"
      ],
      "collections": [
        "c7db86a0-ff64-4044-9be4-66dd1ef1d1c1"
      ],
      "creators": [
        "bd4564a8-44e5-454a-9c57-bd2a3c8a537e"
      ],
      "genres": [
        "caa86df2-0d59-474b-885c-f240a9e891b0"
      ],
      "groups": [
        "8e209ae4-4381-438f-89dc-1b21752027d2"
      ],
      "langs": [
        "4dcf9614-7914-42aa-99f4-dbce2e059133"
      ],
      "misc": [
        "1d6ceadf-a885-47e5-b23b-c07bf668a424",
        "86705d4b-24e4-4756-9687-2b9c98bcf366"
      ],
      "origins": [
        "c8ca9dea-d8b4-48fe-8427-d911653232e9"
      ],
      "series": [
        "f628ef85-4ab4-4c62-b458-7ca124a665c5"
      ],
      "singers": [
        "0691da5a-1612-40fe-91a3-898cce043c3e",
        "1477f7cf-7a03-4ecc-a3eb-81fe697202ed",
        "371f95d8-5385-4728-8dbb-0cd3e5892ce4",
        "67f4e548-9fc9-48f1-bc2c-8c24fd88f5f2",
        "bbf38c20-4ff8-46ca-8e23-55a71286f0ef",
        "cd997481-e2ff-4d88-ab77-152bedb5041a",
        "d450e6ee-57dc-41ea-b60e-396135d6a2e8",
        "e3ec5558-2fa7-44e9-a4a4-59910a7a3370",
        "ee6eeedc-a11b-4bc1-951f-67b6ea7a696a"
      ],
      "singergroups": [
        "30caa67d-4228-4164-a807-6dd484dd7b19"
      ],
      "songtypes": [
        "38c77c56-2b95-4040-b676-0994a8cb0597",
        "42a262ae-acba-4ab5-a446-c5789c96c821"
      ],
      "songwriters": [
        "00cd2c1f-8012-4366-adcd-0340a340c29a",
        "79f4985a-308e-4fc8-8809-fc5f3f5b3ac8"
      ],
      "versions": [
        "c2143a7f-6970-450e-8a79-0302db9220a9"
      ],
      "franchises": [
        "197ecb28-b423-4c66-bbdb-49b89b5ed153"
      ]
    },
    "titles": {
      "eng": "We Are Already on the Stage",
      "jpn": "私たちはもう舞台の上",
      "qro": "Watashitachi wa mô Butai no Ue"
    },
    "titles_default_language": "qro",
    "titles_aliases": [
      "mou"
    ],
    "year": 2021
  }
}