{
  "header": {
    "version": 4,
    "description": "Karaoke Mugen Karaoke Data File"
  },
  "medias": [
    {
      "version": "Default",
      "filename": "JPN - Great Teacher Onizuka - MV - Driver's High ~ Full Vers.mp4",
      "audiogain": -8.92,
      "loudnorm": "-7.49,0.38,2.40,-17.55,-0.73",
      "filesize": 126160354,
      "duration": 263,
      "default": true,
      "lyrics": [
        {
          "filename": "JPN - Great Teacher Onizuka - MV - Driver's High ~ Full Vers.ass",
          "default": true,
          "version": "Default"
        }
      ]
    }
  ],
  "data": {
    "created_at": "2020-12-30T15:54:31.639Z",
    "ignoreHooks": false,
    "kid": "70c655ee-fdfe-43e6-a36d-b65e6bf692d6",
    "modified_at": "2022-12-22T16:08:53.851Z",
    "parents": [
      "00e153dd-2e3e-4aa9-bf37-cc88faaaff6e"
    ],
    "repository": "kara.moe",
    "tags": {
      "authors": [
        "06852e02-b77e-4106-b6f7-2d03942ad0ea"
      ],
      "collections": [
        "dbcf2c22-524d-4708-99bb-601703633927"
      ],
      "creators": [
        "6df34030-d5ec-4480-a1c2-20103a7c0b63"
      ],
      "families": [
        "5391f9fe-638c-415f-8dc9-958e3a2c5787"
      ],
      "groups": [
        "24db50aa-a126-4d34-a48a-e45db79c4245"
      ],
      "langs": [
        "4dcf9614-7914-42aa-99f4-dbce2e059133"
      ],
      "series": [
        "212dc11b-1885-4e50-bd01-c87978bd6969"
      ],
      "singers": [
        "4061a0fb-641d-4a33-9968-b26313bab59c"
      ],
      "songtypes": [
        "7be1b15c-cff8-4b37-a649-5c90f3d569a9"
      ],
      "songwriters": [
        "01623729-e862-4ae3-b3b0-abc21e13142e",
        "d9dfb8ac-7af2-46de-b963-b91d5d1a580c"
      ],
      "versions": [
        "c2143a7f-6970-450e-8a79-0302db9220a9"
      ]
    },
    "titles": {
      "eng": "Driver's High"
    },
    "titles_default_language": "eng",
    "year": 1999
  }
}