{
  "header": {
    "version": 4,
    "description": "Karaoke Mugen Karaoke Data File"
  },
  "medias": [
    {
      "version": "Default",
      "filename": "JPN - Suzumiya Haruhi no Yuuutsu - AUDIO CS - Parallel Days ~ Off Vocal Vers.mp3",
      "audiogain": -10.29,
      "loudnorm": "-7.41,1.89,3.70,-17.45,-0.47",
      "filesize": 4317995,
      "duration": 259,
      "default": true,
      "lyrics": [
        {
          "filename": "JPN - Suzumiya Haruhi no Yuuutsu - AUDIO CS - Parallel Days ~ Off Vocal Vers.ass",
          "default": true,
          "version": "Default"
        }
      ]
    }
  ],
  "data": {
    "comment": "#8218 ; piste 4 de « The Melancholy of Haruhi Suzumiya Character Song Vol.1 HARUHI SUZUMIYA  » (https://vgmdb.net/album/41089)",
    "created_at": "2023-07-16T13:43:09.501Z",
    "ignoreHooks": false,
    "kid": "1d585a3d-19ee-4979-8566-eaea56c6353d",
    "modified_at": "2023-07-16T13:44:07.635Z",
    "parents": [
      "3e05ba3a-4470-43da-83c7-3bb773880836"
    ],
    "repository": "kara.moe",
    "tags": {
      "authors": [
        "4749577f-84d7-470b-bfa8-09c6f9a97c32"
      ],
      "collections": [
        "c7db86a0-ff64-4044-9be4-66dd1ef1d1c1",
        "dbcf2c22-524d-4708-99bb-601703633927"
      ],
      "creators": [
        "b2805292-730e-473a-96f0-fd8e7ffd1fd7"
      ],
      "groups": [
        "3c14c864-533c-49e6-a3cc-6969f1233775"
      ],
      "langs": [
        "4dcf9614-7914-42aa-99f4-dbce2e059133"
      ],
      "series": [
        "4f132535-c7b6-4147-a324-6995aad44df7"
      ],
      "singers": [
        "488aea99-01a0-4c2c-b475-b61d99efe994"
      ],
      "songtypes": [
        "42a262ae-acba-4ab5-a446-c5789c96c821",
        "a8a2616c-b5a1-4df3-ad6f-89291bc67dee"
      ],
      "songwriters": [
        "30e4f047-50d7-4ed7-8ed3-57cef0f20489",
        "c507c86f-5ea0-4335-87bc-c515853d9424",
        "f41e7218-6c19-4e19-9b5f-4612dcd58243"
      ],
      "versions": [
        "c0cc87b9-55b9-40f0-878a-fbb9e34c151e"
      ],
      "franchises": [
        "4f132535-c7b6-4147-a324-6995aad44df7"
      ]
    },
    "titles": {
      "eng": "Parallel Days",
      "jpn": "パラレルDays",
      "qro": "Parallel Days"
    },
    "titles_default_language": "qro",
    "year": 2006
  }
}