{
  "header": {
    "version": 4,
    "description": "Karaoke Mugen Karaoke Data File"
  },
  "medias": [
    {
      "version": "Default",
      "filename": "JPN - Assault Lily Bouquet - OP - Sacred world.mp4",
      "audiogain": -9.75,
      "loudnorm": "-7.47,0.80,2.80,-17.50,-0.46",
      "filesize": 52595523,
      "duration": 89,
      "default": true,
      "lyrics": [
        {
          "filename": "JPN - Assault Lily Bouquet - OP - Sacred world.ass",
          "default": true,
          "version": "Default",
          "subchecksum": "2c5124186f50d0506a5f01098deadeae"
        }
      ]
    }
  ],
  "data": {
    "created_at": "2020-10-07T18:29:38.790Z",
    "kid": "29fabace-954b-49de-b7c1-5f28e0ec3457",
    "modified_at": "2021-02-25T10:47:09.315Z",
    "repository": "kara.moe",
    "tags": {
      "authors": [
        "b2bb1ab4-078b-4d06-bbe4-557f3ad7b8b5"
      ],
      "collections": [
        "c7db86a0-ff64-4044-9be4-66dd1ef1d1c1"
      ],
      "creators": [
        "c3bd80ef-d1fe-427f-913f-a2ba2fe66114"
      ],
      "families": [
        "0377db02-3af6-43b8-9b08-c759df3d25c3"
      ],
      "groups": [
        "8e209ae4-4381-438f-89dc-1b21752027d2"
      ],
      "langs": [
        "4dcf9614-7914-42aa-99f4-dbce2e059133"
      ],
      "origins": [
        "938de218-5343-4865-94d3-fb33f2eaa152"
      ],
      "series": [
        "af1c38e5-0423-4fa1-a974-8482dc332723"
      ],
      "singers": [
        "775effdd-d1d9-44e0-aaa2-774411ee6f95"
      ],
      "songtypes": [
        "f02ad9b3-0bd9-4aad-85b3-9976739ba0e4"
      ],
      "songwriters": [
        "30e4f047-50d7-4ed7-8ed3-57cef0f20489",
        "55b5abfd-b2be-46be-9e41-9e23ab6f1b24"
      ]
    },
    "title": "Sacred world",
    "titles": {
      "eng": "Sacred world"
    },
    "year": 2020,
    "titles_default_language": "eng"
  }
}