{
  "header": {
    "version": 4,
    "description": "Karaoke Mugen Karaoke Data File"
  },
  "medias": [
    {
      "version": "Default",
      "filename": "JPN - Liyuu - AUDIO - Metamorphose.mp3",
      "audiogain": -8.23,
      "loudnorm": "-8.80,3.05,2.50,-18.88,-0.63",
      "filesize": 8321624,
      "duration": 204,
      "default": true,
      "lyrics": [
        {
          "filename": "JPN - Liyuu - AUDIO - Metamorphose.ass",
          "default": true,
          "version": "Default"
        }
      ]
    }
  ],
  "data": {
    "created_at": "2022-04-10T23:46:02.617Z",
    "ignoreHooks": false,
    "kid": "2e5f9a0c-aae8-4d19-b585-1e76ff8786fb",
    "modified_at": "2023-08-11T22:18:00.127Z",
    "repository": "kara.moe",
    "tags": {
      "authors": [
        "449844e4-3a1f-46e1-8a92-bf72e2d1b6f1"
      ],
      "collections": [
        "c7db86a0-ff64-4044-9be4-66dd1ef1d1c1"
      ],
      "creators": [
        "b2805292-730e-473a-96f0-fd8e7ffd1fd7"
      ],
      "groups": [
        "8e209ae4-4381-438f-89dc-1b21752027d2"
      ],
      "langs": [
        "4dcf9614-7914-42aa-99f4-dbce2e059133"
      ],
      "singers": [
        "8a484e8b-1945-416f-b778-97a887ff24eb"
      ],
      "songtypes": [
        "42a262ae-acba-4ab5-a446-c5789c96c821"
      ],
      "songwriters": [
        "9c67f3a5-160e-468c-bc66-4e0055bc29b2",
        "e8ff8ee0-e6c6-4e42-9ed2-f69e1e1efbd5"
      ]
    },
    "titles": {
      "eng": "Metamorphose",
      "jpn": "めたもるふぉーぜ"
    },
    "titles_default_language": "eng",
    "year": 2022
  }
}