{
  "header": {
    "version": 4,
    "description": "Karaoke Mugen Karaoke Data File"
  },
  "medias": [
    {
      "version": "Default",
      "filename": "JPN - 11eyes - OP - Arrival of tears.mp4",
      "audiogain": 2.4,
      "loudnorm": "-19.42,-8.73,3.40,-29.58,-0.18",
      "filesize": 47720494,
      "duration": 90,
      "default": true,
      "lyrics": [
        {
          "filename": "JPN - 11eyes - OP - Arrival of tears.ass",
          "default": true,
          "version": "Default",
          "subchecksum": "6d3c11748fe056ac681dc5e3a6a18084"
        }
      ]
    }
  ],
  "data": {
    "created_at": "2017-10-11T17:01:08.000Z",
    "kid": "d075ec58-588e-4686-a235-f4fd9c205a86",
    "modified_at": "2021-02-25T10:34:22.541Z",
    "repository": "kara.moe",
    "tags": {
      "authors": [
        "5bdaba57-27f8-4568-8806-76a807728766"
      ],
      "collections": [
        "c7db86a0-ff64-4044-9be4-66dd1ef1d1c1"
      ],
      "creators": [
        "5b10d972-08a8-419d-9663-46930cc2c347"
      ],
      "families": [
        "0377db02-3af6-43b8-9b08-c759df3d25c3"
      ],
      "groups": [
        "3c14c864-533c-49e6-a3cc-6969f1233775"
      ],
      "langs": [
        "4dcf9614-7914-42aa-99f4-dbce2e059133"
      ],
      "origins": [
        "938de218-5343-4865-94d3-fb33f2eaa152"
      ],
      "series": [
        "16825e96-4585-44f5-b502-3959fb51b0da"
      ],
      "singers": [
        "527d3a38-559d-4e99-9ed6-2a2fd772f45f"
      ],
      "songtypes": [
        "f02ad9b3-0bd9-4aad-85b3-9976739ba0e4"
      ],
      "songwriters": [
        "1ddc4422-c3e9-4b7d-b6f5-e4e2f3247d68"
      ],
      "franchises": [
        "16825e96-4585-44f5-b502-3959fb51b0da"
      ]
    },
    "title": "Arrival of tears",
    "titles": {
      "eng": "Arrival of Tears"
    },
    "year": 2009,
    "titles_default_language": "eng"
  }
}