{
  "header": {
    "version": 4,
    "description": "Karaoke Mugen Karaoke Data File"
  },
  "medias": [
    {
      "version": "Default",
      "filename": "JPN - Touhou - REMIX AUDIO - Blinding Black Light.mp3",
      "audiogain": -8.51,
      "loudnorm": "-9.22,0.84,5.80,-19.39,-1.05",
      "filesize": 8804943,
      "duration": 268,
      "default": true,
      "lyrics": [
        {
          "filename": "JPN - Touhou - REMIX AUDIO - Blinding Black Light.ass",
          "default": true,
          "version": "Default"
        }
      ]
    }
  ],
  "data": {
    "created_at": "2022-09-15T19:12:47.129Z",
    "ignoreHooks": false,
    "kid": "377e86da-72c9-4ed6-8fa6-990e271029c2",
    "modified_at": "2022-10-15T18:32:15.658Z",
    "repository": "kara.moe",
    "tags": {
      "authors": [
        "5c7df057-1721-436c-8244-17aae35ff388"
      ],
      "collections": [
        "c7db86a0-ff64-4044-9be4-66dd1ef1d1c1"
      ],
      "creators": [
        "f0b33099-165a-4e59-b16c-455ee8dd47ed"
      ],
      "groups": [
        "8e209ae4-4381-438f-89dc-1b21752027d2"
      ],
      "langs": [
        "4dcf9614-7914-42aa-99f4-dbce2e059133"
      ],
      "misc": [
        "ec4360fa-3e3c-4f6f-b0e1-fb8b12b6dd18"
      ],
      "origins": [
        "ac5085db-52d8-44b4-8fbb-1697b24d2046"
      ],
      "series": [
        "1bdaa5a1-dfa6-4365-b746-7a0b194dafd6"
      ],
      "singers": [
        "f066738a-ce5c-4036-bd45-5b85082f5f81"
      ],
      "songtypes": [
        "42a262ae-acba-4ab5-a446-c5789c96c821"
      ],
      "songwriters": [
        "26cb5252-8510-49e0-897c-a611a05fc056",
        "7ca874b5-f17c-4229-b4ff-3d131e809d86"
      ],
      "franchises": [
        "1bdaa5a1-dfa6-4365-b746-7a0b194dafd6"
      ]
    },
    "titles": {
      "eng": "Blinding Black Light"
    },
    "titles_default_language": "eng",
    "title": "Blinding Black Light",
    "year": 2021
  }
}