{
  "header": {
    "version": 4,
    "description": "Karaoke Mugen Karaoke Data File"
  },
  "medias": [
    {
      "version": "Default",
      "filename": "JPN - Fate zero - MV - To the Beginning ~ Full Vers.mp4",
      "audiogain": -4.56,
      "loudnorm": "-12.97,-0.89,4.70,-23.17,-0.49",
      "filesize": 20857465,
      "duration": 263,
      "default": true,
      "lyrics": [
        {
          "filename": "JPN - Fate zero - MV - To the Beginning ~ Full Vers.ass",
          "default": true,
          "version": "Default"
        }
      ]
    }
  ],
  "data": {
    "created_at": "2017-10-11T17:02:23.000Z",
    "kid": "a6a4dac7-3a3f-4ab0-a310-c76e4f48ac33",
    "modified_at": "2022-06-04T00:23:12.190Z",
    "parents": [
      "83aaa4b4-b361-4050-94f2-dda696148329"
    ],
    "repository": "kara.moe",
    "songorder": null,
    "tags": {
      "authors": [
        "5bdaba57-27f8-4568-8806-76a807728766"
      ],
      "creators": [
        "6fa9de67-21cf-420b-9ddb-57edb5abe523"
      ],
      "families": [
        "5391f9fe-638c-415f-8dc9-958e3a2c5787"
      ],
      "groups": [
        "ae613721-1fbe-480d-ba6b-d6d0702b184d"
      ],
      "langs": [
        "4dcf9614-7914-42aa-99f4-dbce2e059133"
      ],
      "series": [
        "67782a6d-4936-4796-b3a5-be466f77b033"
      ],
      "singers": [
        "ce7ec1ec-54f1-4ff2-9b90-66e28a28e238"
      ],
      "songtypes": [
        "7be1b15c-cff8-4b37-a649-5c90f3d569a9"
      ],
      "songwriters": [
        "1f324dc7-f858-415b-bbc1-41fcce3d6ac7"
      ],
      "versions": [
        "c2143a7f-6970-450e-8a79-0302db9220a9"
      ],
      "collections": [
        "dbcf2c22-524d-4708-99bb-601703633927"
      ],
      "franchises": [
        "564373dc-4cfa-454e-8af1-bcccb886c007"
      ]
    },
    "titles": {
      "eng": "to the beginning"
    },
    "titles_default_language": "eng",
    "title": "To the Beginning",
    "year": 2012
  }
}