{
  "header": {
    "version": 4,
    "description": "Karaoke Mugen Karaoke Data File"
  },
  "medias": [
    {
      "version": "Default",
      "filename": "JPN - Mob Psycho 100 III - AMV - 1 ~ Full Off Vocal Vers.mp4",
      "audiogain": -9.09,
      "loudnorm": "-7.65,1.02,7.40,-17.88,-0.63",
      "filesize": 100953152,
      "duration": 229,
      "default": true,
      "lyrics": [
        {
          "filename": "JPN - Mob Psycho 100 III - AMV - 1 ~ Full Off Vocal Vers.ass",
          "default": true,
          "version": "Default"
        }
      ]
    }
  ],
  "data": {
    "created_at": "2022-11-08T10:19:35.687Z",
    "ignoreHooks": false,
    "kid": "d24e22c6-97d2-4e4b-b337-4df29c5a9b3c",
    "modified_at": "2022-11-13T13:09:25.179Z",
    "parents": [
      "4a47c19e-1df6-4337-a435-16dc4943a4c9"
    ],
    "repository": "kara.moe",
    "tags": {
      "authors": [
        "06852e02-b77e-4106-b6f7-2d03942ad0ea",
        "9cdf3b70-3550-457c-bdb9-038f3253c6ad"
      ],
      "collections": [
        "c7db86a0-ff64-4044-9be4-66dd1ef1d1c1",
        "dbcf2c22-524d-4708-99bb-601703633927"
      ],
      "creators": [
        "57ffcdd9-7e4f-4971-85ce-0fb3aa8151ac",
        "9cdf3b70-3550-457c-bdb9-038f3253c6ad"
      ],
      "families": [
        "0377db02-3af6-43b8-9b08-c759df3d25c3"
      ],
      "genres": [
        "a0aeef4a-6428-45ff-a6e1-468b595930c2"
      ],
      "groups": [
        "8e209ae4-4381-438f-89dc-1b21752027d2"
      ],
      "langs": [
        "4dcf9614-7914-42aa-99f4-dbce2e059133"
      ],
      "origins": [
        "938de218-5343-4865-94d3-fb33f2eaa152"
      ],
      "series": [
        "0635278b-a356-429a-88f9-cac61dec0ad2"
      ],
      "singers": [
        "a63bd875-79a2-459d-90e8-0651dabd1cfb"
      ],
      "songtypes": [
        "a6c79ce5-89ee-4d50-afe8-3abd7317f6c2"
      ],
      "songwriters": [
        "52e04248-a3a8-4453-9738-9a8115234f5a",
        "8b81caa3-a4fb-4621-b8a1-5887a8311e93"
      ],
      "versions": [
        "c0cc87b9-55b9-40f0-878a-fbb9e34c151e",
        "c2143a7f-6970-450e-8a79-0302db9220a9"
      ],
      "franchises": [
        "7c845ec1-6887-4804-891d-855007d857a6"
      ]
    },
    "titles": {
      "eng": "1"
    },
    "titles_default_language": "eng",
    "year": 2022
  }
}