{
  "header": {
    "version": 4,
    "description": "Karaoke Mugen Karaoke Data File"
  },
  "medias": [
    {
      "version": "Default",
      "filename": "JPN - Black Jack - OVA OP1 - Just Before the Sunrise.mp4",
      "audiogain": -11.9,
      "loudnorm": "-5.29,0.57,2.70,-15.62,0.29",
      "filesize": 39971612,
      "duration": 170,
      "default": true,
      "lyrics": [
        {
          "filename": "JPN - Black Jack - OVA OP1 - Just Before the Sunrise.ass",
          "default": true,
          "version": "Default",
          "subchecksum": "ab9e28ab317796dbecf32c6a24ece962"
        }
      ]
    }
  ],
  "data": {
    "created_at": "2018-11-13T18:33:21.000Z",
    "kid": "2c0256b0-7777-44e0-a961-588a78b1d500",
    "modified_at": "2021-02-25T10:53:18.053Z",
    "repository": "kara.moe",
    "songorder": 1,
    "tags": {
      "authors": [
        "4607780c-f1ef-47cf-9c1c-b13e8f731699"
      ],
      "collections": [
        "c7db86a0-ff64-4044-9be4-66dd1ef1d1c1"
      ],
      "creators": [
        "2a4c0113-3a9e-465d-987c-711a0ba0c187"
      ],
      "families": [
        "0377db02-3af6-43b8-9b08-c759df3d25c3"
      ],
      "groups": [
        "24db50aa-a126-4d34-a48a-e45db79c4245"
      ],
      "langs": [
        "4dcf9614-7914-42aa-99f4-dbce2e059133"
      ],
      "origins": [
        "2a6ef087-a000-4f8e-aeb5-9a7968756a36"
      ],
      "series": [
        "b3aa546e-7965-46d2-9e08-291424cf1c8a"
      ],
      "singers": [
        "7e71888d-100a-490d-bba1-95c9c556caa4"
      ],
      "songtypes": [
        "f02ad9b3-0bd9-4aad-85b3-9976739ba0e4"
      ],
      "songwriters": [
        "37dd20b2-85f2-4c00-a778-e4f8d82719d2",
        "64742f1d-e1f1-4a7c-956a-c0bab5d459fc"
      ],
      "franchises": [
        "b3aa546e-7965-46d2-9e08-291424cf1c8a"
      ]
    },
    "title": "Just Before the Sunrise",
    "titles": {
      "eng": "Just Before the Sunrise"
    },
    "year": 1993,
    "titles_default_language": "eng"
  }
}