{
  "header": {
    "version": 4,
    "description": "Karaoke Mugen Karaoke Data File"
  },
  "medias": [
    {
      "version": "Default",
      "filename": "JPN - Hagane no Renkinjutsushi - OP4 - Rewrite.mp4",
      "audiogain": -1.45,
      "loudnorm": "-16.47,-4.08,4.50,-26.48,-0.58",
      "filesize": 33438731,
      "duration": 99,
      "default": true,
      "lyrics": [
        {
          "filename": "JPN - Hagane no Renkinjutsushi - OP4 - Rewrite.ass",
          "default": true,
          "version": "Default",
          "subchecksum": "415ff888d92077e2d57f32cca8a76d5a"
        }
      ]
    }
  ],
  "data": {
    "created_at": "2017-10-11T17:01:11.000Z",
    "kid": "24c74cf4-ac9c-4cb1-8f6a-758392616174",
    "modified_at": "2021-06-22T22:23:14.847Z",
    "repository": "kara.moe",
    "songorder": 4,
    "tags": {
      "authors": [
        "5bdaba57-27f8-4568-8806-76a807728766"
      ],
      "collections": [
        "c7db86a0-ff64-4044-9be4-66dd1ef1d1c1"
      ],
      "creators": [
        "57ffcdd9-7e4f-4971-85ce-0fb3aa8151ac"
      ],
      "families": [
        "0377db02-3af6-43b8-9b08-c759df3d25c3"
      ],
      "genres": [
        "a0aeef4a-6428-45ff-a6e1-468b595930c2"
      ],
      "groups": [
        "3c14c864-533c-49e6-a3cc-6969f1233775"
      ],
      "langs": [
        "4dcf9614-7914-42aa-99f4-dbce2e059133"
      ],
      "origins": [
        "938de218-5343-4865-94d3-fb33f2eaa152"
      ],
      "series": [
        "3df1aaa7-e69a-4a6f-86cb-75544f0dd48a"
      ],
      "singers": [
        "6d7243f4-797e-40a2-980d-1fc467d456d8"
      ],
      "songtypes": [
        "f02ad9b3-0bd9-4aad-85b3-9976739ba0e4"
      ],
      "songwriters": [
        "8bede077-b96f-415c-8057-552e236fe01a"
      ],
      "franchises": [
        "3df1aaa7-e69a-4a6f-86cb-75544f0dd48a"
      ]
    },
    "title": "Rewrite",
    "titles": {
      "eng": "Rewrite",
      "jpn": "リライト"
    },
    "year": 2003,
    "titles_default_language": "eng"
  }
}