{
  "header": {
    "version": 4,
    "description": "Karaoke Mugen Karaoke Data File"
  },
  "medias": [
    {
      "version": "Default",
      "filename": "JPN - Bocchi the Rock! - PV - Flashbacker ~ Full Vers.mp4",
      "audiogain": 0.27,
      "loudnorm": "-17.25,-4.80,5.40,-27.59,-1.16",
      "filesize": 47798573,
      "duration": 287,
      "default": true,
      "lyrics": [
        {
          "filename": "JPN - Bocchi the Rock! - PV - Flashbacker ~ Full Vers.ass",
          "default": true,
          "version": "Default"
        }
      ]
    }
  ],
  "data": {
    "created_at": "2023-02-04T22:38:35.662Z",
    "ignoreHooks": false,
    "kid": "d83cdb6c-45e2-4451-b44f-fe7cb137576e",
    "modified_at": "2023-02-04T22:49:51.028Z",
    "repository": "kara.moe",
    "tags": {
      "authors": [
        "ba4c7606-1e96-4c45-8e21-d5103477336b"
      ],
      "collections": [
        "c7db86a0-ff64-4044-9be4-66dd1ef1d1c1"
      ],
      "creators": [
        "43cebb4a-845f-449b-bbd0-d97d96d97cb4"
      ],
      "families": [
        "0377db02-3af6-43b8-9b08-c759df3d25c3"
      ],
      "groups": [
        "2b4e9972-5e17-481b-99f5-d0787c0ada56",
        "8e209ae4-4381-438f-89dc-1b21752027d2"
      ],
      "langs": [
        "4dcf9614-7914-42aa-99f4-dbce2e059133"
      ],
      "origins": [
        "938de218-5343-4865-94d3-fb33f2eaa152"
      ],
      "series": [
        "78fb1246-c87d-442b-aa2b-b7252da2452e"
      ],
      "singergroups": [
        "4968c91e-6259-49e0-896e-3f611472de01"
      ],
      "songtypes": [
        "66e195b9-64ea-432d-a917-2e2c88d26052"
      ],
      "songwriters": [
        "07f58bb3-8690-4baf-be52-0c37a7e691ac",
        "b669d632-54c8-4aed-a58a-fa4550aed2c3"
      ],
      "versions": [
        "c2143a7f-6970-450e-8a79-0302db9220a9"
      ]
    },
    "titles": {
      "eng": "Flashbacker",
      "jpn": "フラッシュバッカー"
    },
    "titles_default_language": "eng",
    "year": 2022
  }
}