{
  "header": {
    "version": 4,
    "description": "Karaoke Mugen Karaoke Data File"
  },
  "medias": [
    {
      "version": "Default",
      "filename": "JPN - Link! Like! Love Live! - LIVE - Scapegoat.mp4",
      "audiogain": -3.16,
      "loudnorm": "-15.47,-0.89,7.80,-25.95,-1.10",
      "filesize": 169021461,
      "duration": 264,
      "default": true,
      "lyrics": [
        {
          "filename": "JPN - Link! Like! Love Live! - LIVE - Scapegoat.ass",
          "default": true,
          "version": "Default"
        }
      ]
    }
  ],
  "data": {
    "created_at": "2023-06-29T12:38:44.887Z",
    "ignoreHooks": false,
    "kid": "edf9064d-5f71-47e9-b20d-a3707dff99ec",
    "modified_at": "2023-06-29T12:40:15.352Z",
    "repository": "kara.moe",
    "tags": {
      "authors": [
        "16b136eb-921f-4c07-be38-ff92d5cc4313"
      ],
      "collections": [
        "c7db86a0-ff64-4044-9be4-66dd1ef1d1c1"
      ],
      "creators": [
        "b2805292-730e-473a-96f0-fd8e7ffd1fd7"
      ],
      "families": [
        "0377db02-3af6-43b8-9b08-c759df3d25c3"
      ],
      "genres": [
        "caa86df2-0d59-474b-885c-f240a9e891b0"
      ],
      "langs": [
        "4dcf9614-7914-42aa-99f4-dbce2e059133"
      ],
      "series": [
        "c6245b47-6ad8-498a-b790-e6b8a50fea5e"
      ],
      "singers": [
        "4e39a0e7-c012-4be9-a2c9-f09cf8d3a31b",
        "f5569c82-f01f-4cdb-b1c2-a0db10706211"
      ],
      "singergroups": [
        "4af676a8-9381-477e-99c2-e693b416f095"
      ],
      "songtypes": [
        "a0167949-580c-4de3-bf13-497e462e02f3"
      ],
      "songwriters": [
        "648bd8fc-f94e-41d9-bd08-e13ec044b4bc",
        "ccdcdf15-dcc6-4505-b0e7-015123a04ef9",
        "cce994f2-118f-4cf5-a17f-3eeca4e4dd99"
      ],
      "franchises": [
        "fd5d066e-e85a-4eea-8688-2979a887450a"
      ],
      "groups": [
        "8e209ae4-4381-438f-89dc-1b21752027d2"
      ]
    },
    "titles": {
      "eng": "Scapegoat"
    },
    "titles_default_language": "eng",
    "year": 2023
  }
}