{
  "header": {
    "version": 4,
    "description": "Karaoke Mugen Karaoke Data File"
  },
  "medias": [
    {
      "version": "Default",
      "filename": "JPN - Project SEKAI COLORFUL STAGE! - GAME MV - Dance Robot Dance ~ Cover Short Vers.mp4",
      "audiogain": -5.35,
      "loudnorm": "-13.01,-4.38,5.70,-23.23,-1.08",
      "filesize": 77822880,
      "duration": 101,
      "default": true,
      "lyrics": [
        {
          "filename": "JPN - Project SEKAI COLORFUL STAGE! - GAME MV - Dance Robot Dance ~ Cover Short Vers.ass",
          "default": true,
          "version": "Default"
        }
      ]
    }
  ],
  "data": {
    "created_at": "2021-09-27T16:08:14.767Z",
    "ignoreHooks": false,
    "kid": "794882f0-cfaa-4fb5-8b90-8c993578322b",
    "modified_at": "2022-12-26T20:02:34.559Z",
    "repository": "kara.moe",
    "tags": {
      "authors": [
        "1c9f3b53-973d-419e-9e29-9067c9896139",
        "5a629611-96b4-422c-b309-ba7a58e263a2"
      ],
      "collections": [
        "c7db86a0-ff64-4044-9be4-66dd1ef1d1c1"
      ],
      "creators": [
        "1e5648fb-22fc-474d-b865-254eb31fa000"
      ],
      "genres": [
        "45623cae-6d68-4304-a49b-896d1d6f4580"
      ],
      "groups": [
        "60defa7b-774e-4680-8321-51b742c2e009",
        "8e209ae4-4381-438f-89dc-1b21752027d2"
      ],
      "langs": [
        "4dcf9614-7914-42aa-99f4-dbce2e059133"
      ],
      "misc": [
        "1d6ceadf-a885-47e5-b23b-c07bf668a424"
      ],
      "platforms": [
        "213a1a15-e73a-4a08-b3f6-b6e2745a82e5"
      ],
      "series": [
        "192b33fb-638a-4680-bdb2-a5adb9889849"
      ],
      "singers": [
        "1a2a3b83-6635-4b06-8574-4154df44feac",
        "4407ba0e-5de7-4add-870f-7ac95a4804c9",
        "fae72c0f-4ef4-4268-9bff-465a0dec95e4"
      ],
      "singergroups": [
        "3978f3e3-2631-47a9-bfc8-9d2804c1074d"
      ],
      "songtypes": [
        "7be1b15c-cff8-4b37-a649-5c90f3d569a9"
      ],
      "songwriters": [
        "cb9b1959-0972-4eb8-9955-c2e4a4f3988d"
      ],
      "versions": [
        "03e1e1d2-8641-47b7-bbcb-39a3df9ff21c",
        "d125c80a-86c1-4321-88e9-07b7800679b6"
      ],
      "origins": [
        "dbedd6b3-d125-4cd8-aa32-c4175e4ca3a3"
      ]
    },
    "titles": {
      "eng": "Dance Robot Dance",
      "jpn": "ダンスロボットダンス"
    },
    "titles_default_language": "eng",
    "year": 2020
  }
}