{
  "header": {
    "version": 4,
    "description": "Karaoke Mugen Karaoke Data File"
  },
  "medias": [
    {
      "version": "Default",
      "filename": "JPN - Project SEKAI COLORFUL STAGE! - GAME AUDIO - Asu no Yozora Shoukaihan ~ Cover Short Vers.mp3",
      "audiogain": -8.08,
      "loudnorm": "-8.57,0.24,4.20,-18.62,-0.63",
      "filesize": 2228298,
      "duration": 128,
      "default": true,
      "lyrics": [
        {
          "filename": "JPN - Project SEKAI COLORFUL STAGE! - GAME AUDIO - Asu no Yozora Shoukaihan ~ Cover Short Vers.ass",
          "default": true,
          "version": "Default"
        }
      ]
    }
  ],
  "data": {
    "comment": "aled la fin de la musique...",
    "created_at": "2023-01-04T20:51:54.254Z",
    "ignoreHooks": false,
    "kid": "d32b2588-8a0c-4427-bbe7-bb8f89b8729d",
    "modified_at": "2023-01-04T20:51:54.804Z",
    "parents": [
      "6ae74e77-9bfe-4bc7-bc29-3ec4bbdcc816"
    ],
    "repository": "kara.moe",
    "tags": {
      "authors": [
        "a3a99b23-6c42-4d38-8863-491153187437"
      ],
      "collections": [
        "c7db86a0-ff64-4044-9be4-66dd1ef1d1c1"
      ],
      "creators": [
        "1e5648fb-22fc-474d-b865-254eb31fa000"
      ],
      "genres": [
        "45623cae-6d68-4304-a49b-896d1d6f4580"
      ],
      "groups": [
        "8e209ae4-4381-438f-89dc-1b21752027d2"
      ],
      "langs": [
        "4dcf9614-7914-42aa-99f4-dbce2e059133"
      ],
      "misc": [
        "ec4fee75-71fb-45b4-9772-2ca374b4b600"
      ],
      "platforms": [
        "213a1a15-e73a-4a08-b3f6-b6e2745a82e5"
      ],
      "series": [
        "192b33fb-638a-4680-bdb2-a5adb9889849"
      ],
      "singers": [
        "45350754-a9ee-4836-a3ab-a88a43e419e8"
      ],
      "singergroups": [
        "fbfee5ed-dbac-4e0a-861b-b4a40d32ef6e"
      ],
      "songtypes": [
        "42a262ae-acba-4ab5-a446-c5789c96c821"
      ],
      "songwriters": [
        "ea05cda1-bb09-4818-9ec1-78b21ac84c44",
        "48c8a778-756b-4ca8-80bc-397fb06ffc7d"
      ],
      "versions": [
        "03e1e1d2-8641-47b7-bbcb-39a3df9ff21c",
        "d125c80a-86c1-4321-88e9-07b7800679b6"
      ]
    },
    "titles": {
      "eng": "Night Sky Patrol of Tomorrow",
      "jpn": "アスノヨゾラ哨戒班",
      "qro": "Asu no Yozora Shoukaihan"
    },
    "titles_default_language": "qro",
    "titles_aliases": [
      "Shôkaihan"
    ],
    "year": 2020
  }
}