{
  "header": {
    "version": 4,
    "description": "Karaoke Mugen Karaoke Data File"
  },
  "medias": [
    {
      "version": "Default",
      "filename": "JPN - Ai Otsuka - MV - Planetarium.mp4",
      "audiogain": -6.19,
      "loudnorm": "-11.44,-0.26,7.80,-21.65,-1.57",
      "filesize": 31958342,
      "duration": 310,
      "default": true,
      "lyrics": [
        {
          "filename": "JPN - Ai Otsuka - MV - Planetarium.ass",
          "default": true,
          "version": "Default"
        }
      ]
    }
  ],
  "data": {
    "created_at": "2021-06-13T16:31:58.929Z",
    "kid": "2084c812-1c03-47e7-97bc-674f6a22a720",
    "modified_at": "2022-06-04T00:18:27.319Z",
    "repository": "kara.moe",
    "songorder": null,
    "tags": {
      "authors": [
        "add78a12-0b14-46f8-bd54-4c4fd3748042"
      ],
      "creators": [
        "90caf15e-bc86-46e1-8793-9af7906c8310"
      ],
      "families": [
        "5391f9fe-638c-415f-8dc9-958e3a2c5787"
      ],
      "groups": [
        "3c14c864-533c-49e6-a3cc-6969f1233775"
      ],
      "langs": [
        "4dcf9614-7914-42aa-99f4-dbce2e059133"
      ],
      "misc": [
        "86705d4b-24e4-4756-9687-2b9c98bcf366"
      ],
      "singers": [
        "7527572f-940e-471e-ad41-91600900baec"
      ],
      "songtypes": [
        "7be1b15c-cff8-4b37-a649-5c90f3d569a9"
      ],
      "songwriters": [
        "7527572f-940e-471e-ad41-91600900baec"
      ],
      "collections": [
        "dbcf2c22-524d-4708-99bb-601703633927"
      ]
    },
    "titles": {
      "eng": "Planetarium",
      "jpn": "プラネタリウム"
    },
    "titles_default_language": "eng",
    "title": "Planetarium",
    "year": 2005
  }
}