{
  "header": {
    "version": 4,
    "description": "Karaoke Mugen Karaoke Data File"
  },
  "medias": [
    {
      "version": "Default",
      "filename": "JPN - Touhou - MV - 5-byou Kakumei Zen'ya.mp4",
      "audiogain": -9.39,
      "loudnorm": "-7.73,1.05,3.80,-17.79,-0.48",
      "filesize": 102140485,
      "duration": 252,
      "default": true,
      "lyrics": [
        {
          "filename": "JPN - Touhou - MV - 5-byou Kakumei Zen'ya.ass",
          "default": true,
          "version": "Default"
        }
      ]
    }
  ],
  "data": {
    "created_at": "2023-08-11T21:02:36.177Z",
    "ignoreHooks": false,
    "kid": "cb922d7e-3cb4-4ea7-b1ac-cca81f436c9c",
    "modified_at": "2023-08-11T21:30:32.151Z",
    "repository": "kara.moe",
    "tags": {
      "authors": [
        "cc329a5a-10a0-4e38-ac8d-d4f939d37f10"
      ],
      "collections": [
        "c7db86a0-ff64-4044-9be4-66dd1ef1d1c1"
      ],
      "creators": [
        "98a8caf9-f441-4852-871b-4f68ff3bb1c9"
      ],
      "families": [
        "0377db02-3af6-43b8-9b08-c759df3d25c3"
      ],
      "groups": [
        "8e209ae4-4381-438f-89dc-1b21752027d2"
      ],
      "langs": [
        "4dcf9614-7914-42aa-99f4-dbce2e059133"
      ],
      "misc": [
        "1d6ceadf-a885-47e5-b23b-c07bf668a424"
      ],
      "origins": [
        "ac5085db-52d8-44b4-8fbb-1697b24d2046"
      ],
      "series": [
        "1bdaa5a1-dfa6-4365-b746-7a0b194dafd6"
      ],
      "singers": [
        "0af0613a-8a7b-4c6b-a4bb-783c44417279",
        "78e4ed89-1b5e-4eb8-8999-a9e4365021c5"
      ],
      "singergroups": [
        "98a8caf9-f441-4852-871b-4f68ff3bb1c9"
      ],
      "songtypes": [
        "7be1b15c-cff8-4b37-a649-5c90f3d569a9"
      ],
      "songwriters": [
        "26cb5252-8510-49e0-897c-a611a05fc056",
        "c2a849a6-00e9-49cf-a0b0-f47d09a953fc",
        "bb84fba6-792e-4225-a634-d1f51284ad49"
      ],
      "franchises": [
        "1bdaa5a1-dfa6-4365-b746-7a0b194dafd6"
      ]
    },
    "titles": {
      "jpn": "五秒革命前夜-the World of Dystopia-",
      "qro": "5-byou Kakumei Zen'ya"
    },
    "titles_default_language": "qro",
    "titles_aliases": [
      "Zenya",
      "Go-byou"
    ],
    "year": 2020
  }
}