{
  "header": {
    "version": 4,
    "description": "Karaoke Mugen Karaoke Data File"
  },
  "medias": [
    {
      "version": "Default",
      "filename": "JPN - Touhou - MV - Hakanaki Mono Ningen ~ Short Vers.mp4",
      "audiogain": 2.96,
      "loudnorm": "-20.85,-13.23,3.90,-30.89,-0.40",
      "filesize": 32029361,
      "duration": 123,
      "default": true,
      "lyrics": [
        {
          "filename": "JPN - Touhou - MV - Hakanaki Mono Ningen ~ Short Vers.ass",
          "default": true,
          "version": "Default"
        }
      ]
    }
  ],
  "data": {
    "created_at": "2022-12-18T20:52:10.633Z",
    "ignoreHooks": false,
    "kid": "f29b7c76-d08a-4f01-a47b-b4efbddfd12a",
    "modified_at": "2023-07-02T21:50:00.086Z",
    "repository": "kara.moe",
    "tags": {
      "authors": [
        "61865310-cb97-496c-a722-364b0a9ba90d"
      ],
      "collections": [
        "c7db86a0-ff64-4044-9be4-66dd1ef1d1c1"
      ],
      "creators": [
        "0fa12705-e060-490d-82c9-838989a929bc"
      ],
      "families": [
        "0377db02-3af6-43b8-9b08-c759df3d25c3"
      ],
      "groups": [
        "8c22c899-b3ed-42da-a548-ce00f950798b",
        "ae613721-1fbe-480d-ba6b-d6d0702b184d"
      ],
      "langs": [
        "4dcf9614-7914-42aa-99f4-dbce2e059133"
      ],
      "series": [
        "1bdaa5a1-dfa6-4365-b746-7a0b194dafd6"
      ],
      "singers": [
        "91c5c312-83d5-447e-9f03-91b11cf2efa1"
      ],
      "singergroups": [
        "0fa12705-e060-490d-82c9-838989a929bc"
      ],
      "songtypes": [
        "7be1b15c-cff8-4b37-a649-5c90f3d569a9"
      ],
      "songwriters": [
        "cbb6b661-766c-45ef-ae72-26bc37a71ba9"
      ],
      "versions": [
        "d125c80a-86c1-4321-88e9-07b7800679b6"
      ],
      "franchises": [
        "1bdaa5a1-dfa6-4365-b746-7a0b194dafd6"
      ]
    },
    "titles": {
      "jpn": "儚きもの人間",
      "qro": "Hakanaki Mono Ningen"
    },
    "titles_default_language": "qro",
    "year": 2013
  }
}