{
  "header": {
    "version": 4,
    "description": "Karaoke Mugen Karaoke Data File"
  },
  "medias": [
    {
      "version": "Default",
      "filename": "JPN - Touhou - MV - Power of dream ~ Short Vers.mp4",
      "audiogain": -2.72,
      "loudnorm": "-13.81,-3.80,2.60,-23.87,-0.82",
      "filesize": 28210062,
      "duration": 195,
      "default": true,
      "lyrics": [
        {
          "filename": "JPN - Touhou - MV - Power of dream ~ Short Vers.ass",
          "default": true,
          "version": "Default"
        }
      ]
    }
  ],
  "data": {
    "created_at": "2022-09-30T20:38:08.637Z",
    "ignoreHooks": false,
    "kid": "1543f93f-cda8-44a0-b239-0db0f639710b",
    "modified_at": "2022-09-30T20:39:31.207Z",
    "repository": "kara.moe",
    "tags": {
      "authors": [
        "1fbfef73-6731-40df-ba51-65a54b9d1605"
      ],
      "collections": [
        "c7db86a0-ff64-4044-9be4-66dd1ef1d1c1"
      ],
      "creators": [
        "25fc251a-0514-4bf5-a818-dd0547723f4a"
      ],
      "families": [
        "0377db02-3af6-43b8-9b08-c759df3d25c3"
      ],
      "groups": [
        "3c14c864-533c-49e6-a3cc-6969f1233775"
      ],
      "langs": [
        "4dcf9614-7914-42aa-99f4-dbce2e059133"
      ],
      "series": [
        "1bdaa5a1-dfa6-4365-b746-7a0b194dafd6"
      ],
      "singers": [
        "ccb88de5-b120-4088-ac75-a4204dac8b7d"
      ],
      "songtypes": [
        "7be1b15c-cff8-4b37-a649-5c90f3d569a9"
      ],
      "songwriters": [
        "26cb5252-8510-49e0-897c-a611a05fc056",
        "af3c7f21-61be-4d1e-af2a-d5ed4020e771",
        "feceb592-efac-4eda-9b03-c27cf509004c"
      ],
      "versions": [
        "d125c80a-86c1-4321-88e9-07b7800679b6"
      ],
      "franchises": [
        "1bdaa5a1-dfa6-4365-b746-7a0b194dafd6"
      ]
    },
    "titles": {
      "eng": "Power of dream"
    },
    "titles_default_language": "eng",
    "title": "Power of dream",
    "year": 2007
  }
}