{
  "header": {
    "version": 4,
    "description": "Karaoke Mugen Karaoke Data File"
  },
  "medias": [
    {
      "version": "Default",
      "filename": "JPN - K - ED1 - Tsumetai Heya Hitori.mp4",
      "audiogain": 5.17,
      "loudnorm": "-23.37,-11.64,11.20,-33.78,-1.60",
      "filesize": 37773855,
      "duration": 92,
      "default": true,
      "lyrics": [
        {
          "filename": "JPN - K - ED1 - Tsumetai Heya Hitori.ass",
          "default": true,
          "version": "Default"
        }
      ]
    }
  ],
  "data": {
    "created_at": "2017-10-11T17:02:18.000Z",
    "ignoreHooks": false,
    "kid": "b4d19b36-063b-498c-837d-0678ff969102",
    "modified_at": "2022-07-20T16:23:59.685Z",
    "repository": "kara.moe",
    "songorder": 1,
    "tags": {
      "authors": [
        "5bdaba57-27f8-4568-8806-76a807728766"
      ],
      "collections": [
        "c7db86a0-ff64-4044-9be4-66dd1ef1d1c1"
      ],
      "creators": [
        "c77da89b-5c99-43fa-a70d-bd25925074f6"
      ],
      "families": [
        "0377db02-3af6-43b8-9b08-c759df3d25c3"
      ],
      "groups": [
        "ae613721-1fbe-480d-ba6b-d6d0702b184d"
      ],
      "langs": [
        "4dcf9614-7914-42aa-99f4-dbce2e059133"
      ],
      "origins": [
        "938de218-5343-4865-94d3-fb33f2eaa152"
      ],
      "series": [
        "91ed54e0-cff6-45f0-bd09-54eaffcab86a"
      ],
      "singers": [
        "5b21d12f-ac04-4272-882c-df57865ca6b9"
      ],
      "songtypes": [
        "38c77c56-2b95-4040-b676-0994a8cb0597"
      ],
      "songwriters": [
        "06d98e92-d527-485d-8399-a951ff48e66c",
        "0b54e69d-4691-4415-be0e-0dd6fd5d4e1a"
      ],
      "franchises": [
        "91ed54e0-cff6-45f0-bd09-54eaffcab86a"
      ]
    },
    "titles": {
      "qro": "Tsumetai Heya Hitori",
      "jpn": "冷たい部屋、一人"
    },
    "titles_default_language": "qro",
    "title": "Tsumetai Heya Hitori",
    "year": 2012
  }
}