{
  "header": {
    "version": 4,
    "description": "Karaoke Mugen Karaoke Data File"
  },
  "medias": [
    {
      "version": "Default",
      "filename": "JPN - Hololive Indonesia Generation 1 - MV - Ochame Kinou ~ Cover Vers.mp4",
      "audiogain": -4.8,
      "loudnorm": "-12.63,0.18,2.40,-22.69,-0.21",
      "filesize": 150022215,
      "duration": 265,
      "default": true,
      "lyrics": [
        {
          "filename": "JPN - Hololive Indonesia Generation 1 - MV - Ochame Kinou ~ Cover Vers.ass",
          "default": true,
          "version": "Default"
        }
      ]
    }
  ],
  "data": {
    "created_at": "2021-10-02T12:12:42.460Z",
    "ignoreHooks": false,
    "kid": "9d91f41f-7f8e-4cf0-8395-5bf3e69827b5",
    "modified_at": "2022-09-01T19:35:48.862Z",
    "parents": [
      "a652d03a-84b9-41a1-afb3-7360e07f94e3"
    ],
    "repository": "kara.moe",
    "tags": {
      "authors": [
        "4b50fcec-273e-4cc5-83f2-b156c2300f7f"
      ],
      "collections": [
        "c7db86a0-ff64-4044-9be4-66dd1ef1d1c1"
      ],
      "creators": [
        "0263d413-17bb-4cee-a311-6dd896eda1c9"
      ],
      "families": [
        "0377db02-3af6-43b8-9b08-c759df3d25c3"
      ],
      "groups": [
        "8e209ae4-4381-438f-89dc-1b21752027d2"
      ],
      "langs": [
        "4dcf9614-7914-42aa-99f4-dbce2e059133"
      ],
      "origins": [
        "5106d71b-a78e-4d19-a16d-f8fb6719538a"
      ],
      "singers": [
        "447f0420-6b9b-4bf3-958e-62a70e4ac30c",
        "b1513a5f-319c-4cb6-968b-6406b4a20acd",
        "f708c8c5-9078-48f2-9197-28926d5c2aef"
      ],
      "singergroups": [
        "eec0879b-a201-45bb-ad3c-a9eec6392971"
      ],
      "songtypes": [
        "7be1b15c-cff8-4b37-a649-5c90f3d569a9"
      ],
      "songwriters": [
        "8d8bb14c-a310-4bd4-bc88-1b3121993160",
        "f342fec5-f79e-4b4c-9c06-76220c3e943e"
      ],
      "versions": [
        "03e1e1d2-8641-47b7-bbcb-39a3df9ff21c"
      ]
    },
    "titles": {
      "qro": "Ochame Kinô ~ Hololive Indonesia Generation 1 Vers.",
      "jpn": "おちゃめ機能 ~ Hololive Indonesia Generation 1 Vers."
    },
    "titles_default_language": "qro",
    "titles_aliases": [
      "吹っ切れた",
      "Fukkireta",
      "kinou",
      "Kinou"
    ],
    "title": "Ochame Kinô",
    "year": 2020
  }
}