{
  "header": {
    "version": 4,
    "description": "Karaoke Mugen Karaoke Data File"
  },
  "medias": [
    {
      "version": "Default",
      "filename": "JPN - D.N.A2 - LIVE - Blurry Eyes ~ Full Vers.mp4",
      "audiogain": -9.09,
      "loudnorm": "-7.13,1.19,1.80,-17.13,0.05",
      "filesize": 79216996,
      "duration": 264,
      "default": true,
      "lyrics": [
        {
          "filename": "JPN - D.N.A2 - LIVE - Blurry Eyes ~ Full Vers.ass",
          "default": true,
          "version": "Default"
        }
      ]
    }
  ],
  "data": {
    "created_at": "2021-06-06T19:43:50.180Z",
    "ignoreHooks": false,
    "kid": "dd6b96db-323e-4476-b7d5-63db9cda5ffc",
    "modified_at": "2022-12-21T22:36:35.696Z",
    "parents": [
      "a3dd0000-1d51-49a5-b9e0-deddc2c289eb"
    ],
    "repository": "kara.moe",
    "tags": {
      "authors": [
        "1db1738f-acdc-42fc-aec3-60f4bddf660d"
      ],
      "collections": [
        "dbcf2c22-524d-4708-99bb-601703633927"
      ],
      "creators": [
        "6df34030-d5ec-4480-a1c2-20103a7c0b63"
      ],
      "families": [
        "5391f9fe-638c-415f-8dc9-958e3a2c5787"
      ],
      "groups": [
        "ae613721-1fbe-480d-ba6b-d6d0702b184d"
      ],
      "langs": [
        "4dcf9614-7914-42aa-99f4-dbce2e059133"
      ],
      "series": [
        "97c43fad-0d18-492d-b758-4c11e8d3f939"
      ],
      "singers": [
        "4061a0fb-641d-4a33-9968-b26313bab59c"
      ],
      "songtypes": [
        "a0167949-580c-4de3-bf13-497e462e02f3"
      ],
      "songwriters": [
        "214cd260-b324-44ae-8172-6e6dbbf4b776",
        "d9dfb8ac-7af2-46de-b963-b91d5d1a580c",
        "ecb111d5-9912-4cad-825b-523e104f6785"
      ],
      "versions": [
        "c2143a7f-6970-450e-8a79-0302db9220a9"
      ]
    },
    "titles": {
      "eng": "Blurry Eyes"
    },
    "titles_default_language": "eng",
    "year": 2015
  }
}