{
  "header": {
    "version": 4,
    "description": "Karaoke Mugen Karaoke Data File"
  },
  "medias": [
    {
      "version": "Default",
      "filename": "JPN - Ao no Exorcist - AUDIO ED3 - Wired Life ~ Full Vers.mp3",
      "audiogain": -10.08,
      "loudnorm": "-7.16,2.26,8.70,-17.44,-1.21",
      "filesize": 11444304,
      "duration": 281,
      "default": true,
      "lyrics": [
        {
          "filename": "JPN - Ao no Exorcist - AUDIO ED3 - Wired Life ~ Full Vers.ass",
          "default": true,
          "version": "Default"
        }
      ]
    }
  ],
  "data": {
    "created_at": "2023-06-23T14:23:44.407Z",
    "ignoreHooks": false,
    "kid": "076a73c4-f0d2-46b6-9cca-ccc31b2f161e",
    "modified_at": "2023-06-23T14:23:44.490Z",
    "parents": [
      "434ff2bf-4028-4488-bdc4-26e7e70f55dd"
    ],
    "repository": "kara.moe",
    "songorder": 3,
    "tags": {
      "authors": [
        "1db1738f-acdc-42fc-aec3-60f4bddf660d"
      ],
      "collections": [
        "dbcf2c22-524d-4708-99bb-601703633927"
      ],
      "creators": [
        "dde803c3-3fa6-4864-9e8e-967866b0f335"
      ],
      "groups": [
        "ae613721-1fbe-480d-ba6b-d6d0702b184d"
      ],
      "langs": [
        "4dcf9614-7914-42aa-99f4-dbce2e059133"
      ],
      "series": [
        "999a8251-15ba-4a1a-b934-cc6f15a44919"
      ],
      "singers": [
        "f090c76c-4ea5-4c95-84ce-36da149c056a"
      ],
      "songtypes": [
        "38c77c56-2b95-4040-b676-0994a8cb0597",
        "42a262ae-acba-4ab5-a446-c5789c96c821"
      ],
      "songwriters": [
        "703f57cc-aa5d-4ed4-a2cf-177944e2f2fa"
      ],
      "versions": [
        "c2143a7f-6970-450e-8a79-0302db9220a9"
      ],
      "franchises": [
        "999a8251-15ba-4a1a-b934-cc6f15a44919"
      ]
    },
    "titles": {
      "eng": "Wired Life"
    },
    "titles_default_language": "eng",
    "year": 2011
  }
}