{
  "header": {
    "version": 4,
    "description": "Karaoke Mugen Karaoke Data File"
  },
  "medias": [
    {
      "version": "Default",
      "filename": "JPN - Len Kagamine - MV - Plus danshi.mp4",
      "audiogain": -12.08,
      "loudnorm": "-3.58,3.85,3.90,-13.71,-0.88",
      "filesize": 35263870,
      "duration": 216,
      "default": true,
      "lyrics": [
        {
          "filename": "JPN - Len Kagamine - MV - Plus danshi.ass",
          "default": true,
          "version": "Default"
        }
      ]
    }
  ],
  "data": {
    "created_at": "2023-07-28T20:06:58.637Z",
    "ignoreHooks": false,
    "kid": "e5f457d5-8903-4c4b-85e6-9392852d4c8b",
    "modified_at": "2023-08-02T14:37:10.418Z",
    "repository": "kara.moe",
    "tags": {
      "authors": [
        "9cdf3b70-3550-457c-bdb9-038f3253c6ad",
        "affbc2db-10d5-4c51-b2f6-61686dfbc1b1"
      ],
      "collections": [
        "c7db86a0-ff64-4044-9be4-66dd1ef1d1c1"
      ],
      "families": [
        "0377db02-3af6-43b8-9b08-c759df3d25c3"
      ],
      "genres": [
        "45623cae-6d68-4304-a49b-896d1d6f4580"
      ],
      "groups": [
        "ae613721-1fbe-480d-ba6b-d6d0702b184d"
      ],
      "langs": [
        "4dcf9614-7914-42aa-99f4-dbce2e059133"
      ],
      "singers": [
        "7ce72adb-b4f2-42d9-b628-360b759a03df"
      ],
      "songtypes": [
        "7be1b15c-cff8-4b37-a649-5c90f3d569a9"
      ],
      "songwriters": [
        "466ad700-8ba6-4dea-80a7-c0b763548a72",
        "ff1aec1d-751a-40ff-bbff-a3f0fd5e9749"
      ]
    },
    "titles": {
      "jpn": "+♂",
      "qro": "+danshi"
    },
    "titles_default_language": "qro",
    "titles_aliases": [
      "プラス男子",
      "+boy",
      "plus boy"
    ],
    "year": 2014
  }
}