{
  "header": {
    "version": 4,
    "description": "Karaoke Mugen Karaoke Data File"
  },
  "medias": [
    {
      "version": "Default",
      "filename": "JPN - Shadowverse - OP1 - Kirifuda.mp4",
      "audiogain": 1.16,
      "loudnorm": "-19.19,-7.69,6.70,-29.23,-1.30",
      "filesize": 38714929,
      "duration": 88,
      "default": true,
      "lyrics": [
        {
          "filename": "JPN - Shadowverse - OP1 - Kirifuda.ass",
          "default": true,
          "version": "Default"
        }
      ]
    }
  ],
  "data": {
    "created_at": "2022-03-20T14:24:32.715Z",
    "ignoreHooks": false,
    "kid": "44ff2c49-7774-48e3-bb05-953b64dd20ef",
    "modified_at": "2022-03-30T22:20:36.524Z",
    "repository": "kara.moe",
    "songorder": 1,
    "tags": {
      "authors": [
        "da677ad5-b5dd-4ab9-a1fe-5461e36338a2"
      ],
      "collections": [
        "c7db86a0-ff64-4044-9be4-66dd1ef1d1c1"
      ],
      "creators": [
        "e898a827-3b74-4637-b57c-c40c8c2fc0cc"
      ],
      "families": [
        "0377db02-3af6-43b8-9b08-c759df3d25c3"
      ],
      "genres": [
        "a0aeef4a-6428-45ff-a6e1-468b595930c2"
      ],
      "groups": [
        "8e209ae4-4381-438f-89dc-1b21752027d2"
      ],
      "langs": [
        "4dcf9614-7914-42aa-99f4-dbce2e059133"
      ],
      "origins": [
        "938de218-5343-4865-94d3-fb33f2eaa152"
      ],
      "series": [
        "a7aa103a-bc3b-4a34-8560-51ed4bc4f85d"
      ],
      "singers": [
        "8ac6f334-db9f-4669-9352-2045cac01b30"
      ],
      "songtypes": [
        "f02ad9b3-0bd9-4aad-85b3-9976739ba0e4"
      ],
      "songwriters": [
        "d1414e5d-6845-48ca-ada8-ec38a069ec2f"
      ]
    },
    "titles": {
      "qro": "Kirifuda",
      "jpn": "キリフダ"
    },
    "titles_default_language": "qro",
    "title": "Kirifuda",
    "year": 2020
  }
}