{
  "header": {
    "version": 4,
    "description": "Karaoke Mugen Karaoke Data File"
  },
  "medias": [
    {
      "version": "Default",
      "filename": "JPN - Project SEKAI COLORFUL STAGE! - GAME MV - Awaiting Clear Skies ~ Full Vers.mp4",
      "audiogain": -8.43,
      "loudnorm": "-9.04,1.35,3.60,-19.11,-0.53",
      "filesize": 56090574,
      "duration": 253,
      "default": true,
      "lyrics": [
        {
          "filename": "JPN - Project SEKAI COLORFUL STAGE! - GAME MV - Awaiting Clear Skies ~ Full Vers.ass",
          "default": true,
          "version": "Default"
        }
      ]
    }
  ],
  "data": {
    "comment": "request de niyaa",
    "created_at": "2022-12-01T20:48:07.195Z",
    "ignoreHooks": false,
    "kid": "81f23676-6f11-499b-8011-99db658db2ab",
    "modified_at": "2022-12-26T19:35:37.706Z",
    "repository": "kara.moe",
    "tags": {
      "authors": [
        "a3a99b23-6c42-4d38-8863-491153187437"
      ],
      "collections": [
        "c7db86a0-ff64-4044-9be4-66dd1ef1d1c1"
      ],
      "creators": [
        "1e5648fb-22fc-474d-b865-254eb31fa000",
        "7eebabcd-52be-47ae-b4c2-c741f20b277a",
        "ca2e7cff-7e16-47c2-85a4-6da217b60386"
      ],
      "families": [
        "0377db02-3af6-43b8-9b08-c759df3d25c3"
      ],
      "genres": [
        "45623cae-6d68-4304-a49b-896d1d6f4580"
      ],
      "groups": [
        "8e209ae4-4381-438f-89dc-1b21752027d2"
      ],
      "langs": [
        "4dcf9614-7914-42aa-99f4-dbce2e059133"
      ],
      "misc": [
        "1d6ceadf-a885-47e5-b23b-c07bf668a424"
      ],
      "platforms": [
        "213a1a15-e73a-4a08-b3f6-b6e2745a82e5"
      ],
      "series": [
        "192b33fb-638a-4680-bdb2-a5adb9889849"
      ],
      "singers": [
        "20d2fab3-1e7c-4a00-889e-272eacc68e10",
        "4407ba0e-5de7-4add-870f-7ac95a4804c9",
        "45350754-a9ee-4836-a3ab-a88a43e419e8",
        "b607e60e-e507-476f-9738-d1bf01ed0898",
        "c300a86a-ce96-4eeb-9852-9a02750a60cf"
      ],
      "singergroups": [
        "fbfee5ed-dbac-4e0a-861b-b4a40d32ef6e"
      ],
      "songtypes": [
        "7be1b15c-cff8-4b37-a649-5c90f3d569a9"
      ],
      "songwriters": [
        "ea05cda1-bb09-4818-9ec1-78b21ac84c44"
      ],
      "versions": [
        "c2143a7f-6970-450e-8a79-0302db9220a9"
      ],
      "origins": [
        "dbedd6b3-d125-4cd8-aa32-c4175e4ca3a3"
      ]
    },
    "titles": {
      "eng": "Awaiting Clear Skies",
      "jpn": "霽れを待つ",
      "qro": "Hare wo Matsu"
    },
    "titles_default_language": "eng",
    "year": 2021
  }
}