{
  "header": {
    "version": 4,
    "description": "Karaoke Mugen Karaoke Data File"
  },
  "medias": [
    {
      "version": "Default",
      "filename": "JPN - abingdon boys school - AUDIO - Dress ~ Cover Vers.mp3",
      "audiogain": -9.57,
      "loudnorm": "-7.61,1.17,8.90,-17.80,-1.37",
      "filesize": 16242195,
      "duration": 401,
      "default": true,
      "lyrics": [
        {
          "filename": "JPN - abingdon boys school - AUDIO - Dress ~ Cover Vers.ass",
          "default": true,
          "version": "Default"
        }
      ]
    }
  ],
  "data": {
    "created_at": "2023-02-13T05:32:32.369Z",
    "ignoreHooks": false,
    "kid": "08f60d2e-02a1-458a-b3cc-3cbac2044ae4",
    "modified_at": "2023-02-13T05:33:16.115Z",
    "repository": "kara.moe",
    "tags": {
      "authors": [
        "1db1738f-acdc-42fc-aec3-60f4bddf660d"
      ],
      "collections": [
        "dbcf2c22-524d-4708-99bb-601703633927"
      ],
      "groups": [
        "3c14c864-533c-49e6-a3cc-6969f1233775"
      ],
      "langs": [
        "4dcf9614-7914-42aa-99f4-dbce2e059133"
      ],
      "misc": [
        "86705d4b-24e4-4756-9687-2b9c98bcf366"
      ],
      "singers": [
        "f9a97890-5c76-42ee-a96b-f8e21b1b1fa0"
      ],
      "singergroups": [
        "e0b53e4d-f2be-4a8d-b31a-04fef6e2492b"
      ],
      "songtypes": [
        "42a262ae-acba-4ab5-a446-c5789c96c821"
      ],
      "songwriters": [
        "19cbf7bf-0543-471f-afc9-b18236899a28",
        "a434e158-cf32-41b7-8d0e-db4caa264a9e"
      ],
      "versions": [
        "03e1e1d2-8641-47b7-bbcb-39a3df9ff21c"
      ]
    },
    "titles": {
      "eng": "Dress"
    },
    "titles_default_language": "eng",
    "year": 2005
  }
}