{
  "header": {
    "version": 4,
    "description": "Karaoke Mugen Karaoke Data File"
  },
  "medias": [
    {
      "version": "Default",
      "filename": "JPN - BTS - MV - Film out.mp4",
      "audiogain": -7.76,
      "loudnorm": "-9.73,1.32,9.70,-20.30,-1.93",
      "filesize": 23534195,
      "duration": 224,
      "default": true,
      "lyrics": [
        {
          "filename": "JPN - BTS - MV - Film out.ass",
          "default": true,
          "version": "Default"
        }
      ]
    }
  ],
  "data": {
    "created_at": "2022-07-06T20:35:24.532Z",
    "ignoreHooks": false,
    "kid": "f63f17f6-f534-49ea-9bc3-dc2e42b1f223",
    "modified_at": "2023-02-03T17:27:29.612Z",
    "repository": "kara.moe",
    "tags": {
      "authors": [
        "1d7745a8-73ea-40bb-ad99-826af98f6e41"
      ],
      "collections": [
        "dbcf2c22-524d-4708-99bb-601703633927"
      ],
      "creators": [
        "7e4b3966-9e00-4593-8047-1b67f358d2b9",
        "c62489b5-2ae8-4e09-af56-18bbd85093bb"
      ],
      "families": [
        "5391f9fe-638c-415f-8dc9-958e3a2c5787"
      ],
      "genres": [
        "caa86df2-0d59-474b-885c-f240a9e891b0"
      ],
      "groups": [
        "8e209ae4-4381-438f-89dc-1b21752027d2"
      ],
      "langs": [
        "4dcf9614-7914-42aa-99f4-dbce2e059133"
      ],
      "misc": [
        "1d6ceadf-a885-47e5-b23b-c07bf668a424"
      ],
      "singergroups": [
        "b00876f7-3ffb-438c-8229-35a47fa9e667"
      ],
      "songtypes": [
        "7be1b15c-cff8-4b37-a649-5c90f3d569a9"
      ],
      "songwriters": [
        "ace37864-d9f8-4900-ad58-4c2964d0cdd4",
        "f38f2fe5-9f54-4a8e-b3cf-d4f6c8f3ca98"
      ]
    },
    "titles": {
      "eng": "Film out"
    },
    "titles_default_language": "eng",
    "year": 2021
  }
}