{
  "header": {
    "version": 4,
    "description": "Karaoke Mugen Karaoke Data File"
  },
  "medias": [
    {
      "version": "Default",
      "filename": "JPN - Genjitsu no Yohane -SUNSHINE in the MIRROR- - AUDIO - GAME ON!.mp3",
      "loudnorm": "-5.39,5.32,2.30,-15.46,-0.44",
      "filesize": 8736454,
      "duration": 213,
      "default": true,
      "lyrics": [
        {
          "filename": "JPN - Genjitsu no Yohane -SUNSHINE in the MIRROR- - AUDIO - GAME ON!.ass",
          "default": true,
          "version": "Default"
        }
      ]
    }
  ],
  "data": {
    "created_at": "2023-09-16T23:26:05.270Z",
    "ignoreHooks": false,
    "kid": "a4944ade-384c-40ac-baaf-a47dba61fa44",
    "modified_at": "2023-09-28T15:24:33.109Z",
    "repository": "kara.moe",
    "tags": {
      "authors": [
        "449844e4-3a1f-46e1-8a92-bf72e2d1b6f1"
      ],
      "collections": [
        "dbcf2c22-524d-4708-99bb-601703633927"
      ],
      "creators": [
        "b2805292-730e-473a-96f0-fd8e7ffd1fd7"
      ],
      "genres": [
        "caa86df2-0d59-474b-885c-f240a9e891b0"
      ],
      "groups": [
        "8e209ae4-4381-438f-89dc-1b21752027d2"
      ],
      "langs": [
        "4dcf9614-7914-42aa-99f4-dbce2e059133"
      ],
      "series": [
        "7088e690-114c-45fb-8044-1839b7151723"
      ],
      "singers": [
        "0bbc3f71-4849-4e38-9980-2331d0293168",
        "18b9be9d-c627-47d1-ab88-56201f59a609",
        "2dcdc517-a816-496e-8bc8-8ce976e608c4",
        "5db2e941-73cc-4374-af8e-a078458645ca",
        "81f96b53-701d-4886-80ba-71f256e051a2",
        "8f1cdf03-baf0-4294-bfdf-fdeedcdbeac5",
        "9cd8d2dd-4328-4186-9d11-d5b021ae9fc0",
        "b4084895-9bbd-426a-8384-feef794ca53c",
        "e3ef4054-6292-4b5f-ad14-1008bae5e375"
      ],
      "singergroups": [
        "b34161c7-a60d-4f1a-8436-11abc0875436"
      ],
      "songtypes": [
        "42a262ae-acba-4ab5-a446-c5789c96c821"
      ],
      "songwriters": [
        "70fe407b-f62f-4f2d-afdc-201cd297c05f",
        "a72bfa42-bb54-4832-b1cc-023ffde9ef60",
        "adf77321-ded8-49fa-ae66-85116f1b7e77",
        "e297955e-06ad-4f50-8d6d-c5aa31b05e61",
        "fb9a6b70-23a0-43f1-919c-b37c4fb02ff4"
      ],
      "franchises": [
        "fd5d066e-e85a-4eea-8688-2979a887450a"
      ]
    },
    "titles": {
      "eng": "GAME ON!"
    },
    "titles_default_language": "eng",
    "year": 2023
  }
}