{
  "header": {
    "version": 4,
    "description": "Karaoke Mugen Karaoke Data File"
  },
  "medias": [
    {
      "version": "Default",
      "filename": "JPN - Deadman Wonderland - ED - SHINY SHINY.mp4",
      "audiogain": 2.77,
      "loudnorm": "-20.17,-9.77,5.40,-30.22,-1.23",
      "filesize": 13133578,
      "duration": 91,
      "default": true,
      "lyrics": [
        {
          "filename": "JPN - Deadman Wonderland - ED - SHINY SHINY.ass",
          "default": true,
          "version": "Default",
          "subchecksum": "52f391fce59900dd0d8a2758cb874c74"
        }
      ]
    }
  ],
  "data": {
    "created_at": "2017-10-11T17:02:46.000Z",
    "kid": "aaa3bc64-9830-4680-a7fa-733893bd7189",
    "modified_at": "2021-02-25T11:07:47.637Z",
    "repository": "kara.moe",
    "tags": {
      "authors": [
        "5bdaba57-27f8-4568-8806-76a807728766"
      ],
      "collections": [
        "c7db86a0-ff64-4044-9be4-66dd1ef1d1c1"
      ],
      "creators": [
        "345edf8e-218e-47e7-ba1a-a15a623da4c5"
      ],
      "families": [
        "0377db02-3af6-43b8-9b08-c759df3d25c3"
      ],
      "genres": [
        "a0aeef4a-6428-45ff-a6e1-468b595930c2"
      ],
      "groups": [
        "ae613721-1fbe-480d-ba6b-d6d0702b184d"
      ],
      "langs": [
        "4dcf9614-7914-42aa-99f4-dbce2e059133"
      ],
      "origins": [
        "938de218-5343-4865-94d3-fb33f2eaa152"
      ],
      "series": [
        "db1651f9-cd43-4369-87ed-7cc12b4ec038"
      ],
      "singers": [
        "3e870d4d-e065-4f6c-9d54-62218c659f46"
      ],
      "songtypes": [
        "38c77c56-2b95-4040-b676-0994a8cb0597"
      ],
      "songwriters": [
        "3d9c01ba-2713-4b24-bab2-f3a8f9e496b0"
      ]
    },
    "title": "SHINY SHINY",
    "titles": {
      "eng": "SHINY SHINY"
    },
    "year": 2011,
    "titles_default_language": "eng"
  }
}