{
  "header": {
    "version": 4,
    "description": "Karaoke Mugen Karaoke Data File"
  },
  "medias": [
    {
      "version": "Default",
      "filename": "JPN - Hatsukoi Monster - IN - Kani no Uta.mp4",
      "audiogain": 3.66,
      "loudnorm": "-20.45,-6.77,3.10,-30.48,-0.53",
      "filesize": 4694471,
      "duration": 31,
      "default": true,
      "lyrics": [
        {
          "filename": "JPN - Hatsukoi Monster - IN - Kani no Uta.ass",
          "default": true,
          "version": "Default"
        }
      ]
    }
  ],
  "data": {
    "created_at": "2023-01-07T17:05:08.746Z",
    "ignoreHooks": false,
    "kid": "4124259d-47fd-48c9-a15a-22e2d430052a",
    "modified_at": "2023-01-07T17:05:09.266Z",
    "repository": "kara.moe",
    "tags": {
      "authors": [
        "df5f446f-d161-4760-8e0c-822e70ea03ae"
      ],
      "collections": [
        "c7db86a0-ff64-4044-9be4-66dd1ef1d1c1"
      ],
      "creators": [
        "2bf7a71d-d3fc-42ba-8aa0-a94d7ca3888c"
      ],
      "families": [
        "0377db02-3af6-43b8-9b08-c759df3d25c3"
      ],
      "genres": [
        "8b6ace6f-a59e-4740-b3ff-e1618720383c"
      ],
      "groups": [
        "df5f446f-d161-4760-8e0c-822e70ea03ae",
        "ae613721-1fbe-480d-ba6b-d6d0702b184d"
      ],
      "langs": [
        "4dcf9614-7914-42aa-99f4-dbce2e059133"
      ],
      "origins": [
        "938de218-5343-4865-94d3-fb33f2eaa152"
      ],
      "series": [
        "7ae7e661-7700-45dc-aa2c-f9f0600e5ef0"
      ],
      "singers": [
        "9c414b4c-422b-4857-b8fd-4556895a745c"
      ],
      "songtypes": [
        "5e5250d9-351a-4a82-98eb-55db50ad8962"
      ],
      "songwriters": [
        "2e171883-1e6c-446b-a6e7-7adebb2e94fe"
      ]
    },
    "titles": {
      "jpn": "カニのうた",
      "qro": "Kani no Uta"
    },
    "titles_default_language": "qro",
    "year": 2016
  }
}