{
  "header": {
    "version": 4,
    "description": "Karaoke Mugen Karaoke Data File"
  },
  "medias": [
    {
      "version": "Default",
      "filename": "JPN - Yuuki Yuuna wa Yuusha de Aru - OP - Hoshi to Hana.mp4",
      "audiogain": 3.52,
      "loudnorm": "-21.48,-9.24,8.80,-31.63,-1.42",
      "filesize": 49591605,
      "duration": 91,
      "default": true,
      "lyrics": [
        {
          "filename": "JPN - Yuuki Yuuna wa Yuusha de Aru - OP - Hoshi to Hana.ass",
          "default": true,
          "version": "Default"
        }
      ]
    }
  ],
  "data": {
    "created_at": "2017-10-11T17:03:14.000Z",
    "kid": "74f870b8-d9da-4947-ba08-a5f66f02efb9",
    "modified_at": "2021-11-07T22:19:07.503Z",
    "repository": "kara.moe",
    "tags": {
      "authors": [
        "5bdaba57-27f8-4568-8806-76a807728766"
      ],
      "collections": [
        "c7db86a0-ff64-4044-9be4-66dd1ef1d1c1"
      ],
      "creators": [
        "7226816c-fb45-4f3a-bd39-7f4f616553bf"
      ],
      "families": [
        "0377db02-3af6-43b8-9b08-c759df3d25c3"
      ],
      "groups": [
        "ae613721-1fbe-480d-ba6b-d6d0702b184d"
      ],
      "langs": [
        "4dcf9614-7914-42aa-99f4-dbce2e059133"
      ],
      "origins": [
        "938de218-5343-4865-94d3-fb33f2eaa152"
      ],
      "series": [
        "f57709e6-ded9-43e0-b72f-f5e5cca8382a"
      ],
      "singers": [
        "1f449de8-ba1a-4d99-9393-7589b72b68f0",
        "4fc68333-b1f6-44ce-b2be-ac4866b78932",
        "6d7de60e-01e1-4b9d-905e-a0a1e90237cb",
        "fbbfcd25-2f98-4f94-9b7b-cef201df2859"
      ],
      "songtypes": [
        "f02ad9b3-0bd9-4aad-85b3-9976739ba0e4"
      ],
      "songwriters": [
        "30dd86d9-5892-4cd0-b02a-9ab335032cc5",
        "ead196cc-e1e3-43a4-8804-dd4199e89c4e"
      ],
      "franchises": [
        "f57709e6-ded9-43e0-b72f-f5e5cca8382a"
      ]
    },
    "titles": {
      "qro": "Hoshi to Hana",
      "jpn": "ホシトハナ"
    },
    "title": "Hoshi to Hana",
    "year": 2014,
    "titles_default_language": "qro"
  }
}