{
  "header": {
    "version": 4,
    "description": "Karaoke Mugen Karaoke Data File"
  },
  "medias": [
    {
      "version": "Default",
      "filename": "JPN - Noel Shirogane - AMV - Kanzen Roudoku Dreamer.mp4",
      "audiogain": -2.47,
      "loudnorm": "-17.34,-4.57,5.70,-27.66,-0.18",
      "filesize": 25143493,
      "duration": 100,
      "default": true,
      "lyrics": [
        {
          "filename": "JPN - Noel Shirogane - AMV - Kanzen Roudoku Dreamer.ass",
          "default": true,
          "version": "Default"
        }
      ]
    }
  ],
  "data": {
    "created_at": "2021-05-11T12:36:26.414Z",
    "ignoreHooks": false,
    "kid": "ef39bd0d-795c-489d-a460-2f2e58add650",
    "modified_at": "2022-09-30T18:26:26.704Z",
    "repository": "kara.moe",
    "tags": {
      "authors": [
        "84157b43-8a7a-482c-95d3-516757353835"
      ],
      "collections": [
        "c7db86a0-ff64-4044-9be4-66dd1ef1d1c1"
      ],
      "creators": [
        "0263d413-17bb-4cee-a311-6dd896eda1c9",
        "c0872d3f-0d75-4598-b2d1-21f7fa7a08ca"
      ],
      "groups": [
        "8e209ae4-4381-438f-89dc-1b21752027d2"
      ],
      "langs": [
        "4dcf9614-7914-42aa-99f4-dbce2e059133"
      ],
      "misc": [
        "07af42d1-824e-407e-bf37-7fb84905484b",
        "cef35a27-3bf0-48c9-beb2-d245ba62ea6b"
      ],
      "origins": [
        "5106d71b-a78e-4d19-a16d-f8fb6719538a"
      ],
      "singers": [
        "f8b4b7ec-2056-4f2a-b242-a29e67393654"
      ],
      "songtypes": [
        "a6c79ce5-89ee-4d50-afe8-3abd7317f6c2"
      ],
      "songwriters": [
        "3cd850b0-30a4-4c6b-8680-9cc39ce97c6a",
        "57f7774c-51be-4b54-abce-d69eac0feb74",
        "71e19eb8-f2da-4188-9dd6-2a7d5c4e970b"
      ]
    },
    "titles": {
      "qro": "Kanzen Roudoku Dreamer",
      "jpn": "完全朗読Dreamer"
    },
    "titles_default_language": "qro",
    "titles_aliases": [
      "完全感覚Dreamer",
      "Kanzen Kankaku Dreamer"
    ],
    "title": "Kanzen Roudoku Dreamer",
    "year": 2020
  }
}