{
  "header": {
    "version": 4,
    "description": "Karaoke Mugen Karaoke Data File"
  },
  "medias": [
    {
      "version": "Default",
      "filename": "JPN - Mahou Shoujo Sonico Magica - ONA OP - Connect.mp4",
      "audiogain": -1.52,
      "loudnorm": "-16.11,-4.30,3.20,-26.12,-0.58",
      "filesize": 63286952,
      "duration": 90,
      "default": true,
      "lyrics": [
        {
          "filename": "JPN - Mahou Shoujo Sonico Magica - ONA OP - Connect.ass",
          "default": true,
          "version": "Default",
          "subchecksum": "26bdb2d1ddfcd61dca0569e52da0a9e5"
        }
      ]
    }
  ],
  "data": {
    "created_at": "2017-10-11T17:02:52.000Z",
    "kid": "8730184f-2f6b-45f5-b29e-798edeb72ba7",
    "modified_at": "2021-02-25T12:19:24.956Z",
    "parents": [
      "ffbea89b-9d05-4ffe-9df7-cc641bad2c3e"
    ],
    "repository": "kara.moe",
    "tags": {
      "authors": [
        "1df04771-a378-4f14-a5e1-1455187d681a"
      ],
      "collections": [
        "c7db86a0-ff64-4044-9be4-66dd1ef1d1c1"
      ],
      "creators": [
        "d8c36618-4baf-4969-a667-188a901a1f00"
      ],
      "families": [
        "0377db02-3af6-43b8-9b08-c759df3d25c3"
      ],
      "genres": [
        "b84e28f9-db1e-447f-b339-7954c3592523"
      ],
      "groups": [
        "ae613721-1fbe-480d-ba6b-d6d0702b184d"
      ],
      "langs": [
        "4dcf9614-7914-42aa-99f4-dbce2e059133"
      ],
      "misc": [
        "07af42d1-824e-407e-bf37-7fb84905484b"
      ],
      "origins": [
        "8db3e098-06ef-45e5-bba9-cb04a21c1e66"
      ],
      "series": [
        "99c26102-0431-49de-a3d1-7ea46d9a781f"
      ],
      "singers": [
        "ff590105-5f65-4b1f-adf9-2cfb5b789428"
      ],
      "songtypes": [
        "f02ad9b3-0bd9-4aad-85b3-9976739ba0e4"
      ],
      "songwriters": [
        "b4279339-b1d8-4da7-8bf9-1f6d5b69be11"
      ],
      "franchises": [
        "c31a2b6a-96f5-4244-bce3-e04cd8b5c2ae",
        "8816884c-6651-4868-8c95-f50c492a7de8"
      ]
    },
    "title": "Connect",
    "titles": {
      "eng": "Connect",
      "jpn": "コネクト"
    },
    "year": 2011,
    "titles_default_language": "eng"
  }
}