{
  "header": {
    "version": 4,
    "description": "Karaoke Mugen Karaoke Data File"
  },
  "medias": [
    {
      "version": "Default",
      "filename": "JPN - Aa! Megami-sama! - OVA AUDIO OP - My Heart Iidasenai, Your Heart Tashikametai ~ Full Vers.mp3",
      "audiogain": -4.44,
      "loudnorm": "-13.70,0.69,4.00,-23.76,-0.58",
      "filesize": 4920464,
      "duration": 255,
      "default": true,
      "lyrics": [
        {
          "filename": "JPN - Aa! Megami-sama! - OVA AUDIO OP - My Heart Iidasenai, Your Heart Tashikametai ~ Full Vers.ass",
          "default": true,
          "version": "Default"
        }
      ]
    }
  ],
  "data": {
    "created_at": "2018-08-18T18:41:25.000Z",
    "ignoreHooks": false,
    "kid": "1ee23839-ae22-4357-813c-9b8c01c0042e",
    "modified_at": "2022-12-22T16:08:50.678Z",
    "parents": [
      "7344ebc2-e4cc-4df4-84af-e0fed9b823f0"
    ],
    "repository": "kara.moe",
    "tags": {
      "authors": [
        "1db1738f-acdc-42fc-aec3-60f4bddf660d",
        "fa399f2f-ea1d-4902-8796-ea6d8218aff0"
      ],
      "collections": [
        "c7db86a0-ff64-4044-9be4-66dd1ef1d1c1"
      ],
      "creators": [
        "d4f12628-2031-48c0-b2c7-7c07aaf8af94"
      ],
      "groups": [
        "24db50aa-a126-4d34-a48a-e45db79c4245"
      ],
      "langs": [
        "4dcf9614-7914-42aa-99f4-dbce2e059133"
      ],
      "origins": [
        "2a6ef087-a000-4f8e-aeb5-9a7968756a36"
      ],
      "series": [
        "d9ad1953-f9aa-43db-8ba0-ca564036a7e9"
      ],
      "singers": [
        "c9ed79b5-768e-4193-9773-8b37e4b9c683"
      ],
      "songtypes": [
        "42a262ae-acba-4ab5-a446-c5789c96c821",
        "f02ad9b3-0bd9-4aad-85b3-9976739ba0e4"
      ],
      "songwriters": [
        "7ce4b046-f276-4bc9-a54a-29e6bf1930b6",
        "9239671c-7fbc-4923-b15a-673807975e1a"
      ],
      "versions": [
        "c2143a7f-6970-450e-8a79-0302db9220a9"
      ],
      "franchises": [
        "8cc12a0f-1752-4ca1-ab52-4a9de0c7bf06",
        "d9ad1953-f9aa-43db-8ba0-ca564036a7e9"
      ]
    },
    "titles": {
      "jpn": "My Heart言い出せない,Your Heart確かめたい",
      "qro": "My Heart Iidasenai, Your Heart Tashikametai"
    },
    "titles_default_language": "qro",
    "year": 1993
  }
}