{
  "header": {
    "version": 4,
    "description": "Karaoke Mugen Karaoke Data File"
  },
  "medias": [
    {
      "version": "Default",
      "filename": "JPN - DAOKO - MV - BANG!.mp4",
      "audiogain": -9.11,
      "loudnorm": "-7.99,2.54,3.60,-18.05,-1.34",
      "filesize": 83880221,
      "duration": 241,
      "default": true,
      "lyrics": [
        {
          "filename": "JPN - DAOKO - MV - BANG!.ass",
          "default": true,
          "version": "Default"
        }
      ]
    }
  ],
  "data": {
    "created_at": "2022-02-13T22:39:40.360Z",
    "kid": "af745260-06e3-49ea-9ec8-5ea0d448f056",
    "modified_at": "2022-06-04T00:14:45.211Z",
    "repository": "kara.moe",
    "songorder": null,
    "tags": {
      "authors": [
        "4d71ce82-eed1-4c44-ac85-5f7255f3dad3"
      ],
      "creators": [
        "6697d31b-7f60-4d11-b237-8eb72740fd8a"
      ],
      "families": [
        "5391f9fe-638c-415f-8dc9-958e3a2c5787"
      ],
      "groups": [
        "ae613721-1fbe-480d-ba6b-d6d0702b184d"
      ],
      "langs": [
        "4dcf9614-7914-42aa-99f4-dbce2e059133"
      ],
      "singers": [
        "e6c2a199-b3fe-4f4e-b3b0-c793f2d18ac5"
      ],
      "songtypes": [
        "7be1b15c-cff8-4b37-a649-5c90f3d569a9"
      ],
      "songwriters": [
        "beca2faf-71f6-4c3c-92de-dce76ed20dac",
        "e6c2a199-b3fe-4f4e-b3b0-c793f2d18ac5"
      ],
      "collections": [
        "dbcf2c22-524d-4708-99bb-601703633927"
      ]
    },
    "titles": {
      "eng": "BANG!"
    },
    "titles_default_language": "eng",
    "title": "BANG!",
    "year": 2015
  }
}