{
  "header": {
    "version": 4,
    "description": "Karaoke Mugen Karaoke Data File"
  },
  "medias": [
    {
      "version": "Default",
      "filename": "JPN - Mafumafu, Soraru - MV - Dappou Rock ~ Cover Vers.mp4",
      "audiogain": -9.45,
      "loudnorm": "-8.89,1.84,5.00,-18.91,-0.83",
      "filesize": 144586650,
      "duration": 187,
      "default": true,
      "lyrics": [
        {
          "filename": "JPN - Mafumafu, Soraru - MV - Dappou Rock ~ Cover Vers.ass",
          "default": true,
          "version": "Default"
        }
      ]
    }
  ],
  "data": {
    "created_at": "2020-08-08T22:57:18.560Z",
    "ignoreHooks": false,
    "kid": "8255ca4b-7933-4807-9a04-e8fb21cd7639",
    "modified_at": "2022-11-24T19:05:39.245Z",
    "parents": [
      "9a1bbdbc-3c0b-4b0b-9f46-9c58ca5802cc"
    ],
    "repository": "kara.moe",
    "tags": {
      "authors": [
        "1c9f3b53-973d-419e-9e29-9067c9896139"
      ],
      "collections": [
        "c7db86a0-ff64-4044-9be4-66dd1ef1d1c1"
      ],
      "creators": [
        "97963ece-7c35-4ec3-bd8d-1778bc0a4111"
      ],
      "families": [
        "0377db02-3af6-43b8-9b08-c759df3d25c3"
      ],
      "groups": [
        "60defa7b-774e-4680-8321-51b742c2e009",
        "ae613721-1fbe-480d-ba6b-d6d0702b184d"
      ],
      "langs": [
        "4dcf9614-7914-42aa-99f4-dbce2e059133"
      ],
      "singers": [
        "4228fe34-541e-4c11-b377-9ee812d23c0a",
        "aba75c5b-5a8d-4376-896d-740d8f8847d9"
      ],
      "songtypes": [
        "7be1b15c-cff8-4b37-a649-5c90f3d569a9"
      ],
      "songwriters": [
        "668bfa85-e060-48c1-9fe2-5b844b84c218"
      ],
      "versions": [
        "03e1e1d2-8641-47b7-bbcb-39a3df9ff21c"
      ]
    },
    "titles": {
      "jpn": "脱法ロック",
      "qro": "Dappou Rock"
    },
    "titles_default_language": "qro",
    "titles_aliases": [
      "Dappô"
    ],
    "year": 2016
  }
}