{
  "header": {
    "version": 4,
    "description": "Karaoke Mugen Karaoke Data File"
  },
  "medias": [
    {
      "version": "Default",
      "filename": "JPN - Code Geass Hangyaku no Lelouch R2 - MV - O2 ~ Full Vers.mp4",
      "audiogain": -9.28,
      "loudnorm": "-8.61,0.87,2.50,-19.04,0.01",
      "filesize": 64148685,
      "duration": 258,
      "default": true,
      "lyrics": [
        {
          "filename": "JPN - Code Geass Hangyaku no Lelouch R2 - MV - O2 ~ Full Vers.ass",
          "default": true,
          "version": "Default"
        }
      ]
    }
  ],
  "data": {
    "created_at": "2019-11-24T22:23:18.809Z",
    "kid": "d7bed495-63d7-4a84-97d3-f84801c520ac",
    "modified_at": "2022-06-04T00:14:02.934Z",
    "parents": [
      "37b059b9-0654-4ae8-9ff9-434bf06d3195"
    ],
    "repository": "kara.moe",
    "songorder": null,
    "tags": {
      "authors": [
        "1db1738f-acdc-42fc-aec3-60f4bddf660d"
      ],
      "creators": [
        "6fa9de67-21cf-420b-9ddb-57edb5abe523"
      ],
      "families": [
        "5391f9fe-638c-415f-8dc9-958e3a2c5787"
      ],
      "groups": [
        "3c14c864-533c-49e6-a3cc-6969f1233775"
      ],
      "langs": [
        "4dcf9614-7914-42aa-99f4-dbce2e059133"
      ],
      "series": [
        "bd71b69a-e48a-4caf-9f24-c1619727debe"
      ],
      "singers": [
        "68a6ce5a-bc2c-4ba0-ad71-6655b7e2a49e"
      ],
      "songtypes": [
        "7be1b15c-cff8-4b37-a649-5c90f3d569a9"
      ],
      "songwriters": [
        "68a6ce5a-bc2c-4ba0-ad71-6655b7e2a49e"
      ],
      "versions": [
        "c2143a7f-6970-450e-8a79-0302db9220a9"
      ],
      "collections": [
        "dbcf2c22-524d-4708-99bb-601703633927"
      ],
      "franchises": [
        "1cb3b851-435a-4078-8619-8711f963a92f"
      ]
    },
    "titles": {
      "eng": "O2",
      "jpn": "O2~オー・ツー~"
    },
    "titles_default_language": "eng",
    "title": "O2",
    "year": 2008
  }
}