{
  "header": {
    "version": 4,
    "description": "Karaoke Mugen Karaoke Data File"
  },
  "medias": [
    {
      "version": "Default",
      "filename": "JPN - Okayu Nekomata - MV - YONA YONA DANCE ~ Cover Vers.mp4",
      "audiogain": -7.19,
      "loudnorm": "-9.30,0.90,3.30,-19.36,-0.22",
      "filesize": 51693084,
      "duration": 228,
      "default": true,
      "lyrics": [
        {
          "filename": "JPN - Okayu Nekomata - MV - YONA YONA DANCE ~ Cover Vers.ass",
          "default": true,
          "version": "Default"
        }
      ]
    }
  ],
  "data": {
    "created_at": "2022-05-27T10:31:58.885Z",
    "ignoreHooks": false,
    "kid": "6fdc8a94-09d9-4cb4-95bf-f482ab78b69c",
    "modified_at": "2022-10-15T16:08:24.890Z",
    "parents": [
      "8838aa03-41f5-4c9e-a310-779080a10c0f"
    ],
    "repository": "kara.moe",
    "tags": {
      "authors": [
        "fb28c6d3-a81e-40c0-9a4c-e3268c60a64b"
      ],
      "collections": [
        "c7db86a0-ff64-4044-9be4-66dd1ef1d1c1"
      ],
      "creators": [
        "0263d413-17bb-4cee-a311-6dd896eda1c9"
      ],
      "families": [
        "0377db02-3af6-43b8-9b08-c759df3d25c3"
      ],
      "groups": [
        "8e209ae4-4381-438f-89dc-1b21752027d2"
      ],
      "langs": [
        "4dcf9614-7914-42aa-99f4-dbce2e059133"
      ],
      "origins": [
        "5106d71b-a78e-4d19-a16d-f8fb6719538a"
      ],
      "singers": [
        "e219b9c0-a427-425b-af63-e0bcb114eef9"
      ],
      "songtypes": [
        "7be1b15c-cff8-4b37-a649-5c90f3d569a9"
      ],
      "songwriters": [
        "94ffd849-1238-4dcd-962b-c67f580fc623"
      ],
      "versions": [
        "03e1e1d2-8641-47b7-bbcb-39a3df9ff21c"
      ]
    },
    "titles": {
      "eng": "YONA YONA DANCE",
      "jpn": "YONA YONA DANCE"
    },
    "titles_default_language": "eng",
    "title": "YONA YONA DANCE",
    "year": 2022
  }
}