{
  "header": {
    "version": 4,
    "description": "Karaoke Mugen Karaoke Data File"
  },
  "medias": [
    {
      "version": "Default",
      "filename": "JPN - Muv-Luv Alternative - PS3 GAME OP3 - 0-GRAVITY.mp4",
      "audiogain": -9.72,
      "loudnorm": "-7.60,1.89,3.90,-17.73,-0.44",
      "filesize": 45687645,
      "duration": 103,
      "default": true,
      "lyrics": [
        {
          "filename": "JPN - Muv-Luv Alternative - PS3 GAME OP3 - 0-GRAVITY.ass",
          "default": true,
          "version": "Default",
          "subchecksum": "d89b7aaa684c21dd0c020f7a10c09e4e"
        }
      ]
    }
  ],
  "data": {
    "created_at": "2017-10-11T17:01:25.000Z",
    "kid": "276df48b-3e43-4e1d-b2e2-eac39485313f",
    "modified_at": "2021-02-25T12:31:20.761Z",
    "repository": "kara.moe",
    "songorder": 3,
    "tags": {
      "authors": [
        "5bdaba57-27f8-4568-8806-76a807728766"
      ],
      "collections": [
        "c7db86a0-ff64-4044-9be4-66dd1ef1d1c1"
      ],
      "creators": [
        "5e87ca69-52dd-4df4-957a-5a24d5a19c94"
      ],
      "groups": [
        "ae613721-1fbe-480d-ba6b-d6d0702b184d"
      ],
      "langs": [
        "4dcf9614-7914-42aa-99f4-dbce2e059133"
      ],
      "misc": [
        "fe819ff1-9db8-4a0f-85dc-0e322c9126c4"
      ],
      "origins": [
        "2f96e82c-c61b-4413-817e-e6b247509b95",
        "dbedd6b3-d125-4cd8-aa32-c4175e4ca3a3"
      ],
      "platforms": [
        "7f63ff91-7961-4488-888d-4bf46eea3a2a"
      ],
      "series": [
        "7c966609-3c82-45a4-b115-fd61bb5f25fe"
      ],
      "singers": [
        "213ca674-9084-40ad-a7a8-c84d8108fce9"
      ],
      "songtypes": [
        "f02ad9b3-0bd9-4aad-85b3-9976739ba0e4"
      ],
      "songwriters": [
        "8e1f109c-a1d4-40d6-9a55-32abdb12993c",
        "b26b49e2-d439-48b3-8c0f-c7c25648c48a"
      ],
      "franchises": [
        "71cd681c-bb96-412d-b6af-6c134af20758"
      ]
    },
    "title": "0-GRAVITY",
    "titles": {
      "eng": "0-GRAVITY"
    },
    "year": 2012,
    "titles_default_language": "eng"
  }
}