{
  "header": {
    "version": 4,
    "description": "Karaoke Mugen Karaoke Data File"
  },
  "medias": [
    {
      "version": "Default",
      "filename": "JPN - Eromanga-sensei - MV - Hitorigoto ~ Full Vers.mp4",
      "audiogain": -7.46,
      "loudnorm": "-11.08,0.11,4.20,-21.14,-0.65",
      "filesize": 243679469,
      "duration": 236,
      "default": true,
      "lyrics": [
        {
          "filename": "JPN - Eromanga-sensei - MV - Hitorigoto ~ Full Vers.ass",
          "default": true,
          "version": "Default"
        }
      ]
    }
  ],
  "data": {
    "created_at": "2017-10-11T17:01:58.000Z",
    "ignoreHooks": false,
    "kid": "f146762e-f45d-4db2-877d-1c35a8130296",
    "modified_at": "2023-07-12T18:25:43.626Z",
    "parents": [
      "ab73e6c2-329d-4929-9e85-17290b2cd717"
    ],
    "repository": "kara.moe",
    "tags": {
      "authors": [
        "583e5531-426e-4d73-9aab-9cac10efb432",
        "fa399f2f-ea1d-4902-8796-ea6d8218aff0"
      ],
      "collections": [
        "dbcf2c22-524d-4708-99bb-601703633927"
      ],
      "creators": [
        "771735da-6b67-403d-8d5c-2761a0665168"
      ],
      "families": [
        "5391f9fe-638c-415f-8dc9-958e3a2c5787"
      ],
      "groups": [
        "ae613721-1fbe-480d-ba6b-d6d0702b184d"
      ],
      "langs": [
        "4dcf9614-7914-42aa-99f4-dbce2e059133"
      ],
      "series": [
        "e03ca020-eb74-4499-9eaa-2690eaaac0a7"
      ],
      "singers": [
        "ff590105-5f65-4b1f-adf9-2cfb5b789428"
      ],
      "songtypes": [
        "7be1b15c-cff8-4b37-a649-5c90f3d569a9"
      ],
      "songwriters": [
        "d058acc8-817c-440e-b561-4d6d416cd5ab",
        "d09c5ca2-9000-4b1c-b064-ebe95b2c0679"
      ],
      "versions": [
        "c2143a7f-6970-450e-8a79-0302db9220a9"
      ]
    },
    "titles": {
      "jpn": "ヒトリゴト",
      "qro": "Hitorigoto"
    },
    "titles_default_language": "qro",
    "year": 2017
  }
}