{
  "header": {
    "version": 4,
    "description": "Karaoke Mugen Karaoke Data File"
  },
  "medias": [
    {
      "version": "Default",
      "filename": "JPN - Shoujo Kageki Revue Starlight Rondo Rondo Rondo - MOVIE MV - Saisei Sanbikyoku (Movie Ver.) ~ Off Vocal Vers.mp4",
      "audiogain": -7.73,
      "loudnorm": "-8.98,1.21,6.30,-19.09,-0.99",
      "filesize": 242285746,
      "duration": 243,
      "default": true,
      "lyrics": [
        {
          "filename": "JPN - Shoujo Kageki Revue Starlight Rondo Rondo Rondo - MOVIE MV - Saisei Sanbikyoku (Movie Ver.) ~ Off Vocal Vers.ass",
          "default": true,
          "version": "Default"
        }
      ]
    }
  ],
  "data": {
    "created_at": "2023-03-10T19:07:47.924Z",
    "ignoreHooks": false,
    "kid": "c639a07a-6f10-4ce9-bd3e-406262b34bf9",
    "modified_at": "2023-03-10T19:27:38.157Z",
    "parents": [
      "38f194b9-b0c4-4b23-a065-09fd04fb6e90"
    ],
    "repository": "kara.moe",
    "tags": {
      "authors": [
        "278c6742-0b75-43dd-b317-2ea112952b4a"
      ],
      "collections": [
        "c7db86a0-ff64-4044-9be4-66dd1ef1d1c1"
      ],
      "creators": [
        "08df259d-c4ec-458e-a066-af38a9f7ccc5"
      ],
      "families": [
        "0377db02-3af6-43b8-9b08-c759df3d25c3"
      ],
      "groups": [
        "8c22c899-b3ed-42da-a548-ce00f950798b",
        "8e209ae4-4381-438f-89dc-1b21752027d2"
      ],
      "langs": [
        "4dcf9614-7914-42aa-99f4-dbce2e059133"
      ],
      "origins": [
        "c8ca9dea-d8b4-48fe-8427-d911653232e9"
      ],
      "series": [
        "bad770bc-ae26-4f84-abd8-1a89d29a7ee6"
      ],
      "singers": [
        "67f4e548-9fc9-48f1-bc2c-8c24fd88f5f2",
        "4fc68333-b1f6-44ce-b2be-ac4866b78932",
        "e3ec5558-2fa7-44e9-a4a4-59910a7a3370",
        "0691da5a-1612-40fe-91a3-898cce043c3e",
        "371f95d8-5385-4728-8dbb-0cd3e5892ce4",
        "bbf38c20-4ff8-46ca-8e23-55a71286f0ef",
        "cd997481-e2ff-4d88-ab77-152bedb5041a",
        "d450e6ee-57dc-41ea-b60e-396135d6a2e8",
        "1477f7cf-7a03-4ecc-a3eb-81fe697202ed"
      ],
      "singergroups": [
        "30caa67d-4228-4164-a807-6dd484dd7b19"
      ],
      "songtypes": [
        "7be1b15c-cff8-4b37-a649-5c90f3d569a9"
      ],
      "songwriters": [
        "79f4985a-308e-4fc8-8809-fc5f3f5b3ac8",
        "ead196cc-e1e3-43a4-8804-dd4199e89c4e"
      ],
      "versions": [
        "c0cc87b9-55b9-40f0-878a-fbb9e34c151e"
      ],
      "franchises": [
        "197ecb28-b423-4c66-bbdb-49b89b5ed153"
      ]
    },
    "titles": {
      "jpn": "再生讃美曲(movie ver.)",
      "qro": "Saisei Sanbikyoku (Movie Ver.)"
    },
    "titles_default_language": "qro",
    "year": 2020
  }
}