{
  "header": {
    "version": 4,
    "description": "Karaoke Mugen Karaoke Data File"
  },
  "medias": [
    {
      "version": "Default",
      "filename": "JPN - Kingdom 3 - OP1 - TOMORROW ~ Alternative Vers.mp4",
      "audiogain": 2,
      "loudnorm": "-18.78,-9.93,3.70,-28.95,-0.50",
      "filesize": 40834709,
      "duration": 89,
      "default": true,
      "lyrics": [
        {
          "filename": "JPN - Kingdom 3 - OP1 - TOMORROW ~ Alternative Vers.ass",
          "default": true,
          "version": "Default"
        }
      ]
    }
  ],
  "data": {
    "comment": "Ajout Opening Alternatif Kingdom 3. UniversJB",
    "created_at": "2022-04-05T15:53:24.970Z",
    "ignoreHooks": false,
    "kid": "49685afa-723d-49e5-9209-997a1657ca32",
    "modified_at": "2022-04-05T15:53:24.971Z",
    "parents": [
      "08a360a6-4bad-427e-afb4-08dd116e73e2"
    ],
    "repository": "kara.moe",
    "songorder": 1,
    "tags": {
      "authors": [
        "2eefc5c6-768c-4739-a6e0-ff4bada2a20a"
      ],
      "collections": [
        "c7db86a0-ff64-4044-9be4-66dd1ef1d1c1"
      ],
      "creators": [
        "14fe3eb5-30d6-4e71-b056-024e5d579624",
        "aaff4ba6-9a12-4bac-9bd0-c0cb783e4177"
      ],
      "families": [
        "0377db02-3af6-43b8-9b08-c759df3d25c3"
      ],
      "genres": [
        "a0aeef4a-6428-45ff-a6e1-468b595930c2"
      ],
      "groups": [
        "8e209ae4-4381-438f-89dc-1b21752027d2"
      ],
      "langs": [
        "4dcf9614-7914-42aa-99f4-dbce2e059133"
      ],
      "origins": [
        "938de218-5343-4865-94d3-fb33f2eaa152"
      ],
      "series": [
        "00557aef-6611-46e1-9717-ba1a597ed0fd"
      ],
      "singers": [
        "8b877341-a725-482b-a034-d87428619ee6"
      ],
      "songtypes": [
        "f02ad9b3-0bd9-4aad-85b3-9976739ba0e4"
      ],
      "songwriters": [
        "2ac9c56b-150e-4266-ae41-d2b635b34691",
        "fa66e82a-a909-4b5b-8119-8cf990a30910"
      ],
      "versions": [
        "9f63c359-d1bf-425a-bcf5-b245c2c9211d"
      ],
      "franchises": [
        "e349057f-8f62-4e46-8de2-cc185808a37b"
      ]
    },
    "titles": {
      "eng": "TOMORROW"
    },
    "titles_default_language": "eng",
    "title": "TOMORROW",
    "year": 2020
  }
}