{
  "header": {
    "version": 4,
    "description": "Karaoke Mugen Karaoke Data File"
  },
  "medias": [
    {
      "version": "Default",
      "filename": "JPN - Mix Meisei Story 2nd Season - OP2 - Amaryllis.mp4",
      "audiogain": 5.3,
      "loudnorm": "-22.03,-14.08,7.80,-32.27,-1.01",
      "filesize": 28107230,
      "duration": 90,
      "default": true,
      "lyrics": [
        {
          "filename": "JPN - Mix Meisei Story 2nd Season - OP2 - Amaryllis.ass",
          "default": true,
          "version": "Default"
        }
      ]
    }
  ],
  "data": {
    "comment": "Ajout opening 2 Mix Meisei Story. UniversJB",
    "created_at": "2023-08-03T20:45:02.994Z",
    "ignoreHooks": false,
    "kid": "8d2be426-0997-416c-b98a-28646c7c6999",
    "modified_at": "2023-08-04T11:48:19.732Z",
    "repository": "kara.moe",
    "songorder": 2,
    "tags": {
      "authors": [
        "2eefc5c6-768c-4739-a6e0-ff4bada2a20a"
      ],
      "collections": [
        "c7db86a0-ff64-4044-9be4-66dd1ef1d1c1"
      ],
      "creators": [
        "03fe574b-c7f5-4520-96dc-47320c39e2cc"
      ],
      "families": [
        "0377db02-3af6-43b8-9b08-c759df3d25c3"
      ],
      "genres": [
        "a0aeef4a-6428-45ff-a6e1-468b595930c2"
      ],
      "groups": [
        "8e209ae4-4381-438f-89dc-1b21752027d2"
      ],
      "langs": [
        "4dcf9614-7914-42aa-99f4-dbce2e059133"
      ],
      "misc": [
        "fe819ff1-9db8-4a0f-85dc-0e322c9126c4"
      ],
      "origins": [
        "938de218-5343-4865-94d3-fb33f2eaa152"
      ],
      "series": [
        "d57a0355-acfd-449c-ad04-aea7726da50f"
      ],
      "singers": [
        "fe491775-3ddb-4a17-8d7d-8dbc24344419"
      ],
      "singergroups": [
        "fa13197d-df5f-4c5d-b621-ea4e12474f3d"
      ],
      "songtypes": [
        "f02ad9b3-0bd9-4aad-85b3-9976739ba0e4"
      ],
      "songwriters": [
        "fe491775-3ddb-4a17-8d7d-8dbc24344419"
      ],
      "franchises": [
        "1769e7a1-9d10-4581-8a46-58a79728d712"
      ]
    },
    "titles": {
      "jpn": "アマリリス",
      "qro": "Amaryllis"
    },
    "titles_default_language": "qro",
    "year": 2023
  }
}