{
  "header": {
    "version": 4,
    "description": "Karaoke Mugen Karaoke Data File"
  },
  "medias": [
    {
      "version": "Default",
      "filename": "JPN - Macross Dynamite 7 - OVA OP - Dynamite Explosion.mp4",
      "audiogain": 4.84,
      "loudnorm": "-21.67,-9.37,1.70,-31.78,-0.09",
      "filesize": 28059081,
      "duration": 128,
      "default": true,
      "lyrics": [
        {
          "filename": "JPN - Macross Dynamite 7 - OVA OP - Dynamite Explosion.ass",
          "default": true,
          "version": "Default",
          "subchecksum": "e70c0c4f123e5cb682884b02b4f5e2ff"
        }
      ]
    }
  ],
  "data": {
    "created_at": "2017-10-11T17:02:32.000Z",
    "kid": "cbc4dcf8-9803-441f-a6ab-a8b807985f38",
    "modified_at": "2021-02-25T12:16:54.880Z",
    "repository": "kara.moe",
    "tags": {
      "authors": [
        "5bdaba57-27f8-4568-8806-76a807728766"
      ],
      "collections": [
        "c7db86a0-ff64-4044-9be4-66dd1ef1d1c1"
      ],
      "creators": [
        "fa1cbae7-2b13-45ec-8233-15807fd5f1a3"
      ],
      "families": [
        "0377db02-3af6-43b8-9b08-c759df3d25c3"
      ],
      "genres": [
        "f60ba57d-5ef4-49e0-b93b-d0dcbcff6592"
      ],
      "groups": [
        "24db50aa-a126-4d34-a48a-e45db79c4245"
      ],
      "langs": [
        "4dcf9614-7914-42aa-99f4-dbce2e059133"
      ],
      "origins": [
        "2a6ef087-a000-4f8e-aeb5-9a7968756a36"
      ],
      "series": [
        "c95513eb-6424-409c-878f-7e0d4db26d17"
      ],
      "singers": [
        "00051843-4129-427f-883d-c1eb8e9fe98b",
        "6335750b-cbf3-4c6b-9f84-00dc692ae9e5",
        "7927b9e9-feea-4c4d-8142-57ad8ddc0dbd"
      ],
      "songtypes": [
        "f02ad9b3-0bd9-4aad-85b3-9976739ba0e4"
      ],
      "songwriters": [
        "7927b9e9-feea-4c4d-8142-57ad8ddc0dbd",
        "d208ee58-9aa6-4190-bd7a-72ca85abaee9"
      ],
      "franchises": [
        "01b9b958-2d2a-43d0-a5dd-efb5b14675ea"
      ]
    },
    "title": "Dynamite Explosion",
    "titles": {
      "eng": "DYNAMITE EXPLOSION"
    },
    "year": 1997,
    "titles_default_language": "eng"
  }
}