{
  "header": {
    "version": 4,
    "description": "Karaoke Mugen Karaoke Data File"
  },
  "medias": [
    {
      "version": "Default",
      "filename": "JPN - WORLD ORDER - MV - MULTIPOLARITY.mp4",
      "audiogain": -3.25,
      "loudnorm": "-14.13,1.65,6.40,-24.20,-1.56",
      "filesize": 58447251,
      "duration": 215,
      "default": true,
      "lyrics": [
        {
          "filename": "JPN - WORLD ORDER - MV - MULTIPOLARITY.ass",
          "default": true,
          "version": "Default"
        }
      ]
    }
  ],
  "data": {
    "created_at": "2019-03-19T08:36:53.000Z",
    "kid": "14dbaad2-6c93-4518-bbd2-b8dfd4d0ad72",
    "modified_at": "2022-06-04T00:14:44.909Z",
    "repository": "kara.moe",
    "songorder": null,
    "tags": {
      "authors": [
        "6b38e6cc-bc88-4cf5-9bfc-a46c03435bab"
      ],
      "families": [
        "5391f9fe-638c-415f-8dc9-958e3a2c5787"
      ],
      "groups": [
        "ae613721-1fbe-480d-ba6b-d6d0702b184d"
      ],
      "langs": [
        "4dcf9614-7914-42aa-99f4-dbce2e059133"
      ],
      "singers": [
        "94c8e59b-1e6a-43cc-80b1-720ea6a20942"
      ],
      "songtypes": [
        "7be1b15c-cff8-4b37-a649-5c90f3d569a9"
      ],
      "songwriters": [
        "fbf2ca7b-7c3e-4c42-b7c3-16733b0e6324"
      ],
      "collections": [
        "dbcf2c22-524d-4708-99bb-601703633927"
      ]
    },
    "titles": {
      "eng": "MULTIPOLARITY"
    },
    "titles_default_language": "eng",
    "title": "MULTIPOLARITY",
    "year": 2015
  }
}