{
  "header": {
    "version": 4,
    "description": "Karaoke Mugen Karaoke Data File"
  },
  "medias": [
    {
      "version": "Default",
      "filename": "JPN - Touhou - MV - KENKON ITTEKI!.mp4",
      "audiogain": -9.46,
      "loudnorm": "-6.54,3.27,1.70,-16.57,-0.14",
      "filesize": 62669758,
      "duration": 179,
      "default": true,
      "lyrics": [
        {
          "filename": "JPN - Touhou - MV - KENKON ITTEKI!.ass",
          "default": true,
          "version": "Default"
        }
      ]
    }
  ],
  "data": {
    "created_at": "2023-06-22T13:56:27.169Z",
    "ignoreHooks": false,
    "kid": "f0985cce-a766-4414-ad43-09ca959be44f",
    "modified_at": "2023-07-24T09:41:01.303Z",
    "repository": "kara.moe",
    "tags": {
      "authors": [
        "fb28c6d3-a81e-40c0-9a4c-e3268c60a64b"
      ],
      "collections": [
        "c7db86a0-ff64-4044-9be4-66dd1ef1d1c1"
      ],
      "creators": [
        "90bdccd8-cd43-4ac8-bcbf-6ae8d520f93a"
      ],
      "families": [
        "0377db02-3af6-43b8-9b08-c759df3d25c3"
      ],
      "groups": [
        "8e209ae4-4381-438f-89dc-1b21752027d2"
      ],
      "langs": [
        "4dcf9614-7914-42aa-99f4-dbce2e059133"
      ],
      "origins": [
        "ac5085db-52d8-44b4-8fbb-1697b24d2046"
      ],
      "series": [
        "1bdaa5a1-dfa6-4365-b746-7a0b194dafd6"
      ],
      "singers": [
        "a6e3509f-befc-4b8b-ac1c-3614e1c32447"
      ],
      "singergroups": [
        "eb49131c-b890-422d-9947-0e82292801e1"
      ],
      "songtypes": [
        "7be1b15c-cff8-4b37-a649-5c90f3d569a9"
      ],
      "songwriters": [
        "26cb5252-8510-49e0-897c-a611a05fc056",
        "a6e3509f-befc-4b8b-ac1c-3614e1c32447"
      ],
      "franchises": [
        "1bdaa5a1-dfa6-4365-b746-7a0b194dafd6"
      ]
    },
    "titles": {
      "jpn": "乾坤イッテキ！",
      "qro": "KENKON ITTEKI!"
    },
    "titles_default_language": "qro",
    "year": 2023
  }
}