{
  "header": {
    "version": 4,
    "description": "Karaoke Mugen Karaoke Data File"
  },
  "medias": [
    {
      "version": "Default",
      "filename": "JPN - Koumi Hirose - MV - promise ~ Off Vocal Vers.mp4",
      "audiogain": -7.59,
      "loudnorm": "-9.47,1.84,4.00,-19.69,-1.04",
      "filesize": 125834577,
      "duration": 290,
      "default": true,
      "lyrics": [
        {
          "filename": "JPN - Koumi Hirose - MV - promise ~ Off Vocal Vers.ass",
          "default": true,
          "version": "Default"
        }
      ]
    }
  ],
  "data": {
    "created_at": "2023-07-11T20:31:20.101Z",
    "ignoreHooks": false,
    "kid": "b4a15bbe-5dae-4fde-910d-b6dc6af1f629",
    "modified_at": "2023-07-22T13:46:55.203Z",
    "parents": [
      "a2ce98c3-6a37-4bed-bcc9-a4d4af34fd20"
    ],
    "repository": "kara.moe",
    "tags": {
      "authors": [
        "87096920-112f-485f-a310-04156cb4624d"
      ],
      "collections": [
        "dbcf2c22-524d-4708-99bb-601703633927"
      ],
      "creators": [
        "e8da43a3-7058-4162-9d31-2f331dee993e"
      ],
      "families": [
        "5391f9fe-638c-415f-8dc9-958e3a2c5787"
      ],
      "groups": [
        "24db50aa-a126-4d34-a48a-e45db79c4245",
        "60defa7b-774e-4680-8321-51b742c2e009"
      ],
      "langs": [
        "4dcf9614-7914-42aa-99f4-dbce2e059133"
      ],
      "singers": [
        "8b7e7d4a-52b0-46aa-8da1-f93381f1a548"
      ],
      "songtypes": [
        "7be1b15c-cff8-4b37-a649-5c90f3d569a9"
      ],
      "songwriters": [
        "8b7e7d4a-52b0-46aa-8da1-f93381f1a548"
      ],
      "versions": [
        "c0cc87b9-55b9-40f0-878a-fbb9e34c151e"
      ]
    },
    "titles": {
      "eng": "promise"
    },
    "titles_default_language": "eng",
    "year": 1997
  }
}