{
  "header": {
    "version": 4,
    "description": "Karaoke Mugen Karaoke Data File"
  },
  "medias": [
    {
      "version": "Default",
      "filename": "JPN - Love Live! Superstar!! 2nd Season - AUDIO - Blooming Dance! Dance! ~ Full Vers.mp3",
      "audiogain": -8.45,
      "loudnorm": "-9.44,1.71,4.90,-19.51,-0.57",
      "filesize": 3311496,
      "duration": 195,
      "default": true,
      "lyrics": [
        {
          "filename": "JPN - Love Live! Superstar!! 2nd Season - AUDIO - Blooming Dance! Dance! ~ Full Vers.ass",
          "default": true,
          "version": "Default"
        }
      ]
    }
  ],
  "data": {
    "created_at": "2023-06-30T23:00:09.675Z",
    "ignoreHooks": false,
    "kid": "22b564f1-4efa-4a4f-adf9-684a2d233818",
    "modified_at": "2023-06-30T23:00:09.675Z",
    "repository": "kara.moe",
    "tags": {
      "authors": [
        "449844e4-3a1f-46e1-8a92-bf72e2d1b6f1"
      ],
      "collections": [
        "dbcf2c22-524d-4708-99bb-601703633927"
      ],
      "creators": [
        "b2805292-730e-473a-96f0-fd8e7ffd1fd7"
      ],
      "genres": [
        "caa86df2-0d59-474b-885c-f240a9e891b0"
      ],
      "groups": [
        "8e209ae4-4381-438f-89dc-1b21752027d2"
      ],
      "langs": [
        "4dcf9614-7914-42aa-99f4-dbce2e059133"
      ],
      "series": [
        "51ceccbb-3e30-4e99-b378-a0d09a5a5786"
      ],
      "singers": [
        "ac31fbd5-633b-4b85-8e6b-33976419c240",
        "d8060e7f-5362-405e-9e83-b9c854ca6e3c",
        "a8ce4769-f4d8-4ac8-ad84-731f9895ad9f",
        "7b8b38f7-9945-4ee3-9e38-25ddf137f1e0"
      ],
      "singergroups": [
        "f3e5b1d3-30b1-4548-95c8-6cf77216bdbd"
      ],
      "songtypes": [
        "42a262ae-acba-4ab5-a446-c5789c96c821"
      ],
      "songwriters": [
        "f77f4be8-1af3-4bab-9411-759dbd5bb583",
        "c7d00be0-8b7c-4d69-90ab-984a2ac5ce18",
        "19b22e97-dd1f-4dfc-8208-177f393876f3"
      ],
      "versions": [
        "c2143a7f-6970-450e-8a79-0302db9220a9"
      ],
      "franchises": [
        "fd5d066e-e85a-4eea-8688-2979a887450a"
      ]
    },
    "titles": {
      "eng": "Blooming Dance! Dance!"
    },
    "titles_default_language": "eng",
    "year": 2023
  }
}