{
  "header": {
    "version": 4,
    "description": "Karaoke Mugen Karaoke Data File"
  },
  "medias": [
    {
      "version": "Default",
      "filename": "JPN - Love Live! Superstar!! - LIVE - Free Flight ~ Full Vers.mp4",
      "loudnorm": "-17.96,-2.88,9.10,-28.31,-1.43",
      "filesize": 124600903,
      "duration": 215,
      "default": true,
      "lyrics": [
        {
          "filename": "JPN - Love Live! Superstar!! - LIVE - Free Flight ~ Full Vers.ass",
          "default": true,
          "version": "Default"
        }
      ]
    }
  ],
  "data": {
    "comment": "Xashy a fait la version normale, et je (Aurebleyde) me suis chargé de l'adapter pour la version live après en avoir discuté avec lui",
    "created_at": "2023-08-25T00:48:53.620Z",
    "ignoreHooks": false,
    "kid": "fb243010-08da-42b9-a364-ef7f4b864793",
    "modified_at": "2023-08-25T00:54:57.622Z",
    "parents": [
      "c080cbf9-8b99-4219-96cb-a5c108986831"
    ],
    "repository": "kara.moe",
    "tags": {
      "authors": [
        "065907f6-055d-41ba-b83b-d92f99d8fec9",
        "16b136eb-921f-4c07-be38-ff92d5cc4313"
      ],
      "collections": [
        "dbcf2c22-524d-4708-99bb-601703633927"
      ],
      "creators": [
        "b2805292-730e-473a-96f0-fd8e7ffd1fd7"
      ],
      "families": [
        "5391f9fe-638c-415f-8dc9-958e3a2c5787"
      ],
      "genres": [
        "caa86df2-0d59-474b-885c-f240a9e891b0"
      ],
      "groups": [
        "8e209ae4-4381-438f-89dc-1b21752027d2"
      ],
      "langs": [
        "4dcf9614-7914-42aa-99f4-dbce2e059133"
      ],
      "series": [
        "ed46191b-997b-4c2d-8088-bb30a5e6d4ca"
      ],
      "singers": [
        "c1fd3a67-0c3b-4d95-9cd8-f6aa2c8cc5a8"
      ],
      "singergroups": [
        "f3e5b1d3-30b1-4548-95c8-6cf77216bdbd"
      ],
      "songtypes": [
        "a0167949-580c-4de3-bf13-497e462e02f3"
      ],
      "songwriters": [
        "71f2ca71-a588-4eae-88a9-bd194e224fce",
        "a36e7f58-a528-4783-95cb-638491b6b071",
        "d037b7f5-2aa3-4828-a09b-70727e8a3ad2",
        "f77f4be8-1af3-4bab-9411-759dbd5bb583"
      ],
      "versions": [
        "c2143a7f-6970-450e-8a79-0302db9220a9"
      ],
      "franchises": [
        "fd5d066e-e85a-4eea-8688-2979a887450a"
      ]
    },
    "titles": {
      "eng": "Free Flight"
    },
    "titles_default_language": "eng",
    "year": 2023
  }
}