{
  "header": {
    "version": 4,
    "description": "Karaoke Mugen Karaoke Data File"
  },
  "medias": [
    {
      "version": "Default",
      "filename": "JPN - FLOW - MV - Fuyu no Amaoto.mp4",
      "audiogain": -12.05,
      "loudnorm": "-5.58,2.87,4.80,-15.63,-1.16",
      "filesize": 18547081,
      "duration": 283,
      "default": true,
      "lyrics": [
        {
          "filename": "JPN - FLOW - MV - Fuyu no Amaoto.ass",
          "default": true,
          "version": "Default"
        }
      ]
    }
  ],
  "data": {
    "comment": "Alors je crois pas qu'il y ai eu de musiques de FLOW depuis l'introduction du champ \"du groupe musical\", du coup potentiellement les tags des chanteurs sont à revoir. Avant, on mettait juste \"chanté par\" FLOW, et éventuellement quelques membres dans \"composé par\".",
    "created_at": "2023-03-04T01:23:37.983Z",
    "ignoreHooks": false,
    "kid": "09c56b4a-b63e-4637-994f-4f2f21a2e2dc",
    "modified_at": "2023-03-04T01:24:27.657Z",
    "repository": "kara.moe",
    "tags": {
      "authors": [
        "2c1f4c76-4de9-4548-9aa5-bc64ab296076"
      ],
      "collections": [
        "dbcf2c22-524d-4708-99bb-601703633927"
      ],
      "creators": [
        "6df34030-d5ec-4480-a1c2-20103a7c0b63"
      ],
      "families": [
        "5391f9fe-638c-415f-8dc9-958e3a2c5787"
      ],
      "groups": [
        "3c14c864-533c-49e6-a3cc-6969f1233775"
      ],
      "langs": [
        "4dcf9614-7914-42aa-99f4-dbce2e059133"
      ],
      "misc": [
        "1d6ceadf-a885-47e5-b23b-c07bf668a424"
      ],
      "singers": [
        "ab29c273-6791-4c42-be35-c36a639bfd4a",
        "daae74e4-d769-4496-852d-8d7f909b87a8"
      ],
      "singergroups": [
        "fa3c1f40-c7ef-4ba2-9630-f540bcf94b43"
      ],
      "songtypes": [
        "7be1b15c-cff8-4b37-a649-5c90f3d569a9"
      ],
      "songwriters": [
        "059c908e-e210-4405-a509-04ae79271c6e"
      ]
    },
    "titles": {
      "jpn": "冬の雨音",
      "qro": "Fuyu no Amaoto"
    },
    "titles_default_language": "qro",
    "year": 2008
  }
}