{
  "header": {
    "version": 4,
    "description": "Karaoke Mugen Karaoke Data File"
  },
  "medias": [
    {
      "version": "Default",
      "filename": "JPN - Hibike! Euphonium 2 - ED - Vivace!.mp4",
      "audiogain": 3.5,
      "loudnorm": "-20.79,-8.17,2.80,-30.92,-0.10",
      "filesize": 23808186,
      "duration": 91,
      "default": true,
      "lyrics": [
        {
          "filename": "JPN - Hibike! Euphonium 2 - ED - Vivace!.ass",
          "default": true,
          "version": "Default",
          "subchecksum": "fbfbad8f4b7bff24d9c19ce7805bcd54"
        }
      ]
    }
  ],
  "data": {
    "created_at": "2017-10-11T17:02:19.000Z",
    "kid": "8a142921-28d3-438f-b24e-272eec8cc0ab",
    "modified_at": "2021-02-25T11:40:16.349Z",
    "repository": "kara.moe",
    "tags": {
      "authors": [
        "b62bd925-89e4-4ee4-ba4c-80de93e831b8"
      ],
      "collections": [
        "c7db86a0-ff64-4044-9be4-66dd1ef1d1c1"
      ],
      "creators": [
        "d93786af-5098-49b2-9928-37edfb3d0322"
      ],
      "families": [
        "0377db02-3af6-43b8-9b08-c759df3d25c3"
      ],
      "groups": [
        "8c22c899-b3ed-42da-a548-ce00f950798b",
        "ae613721-1fbe-480d-ba6b-d6d0702b184d"
      ],
      "langs": [
        "4dcf9614-7914-42aa-99f4-dbce2e059133"
      ],
      "origins": [
        "938de218-5343-4865-94d3-fb33f2eaa152"
      ],
      "series": [
        "88f4dc4d-8a78-4bda-8d4d-0878feb5b0cf"
      ],
      "singers": [
        "0a4f3433-d171-4d09-92d7-362c3f91d200",
        "6869c8ab-35dd-432b-b2c0-b948724fce38",
        "b78293e4-0222-4826-961e-cbcdd93121ec",
        "fbbfcd25-2f98-4f94-9b7b-cef201df2859"
      ],
      "songtypes": [
        "38c77c56-2b95-4040-b676-0994a8cb0597"
      ],
      "songwriters": [
        "3acbe973-912e-47ca-b5b2-6563181e0c51"
      ],
      "franchises": [
        "7e9d2ecf-5993-4bb0-99ab-051277eaf525"
      ]
    },
    "title": "Vivace!",
    "titles": {
      "eng": "Vivace!",
      "qro": "Vivace!",
      "jpn": "ヴィヴァーチェ!"
    },
    "year": 2016,
    "titles_default_language": "eng"
  }
}