{
  "header": {
    "version": 4,
    "description": "Karaoke Mugen Karaoke Data File"
  },
  "medias": [
    {
      "version": "Default",
      "filename": "JPN - Dreamcatcher - MV - NO MORE.mp4",
      "audiogain": -2.49,
      "loudnorm": "-13.90,-3.62,3.50,-23.96,-0.59",
      "filesize": 143000628,
      "duration": 192,
      "default": true,
      "lyrics": [
        {
          "filename": "JPN - Dreamcatcher - MV - NO MORE.ass",
          "default": true,
          "version": "Default"
        }
      ]
    }
  ],
  "data": {
    "created_at": "2023-06-09T23:41:15.217Z",
    "ignoreHooks": false,
    "kid": "2745f623-8b8b-47c8-8ef6-ad30e2361aa5",
    "modified_at": "2023-07-20T22:15:59.151Z",
    "repository": "kara.moe",
    "tags": {
      "authors": [
        "f70c7314-b8d3-4bf4-96a0-dc8b2c5a6c94"
      ],
      "collections": [
        "dbcf2c22-524d-4708-99bb-601703633927"
      ],
      "creators": [
        "97e62433-0f2f-4e1b-ba1e-109eec95dc11"
      ],
      "families": [
        "0377db02-3af6-43b8-9b08-c759df3d25c3"
      ],
      "groups": [
        "8e209ae4-4381-438f-89dc-1b21752027d2",
        "966d1e74-d1f2-41e2-ab04-24279c22f562"
      ],
      "langs": [
        "4dcf9614-7914-42aa-99f4-dbce2e059133"
      ],
      "singers": [
        "0efe8a35-ec2a-4d85-9020-90019ec8b3d2",
        "569924fc-0ae7-4dd0-9d98-31efd25d8dff",
        "5b6be5fa-5f0a-4aa6-af51-00ec20141247",
        "64d7e75b-5433-4175-9995-fdc9cf1efb28",
        "d09fd477-72ad-43e1-a244-52f0d296b3ad",
        "e7c26758-c0f3-45d0-a76a-d38659131ca2"
      ],
      "singergroups": [
        "f2c35a04-6f78-42cb-bdd5-6b530f2ce11c"
      ],
      "songtypes": [
        "7be1b15c-cff8-4b37-a649-5c90f3d569a9"
      ],
      "songwriters": [
        "64d0678c-e12a-4e00-a754-a55ed434ba04",
        "69323e03-44fe-421e-b97c-a902607b8cbe",
        "76e68206-5ed7-47fd-8cae-fb5c84ff0d1f",
        "7fd29411-666c-4155-8723-b5ccc61b4f20",
        "a72bfa42-bb54-4832-b1cc-023ffde9ef60",
        "b976faee-1c39-400d-ad74-2c0b17fc8f6f"
      ]
    },
    "titles": {
      "eng": "NO MORE"
    },
    "titles_default_language": "eng",
    "year": 2020
  }
}