{
  "header": {
    "version": 4,
    "description": "Karaoke Mugen Karaoke Data File"
  },
  "medias": [
    {
      "version": "Default",
      "filename": "JPN - ReLife - ED5 - Kore ga Watashi no Ikiru Michi.mp4",
      "audiogain": 2.76,
      "loudnorm": "-20.52,-7.70,5.80,-30.94,0.25",
      "filesize": 21655626,
      "duration": 105,
      "default": true,
      "lyrics": [
        {
          "filename": "JPN - ReLife - ED5 - Kore ga Watashi no Ikiru Michi.ass",
          "default": true,
          "version": "Default",
          "subchecksum": "f292f23af8ef81c668615e2325068f19"
        }
      ]
    }
  ],
  "data": {
    "created_at": "2018-10-28T09:36:53.000Z",
    "kid": "6b47da79-7ab2-4e45-b379-92db338967a5",
    "modified_at": "2021-02-25T12:50:49.801Z",
    "repository": "kara.moe",
    "songorder": 5,
    "tags": {
      "authors": [
        "b5116310-e69b-4ed4-9e47-c5c53ee69023"
      ],
      "collections": [
        "c7db86a0-ff64-4044-9be4-66dd1ef1d1c1"
      ],
      "creators": [
        "53e900ec-a1ff-4c95-8b2d-a63995c2936f"
      ],
      "families": [
        "0377db02-3af6-43b8-9b08-c759df3d25c3"
      ],
      "groups": [
        "ae613721-1fbe-480d-ba6b-d6d0702b184d"
      ],
      "langs": [
        "4dcf9614-7914-42aa-99f4-dbce2e059133"
      ],
      "origins": [
        "938de218-5343-4865-94d3-fb33f2eaa152"
      ],
      "series": [
        "bdbc3ae4-3611-4de1-9fc5-e9286d34ce3b"
      ],
      "singers": [
        "5718ef83-1094-440f-9f24-b4dd99e70ffb"
      ],
      "songtypes": [
        "38c77c56-2b95-4040-b676-0994a8cb0597"
      ],
      "songwriters": [
        "c734e0b4-eba5-4b2b-9a0f-b1d36d300ec5"
      ]
    },
    "title": "Kore ga Watashi no Ikiru Michi",
    "titles": {
      "qro": "Kore ga Watashi no Ikiru Michi",
      "jpn": "これが私の生きる道"
    },
    "year": 2016,
    "titles_default_language": "qro"
  }
}