{
  "header": {
    "version": 4,
    "description": "Karaoke Mugen Karaoke Data File"
  },
  "medias": [
    {
      "version": "Hatsune Miku.",
      "filename": "JPN - MILGRAM - AUDIO - Undercover ~ Hatsune Miku Vers.mp3",
      "audiogain": -8.96,
      "loudnorm": "-8.74,0.31,8.20,-18.83,-0.88",
      "filesize": 8611197,
      "duration": 204,
      "default": true,
      "lyrics": [
        {
          "filename": "JPN - MILGRAM - AUDIO - Undercover ~ Hatsune Miku Vers.ass",
          "default": true,
          "version": "Default"
        }
      ]
    }
  ],
  "data": {
    "created_at": "2021-12-14T22:10:08.564Z",
    "ignoreHooks": false,
    "kid": "8df18fab-ac03-42e6-88ba-0da59a9ef2f0",
    "modified_at": "2022-03-05T19:56:17.559Z",
    "parents": [
      "84fafffd-9a31-4b12-a416-671d14920088"
    ],
    "repository": "kara.moe",
    "tags": {
      "authors": [
        "fb28c6d3-a81e-40c0-9a4c-e3268c60a64b"
      ],
      "collections": [
        "c7db86a0-ff64-4044-9be4-66dd1ef1d1c1"
      ],
      "creators": [
        "f963181a-1214-47f8-b6f9-1705cbc33779"
      ],
      "genres": [
        "45623cae-6d68-4304-a49b-896d1d6f4580"
      ],
      "groups": [
        "8e209ae4-4381-438f-89dc-1b21752027d2"
      ],
      "langs": [
        "4dcf9614-7914-42aa-99f4-dbce2e059133"
      ],
      "series": [
        "c0e3120a-d593-4051-87dd-0bc28a803a5f"
      ],
      "singers": [
        "4407ba0e-5de7-4add-870f-7ac95a4804c9"
      ],
      "songtypes": [
        "42a262ae-acba-4ab5-a446-c5789c96c821"
      ],
      "songwriters": [
        "48c8a778-756b-4ca8-80bc-397fb06ffc7d",
        "6d9eaa90-048f-41d5-a264-8d73df69cc22"
      ]
    },
    "titles": {
      "eng": "Undercover ~ Hatsune Miku Vers.",
      "jpn": "アンダーカバー ～ 初音ミク Vers."
    },
    "title": "Undercover ~ Hatsune Miku Vers.",
    "year": 2020,
    "titles_default_language": "eng"
  }
}