{
  "header": {
    "version": 4,
    "description": "Karaoke Mugen Karaoke Data File"
  },
  "medias": [
    {
      "version": "Default",
      "filename": "JPN - Hypnosis Mic -Division Rap Battle- - MV - SHOWDOWN.mp4",
      "audiogain": -10.95,
      "loudnorm": "-6.18,2.71,3.60,-16.24,-0.64",
      "filesize": 105601628,
      "duration": 269,
      "default": true,
      "lyrics": [
        {
          "filename": "JPN - Hypnosis Mic -Division Rap Battle- - MV - SHOWDOWN.ass",
          "default": true,
          "version": "Default"
        }
      ]
    }
  ],
  "data": {
    "created_at": "2021-11-25T20:55:50.218Z",
    "ignoreHooks": false,
    "kid": "173dd139-bb4b-458c-9ac1-67a19330e101",
    "modified_at": "2023-02-02T18:56:42.243Z",
    "repository": "kara.moe",
    "tags": {
      "authors": [
        "0497f520-93f0-4ae3-a9af-c1a4d53a571c"
      ],
      "collections": [
        "c7db86a0-ff64-4044-9be4-66dd1ef1d1c1"
      ],
      "creators": [
        "57922aa1-eae2-4c1d-946c-bb320505b549",
        "769af53e-df08-4cb5-9cad-7503576dee49",
        "98ab71c6-8066-4d59-84a2-9833a27ec461",
        "d2a29c19-019f-4a3d-86ad-2dae9e41a4b1"
      ],
      "families": [
        "0377db02-3af6-43b8-9b08-c759df3d25c3"
      ],
      "groups": [
        "8e209ae4-4381-438f-89dc-1b21752027d2"
      ],
      "langs": [
        "4dcf9614-7914-42aa-99f4-dbce2e059133"
      ],
      "misc": [
        "ec4fee75-71fb-45b4-9772-2ca374b4b600"
      ],
      "series": [
        "8969c1d9-a552-4216-837c-36945e5e730a"
      ],
      "singers": [
        "01c71ea7-b3d5-4ab2-927e-9f56fb3327fd",
        "1a3f89aa-09c0-46e2-ab7d-87f8ff49d11d",
        "2ebbacb4-48f6-4b38-ab02-24fc5b7ffef8",
        "496d9fd8-7ed9-4c76-9567-332012b1c0ed",
        "6fc680bc-6637-41af-884c-ec7d86524c41",
        "787d9b3d-2e20-4dca-b83c-6c9c1b9e2202",
        "9a9da3af-c891-42ae-bd3e-f0696a361c04",
        "9b55465b-ae63-43ae-a2e9-39a86033392d",
        "d72701c8-4aa0-4619-a4ea-aea77d37422c"
      ],
      "singergroups": [
        "3e33190c-5796-4b46-ba8f-53162959bb1c",
        "58083e61-6d68-48a8-a5b3-4bbfa418cf81",
        "e92f40ba-fd68-4f04-b44a-c1dced02c6c2"
      ],
      "songtypes": [
        "7be1b15c-cff8-4b37-a649-5c90f3d569a9"
      ],
      "songwriters": [
        "062f3fcb-63b9-4874-bd2a-8bc1c04c4b1a",
        "3c5557fb-c51c-45b5-b25c-52351c44f7e7",
        "804bd2d2-297f-41fa-b330-e295fa74a3ed",
        "9dbd204c-f6ec-4a94-beb1-234a39739cf5",
        "df384477-4b4a-4877-979e-72c7f4311187"
      ],
      "franchises": [
        "8969c1d9-a552-4216-837c-36945e5e730a"
      ]
    },
    "titles": {
      "eng": "SHOWDOWN"
    },
    "titles_default_language": "eng",
    "year": 2021
  }
}