{
  "header": {
    "version": 4,
    "description": "Karaoke Mugen Karaoke Data File"
  },
  "medias": [
    {
      "version": "Default",
      "filename": "JPN - Persona 3 Portable - PSP GAME OP - Soul Phrase.mp4",
      "audiogain": -1.05,
      "loudnorm": "-17.90,-6.07,8.20,-28.04,-0.67",
      "filesize": 24398317,
      "duration": 99,
      "default": true,
      "lyrics": [
        {
          "filename": "JPN - Persona 3 Portable - PSP GAME OP - Soul Phrase.ass",
          "default": true,
          "version": "Default",
          "subchecksum": "7a890f8db657ce9ad2340fd6171df40e"
        }
      ]
    }
  ],
  "data": {
    "created_at": "2017-10-11T17:01:46.000Z",
    "kid": "0bdd725e-c1c0-40f0-bbaa-5d49f2f7fbb4",
    "modified_at": "2021-02-25T12:45:12.721Z",
    "repository": "kara.moe",
    "tags": {
      "authors": [
        "5bdaba57-27f8-4568-8806-76a807728766"
      ],
      "collections": [
        "c7db86a0-ff64-4044-9be4-66dd1ef1d1c1"
      ],
      "creators": [
        "e9bb3a58-48d2-478c-bfe7-95237ddfe0fd"
      ],
      "groups": [
        "3c14c864-533c-49e6-a3cc-6969f1233775"
      ],
      "langs": [
        "4dcf9614-7914-42aa-99f4-dbce2e059133"
      ],
      "misc": [
        "fe819ff1-9db8-4a0f-85dc-0e322c9126c4"
      ],
      "platforms": [
        "6b101aff-4b7b-4b0d-b35e-0f1b67e38c9b"
      ],
      "series": [
        "271f0b58-4a8b-47b3-b30d-ed2a283b6d62"
      ],
      "singers": [
        "37f5341e-43f5-4578-93e5-c3fbc07d18c3"
      ],
      "songtypes": [
        "f02ad9b3-0bd9-4aad-85b3-9976739ba0e4"
      ],
      "songwriters": [
        "10d8314d-6441-4ed1-9ae5-44a0f0516c73",
        "ec3a6acb-6751-49d9-84c7-b6b01ec163f4"
      ],
      "franchises": [
        "d8030743-4563-41b9-a3e3-30a0b2fb2edb"
      ],
      "origins": [
        "dbedd6b3-d125-4cd8-aa32-c4175e4ca3a3"
      ]
    },
    "title": "Soul Phrase",
    "titles": {
      "eng": "Soul Phrase"
    },
    "year": 2009,
    "titles_default_language": "eng"
  }
}