{
  "header": {
    "version": 4,
    "description": "Karaoke Mugen Karaoke Data File"
  },
  "medias": [
    {
      "version": "Default",
      "filename": "JPN - Project SEKAI COLORFUL STAGE! - GAME MV - Nomad ~ Short Vers.mp4",
      "audiogain": -8.89,
      "loudnorm": "-8.56,0.79,7.70,-19.08,-1.33",
      "filesize": 8329428,
      "duration": 95,
      "default": true,
      "lyrics": [
        {
          "filename": "JPN - Project SEKAI COLORFUL STAGE! - GAME MV - Nomad ~ Short Vers.ass",
          "default": true,
          "version": "Default"
        }
      ]
    }
  ],
  "data": {
    "created_at": "2022-04-25T23:19:52.716Z",
    "ignoreHooks": false,
    "kid": "b6c3167c-c252-4cfb-a0a5-f41d9ada917d",
    "modified_at": "2022-12-26T21:18:36.421Z",
    "repository": "kara.moe",
    "tags": {
      "authors": [
        "5a629611-96b4-422c-b309-ba7a58e263a2"
      ],
      "collections": [
        "c7db86a0-ff64-4044-9be4-66dd1ef1d1c1"
      ],
      "creators": [
        "1e5648fb-22fc-474d-b865-254eb31fa000"
      ],
      "genres": [
        "45623cae-6d68-4304-a49b-896d1d6f4580"
      ],
      "groups": [
        "8e209ae4-4381-438f-89dc-1b21752027d2"
      ],
      "langs": [
        "4dcf9614-7914-42aa-99f4-dbce2e059133"
      ],
      "misc": [
        "1d6ceadf-a885-47e5-b23b-c07bf668a424"
      ],
      "platforms": [
        "213a1a15-e73a-4a08-b3f6-b6e2745a82e5"
      ],
      "series": [
        "192b33fb-638a-4680-bdb2-a5adb9889849"
      ],
      "singers": [
        "1fd01df9-13c6-4442-a8c9-4d7922152b32",
        "b0672b63-1519-4a34-99f6-039fdade750e",
        "bbf38c20-4ff8-46ca-8e23-55a71286f0ef",
        "dbb8d613-a120-46c7-bb42-bc6c1efb61f7",
        "ee6eeedc-a11b-4bc1-951f-67b6ea7a696a"
      ],
      "singergroups": [
        "210b7f5a-db03-4cb6-ab5d-68052851cbb2"
      ],
      "songtypes": [
        "7be1b15c-cff8-4b37-a649-5c90f3d569a9"
      ],
      "songwriters": [
        "c8b196d3-923c-48f9-b56a-5b7d7af42049"
      ],
      "versions": [
        "d125c80a-86c1-4321-88e9-07b7800679b6"
      ],
      "origins": [
        "dbedd6b3-d125-4cd8-aa32-c4175e4ca3a3"
      ]
    },
    "titles": {
      "jpn": "ノマド",
      "qro": "Nomad"
    },
    "titles_default_language": "qro",
    "year": 2022
  }
}