{
  "header": {
    "version": 4,
    "description": "Karaoke Mugen Karaoke Data File"
  },
  "medias": [
    {
      "version": "Default",
      "filename": "JPN - Touhou - AUDIO - Cirno's Perfect Math Class ~ Cover Metal Vers.mp3",
      "audiogain": -9.49,
      "loudnorm": "-7.04,1.25,1.10,-17.26,0.03",
      "filesize": 3407198,
      "duration": 114,
      "default": true,
      "lyrics": [
        {
          "filename": "JPN - Touhou - AUDIO - Cirno's Perfect Math Class ~ Cover Metal Vers.ass",
          "default": true,
          "version": "Default"
        }
      ]
    }
  ],
  "data": {
    "created_at": "2020-04-17T22:05:19.016Z",
    "ignoreHooks": false,
    "kid": "19a38f2b-f2da-4378-aa0d-a0fd33f48b66",
    "modified_at": "2022-01-27T02:08:30.038Z",
    "parents": [
      "71ede760-e31d-43bc-ab20-7373cbdfb2f1"
    ],
    "repository": "kara.moe",
    "tags": {
      "authors": [
        "87096920-112f-485f-a310-04156cb4624d"
      ],
      "collections": [
        "c7db86a0-ff64-4044-9be4-66dd1ef1d1c1"
      ],
      "groups": [
        "3c14c864-533c-49e6-a3cc-6969f1233775",
        "60defa7b-774e-4680-8321-51b742c2e009"
      ],
      "langs": [
        "4dcf9614-7914-42aa-99f4-dbce2e059133"
      ],
      "series": [
        "1bdaa5a1-dfa6-4365-b746-7a0b194dafd6"
      ],
      "singers": [
        "dfde2895-f443-48b3-b951-591257e173ac"
      ],
      "songtypes": [
        "42a262ae-acba-4ab5-a446-c5789c96c821"
      ],
      "songwriters": [
        "1dae52a9-d1e0-447b-8dd3-cfd10119a3a8",
        "26cb5252-8510-49e0-897c-a611a05fc056",
        "feceb592-efac-4eda-9b03-c27cf509004c"
      ],
      "versions": [
        "03e1e1d2-8641-47b7-bbcb-39a3df9ff21c",
        "188a5c46-63ff-4e9f-89e4-763468b6ea4a"
      ],
      "franchises": [
        "1bdaa5a1-dfa6-4365-b746-7a0b194dafd6"
      ]
    },
    "titles": {
      "eng": "Cirno's Perfect Math Class",
      "qro": "Cirno no Perfect Sansû Kyôshitsu",
      "jpn": "チルノのパーフェクトさんすう教室"
    },
    "titles_aliases": [
      "sansuu",
      "kyoushitsu"
    ],
    "title": "Cirno's Perfect Math Class",
    "year": 2009,
    "titles_default_language": "eng"
  }
}