{
  "header": {
    "version": 4,
    "description": "Karaoke Mugen Karaoke Data File"
  },
  "medias": [
    {
      "version": "Default",
      "filename": "JPN - Major (2010) - ED1 - Twilight Star.mp4",
      "audiogain": -8.55,
      "loudnorm": "-8.38,0.15,3.50,-18.54,-0.29",
      "filesize": 15835074,
      "duration": 90,
      "default": true,
      "lyrics": [
        {
          "filename": "JPN - Major (2010) - ED1 - Twilight Star.ass",
          "default": true,
          "version": "Default",
          "subchecksum": "0c727f9af1a310d1384468f982d41f6a"
        }
      ]
    }
  ],
  "data": {
    "created_at": "2019-07-28T17:49:50.000Z",
    "kid": "0b0e8646-5878-42af-a102-a58b45539abe",
    "modified_at": "2021-02-25T12:20:40.738Z",
    "repository": "kara.moe",
    "songorder": 1,
    "tags": {
      "authors": [
        "42ff8105-afa5-49c2-93b6-7951877c956d"
      ],
      "collections": [
        "c7db86a0-ff64-4044-9be4-66dd1ef1d1c1"
      ],
      "creators": [
        "89712d07-0095-46b2-8399-dfcd8c837884"
      ],
      "families": [
        "0377db02-3af6-43b8-9b08-c759df3d25c3"
      ],
      "genres": [
        "a0aeef4a-6428-45ff-a6e1-468b595930c2"
      ],
      "groups": [
        "ae613721-1fbe-480d-ba6b-d6d0702b184d"
      ],
      "langs": [
        "4dcf9614-7914-42aa-99f4-dbce2e059133"
      ],
      "origins": [
        "938de218-5343-4865-94d3-fb33f2eaa152"
      ],
      "series": [
        "88a1b265-12c0-4c12-b8b6-d7a8d118ad9e"
      ],
      "singers": [
        "a6743e74-c611-4052-9a9f-7798d0263e5c"
      ],
      "songtypes": [
        "38c77c56-2b95-4040-b676-0994a8cb0597"
      ],
      "songwriters": [
        "4e93d87a-958b-4e3b-a666-a99d97b6221e"
      ],
      "franchises": [
        "eaaa382d-05c9-49b3-b971-0046ff846bbf"
      ]
    },
    "title": "Twilight Star",
    "titles": {
      "eng": "Twilight Star",
      "jpn": "トワイライトスター"
    },
    "year": 2010,
    "titles_default_language": "eng"
  }
}