{
  "header": {
    "version": 4,
    "description": "Karaoke Mugen Karaoke Data File"
  },
  "medias": [
    {
      "version": "Default",
      "filename": "JPN - Ou-sama Ranking - ED1 - Oz.mp4",
      "audiogain": 4.04,
      "loudnorm": "-21.22,-12.85,6.60,-31.39,-1.56",
      "filesize": 52107191,
      "duration": 88,
      "default": true,
      "lyrics": [
        {
          "filename": "JPN - Ou-sama Ranking - ED1 - Oz.ass",
          "default": true,
          "version": "Default"
        }
      ]
    }
  ],
  "data": {
    "created_at": "2021-10-18T18:06:00.807Z",
    "kid": "80599a41-815e-4949-adb3-0d148b5aefb2",
    "modified_at": "2022-01-06T21:48:58.533Z",
    "repository": "kara.moe",
    "songorder": 1,
    "tags": {
      "authors": [
        "06852e02-b77e-4106-b6f7-2d03942ad0ea"
      ],
      "collections": [
        "c7db86a0-ff64-4044-9be4-66dd1ef1d1c1"
      ],
      "creators": [
        "5e24aaad-83c9-4d8a-bbb9-37b766278ffe"
      ],
      "families": [
        "0377db02-3af6-43b8-9b08-c759df3d25c3"
      ],
      "groups": [
        "8e209ae4-4381-438f-89dc-1b21752027d2"
      ],
      "langs": [
        "4dcf9614-7914-42aa-99f4-dbce2e059133"
      ],
      "origins": [
        "938de218-5343-4865-94d3-fb33f2eaa152"
      ],
      "series": [
        "901f279d-6daf-4e1c-9692-fb30741f3439"
      ],
      "singers": [
        "7507bc30-9432-43c6-a804-9e70a647f5d4"
      ],
      "songtypes": [
        "38c77c56-2b95-4040-b676-0994a8cb0597"
      ],
      "songwriters": [
        "9a1ce0ac-8888-41e9-8f1d-e5bb41a911bc"
      ]
    },
    "titles": {
      "eng": "Oz."
    },
    "title": "Oz.",
    "year": 2021,
    "titles_default_language": "eng"
  }
}