{
  "header": {
    "version": 4,
    "description": "Karaoke Mugen Karaoke Data File"
  },
  "medias": [
    {
      "version": "Default",
      "filename": "JPN - YOASOBI - MV - Gunjou ~ Off Vocal Vers.mp4",
      "audiogain": -5.2,
      "loudnorm": "-10.38,0.54,3.50,-20.45,-1.20",
      "filesize": 74587803,
      "duration": 262,
      "default": true,
      "lyrics": [
        {
          "filename": "JPN - YOASOBI - MV - Gunjou ~ Off Vocal Vers.ass",
          "default": true,
          "version": "Default"
        }
      ]
    }
  ],
  "data": {
    "created_at": "2021-08-26T20:47:25.975Z",
    "ignoreHooks": false,
    "kid": "2e626891-5435-4333-b9bc-90e270f74e8f",
    "modified_at": "2022-11-19T23:40:08.838Z",
    "repository": "kara.moe",
    "tags": {
      "authors": [
        "78d42fee-8d3e-4bd5-9c44-98ce55f7d21f",
        "90698f28-1d62-4673-82c4-33ae96b1ba97"
      ],
      "collections": [
        "c7db86a0-ff64-4044-9be4-66dd1ef1d1c1"
      ],
      "families": [
        "0377db02-3af6-43b8-9b08-c759df3d25c3"
      ],
      "groups": [
        "8e209ae4-4381-438f-89dc-1b21752027d2"
      ],
      "langs": [
        "4dcf9614-7914-42aa-99f4-dbce2e059133"
      ],
      "singergroups": [
        "e028a7e9-d3f2-4df7-a6ba-c7f78e98b549"
      ],
      "songtypes": [
        "7be1b15c-cff8-4b37-a649-5c90f3d569a9"
      ],
      "songwriters": [
        "ac03c264-7085-486b-a47f-3e7574e51a33"
      ],
      "versions": [
        "c0cc87b9-55b9-40f0-878a-fbb9e34c151e"
      ]
    },
    "titles": {
      "jpn": "群青",
      "qro": "Gunjô"
    },
    "titles_default_language": "qro",
    "titles_aliases": [
      "Gunjou"
    ],
    "year": 2020
  }
}