{
  "header": {
    "version": 4,
    "description": "Karaoke Mugen Karaoke Data File"
  },
  "medias": [
    {
      "version": "Default",
      "filename": "JPN - Kaori Maeda - AUDIO - Hana Kaori Haru Kaoru.mp3",
      "loudnorm": "-9.42,1.65,7.20,-19.57,-1.41",
      "filesize": 9894930,
      "duration": 241,
      "default": true,
      "lyrics": [
        {
          "filename": "JPN - Kaori Maeda - AUDIO - Hana Kaori Haru Kaoru.ass",
          "default": true,
          "version": "Default"
        }
      ]
    }
  ],
  "data": {
    "created_at": "2023-09-12T16:09:03.312Z",
    "ignoreHooks": false,
    "kid": "1841b261-3977-4259-8af4-5fdb69bd01b1",
    "modified_at": "2023-09-12T16:09:03.312Z",
    "repository": "kara.moe",
    "tags": {
      "authors": [
        "16b136eb-921f-4c07-be38-ff92d5cc4313"
      ],
      "collections": [
        "dbcf2c22-524d-4708-99bb-601703633927"
      ],
      "creators": [
        "818d65eb-6436-42e5-be7e-a6b4b4f538b0"
      ],
      "genres": [
        "caa86df2-0d59-474b-885c-f240a9e891b0"
      ],
      "groups": [
        "8e209ae4-4381-438f-89dc-1b21752027d2"
      ],
      "langs": [
        "4dcf9614-7914-42aa-99f4-dbce2e059133"
      ],
      "singers": [
        "747cd011-3914-4212-9079-0da3dd845831"
      ],
      "songtypes": [
        "42a262ae-acba-4ab5-a446-c5789c96c821"
      ],
      "songwriters": [
        "28fda933-ac02-4754-95b8-a2c80bb15937"
      ]
    },
    "titles": {
      "qro": "Hana Kaori Haru Kaoru",
      "jpn": "花香リ春薫ル"
    },
    "titles_default_language": "qro",
    "year": 2023
  }
}