{
  "header": {
    "version": 4,
    "description": "Karaoke Mugen Karaoke Data File"
  },
  "medias": [
    {
      "version": "Default",
      "filename": "JPN - Tokubetsu-hen Hibike! Euphonium Ensemble Contest - MOVIE MV - Ensemble ~ Full Vers.mp4",
      "audiogain": -10.55,
      "loudnorm": "-6.43,1.69,8.10,-16.76,-0.73",
      "filesize": 69311224,
      "duration": 306,
      "default": true,
      "lyrics": [
        {
          "filename": "JPN - Tokubetsu-hen Hibike! Euphonium Ensemble Contest - MOVIE MV - Ensemble ~ Full Vers.ass",
          "default": true,
          "version": "Default"
        }
      ]
    }
  ],
  "data": {
    "comment": "Pour le titre de l'OVA j'ai différent titres dont Gekijouban Hibike! Euphonium: Ensemble Contest-hen (Source: AMQ) que je trouve bizarre vu que c'est pas un film du coup je suis partis sur ANN comme source",
    "created_at": "2023-08-12T08:51:10.088Z",
    "ignoreHooks": false,
    "kid": "18ba813b-6a26-4a9a-acf7-fa1bebaa761c",
    "modified_at": "2023-08-12T08:55:46.610Z",
    "repository": "kara.moe",
    "tags": {
      "authors": [
        "2941868f-535f-4ea6-99f9-a0192e0e4dc7"
      ],
      "collections": [
        "c7db86a0-ff64-4044-9be4-66dd1ef1d1c1"
      ],
      "creators": [
        "d93786af-5098-49b2-9928-37edfb3d0322"
      ],
      "families": [
        "5391f9fe-638c-415f-8dc9-958e3a2c5787"
      ],
      "groups": [
        "8e209ae4-4381-438f-89dc-1b21752027d2"
      ],
      "langs": [
        "4dcf9614-7914-42aa-99f4-dbce2e059133"
      ],
      "misc": [
        "86705d4b-24e4-4756-9687-2b9c98bcf366"
      ],
      "origins": [
        "c8ca9dea-d8b4-48fe-8427-d911653232e9"
      ],
      "series": [
        "1a0e6ec3-0a96-4e16-8819-6959a3e027b1"
      ],
      "singers": [
        "61c5e3d4-6a0e-46b6-b622-06f5bc6d3294"
      ],
      "songtypes": [
        "7be1b15c-cff8-4b37-a649-5c90f3d569a9"
      ],
      "songwriters": [
        "5a90ba74-5e7c-4ccb-a054-a95cc78e8522",
        "7e72484d-b638-4d9a-95f2-5947c59d721b"
      ],
      "versions": [
        "c2143a7f-6970-450e-8a79-0302db9220a9"
      ],
      "franchises": [
        "7e9d2ecf-5993-4bb0-99ab-051277eaf525"
      ]
    },
    "titles": {
      "eng": "Ensemble",
      "jpn": "アンサンブル"
    },
    "titles_default_language": "eng",
    "year": 2023
  }
}