{
  "header": {
    "version": 4,
    "description": "Karaoke Mugen Karaoke Data File"
  },
  "medias": [
    {
      "version": "Default",
      "filename": "JPN - TUYU - MV - Amamoyou.mp4",
      "audiogain": -9.97,
      "loudnorm": "-7.27,1.14,4.00,-17.42,-0.17",
      "filesize": 50812803,
      "duration": 162,
      "default": true,
      "lyrics": [
        {
          "filename": "JPN - TUYU - MV - Amamoyou.ass",
          "default": true,
          "version": "Default"
        }
      ]
    }
  ],
  "data": {
    "created_at": "2022-12-24T21:14:00.696Z",
    "ignoreHooks": false,
    "kid": "662f7486-acc4-45c1-b2bb-a2110c054b34",
    "modified_at": "2023-06-28T11:52:24.490Z",
    "repository": "kara.moe",
    "tags": {
      "authors": [
        "f342e85d-0abd-4895-8850-1198df5d8de2"
      ],
      "collections": [
        "dbcf2c22-524d-4708-99bb-601703633927"
      ],
      "creators": [
        "97e62433-0f2f-4e1b-ba1e-109eec95dc11"
      ],
      "families": [
        "0377db02-3af6-43b8-9b08-c759df3d25c3"
      ],
      "groups": [
        "8e209ae4-4381-438f-89dc-1b21752027d2"
      ],
      "langs": [
        "4dcf9614-7914-42aa-99f4-dbce2e059133"
      ],
      "singers": [
        "59d1295f-d723-464c-9422-96bb55789689"
      ],
      "singergroups": [
        "c76b646b-7af3-4828-988d-c62bc0b6a1d1"
      ],
      "songtypes": [
        "7be1b15c-cff8-4b37-a649-5c90f3d569a9"
      ],
      "songwriters": [
        "85027205-042c-46ec-bc47-f7bd83c694de"
      ]
    },
    "titles": {
      "eng": "Overcast Skies",
      "jpn": "雨模様",
      "qro": "Amamoyou"
    },
    "titles_default_language": "qro",
    "year": 2022
  }
}