{
  "header": {
    "version": 4,
    "description": "Karaoke Mugen Karaoke Data File"
  },
  "medias": [
    {
      "version": "Default",
      "filename": "JPN - Suzumiya Haruhi no Yuuutsu - ED2 - Tomare! ~ Off Vocal Vers.mp4",
      "loudnorm": "-7.89,3.00,4.10,-18.10,-0.20",
      "filesize": 72653543,
      "duration": 64,
      "default": true,
      "lyrics": [
        {
          "filename": "JPN - Suzumiya Haruhi no Yuuutsu - ED2 - Tomare! ~ Off Vocal Vers.ass",
          "default": true,
          "version": "Default"
        }
      ]
    }
  ],
  "data": {
    "comment": "#8874: finalement ce dont j’avais parlé sur #8805 n’a pas l’air de poser tant de problèmes donc je laisse le même .ass ; j’ai synchro l’audio à la milliseconde et mappé sur la vidéo existante (pas de réencodage)",
    "created_at": "2023-09-28T12:43:35.690Z",
    "ignoreHooks": false,
    "kid": "b02fdff6-90a0-4984-915c-a3f17d75b778",
    "modified_at": "2023-09-28T12:43:35.690Z",
    "parents": [
      "65182169-6905-42e1-8ef2-afddef1bf833"
    ],
    "repository": "kara.moe",
    "songorder": 2,
    "tags": {
      "authors": [
        "fa399f2f-ea1d-4902-8796-ea6d8218aff0"
      ],
      "collections": [
        "c7db86a0-ff64-4044-9be4-66dd1ef1d1c1"
      ],
      "creators": [
        "d93786af-5098-49b2-9928-37edfb3d0322"
      ],
      "families": [
        "0377db02-3af6-43b8-9b08-c759df3d25c3"
      ],
      "groups": [
        "3c14c864-533c-49e6-a3cc-6969f1233775"
      ],
      "langs": [
        "4dcf9614-7914-42aa-99f4-dbce2e059133"
      ],
      "misc": [
        "fe819ff1-9db8-4a0f-85dc-0e322c9126c4"
      ],
      "origins": [
        "938de218-5343-4865-94d3-fb33f2eaa152"
      ],
      "series": [
        "4f132535-c7b6-4147-a324-6995aad44df7"
      ],
      "singers": [
        "488aea99-01a0-4c2c-b475-b61d99efe994",
        "8c3ef7dd-5265-4527-ac49-c604ab822add",
        "c1e76c7e-a498-45b7-a1f5-9ec89f0bf560"
      ],
      "songtypes": [
        "38c77c56-2b95-4040-b676-0994a8cb0597"
      ],
      "songwriters": [
        "4f8ba040-1f56-4340-807d-eefa481ae17f",
        "f41e7218-6c19-4e19-9b5f-4612dcd58243"
      ],
      "versions": [
        "c0cc87b9-55b9-40f0-878a-fbb9e34c151e"
      ],
      "franchises": [
        "4f132535-c7b6-4147-a324-6995aad44df7"
      ]
    },
    "titles": {
      "jpn": "止マレ!",
      "qro": "Tomare!"
    },
    "titles_default_language": "qro",
    "year": 2009
  }
}