{
  "header": {
    "version": 4,
    "description": "Karaoke Mugen Karaoke Data File"
  },
  "medias": [
    {
      "version": "Default",
      "filename": "JPN - Ryuu ga Gotoku 6 - PS4 XBOXONE PC GAME IN - Tonight -restart from this night.mp4",
      "audiogain": 0.98,
      "loudnorm": "-18.71,-5.75,5.20,-28.96,-1.34",
      "filesize": 77871043,
      "duration": 132,
      "default": true,
      "lyrics": [
        {
          "filename": "JPN - Ryuu ga Gotoku 6 - PS4 XBOXONE PC GAME IN - Tonight -restart from this night.ass",
          "default": true,
          "version": "Default",
          "subchecksum": "aad2ed92566c24eb604a19064468052c"
        }
      ]
    }
  ],
  "data": {
    "created_at": "2019-03-18T15:25:32.000Z",
    "kid": "0974e701-179f-418f-bd65-dcf984019f23",
    "modified_at": "2021-04-30T11:17:57.788Z",
    "repository": "kara.moe",
    "tags": {
      "authors": [
        "06852e02-b77e-4106-b6f7-2d03942ad0ea"
      ],
      "collections": [
        "c7db86a0-ff64-4044-9be4-66dd1ef1d1c1"
      ],
      "creators": [
        "b8a3778d-0864-4135-9053-1def02d3262e"
      ],
      "groups": [
        "ae613721-1fbe-480d-ba6b-d6d0702b184d"
      ],
      "langs": [
        "4dcf9614-7914-42aa-99f4-dbce2e059133"
      ],
      "platforms": [
        "22840d76-7030-4c3f-ab35-4a863adce093",
        "248d92ee-8c02-43bc-86e2-cc6029883564",
        "3c15f758-e1bc-4266-8bb9-3c14112f504a"
      ],
      "series": [
        "d07a9f53-8840-4b54-a6dc-8d2ee1ad9fc8"
      ],
      "singers": [
        "001574c7-e714-429e-9f67-001d4ddbb080"
      ],
      "songtypes": [
        "5e5250d9-351a-4a82-98eb-55db50ad8962"
      ],
      "songwriters": [
        "b83815fd-309c-4794-88b6-96c5d3fe1813",
        "e7ab380c-0951-487a-9ecd-3808306477c6"
      ],
      "franchises": [
        "d39de2d9-b14c-495d-be4a-8fad3b65305f"
      ],
      "origins": [
        "dbedd6b3-d125-4cd8-aa32-c4175e4ca3a3"
      ]
    },
    "title": "Tonight -restart from this night",
    "titles": {
      "eng": "Tonight -restart from this night"
    },
    "year": 2016,
    "titles_default_language": "eng"
  }
}