{
  "header": {
    "version": 4,
    "description": "Karaoke Mugen Karaoke Data File"
  },
  "medias": [
    {
      "version": "Default",
      "filename": "JPN - ZUTOMAYO - MV - Hanaichi Monnme.mp4",
      "audiogain": -4.22,
      "loudnorm": "-13.16,-4.31,5.50,-23.20,-1.03",
      "filesize": 60100608,
      "duration": 250,
      "default": true,
      "lyrics": [
        {
          "filename": "JPN - ZUTOMAYO - MV - Hanaichi Monnme.ass",
          "default": true,
          "version": "Default"
        }
      ]
    }
  ],
  "data": {
    "created_at": "2023-07-09T18:21:43.406Z",
    "ignoreHooks": false,
    "kid": "f430787c-2b02-4bca-912e-78a179f58613",
    "modified_at": "2023-07-09T19:19:37.602Z",
    "repository": "kara.moe",
    "tags": {
      "authors": [
        "78d42fee-8d3e-4bd5-9c44-98ce55f7d21f",
        "90698f28-1d62-4673-82c4-33ae96b1ba97"
      ],
      "collections": [
        "dbcf2c22-524d-4708-99bb-601703633927"
      ],
      "creators": [
        "7e4b3966-9e00-4593-8047-1b67f358d2b9"
      ],
      "families": [
        "0377db02-3af6-43b8-9b08-c759df3d25c3"
      ],
      "groups": [
        "8e209ae4-4381-438f-89dc-1b21752027d2"
      ],
      "langs": [
        "4dcf9614-7914-42aa-99f4-dbce2e059133"
      ],
      "singers": [
        "d3f693d0-7d45-465e-82ed-a6723c600008"
      ],
      "singergroups": [
        "c7d361f6-c1cf-44b2-b40a-a18aa90f2d8f"
      ],
      "songtypes": [
        "7be1b15c-cff8-4b37-a649-5c90f3d569a9"
      ],
      "songwriters": [
        "c7d361f6-c1cf-44b2-b40a-a18aa90f2d8f",
        "c83db176-81d3-42fe-bd43-daaa2790da33"
      ]
    },
    "titles": {
      "jpn": "花一匁",
      "qro": "Hanaichi Monnme"
    },
    "titles_default_language": "qro",
    "year": 2023
  }
}