{
  "header": {
    "version": 4,
    "description": "Karaoke Mugen Karaoke Data File"
  },
  "medias": [
    {
      "version": "Default",
      "filename": "JPN - Uma Musume Pretty Derby - ED5 - Umapyoi Densetsu.mp4",
      "audiogain": -2.69,
      "loudnorm": "-15.82,-7.13,4.40,-26.00,-0.67",
      "filesize": 105421161,
      "duration": 106,
      "default": true,
      "lyrics": [
        {
          "filename": "JPN - Uma Musume Pretty Derby - ED5 - Umapyoi Densetsu.ass",
          "default": true,
          "version": "Default"
        }
      ]
    }
  ],
  "data": {
    "created_at": "2022-01-10T19:36:37.090Z",
    "ignoreHooks": false,
    "kid": "c5445605-3f4f-4fa0-9c8d-8fcb2baedc15",
    "modified_at": "2022-03-24T14:50:56.634Z",
    "repository": "kara.moe",
    "songorder": 5,
    "tags": {
      "authors": [
        "fa399f2f-ea1d-4902-8796-ea6d8218aff0"
      ],
      "collections": [
        "c7db86a0-ff64-4044-9be4-66dd1ef1d1c1"
      ],
      "creators": [
        "54259fe3-ce0c-4eca-855e-383f2c5be3a9",
        "b2805292-730e-473a-96f0-fd8e7ffd1fd7"
      ],
      "families": [
        "0377db02-3af6-43b8-9b08-c759df3d25c3"
      ],
      "groups": [
        "ae613721-1fbe-480d-ba6b-d6d0702b184d"
      ],
      "langs": [
        "4dcf9614-7914-42aa-99f4-dbce2e059133"
      ],
      "misc": [
        "ec4fee75-71fb-45b4-9772-2ca374b4b600"
      ],
      "origins": [
        "938de218-5343-4865-94d3-fb33f2eaa152"
      ],
      "series": [
        "79f8c677-ee95-452f-bd36-798402079d72"
      ],
      "singers": [
        "54c6a0ff-3d21-4909-98db-a7d336021bfd",
        "99216b8e-b014-41b1-9015-e98d2df6d03e",
        "cc6a5fa0-df35-44d0-a2c9-0a05d7853ef8"
      ],
      "songtypes": [
        "38c77c56-2b95-4040-b676-0994a8cb0597"
      ],
      "songwriters": [
        "70f8e2a1-283c-47e4-aa27-5b79d9dfd4f2"
      ],
      "franchises": [
        "79f8c677-ee95-452f-bd36-798402079d72"
      ]
    },
    "titles": {
      "qro": "Umapyoi Densetsu",
      "jpn": "うまぴょい伝説"
    },
    "titles_default_language": "qro",
    "title": "Umapyoi Densetsu",
    "year": 2018
  }
}