{
  "header": {
    "version": 4,
    "description": "Karaoke Mugen Karaoke Data File"
  },
  "medias": [
    {
      "version": "Default",
      "filename": "JPN - Touhou - AUDIO - Witchcraft Heptagram.mp3",
      "audiogain": -11.43,
      "loudnorm": "-7.08,0.53,13.20,-17.57,-2.03",
      "filesize": 10667730,
      "duration": 258,
      "default": true,
      "lyrics": [
        {
          "filename": "JPN - Touhou - AUDIO - Witchcraft Heptagram.ass",
          "default": true,
          "version": "Default"
        }
      ]
    }
  ],
  "data": {
    "created_at": "2023-07-17T08:04:13.771Z",
    "ignoreHooks": false,
    "kid": "9d67fcfe-9a50-4d63-8ab8-bcf47fac9020",
    "modified_at": "2023-07-17T08:19:01.739Z",
    "repository": "kara.moe",
    "tags": {
      "authors": [
        "cc329a5a-10a0-4e38-ac8d-d4f939d37f10"
      ],
      "collections": [
        "c7db86a0-ff64-4044-9be4-66dd1ef1d1c1"
      ],
      "groups": [
        "ae613721-1fbe-480d-ba6b-d6d0702b184d"
      ],
      "langs": [
        "4dcf9614-7914-42aa-99f4-dbce2e059133"
      ],
      "origins": [
        "ac5085db-52d8-44b4-8fbb-1697b24d2046"
      ],
      "series": [
        "1bdaa5a1-dfa6-4365-b746-7a0b194dafd6"
      ],
      "singers": [
        "a6e3509f-befc-4b8b-ac1c-3614e1c32447"
      ],
      "singergroups": [
        "eb49131c-b890-422d-9947-0e82292801e1"
      ],
      "songtypes": [
        "42a262ae-acba-4ab5-a446-c5789c96c821"
      ],
      "songwriters": [
        "26cb5252-8510-49e0-897c-a611a05fc056",
        "3059eca0-7b9f-41e0-a5a6-2e7e3be5d025",
        "a6e3509f-befc-4b8b-ac1c-3614e1c32447"
      ],
      "franchises": [
        "1bdaa5a1-dfa6-4365-b746-7a0b194dafd6"
      ]
    },
    "titles": {
      "eng": "Witchcraft Heptagram"
    },
    "titles_default_language": "eng",
    "year": 2018
  }
}