{
  "header": {
    "version": 4,
    "description": "Karaoke Mugen Karaoke Data File"
  },
  "medias": [
    {
      "version": "Default",
      "filename": "JPN - Fate kaleid liner Prisma Illya 2wei! - ED - TWO BY TWO.mp4",
      "audiogain": -0.51,
      "loudnorm": "-16.14,-7.61,3.00,-26.21,-0.61",
      "filesize": 22602918,
      "duration": 90,
      "default": true,
      "lyrics": [
        {
          "filename": "JPN - Fate kaleid liner Prisma Illya 2wei! - ED - TWO BY TWO.ass",
          "default": true,
          "version": "Default",
          "subchecksum": "8d8da6f6c77f2e0f44a440a32173856f"
        }
      ]
    }
  ],
  "data": {
    "created_at": "2017-10-11T17:01:16.000Z",
    "kid": "2573d781-9587-4b3c-b3d0-639e899d776b",
    "modified_at": "2021-02-25T11:18:35.582Z",
    "repository": "kara.moe",
    "tags": {
      "authors": [
        "6bebcb04-2694-453c-9e0c-eb1a2e2718d9"
      ],
      "collections": [
        "c7db86a0-ff64-4044-9be4-66dd1ef1d1c1"
      ],
      "creators": [
        "bee26a9b-bc7b-4cdc-9317-6c9ee6707706"
      ],
      "families": [
        "0377db02-3af6-43b8-9b08-c759df3d25c3"
      ],
      "genres": [
        "b84e28f9-db1e-447f-b339-7954c3592523"
      ],
      "groups": [
        "ae613721-1fbe-480d-ba6b-d6d0702b184d"
      ],
      "langs": [
        "4dcf9614-7914-42aa-99f4-dbce2e059133"
      ],
      "origins": [
        "938de218-5343-4865-94d3-fb33f2eaa152"
      ],
      "series": [
        "f1a5f075-bd52-4d46-bb55-9f3a2a4cfc6c"
      ],
      "singers": [
        "fd4434b6-05e7-4bd0-9a61-eeeb163b1ba1"
      ],
      "songtypes": [
        "38c77c56-2b95-4040-b676-0994a8cb0597"
      ],
      "songwriters": [
        "2171ee13-d4af-4a9c-8d59-dc098b4d3669",
        "95f2365a-8fbb-4fa9-a920-bba23c20f93b"
      ],
      "franchises": [
        "564373dc-4cfa-454e-8af1-bcccb886c007"
      ]
    },
    "title": "TWO BY TWO",
    "titles": {
      "eng": "TWO BY TWO"
    },
    "year": 2014,
    "titles_default_language": "eng"
  }
}