{
  "header": {
    "version": 4,
    "description": "Karaoke Mugen Karaoke Data File"
  },
  "medias": [
    {
      "version": "Default",
      "filename": "JPN - Flare Shiranui - MV - SKYSONAR ~ Off Vocal Vers.mp4",
      "audiogain": -4.51,
      "loudnorm": "-12.94,-1.01,10.20,-23.32,0.15",
      "filesize": 84590332,
      "duration": 279,
      "default": true,
      "lyrics": [
        {
          "filename": "JPN - Flare Shiranui - MV - SKYSONAR ~ Off Vocal Vers.ass",
          "default": true,
          "version": "Default"
        }
      ]
    }
  ],
  "data": {
    "created_at": "2023-07-24T16:33:56.248Z",
    "ignoreHooks": false,
    "kid": "887a7b0a-8b99-4f37-b9cb-9d55afd06ef0",
    "modified_at": "2023-07-24T16:33:56.618Z",
    "parents": [
      "d14e5c3b-742a-4789-b87d-89ef82196e04"
    ],
    "repository": "kara.moe",
    "tags": {
      "authors": [
        "4b50fcec-273e-4cc5-83f2-b156c2300f7f",
        "79e0aa7d-da9a-4e9a-aa2b-64056a83b49b"
      ],
      "collections": [
        "c7db86a0-ff64-4044-9be4-66dd1ef1d1c1"
      ],
      "creators": [
        "0263d413-17bb-4cee-a311-6dd896eda1c9"
      ],
      "families": [
        "0377db02-3af6-43b8-9b08-c759df3d25c3"
      ],
      "groups": [
        "8e209ae4-4381-438f-89dc-1b21752027d2"
      ],
      "langs": [
        "4dcf9614-7914-42aa-99f4-dbce2e059133"
      ],
      "origins": [
        "5106d71b-a78e-4d19-a16d-f8fb6719538a"
      ],
      "singers": [
        "1813f043-d361-4df9-9cdf-24e3d0d1044c"
      ],
      "songtypes": [
        "7be1b15c-cff8-4b37-a649-5c90f3d569a9"
      ],
      "songwriters": [
        "673d8a08-c2ae-4136-a4cf-454555873b24"
      ],
      "versions": [
        "c0cc87b9-55b9-40f0-878a-fbb9e34c151e"
      ]
    },
    "titles": {
      "eng": "SKYSONAR"
    },
    "titles_default_language": "eng",
    "year": 2023
  }
}