{
  "header": {
    "version": 4,
    "description": "Karaoke Mugen Karaoke Data File"
  },
  "medias": [
    {
      "version": "Default",
      "filename": "JPN - Touhou - AUDIO - Koi no mushi.mp3",
      "audiogain": -9.93,
      "loudnorm": "-7.21,0.48,8.10,-17.50,-1.27",
      "filesize": 11670321,
      "duration": 283,
      "default": true,
      "lyrics": [
        {
          "filename": "JPN - Touhou - AUDIO - Koi no mushi.ass",
          "default": true,
          "version": "Default"
        }
      ]
    }
  ],
  "data": {
    "created_at": "2023-03-05T14:27:45.361Z",
    "ignoreHooks": false,
    "kid": "297c45e0-9525-4851-819f-ba9a90ad065b",
    "modified_at": "2023-03-26T21:48:21.890Z",
    "repository": "kara.moe",
    "tags": {
      "authors": [
        "0d6a6894-c57e-47aa-90b1-8a673e277813"
      ],
      "collections": [
        "c7db86a0-ff64-4044-9be4-66dd1ef1d1c1"
      ],
      "creators": [
        "8a95e32b-e2f7-4d02-8d58-13b1b8176764"
      ],
      "groups": [
        "ae613721-1fbe-480d-ba6b-d6d0702b184d",
        "df5f446f-d161-4760-8e0c-822e70ea03ae"
      ],
      "langs": [
        "4dcf9614-7914-42aa-99f4-dbce2e059133"
      ],
      "series": [
        "1bdaa5a1-dfa6-4365-b746-7a0b194dafd6"
      ],
      "singers": [
        "5d323e8f-69b4-40de-a603-aaca495086b8"
      ],
      "songtypes": [
        "42a262ae-acba-4ab5-a446-c5789c96c821"
      ],
      "songwriters": [
        "0722b729-a7e1-47bc-a9ea-6f41857564b6",
        "3de506f0-c77f-458b-9506-863f0413ef2f"
      ],
      "franchises": [
        "1bdaa5a1-dfa6-4365-b746-7a0b194dafd6"
      ]
    },
    "titles": {
      "jpn": "恋ノ蟲",
      "qro": "Koi no mushi"
    },
    "titles_default_language": "qro",
    "year": 2014
  }
}