{
  "header": {
    "version": 4,
    "description": "Karaoke Mugen Karaoke Data File"
  },
  "medias": [
    {
      "version": "Default",
      "filename": "JPN - Link! Like! Love Live! - LIVE MV - Natsumeki Pain.mp4",
      "loudnorm": "-14.60,-2.75,5.30,-24.74,-1.14",
      "filesize": 158695839,
      "duration": 201,
      "default": true,
      "lyrics": [
        {
          "filename": "JPN - Link! Like! Love Live! - LIVE MV - Natsumeki Pain.ass",
          "default": true,
          "version": "Default"
        }
      ]
    }
  ],
  "data": {
    "comment": "lien du mv si besoin : https://www.youtube.com/watch?v=nF3s1RC_HDA // j'ai mis concert + MV car y'a le concert virtuel derrière et ils ont fait une lyric vidéo par dessus",
    "created_at": "2023-09-23T22:57:02.464Z",
    "ignoreHooks": false,
    "kid": "c575843e-baaa-49b7-9b28-5e37c6dfe11f",
    "modified_at": "2023-09-23T22:57:02.464Z",
    "repository": "kara.moe",
    "tags": {
      "authors": [
        "16b136eb-921f-4c07-be38-ff92d5cc4313"
      ],
      "collections": [
        "dbcf2c22-524d-4708-99bb-601703633927"
      ],
      "creators": [
        "b2805292-730e-473a-96f0-fd8e7ffd1fd7"
      ],
      "families": [
        "0377db02-3af6-43b8-9b08-c759df3d25c3"
      ],
      "genres": [
        "caa86df2-0d59-474b-885c-f240a9e891b0"
      ],
      "groups": [
        "8e209ae4-4381-438f-89dc-1b21752027d2"
      ],
      "langs": [
        "4dcf9614-7914-42aa-99f4-dbce2e059133"
      ],
      "misc": [
        "1d6ceadf-a885-47e5-b23b-c07bf668a424"
      ],
      "series": [
        "c6245b47-6ad8-498a-b790-e6b8a50fea5e"
      ],
      "singers": [
        "1a912ff3-ff2f-4e8a-92de-d2adbb19d0b3",
        "4e39a0e7-c012-4be9-a2c9-f09cf8d3a31b",
        "17818c7e-96d1-49fa-963d-10736db97eaf",
        "1f0b407a-7bf9-457c-aabf-7d7297c75be2",
        "f5569c82-f01f-4cdb-b1c2-a0db10706211",
        "e3d01809-fae7-4e97-bff3-73e4fc204ef3"
      ],
      "singergroups": [
        "dac54d91-1b9b-4d49-843a-122b083d310d"
      ],
      "songtypes": [
        "a0167949-580c-4de3-bf13-497e462e02f3",
        "7be1b15c-cff8-4b37-a649-5c90f3d569a9"
      ],
      "songwriters": [
        "fcf883e1-0ac5-4fbc-9f3f-d3edcc102c20",
        "246d8bfc-ad0b-4913-954f-52fc40f1bb1f",
        "a0c2e46b-d1b6-4d3d-aefd-cdd5c532e5bd",
        "8e65a5b9-024f-4ce3-a359-c3a6c35d3fa5"
      ],
      "franchises": [
        "fd5d066e-e85a-4eea-8688-2979a887450a"
      ]
    },
    "titles": {
      "qro": "Natsumeki Pain",
      "jpn": "夏めきペイン"
    },
    "titles_default_language": "qro",
    "year": 2023
  }
}