{
  "header": {
    "version": 4,
    "description": "Karaoke Mugen Karaoke Data File"
  },
  "medias": [
    {
      "version": "Default",
      "filename": "JPN - Watashi no Shiawase na Kekkon - MV - Anata no Soba ni. ~ Full Vers.mp4",
      "audiogain": -9.86,
      "loudnorm": "-7.78,1.23,8.20,-17.95,-1.58",
      "filesize": 43760804,
      "duration": 255,
      "default": true,
      "lyrics": [
        {
          "filename": "JPN - Watashi no Shiawase na Kekkon - MV - Anata no Soba ni. ~ Full Vers.ass",
          "default": true,
          "version": "Default"
        }
      ]
    }
  ],
  "data": {
    "created_at": "2023-07-15T16:25:42.344Z",
    "ignoreHooks": false,
    "kid": "e16d2452-7562-487c-ae33-d3d1a67dcd06",
    "modified_at": "2023-07-15T16:25:42.447Z",
    "parents": [
      "a7c2c6e0-1beb-4576-b2d5-a026fd03be12"
    ],
    "repository": "kara.moe",
    "tags": {
      "authors": [
        "7848b5dc-a5df-4577-b640-147be5288cec"
      ],
      "collections": [
        "dbcf2c22-524d-4708-99bb-601703633927"
      ],
      "creators": [
        "6697d31b-7f60-4d11-b237-8eb72740fd8a"
      ],
      "families": [
        "5391f9fe-638c-415f-8dc9-958e3a2c5787"
      ],
      "groups": [
        "8e209ae4-4381-438f-89dc-1b21752027d2"
      ],
      "langs": [
        "4dcf9614-7914-42aa-99f4-dbce2e059133"
      ],
      "origins": [
        "938de218-5343-4865-94d3-fb33f2eaa152"
      ],
      "series": [
        "3980cf61-28bd-4015-b43f-2e44edb472a2"
      ],
      "singers": [
        "5144fcd3-44a7-4bb4-8cdf-be3aeb556d8a"
      ],
      "songtypes": [
        "7be1b15c-cff8-4b37-a649-5c90f3d569a9"
      ],
      "songwriters": [
        "5144fcd3-44a7-4bb4-8cdf-be3aeb556d8a"
      ],
      "versions": [
        "c2143a7f-6970-450e-8a79-0302db9220a9"
      ]
    },
    "titles": {
      "jpn": "貴方の側に。",
      "qro": "Anata no Soba ni."
    },
    "titles_default_language": "qro",
    "year": 2023
  }
}