{
  "header": {
    "version": 4,
    "description": "Karaoke Mugen Karaoke Data File"
  },
  "medias": [
    {
      "version": "Default",
      "filename": "JPN - Bleach - OP15 - Harukaze.mp4",
      "audiogain": -11.4,
      "loudnorm": "-6.69,1.88,4.70,-16.76,-0.61",
      "filesize": 48843289,
      "duration": 91,
      "default": true,
      "lyrics": [
        {
          "filename": "JPN - Bleach - OP15 - Harukaze.ass",
          "default": true,
          "version": "Default"
        }
      ]
    }
  ],
  "data": {
    "created_at": "2017-10-11T17:02:58.000Z",
    "kid": "00ba6470-d256-42cf-81d5-5b6971d4b044",
    "modified_at": "2021-08-08T22:05:03.363Z",
    "repository": "kara.moe",
    "songorder": 15,
    "tags": {
      "authors": [
        "5bdaba57-27f8-4568-8806-76a807728766"
      ],
      "collections": [
        "c7db86a0-ff64-4044-9be4-66dd1ef1d1c1"
      ],
      "creators": [
        "aaff4ba6-9a12-4bac-9bd0-c0cb783e4177"
      ],
      "families": [
        "0377db02-3af6-43b8-9b08-c759df3d25c3"
      ],
      "genres": [
        "a0aeef4a-6428-45ff-a6e1-468b595930c2"
      ],
      "groups": [
        "ae613721-1fbe-480d-ba6b-d6d0702b184d"
      ],
      "langs": [
        "4dcf9614-7914-42aa-99f4-dbce2e059133"
      ],
      "origins": [
        "938de218-5343-4865-94d3-fb33f2eaa152"
      ],
      "series": [
        "d68e6557-fdc3-4c8b-805c-9778918abd03"
      ],
      "singers": [
        "581aad8c-8d51-44af-8b8c-4b1a507484eb"
      ],
      "songtypes": [
        "f02ad9b3-0bd9-4aad-85b3-9976739ba0e4"
      ],
      "songwriters": [
        "581aad8c-8d51-44af-8b8c-4b1a507484eb",
        "bdd97cd9-f190-4e4c-a0f1-91e16f119273"
      ],
      "franchises": [
        "d68e6557-fdc3-4c8b-805c-9778918abd03"
      ]
    },
    "title": "Harukaze",
    "titles": {
      "qro": "HARUKAZE"
    },
    "year": 2012,
    "titles_default_language": "qro"
  }
}