{
  "header": {
    "version": 4,
    "description": "Karaoke Mugen Karaoke Data File"
  },
  "medias": [
    {
      "version": "Default",
      "filename": "JPN - InuYasha - MV - Every Heart Minna no Kimochi ~ Full Vers.mp4",
      "audiogain": -6.07,
      "loudnorm": "-12.19,0.40,9.60,-22.49,-1.25",
      "filesize": 36139525,
      "duration": 278,
      "default": true,
      "lyrics": [
        {
          "filename": "JPN - InuYasha - MV - Every Heart Minna no Kimochi ~ Full Vers.ass",
          "default": true,
          "version": "Default"
        }
      ]
    }
  ],
  "data": {
    "created_at": "2021-06-06T17:09:47.654Z",
    "kid": "9a913c6c-7e1c-415c-8a54-a9231df4beee",
    "modified_at": "2022-06-04T00:22:07.670Z",
    "parents": [
      "ff298205-8cd5-4389-86e9-ca058196266f"
    ],
    "repository": "kara.moe",
    "songorder": null,
    "tags": {
      "authors": [
        "4d71ce82-eed1-4c44-ac85-5f7255f3dad3"
      ],
      "creators": [
        "90caf15e-bc86-46e1-8793-9af7906c8310"
      ],
      "families": [
        "5391f9fe-638c-415f-8dc9-958e3a2c5787"
      ],
      "groups": [
        "3c14c864-533c-49e6-a3cc-6969f1233775"
      ],
      "langs": [
        "4dcf9614-7914-42aa-99f4-dbce2e059133"
      ],
      "series": [
        "6dee9f39-547e-4426-8484-3d375fd586da"
      ],
      "singers": [
        "3d1909d8-b30c-4b81-8550-914f092c5544"
      ],
      "songtypes": [
        "7be1b15c-cff8-4b37-a649-5c90f3d569a9"
      ],
      "songwriters": [
        "8c67056d-d624-4a36-a2d6-1de8e015fdea",
        "dc26c201-943f-46f0-8195-19d80b3761dc"
      ],
      "versions": [
        "c2143a7f-6970-450e-8a79-0302db9220a9"
      ],
      "collections": [
        "dbcf2c22-524d-4708-99bb-601703633927"
      ],
      "franchises": [
        "6dee9f39-547e-4426-8484-3d375fd586da"
      ]
    },
    "titles": {
      "qro": "Every Heart -Minna no Kimochi-",
      "jpn": "Every Heart-ミンナノキモチ-"
    },
    "titles_default_language": "qro",
    "title": "Every Heart: Minna no Kimochi",
    "year": 2002
  }
}