{
  "header": {
    "version": 4,
    "description": "Karaoke Mugen Karaoke Data File"
  },
  "medias": [
    {
      "version": "Default",
      "filename": "JPN - Link! Like! Love Live! - AUDIO - Kimi no Kokoro wa Kagayaiteru kai question_mark ~ Cover Short Vers.mp3",
      "loudnorm": "-9.05,1.20,2.20,-19.19,-0.06",
      "filesize": 4897512,
      "duration": 114,
      "default": true,
      "lyrics": [
        {
          "filename": "JPN - Link! Like! Love Live! - AUDIO - Kimi no Kokoro wa Kagayaiteru kai question_mark ~ Cover Short Vers.ass",
          "default": true,
          "version": "Default"
        }
      ]
    }
  ],
  "data": {
    "created_at": "2023-09-23T21:49:44.192Z",
    "ignoreHooks": false,
    "kid": "e74fe675-49f7-4bd5-b725-0e3297188809",
    "modified_at": "2023-09-24T22:11:29.152Z",
    "parents": [
      "9a0bc143-0e5c-4618-a6ee-f7d53986f39f"
    ],
    "repository": "kara.moe",
    "tags": {
      "authors": [
        "16b136eb-921f-4c07-be38-ff92d5cc4313"
      ],
      "collections": [
        "dbcf2c22-524d-4708-99bb-601703633927"
      ],
      "creators": [
        "b2805292-730e-473a-96f0-fd8e7ffd1fd7"
      ],
      "genres": [
        "caa86df2-0d59-474b-885c-f240a9e891b0"
      ],
      "groups": [
        "8e209ae4-4381-438f-89dc-1b21752027d2"
      ],
      "langs": [
        "4dcf9614-7914-42aa-99f4-dbce2e059133"
      ],
      "misc": [
        "1d6ceadf-a885-47e5-b23b-c07bf668a424"
      ],
      "series": [
        "c6245b47-6ad8-498a-b790-e6b8a50fea5e"
      ],
      "singers": [
        "1a912ff3-ff2f-4e8a-92de-d2adbb19d0b3",
        "1f0b407a-7bf9-457c-aabf-7d7297c75be2"
      ],
      "singergroups": [
        "c60ae79c-f8cf-466f-abc1-d008ff6cab25"
      ],
      "songtypes": [
        "42a262ae-acba-4ab5-a446-c5789c96c821"
      ],
      "songwriters": [
        "445d6e5a-3503-4837-8830-d54f911e77c4",
        "f41e7218-6c19-4e19-9b5f-4612dcd58243"
      ],
      "versions": [
        "03e1e1d2-8641-47b7-bbcb-39a3df9ff21c",
        "d125c80a-86c1-4321-88e9-07b7800679b6"
      ],
      "franchises": [
        "fd5d066e-e85a-4eea-8688-2979a887450a"
      ]
    },
    "titles": {
      "jpn": "君のこころは輝いてるかい?",
      "qro": "Kimi no Kokoro wa Kagayaiteru kai?"
    },
    "titles_default_language": "qro",
    "year": 2023
  }
}