{
  "header": {
    "version": 4,
    "description": "Karaoke Mugen Karaoke Data File"
  },
  "medias": [
    {
      "version": "Default",
      "filename": "JPN - K-ON! - AUDIO OP - Cagayake! GIRLS ~ Full Vers.mp3",
      "audiogain": -11.62,
      "loudnorm": "-5.91,1.33,1.70,-15.94,-0.15",
      "filesize": 10238192,
      "duration": 250,
      "default": true,
      "lyrics": [
        {
          "filename": "JPN - K-ON! - AUDIO OP - Cagayake! GIRLS ~ Full Vers.ass",
          "default": true,
          "version": "Default"
        }
      ]
    }
  ],
  "data": {
    "created_at": "2023-06-25T00:53:40.356Z",
    "ignoreHooks": false,
    "kid": "49079f08-3b05-446b-8e56-12ee4bd9f0a0",
    "modified_at": "2023-06-25T00:55:21.573Z",
    "parents": [
      "190d52ab-ebf1-495c-92d8-75fabd6da8e3"
    ],
    "repository": "kara.moe",
    "tags": {
      "authors": [
        "1db1738f-acdc-42fc-aec3-60f4bddf660d"
      ],
      "collections": [
        "dbcf2c22-524d-4708-99bb-601703633927"
      ],
      "creators": [
        "97e62433-0f2f-4e1b-ba1e-109eec95dc11"
      ],
      "groups": [
        "3c14c864-533c-49e6-a3cc-6969f1233775"
      ],
      "langs": [
        "4dcf9614-7914-42aa-99f4-dbce2e059133"
      ],
      "misc": [
        "fe819ff1-9db8-4a0f-85dc-0e322c9126c4"
      ],
      "origins": [
        "938de218-5343-4865-94d3-fb33f2eaa152"
      ],
      "series": [
        "77de22c4-04a2-4f45-9277-bc2c21922a22"
      ],
      "singers": [
        "19de5aa5-60be-4834-985d-7ad3f886311c",
        "a193b82b-0c3c-44df-ade9-f21077bef97f",
        "e57f782d-e2ef-4248-ba60-4627cb31f522",
        "f2e9d52b-1b80-4fb5-8754-628462e094e5"
      ],
      "singergroups": [
        "1a98452f-597a-4bf5-bec6-59b8439527db"
      ],
      "songtypes": [
        "42a262ae-acba-4ab5-a446-c5789c96c821",
        "f02ad9b3-0bd9-4aad-85b3-9976739ba0e4"
      ],
      "songwriters": [
        "5eea063b-c020-48c5-9675-6988a2159cb2",
        "e23950b8-7176-46bc-bb23-3d2cb566dc78"
      ],
      "versions": [
        "c2143a7f-6970-450e-8a79-0302db9220a9"
      ],
      "franchises": [
        "5bf6f59d-2272-44aa-b354-ebf3f31f0171"
      ]
    },
    "titles": {
      "jpn": "Cagayake! GIRLS",
      "qro": "Cagayake! GIRLS"
    },
    "titles_default_language": "qro",
    "titles_aliases": [
      "Sakurakou"
    ],
    "year": 2009
  }
}