{
  "header": {
    "version": 4,
    "description": "Karaoke Mugen Karaoke Data File"
  },
  "medias": [
    {
      "version": "Default",
      "filename": "JPN - Miku Hatsune - MV - Beat Eater.mp4",
      "audiogain": -8.95,
      "loudnorm": "-7.75,1.36,3.30,-17.79,-0.53",
      "filesize": 24415481,
      "duration": 218,
      "default": true,
      "lyrics": [
        {
          "filename": "JPN - Miku Hatsune - MV - Beat Eater.ass",
          "default": true,
          "version": "Default"
        }
      ]
    }
  ],
  "data": {
    "created_at": "2022-04-21T23:44:07.018Z",
    "ignoreHooks": false,
    "kid": "84c32dee-f3bb-42bf-ba3a-96ec776bbc5f",
    "modified_at": "2022-05-28T16:41:56.166Z",
    "parents": [
      "c99b13e1-2969-4d6d-9af1-5a5bf12c331a"
    ],
    "repository": "kara.moe",
    "tags": {
      "authors": [
        "10891649-d475-46eb-b515-8eb3c1e14622"
      ],
      "collections": [
        "c7db86a0-ff64-4044-9be4-66dd1ef1d1c1"
      ],
      "creators": [
        "8eb5350d-a26c-4431-9427-187d1746b2ba"
      ],
      "families": [
        "0377db02-3af6-43b8-9b08-c759df3d25c3"
      ],
      "genres": [
        "45623cae-6d68-4304-a49b-896d1d6f4580"
      ],
      "groups": [
        "8e209ae4-4381-438f-89dc-1b21752027d2"
      ],
      "langs": [
        "4dcf9614-7914-42aa-99f4-dbce2e059133"
      ],
      "singers": [
        "4407ba0e-5de7-4add-870f-7ac95a4804c9"
      ],
      "songtypes": [
        "7be1b15c-cff8-4b37-a649-5c90f3d569a9"
      ],
      "songwriters": [
        "05dcfd3a-8364-4fc9-891f-ad37784cd104"
      ]
    },
    "titles": {
      "eng": "Beat Eater"
    },
    "titles_default_language": "eng",
    "title": "Beat Eater",
    "year": 2021
  }
}