{
  "header": {
    "version": 4,
    "description": "Karaoke Mugen Karaoke Data File"
  },
  "medias": [
    {
      "version": "Default",
      "filename": "JPN - Tokyo Revengers - MV - Cry Baby ~ Full Off Vocal Vers.mp4",
      "audiogain": -6.96,
      "loudnorm": "-9.05,0.34,4.70,-19.11,-0.64",
      "filesize": 123528955,
      "duration": 240,
      "default": true,
      "lyrics": [
        {
          "filename": "JPN - Tokyo Revengers - MV - Cry Baby ~ Full Off Vocal Vers.ass",
          "default": true,
          "version": "Default"
        }
      ]
    }
  ],
  "data": {
    "created_at": "2022-06-01T22:04:59.669Z",
    "ignoreHooks": false,
    "kid": "fb87cb2b-019d-430e-8f3d-a4ceb6db1c78",
    "modified_at": "2022-07-02T21:53:06.305Z",
    "parents": [
      "81fb079a-fd44-476b-b490-b8dda0d02ecb"
    ],
    "repository": "kara.moe",
    "tags": {
      "authors": [
        "84157b43-8a7a-482c-95d3-516757353835",
        "90698f28-1d62-4673-82c4-33ae96b1ba97"
      ],
      "collections": [
        "dbcf2c22-524d-4708-99bb-601703633927"
      ],
      "families": [
        "5391f9fe-638c-415f-8dc9-958e3a2c5787"
      ],
      "groups": [
        "8e209ae4-4381-438f-89dc-1b21752027d2"
      ],
      "langs": [
        "4dcf9614-7914-42aa-99f4-dbce2e059133"
      ],
      "series": [
        "e82d7f67-ed96-4fa8-a64c-b2ac4680a7aa"
      ],
      "singers": [
        "a6faab1b-859e-4068-971a-c6ff47788c8a"
      ],
      "songtypes": [
        "7be1b15c-cff8-4b37-a649-5c90f3d569a9"
      ],
      "songwriters": [
        "ed300e84-8415-4842-8003-8244d2b2fb2c"
      ],
      "versions": [
        "c0cc87b9-55b9-40f0-878a-fbb9e34c151e",
        "c2143a7f-6970-450e-8a79-0302db9220a9"
      ]
    },
    "titles": {
      "eng": "Cry Baby"
    },
    "titles_default_language": "eng",
    "title": "Cry Baby",
    "year": 2021
  }
}