{
  "header": {
    "version": 4,
    "description": "Karaoke Mugen Karaoke Data File"
  },
  "medias": [
    {
      "version": "Default",
      "filename": "JPN - Touhou - MV - Touhou Suimusou (hatsunetsu mix.).mp4",
      "audiogain": -4.63,
      "loudnorm": "-12.70,-3.18,4.50,-23.06,0.83",
      "filesize": 15430824,
      "duration": 91,
      "default": true,
      "lyrics": [
        {
          "filename": "JPN - Touhou - MV - Touhou Suimusou (hatsunetsu mix.).ass",
          "default": true,
          "version": "Default"
        }
      ]
    }
  ],
  "data": {
    "created_at": "2019-09-07T17:38:10.000Z",
    "ignoreHooks": false,
    "kid": "e50e6e53-06c9-44e2-9b24-7a2070251fb0",
    "modified_at": "2022-10-14T20:33:25.299Z",
    "repository": "kara.moe",
    "tags": {
      "authors": [
        "2b4e9972-5e17-481b-99f5-d0787c0ada56"
      ],
      "collections": [
        "c7db86a0-ff64-4044-9be4-66dd1ef1d1c1"
      ],
      "creators": [
        "7ff61c06-e08a-4670-8cae-0193cec870c8"
      ],
      "families": [
        "0377db02-3af6-43b8-9b08-c759df3d25c3"
      ],
      "groups": [
        "2b4e9972-5e17-481b-99f5-d0787c0ada56",
        "3c14c864-533c-49e6-a3cc-6969f1233775"
      ],
      "langs": [
        "4dcf9614-7914-42aa-99f4-dbce2e059133"
      ],
      "origins": [
        "ac5085db-52d8-44b4-8fbb-1697b24d2046"
      ],
      "series": [
        "1bdaa5a1-dfa6-4365-b746-7a0b194dafd6"
      ],
      "singers": [
        "d7371c3d-5f49-4e99-abf6-c014518614ac"
      ],
      "songtypes": [
        "7be1b15c-cff8-4b37-a649-5c90f3d569a9"
      ],
      "songwriters": [
        "26cb5252-8510-49e0-897c-a611a05fc056",
        "9bb6d2bd-30b1-446a-b0d4-29da1fd5f927",
        "f1905129-b41f-43b4-95a3-e5d0aa8c3d58",
        "870733a8-7d96-4712-a0ee-dfd6746f25b4"
      ],
      "franchises": [
        "1bdaa5a1-dfa6-4365-b746-7a0b194dafd6"
      ]
    },
    "titles": {
      "jpn": "東方萃夢想 (hatsunetsu mix.)",
      "qro": "Touhou Suimusou (hatsunetsu mix.)"
    },
    "titles_default_language": "qro",
    "title": "Touhou Suimusou (hatsunetsu mix.)",
    "year": 2009
  }
}