{
  "header": {
    "version": 4,
    "description": "Karaoke Mugen Karaoke Data File"
  },
  "medias": [
    {
      "version": "Default",
      "filename": "JPN - angela - AUDIO - Butterfly ~ Off Vocal Vers.mp3",
      "audiogain": -8.3,
      "loudnorm": "-8.94,0.99,3.00,-18.99,-0.09",
      "filesize": 10160277,
      "duration": 249,
      "default": true,
      "lyrics": [
        {
          "filename": "JPN - angela - AUDIO - Butterfly ~ Off Vocal Vers.ass",
          "default": true,
          "version": "Default"
        }
      ]
    }
  ],
  "data": {
    "created_at": "2023-06-20T03:26:18.132Z",
    "ignoreHooks": false,
    "kid": "7fd41311-4413-43f8-92ac-d8109fd5179e",
    "modified_at": "2023-06-20T03:28:55.604Z",
    "parents": [
      "baba4fe1-2212-4bba-a1a5-66b286f4b3bb"
    ],
    "repository": "kara.moe",
    "tags": {
      "authors": [
        "1db1738f-acdc-42fc-aec3-60f4bddf660d"
      ],
      "collections": [
        "dbcf2c22-524d-4708-99bb-601703633927"
      ],
      "creators": [
        "61cc9c5d-9e95-4a55-b6ab-2529fb6153b5"
      ],
      "groups": [
        "3c14c864-533c-49e6-a3cc-6969f1233775"
      ],
      "langs": [
        "4dcf9614-7914-42aa-99f4-dbce2e059133"
      ],
      "singers": [
        "78d91182-ac66-49fb-9561-1d330667d6c4"
      ],
      "songtypes": [
        "42a262ae-acba-4ab5-a446-c5789c96c821"
      ],
      "songwriters": [
        "0b54e69d-4691-4415-be0e-0dd6fd5d4e1a",
        "84a20b00-fd06-43fd-b78e-9c1a2b7b7795"
      ],
      "versions": [
        "c0cc87b9-55b9-40f0-878a-fbb9e34c151e"
      ]
    },
    "titles": {
      "eng": "Butterfly"
    },
    "titles_default_language": "eng",
    "year": 2003
  }
}