{
  "header": {
    "version": 4,
    "description": "Karaoke Mugen Karaoke Data File"
  },
  "medias": [
    {
      "version": "Default",
      "filename": "JPN - Touhou - MV - YUM YUM YUMMY.mp4",
      "audiogain": -10.63,
      "loudnorm": "-5.66,1.90,1.40,-15.78,-0.09",
      "filesize": 116984538,
      "duration": 214,
      "default": true,
      "lyrics": [
        {
          "filename": "JPN - Touhou - MV - YUM YUM YUMMY.ass",
          "default": true,
          "version": "Default"
        }
      ]
    }
  ],
  "data": {
    "comment": "ITADAKIMAAAAAAAASU",
    "created_at": "2022-05-25T03:13:05.516Z",
    "ignoreHooks": false,
    "kid": "19fd43aa-1f80-4b57-9f52-a0ff8344a752",
    "modified_at": "2023-07-24T09:41:03.608Z",
    "repository": "kara.moe",
    "tags": {
      "authors": [
        "fb28c6d3-a81e-40c0-9a4c-e3268c60a64b"
      ],
      "collections": [
        "c7db86a0-ff64-4044-9be4-66dd1ef1d1c1"
      ],
      "creators": [
        "90bdccd8-cd43-4ac8-bcbf-6ae8d520f93a"
      ],
      "groups": [
        "8e209ae4-4381-438f-89dc-1b21752027d2"
      ],
      "langs": [
        "4dcf9614-7914-42aa-99f4-dbce2e059133"
      ],
      "origins": [
        "ac5085db-52d8-44b4-8fbb-1697b24d2046"
      ],
      "series": [
        "1bdaa5a1-dfa6-4365-b746-7a0b194dafd6"
      ],
      "singers": [
        "a6e3509f-befc-4b8b-ac1c-3614e1c32447"
      ],
      "singergroups": [
        "eb49131c-b890-422d-9947-0e82292801e1"
      ],
      "songtypes": [
        "7be1b15c-cff8-4b37-a649-5c90f3d569a9"
      ],
      "songwriters": [
        "26cb5252-8510-49e0-897c-a611a05fc056",
        "3059eca0-7b9f-41e0-a5a6-2e7e3be5d025",
        "a6e3509f-befc-4b8b-ac1c-3614e1c32447"
      ],
      "franchises": [
        "1bdaa5a1-dfa6-4365-b746-7a0b194dafd6"
      ]
    },
    "titles": {
      "eng": "YUM YUM YUMMY",
      "jpn": "ヤムヤムヤミー"
    },
    "titles_default_language": "eng",
    "titles_aliases": [
      "yum-yum",
      "yamu"
    ],
    "year": 2022
  }
}