{
  "header": {
    "version": 4,
    "description": "Karaoke Mugen Karaoke Data File"
  },
  "medias": [
    {
      "version": "Default",
      "filename": "JPN - Astro Boy Tetsuwan Atom (2003) - OP2 - Now Or Never.mp4",
      "audiogain": 2.13,
      "loudnorm": "-21.65,-7.68,3.60,-31.68,-0.66",
      "filesize": 16785804,
      "duration": 90,
      "default": true,
      "lyrics": [
        {
          "filename": "JPN - Astro Boy Tetsuwan Atom (2003) - OP2 - Now Or Never.ass",
          "default": true,
          "version": "Default"
        }
      ]
    }
  ],
  "data": {
    "created_at": "2017-10-11T17:01:19.000Z",
    "ignoreHooks": false,
    "kid": "57950d3d-0caf-4e60-bbad-a1bdbb5f64c8",
    "modified_at": "2023-07-05T23:08:31.178Z",
    "repository": "kara.moe",
    "songorder": 2,
    "tags": {
      "authors": [
        "06852e02-b77e-4106-b6f7-2d03942ad0ea",
        "8c22c899-b3ed-42da-a548-ce00f950798b"
      ],
      "collections": [
        "c7db86a0-ff64-4044-9be4-66dd1ef1d1c1"
      ],
      "creators": [
        "2a4c0113-3a9e-465d-987c-711a0ba0c187"
      ],
      "families": [
        "0377db02-3af6-43b8-9b08-c759df3d25c3"
      ],
      "groups": [
        "3c14c864-533c-49e6-a3cc-6969f1233775",
        "8c22c899-b3ed-42da-a548-ce00f950798b"
      ],
      "langs": [
        "4dcf9614-7914-42aa-99f4-dbce2e059133"
      ],
      "origins": [
        "938de218-5343-4865-94d3-fb33f2eaa152"
      ],
      "series": [
        "c5e123ab-b991-4ca1-ad22-9c1e145c6b69"
      ],
      "singers": [
        "13886fe0-81b4-4807-bcc2-333aba95da22",
        "e50b6a83-1cb1-4db2-9248-4137930362f0"
      ],
      "songtypes": [
        "f02ad9b3-0bd9-4aad-85b3-9976739ba0e4"
      ],
      "songwriters": [
        "13886fe0-81b4-4807-bcc2-333aba95da22",
        "e50b6a83-1cb1-4db2-9248-4137930362f0"
      ],
      "franchises": [
        "c1afd48d-810d-4b27-90c2-f5a50aa41608"
      ]
    },
    "titles": {
      "eng": "Now Or  Never"
    },
    "titles_default_language": "eng",
    "year": 2003
  }
}