{
  "header": {
    "version": 4,
    "description": "Karaoke Mugen Karaoke Data File"
  },
  "medias": [
    {
      "version": "Default",
      "filename": "JPN - Date a Live II - IN - Monochrome.mp4",
      "audiogain": -1.58,
      "loudnorm": "-16.95,-0.76,4.30,-27.00,0.11",
      "filesize": 37384183,
      "duration": 97,
      "default": true,
      "lyrics": [
        {
          "filename": "JPN - Date a Live II - IN - Monochrome.ass",
          "default": true,
          "version": "Default",
          "subchecksum": "562e1ece74adc29d26696fbb71d9af1a"
        }
      ]
    }
  ],
  "data": {
    "created_at": "2017-10-11T17:01:36.000Z",
    "kid": "5107d444-cb54-4367-847f-a89be9a813b0",
    "modified_at": "2021-02-25T11:07:30.133Z",
    "repository": "kara.moe",
    "tags": {
      "authors": [
        "6bebcb04-2694-453c-9e0c-eb1a2e2718d9"
      ],
      "collections": [
        "c7db86a0-ff64-4044-9be4-66dd1ef1d1c1"
      ],
      "creators": [
        "fc687079-2e13-485f-a3ab-4474872175a8"
      ],
      "families": [
        "0377db02-3af6-43b8-9b08-c759df3d25c3"
      ],
      "groups": [
        "ae613721-1fbe-480d-ba6b-d6d0702b184d"
      ],
      "langs": [
        "4dcf9614-7914-42aa-99f4-dbce2e059133"
      ],
      "misc": [
        "fe819ff1-9db8-4a0f-85dc-0e322c9126c4"
      ],
      "origins": [
        "938de218-5343-4865-94d3-fb33f2eaa152"
      ],
      "series": [
        "679fca63-dc48-417c-b75f-04116f6ba88f"
      ],
      "singers": [
        "8c3ef7dd-5265-4527-ac49-c604ab822add"
      ],
      "songtypes": [
        "5e5250d9-351a-4a82-98eb-55db50ad8962"
      ],
      "songwriters": [
        "731c9f26-b072-4f14-b3b8-ae8b04835f03",
        "cc390c0c-07fd-474a-91c7-c980cc6ca3b1"
      ],
      "franchises": [
        "3ca53c9d-07fe-433f-a2e9-af4b68fa14f9"
      ]
    },
    "title": "Monochrome",
    "titles": {
      "eng": "Monochrome"
    },
    "year": 2014,
    "titles_default_language": "eng"
  }
}