{
  "header": {
    "version": 4,
    "description": "Karaoke Mugen Karaoke Data File"
  },
  "medias": [
    {
      "version": "8-bit.",
      "filename": "JPN - Tonari no Totoro - REMIX MOVIE AUDIO ED - Tonari no Totoro ~ 8-bit Vers. ~ Cover Vers.mp3",
      "audiogain": -8.65,
      "loudnorm": "-8.50,0.41,5.20,-18.80,-0.30",
      "filesize": 4526840,
      "duration": 250,
      "default": true,
      "lyrics": [
        {
          "filename": "JPN - Tonari no Totoro - REMIX MOVIE AUDIO ED - Tonari no Totoro ~ 8-bit Vers. ~ Cover Vers.ass",
          "default": true,
          "version": "Default"
        }
      ]
    }
  ],
  "data": {
    "created_at": "2020-07-17T16:38:01.627Z",
    "ignoreHooks": false,
    "kid": "9cf6eb0d-af78-45fc-a874-01593914ea1e",
    "modified_at": "2023-03-26T18:30:45.062Z",
    "parents": [
      "22a7fc78-abef-40fc-bc73-1441bf08d3eb"
    ],
    "repository": "kara.moe",
    "tags": {
      "authors": [
        "60defa7b-774e-4680-8321-51b742c2e009"
      ],
      "collections": [
        "c7db86a0-ff64-4044-9be4-66dd1ef1d1c1"
      ],
      "groups": [
        "3c14c864-533c-49e6-a3cc-6969f1233775",
        "60defa7b-774e-4680-8321-51b742c2e009"
      ],
      "langs": [
        "4dcf9614-7914-42aa-99f4-dbce2e059133"
      ],
      "misc": [
        "ec4360fa-3e3c-4f6f-b0e1-fb8b12b6dd18"
      ],
      "origins": [
        "c8ca9dea-d8b4-48fe-8427-d911653232e9"
      ],
      "series": [
        "bcab83a2-cbc1-4f0d-a47d-69f3ef4a2b67"
      ],
      "singers": [
        "6b469883-82b3-4fa3-8b2b-c374aab91f81"
      ],
      "songtypes": [
        "38c77c56-2b95-4040-b676-0994a8cb0597",
        "42a262ae-acba-4ab5-a446-c5789c96c821"
      ],
      "songwriters": [
        "a084268b-6cc9-4ce7-ac52-b5ea76e212e1",
        "ffa3d3ef-0fc8-40a7-84d3-f9b3c2923cc6"
      ],
      "versions": [
        "03e1e1d2-8641-47b7-bbcb-39a3df9ff21c"
      ]
    },
    "titles": {
      "jpn": "となりのトトロ ~ 8-bit Vers.",
      "qro": "Tonari no Totoro ~ 8-bit Vers."
    },
    "titles_default_language": "qro",
    "year": 2007
  }
}