{
  "header": {
    "version": 4,
    "description": "Karaoke Mugen Karaoke Data File"
  },
  "medias": [
    {
      "version": "Default",
      "filename": "JPN - Mix Meisei Story 2nd Season - OP1 - Starting Over.mp4",
      "audiogain": 5.42,
      "loudnorm": "-22.99,-10.55,5.40,-33.37,-0.54",
      "filesize": 23343737,
      "duration": 90,
      "default": true,
      "lyrics": [
        {
          "filename": "JPN - Mix Meisei Story 2nd Season - OP1 - Starting Over.ass",
          "default": true,
          "version": "Default"
        }
      ]
    }
  ],
  "data": {
    "comment": "Ajout opening saison 2 Mix Meisei Story. UniversJB",
    "created_at": "2023-05-23T00:52:46.580Z",
    "ignoreHooks": false,
    "kid": "d83543d2-ae3e-48c7-96c9-3634702d9091",
    "modified_at": "2023-05-23T16:43:45.217Z",
    "repository": "kara.moe",
    "songorder": 1,
    "tags": {
      "authors": [
        "2eefc5c6-768c-4739-a6e0-ff4bada2a20a"
      ],
      "collections": [
        "c7db86a0-ff64-4044-9be4-66dd1ef1d1c1"
      ],
      "creators": [
        "03fe574b-c7f5-4520-96dc-47320c39e2cc"
      ],
      "families": [
        "0377db02-3af6-43b8-9b08-c759df3d25c3"
      ],
      "genres": [
        "a0aeef4a-6428-45ff-a6e1-468b595930c2"
      ],
      "groups": [
        "8e209ae4-4381-438f-89dc-1b21752027d2"
      ],
      "langs": [
        "4dcf9614-7914-42aa-99f4-dbce2e059133"
      ],
      "misc": [
        "fe819ff1-9db8-4a0f-85dc-0e322c9126c4"
      ],
      "origins": [
        "938de218-5343-4865-94d3-fb33f2eaa152"
      ],
      "series": [
        "d57a0355-acfd-449c-ad04-aea7726da50f"
      ],
      "singers": [
        "5339a07e-93e0-4377-bd8f-2686f8a212b2"
      ],
      "songtypes": [
        "f02ad9b3-0bd9-4aad-85b3-9976739ba0e4"
      ],
      "songwriters": [
        "5339a07e-93e0-4377-bd8f-2686f8a212b2",
        "b142bd7e-719f-4569-8426-4b3d4d25cd76"
      ],
      "franchises": [
        "1769e7a1-9d10-4581-8a46-58a79728d712"
      ]
    },
    "titles": {
      "eng": "Starting Over",
      "qro": "Starting Over"
    },
    "titles_default_language": "qro",
    "year": 2023
  }
}