{
  "header": {
    "version": 4,
    "description": "Karaoke Mugen Karaoke Data File"
  },
  "medias": [
    {
      "version": "Default",
      "filename": "JPN - Ginga Eiyuu Densetsu Die Neue These - Gekitotsu - MOVIE ONA OP - dust ~ Alternative Vers.mp4",
      "audiogain": -1.25,
      "loudnorm": "-15.90,-2.23,5.40,-26.00,-0.47",
      "filesize": 71890421,
      "duration": 91,
      "default": true,
      "lyrics": [
        {
          "filename": "JPN - Ginga Eiyuu Densetsu Die Neue These - Gekitotsu - MOVIE ONA OP - dust ~ Alternative Vers.ass",
          "default": true,
          "version": "Default"
        }
      ]
    }
  ],
  "data": {
    "comment": "Correction vidéo et kara. UniversJB",
    "created_at": "2022-04-03T22:58:22.077Z",
    "ignoreHooks": false,
    "kid": "7d04cd49-ed95-471f-8914-1caf7ea7de5e",
    "modified_at": "2023-08-23T01:59:54.261Z",
    "parents": [
      "815947fd-239e-468d-9f53-ddf34aa2dfc4"
    ],
    "repository": "kara.moe",
    "tags": {
      "authors": [
        "2eefc5c6-768c-4739-a6e0-ff4bada2a20a"
      ],
      "collections": [
        "c7db86a0-ff64-4044-9be4-66dd1ef1d1c1"
      ],
      "creators": [
        "20d023d6-5195-4e4f-bae3-8b28ad6334e2"
      ],
      "families": [
        "0377db02-3af6-43b8-9b08-c759df3d25c3"
      ],
      "groups": [
        "8e209ae4-4381-438f-89dc-1b21752027d2"
      ],
      "langs": [
        "4dcf9614-7914-42aa-99f4-dbce2e059133"
      ],
      "origins": [
        "c8ca9dea-d8b4-48fe-8427-d911653232e9",
        "8db3e098-06ef-45e5-bba9-cb04a21c1e66"
      ],
      "series": [
        "22cb8be0-a8a1-48b4-a5cd-16df527b4130"
      ],
      "singers": [
        "73536ef3-233b-46b0-8f5c-3160348c7cc6"
      ],
      "songtypes": [
        "f02ad9b3-0bd9-4aad-85b3-9976739ba0e4"
      ],
      "songwriters": [
        "59621685-8dc1-4ce1-93b3-cf6c11dda3aa",
        "e0e8293e-4c3a-4a64-91cc-f47f687c5d08"
      ],
      "versions": [
        "9f63c359-d1bf-425a-bcf5-b245c2c9211d"
      ],
      "franchises": [
        "6656c553-99e5-45c2-a013-74406bdf7364"
      ]
    },
    "titles": {
      "eng": "dust"
    },
    "titles_default_language": "eng",
    "year": 2022
  }
}