{
  "header": {
    "version": 4,
    "description": "Karaoke Mugen Karaoke Data File"
  },
  "medias": [
    {
      "version": "Default",
      "filename": "JPN - Suzumiya Haruhi no Yuuutsu - AUDIO IS - Star way to heaven.mp3",
      "loudnorm": "-5.66,3.13,2.00,-15.72,-0.22",
      "filesize": 4274391,
      "duration": 255,
      "default": true,
      "lyrics": [
        {
          "filename": "JPN - Suzumiya Haruhi no Yuuutsu - AUDIO IS - Star way to heaven.ass",
          "default": true,
          "version": "Default"
        }
      ]
    }
  ],
  "data": {
    "comment": "Piste 1 de l’album \"Imaginary ENOZ featuring HARUHI\" (https://vgmdb.net/album/50797)",
    "created_at": "2023-06-25T21:29:34.064Z",
    "ignoreHooks": false,
    "kid": "577ecc52-d4f5-4296-90d0-03a45c017df4",
    "modified_at": "2023-09-21T22:51:40.554Z",
    "repository": "kara.moe",
    "tags": {
      "authors": [
        "4749577f-84d7-470b-bfa8-09c6f9a97c32"
      ],
      "collections": [
        "c7db86a0-ff64-4044-9be4-66dd1ef1d1c1",
        "dbcf2c22-524d-4708-99bb-601703633927"
      ],
      "creators": [
        "b2805292-730e-473a-96f0-fd8e7ffd1fd7"
      ],
      "groups": [
        "ae613721-1fbe-480d-ba6b-d6d0702b184d"
      ],
      "langs": [
        "4dcf9614-7914-42aa-99f4-dbce2e059133"
      ],
      "series": [
        "4f132535-c7b6-4147-a324-6995aad44df7"
      ],
      "singers": [
        "488aea99-01a0-4c2c-b475-b61d99efe994"
      ],
      "songtypes": [
        "10a1ad3e-a05c-4f5c-84b6-f491e3e3a92e",
        "42a262ae-acba-4ab5-a446-c5789c96c821"
      ],
      "songwriters": [
        "9e85a747-2a38-40d0-abd7-c16a2bc8101b",
        "f41e7218-6c19-4e19-9b5f-4612dcd58243"
      ],
      "franchises": [
        "4f132535-c7b6-4147-a324-6995aad44df7"
      ]
    },
    "titles": {
      "eng": "Star way to heaven"
    },
    "titles_default_language": "eng",
    "year": 2010
  }
}