{
  "header": {
    "version": 4,
    "description": "Karaoke Mugen Karaoke Data File"
  },
  "medias": [
    {
      "version": "Default",
      "filename": "JPN - KOKO - MV - the last bullet.mp4",
      "audiogain": -9.36,
      "loudnorm": "-7.80,1.11,5.30,-17.91,-0.85",
      "filesize": 181445583,
      "duration": 220,
      "default": true,
      "lyrics": [
        {
          "filename": "JPN - KOKO - MV - the last bullet.ass",
          "default": true,
          "version": "Default"
        }
      ]
    }
  ],
  "data": {
    "created_at": "2022-11-14T23:15:36.422Z",
    "ignoreHooks": false,
    "kid": "c88da014-bc47-45bd-bf94-e0ea98fc386a",
    "modified_at": "2023-04-22T15:14:14.647Z",
    "repository": "kara.moe",
    "tags": {
      "authors": [
        "2941868f-535f-4ea6-99f9-a0192e0e4dc7"
      ],
      "collections": [
        "c7db86a0-ff64-4044-9be4-66dd1ef1d1c1"
      ],
      "creators": [
        "5c771311-d798-4599-b02e-41756b90b126"
      ],
      "families": [
        "0377db02-3af6-43b8-9b08-c759df3d25c3"
      ],
      "groups": [
        "8e209ae4-4381-438f-89dc-1b21752027d2"
      ],
      "langs": [
        "4dcf9614-7914-42aa-99f4-dbce2e059133"
      ],
      "origins": [
        "5106d71b-a78e-4d19-a16d-f8fb6719538a"
      ],
      "singers": [
        "67494464-bfac-4184-ae30-6066e070b50c"
      ],
      "songtypes": [
        "7be1b15c-cff8-4b37-a649-5c90f3d569a9"
      ],
      "songwriters": [
        "afab92ec-4aef-496d-8d95-0e105752d3bd"
      ]
    },
    "titles": {
      "eng": "the last bullet"
    },
    "titles_default_language": "eng",
    "year": 2021
  }
}