{
  "header": {
    "version": 4,
    "description": "Karaoke Mugen Karaoke Data File"
  },
  "medias": [
    {
      "version": "Default",
      "filename": "JPN - Black Bullet - ED1 - Toko Hana.mp4",
      "audiogain": 5.62,
      "loudnorm": "-22.94,-11.71,10.50,-33.36,-1.67",
      "filesize": 38415238,
      "duration": 90,
      "default": true,
      "lyrics": [
        {
          "filename": "JPN - Black Bullet - ED1 - Toko Hana.ass",
          "default": true,
          "version": "Default"
        }
      ]
    }
  ],
  "data": {
    "created_at": "2019-05-05T17:46:50.000Z",
    "kid": "da12cb4c-59bc-4b90-a2c4-9bf8383bd95b",
    "modified_at": "2021-07-22T19:01:19.942Z",
    "repository": "kara.moe",
    "songorder": 1,
    "tags": {
      "authors": [
        "6dff9198-29f1-470b-bac6-8a60032ca8b8"
      ],
      "collections": [
        "c7db86a0-ff64-4044-9be4-66dd1ef1d1c1"
      ],
      "creators": [
        "08df259d-c4ec-458e-a066-af38a9f7ccc5"
      ],
      "families": [
        "0377db02-3af6-43b8-9b08-c759df3d25c3"
      ],
      "groups": [
        "2b4e9972-5e17-481b-99f5-d0787c0ada56",
        "ae613721-1fbe-480d-ba6b-d6d0702b184d"
      ],
      "langs": [
        "4dcf9614-7914-42aa-99f4-dbce2e059133"
      ],
      "origins": [
        "938de218-5343-4865-94d3-fb33f2eaa152"
      ],
      "series": [
        "d7a57875-ff73-4a21-9137-d8822a4aac16"
      ],
      "singers": [
        "1d4bf64f-1fc5-4e97-a6cf-a15ab7517229"
      ],
      "songtypes": [
        "38c77c56-2b95-4040-b676-0994a8cb0597"
      ],
      "songwriters": [
        "1d4bf64f-1fc5-4e97-a6cf-a15ab7517229",
        "2d5d6566-491e-46fb-b2ee-74a7308d21e9"
      ]
    },
    "title": "Toko Hana",
    "titles": {
      "qro": "Toko Hana",
      "jpn": "トコハナ"
    },
    "year": 2014,
    "titles_default_language": "qro"
  }
}