{
  "header": {
    "version": 4,
    "description": "Karaoke Mugen Karaoke Data File"
  },
  "medias": [
    {
      "version": "LIVE HOME 2022",
      "filename": "JPN - Mahou Shoujo Lyrical Nanoha A's - LIVE - ETERNAL BLAZE ~ LIVE HOME 2022 ~ Full Vers.mp4",
      "loudnorm": "-7.54,0.29,6.10,-17.91,-0.69",
      "filesize": 322444119,
      "duration": 325,
      "default": true,
      "lyrics": [
        {
          "filename": "JPN - Mahou Shoujo Lyrical Nanoha A's - LIVE - ETERNAL BLAZE ~ LIVE HOME 2022 ~ Full Vers.ass",
          "default": true,
          "version": "Default"
        }
      ]
    }
  ],
  "data": {
    "created_at": "2023-09-16T00:37:31.431Z",
    "ignoreHooks": false,
    "kid": "e8ce0178-bea8-4df8-94cf-2e022c14cee7",
    "modified_at": "2023-09-16T15:42:48.690Z",
    "parents": [
      "188f2d67-2135-4ee5-9da8-789a38d0a5be"
    ],
    "repository": "kara.moe",
    "tags": {
      "authors": [
        "1db1738f-acdc-42fc-aec3-60f4bddf660d",
        "7848b5dc-a5df-4577-b640-147be5288cec"
      ],
      "collections": [
        "dbcf2c22-524d-4708-99bb-601703633927"
      ],
      "creators": [
        "d2a29c19-019f-4a3d-86ad-2dae9e41a4b1"
      ],
      "families": [
        "5391f9fe-638c-415f-8dc9-958e3a2c5787"
      ],
      "genres": [
        "b84e28f9-db1e-447f-b339-7954c3592523"
      ],
      "groups": [
        "8e209ae4-4381-438f-89dc-1b21752027d2"
      ],
      "langs": [
        "4dcf9614-7914-42aa-99f4-dbce2e059133"
      ],
      "misc": [
        "86705d4b-24e4-4756-9687-2b9c98bcf366"
      ],
      "origins": [
        "938de218-5343-4865-94d3-fb33f2eaa152"
      ],
      "series": [
        "b5a5cd31-d170-4135-96ed-d668ece1857a"
      ],
      "singers": [
        "6d2045b2-80ab-45ff-a131-c4df02ef52d1"
      ],
      "songtypes": [
        "a0167949-580c-4de3-bf13-497e462e02f3"
      ],
      "songwriters": [
        "6d2045b2-80ab-45ff-a131-c4df02ef52d1",
        "af3ffe51-8059-461c-bbb8-78ea388731f3"
      ],
      "versions": [
        "c2143a7f-6970-450e-8a79-0302db9220a9"
      ],
      "franchises": [
        "ad94e015-d839-42f3-be54-692ba600fcdd"
      ]
    },
    "titles": {
      "eng": "ETERNAL BLAZE ~ LIVE HOME 2022"
    },
    "titles_default_language": "eng",
    "year": 2022
  }
}