{
  "header": {
    "version": 4,
    "description": "Karaoke Mugen Karaoke Data File"
  },
  "medias": [
    {
      "version": "Default",
      "filename": "JPN - Touhou - MV - Cirno's Perfect Math Class.mp4",
      "audiogain": -10.14,
      "loudnorm": "-7.22,1.72,3.20,-17.46,-0.42",
      "filesize": 48499108,
      "duration": 126,
      "default": true,
      "lyrics": [
        {
          "filename": "JPN - Touhou - MV - Cirno's Perfect Math Class.ass",
          "default": true,
          "version": "Default"
        }
      ]
    }
  ],
  "data": {
    "created_at": "2018-05-28T18:42:53.000Z",
    "ignoreHooks": false,
    "kid": "71ede760-e31d-43bc-ab20-7373cbdfb2f1",
    "modified_at": "2022-01-27T02:06:49.515Z",
    "repository": "kara.moe",
    "tags": {
      "authors": [
        "5bdaba57-27f8-4568-8806-76a807728766"
      ],
      "collections": [
        "c7db86a0-ff64-4044-9be4-66dd1ef1d1c1"
      ],
      "creators": [
        "1eca2ac8-7995-4858-8194-c184803a2d7b",
        "25fc251a-0514-4bf5-a818-dd0547723f4a"
      ],
      "families": [
        "0377db02-3af6-43b8-9b08-c759df3d25c3"
      ],
      "groups": [
        "3c14c864-533c-49e6-a3cc-6969f1233775"
      ],
      "langs": [
        "4dcf9614-7914-42aa-99f4-dbce2e059133"
      ],
      "series": [
        "1bdaa5a1-dfa6-4365-b746-7a0b194dafd6"
      ],
      "singers": [
        "0349bfe3-d608-448e-8cc5-476107e0f08a",
        "98cd2e0e-44fb-4feb-aada-1b418e94af37"
      ],
      "songtypes": [
        "7be1b15c-cff8-4b37-a649-5c90f3d569a9"
      ],
      "songwriters": [
        "1dae52a9-d1e0-447b-8dd3-cfd10119a3a8",
        "26cb5252-8510-49e0-897c-a611a05fc056",
        "feceb592-efac-4eda-9b03-c27cf509004c"
      ],
      "franchises": [
        "1bdaa5a1-dfa6-4365-b746-7a0b194dafd6"
      ]
    },
    "titles": {
      "eng": "Cirno's Perfect Math Class",
      "qro": "Cirno no Perfect Sansû Kyôshitsu",
      "jpn": "チルノのパーフェクトさんすう教室"
    },
    "titles_aliases": [
      "sansuu",
      "kyoushitsu"
    ],
    "title": "Cirno's Perfect Math Class",
    "year": 2008,
    "titles_default_language": "eng"
  }
}