{
  "header": {
    "version": 4,
    "description": "Karaoke Mugen Karaoke Data File"
  },
  "medias": [
    {
      "version": "Default",
      "filename": "JPN - Love Live! School Idol Project - AUDIO - Bokura no Live Kimi to no Life ~ Full Off Vocal Vers.mp3",
      "audiogain": -9.13,
      "loudnorm": "-7.49,2.01,3.70,-17.59,-0.40",
      "filesize": 13116402,
      "duration": 323,
      "default": true,
      "lyrics": [
        {
          "filename": "JPN - Love Live! School Idol Project - AUDIO - Bokura no Live Kimi to no Life ~ Full Off Vocal Vers.ass",
          "default": true,
          "version": "Default"
        }
      ]
    }
  ],
  "data": {
    "created_at": "2022-12-14T14:27:46.848Z",
    "ignoreHooks": false,
    "kid": "e31387cd-3a1d-4a79-afdd-19c20ea798ee",
    "modified_at": "2022-12-14T14:30:13.142Z",
    "parents": [
      "999f0d2c-00f9-465b-80fc-e352d95c6f73"
    ],
    "repository": "kara.moe",
    "tags": {
      "authors": [
        "5bdaba57-27f8-4568-8806-76a807728766",
        "90698f28-1d62-4673-82c4-33ae96b1ba97"
      ],
      "collections": [
        "dbcf2c22-524d-4708-99bb-601703633927"
      ],
      "creators": [
        "ef8f80e1-d244-4aea-b7f0-984d6dd4b82b"
      ],
      "genres": [
        "caa86df2-0d59-474b-885c-f240a9e891b0"
      ],
      "groups": [
        "ae613721-1fbe-480d-ba6b-d6d0702b184d"
      ],
      "langs": [
        "4dcf9614-7914-42aa-99f4-dbce2e059133"
      ],
      "misc": [
        "86705d4b-24e4-4756-9687-2b9c98bcf366"
      ],
      "origins": [
        "938de218-5343-4865-94d3-fb33f2eaa152"
      ],
      "series": [
        "dd93f278-a55d-4040-aaab-d0c50b58b087"
      ],
      "singers": [
        "0218ed43-3fff-4261-9036-5a50a07406d9",
        "1d00d52c-e265-4be6-8902-55d7f425f86c",
        "1d78156e-3eb3-409b-b0e0-82e8ef7efe01",
        "4145e95c-bf18-4574-a027-80d61c2a2610",
        "4fc68333-b1f6-44ce-b2be-ac4866b78932",
        "5c779d94-5ed1-4326-9dee-41b3d9f7331c",
        "7779578c-3d4e-4aa5-8f54-77023879e8e6",
        "a1b1a298-ff71-4cda-a407-f1cbdb4f415d",
        "b051c80e-61d1-4d04-956b-c6e8f84cd828"
      ],
      "singergroups": [
        "fc107f1a-4759-4869-857f-fc1966f345f9"
      ],
      "songtypes": [
        "42a262ae-acba-4ab5-a446-c5789c96c821"
      ],
      "songwriters": [
        "1f556f0c-f8a6-43c1-aa60-453b54a074fa",
        "95f2365a-8fbb-4fa9-a920-bba23c20f93b",
        "f41e7218-6c19-4e19-9b5f-4612dcd58243"
      ],
      "versions": [
        "c0cc87b9-55b9-40f0-878a-fbb9e34c151e",
        "c2143a7f-6970-450e-8a79-0302db9220a9"
      ],
      "franchises": [
        "fd5d066e-e85a-4eea-8688-2979a887450a"
      ]
    },
    "titles": {
      "jpn": "僕らのLIVE 君とのLIFE",
      "qro": "Bokura no Live Kimi to no Life"
    },
    "titles_default_language": "qro",
    "year": 2013
  }
}