{
  "header": {
    "version": 4,
    "description": "Karaoke Mugen Karaoke Data File"
  },
  "medias": [
    {
      "version": "Default",
      "filename": "JPN - Touhou - AUDIO - Honoo no Marisa Man.mp3",
      "audiogain": -11.45,
      "loudnorm": "-6.81,0.81,3.10,-16.94,-0.41",
      "filesize": 7599728,
      "duration": 202,
      "default": true,
      "lyrics": [
        {
          "filename": "JPN - Touhou - AUDIO - Honoo no Marisa Man.ass",
          "default": true,
          "version": "Default"
        }
      ]
    }
  ],
  "data": {
    "created_at": "2022-08-27T08:56:58.390Z",
    "ignoreHooks": false,
    "kid": "8ec3311f-a180-4dd4-bc58-959766626a50",
    "modified_at": "2023-07-21T20:25:27.972Z",
    "repository": "kara.moe",
    "tags": {
      "authors": [
        "db867b9b-f487-444d-9f24-142c4324a235"
      ],
      "collections": [
        "c7db86a0-ff64-4044-9be4-66dd1ef1d1c1"
      ],
      "creators": [
        "2b873ad5-a3ce-4abf-9f11-6f600e6e6ba0"
      ],
      "groups": [
        "ae613721-1fbe-480d-ba6b-d6d0702b184d"
      ],
      "langs": [
        "4dcf9614-7914-42aa-99f4-dbce2e059133"
      ],
      "misc": [
        "07af42d1-824e-407e-bf37-7fb84905484b"
      ],
      "series": [
        "1bdaa5a1-dfa6-4365-b746-7a0b194dafd6"
      ],
      "singers": [
        "5e9a5d91-ea80-4515-acdf-43f023a54467"
      ],
      "singergroups": [
        "2b873ad5-a3ce-4abf-9f11-6f600e6e6ba0"
      ],
      "songtypes": [
        "42a262ae-acba-4ab5-a446-c5789c96c821"
      ],
      "songwriters": [
        "26cb5252-8510-49e0-897c-a611a05fc056",
        "2b873ad5-a3ce-4abf-9f11-6f600e6e6ba0"
      ],
      "franchises": [
        "1bdaa5a1-dfa6-4365-b746-7a0b194dafd6"
      ]
    },
    "titles": {
      "jpn": "炎のマリサ・マン",
      "qro": "Honoo no Marisa Man"
    },
    "titles_default_language": "qro",
    "year": 2014
  }
}