{
  "header": {
    "version": 4,
    "description": "Karaoke Mugen Karaoke Data File"
  },
  "medias": [
    {
      "version": "Default",
      "filename": "JPN - Great Teacher Onizuka - MV - Hitori no Yoru ~ Full Vers.mp4",
      "audiogain": -5.96,
      "loudnorm": "-11.26,-0.94,3.30,-21.63,-0.68",
      "filesize": 61587044,
      "duration": 261,
      "default": true,
      "lyrics": [
        {
          "filename": "JPN - Great Teacher Onizuka - MV - Hitori no Yoru ~ Full Vers.ass",
          "default": true,
          "version": "Default"
        }
      ]
    }
  ],
  "data": {
    "created_at": "2020-04-05T19:35:28.017Z",
    "kid": "82fe82dc-abee-4c41-85ce-08d1b172271a",
    "modified_at": "2022-06-04T00:14:55.582Z",
    "parents": [
      "ac90cd7b-2d90-4388-bc50-ca85a5b8a444"
    ],
    "repository": "kara.moe",
    "songorder": null,
    "tags": {
      "authors": [
        "1db1738f-acdc-42fc-aec3-60f4bddf660d"
      ],
      "creators": [
        "6fa9de67-21cf-420b-9ddb-57edb5abe523"
      ],
      "families": [
        "5391f9fe-638c-415f-8dc9-958e3a2c5787"
      ],
      "groups": [
        "24db50aa-a126-4d34-a48a-e45db79c4245"
      ],
      "langs": [
        "4dcf9614-7914-42aa-99f4-dbce2e059133"
      ],
      "series": [
        "212dc11b-1885-4e50-bd01-c87978bd6969"
      ],
      "singers": [
        "a51def19-a639-4b1e-aea5-b4beee52c8a1"
      ],
      "songtypes": [
        "7be1b15c-cff8-4b37-a649-5c90f3d569a9"
      ],
      "songwriters": [
        "1a13bd29-e614-4410-81ac-5261972d76f3",
        "6a1aa24c-9bc9-4449-9f18-c7ab5f1ed59e"
      ],
      "versions": [
        "c2143a7f-6970-450e-8a79-0302db9220a9"
      ],
      "collections": [
        "dbcf2c22-524d-4708-99bb-601703633927"
      ]
    },
    "titles": {
      "qro": "Hitori no Yoru",
      "jpn": "ヒトリノ夜"
    },
    "titles_default_language": "qro",
    "title": "Hitori no Yoru",
    "year": 1999
  }
}