{
  "header": {
    "version": 4,
    "description": "Karaoke Mugen Karaoke Data File"
  },
  "medias": [
    {
      "version": "Default",
      "filename": "JPN - Morning Musume - MV - 3, 2, 1, BREAKIN' OUT!.mp4",
      "loudnorm": "-12.28,-0.45,4.80,-22.48,-0.77",
      "filesize": 31933382,
      "duration": 289,
      "default": true,
      "lyrics": [
        {
          "filename": "JPN - Morning Musume - MV - 3, 2, 1, BREAKIN' OUT!.ass",
          "default": true,
          "version": "Default"
        }
      ]
    }
  ],
  "data": {
    "created_at": "2020-04-26T19:46:03.055Z",
    "ignoreHooks": false,
    "kid": "4d7d8462-c17a-4c36-839a-c1d0b139f8d3",
    "modified_at": "2023-09-11T19:06:00.340Z",
    "repository": "kara.moe",
    "tags": {
      "authors": [
        "6b38e6cc-bc88-4cf5-9bfc-a46c03435bab"
      ],
      "collections": [
        "dbcf2c22-524d-4708-99bb-601703633927"
      ],
      "families": [
        "5391f9fe-638c-415f-8dc9-958e3a2c5787"
      ],
      "genres": [
        "caa86df2-0d59-474b-885c-f240a9e891b0"
      ],
      "groups": [
        "3c14c864-533c-49e6-a3cc-6969f1233775"
      ],
      "langs": [
        "4dcf9614-7914-42aa-99f4-dbce2e059133"
      ],
      "singergroups": [
        "94320683-0d79-407f-a8ae-5b0c2a19f187"
      ],
      "songtypes": [
        "7be1b15c-cff8-4b37-a649-5c90f3d569a9"
      ],
      "songwriters": [
        "0694e4e4-3246-43c1-8a21-41f52ece99ab"
      ]
    },
    "titles": {
      "eng": "3, 2, 1, BREAKIN' OUT!"
    },
    "titles_default_language": "eng",
    "titles_aliases": [
      "Breaking"
    ],
    "year": 2009
  }
}