{
  "header": {
    "version": 4,
    "description": "Karaoke Mugen Karaoke Data File"
  },
  "medias": [
    {
      "version": "Default",
      "filename": "JPN - Perfume - MV - FLASH.mp4",
      "audiogain": -10.24,
      "loudnorm": "-5.95,2.69,2.50,-16.00,-0.21",
      "filesize": 102176341,
      "duration": 280,
      "default": true,
      "lyrics": [
        {
          "filename": "JPN - Perfume - MV - FLASH.ass",
          "default": true,
          "version": "Default"
        }
      ]
    }
  ],
  "data": {
    "created_at": "2017-10-11T17:01:03.000Z",
    "ignoreHooks": false,
    "kid": "840e10f4-8060-4364-a6c2-4cfccace6521",
    "modified_at": "2022-12-22T16:08:54.382Z",
    "repository": "kara.moe",
    "tags": {
      "authors": [
        "583e5531-426e-4d73-9aab-9cac10efb432",
        "fa399f2f-ea1d-4902-8796-ea6d8218aff0"
      ],
      "collections": [
        "dbcf2c22-524d-4708-99bb-601703633927"
      ],
      "creators": [
        "f73ca9a0-75b7-403a-b137-29ce3f41f5b8"
      ],
      "families": [
        "5391f9fe-638c-415f-8dc9-958e3a2c5787"
      ],
      "groups": [
        "ae613721-1fbe-480d-ba6b-d6d0702b184d"
      ],
      "langs": [
        "4dcf9614-7914-42aa-99f4-dbce2e059133"
      ],
      "singers": [
        "78726a5c-35c9-4c82-9307-3564797ff50b"
      ],
      "songtypes": [
        "7be1b15c-cff8-4b37-a649-5c90f3d569a9"
      ],
      "songwriters": [
        "7cb65c58-557f-44f1-8e19-1d78b85e064a"
      ]
    },
    "titles": {
      "eng": "FLASH"
    },
    "titles_default_language": "eng",
    "year": 2016
  }
}