{
  "header": {
    "version": 4,
    "description": "Karaoke Mugen Karaoke Data File"
  },
  "medias": [
    {
      "version": "Default",
      "filename": "JPN - Coppelion - ED - Tooku Made.mp4",
      "audiogain": 5.14,
      "loudnorm": "-22.67,-10.54,6.90,-32.74,-1.61",
      "filesize": 46280479,
      "duration": 93,
      "default": true,
      "lyrics": [
        {
          "filename": "JPN - Coppelion - ED - Tooku Made.ass",
          "default": true,
          "version": "Default",
          "subchecksum": "db696831d0fb53f594e16a431ae35f62"
        }
      ]
    }
  ],
  "data": {
    "created_at": "2017-10-11T17:03:16.000Z",
    "kid": "65a2b9c9-a984-4c10-b706-edb76d7e7412",
    "modified_at": "2021-02-25T11:04:49.395Z",
    "repository": "kara.moe",
    "tags": {
      "authors": [
        "5bdaba57-27f8-4568-8806-76a807728766"
      ],
      "collections": [
        "c7db86a0-ff64-4044-9be4-66dd1ef1d1c1"
      ],
      "creators": [
        "c77da89b-5c99-43fa-a70d-bd25925074f6"
      ],
      "families": [
        "0377db02-3af6-43b8-9b08-c759df3d25c3"
      ],
      "groups": [
        "ae613721-1fbe-480d-ba6b-d6d0702b184d"
      ],
      "langs": [
        "4dcf9614-7914-42aa-99f4-dbce2e059133"
      ],
      "origins": [
        "938de218-5343-4865-94d3-fb33f2eaa152"
      ],
      "series": [
        "3e2403f3-22f6-4d47-b3be-c5cb66936a94"
      ],
      "singers": [
        "78d91182-ac66-49fb-9561-1d330667d6c4"
      ],
      "songtypes": [
        "38c77c56-2b95-4040-b676-0994a8cb0597"
      ],
      "songwriters": [
        "0b54e69d-4691-4415-be0e-0dd6fd5d4e1a",
        "84a20b00-fd06-43fd-b78e-9c1a2b7b7795"
      ]
    },
    "title": "Tooku Made",
    "titles": {
      "qro": "Tooku Made",
      "jpn": "遠くまで"
    },
    "year": 2013,
    "titles_default_language": "qro"
  }
}