{
  "header": {
    "version": 4,
    "description": "Karaoke Mugen Karaoke Data File"
  },
  "medias": [
    {
      "version": "Default",
      "filename": "JPN - Miku Hatsune - MV - Viva Happy.mp4",
      "audiogain": -12.57,
      "loudnorm": "-5.11,2.07,4.50,-15.38,-0.07",
      "filesize": 94932663,
      "duration": 215,
      "default": true,
      "lyrics": [
        {
          "filename": "JPN - Miku Hatsune - MV - Viva Happy.ass",
          "default": true,
          "version": "Default"
        }
      ]
    }
  ],
  "data": {
    "created_at": "2018-04-05T22:51:26.000Z",
    "kid": "d2c84f14-3d58-4d4f-83df-b19b15848307",
    "modified_at": "2021-12-28T20:47:54.683Z",
    "repository": "kara.moe",
    "tags": {
      "authors": [
        "8c22c899-b3ed-42da-a548-ce00f950798b"
      ],
      "collections": [
        "c7db86a0-ff64-4044-9be4-66dd1ef1d1c1"
      ],
      "creators": [
        "2ef4547d-3613-4555-afd7-00323eb0b89f",
        "5e39560d-21fe-45df-b4e6-66f9384203c4"
      ],
      "genres": [
        "45623cae-6d68-4304-a49b-896d1d6f4580"
      ],
      "groups": [
        "8c22c899-b3ed-42da-a548-ce00f950798b",
        "ae613721-1fbe-480d-ba6b-d6d0702b184d"
      ],
      "langs": [
        "4dcf9614-7914-42aa-99f4-dbce2e059133"
      ],
      "singers": [
        "4407ba0e-5de7-4add-870f-7ac95a4804c9"
      ],
      "songtypes": [
        "7be1b15c-cff8-4b37-a649-5c90f3d569a9"
      ],
      "songwriters": [
        "cd1744e6-3151-4619-8782-1bfe15cb3f0b"
      ]
    },
    "titles": {
      "eng": "Viva Happy",
      "jpn": "ビバハピ"
    },
    "title": "Viva Happy",
    "year": 2013,
    "titles_default_language": "eng"
  }
}