{
  "header": {
    "version": 4,
    "description": "Karaoke Mugen Karaoke Data File"
  },
  "medias": [
    {
      "version": "Default",
      "filename": "JPN - Luka Megurine, Miku Hatsune - MV - Ai Dee.mp4",
      "audiogain": -12.69,
      "loudnorm": "-4.46,3.05,2.20,-14.60,-0.36",
      "filesize": 107525253,
      "duration": 291,
      "default": true,
      "lyrics": [
        {
          "filename": "JPN - Luka Megurine, Miku Hatsune - MV - Ai Dee.ass",
          "default": true,
          "version": "Default"
        }
      ]
    }
  ],
  "data": {
    "created_at": "2021-10-02T11:27:09.070Z",
    "ignoreHooks": false,
    "kid": "edd616aa-5eaa-4136-9315-95ddde3bba39",
    "modified_at": "2022-05-09T16:40:00.132Z",
    "repository": "kara.moe",
    "tags": {
      "authors": [
        "4b50fcec-273e-4cc5-83f2-b156c2300f7f"
      ],
      "collections": [
        "c7db86a0-ff64-4044-9be4-66dd1ef1d1c1"
      ],
      "creators": [
        "34d87340-d8c8-4298-bcc7-d5d5f4af9831"
      ],
      "families": [
        "0377db02-3af6-43b8-9b08-c759df3d25c3"
      ],
      "genres": [
        "45623cae-6d68-4304-a49b-896d1d6f4580"
      ],
      "groups": [
        "ae613721-1fbe-480d-ba6b-d6d0702b184d"
      ],
      "langs": [
        "4dcf9614-7914-42aa-99f4-dbce2e059133"
      ],
      "singers": [
        "4407ba0e-5de7-4add-870f-7ac95a4804c9",
        "79f710d5-270e-4b17-957e-037ff0eae3fe"
      ],
      "songtypes": [
        "7be1b15c-cff8-4b37-a649-5c90f3d569a9"
      ],
      "songwriters": [
        "6343a047-7633-4428-ba0a-2a9807a2375f",
        "cd1744e6-3151-4619-8782-1bfe15cb3f0b"
      ]
    },
    "titles": {
      "jpn": "愛Dee",
      "qro": "Ai Dee"
    },
    "titles_default_language": "qro",
    "titles_aliases": [
      "Identity",
      "ID"
    ],
    "title": "Ai Dee",
    "year": 2012
  }
}