{
  "header": {
    "version": 4,
    "description": "Karaoke Mugen Karaoke Data File"
  },
  "medias": [
    {
      "version": "Default",
      "filename": "JPN - Love Live! School Idol Project - MV - A song for You! You question_mark You!!.mp4",
      "loudnorm": "-17.16,-8.20,3.20,-27.33,-0.55",
      "filesize": 227786873,
      "duration": 347,
      "default": true,
      "lyrics": [
        {
          "filename": "JPN - Love Live! School Idol Project - MV - A song for You! You question_mark You!!.ass",
          "default": true,
          "version": "Default"
        }
      ]
    }
  ],
  "data": {
    "created_at": "2023-09-30T09:36:12.051Z",
    "ignoreHooks": false,
    "kid": "51570664-1965-40c4-b1e5-08b4278921a2",
    "modified_at": "2023-09-30T09:36:12.051Z",
    "repository": "kara.moe",
    "tags": {
      "authors": [
        "16b136eb-921f-4c07-be38-ff92d5cc4313"
      ],
      "collections": [
        "dbcf2c22-524d-4708-99bb-601703633927"
      ],
      "creators": [
        "b2805292-730e-473a-96f0-fd8e7ffd1fd7"
      ],
      "families": [
        "0377db02-3af6-43b8-9b08-c759df3d25c3"
      ],
      "genres": [
        "caa86df2-0d59-474b-885c-f240a9e891b0"
      ],
      "groups": [
        "8e209ae4-4381-438f-89dc-1b21752027d2"
      ],
      "langs": [
        "4dcf9614-7914-42aa-99f4-dbce2e059133"
      ],
      "misc": [
        "1d6ceadf-a885-47e5-b23b-c07bf668a424",
        "86705d4b-24e4-4756-9687-2b9c98bcf366"
      ],
      "series": [
        "dd93f278-a55d-4040-aaab-d0c50b58b087"
      ],
      "singers": [
        "0218ed43-3fff-4261-9036-5a50a07406d9",
        "5c779d94-5ed1-4326-9dee-41b3d9f7331c",
        "1d00d52c-e265-4be6-8902-55d7f425f86c",
        "4fc68333-b1f6-44ce-b2be-ac4866b78932",
        "4145e95c-bf18-4574-a027-80d61c2a2610",
        "1d78156e-3eb3-409b-b0e0-82e8ef7efe01",
        "7779578c-3d4e-4aa5-8f54-77023879e8e6",
        "b051c80e-61d1-4d04-956b-c6e8f84cd828",
        "a1b1a298-ff71-4cda-a407-f1cbdb4f415d"
      ],
      "singergroups": [
        "fc107f1a-4759-4869-857f-fc1966f345f9"
      ],
      "songtypes": [
        "7be1b15c-cff8-4b37-a649-5c90f3d569a9"
      ],
      "songwriters": [
        "f41e7218-6c19-4e19-9b5f-4612dcd58243",
        "95f2365a-8fbb-4fa9-a920-bba23c20f93b"
      ],
      "franchises": [
        "fd5d066e-e85a-4eea-8688-2979a887450a"
      ]
    },
    "titles": {
      "eng": "A song for You! You? You!!"
    },
    "titles_default_language": "eng",
    "year": 2020
  }
}