{
  "header": {
    "version": 4,
    "description": "Karaoke Mugen Karaoke Data File"
  },
  "medias": [
    {
      "version": "Default",
      "filename": "JPN - Log Horizon - MV - database ~ Full Vers.mp4",
      "audiogain": -2.65,
      "loudnorm": "-13.65,-0.59,6.10,-24.11,-1.07",
      "filesize": 27087401,
      "duration": 258,
      "default": true,
      "lyrics": [
        {
          "filename": "JPN - Log Horizon - MV - database ~ Full Vers.ass",
          "default": true,
          "version": "Default"
        }
      ]
    }
  ],
  "data": {
    "created_at": "2021-09-11T16:00:19.694Z",
    "kid": "0ed95627-8d95-4042-8b0d-344d2ec7cd89",
    "modified_at": "2022-06-04T00:21:37.183Z",
    "repository": "kara.moe",
    "songorder": null,
    "tags": {
      "authors": [
        "8605a8b9-3b45-44b9-9d98-1a25096bf702"
      ],
      "creators": [
        "6fa9de67-21cf-420b-9ddb-57edb5abe523"
      ],
      "families": [
        "5391f9fe-638c-415f-8dc9-958e3a2c5787"
      ],
      "groups": [
        "ae613721-1fbe-480d-ba6b-d6d0702b184d"
      ],
      "langs": [
        "4dcf9614-7914-42aa-99f4-dbce2e059133"
      ],
      "series": [
        "74ab6168-95f9-4576-8d50-1ec39b50d18d"
      ],
      "singers": [
        "814943f5-30aa-4229-b2ed-120f25825b27",
        "84801a66-37ab-4acc-88d8-09f323d575c7"
      ],
      "songtypes": [
        "7be1b15c-cff8-4b37-a649-5c90f3d569a9"
      ],
      "songwriters": [
        "3dde98ed-a3a6-473d-8fd2-3dd81eb92b26",
        "6cb0e364-b9d2-4fa9-8dfb-98b095c7ac47",
        "84801a66-37ab-4acc-88d8-09f323d575c7",
        "9906c0ca-9969-49d0-9d9e-4c0edf882f81"
      ],
      "versions": [
        "c2143a7f-6970-450e-8a79-0302db9220a9"
      ],
      "collections": [
        "dbcf2c22-524d-4708-99bb-601703633927"
      ],
      "franchises": [
        "74ab6168-95f9-4576-8d50-1ec39b50d18d"
      ]
    },
    "titles": {
      "eng": "database"
    },
    "titles_default_language": "eng",
    "title": "database",
    "year": 2013
  }
}