{
  "header": {
    "version": 4,
    "description": "Karaoke Mugen Karaoke Data File"
  },
  "medias": [
    {
      "version": "Default",
      "filename": "JPN - SCANDAL - LIVE - secret base ~Kimi ga Kureta Mono~ (10 years after ver.) ~ Full Vers.mp4",
      "audiogain": -5.77,
      "loudnorm": "-11.73,0.07,5.00,-21.97,-1.42",
      "filesize": 74739395,
      "duration": 316,
      "default": true,
      "lyrics": [
        {
          "filename": "JPN - SCANDAL - LIVE - secret base ~Kimi ga Kureta Mono~ (10 years after ver.) ~ Full Vers.ass",
          "default": true,
          "version": "Default"
        }
      ]
    }
  ],
  "data": {
    "created_at": "2018-02-03T19:15:47.000Z",
    "ignoreHooks": false,
    "kid": "e94e5822-626a-454a-ac57-7a13b7d3ee4b",
    "modified_at": "2022-12-21T22:36:37.226Z",
    "parents": [
      "e43a4862-fb35-4b38-83e9-43166ffbfef9"
    ],
    "repository": "kara.moe",
    "tags": {
      "authors": [
        "6bebcb04-2694-453c-9e0c-eb1a2e2718d9"
      ],
      "collections": [
        "dbcf2c22-524d-4708-99bb-601703633927"
      ],
      "creators": [
        "9f10c180-4ed1-4a4e-9e39-c37e09b91d5f"
      ],
      "families": [
        "5391f9fe-638c-415f-8dc9-958e3a2c5787"
      ],
      "groups": [
        "ae613721-1fbe-480d-ba6b-d6d0702b184d"
      ],
      "langs": [
        "4dcf9614-7914-42aa-99f4-dbce2e059133"
      ],
      "misc": [
        "86705d4b-24e4-4756-9687-2b9c98bcf366"
      ],
      "singers": [
        "581aad8c-8d51-44af-8b8c-4b1a507484eb"
      ],
      "songtypes": [
        "a0167949-580c-4de3-bf13-497e462e02f3"
      ],
      "songwriters": [
        "1ce20fa6-a13b-471e-b6dc-988e4774cb65",
        "30450ae7-a46f-41aa-a791-5d2c2697ee20"
      ],
      "versions": [
        "c2143a7f-6970-450e-8a79-0302db9220a9"
      ]
    },
    "titles": {
      "jpn": "secret base ～君がくれたもの～ (10 years after ver.)",
      "qro": "secret base ～Kimi ga Kureta Mono～ (10 years after ver.)"
    },
    "titles_default_language": "qro",
    "year": 2011
  }
}