{
  "header": {
    "version": 4,
    "description": "Karaoke Mugen Karaoke Data File"
  },
  "medias": [
    {
      "version": "Default",
      "filename": "JPN - Fairy Tail (2014) - OP7 - Believe in Myself.mp4",
      "audiogain": 1.25,
      "loudnorm": "-18.21,-8.32,3.90,-28.29,-0.37",
      "filesize": 35777847,
      "duration": 92,
      "default": true,
      "lyrics": [
        {
          "filename": "JPN - Fairy Tail (2014) - OP7 - Believe in Myself.ass",
          "default": true,
          "version": "Default"
        }
      ]
    }
  ],
  "data": {
    "created_at": "2017-10-11T17:03:05.000Z",
    "ignoreHooks": false,
    "kid": "226e95e1-0c69-4488-8f91-f49b6dbd5ff0",
    "modified_at": "2022-03-31T17:49:33.642Z",
    "repository": "kara.moe",
    "songorder": 7,
    "tags": {
      "authors": [
        "5bdaba57-27f8-4568-8806-76a807728766"
      ],
      "collections": [
        "c7db86a0-ff64-4044-9be4-66dd1ef1d1c1"
      ],
      "creators": [
        "2b63c455-b186-46b8-8b60-f86c11144ac4",
        "b96e3686-bbe0-4b9e-815a-a278d5ff31be"
      ],
      "families": [
        "0377db02-3af6-43b8-9b08-c759df3d25c3"
      ],
      "genres": [
        "a0aeef4a-6428-45ff-a6e1-468b595930c2"
      ],
      "groups": [
        "ae613721-1fbe-480d-ba6b-d6d0702b184d"
      ],
      "langs": [
        "4dcf9614-7914-42aa-99f4-dbce2e059133"
      ],
      "misc": [
        "fe819ff1-9db8-4a0f-85dc-0e322c9126c4"
      ],
      "origins": [
        "938de218-5343-4865-94d3-fb33f2eaa152"
      ],
      "series": [
        "f0379eb1-3360-47b1-870a-b2f23c6b83ba"
      ],
      "singers": [
        "834537c0-c8e6-43af-a4b8-2875d31c761e"
      ],
      "songtypes": [
        "f02ad9b3-0bd9-4aad-85b3-9976739ba0e4"
      ],
      "songwriters": [
        "4bd83bc3-5247-47c6-9811-5d74fc5d5ac0",
        "64e29f30-c1f7-4458-a9a3-bdf81219f7bd"
      ],
      "franchises": [
        "6b849ba8-e1a6-4390-bcb5-1d795d536761"
      ]
    },
    "titles": {
      "eng": "Believe in Myself"
    },
    "titles_default_language": "eng",
    "title": "Believe in Myself",
    "year": 2015
  }
}