{
  "header": {
    "version": 4,
    "description": "Karaoke Mugen Karaoke Data File"
  },
  "medias": [
    {
      "version": "Default",
      "filename": "JPN - Mob Psycho 100 III - OP - 1.mp4",
      "audiogain": 3.86,
      "loudnorm": "-21.68,-11.16,6.20,-31.84,-1.04",
      "filesize": 74527736,
      "duration": 90,
      "default": true,
      "lyrics": [
        {
          "filename": "JPN - Mob Psycho 100 III - OP - 1.ass",
          "default": true,
          "version": "Default"
        }
      ]
    }
  ],
  "data": {
    "created_at": "2022-08-08T17:30:48.799Z",
    "ignoreHooks": false,
    "kid": "4a47c19e-1df6-4337-a435-16dc4943a4c9",
    "modified_at": "2022-08-08T17:30:50.408Z",
    "repository": "kara.moe",
    "tags": {
      "authors": [
        "06852e02-b77e-4106-b6f7-2d03942ad0ea"
      ],
      "collections": [
        "c7db86a0-ff64-4044-9be4-66dd1ef1d1c1"
      ],
      "creators": [
        "57ffcdd9-7e4f-4971-85ce-0fb3aa8151ac"
      ],
      "families": [
        "0377db02-3af6-43b8-9b08-c759df3d25c3"
      ],
      "genres": [
        "a0aeef4a-6428-45ff-a6e1-468b595930c2"
      ],
      "langs": [
        "4dcf9614-7914-42aa-99f4-dbce2e059133"
      ],
      "origins": [
        "938de218-5343-4865-94d3-fb33f2eaa152"
      ],
      "series": [
        "0635278b-a356-429a-88f9-cac61dec0ad2"
      ],
      "singers": [
        "a63bd875-79a2-459d-90e8-0651dabd1cfb"
      ],
      "songtypes": [
        "f02ad9b3-0bd9-4aad-85b3-9976739ba0e4"
      ],
      "songwriters": [
        "52e04248-a3a8-4453-9738-9a8115234f5a",
        "8b81caa3-a4fb-4621-b8a1-5887a8311e93"
      ],
      "groups": [
        "8e209ae4-4381-438f-89dc-1b21752027d2"
      ],
      "franchises": [
        "7c845ec1-6887-4804-891d-855007d857a6"
      ]
    },
    "titles": {
      "eng": "1"
    },
    "titles_default_language": "eng",
    "title": "1",
    "year": 2022
  }
}