{
  "header": {
    "version": 4,
    "description": "Karaoke Mugen Karaoke Data File"
  },
  "medias": [
    {
      "version": "Default",
      "filename": "JPN - Genjitsu no Yohane -SUNSHINE in the MIRROR- - AUDIO - Forever U & I ~ Full Vers.mp3",
      "loudnorm": "-7.14,1.00,8.40,-17.50,-1.10",
      "filesize": 9827994,
      "duration": 241,
      "default": true,
      "lyrics": [
        {
          "filename": "JPN - Genjitsu no Yohane -SUNSHINE in the MIRROR- - AUDIO - Forever U & I ~ Full Vers.ass",
          "default": true,
          "version": "Default"
        }
      ]
    }
  ],
  "data": {
    "created_at": "2023-09-11T19:13:51.147Z",
    "ignoreHooks": false,
    "kid": "2f1acc81-19ab-4372-8905-ad65ad97fd67",
    "modified_at": "2023-09-11T19:14:05.231Z",
    "parents": [
      "86e96cef-3a11-4638-98e7-849f96c9143f"
    ],
    "repository": "kara.moe",
    "tags": {
      "authors": [
        "449844e4-3a1f-46e1-8a92-bf72e2d1b6f1"
      ],
      "collections": [
        "dbcf2c22-524d-4708-99bb-601703633927"
      ],
      "creators": [
        "b2805292-730e-473a-96f0-fd8e7ffd1fd7"
      ],
      "genres": [
        "caa86df2-0d59-474b-885c-f240a9e891b0"
      ],
      "groups": [
        "8e209ae4-4381-438f-89dc-1b21752027d2"
      ],
      "langs": [
        "4dcf9614-7914-42aa-99f4-dbce2e059133"
      ],
      "origins": [
        "938de218-5343-4865-94d3-fb33f2eaa152"
      ],
      "series": [
        "7088e690-114c-45fb-8044-1839b7151723"
      ],
      "singers": [
        "8f1cdf03-baf0-4294-bfdf-fdeedcdbeac5"
      ],
      "singergroups": [
        "b34161c7-a60d-4f1a-8436-11abc0875436"
      ],
      "songtypes": [
        "42a262ae-acba-4ab5-a446-c5789c96c821"
      ],
      "songwriters": [
        "70fe407b-f62f-4f2d-afdc-201cd297c05f",
        "a72bfa42-bb54-4832-b1cc-023ffde9ef60"
      ],
      "versions": [
        "c2143a7f-6970-450e-8a79-0302db9220a9"
      ],
      "franchises": [
        "fd5d066e-e85a-4eea-8688-2979a887450a"
      ]
    },
    "titles": {
      "eng": "Forever U & I"
    },
    "titles_default_language": "eng",
    "year": 2023
  }
}