{
  "header": {
    "version": 4,
    "description": "Karaoke Mugen Karaoke Data File"
  },
  "medias": [
    {
      "version": "Default",
      "filename": "JPN - Mousou Calibration - MV - Mahou no Juice.mp4",
      "audiogain": -11.65,
      "loudnorm": "-5.73,1.25,3.00,-16.02,-0.53",
      "filesize": 143351072,
      "duration": 280,
      "default": true,
      "lyrics": [
        {
          "filename": "JPN - Mousou Calibration - MV - Mahou no Juice.ass",
          "default": true,
          "version": "Default"
        }
      ]
    }
  ],
  "data": {
    "comment": "Paroles en kanji et kana : https://www.kkbox.com/jp/ja/song/-kZOmmgjMveSYZhIjj",
    "created_at": "2022-10-16T20:09:12.880Z",
    "ignoreHooks": false,
    "kid": "e8da938d-7e28-4612-a1a0-f6b5d14ac9d6",
    "modified_at": "2022-10-16T20:27:53.552Z",
    "repository": "kara.moe",
    "tags": {
      "authors": [
        "f5fd83aa-5022-41ab-82ec-4b9dc38ea653"
      ],
      "collections": [
        "dbcf2c22-524d-4708-99bb-601703633927"
      ],
      "creators": [
        "8e289542-8c5b-4c3b-9589-c2a33588d90b",
        "a2c1d1cc-9188-4c41-ac33-d3560ebdf5a7"
      ],
      "families": [
        "5391f9fe-638c-415f-8dc9-958e3a2c5787"
      ],
      "genres": [
        "caa86df2-0d59-474b-885c-f240a9e891b0"
      ],
      "groups": [
        "ae613721-1fbe-480d-ba6b-d6d0702b184d"
      ],
      "langs": [
        "4dcf9614-7914-42aa-99f4-dbce2e059133"
      ],
      "singers": [
        "1ab5bc5a-d744-4ad9-8b75-5acbe3422986",
        "55aa2f4a-0d91-4471-915e-5d65bb0246a9",
        "9d72af27-eaeb-49d8-aa6e-02c2b661b01f",
        "9f73d6a8-51b2-4d3d-aea7-d4ae48b67ba0",
        "bd55e82a-52a5-4fe7-bbdf-b34ea53429a6"
      ],
      "singergroups": [
        "2427ce8d-8f8e-4198-a77e-490c56d43e7d"
      ],
      "songtypes": [
        "7be1b15c-cff8-4b37-a649-5c90f3d569a9"
      ],
      "songwriters": [
        "2427ce8d-8f8e-4198-a77e-490c56d43e7d"
      ]
    },
    "titles": {
      "jpn": "魔法のジュース",
      "qro": "Mahô no Juice"
    },
    "titles_default_language": "qro",
    "titles_aliases": [
      "Mahou"
    ],
    "title": "Mahô no Juice",
    "year": 2015
  }
}