{
  "header": {
    "version": 4,
    "description": "Karaoke Mugen Karaoke Data File"
  },
  "medias": [
    {
      "version": "Default",
      "filename": "JPN - Pandora Hearts - MV - Parallel Hearts ~ Full Vers.mp4",
      "audiogain": 2.59,
      "loudnorm": "-20.09,-9.32,6.40,-30.23,-0.59",
      "filesize": 122411376,
      "duration": 291,
      "default": true,
      "lyrics": [
        {
          "filename": "JPN - Pandora Hearts - MV - Parallel Hearts ~ Full Vers.ass",
          "default": true,
          "version": "Default"
        }
      ]
    }
  ],
  "data": {
    "created_at": "2020-04-26T14:42:16.755Z",
    "kid": "7f9c2423-6df7-4881-858f-690b60b29abf",
    "modified_at": "2022-06-04T00:17:35.728Z",
    "parents": [
      "fd96ac8d-e7a3-4238-b515-d0c2915cb8c3"
    ],
    "repository": "kara.moe",
    "songorder": null,
    "tags": {
      "authors": [
        "60defa7b-774e-4680-8321-51b742c2e009"
      ],
      "creators": [
        "34beeeda-5b48-4f3b-ba91-b9d5b9825e92"
      ],
      "families": [
        "5391f9fe-638c-415f-8dc9-958e3a2c5787"
      ],
      "groups": [
        "3c14c864-533c-49e6-a3cc-6969f1233775",
        "60defa7b-774e-4680-8321-51b742c2e009"
      ],
      "langs": [
        "4dcf9614-7914-42aa-99f4-dbce2e059133"
      ],
      "series": [
        "98c3bceb-489e-4172-86a2-549dcc32ba63"
      ],
      "singers": [
        "62aa860f-3014-4005-b2b6-cdad2608895b",
        "69a3856d-a7f9-43dc-9891-56f0196444c8",
        "9cd2f440-02a4-47e0-8000-7e9b0e9c1b48",
        "b090971f-db68-4e59-b657-ebac8eb9f61c"
      ],
      "songtypes": [
        "7be1b15c-cff8-4b37-a649-5c90f3d569a9"
      ],
      "songwriters": [
        "1f324dc7-f858-415b-bbc1-41fcce3d6ac7"
      ],
      "versions": [
        "c2143a7f-6970-450e-8a79-0302db9220a9"
      ],
      "collections": [
        "dbcf2c22-524d-4708-99bb-601703633927"
      ]
    },
    "titles": {
      "eng": "Parallel Hearts"
    },
    "titles_default_language": "eng",
    "title": "Parallel Hearts",
    "year": 2009
  }
}