{
  "header": {
    "version": 4,
    "description": "Karaoke Mugen Karaoke Data File"
  },
  "medias": [
    {
      "version": "Default",
      "filename": "JPN - PSYCHO-PASS PROVIDENCE - MOVIE MV - Toujisha.mp4",
      "loudnorm": "-7.12,3.91,9.10,-17.30,-1.53",
      "filesize": 177722835,
      "duration": 240,
      "default": true,
      "lyrics": [
        {
          "filename": "JPN - PSYCHO-PASS PROVIDENCE - MOVIE MV - Toujisha.ass",
          "default": true,
          "version": "Default"
        }
      ]
    }
  ],
  "data": {
    "created_at": "2023-09-23T21:32:39.096Z",
    "ignoreHooks": false,
    "kid": "68ea5461-b243-4463-bb1f-55461610f5ad",
    "modified_at": "2023-09-23T21:32:39.286Z",
    "repository": "kara.moe",
    "tags": {
      "authors": [
        "7848b5dc-a5df-4577-b640-147be5288cec"
      ],
      "collections": [
        "dbcf2c22-524d-4708-99bb-601703633927"
      ],
      "creators": [
        "771735da-6b67-403d-8d5c-2761a0665168"
      ],
      "families": [
        "0377db02-3af6-43b8-9b08-c759df3d25c3"
      ],
      "langs": [
        "4dcf9614-7914-42aa-99f4-dbce2e059133"
      ],
      "origins": [
        "c8ca9dea-d8b4-48fe-8427-d911653232e9"
      ],
      "series": [
        "4baa6622-40c1-4f7e-8025-d6b9c00db0c0"
      ],
      "singers": [
        "e22fbc73-32ed-46af-ab06-c358c02aee1d"
      ],
      "songtypes": [
        "7be1b15c-cff8-4b37-a649-5c90f3d569a9"
      ],
      "songwriters": [
        "b269bf90-79fc-4167-a78d-e22328df4ee0"
      ],
      "franchises": [
        "32e03772-7129-46dd-95a3-5651354f5e0f"
      ],
      "groups": [
        "8e209ae4-4381-438f-89dc-1b21752027d2"
      ]
    },
    "titles": {
      "jpn": "当事者",
      "qro": "Tôjisha"
    },
    "titles_default_language": "qro",
    "titles_aliases": [
      "toujisha",
      "Toujisha"
    ],
    "year": 2023
  }
}