{
  "header": {
    "version": 4,
    "description": "Karaoke Mugen Karaoke Data File"
  },
  "medias": [
    {
      "version": "Default",
      "filename": "JPN - Wild Arms Twilight Venom - ED - Hoshizora JET.avi",
      "audiogain": -4.25,
      "loudnorm": "-12.81,-3.78,1.90,-22.94,-0.00",
      "filesize": 4147048,
      "duration": 104,
      "default": true,
      "lyrics": [
        {
          "filename": "JPN - Wild Arms Twilight Venom - ED - Hoshizora JET.ass",
          "default": true,
          "version": "Default",
          "subchecksum": "b6d3100dda62ede7347a0635c451f32d"
        }
      ]
    }
  ],
  "data": {
    "created_at": "2017-10-11T17:00:54.000Z",
    "kid": "4c38ea0d-3d69-4a55-b861-9bccec8309f5",
    "modified_at": "2021-02-25T13:37:01.003Z",
    "repository": "kara.moe",
    "tags": {
      "authors": [
        "5bdaba57-27f8-4568-8806-76a807728766"
      ],
      "collections": [
        "c7db86a0-ff64-4044-9be4-66dd1ef1d1c1"
      ],
      "creators": [
        "53c428f6-4ad6-464f-8529-40e7b9941c7f"
      ],
      "families": [
        "0377db02-3af6-43b8-9b08-c759df3d25c3"
      ],
      "groups": [
        "24db50aa-a126-4d34-a48a-e45db79c4245"
      ],
      "langs": [
        "4dcf9614-7914-42aa-99f4-dbce2e059133"
      ],
      "origins": [
        "938de218-5343-4865-94d3-fb33f2eaa152"
      ],
      "series": [
        "4de116fd-ca0c-4e42-9bee-33250c6dad86"
      ],
      "singers": [
        "ca757043-f307-4b07-91d5-c4b5700180bb"
      ],
      "songtypes": [
        "38c77c56-2b95-4040-b676-0994a8cb0597"
      ],
      "songwriters": [
        "ca757043-f307-4b07-91d5-c4b5700180bb"
      ],
      "franchises": [
        "c3260823-5c50-41b3-8eb2-2602bd4ba12f"
      ]
    },
    "title": "Hoshizora JET",
    "titles": {
      "qro": "Hoshizora Jet",
      "jpn": "星空ジェット"
    },
    "year": 1999,
    "titles_default_language": "qro"
  }
}