{
  "header": {
    "version": 4,
    "description": "Karaoke Mugen Karaoke Data File"
  },
  "medias": [
    {
      "version": "Default",
      "filename": "JPN - Kidou Senkan Nadesico Nadesico the Mission - GAME OP - Rose Bud.avi",
      "audiogain": -4.57,
      "loudnorm": "-13.47,-1.11,8.80,-23.67,-1.58",
      "filesize": 20930770,
      "duration": 90,
      "default": true,
      "lyrics": [
        {
          "filename": "JPN - Kidou Senkan Nadesico Nadesico the Mission - GAME OP - Rose Bud.ass",
          "default": true,
          "version": "Default",
          "subchecksum": "7210a024a69ee7680df17e516d525d74"
        }
      ]
    }
  ],
  "data": {
    "created_at": "2017-10-11T17:01:40.000Z",
    "kid": "55b21b30-6874-42af-9f33-9078d07bf8de",
    "modified_at": "2021-02-25T11:58:48.236Z",
    "repository": "kara.moe",
    "tags": {
      "authors": [
        "5bdaba57-27f8-4568-8806-76a807728766"
      ],
      "collections": [
        "c7db86a0-ff64-4044-9be4-66dd1ef1d1c1"
      ],
      "creators": [
        "4d63d701-3397-4162-a5d6-31c3286a4cb5"
      ],
      "groups": [
        "24db50aa-a126-4d34-a48a-e45db79c4245"
      ],
      "langs": [
        "4dcf9614-7914-42aa-99f4-dbce2e059133"
      ],
      "platforms": [
        "cf4a3dd9-affa-49b4-ad4c-67cbadf09c8d"
      ],
      "series": [
        "481a7a99-b08a-49f5-9476-15f92bda67ae"
      ],
      "singers": [
        "eb933ffb-dfd0-450d-a7e2-1c6fd45f74d2"
      ],
      "songtypes": [
        "f02ad9b3-0bd9-4aad-85b3-9976739ba0e4"
      ],
      "songwriters": [
        "877154b8-b127-4226-93eb-3da7ab76f250",
        "8ab3e904-a053-4771-9142-6b2652c73088"
      ],
      "franchises": [
        "304060b5-ade7-407e-bb8e-8d9e7849be3c"
      ],
      "origins": [
        "dbedd6b3-d125-4cd8-aa32-c4175e4ca3a3"
      ]
    },
    "title": "Rose Bud",
    "titles": {
      "eng": "ROSE BUD"
    },
    "year": 1998,
    "titles_default_language": "eng"
  }
}