{
  "header": {
    "version": 4,
    "description": "Karaoke Mugen Karaoke Data File"
  },
  "medias": [
    {
      "version": "Default",
      "filename": "JPN - Touhou - MV - Kage Renbo.mp4",
      "audiogain": -1.07,
      "loudnorm": "-17.00,-4.32,5.20,-27.27,-0.51",
      "filesize": 45903172,
      "duration": 225,
      "default": true,
      "lyrics": [
        {
          "filename": "JPN - Touhou - MV - Kage Renbo.ass",
          "default": true,
          "version": "Default"
        }
      ]
    }
  ],
  "data": {
    "created_at": "2023-07-28T20:27:52.430Z",
    "ignoreHooks": false,
    "kid": "46f55d68-7703-4af2-a13f-d0dcb0497999",
    "modified_at": "2023-07-28T20:30:31.252Z",
    "repository": "kara.moe",
    "tags": {
      "authors": [
        "1631228b-9125-497a-aafc-66f920a44a02"
      ],
      "collections": [
        "c7db86a0-ff64-4044-9be4-66dd1ef1d1c1"
      ],
      "creators": [
        "0fa12705-e060-490d-82c9-838989a929bc"
      ],
      "families": [
        "0377db02-3af6-43b8-9b08-c759df3d25c3"
      ],
      "groups": [
        "8c22c899-b3ed-42da-a548-ce00f950798b",
        "ae613721-1fbe-480d-ba6b-d6d0702b184d"
      ],
      "langs": [
        "4dcf9614-7914-42aa-99f4-dbce2e059133"
      ],
      "origins": [
        "ac5085db-52d8-44b4-8fbb-1697b24d2046"
      ],
      "series": [
        "1bdaa5a1-dfa6-4365-b746-7a0b194dafd6"
      ],
      "singers": [
        "91c5c312-83d5-447e-9f03-91b11cf2efa1"
      ],
      "singergroups": [
        "0fa12705-e060-490d-82c9-838989a929bc"
      ],
      "songtypes": [
        "7be1b15c-cff8-4b37-a649-5c90f3d569a9"
      ],
      "songwriters": [
        "26cb5252-8510-49e0-897c-a611a05fc056",
        "cbb6b661-766c-45ef-ae72-26bc37a71ba9"
      ],
      "franchises": [
        "1bdaa5a1-dfa6-4365-b746-7a0b194dafd6"
      ]
    },
    "titles": {
      "eng": "Love in the Shadows",
      "jpn": "影恋慕",
      "qro": "Kage Renbo"
    },
    "titles_default_language": "qro",
    "year": 2010
  }
}