{
  "header": {
    "version": 4,
    "description": "Karaoke Mugen Karaoke Data File"
  },
  "medias": [
    {
      "version": "Default",
      "filename": "JPN - Hatsune Miku 16th Anniversary Fan Film - REMIX MV - Catch the Wave ~ Cover Vers.mp4",
      "loudnorm": "-17.10,-6.68,3.60,-27.18,-0.67",
      "filesize": 57974628,
      "duration": 136,
      "default": true,
      "lyrics": [
        {
          "filename": "JPN - Hatsune Miku 16th Anniversary Fan Film - REMIX MV - Catch the Wave ~ Cover Vers.ass",
          "default": true,
          "version": "Default"
        }
      ]
    }
  ],
  "data": {
    "created_at": "2023-09-30T11:49:33.630Z",
    "ignoreHooks": false,
    "kid": "8ba74973-a483-48bb-a5ac-6843b5ef9bfa",
    "modified_at": "2023-09-30T11:50:29.906Z",
    "parents": [
      "c435ebbc-65ab-490f-8fda-62432b66928c"
    ],
    "repository": "kara.moe",
    "tags": {
      "authors": [
        "278c6742-0b75-43dd-b317-2ea112952b4a"
      ],
      "collections": [
        "c7db86a0-ff64-4044-9be4-66dd1ef1d1c1"
      ],
      "creators": [
        "494a675f-32d5-4d04-9ce0-17205c63a733"
      ],
      "genres": [
        "45623cae-6d68-4304-a49b-896d1d6f4580"
      ],
      "groups": [
        "8c22c899-b3ed-42da-a548-ce00f950798b",
        "8e209ae4-4381-438f-89dc-1b21752027d2"
      ],
      "langs": [
        "4dcf9614-7914-42aa-99f4-dbce2e059133"
      ],
      "misc": [
        "ec4360fa-3e3c-4f6f-b0e1-fb8b12b6dd18"
      ],
      "series": [
        "58f44400-f40e-4604-abf3-66f8d6ed788a"
      ],
      "singers": [
        "4407ba0e-5de7-4add-870f-7ac95a4804c9"
      ],
      "songtypes": [
        "7be1b15c-cff8-4b37-a649-5c90f3d569a9"
      ],
      "songwriters": [
        "0098edaf-b60b-4b75-bc82-ccf824f506ce",
        "cab84cf1-1f94-417f-bfb0-d81a397ec3dd"
      ],
      "versions": [
        "03e1e1d2-8641-47b7-bbcb-39a3df9ff21c"
      ]
    },
    "titles": {
      "eng": "Catch the Wave"
    },
    "titles_default_language": "eng",
    "year": 2023
  }
}