{
  "header": {
    "version": 4,
    "description": "Karaoke Mugen Karaoke Data File"
  },
  "medias": [
    {
      "version": "Default",
      "filename": "JPN - Liyuu - MV - OPEN UP!.mp4",
      "loudnorm": "-6.86,5.96,2.50,-16.92,-0.56",
      "filesize": 101698063,
      "duration": 192,
      "default": true,
      "lyrics": [
        {
          "filename": "JPN - Liyuu - MV - OPEN UP!.ass",
          "default": true,
          "version": "Default"
        }
      ]
    }
  ],
  "data": {
    "created_at": "2023-09-17T09:56:22.053Z",
    "ignoreHooks": false,
    "kid": "17933b3c-aec4-4f8b-85b2-299b55160712",
    "modified_at": "2023-09-17T09:56:22.053Z",
    "repository": "kara.moe",
    "tags": {
      "authors": [
        "d641461a-403a-4a6b-83a0-207352713591"
      ],
      "collections": [
        "dbcf2c22-524d-4708-99bb-601703633927"
      ],
      "creators": [
        "b2805292-730e-473a-96f0-fd8e7ffd1fd7"
      ],
      "families": [
        "5391f9fe-638c-415f-8dc9-958e3a2c5787"
      ],
      "groups": [
        "8e209ae4-4381-438f-89dc-1b21752027d2"
      ],
      "langs": [
        "4dcf9614-7914-42aa-99f4-dbce2e059133"
      ],
      "singers": [
        "8a484e8b-1945-416f-b778-97a887ff24eb"
      ],
      "songtypes": [
        "7be1b15c-cff8-4b37-a649-5c90f3d569a9"
      ],
      "songwriters": [
        "e8ff8ee0-e6c6-4e42-9ed2-f69e1e1efbd5",
        "5f20186f-004f-4053-927a-0d2929836f3f",
        "ea588853-04c1-495d-a011-59eb3e7d7726"
      ]
    },
    "titles": {
      "eng": "OPEN UP!"
    },
    "titles_default_language": "eng",
    "year": 2023
  }
}