{
  "header": {
    "version": 4,
    "description": "Karaoke Mugen Karaoke Data File"
  },
  "medias": [
    {
      "version": "Default",
      "filename": "JPN - Ou-sama Ranking - OP2 - Hadaka no yuusha.mp4",
      "audiogain": 3.67,
      "loudnorm": "-20.31,-11.18,9.40,-30.94,-1.61",
      "filesize": 32282720,
      "duration": 90,
      "default": true,
      "lyrics": [
        {
          "filename": "JPN - Ou-sama Ranking - OP2 - Hadaka no yuusha.ass",
          "default": true,
          "version": "Default"
        }
      ]
    }
  ],
  "data": {
    "created_at": "2022-01-06T19:09:10.908Z",
    "ignoreHooks": false,
    "kid": "b23c1bc4-cfdd-4aee-b17b-39143adf7db8",
    "modified_at": "2022-04-30T20:06:45.459Z",
    "repository": "kara.moe",
    "songorder": 2,
    "tags": {
      "authors": [
        "06852e02-b77e-4106-b6f7-2d03942ad0ea"
      ],
      "collections": [
        "c7db86a0-ff64-4044-9be4-66dd1ef1d1c1"
      ],
      "creators": [
        "5e24aaad-83c9-4d8a-bbb9-37b766278ffe"
      ],
      "families": [
        "0377db02-3af6-43b8-9b08-c759df3d25c3"
      ],
      "groups": [
        "8e209ae4-4381-438f-89dc-1b21752027d2",
        "f53332f8-daed-4ac5-97c9-64239b520db0"
      ],
      "langs": [
        "4dcf9614-7914-42aa-99f4-dbce2e059133"
      ],
      "misc": [
        "fe819ff1-9db8-4a0f-85dc-0e322c9126c4"
      ],
      "origins": [
        "938de218-5343-4865-94d3-fb33f2eaa152"
      ],
      "series": [
        "901f279d-6daf-4e1c-9692-fb30741f3439"
      ],
      "singers": [
        "e5ee5e9e-c91d-4eb5-b92b-15954f91d905"
      ],
      "songtypes": [
        "f02ad9b3-0bd9-4aad-85b3-9976739ba0e4"
      ],
      "songwriters": [
        "e5ee5e9e-c91d-4eb5-b92b-15954f91d905"
      ]
    },
    "titles": {
      "qro": "Hadaka no Yûsha",
      "jpn": "裸の勇者"
    },
    "titles_default_language": "qro",
    "titles_aliases": [
      "yuusha"
    ],
    "title": "Hadaka no yûsha",
    "year": 2022
  }
}