{
  "header": {
    "version": 4,
    "description": "Karaoke Mugen Karaoke Data File"
  },
  "medias": [
    {
      "version": "Default",
      "filename": "JPN - Touhou - MV - Gensou Connect.mp4",
      "loudnorm": "-17.10,-8.34,3.30,-27.44,-0.52",
      "filesize": 90497733,
      "duration": 292,
      "default": true,
      "lyrics": [
        {
          "filename": "JPN - Touhou - MV - Gensou Connect.ass",
          "default": true,
          "version": "Default"
        }
      ]
    }
  ],
  "data": {
    "created_at": "2023-09-25T16:11:32.450Z",
    "ignoreHooks": false,
    "kid": "9f422e65-5292-49ff-9db3-528758a67e6b",
    "modified_at": "2023-09-25T16:32:45.355Z",
    "repository": "kara.moe",
    "tags": {
      "authors": [
        "61865310-cb97-496c-a722-364b0a9ba90d"
      ],
      "collections": [
        "c7db86a0-ff64-4044-9be4-66dd1ef1d1c1"
      ],
      "creators": [
        "0580d9d1-9a78-44a9-9c14-4f20d26392b8",
        "b32c5858-4bde-4ca6-a86a-b934161f3d0b",
        "d57bf73a-41f4-4988-a65a-afbf25094ef3"
      ],
      "families": [
        "0377db02-3af6-43b8-9b08-c759df3d25c3"
      ],
      "groups": [
        "8c22c899-b3ed-42da-a548-ce00f950798b",
        "8e209ae4-4381-438f-89dc-1b21752027d2"
      ],
      "langs": [
        "4dcf9614-7914-42aa-99f4-dbce2e059133"
      ],
      "misc": [
        "1d6ceadf-a885-47e5-b23b-c07bf668a424"
      ],
      "origins": [
        "ac5085db-52d8-44b4-8fbb-1697b24d2046"
      ],
      "series": [
        "1bdaa5a1-dfa6-4365-b746-7a0b194dafd6"
      ],
      "singers": [
        "246c1f13-1272-493f-8625-55e5e5c432b2",
        "5d2078a0-229a-45b3-8fc9-00ca24211a4d",
        "6c7229e8-9f83-4dd9-838c-9e86c4cc8d28",
        "df7eaeb6-af8a-4277-8527-ce1a41d4cd39"
      ],
      "songtypes": [
        "7be1b15c-cff8-4b37-a649-5c90f3d569a9"
      ],
      "songwriters": [
        "26cb5252-8510-49e0-897c-a611a05fc056",
        "832445d7-4bc0-4c33-ab22-ecca31746885",
        "9677e10e-aa5b-4d1d-9861-df3a624bb8d9"
      ],
      "franchises": [
        "1bdaa5a1-dfa6-4365-b746-7a0b194dafd6"
      ]
    },
    "titles": {
      "eng": "Illusory Connect",
      "jpn": "幻想コネクト",
      "qro": "Gensô Connect"
    },
    "titles_default_language": "qro",
    "titles_aliases": [
      "Gensou"
    ],
    "year": 2020
  }
}