{
  "header": {
    "version": 4,
    "description": "Karaoke Mugen Karaoke Data File"
  },
  "medias": [
    {
      "version": "Default",
      "filename": "JPN - Durarara!! - OP2 - Complication.mp4",
      "audiogain": -1.02,
      "loudnorm": "-16.05,-6.56,6.40,-26.41,-1.95",
      "filesize": 20549918,
      "duration": 91,
      "default": true,
      "lyrics": [
        {
          "filename": "JPN - Durarara!! - OP2 - Complication.ass",
          "default": true,
          "version": "Default",
          "subchecksum": "20e30b82c9b54643ae369bcd7cbfb804"
        }
      ]
    }
  ],
  "data": {
    "created_at": "2017-10-11T17:00:55.000Z",
    "kid": "a7ebc461-1780-4573-9955-808c2f2f3246",
    "modified_at": "2021-02-25T11:13:47.793Z",
    "repository": "kara.moe",
    "songorder": 2,
    "tags": {
      "authors": [
        "5bdaba57-27f8-4568-8806-76a807728766"
      ],
      "collections": [
        "c7db86a0-ff64-4044-9be4-66dd1ef1d1c1"
      ],
      "creators": [
        "a06f41a3-31b6-462a-a195-e48a11386da3"
      ],
      "families": [
        "0377db02-3af6-43b8-9b08-c759df3d25c3"
      ],
      "groups": [
        "ae613721-1fbe-480d-ba6b-d6d0702b184d"
      ],
      "langs": [
        "4dcf9614-7914-42aa-99f4-dbce2e059133"
      ],
      "origins": [
        "938de218-5343-4865-94d3-fb33f2eaa152"
      ],
      "series": [
        "e045db8b-053c-41b5-b99f-470d02b871fa"
      ],
      "singers": [
        "30122147-4a27-469f-a59d-86a9997f1359"
      ],
      "songtypes": [
        "f02ad9b3-0bd9-4aad-85b3-9976739ba0e4"
      ],
      "songwriters": [
        "30122147-4a27-469f-a59d-86a9997f1359",
        "dffcef53-13ed-4b12-8e15-5c58c7ede869"
      ],
      "franchises": [
        "e045db8b-053c-41b5-b99f-470d02b871fa"
      ]
    },
    "title": "Complication",
    "titles": {
      "eng": "Complication",
      "jpn": "コンプリケイション"
    },
    "year": 2010,
    "titles_default_language": "eng"
  }
}