{
  "header": {
    "version": 4,
    "description": "Karaoke Mugen Karaoke Data File"
  },
  "medias": [
    {
      "version": "Default",
      "filename": "JPN - GUMI - MV - Yoidore Shirazu ~ Off Vocal Vers.mp4",
      "audiogain": 0.64,
      "loudnorm": "-18.58,0.35,2.90,-28.68,-0.38",
      "filesize": 5650210,
      "duration": 134,
      "default": true,
      "lyrics": [
        {
          "filename": "JPN - GUMI - MV - Yoidore Shirazu ~ Off Vocal Vers.ass",
          "default": true,
          "version": "Default"
        }
      ]
    }
  ],
  "data": {
    "created_at": "2022-05-24T23:27:47.244Z",
    "ignoreHooks": false,
    "kid": "d84f611e-8ffc-4c18-ac03-6730b4eb8b5d",
    "modified_at": "2022-11-17T09:47:31.328Z",
    "parents": [
      "378308bd-0c89-495d-946b-51a43972cd11"
    ],
    "repository": "kara.moe",
    "tags": {
      "authors": [
        "10891649-d475-46eb-b515-8eb3c1e14622"
      ],
      "collections": [
        "c7db86a0-ff64-4044-9be4-66dd1ef1d1c1"
      ],
      "creators": [
        "9333257c-8240-474d-a6a4-72298664634d"
      ],
      "families": [
        "0377db02-3af6-43b8-9b08-c759df3d25c3"
      ],
      "genres": [
        "45623cae-6d68-4304-a49b-896d1d6f4580"
      ],
      "groups": [
        "8e209ae4-4381-438f-89dc-1b21752027d2"
      ],
      "langs": [
        "4dcf9614-7914-42aa-99f4-dbce2e059133"
      ],
      "singers": [
        "dafdeefa-0a96-44df-9653-aeb88c400e33"
      ],
      "songtypes": [
        "7be1b15c-cff8-4b37-a649-5c90f3d569a9"
      ],
      "songwriters": [
        "13b026cd-6c17-4bd1-93ab-f49335c91799"
      ],
      "versions": [
        "c0cc87b9-55b9-40f0-878a-fbb9e34c151e"
      ]
    },
    "titles": {
      "jpn": "酔いどれ知らず",
      "qro": "Yoidore Shirazu"
    },
    "titles_default_language": "qro",
    "year": 2022
  }
}