{
  "header": {
    "version": 4,
    "description": "Karaoke Mugen Karaoke Data File"
  },
  "medias": [
    {
      "version": "Default",
      "filename": "JPN - Touhou - REMIX MV - Arc of Dream.mp4",
      "audiogain": -4.38,
      "loudnorm": "-11.55,-2.95,3.00,-21.69,0.45",
      "filesize": 84481239,
      "duration": 178,
      "default": true,
      "lyrics": [
        {
          "filename": "JPN - Touhou - REMIX MV - Arc of Dream.ass",
          "default": true,
          "version": "Default"
        }
      ]
    }
  ],
  "data": {
    "created_at": "2022-09-18T16:41:20.433Z",
    "ignoreHooks": false,
    "kid": "27ef80b4-3298-4e0e-b68e-5ec6b2a3ccbb",
    "modified_at": "2023-06-09T22:17:00.386Z",
    "repository": "kara.moe",
    "tags": {
      "authors": [
        "1fbfef73-6731-40df-ba51-65a54b9d1605"
      ],
      "collections": [
        "c7db86a0-ff64-4044-9be4-66dd1ef1d1c1"
      ],
      "creators": [
        "2e3bbfa1-57f1-46fa-9469-d5e5d49effde"
      ],
      "families": [
        "0377db02-3af6-43b8-9b08-c759df3d25c3"
      ],
      "groups": [
        "3c14c864-533c-49e6-a3cc-6969f1233775"
      ],
      "langs": [
        "4dcf9614-7914-42aa-99f4-dbce2e059133"
      ],
      "misc": [
        "ec4360fa-3e3c-4f6f-b0e1-fb8b12b6dd18"
      ],
      "origins": [
        "ac5085db-52d8-44b4-8fbb-1697b24d2046"
      ],
      "series": [
        "1bdaa5a1-dfa6-4365-b746-7a0b194dafd6"
      ],
      "singers": [
        "df95063b-32c9-4fd9-a725-d50d4cb24da0"
      ],
      "singergroups": [
        "2e3bbfa1-57f1-46fa-9469-d5e5d49effde"
      ],
      "songtypes": [
        "7be1b15c-cff8-4b37-a649-5c90f3d569a9"
      ],
      "songwriters": [
        "26cb5252-8510-49e0-897c-a611a05fc056",
        "83f715ac-1e62-4b04-b6c8-f69c69b49824",
        "df95063b-32c9-4fd9-a725-d50d4cb24da0"
      ],
      "franchises": [
        "1bdaa5a1-dfa6-4365-b746-7a0b194dafd6"
      ]
    },
    "titles": {
      "eng": "Arc of Dream"
    },
    "titles_default_language": "eng",
    "year": 2009
  }
}