{
  "header": {
    "version": 4,
    "description": "Karaoke Mugen Karaoke Data File"
  },
  "medias": [
    {
      "version": "Default",
      "filename": "JPN - ZUTOMAYO - LIVE - Byoushin wo Kamu ~ Full Vers.mp4",
      "audiogain": 6.33,
      "loudnorm": "-23.16,-11.80,12.20,-33.70,-0.49",
      "filesize": 112537421,
      "duration": 313,
      "default": true,
      "lyrics": [
        {
          "filename": "JPN - ZUTOMAYO - LIVE - Byoushin wo Kamu ~ Full Vers.ass",
          "default": true,
          "version": "Default"
        }
      ]
    }
  ],
  "data": {
    "created_at": "2021-10-15T17:26:18.055Z",
    "ignoreHooks": false,
    "kid": "37e08d71-7189-4384-8460-e486ceb2e5a3",
    "modified_at": "2023-01-30T23:19:40.609Z",
    "parents": [
      "acccf647-2b4a-4fcc-aafa-08381f53a9f8"
    ],
    "repository": "kara.moe",
    "tags": {
      "authors": [
        "5e93f02a-bcd1-40a9-ba7a-91ada6683aea",
        "90698f28-1d62-4673-82c4-33ae96b1ba97"
      ],
      "collections": [
        "dbcf2c22-524d-4708-99bb-601703633927"
      ],
      "creators": [
        "945ec011-2614-44ad-bdef-3ee71f0028ff"
      ],
      "families": [
        "5391f9fe-638c-415f-8dc9-958e3a2c5787"
      ],
      "groups": [
        "8e209ae4-4381-438f-89dc-1b21752027d2"
      ],
      "langs": [
        "4dcf9614-7914-42aa-99f4-dbce2e059133"
      ],
      "misc": [
        "86705d4b-24e4-4756-9687-2b9c98bcf366"
      ],
      "singers": [
        "d3f693d0-7d45-465e-82ed-a6723c600008"
      ],
      "singergroups": [
        "c7d361f6-c1cf-44b2-b40a-a18aa90f2d8f"
      ],
      "songtypes": [
        "a0167949-580c-4de3-bf13-497e462e02f3"
      ],
      "songwriters": [
        "c7d361f6-c1cf-44b2-b40a-a18aa90f2d8f"
      ],
      "versions": [
        "c2143a7f-6970-450e-8a79-0302db9220a9"
      ]
    },
    "titles": {
      "jpn": "秒針を噛む",
      "qro": "Byôshin wo Kamu"
    },
    "titles_default_language": "qro",
    "titles_aliases": [
      "Byoushin"
    ],
    "year": 2021
  }
}