{
  "header": {
    "version": 4,
    "description": "Karaoke Mugen Karaoke Data File"
  },
  "medias": [
    {
      "version": "Default",
      "filename": "JPN - Makai Senki Disgaea 3 - PS3 GAME OP - Maritsu Jaaku Gakuen.avi",
      "audiogain": -4.32,
      "loudnorm": "-12.71,-3.42,3.80,-23.02,-1.21",
      "filesize": 40640408,
      "duration": 146,
      "default": true,
      "lyrics": [
        {
          "filename": "JPN - Makai Senki Disgaea 3 - PS3 GAME OP - Maritsu Jaaku Gakuen.ass",
          "default": true,
          "version": "Default",
          "subchecksum": "f52d43482e80bf73f2ed67d74df3095c"
        }
      ]
    }
  ],
  "data": {
    "created_at": "2017-10-11T17:00:52.000Z",
    "kid": "2c4e6666-7b80-468c-a828-757afc5be9be",
    "modified_at": "2021-02-25T12:21:04.517Z",
    "repository": "kara.moe",
    "tags": {
      "authors": [
        "5bdaba57-27f8-4568-8806-76a807728766"
      ],
      "collections": [
        "c7db86a0-ff64-4044-9be4-66dd1ef1d1c1"
      ],
      "creators": [
        "4c1ab51b-0b5e-4cd9-8ba4-f13b66bfbc36"
      ],
      "groups": [
        "3c14c864-533c-49e6-a3cc-6969f1233775"
      ],
      "langs": [
        "4dcf9614-7914-42aa-99f4-dbce2e059133"
      ],
      "platforms": [
        "7f63ff91-7961-4488-888d-4bf46eea3a2a"
      ],
      "series": [
        "10164762-c055-40b8-8236-dcda069f4376"
      ],
      "singers": [
        "1ba5d4a7-2067-467b-a87d-361da2cdcd4c",
        "7a3cedef-cbee-4dda-9a44-9453d9bc3d14",
        "95e22a44-d2e3-4177-96f5-5714950cbfeb",
        "b0074a75-4ba6-4e48-81f2-3ea258dc4a18",
        "e3773588-3c42-4c3f-b5a5-54359a1aa92a",
        "f71cf036-67aa-4818-861e-ff9c850f4d46",
        "fa9fef54-25f7-4b27-ba8b-c4b2c58db7e2"
      ],
      "songtypes": [
        "f02ad9b3-0bd9-4aad-85b3-9976739ba0e4"
      ],
      "songwriters": [
        "8e7c0d3b-e480-4692-a219-88dad957c4a5",
        "b0074a75-4ba6-4e48-81f2-3ea258dc4a18"
      ],
      "franchises": [
        "49c24023-3005-4f46-a576-2635538d9212"
      ],
      "origins": [
        "dbedd6b3-d125-4cd8-aa32-c4175e4ca3a3"
      ]
    },
    "title": "Maritsu Jaaku Gakuen",
    "titles": {
      "qro": "Maritsu Jaaku Gakuen",
      "jpn": "魔立邪悪学園"
    },
    "year": 2008,
    "titles_default_language": "qro"
  }
}