{
  "header": {
    "version": 4,
    "description": "Karaoke Mugen Karaoke Data File"
  },
  "medias": [
    {
      "version": "Default",
      "filename": "JPN - Touhou - MV - Kyuuri aji no BEER wo nomeba ii yo!.mp4",
      "audiogain": -7.12,
      "loudnorm": "-8.16,1.51,1.90,-18.28,-0.24",
      "filesize": 46812653,
      "duration": 118,
      "default": true,
      "lyrics": [
        {
          "filename": "JPN - Touhou - MV - Kyuuri aji no BEER wo nomeba ii yo!.ass",
          "default": true,
          "version": "Default"
        }
      ]
    }
  ],
  "data": {
    "created_at": "2017-10-11T17:01:38.000Z",
    "ignoreHooks": false,
    "kid": "ea8fcef7-d786-4e16-a653-39594891ffb3",
    "modified_at": "2022-09-19T19:33:41.682Z",
    "repository": "kara.moe",
    "tags": {
      "authors": [
        "fb28c6d3-a81e-40c0-9a4c-e3268c60a64b"
      ],
      "collections": [
        "c7db86a0-ff64-4044-9be4-66dd1ef1d1c1"
      ],
      "creators": [
        "25fc251a-0514-4bf5-a818-dd0547723f4a",
        "a56ed9e7-a3dc-4203-b91c-4128bcf7bfa9"
      ],
      "families": [
        "0377db02-3af6-43b8-9b08-c759df3d25c3"
      ],
      "groups": [
        "3c14c864-533c-49e6-a3cc-6969f1233775"
      ],
      "langs": [
        "4dcf9614-7914-42aa-99f4-dbce2e059133"
      ],
      "series": [
        "1bdaa5a1-dfa6-4365-b746-7a0b194dafd6"
      ],
      "singers": [
        "e7952dc9-fab3-414d-a8e2-d2a9ab3ae4e7"
      ],
      "songtypes": [
        "7be1b15c-cff8-4b37-a649-5c90f3d569a9"
      ],
      "songwriters": [
        "1dae52a9-d1e0-447b-8dd3-cfd10119a3a8",
        "26cb5252-8510-49e0-897c-a611a05fc056",
        "60f46072-08ad-477f-b45f-626ed3b020ee"
      ],
      "franchises": [
        "1bdaa5a1-dfa6-4365-b746-7a0b194dafd6"
      ]
    },
    "titles": {
      "eng": "Wouldn't Cucumber-Flavored Beer Be Nice to Drink!",
      "qro": "Kyuuri aji no BEER wo nomeba ii yo!",
      "jpn": "きゅうり味のビールを飲めばいいよ！"
    },
    "titles_default_language": "eng",
    "titles_aliases": [
      "biiru"
    ],
    "title": "Kyuuri aji no BEER wo nomeba ii yo!",
    "year": 2007
  }
}