{
  "header": {
    "version": 4,
    "description": "Karaoke Mugen Karaoke Data File"
  },
  "medias": [
    {
      "version": "Es.",
      "filename": "JPN - MILGRAM - MV - Weakness ~ Es Vers. ~ Cover Vers.mp4",
      "audiogain": -7.38,
      "loudnorm": "-10.13,0.78,4.60,-20.15,-1.10",
      "filesize": 200699611,
      "duration": 227,
      "default": true,
      "lyrics": [
        {
          "filename": "JPN - MILGRAM - MV - Weakness ~ Es Vers. ~ Cover Vers.ass",
          "default": true,
          "version": "Default"
        }
      ]
    }
  ],
  "data": {
    "created_at": "2022-03-05T20:02:57.077Z",
    "ignoreHooks": false,
    "kid": "a11ff0c2-1cb2-456e-9979-081931298727",
    "modified_at": "2022-03-05T20:02:57.078Z",
    "parents": [
      "5f7aba62-6d09-4dff-a227-c602abee6b77"
    ],
    "repository": "kara.moe",
    "tags": {
      "authors": [
        "fb28c6d3-a81e-40c0-9a4c-e3268c60a64b"
      ],
      "collections": [
        "c7db86a0-ff64-4044-9be4-66dd1ef1d1c1"
      ],
      "creators": [
        "f963181a-1214-47f8-b6f9-1705cbc33779"
      ],
      "families": [
        "0377db02-3af6-43b8-9b08-c759df3d25c3"
      ],
      "groups": [
        "8e209ae4-4381-438f-89dc-1b21752027d2"
      ],
      "langs": [
        "4dcf9614-7914-42aa-99f4-dbce2e059133"
      ],
      "series": [
        "c0e3120a-d593-4051-87dd-0bc28a803a5f"
      ],
      "singers": [
        "10b7444b-9631-4278-becf-20563fd064cf"
      ],
      "songtypes": [
        "7be1b15c-cff8-4b37-a649-5c90f3d569a9"
      ],
      "songwriters": [
        "48c8a778-756b-4ca8-80bc-397fb06ffc7d",
        "6d9eaa90-048f-41d5-a264-8d73df69cc22"
      ],
      "versions": [
        "03e1e1d2-8641-47b7-bbcb-39a3df9ff21c"
      ]
    },
    "titles": {
      "eng": "Weakness ~ Es Vers.",
      "qro": "Jakuniku Kyoushoku ~ Es Vers.",
      "jpn": "弱肉共食 ～ エス Vers."
    },
    "title": "Weakness ~ Es Vers.",
    "year": 2022,
    "titles_default_language": "eng"
  }
}