{
  "header": {
    "version": 4,
    "description": "Karaoke Mugen Karaoke Data File"
  },
  "medias": [
    {
      "version": "Default",
      "filename": "JPN - Masamune-kun no Revenge R - OP - Please, please!.mp4",
      "audiogain": 0.16,
      "loudnorm": "-17.59,-6.03,3.90,-27.63,-0.42",
      "filesize": 14110552,
      "duration": 90,
      "default": true,
      "lyrics": [
        {
          "filename": "JPN - Masamune-kun no Revenge R - OP - Please, please!.ass",
          "default": true,
          "version": "Default"
        }
      ]
    }
  ],
  "data": {
    "created_at": "2023-07-05T00:56:16.776Z",
    "ignoreHooks": false,
    "kid": "ef53ee4a-78bf-410e-97f5-14f1c48d3f0c",
    "modified_at": "2023-07-05T01:00:03.090Z",
    "repository": "kara.moe",
    "tags": {
      "authors": [
        "7848b5dc-a5df-4577-b640-147be5288cec"
      ],
      "collections": [
        "c7db86a0-ff64-4044-9be4-66dd1ef1d1c1"
      ],
      "creators": [
        "bee26a9b-bc7b-4cdc-9317-6c9ee6707706"
      ],
      "families": [
        "0377db02-3af6-43b8-9b08-c759df3d25c3"
      ],
      "groups": [
        "8e209ae4-4381-438f-89dc-1b21752027d2",
        "ae613721-1fbe-480d-ba6b-d6d0702b184d"
      ],
      "langs": [
        "4dcf9614-7914-42aa-99f4-dbce2e059133"
      ],
      "misc": [
        "fe819ff1-9db8-4a0f-85dc-0e322c9126c4"
      ],
      "origins": [
        "938de218-5343-4865-94d3-fb33f2eaa152"
      ],
      "series": [
        "6f475625-3de2-4223-b485-77e363bffda1"
      ],
      "singers": [
        "8ab6e3f9-a691-4fd0-9c55-5426f2218c5d"
      ],
      "songtypes": [
        "f02ad9b3-0bd9-4aad-85b3-9976739ba0e4"
      ],
      "songwriters": [
        "236a5b15-fc97-4075-baab-537494d9b271",
        "70fe407b-f62f-4f2d-afdc-201cd297c05f"
      ]
    },
    "titles": {
      "eng": "Please, please!"
    },
    "titles_default_language": "eng",
    "year": 2023
  }
}