{
  "header": {
    "version": 4,
    "description": "Karaoke Mugen Karaoke Data File"
  },
  "medias": [
    {
      "version": "Default",
      "filename": "JPN - Reine Pavolia - MV - Love Me Love Me.mp4",
      "audiogain": -9.22,
      "loudnorm": "-7.79,2.34,3.60,-17.89,0.06",
      "filesize": 90803819,
      "duration": 192,
      "default": true,
      "lyrics": [
        {
          "filename": "JPN - Reine Pavolia - MV - Love Me Love Me.ass",
          "default": true,
          "version": "Default"
        }
      ]
    }
  ],
  "data": {
    "created_at": "2022-03-05T20:07:51.829Z",
    "ignoreHooks": false,
    "kid": "07a96f07-0bcd-4f26-9f53-07b8778bc663",
    "modified_at": "2022-03-05T20:07:51.829Z",
    "repository": "kara.moe",
    "tags": {
      "authors": [
        "4b50fcec-273e-4cc5-83f2-b156c2300f7f"
      ],
      "collections": [
        "c7db86a0-ff64-4044-9be4-66dd1ef1d1c1"
      ],
      "creators": [
        "0263d413-17bb-4cee-a311-6dd896eda1c9"
      ],
      "families": [
        "0377db02-3af6-43b8-9b08-c759df3d25c3"
      ],
      "groups": [
        "8e209ae4-4381-438f-89dc-1b21752027d2"
      ],
      "langs": [
        "4dcf9614-7914-42aa-99f4-dbce2e059133"
      ],
      "origins": [
        "5106d71b-a78e-4d19-a16d-f8fb6719538a"
      ],
      "singers": [
        "0c70150b-cccd-4f24-b684-041f1163bede"
      ],
      "songtypes": [
        "7be1b15c-cff8-4b37-a649-5c90f3d569a9"
      ],
      "songwriters": [
        "066aa6f0-9f2f-403b-8850-263632cdf206"
      ]
    },
    "titles": {
      "eng": "Love Me Love Me"
    },
    "title": "Love Me Love Me",
    "year": 2022,
    "titles_default_language": "eng"
  }
}