{
  "header": {
    "version": 4,
    "description": "Karaoke Mugen Karaoke Data File"
  },
  "medias": [
    {
      "version": "Default",
      "filename": "JPN - Shiroi Suna no Aquatope - OP1 - Tayutae, Nanairo.mp4",
      "loudnorm": "-16.10,-0.97,5.90,-26.26,-1.52",
      "filesize": 56570831,
      "duration": 87,
      "default": true,
      "lyrics": [
        {
          "filename": "JPN - Shiroi Suna no Aquatope - OP1 - Tayutae, Nanairo.ass",
          "default": true,
          "version": "Default"
        }
      ]
    }
  ],
  "data": {
    "created_at": "2023-09-01T14:53:28.406Z",
    "ignoreHooks": false,
    "kid": "c5c7ba82-3288-4845-b2cb-c4b9596bf52c",
    "modified_at": "2023-09-01T14:53:28.619Z",
    "repository": "kara.moe",
    "songorder": 1,
    "tags": {
      "authors": [
        "7848b5dc-a5df-4577-b640-147be5288cec"
      ],
      "collections": [
        "c7db86a0-ff64-4044-9be4-66dd1ef1d1c1"
      ],
      "creators": [
        "54259fe3-ce0c-4eca-855e-383f2c5be3a9"
      ],
      "families": [
        "0377db02-3af6-43b8-9b08-c759df3d25c3"
      ],
      "groups": [
        "8e209ae4-4381-438f-89dc-1b21752027d2"
      ],
      "langs": [
        "4dcf9614-7914-42aa-99f4-dbce2e059133"
      ],
      "misc": [
        "fe819ff1-9db8-4a0f-85dc-0e322c9126c4"
      ],
      "origins": [
        "938de218-5343-4865-94d3-fb33f2eaa152"
      ],
      "series": [
        "ef6b31cd-2190-41f0-8f4b-bdd10c4acf88"
      ],
      "singers": [
        "5dbfee91-dbe9-4fcf-9dd6-f7ef71f77fa8"
      ],
      "songtypes": [
        "f02ad9b3-0bd9-4aad-85b3-9976739ba0e4"
      ],
      "songwriters": [
        "0423d0d2-d18a-4a48-bd91-21fe73f0299d",
        "15c7e3a2-8522-4854-9df6-39ca595a54fd"
      ]
    },
    "titles": {
      "jpn": "たゆたえ、七色",
      "qro": "Tayutae, Nanairo"
    },
    "titles_default_language": "qro",
    "year": 2021
  }
}