{
  "header": {
    "version": 4,
    "description": "Karaoke Mugen Karaoke Data File"
  },
  "medias": [
    {
      "version": "Default",
      "filename": "JPN - Touhou - MV - Club Ibuki in Break All.mp4",
      "audiogain": -8.82,
      "loudnorm": "-8.58,0.19,4.90,-18.88,-0.68",
      "filesize": 26059266,
      "duration": 110,
      "default": true,
      "lyrics": [
        {
          "filename": "JPN - Touhou - MV - Club Ibuki in Break All.ass",
          "default": true,
          "version": "Default",
          "subchecksum": "78d0c8bd1be7bd914f542e2bea6907c6"
        }
      ]
    }
  ],
  "data": {
    "created_at": "2017-10-11T17:00:58.000Z",
    "kid": "eeb98526-df9a-4fd3-af60-f8be0025454f",
    "modified_at": "2021-02-25T13:27:34.576Z",
    "repository": "kara.moe",
    "tags": {
      "authors": [
        "5bdaba57-27f8-4568-8806-76a807728766"
      ],
      "collections": [
        "c7db86a0-ff64-4044-9be4-66dd1ef1d1c1"
      ],
      "creators": [
        "25fc251a-0514-4bf5-a818-dd0547723f4a",
        "a56ed9e7-a3dc-4203-b91c-4128bcf7bfa9"
      ],
      "families": [
        "0377db02-3af6-43b8-9b08-c759df3d25c3"
      ],
      "groups": [
        "3c14c864-533c-49e6-a3cc-6969f1233775"
      ],
      "langs": [
        "4dcf9614-7914-42aa-99f4-dbce2e059133"
      ],
      "series": [
        "1bdaa5a1-dfa6-4365-b746-7a0b194dafd6"
      ],
      "singers": [
        "6fe38308-6d6f-47c9-948e-89a185c03917"
      ],
      "songtypes": [
        "7be1b15c-cff8-4b37-a649-5c90f3d569a9"
      ],
      "songwriters": [
        "1dae52a9-d1e0-447b-8dd3-cfd10119a3a8",
        "26cb5252-8510-49e0-897c-a611a05fc056",
        "60f46072-08ad-477f-b45f-626ed3b020ee"
      ],
      "franchises": [
        "1bdaa5a1-dfa6-4365-b746-7a0b194dafd6"
      ]
    },
    "title": "Club Ibuki in Break All",
    "titles": {
      "eng": "Club Ibuki in Break All"
    },
    "year": 2009,
    "titles_default_language": "eng"
  }
}