{
  "header": {
    "version": 4,
    "description": "Karaoke Mugen Karaoke Data File"
  },
  "medias": [
    {
      "version": "Default",
      "filename": "JPN - Megalo Box - OP - Bite.mp4",
      "audiogain": 0.27,
      "loudnorm": "-17.21,-6.51,3.00,-27.39,-0.39",
      "filesize": 21403881,
      "duration": 89,
      "default": true,
      "lyrics": [
        {
          "filename": "JPN - Megalo Box - OP - Bite.ass",
          "default": true,
          "version": "Default"
        }
      ]
    }
  ],
  "data": {
    "created_at": "2019-06-19T18:30:47.000Z",
    "kid": "78393870-f898-4ccc-bac8-33b50c8a5238",
    "modified_at": "2021-07-22T19:09:18.773Z",
    "repository": "kara.moe",
    "tags": {
      "authors": [
        "57e2d8c3-b3f3-4b82-88a4-2491946b24d9"
      ],
      "collections": [
        "c7db86a0-ff64-4044-9be4-66dd1ef1d1c1"
      ],
      "creators": [
        "53e900ec-a1ff-4c95-8b2d-a63995c2936f"
      ],
      "families": [
        "0377db02-3af6-43b8-9b08-c759df3d25c3"
      ],
      "groups": [
        "2b4e9972-5e17-481b-99f5-d0787c0ada56",
        "ae613721-1fbe-480d-ba6b-d6d0702b184d"
      ],
      "langs": [
        "4dcf9614-7914-42aa-99f4-dbce2e059133"
      ],
      "origins": [
        "938de218-5343-4865-94d3-fb33f2eaa152"
      ],
      "series": [
        "95a411ca-f8b4-4a4b-9366-dc6ab245daa5"
      ],
      "singers": [
        "0eef1fbd-bd86-41d1-8106-412220d3b534"
      ],
      "songtypes": [
        "f02ad9b3-0bd9-4aad-85b3-9976739ba0e4"
      ],
      "songwriters": [
        "0eef1fbd-bd86-41d1-8106-412220d3b534"
      ],
      "franchises": [
        "95a411ca-f8b4-4a4b-9366-dc6ab245daa5"
      ]
    },
    "title": "Bite",
    "titles": {
      "eng": "Bite"
    },
    "year": 2018,
    "titles_default_language": "eng"
  }
}