{
  "header": {
    "version": 4,
    "description": "Karaoke Mugen Karaoke Data File"
  },
  "medias": [
    {
      "version": "Default",
      "filename": "JPN - Link! Like! Love Live! - GAME AUDIO - Momoiro Kataomoi ~ Cover Short Vers.mp3",
      "loudnorm": "-14.26,-4.28,2.30,-24.30,-0.40",
      "filesize": 5171912,
      "duration": 122,
      "default": true,
      "lyrics": [
        {
          "filename": "JPN - Link! Like! Love Live! - GAME AUDIO - Momoiro Kataomoi ~ Cover Short Vers.ass",
          "default": true,
          "version": "Default"
        }
      ]
    }
  ],
  "data": {
    "created_at": "2023-09-28T12:10:27.943Z",
    "ignoreHooks": false,
    "kid": "c186e793-dc0f-45f5-b0af-fb6561f72b33",
    "modified_at": "2023-09-28T12:10:27.943Z",
    "repository": "kara.moe",
    "tags": {
      "authors": [
        "16b136eb-921f-4c07-be38-ff92d5cc4313"
      ],
      "collections": [
        "dbcf2c22-524d-4708-99bb-601703633927"
      ],
      "creators": [
        "b2805292-730e-473a-96f0-fd8e7ffd1fd7"
      ],
      "genres": [
        "caa86df2-0d59-474b-885c-f240a9e891b0"
      ],
      "groups": [
        "8e209ae4-4381-438f-89dc-1b21752027d2"
      ],
      "langs": [
        "4dcf9614-7914-42aa-99f4-dbce2e059133"
      ],
      "origins": [
        "dbedd6b3-d125-4cd8-aa32-c4175e4ca3a3"
      ],
      "series": [
        "c6245b47-6ad8-498a-b790-e6b8a50fea5e"
      ],
      "singers": [
        "e3d01809-fae7-4e97-bff3-73e4fc204ef3"
      ],
      "songtypes": [
        "42a262ae-acba-4ab5-a446-c5789c96c821"
      ],
      "songwriters": [
        "0694e4e4-3246-43c1-8a21-41f52ece99ab"
      ],
      "versions": [
        "03e1e1d2-8641-47b7-bbcb-39a3df9ff21c",
        "d125c80a-86c1-4321-88e9-07b7800679b6"
      ],
      "franchises": [
        "fd5d066e-e85a-4eea-8688-2979a887450a"
      ]
    },
    "titles": {
      "jpn": "♡桃色片想い♡",
      "qro": "♡Momoiro Kataomoi♡"
    },
    "titles_default_language": "qro",
    "year": 2023
  }
}