{
  "header": {
    "version": 4,
    "description": "Karaoke Mugen Karaoke Data File"
  },
  "medias": [
    {
      "version": "Default",
      "filename": "JPN - Gekijouban Mahou Shoujo Madoka Magica 3 Hangyaku no Monogatari - MOVIE OP - Colorful.mp4",
      "audiogain": 0.08,
      "loudnorm": "-19.00,-7.55,9.50,-29.21,-1.83",
      "filesize": 49912710,
      "duration": 97,
      "default": true,
      "lyrics": [
        {
          "filename": "JPN - Gekijouban Mahou Shoujo Madoka Magica 3 Hangyaku no Monogatari - MOVIE OP - Colorful.ass",
          "default": true,
          "version": "Default",
          "subchecksum": "aff766e85cdea25dfe5e4040bdec809e"
        }
      ]
    }
  ],
  "data": {
    "created_at": "2017-10-11T17:02:34.000Z",
    "kid": "03a795f5-f178-4b78-a3b9-1c8b8bd3638a",
    "modified_at": "2021-02-25T11:26:30.982Z",
    "repository": "kara.moe",
    "tags": {
      "authors": [
        "6bebcb04-2694-453c-9e0c-eb1a2e2718d9"
      ],
      "collections": [
        "c7db86a0-ff64-4044-9be4-66dd1ef1d1c1"
      ],
      "creators": [
        "c3bd80ef-d1fe-427f-913f-a2ba2fe66114"
      ],
      "families": [
        "0377db02-3af6-43b8-9b08-c759df3d25c3"
      ],
      "genres": [
        "b84e28f9-db1e-447f-b339-7954c3592523"
      ],
      "groups": [
        "ae613721-1fbe-480d-ba6b-d6d0702b184d"
      ],
      "langs": [
        "4dcf9614-7914-42aa-99f4-dbce2e059133"
      ],
      "origins": [
        "c8ca9dea-d8b4-48fe-8427-d911653232e9"
      ],
      "series": [
        "237e9c76-3a06-4259-a72e-0d7e5a383511"
      ],
      "singers": [
        "ff590105-5f65-4b1f-adf9-2cfb5b789428"
      ],
      "songtypes": [
        "f02ad9b3-0bd9-4aad-85b3-9976739ba0e4"
      ],
      "songwriters": [
        "b4279339-b1d8-4da7-8bf9-1f6d5b69be11"
      ],
      "franchises": [
        "c31a2b6a-96f5-4244-bce3-e04cd8b5c2ae"
      ]
    },
    "title": "Colorful",
    "titles": {
      "eng": "Colourful",
      "jpn": "カラフル"
    },
    "year": 2013,
    "titles_default_language": "eng"
  }
}