{
  "header": {
    "version": 4,
    "description": "Karaoke Mugen Karaoke Data File"
  },
  "medias": [
    {
      "version": "Default",
      "filename": "JPN - Code Geass Hangyaku no Lelouch R2 - MV - Waga Routashi Aku no Hana ~ Full Vers.mp4",
      "audiogain": -9.87,
      "loudnorm": "-7.45,0.50,2.70,-17.51,-0.21",
      "filesize": 16156972,
      "duration": 275,
      "default": true,
      "lyrics": [
        {
          "filename": "JPN - Code Geass Hangyaku no Lelouch R2 - MV - Waga Routashi Aku no Hana ~ Full Vers.ass",
          "default": true,
          "version": "Default"
        }
      ]
    }
  ],
  "data": {
    "created_at": "2019-11-24T22:35:33.952Z",
    "kid": "da3cf438-caec-4d83-b7f1-639f7a1dcd2d",
    "modified_at": "2022-06-04T00:17:22.592Z",
    "parents": [
      "6d27dfbe-c846-4eb0-ad18-2007b925195f"
    ],
    "repository": "kara.moe",
    "songorder": null,
    "tags": {
      "authors": [
        "1db1738f-acdc-42fc-aec3-60f4bddf660d"
      ],
      "creators": [
        "e8da43a3-7058-4162-9d31-2f331dee993e"
      ],
      "families": [
        "5391f9fe-638c-415f-8dc9-958e3a2c5787"
      ],
      "groups": [
        "3c14c864-533c-49e6-a3cc-6969f1233775"
      ],
      "langs": [
        "4dcf9614-7914-42aa-99f4-dbce2e059133"
      ],
      "series": [
        "bd71b69a-e48a-4caf-9f24-c1619727debe"
      ],
      "singers": [
        "f4d627b6-f0f8-46c9-ad63-24148031d21b"
      ],
      "songtypes": [
        "7be1b15c-cff8-4b37-a649-5c90f3d569a9"
      ],
      "songwriters": [
        "7a226f8d-65e2-4a0e-bb80-64d5f5ff062c",
        "ffb2194e-3dd1-478f-ac22-71b3bcbd426a"
      ],
      "versions": [
        "c2143a7f-6970-450e-8a79-0302db9220a9"
      ],
      "collections": [
        "dbcf2c22-524d-4708-99bb-601703633927"
      ],
      "franchises": [
        "1cb3b851-435a-4078-8619-8711f963a92f"
      ]
    },
    "titles": {
      "qro": "Waga Rôtashi Aku no Hana",
      "jpn": "わが﨟たし悪の華"
    },
    "titles_default_language": "qro",
    "titles_aliases": [
      "Routashi"
    ],
    "title": "Waga Rôtashi Aku no Hana",
    "year": 2008
  }
}