{
  "header": {
    "version": 4,
    "description": "Karaoke Mugen Karaoke Data File"
  },
  "medias": [
    {
      "version": "Default",
      "filename": "JPN - ACTORS -Songs Connection- - AUDIO IN - Cloudy day ~ Cover Off Vocal Vers.mp3",
      "audiogain": -8.75,
      "loudnorm": "-8.94,0.06,8.80,-19.58,-0.52",
      "filesize": 10227674,
      "duration": 250,
      "default": true,
      "lyrics": [
        {
          "filename": "JPN - ACTORS -Songs Connection- - AUDIO IN - Cloudy day ~ Cover Off Vocal Vers.ass",
          "default": true,
          "version": "Default"
        }
      ]
    }
  ],
  "data": {
    "created_at": "2023-08-10T00:02:15.067Z",
    "ignoreHooks": false,
    "kid": "84abae71-be7f-4edb-915d-4f47d3d5ed2d",
    "modified_at": "2023-08-10T00:02:34.951Z",
    "parents": [
      "0c1e180a-6c96-43c0-9454-5d84968357b5"
    ],
    "repository": "kara.moe",
    "tags": {
      "authors": [
        "7848b5dc-a5df-4577-b640-147be5288cec"
      ],
      "collections": [
        "c7db86a0-ff64-4044-9be4-66dd1ef1d1c1",
        "dbcf2c22-524d-4708-99bb-601703633927"
      ],
      "creators": [
        "97e62433-0f2f-4e1b-ba1e-109eec95dc11"
      ],
      "groups": [
        "ae613721-1fbe-480d-ba6b-d6d0702b184d"
      ],
      "langs": [
        "4dcf9614-7914-42aa-99f4-dbce2e059133"
      ],
      "series": [
        "da2638f7-974f-4568-83ca-7b87223665b4"
      ],
      "singers": [
        "32add1f0-4fb8-44d7-b436-9fdac22ed500"
      ],
      "songtypes": [
        "42a262ae-acba-4ab5-a446-c5789c96c821",
        "5e5250d9-351a-4a82-98eb-55db50ad8962"
      ],
      "songwriters": [
        "088380e6-73eb-48a3-8e12-81d3934029af"
      ],
      "versions": [
        "03e1e1d2-8641-47b7-bbcb-39a3df9ff21c",
        "c0cc87b9-55b9-40f0-878a-fbb9e34c151e",
        "c2143a7f-6970-450e-8a79-0302db9220a9"
      ]
    },
    "titles": {
      "eng": "Cloudy day"
    },
    "titles_default_language": "eng",
    "year": 2019
  }
}