{
  "header": {
    "version": 4,
    "description": "Karaoke Mugen Karaoke Data File"
  },
  "medias": [
    {
      "version": "Default",
      "filename": "JPN - Otonari no Tenshi-sama ni Itsunomanika Dame Ningen ni Sareteita Ken - ED1 - Chiisana Koi no Uta ~ Cover Vers.mp4",
      "audiogain": 1.28,
      "loudnorm": "-18.38,-8.53,4.20,-28.46,-1.48",
      "filesize": 91544965,
      "duration": 89,
      "default": true,
      "lyrics": [
        {
          "filename": "JPN - Otonari no Tenshi-sama ni Itsunomanika Dame Ningen ni Sareteita Ken - ED1 - Chiisana Koi no Uta ~ Cover Vers.ass",
          "default": true,
          "version": "Default"
        }
      ]
    }
  ],
  "data": {
    "created_at": "2023-01-14T17:37:32.469Z",
    "ignoreHooks": false,
    "kid": "7c8e9eae-b7ab-477a-92a1-0725d2c7e3f8",
    "modified_at": "2023-03-16T05:21:20.176Z",
    "parents": [
      "bcd28b0e-b7a9-4cc1-9690-c3f5fdff4196"
    ],
    "repository": "kara.moe",
    "songorder": 1,
    "tags": {
      "authors": [
        "65761521-3090-419e-846a-a6160d8a9f22",
        "7848b5dc-a5df-4577-b640-147be5288cec"
      ],
      "collections": [
        "c7db86a0-ff64-4044-9be4-66dd1ef1d1c1"
      ],
      "creators": [
        "55f578e3-ca25-487f-8aa0-2726b2ff4895"
      ],
      "families": [
        "0377db02-3af6-43b8-9b08-c759df3d25c3"
      ],
      "groups": [
        "60defa7b-774e-4680-8321-51b742c2e009",
        "8e209ae4-4381-438f-89dc-1b21752027d2"
      ],
      "langs": [
        "4dcf9614-7914-42aa-99f4-dbce2e059133"
      ],
      "misc": [
        "fe819ff1-9db8-4a0f-85dc-0e322c9126c4"
      ],
      "origins": [
        "938de218-5343-4865-94d3-fb33f2eaa152"
      ],
      "series": [
        "7dd75560-6fae-433b-b78f-d315aea970a4"
      ],
      "singers": [
        "89f91e06-0831-44e4-92f6-64b612cd19d0"
      ],
      "songtypes": [
        "38c77c56-2b95-4040-b676-0994a8cb0597"
      ],
      "songwriters": [
        "29f62e20-759c-459b-adb5-64d83979b380",
        "c7948708-4d16-4e9a-8db9-a80f3dec3d53"
      ],
      "versions": [
        "03e1e1d2-8641-47b7-bbcb-39a3df9ff21c"
      ]
    },
    "titles": {
      "jpn": "小さな恋のうた",
      "qro": "Chiisana Koi no Uta"
    },
    "titles_default_language": "qro",
    "year": 2023
  }
}