{
  "header": {
    "version": 4,
    "description": "Karaoke Mugen Karaoke Data File"
  },
  "medias": [
    {
      "version": "Default",
      "filename": "JPN - Link! Like! Love Live! - LIVE - Suisai Sekai ~ Full Vers.mp4",
      "audiogain": -2.9,
      "loudnorm": "-15.43,-1.52,8.30,-25.90,-1.41",
      "filesize": 224571350,
      "duration": 225,
      "default": true,
      "lyrics": [
        {
          "filename": "JPN - Link! Like! Love Live! - LIVE - Suisai Sekai ~ Full Vers.ass",
          "default": true,
          "version": "Default"
        }
      ]
    }
  ],
  "data": {
    "created_at": "2023-06-19T15:53:40.781Z",
    "ignoreHooks": false,
    "kid": "a6fe1a2b-2987-4592-8f68-d787fdf16435",
    "modified_at": "2023-06-19T16:05:19.389Z",
    "repository": "kara.moe",
    "tags": {
      "authors": [
        "16b136eb-921f-4c07-be38-ff92d5cc4313"
      ],
      "collections": [
        "dbcf2c22-524d-4708-99bb-601703633927"
      ],
      "creators": [
        "b2805292-730e-473a-96f0-fd8e7ffd1fd7"
      ],
      "genres": [
        "caa86df2-0d59-474b-885c-f240a9e891b0"
      ],
      "groups": [
        "8e209ae4-4381-438f-89dc-1b21752027d2"
      ],
      "langs": [
        "4dcf9614-7914-42aa-99f4-dbce2e059133"
      ],
      "series": [
        "c6245b47-6ad8-498a-b790-e6b8a50fea5e"
      ],
      "singers": [
        "1a912ff3-ff2f-4e8a-92de-d2adbb19d0b3",
        "1f0b407a-7bf9-457c-aabf-7d7297c75be2"
      ],
      "singergroups": [
        "c60ae79c-f8cf-466f-abc1-d008ff6cab25"
      ],
      "songtypes": [
        "a0167949-580c-4de3-bf13-497e462e02f3"
      ],
      "songwriters": [
        "246d8bfc-ad0b-4913-954f-52fc40f1bb1f",
        "a0c2e46b-d1b6-4d3d-aefd-cdd5c532e5bd",
        "d058acc8-817c-440e-b561-4d6d416cd5ab"
      ],
      "versions": [
        "c2143a7f-6970-450e-8a79-0302db9220a9"
      ],
      "franchises": [
        "fd5d066e-e85a-4eea-8688-2979a887450a"
      ]
    },
    "titles": {
      "qro": "Suisai Sekai"
    },
    "titles_default_language": "qro",
    "year": 2023
  }
}