{
  "header": {
    "version": 4,
    "description": "Karaoke Mugen Karaoke Data File"
  },
  "medias": [
    {
      "version": "Default",
      "filename": "JPN - UPLIFT SPICE - AUDIO - Kuuge.mp3",
      "audiogain": -5.2,
      "loudnorm": "-12.97,-4.65,9.00,-23.25,-1.78",
      "filesize": 8865066,
      "duration": 220,
      "default": true,
      "lyrics": [
        {
          "filename": "JPN - UPLIFT SPICE - AUDIO - Kuuge.ass",
          "default": true,
          "version": "Default"
        }
      ]
    }
  ],
  "data": {
    "created_at": "2020-07-19T19:45:30.733Z",
    "ignoreHooks": false,
    "kid": "a749ddf7-c333-4afc-85ab-2e4341783f7e",
    "modified_at": "2022-09-30T20:22:29.976Z",
    "repository": "kara.moe",
    "tags": {
      "authors": [
        "87096920-112f-485f-a310-04156cb4624d"
      ],
      "collections": [
        "c7db86a0-ff64-4044-9be4-66dd1ef1d1c1"
      ],
      "creators": [
        "c22b857f-ad82-4417-b9e1-697d690fa47b"
      ],
      "groups": [
        "60defa7b-774e-4680-8321-51b742c2e009",
        "ae613721-1fbe-480d-ba6b-d6d0702b184d"
      ],
      "langs": [
        "4dcf9614-7914-42aa-99f4-dbce2e059133"
      ],
      "singers": [
        "39eade13-53fc-4834-a9e3-7050c6022fed"
      ],
      "songtypes": [
        "42a262ae-acba-4ab5-a446-c5789c96c821"
      ],
      "songwriters": [
        "39eade13-53fc-4834-a9e3-7050c6022fed"
      ]
    },
    "titles": {
      "jpn": "空華",
      "qro": "Kûge"
    },
    "titles_default_language": "qro",
    "title": "Kûge",
    "year": 2011,
    "titles_aliases": [
      "Kuuge"
    ]
  }
}