{
  "header": {
    "version": 4,
    "description": "Karaoke Mugen Karaoke Data File"
  },
  "medias": [
    {
      "version": "Default",
      "filename": "JPN - World Trigger 3rd Season - ED - Ungai Shoukei.mp4",
      "audiogain": -2.9,
      "loudnorm": "-16.01,-4.43,12.40,-26.98,-2.60",
      "filesize": 20367100,
      "duration": 90,
      "default": true,
      "lyrics": [
        {
          "filename": "JPN - World Trigger 3rd Season - ED - Ungai Shoukei.ass",
          "default": true,
          "version": "Default"
        }
      ]
    }
  ],
  "data": {
    "created_at": "2022-01-21T10:53:39.385Z",
    "ignoreHooks": false,
    "kid": "404830ca-fda6-45bd-bc5d-7a2849d76384",
    "modified_at": "2022-01-21T10:53:39.385Z",
    "repository": "kara.moe",
    "tags": {
      "authors": [
        "6bebcb04-2694-453c-9e0c-eb1a2e2718d9"
      ],
      "collections": [
        "c7db86a0-ff64-4044-9be4-66dd1ef1d1c1"
      ],
      "creators": [
        "f694bf43-b427-4244-9744-9d3f84fd8a31"
      ],
      "families": [
        "0377db02-3af6-43b8-9b08-c759df3d25c3"
      ],
      "genres": [
        "a0aeef4a-6428-45ff-a6e1-468b595930c2"
      ],
      "groups": [
        "8e209ae4-4381-438f-89dc-1b21752027d2"
      ],
      "langs": [
        "4dcf9614-7914-42aa-99f4-dbce2e059133"
      ],
      "origins": [
        "938de218-5343-4865-94d3-fb33f2eaa152"
      ],
      "series": [
        "2fc9cec6-c7f8-4e5f-b91c-e690ec5f924d"
      ],
      "singers": [
        "7ba7ec3c-7e6a-4c63-b4b2-5b8b5d16b1de"
      ],
      "songtypes": [
        "38c77c56-2b95-4040-b676-0994a8cb0597"
      ],
      "songwriters": [
        "c6d4a3d3-01de-46d5-81d0-aa6001ead75f",
        "3aee12fd-07eb-4889-a20e-ff776188e08c"
      ],
      "franchises": [
        "c2a3b06d-f152-46a1-82c5-7528390df59b"
      ]
    },
    "titles": {
      "eng": "Ungai Shoukei",
      "jpn": "雲外憧憬"
    },
    "title": "Ungai Shoukei",
    "year": 2021,
    "titles_default_language": "eng"
  }
}