{
  "header": {
    "version": 4,
    "description": "Karaoke Mugen Karaoke Data File"
  },
  "medias": [
    {
      "version": "Default",
      "filename": "JPN - Bessatsu Olympia Kyklos - ED10 - Sparta-jin Kowai.mp4",
      "loudnorm": "-24.74,-15.31,1.60,-34.88,0.18",
      "filesize": 27830452,
      "duration": 27,
      "default": true,
      "lyrics": [
        {
          "filename": "JPN - Bessatsu Olympia Kyklos - ED10 - Sparta-jin Kowai.ass",
          "default": true,
          "version": "Default"
        }
      ]
    }
  ],
  "data": {
    "created_at": "2023-09-07T22:08:45.166Z",
    "ignoreHooks": false,
    "kid": "3722e24f-d446-4e9e-80b8-b70d53655bfb",
    "modified_at": "2023-09-07T22:08:45.166Z",
    "repository": "kara.moe",
    "songorder": 10,
    "tags": {
      "authors": [
        "4c9681c5-a3ca-493b-9bf2-8bd594c5bb15"
      ],
      "collections": [
        "c7db86a0-ff64-4044-9be4-66dd1ef1d1c1"
      ],
      "creators": [
        "e5c0a0c0-b2d9-4284-a147-cacf153fa55f"
      ],
      "families": [
        "0377db02-3af6-43b8-9b08-c759df3d25c3"
      ],
      "groups": [
        "8e209ae4-4381-438f-89dc-1b21752027d2"
      ],
      "langs": [
        "4dcf9614-7914-42aa-99f4-dbce2e059133"
      ],
      "origins": [
        "938de218-5343-4865-94d3-fb33f2eaa152"
      ],
      "series": [
        "13cf0b32-197b-42f9-ad32-0b7869807098"
      ],
      "singers": [
        "04985133-db9d-41b2-b286-0fad41c2cb16"
      ],
      "songtypes": [
        "38c77c56-2b95-4040-b676-0994a8cb0597"
      ],
      "songwriters": [
        "bd963bf6-452e-47b4-9ae3-bac4c99c5e1f",
        "6efcd0b6-94eb-4dbb-87a9-5e87cef6b18b"
      ]
    },
    "titles": {
      "qro": "Sparta-jin Kowai",
      "jpn": "スパルタ人こわい"
    },
    "titles_default_language": "qro",
    "year": 2020
  }
}