{
  "header": {
    "version": 4,
    "description": "Karaoke Mugen Karaoke Data File"
  },
  "medias": [
    {
      "version": "Default",
      "filename": "JPN - Piano no Mori TV (2019) - ED - Hajimari no Basho.mp4",
      "audiogain": 3.98,
      "loudnorm": "-22.60,-10.31,7.30,-33.17,-0.98",
      "filesize": 28371508,
      "duration": 88,
      "default": true,
      "lyrics": [
        {
          "filename": "JPN - Piano no Mori TV (2019) - ED - Hajimari no Basho.ass",
          "default": true,
          "version": "Default",
          "subchecksum": "3e89e18e5dcad5dc8de54f5c9b398d93"
        }
      ]
    }
  ],
  "data": {
    "created_at": "2019-10-16T17:41:38.000Z",
    "kid": "1d861b85-b4d7-40d6-b74f-624b6eb5086c",
    "modified_at": "2021-02-25T12:45:32.152Z",
    "repository": "kara.moe",
    "tags": {
      "authors": [
        "e568de19-c003-4d37-8978-98f29ea61cb3"
      ],
      "collections": [
        "c7db86a0-ff64-4044-9be4-66dd1ef1d1c1"
      ],
      "creators": [
        "c759f20a-b567-42e4-868c-65cc1f88e5ec"
      ],
      "families": [
        "0377db02-3af6-43b8-9b08-c759df3d25c3"
      ],
      "groups": [
        "ae613721-1fbe-480d-ba6b-d6d0702b184d"
      ],
      "langs": [
        "4dcf9614-7914-42aa-99f4-dbce2e059133"
      ],
      "origins": [
        "938de218-5343-4865-94d3-fb33f2eaa152"
      ],
      "series": [
        "413160d8-2bac-43f6-aad5-62889d39044f"
      ],
      "singers": [
        "f0ad8a12-d02a-4038-ab77-626270577968"
      ],
      "songtypes": [
        "38c77c56-2b95-4040-b676-0994a8cb0597"
      ],
      "songwriters": [
        "731c9f26-b072-4f14-b3b8-ae8b04835f03",
        "b6b57bde-9045-4a2b-bc78-4a7f80edaedc"
      ]
    },
    "title": "Hajimari no Basho",
    "titles": {
      "qro": "Hajimari no Basho",
      "jpn": "はじまりの場所"
    },
    "year": 2019,
    "titles_default_language": "qro"
  }
}