{
  "header": {
    "version": 4,
    "description": "Karaoke Mugen Karaoke Data File"
  },
  "medias": [
    {
      "version": "Default",
      "filename": "JPN - Ai Otsuka - AUDIO - SMILY ~ Off Vocal Vers.mp3",
      "audiogain": -8.19,
      "loudnorm": "-7.29,2.01,2.20,-17.44,-0.09",
      "filesize": 8621912,
      "duration": 211,
      "default": true,
      "lyrics": [
        {
          "filename": "JPN - Ai Otsuka - AUDIO - SMILY ~ Off Vocal Vers.ass",
          "default": true,
          "version": "Default"
        }
      ]
    }
  ],
  "data": {
    "created_at": "2023-05-24T00:49:57.917Z",
    "ignoreHooks": false,
    "kid": "281a971c-d76e-4a72-a354-c3b2fc358e9f",
    "modified_at": "2023-05-24T00:49:57.983Z",
    "parents": [
      "4318d8ea-aa99-4197-aed3-58965f6ec152"
    ],
    "repository": "kara.moe",
    "tags": {
      "authors": [
        "1db1738f-acdc-42fc-aec3-60f4bddf660d"
      ],
      "collections": [
        "dbcf2c22-524d-4708-99bb-601703633927"
      ],
      "creators": [
        "90caf15e-bc86-46e1-8793-9af7906c8310"
      ],
      "groups": [
        "3c14c864-533c-49e6-a3cc-6969f1233775"
      ],
      "langs": [
        "4dcf9614-7914-42aa-99f4-dbce2e059133"
      ],
      "singers": [
        "7527572f-940e-471e-ad41-91600900baec"
      ],
      "songtypes": [
        "42a262ae-acba-4ab5-a446-c5789c96c821"
      ],
      "songwriters": [
        "7527572f-940e-471e-ad41-91600900baec"
      ],
      "versions": [
        "c0cc87b9-55b9-40f0-878a-fbb9e34c151e"
      ]
    },
    "titles": {
      "eng": "SMILY"
    },
    "titles_default_language": "eng",
    "year": 2005
  }
}