{
  "header": {
    "version": 4,
    "description": "Karaoke Mugen Karaoke Data File"
  },
  "medias": [
    {
      "version": "Default",
      "filename": "JPN - Project SEKAI COLORFUL STAGE! - GAME AMV - KING ~ Cover Vers.mp4",
      "audiogain": -9.35,
      "loudnorm": "-9.37,0.74,4.30,-19.42,-0.43",
      "filesize": 54015660,
      "duration": 135,
      "default": true,
      "lyrics": [
        {
          "filename": "JPN - Project SEKAI COLORFUL STAGE! - GAME AMV - KING ~ Cover Vers.ass",
          "default": true,
          "version": "Default"
        }
      ]
    }
  ],
  "data": {
    "created_at": "2023-03-17T19:12:26.449Z",
    "ignoreHooks": false,
    "kid": "ed3db88b-fc80-4024-94c8-6d7f43e216fe",
    "modified_at": "2023-03-17T19:12:26.786Z",
    "parents": [
      "f62f184f-01d3-43f9-881e-12af215327a7"
    ],
    "repository": "kara.moe",
    "tags": {
      "authors": [
        "87096920-112f-485f-a310-04156cb4624d"
      ],
      "collections": [
        "c7db86a0-ff64-4044-9be4-66dd1ef1d1c1"
      ],
      "creators": [
        "80ef8040-fbaf-4c89-b2e7-27f2a1cb98a2",
        "7eebabcd-52be-47ae-b4c2-c741f20b277a"
      ],
      "families": [
        "0377db02-3af6-43b8-9b08-c759df3d25c3"
      ],
      "genres": [
        "45623cae-6d68-4304-a49b-896d1d6f4580"
      ],
      "groups": [
        "60defa7b-774e-4680-8321-51b742c2e009",
        "8e209ae4-4381-438f-89dc-1b21752027d2"
      ],
      "langs": [
        "4dcf9614-7914-42aa-99f4-dbce2e059133"
      ],
      "misc": [
        "1d6ceadf-a885-47e5-b23b-c07bf668a424"
      ],
      "platforms": [
        "213a1a15-e73a-4a08-b3f6-b6e2745a82e5"
      ],
      "series": [
        "192b33fb-638a-4680-bdb2-a5adb9889849"
      ],
      "singers": [
        "48dc9597-7cd1-482f-8dc0-3e7c72f4b7c3",
        "c889c0b5-a571-408f-8b6a-b3c1d4c6296f"
      ],
      "singergroups": [
        "3978f3e3-2631-47a9-bfc8-9d2804c1074d"
      ],
      "songtypes": [
        "a6c79ce5-89ee-4d50-afe8-3abd7317f6c2"
      ],
      "songwriters": [
        "13b026cd-6c17-4bd1-93ab-f49335c91799"
      ],
      "versions": [
        "03e1e1d2-8641-47b7-bbcb-39a3df9ff21c"
      ],
      "origins": [
        "dbedd6b3-d125-4cd8-aa32-c4175e4ca3a3"
      ]
    },
    "titles": {
      "eng": "KING"
    },
    "titles_default_language": "eng",
    "year": 2021
  }
}