{
  "header": {
    "version": 4,
    "description": "Karaoke Mugen Karaoke Data File"
  },
  "medias": [
    {
      "version": "Default",
      "filename": "JPN - JoJo no Kimyou na Bouken (2012) - AUDIO OP2 - BLOODY STREAM ~ Full Off Vocal Vers.mp3",
      "audiogain": -9.81,
      "loudnorm": "-7.52,1.79,2.80,-17.59,0.16",
      "filesize": 4444357,
      "duration": 262,
      "default": true,
      "lyrics": [
        {
          "filename": "JPN - JoJo no Kimyou na Bouken (2012) - AUDIO OP2 - BLOODY STREAM ~ Full Off Vocal Vers.ass",
          "default": true,
          "version": "Default"
        }
      ]
    }
  ],
  "data": {
    "created_at": "2023-07-11T19:56:01.891Z",
    "ignoreHooks": false,
    "kid": "bb6da76c-8ed9-4b2b-a06e-fcc404f596b3",
    "modified_at": "2023-07-11T19:56:01.971Z",
    "parents": [
      "8009f130-39b8-4221-a052-b234da2a3155"
    ],
    "repository": "kara.moe",
    "songorder": 2,
    "tags": {
      "authors": [
        "604b9132-005f-414a-82b8-e5858e586448"
      ],
      "collections": [
        "c7db86a0-ff64-4044-9be4-66dd1ef1d1c1"
      ],
      "groups": [
        "60defa7b-774e-4680-8321-51b742c2e009",
        "ae613721-1fbe-480d-ba6b-d6d0702b184d"
      ],
      "langs": [
        "4dcf9614-7914-42aa-99f4-dbce2e059133"
      ],
      "series": [
        "1bb112a0-55d4-4ce7-bef1-8d690b03c29d"
      ],
      "singers": [
        "6d39e14c-a077-47ed-af5a-e58b35fa6ffb"
      ],
      "songtypes": [
        "42a262ae-acba-4ab5-a446-c5789c96c821",
        "f02ad9b3-0bd9-4aad-85b3-9976739ba0e4"
      ],
      "songwriters": [
        "36ed7846-c93a-4e89-b677-34c3a8371964",
        "8ab3e904-a053-4771-9142-6b2652c73088"
      ],
      "versions": [
        "c2143a7f-6970-450e-8a79-0302db9220a9",
        "c0cc87b9-55b9-40f0-878a-fbb9e34c151e"
      ],
      "franchises": [
        "bcabadee-eb31-43cf-a3b9-568a2266c6e7"
      ]
    },
    "titles": {
      "eng": "BLOODY STREAM"
    },
    "titles_default_language": "eng",
    "year": 2012
  }
}