{
  "header": {
    "version": 4,
    "description": "Karaoke Mugen Karaoke Data File"
  },
  "medias": [
    {
      "version": "Default",
      "filename": "JPN - Luminous Arc 2 Will - DS GAME OP - Unlimited World.avi",
      "audiogain": -14.9,
      "loudnorm": "-2.86,4.10,5.00,-13.02,-0.39",
      "filesize": 16982886,
      "duration": 94,
      "default": true,
      "lyrics": [
        {
          "filename": "JPN - Luminous Arc 2 Will - DS GAME OP - Unlimited World.ass",
          "default": true,
          "version": "Default",
          "subchecksum": "e3cdef3f1ab3c92dfc6d586ba0d0b92c"
        }
      ]
    }
  ],
  "data": {
    "created_at": "2017-10-11T17:02:50.000Z",
    "kid": "192ababd-b03b-4787-8dd2-f365e48ffe5c",
    "modified_at": "2021-02-25T12:15:18.410Z",
    "repository": "kara.moe",
    "tags": {
      "authors": [
        "5bdaba57-27f8-4568-8806-76a807728766"
      ],
      "collections": [
        "c7db86a0-ff64-4044-9be4-66dd1ef1d1c1"
      ],
      "creators": [
        "f2135722-dc64-49da-9e67-8a2d6262ca98"
      ],
      "groups": [
        "3c14c864-533c-49e6-a3cc-6969f1233775"
      ],
      "langs": [
        "4dcf9614-7914-42aa-99f4-dbce2e059133"
      ],
      "platforms": [
        "fafc313d-8d8a-4445-90b5-aad7928182ab"
      ],
      "series": [
        "f7c6fedd-4fad-4b3c-9c1f-008bfdc502dd"
      ],
      "singers": [
        "84c6dac9-45d5-4043-be30-32ac6c6d8cb4"
      ],
      "songtypes": [
        "f02ad9b3-0bd9-4aad-85b3-9976739ba0e4"
      ],
      "songwriters": [
        "a98edd2f-1b42-4904-ac5b-1c647431239d",
        "cee933c5-2b79-4568-9d05-3540afe4bfe1"
      ],
      "franchises": [
        "9c4844e9-1ba6-4a43-9bb1-1023aa79b60a"
      ],
      "origins": [
        "dbedd6b3-d125-4cd8-aa32-c4175e4ca3a3"
      ]
    },
    "title": "Unlimited World",
    "titles": {
      "eng": "Unlimited World"
    },
    "year": 2008,
    "titles_default_language": "eng"
  }
}