{
  "header": {
    "version": 4,
    "description": "Karaoke Mugen Karaoke Data File"
  },
  "medias": [
    {
      "version": "Default",
      "filename": "JPN - Hirogaru Sky! PreCure - ED1 - Hirogarhythm.mp4",
      "audiogain": 6.2,
      "loudnorm": "-24.50,-12.59,4.80,-34.71,-1.06",
      "filesize": 89196065,
      "duration": 100,
      "default": true,
      "lyrics": [
        {
          "filename": "JPN - Hirogaru Sky! PreCure - ED1 - Hirogarhythm.ass",
          "default": true,
          "version": "Default"
        }
      ]
    }
  ],
  "data": {
    "created_at": "2023-02-05T03:45:34.903Z",
    "ignoreHooks": false,
    "kid": "e0b746bf-974c-4ab7-9087-d25a7ae83e4c",
    "modified_at": "2023-07-02T04:08:54.123Z",
    "repository": "kara.moe",
    "songorder": 1,
    "tags": {
      "authors": [
        "1df04771-a378-4f14-a5e1-1455187d681a"
      ],
      "collections": [
        "c7db86a0-ff64-4044-9be4-66dd1ef1d1c1"
      ],
      "creators": [
        "f694bf43-b427-4244-9744-9d3f84fd8a31"
      ],
      "families": [
        "0377db02-3af6-43b8-9b08-c759df3d25c3"
      ],
      "genres": [
        "b84e28f9-db1e-447f-b339-7954c3592523"
      ],
      "groups": [
        "8e209ae4-4381-438f-89dc-1b21752027d2"
      ],
      "langs": [
        "4dcf9614-7914-42aa-99f4-dbce2e059133"
      ],
      "origins": [
        "938de218-5343-4865-94d3-fb33f2eaa152"
      ],
      "series": [
        "920a7d2e-b243-46b4-a47f-9aa14d5d6570"
      ],
      "singers": [
        "0a4a1409-bf37-41c3-a198-811bc1f893ac",
        "483b0d11-6a93-485e-966a-04236a12a381"
      ],
      "songtypes": [
        "38c77c56-2b95-4040-b676-0994a8cb0597"
      ],
      "songwriters": [
        "52e04248-a3a8-4453-9738-9a8115234f5a",
        "ef45d56a-2eda-4270-b4fc-cbd7e910605d"
      ],
      "franchises": [
        "0067bd2a-ad9f-49eb-9e57-4a3ee0c9622a"
      ]
    },
    "titles": {
      "jpn": "ヒロガリズム",
      "qro": "Hirogarhythm"
    },
    "titles_default_language": "qro",
    "year": 2023
  }
}