{
  "header": {
    "version": 4,
    "description": "Karaoke Mugen Karaoke Data File"
  },
  "medias": [
    {
      "version": "Default",
      "filename": "JPN - Senki Zesshou Symphogear GX Senki Zesshou Shinai Symphogear - OVA AUDIO ED - Itsuka no Niji, Hana no Omoide ~ Full Off Vocal Vers.mp3",
      "audiogain": -2.72,
      "loudnorm": "-14.38,-1.01,3.20,-24.48,-0.18",
      "filesize": 5190451,
      "duration": 206,
      "default": true,
      "lyrics": [
        {
          "filename": "JPN - Senki Zesshou Symphogear GX Senki Zesshou Shinai Symphogear - OVA AUDIO ED - Itsuka no Niji, Hana no Omoide ~ Full Off Vocal Vers.ass",
          "default": true,
          "version": "Default"
        }
      ]
    }
  ],
  "data": {
    "created_at": "2022-12-28T00:35:54.128Z",
    "ignoreHooks": false,
    "kid": "7ab6df72-ce01-4a1b-a03e-7c56d6da4ec2",
    "modified_at": "2022-12-28T00:52:43.049Z",
    "parents": [
      "b9c98741-f730-4cf3-86c0-ebb3d9003ddc"
    ],
    "repository": "kara.moe",
    "tags": {
      "authors": [
        "5cb3d0c5-479e-4224-b6ec-b27209e933a0"
      ],
      "collections": [
        "c7db86a0-ff64-4044-9be4-66dd1ef1d1c1"
      ],
      "creators": [
        "0041fabf-4b82-4ecd-961b-e4c49b8c88be",
        "d2a29c19-019f-4a3d-86ad-2dae9e41a4b1"
      ],
      "genres": [
        "b84e28f9-db1e-447f-b339-7954c3592523",
        "caa86df2-0d59-474b-885c-f240a9e891b0"
      ],
      "groups": [
        "60defa7b-774e-4680-8321-51b742c2e009",
        "ae613721-1fbe-480d-ba6b-d6d0702b184d"
      ],
      "langs": [
        "4dcf9614-7914-42aa-99f4-dbce2e059133"
      ],
      "misc": [
        "1d6ceadf-a885-47e5-b23b-c07bf668a424"
      ],
      "origins": [
        "2a6ef087-a000-4f8e-aeb5-9a7968756a36"
      ],
      "series": [
        "67e8de8a-7463-4743-a8eb-6475906732e9"
      ],
      "singers": [
        "0abac712-6493-4c55-856b-e88f2687e34b",
        "d638c586-47e1-44e4-9976-ad1e47c75c5a"
      ],
      "songtypes": [
        "38c77c56-2b95-4040-b676-0994a8cb0597",
        "42a262ae-acba-4ab5-a446-c5789c96c821"
      ],
      "songwriters": [
        "24926282-3ed9-47bd-867c-404398fbecf9",
        "af3ffe51-8059-461c-bbb8-78ea388731f3"
      ],
      "versions": [
        "c0cc87b9-55b9-40f0-878a-fbb9e34c151e",
        "c2143a7f-6970-450e-8a79-0302db9220a9"
      ],
      "franchises": [
        "61b24082-a6a9-482b-b126-0ad7be595791"
      ]
    },
    "titles": {
      "jpn": "いつかの虹、花の想い出",
      "qro": "Itsuka no Niji, Hana no Omoide"
    },
    "titles_default_language": "qro",
    "year": 2015
  }
}