{
  "header": {
    "version": 4,
    "description": "Karaoke Mugen Karaoke Data File"
  },
  "medias": [
    {
      "version": "Default",
      "filename": "JPN - Mrs. GREEN APPLE - MV - Soranji.mp4",
      "audiogain": -10.73,
      "loudnorm": "-7.41,2.10,10.70,-17.82,-1.72",
      "filesize": 70949703,
      "duration": 341,
      "default": true,
      "lyrics": [
        {
          "filename": "JPN - Mrs. GREEN APPLE - MV - Soranji.ass",
          "default": true,
          "version": "Default"
        }
      ]
    }
  ],
  "data": {
    "created_at": "2023-08-09T19:35:35.034Z",
    "ignoreHooks": false,
    "kid": "a72bc9d5-eb52-4917-913c-11cedf92fe4d",
    "modified_at": "2023-08-09T19:35:35.167Z",
    "repository": "kara.moe",
    "tags": {
      "authors": [
        "7848b5dc-a5df-4577-b640-147be5288cec"
      ],
      "collections": [
        "dbcf2c22-524d-4708-99bb-601703633927"
      ],
      "families": [
        "5391f9fe-638c-415f-8dc9-958e3a2c5787"
      ],
      "langs": [
        "4dcf9614-7914-42aa-99f4-dbce2e059133"
      ],
      "singers": [
        "c90e7377-96a3-4476-851c-c8fa743748d3"
      ],
      "songtypes": [
        "7be1b15c-cff8-4b37-a649-5c90f3d569a9"
      ],
      "songwriters": [
        "6e59f1d5-9dfe-436d-a44d-5698f87b9fb7",
        "25ff1805-c080-4568-82bd-09fb7676665a"
      ],
      "groups": [
        "8e209ae4-4381-438f-89dc-1b21752027d2"
      ],
      "misc": [
        "86705d4b-24e4-4756-9687-2b9c98bcf366"
      ]
    },
    "titles": {
      "qro": "Soranji"
    },
    "titles_default_language": "qro",
    "year": 2022
  }
}