{
  "header": {
    "version": 4,
    "description": "Karaoke Mugen Karaoke Data File"
  },
  "medias": [
    {
      "version": "Default",
      "filename": "JPN - Precure All Stars DX Minna Tomodachi - Kiseki no Zen'in Daishuugou! - MOVIE AMV - Hagane no Messiah.avi",
      "audiogain": -8.98,
      "loudnorm": "-7.87,1.83,3.50,-17.94,-0.63",
      "filesize": 44609072,
      "duration": 230,
      "default": true,
      "lyrics": [
        {
          "filename": "JPN - Precure All Stars DX Minna Tomodachi - Kiseki no Zen'in Daishuugou! - MOVIE AMV - Hagane no Messiah.ass",
          "default": true,
          "version": "Default",
          "subchecksum": "bd3b7bd32f758d831cee165c1799b858"
        }
      ]
    }
  ],
  "data": {
    "created_at": "2017-10-11T17:01:58.000Z",
    "kid": "9a200ed1-df32-4c5a-9200-69850be6febb",
    "modified_at": "2021-02-25T12:47:14.067Z",
    "repository": "kara.moe",
    "tags": {
      "authors": [
        "5bdaba57-27f8-4568-8806-76a807728766"
      ],
      "collections": [
        "c7db86a0-ff64-4044-9be4-66dd1ef1d1c1"
      ],
      "creators": [
        "f694bf43-b427-4244-9744-9d3f84fd8a31"
      ],
      "families": [
        "0377db02-3af6-43b8-9b08-c759df3d25c3"
      ],
      "genres": [
        "b84e28f9-db1e-447f-b339-7954c3592523"
      ],
      "groups": [
        "3c14c864-533c-49e6-a3cc-6969f1233775"
      ],
      "langs": [
        "4dcf9614-7914-42aa-99f4-dbce2e059133"
      ],
      "origins": [
        "c8ca9dea-d8b4-48fe-8427-d911653232e9"
      ],
      "series": [
        "5fbd8fe2-1de9-4e74-92e9-dd96a14c6a24"
      ],
      "singers": [
        "a14aaac9-98b8-4298-a7d6-ea4945750704"
      ],
      "songtypes": [
        "a6c79ce5-89ee-4d50-afe8-3abd7317f6c2"
      ],
      "songwriters": [
        "162799fe-de2f-4f72-99a2-8c606aee4f2d",
        "ce47006e-3639-4600-a642-612d98aee2ca",
        "e6fe203e-3d1a-4d95-9a1a-e2722586754f"
      ],
      "franchises": [
        "0067bd2a-ad9f-49eb-9e57-4a3ee0c9622a"
      ]
    },
    "title": "Hagane no Messiah",
    "titles": {
      "qro": "Hagane no Messiah",
      "jpn": "鋼の救世主"
    },
    "year": 2009,
    "titles_default_language": "qro"
  }
}