{
  "header": {
    "version": 4,
    "description": "Karaoke Mugen Karaoke Data File"
  },
  "medias": [
    {
      "version": "Default",
      "filename": "JPN - Kidou Senshi Gundam 00 2nd Season - ED2 - trust you.mp4",
      "audiogain": 1.97,
      "loudnorm": "-20.80,-9.36,6.00,-31.06,-1.66",
      "filesize": 49652558,
      "duration": 93,
      "default": true,
      "lyrics": [
        {
          "filename": "JPN - Kidou Senshi Gundam 00 2nd Season - ED2 - trust you.ass",
          "default": true,
          "version": "Default",
          "subchecksum": "22d49d5e463d105fad7c5e9b90a2b88b"
        }
      ]
    }
  ],
  "data": {
    "created_at": "2017-10-11T17:02:28.000Z",
    "kid": "580f1348-0f52-40f2-9990-cb639d99e03b",
    "modified_at": "2021-02-25T11:59:13.679Z",
    "repository": "kara.moe",
    "songorder": 2,
    "tags": {
      "authors": [
        "5bdaba57-27f8-4568-8806-76a807728766"
      ],
      "collections": [
        "c7db86a0-ff64-4044-9be4-66dd1ef1d1c1"
      ],
      "creators": [
        "ef8f80e1-d244-4aea-b7f0-984d6dd4b82b"
      ],
      "families": [
        "0377db02-3af6-43b8-9b08-c759df3d25c3"
      ],
      "genres": [
        "f60ba57d-5ef4-49e0-b93b-d0dcbcff6592"
      ],
      "groups": [
        "3c14c864-533c-49e6-a3cc-6969f1233775"
      ],
      "langs": [
        "4dcf9614-7914-42aa-99f4-dbce2e059133"
      ],
      "origins": [
        "938de218-5343-4865-94d3-fb33f2eaa152"
      ],
      "series": [
        "ec6d3306-9270-4eb5-8128-19e729299317"
      ],
      "singers": [
        "61d69e90-415f-4484-826b-96a9b20e9539"
      ],
      "songtypes": [
        "38c77c56-2b95-4040-b676-0994a8cb0597"
      ],
      "songwriters": [
        "2b0a51b8-8b5d-4d6c-b755-97fcdff86ab5"
      ],
      "franchises": [
        "e6ade589-c2e4-49a1-acdb-ea9b03e57240"
      ]
    },
    "title": "trust you",
    "titles": {
      "eng": "trust you"
    },
    "year": 2009,
    "titles_default_language": "eng"
  }
}