{
  "header": {
    "version": 4,
    "description": "Karaoke Mugen Karaoke Data File"
  },
  "medias": [
    {
      "version": "Default",
      "filename": "JPN - En'en no shouboutai - ED2 - Nounai.mp4",
      "audiogain": 1.91,
      "loudnorm": "-17.97,-8.72,2.80,-28.23,-0.20",
      "filesize": 10127032,
      "duration": 90,
      "default": true,
      "lyrics": [
        {
          "filename": "JPN - En'en no shouboutai - ED2 - Nounai.ass",
          "default": true,
          "version": "Default"
        }
      ]
    }
  ],
  "data": {
    "created_at": "2020-02-14T22:06:02.777Z",
    "ignoreHooks": false,
    "kid": "f27e3fd6-bd62-4d9b-9b0d-510fbba3ccf8",
    "modified_at": "2022-10-01T11:01:35.623Z",
    "repository": "kara.moe",
    "songorder": 2,
    "tags": {
      "authors": [
        "56b54c89-86ae-4635-992f-ddc1234b8015"
      ],
      "collections": [
        "c7db86a0-ff64-4044-9be4-66dd1ef1d1c1"
      ],
      "creators": [
        "31087ed3-5edd-4d32-8379-ab70bf5db185"
      ],
      "families": [
        "0377db02-3af6-43b8-9b08-c759df3d25c3"
      ],
      "genres": [
        "a0aeef4a-6428-45ff-a6e1-468b595930c2"
      ],
      "groups": [
        "8c22c899-b3ed-42da-a548-ce00f950798b",
        "ae613721-1fbe-480d-ba6b-d6d0702b184d"
      ],
      "langs": [
        "4dcf9614-7914-42aa-99f4-dbce2e059133"
      ],
      "origins": [
        "938de218-5343-4865-94d3-fb33f2eaa152"
      ],
      "series": [
        "bab4a47c-7a0c-401b-a2ca-f87a01ae733e"
      ],
      "singers": [
        "4e65387a-e1be-4f0a-8fdf-31143c64c518"
      ],
      "songtypes": [
        "38c77c56-2b95-4040-b676-0994a8cb0597"
      ],
      "songwriters": [
        "1a6e66a8-263a-456b-9d72-9dc319a030c9",
        "3cd850b0-30a4-4c6b-8680-9cc39ce97c6a",
        "4e65387a-e1be-4f0a-8fdf-31143c64c518"
      ],
      "franchises": [
        "bab4a47c-7a0c-401b-a2ca-f87a01ae733e"
      ]
    },
    "titles": {
      "jpn": "脳内",
      "qro": "Nônai"
    },
    "titles_default_language": "qro",
    "title": "Nônai",
    "year": 2019,
    "titles_aliases": [
      "Nounai"
    ]
  }
}