{
  "header": {
    "version": 4,
    "description": "Karaoke Mugen Karaoke Data File"
  },
  "medias": [
    {
      "version": "Default",
      "filename": "JPN - Link! Like! Love Live! - AUDIO - Hajimari wa Kimi no Sora ~ Cover Short Vers.mp3",
      "loudnorm": "-8.59,1.35,4.20,-18.79,-0.58",
      "filesize": 4842437,
      "duration": 114,
      "default": true,
      "lyrics": [
        {
          "filename": "JPN - Link! Like! Love Live! - AUDIO - Hajimari wa Kimi no Sora ~ Cover Short Vers.ass",
          "default": true,
          "version": "Default"
        }
      ]
    }
  ],
  "data": {
    "created_at": "2023-09-19T19:31:02.955Z",
    "ignoreHooks": false,
    "kid": "b034e831-817c-4edc-a1f9-8c3ce78e2554",
    "modified_at": "2023-09-19T20:20:55.635Z",
    "parents": [
      "2a8613e5-fddb-4887-b2ed-fe9c2906e341"
    ],
    "repository": "kara.moe",
    "tags": {
      "authors": [
        "16b136eb-921f-4c07-be38-ff92d5cc4313"
      ],
      "collections": [
        "dbcf2c22-524d-4708-99bb-601703633927"
      ],
      "creators": [
        "b2805292-730e-473a-96f0-fd8e7ffd1fd7"
      ],
      "genres": [
        "caa86df2-0d59-474b-885c-f240a9e891b0"
      ],
      "groups": [
        "8e209ae4-4381-438f-89dc-1b21752027d2"
      ],
      "langs": [
        "4dcf9614-7914-42aa-99f4-dbce2e059133"
      ],
      "misc": [
        "1d6ceadf-a885-47e5-b23b-c07bf668a424"
      ],
      "series": [
        "c6245b47-6ad8-498a-b790-e6b8a50fea5e"
      ],
      "singers": [
        "4e39a0e7-c012-4be9-a2c9-f09cf8d3a31b",
        "f5569c82-f01f-4cdb-b1c2-a0db10706211"
      ],
      "singergroups": [
        "4af676a8-9381-477e-99c2-e693b416f095"
      ],
      "songtypes": [
        "42a262ae-acba-4ab5-a446-c5789c96c821"
      ],
      "songwriters": [
        "0b44d345-2524-4d13-8e72-fe9518a888e6",
        "f41e7218-6c19-4e19-9b5f-4612dcd58243"
      ],
      "versions": [
        "03e1e1d2-8641-47b7-bbcb-39a3df9ff21c",
        "d125c80a-86c1-4321-88e9-07b7800679b6"
      ],
      "franchises": [
        "fd5d066e-e85a-4eea-8688-2979a887450a"
      ]
    },
    "titles": {
      "jpn": "始まりは君の空",
      "qro": "Hajimari wa Kimi no Sora"
    },
    "titles_default_language": "qro",
    "year": 2023
  }
}