{
  "header": {
    "version": 4,
    "description": "Karaoke Mugen Karaoke Data File"
  },
  "medias": [
    {
      "version": "Default",
      "filename": "JPN - Robotics Notes DaSH - PS4 PC SWITCH GAME OP - Avant Story.mp4",
      "audiogain": -0.73,
      "loudnorm": "-17.14,-6.65,8.00,-27.63,-1.71",
      "filesize": 25143803,
      "duration": 147,
      "default": true,
      "lyrics": [
        {
          "filename": "JPN - Robotics Notes DaSH - PS4 PC SWITCH GAME OP - Avant Story.ass",
          "default": true,
          "version": "Default",
          "subchecksum": "ef9d775d6b4893837e859a8d9b121e38"
        }
      ]
    }
  ],
  "data": {
    "created_at": "2020-10-25T23:10:03.779Z",
    "kid": "b3949955-883f-475b-ba9e-f98b696ee141",
    "modified_at": "2021-06-04T19:43:29.632Z",
    "repository": "kara.moe",
    "tags": {
      "authors": [
        "4ac9beaf-6d3c-4c22-b202-03b4d88198aa"
      ],
      "collections": [
        "c7db86a0-ff64-4044-9be4-66dd1ef1d1c1"
      ],
      "creators": [
        "7a8ad2ad-018d-4341-9be4-77bfc39a6edd"
      ],
      "groups": [
        "8c22c899-b3ed-42da-a548-ce00f950798b",
        "ae613721-1fbe-480d-ba6b-d6d0702b184d"
      ],
      "langs": [
        "4dcf9614-7914-42aa-99f4-dbce2e059133"
      ],
      "origins": [
        "2f96e82c-c61b-4413-817e-e6b247509b95",
        "dbedd6b3-d125-4cd8-aa32-c4175e4ca3a3"
      ],
      "platforms": [
        "0a880bfc-d0e5-448b-98d2-4ba7b3106641",
        "248d92ee-8c02-43bc-86e2-cc6029883564",
        "3c15f758-e1bc-4266-8bb9-3c14112f504a"
      ],
      "series": [
        "fac0227c-dc25-45fa-8790-2a4218449c0d"
      ],
      "singers": [
        "a5f6e279-1434-4e16-9034-0b70c726f581"
      ],
      "songtypes": [
        "f02ad9b3-0bd9-4aad-85b3-9976739ba0e4"
      ],
      "songwriters": [
        "1bd8292e-87c3-47a2-81a8-6974a9acea1e",
        "66339ced-7df9-40c8-aefd-59b2990df294"
      ],
      "franchises": [
        "e7519ade-4a52-4f91-8aec-70c519a25063"
      ]
    },
    "title": "Avant Story",
    "titles": {
      "eng": "Avant Story"
    },
    "year": 2019,
    "titles_default_language": "eng"
  }
}