{
  "header": {
    "version": 4,
    "description": "Karaoke Mugen Karaoke Data File"
  },
  "medias": [
    {
      "version": "Default",
      "filename": "JPN - Kaguya-sama wa Kokurasetai First Kiss wa Owaranai - MV - Love is Show ~ Full Vers.mp4",
      "audiogain": -4.1,
      "loudnorm": "-13.97,-2.83,4.90,-24.00,-0.02",
      "filesize": 73200836,
      "duration": 250,
      "default": true,
      "lyrics": [
        {
          "filename": "JPN - Kaguya-sama wa Kokurasetai First Kiss wa Owaranai - MV - Love is Show ~ Full Vers.ass",
          "default": true,
          "version": "Default"
        }
      ]
    }
  ],
  "data": {
    "created_at": "2023-02-12T02:28:29.338Z",
    "ignoreHooks": false,
    "kid": "6677976d-37d4-4912-9127-3d2c30abb654",
    "modified_at": "2023-07-17T21:39:04.256Z",
    "parents": [
      "542195e9-6125-4f31-a7dd-4a797de2f0ba"
    ],
    "repository": "kara.moe",
    "tags": {
      "authors": [
        "06852e02-b77e-4106-b6f7-2d03942ad0ea"
      ],
      "collections": [
        "dbcf2c22-524d-4708-99bb-601703633927"
      ],
      "creators": [
        "43124e1f-bc9d-4218-b41e-bfb33aa11dde"
      ],
      "families": [
        "5391f9fe-638c-415f-8dc9-958e3a2c5787"
      ],
      "groups": [
        "8e209ae4-4381-438f-89dc-1b21752027d2"
      ],
      "langs": [
        "4dcf9614-7914-42aa-99f4-dbce2e059133"
      ],
      "misc": [
        "1d6ceadf-a885-47e5-b23b-c07bf668a424",
        "86705d4b-24e4-4756-9687-2b9c98bcf366"
      ],
      "series": [
        "7937c29a-4b57-48ed-a88e-af62a4daab55"
      ],
      "singers": [
        "743d6d16-572c-420e-95f3-ebc8ac2e742f",
        "be9b0fc0-b695-4244-929e-676c2190d639"
      ],
      "songtypes": [
        "7be1b15c-cff8-4b37-a649-5c90f3d569a9"
      ],
      "songwriters": [
        "52944693-acb2-44bf-86bb-5057d837def8",
        "9440a48e-d17c-45af-9340-f3f77042ea4e"
      ],
      "versions": [
        "c2143a7f-6970-450e-8a79-0302db9220a9"
      ],
      "franchises": [
        "4898cebc-d830-4917-9651-1e80225bd02e"
      ]
    },
    "titles": {
      "eng": "Love is Show"
    },
    "titles_default_language": "eng",
    "year": 2022
  }
}