{
  "header": {
    "version": 4,
    "description": "Karaoke Mugen Karaoke Data File"
  },
  "medias": [
    {
      "version": "Default",
      "filename": "JPN - Link! Like! Love Live! - AUDIO - Hakuchuu a la Mode.mp3",
      "loudnorm": "-9.26,0.90,3.40,-19.37,-0.46",
      "filesize": 7352258,
      "duration": 177,
      "default": true,
      "lyrics": [
        {
          "filename": "JPN - Link! Like! Love Live! - AUDIO - Hakuchuu a la Mode.ass",
          "default": true,
          "version": "Default"
        }
      ]
    }
  ],
  "data": {
    "created_at": "2023-09-10T20:49:44.408Z",
    "ignoreHooks": false,
    "kid": "636e7a37-a544-401f-8207-87e418359605",
    "modified_at": "2023-09-10T20:50:24.891Z",
    "repository": "kara.moe",
    "tags": {
      "authors": [
        "16b136eb-921f-4c07-be38-ff92d5cc4313"
      ],
      "collections": [
        "dbcf2c22-524d-4708-99bb-601703633927"
      ],
      "creators": [
        "b2805292-730e-473a-96f0-fd8e7ffd1fd7"
      ],
      "genres": [
        "caa86df2-0d59-474b-885c-f240a9e891b0"
      ],
      "groups": [
        "8e209ae4-4381-438f-89dc-1b21752027d2"
      ],
      "langs": [
        "4dcf9614-7914-42aa-99f4-dbce2e059133"
      ],
      "series": [
        "c6245b47-6ad8-498a-b790-e6b8a50fea5e"
      ],
      "singers": [
        "17818c7e-96d1-49fa-963d-10736db97eaf",
        "e3d01809-fae7-4e97-bff3-73e4fc204ef3"
      ],
      "singergroups": [
        "6259e843-a838-4f27-b10a-ee825866bef6"
      ],
      "songtypes": [
        "42a262ae-acba-4ab5-a446-c5789c96c821"
      ],
      "songwriters": [
        "cb9b1959-0972-4eb8-9955-c2e4a4f3988d"
      ],
      "franchises": [
        "fd5d066e-e85a-4eea-8688-2979a887450a"
      ]
    },
    "titles": {
      "jpn": "ハクチューアラモード",
      "qro": "Hakuchuu à la Mode"
    },
    "titles_default_language": "qro",
    "year": 2023
  }
}