{
  "header": {
    "description": "Karaoke Mugen Karaoke Data File",
    "version": 4
  },
  "medias": [
    {
      "version": "Default",
      "filename": "JPN - Touhou - REMIX GAME MV - Koi no Moonlight Romance.mp4",
      "audiogain": -9.01,
      "loudnorm": "-9.34,1.48,7.60,-19.90,-0.79",
      "filesize": 13288332,
      "duration": 201,
      "default": true,
      "lyrics": [
        {
          "filename": "JPN - Touhou - REMIX GAME MV - Koi no Moonlight Romance.ass",
          "default": true,
          "version": "Default"
        }
      ]
    }
  ],
  "data": {
    "created_at": "2022-10-09T21:29:37.623Z",
    "kid": "b415d127-8154-4e3d-b936-8d7a2fee2b7b",
    "modified_at": "2022-10-09T21:29:37.623Z",
    "tags": {
      "authors": [
        "1fbfef73-6731-40df-ba51-65a54b9d1605"
      ],
      "collections": [
        "c7db86a0-ff64-4044-9be4-66dd1ef1d1c1"
      ],
      "creators": [
        "74c51489-0e29-4c78-b427-96af097fe4b4"
      ],
      "groups": [
        "3c14c864-533c-49e6-a3cc-6969f1233775"
      ],
      "langs": [
        "4dcf9614-7914-42aa-99f4-dbce2e059133"
      ],
      "misc": [
        "ec4360fa-3e3c-4f6f-b0e1-fb8b12b6dd18"
      ],
      "origins": [
        "ac5085db-52d8-44b4-8fbb-1697b24d2046",
        "dbedd6b3-d125-4cd8-aa32-c4175e4ca3a3"
      ],
      "series": [
        "1bdaa5a1-dfa6-4365-b746-7a0b194dafd6"
      ],
      "singers": [
        "0bf9b89f-6409-4b89-959a-356ba1fe33c7"
      ],
      "songtypes": [
        "7be1b15c-cff8-4b37-a649-5c90f3d569a9"
      ],
      "songwriters": [
        "26cb5252-8510-49e0-897c-a611a05fc056",
        "aea124f4-55f7-4502-a6a3-a90f6d8f9c4c",
        "b2eeec47-f2ac-4ef6-b899-1d5eaa6b49b1"
      ],
      "franchises": [
        "1bdaa5a1-dfa6-4365-b746-7a0b194dafd6"
      ]
    },
    "titles": {
      "jpn": "恋のムーンライトロマンス",
      "qro": "Koi no Moonlight Romance",
      "eng": "Moonlight Romance of Love"
    },
    "titles_default_language": "qro",
    "titles_aliases": [],
    "title": "Koi no Moonlight Romance",
    "year": "2009",
    "repository": "kara.moe"
  }
}