{
  "header": {
    "version": 4,
    "description": "Karaoke Mugen Karaoke Data File"
  },
  "medias": [
    {
      "version": "Default",
      "filename": "JPN - Cardfight!! Vanguard (2018) - OP1 - Legendary.mp4",
      "audiogain": 6.35,
      "loudnorm": "-22.95,-11.02,1.80,-32.98,-0.19",
      "filesize": 44979737,
      "duration": 90,
      "default": true,
      "lyrics": [
        {
          "filename": "JPN - Cardfight!! Vanguard (2018) - OP1 - Legendary.ass",
          "default": true,
          "version": "Default",
          "subchecksum": "7db8b6e32f64af436bdf8a38f5257cd7"
        }
      ]
    }
  ],
  "data": {
    "created_at": "2018-11-13T18:33:21.000Z",
    "kid": "2c387457-d213-42af-9f96-b6498a161170",
    "modified_at": "2021-02-25T10:59:35.948Z",
    "repository": "kara.moe",
    "songorder": 1,
    "tags": {
      "authors": [
        "2a9bbf75-0722-4b4a-9935-caa92f38fdd1"
      ],
      "collections": [
        "c7db86a0-ff64-4044-9be4-66dd1ef1d1c1"
      ],
      "creators": [
        "03fe574b-c7f5-4520-96dc-47320c39e2cc"
      ],
      "families": [
        "0377db02-3af6-43b8-9b08-c759df3d25c3"
      ],
      "genres": [
        "a0aeef4a-6428-45ff-a6e1-468b595930c2"
      ],
      "groups": [
        "ae613721-1fbe-480d-ba6b-d6d0702b184d"
      ],
      "langs": [
        "4dcf9614-7914-42aa-99f4-dbce2e059133"
      ],
      "origins": [
        "938de218-5343-4865-94d3-fb33f2eaa152"
      ],
      "series": [
        "9393078b-f043-43bb-b4c2-bf800234c408"
      ],
      "singers": [
        "b6ca1298-fced-405c-9c84-eab18ebc38ba"
      ],
      "songtypes": [
        "f02ad9b3-0bd9-4aad-85b3-9976739ba0e4"
      ],
      "songwriters": [
        "60c782e0-d553-46c4-a470-bf13b3c88689",
        "af3ffe51-8059-461c-bbb8-78ea388731f3"
      ],
      "franchises": [
        "eb019fe4-8aef-4d22-a86a-459d8f472dc2"
      ]
    },
    "title": "Legendary",
    "titles": {
      "eng": "Legendary"
    },
    "year": 2018,
    "titles_default_language": "eng"
  }
}