{
  "header": {
    "version": 4,
    "description": "Karaoke Mugen Karaoke Data File"
  },
  "medias": [
    {
      "version": "Default",
      "filename": "JPN - Yuko Suzuhana - MV - Cradle of Eternity ~ Full Vers.mp4",
      "loudnorm": "-4.85,1.29,3.20,-15.03,-0.62",
      "filesize": 252805939,
      "duration": 273,
      "default": true,
      "lyrics": [
        {
          "filename": "JPN - Yuko Suzuhana - MV - Cradle of Eternity ~ Full Vers.ass",
          "default": true,
          "version": "Default"
        }
      ]
    }
  ],
  "data": {
    "created_at": "2021-11-26T22:51:24.798Z",
    "ignoreHooks": false,
    "kid": "4aa4e1cc-4cc9-46c8-8215-feebf971bd41",
    "modified_at": "2023-09-11T16:56:32.640Z",
    "repository": "kara.moe",
    "tags": {
      "authors": [
        "2c1f4c76-4de9-4548-9aa5-bc64ab296076"
      ],
      "collections": [
        "dbcf2c22-524d-4708-99bb-601703633927"
      ],
      "creators": [
        "90caf15e-bc86-46e1-8793-9af7906c8310"
      ],
      "families": [
        "5391f9fe-638c-415f-8dc9-958e3a2c5787"
      ],
      "groups": [
        "ae613721-1fbe-480d-ba6b-d6d0702b184d"
      ],
      "langs": [
        "4dcf9614-7914-42aa-99f4-dbce2e059133"
      ],
      "singers": [
        "d60eec15-cfdf-42eb-9ae6-d442e58747db"
      ],
      "songtypes": [
        "7be1b15c-cff8-4b37-a649-5c90f3d569a9"
      ],
      "songwriters": [
        "3983820b-bf9d-4263-bdf7-310753587ef8",
        "749a8519-14c2-418d-8f84-7e81b015089d"
      ],
      "versions": [
        "c2143a7f-6970-450e-8a79-0302db9220a9"
      ]
    },
    "titles": {
      "eng": "Cradle of Eternity",
      "jpn": "永世のクレイドル",
      "qro": "Eisei no Cradle"
    },
    "titles_default_language": "eng",
    "year": 2016
  }
}