{
  "header": {
    "version": 4,
    "description": "Karaoke Mugen Karaoke Data File"
  },
  "medias": [
    {
      "version": "Default",
      "filename": "JPN - Love Live! Sunshine!! - MV - KU-RU-KU-RU Cruller!.mp4",
      "audiogain": -5.93,
      "loudnorm": "-11.91,-0.62,5.90,-22.05,-0.58",
      "filesize": 237048323,
      "duration": 264,
      "default": true,
      "lyrics": [
        {
          "filename": "JPN - Love Live! Sunshine!! - MV - KU-RU-KU-RU Cruller!.ass",
          "default": true,
          "version": "Default"
        }
      ]
    }
  ],
  "data": {
    "created_at": "2022-01-18T20:47:00.080Z",
    "ignoreHooks": false,
    "kid": "8a8a1ae4-7a8a-4f43-9581-c1c7752fa894",
    "modified_at": "2022-11-15T18:31:21.153Z",
    "repository": "kara.moe",
    "tags": {
      "authors": [
        "769104f8-012b-4e06-90b9-1a24cda992b1"
      ],
      "collections": [
        "c7db86a0-ff64-4044-9be4-66dd1ef1d1c1"
      ],
      "creators": [
        "b2805292-730e-473a-96f0-fd8e7ffd1fd7",
        "ef8f80e1-d244-4aea-b7f0-984d6dd4b82b"
      ],
      "families": [
        "0377db02-3af6-43b8-9b08-c759df3d25c3"
      ],
      "genres": [
        "caa86df2-0d59-474b-885c-f240a9e891b0"
      ],
      "groups": [
        "8e209ae4-4381-438f-89dc-1b21752027d2"
      ],
      "langs": [
        "4dcf9614-7914-42aa-99f4-dbce2e059133"
      ],
      "origins": [
        "938de218-5343-4865-94d3-fb33f2eaa152"
      ],
      "series": [
        "63466536-1102-4f91-b167-4380d274e2a3"
      ],
      "singergroups": [
        "b34161c7-a60d-4f1a-8436-11abc0875436"
      ],
      "songtypes": [
        "7be1b15c-cff8-4b37-a649-5c90f3d569a9"
      ],
      "songwriters": [
        "70fe407b-f62f-4f2d-afdc-201cd297c05f",
        "b976faee-1c39-400d-ad74-2c0b17fc8f6f",
        "f41e7218-6c19-4e19-9b5f-4612dcd58243"
      ],
      "franchises": [
        "fd5d066e-e85a-4eea-8688-2979a887450a"
      ]
    },
    "titles": {
      "qro": "KU-RU-KU-RU Cruller!"
    },
    "titles_default_language": "qro",
    "year": 2021
  }
}