{
  "header": {
    "version": 4,
    "description": "Karaoke Mugen Karaoke Data File"
  },
  "medias": [
    {
      "version": "Default",
      "filename": "JPN - BABYMETAL - MV - Ijime, Dame, Zettai.mp4",
      "audiogain": -11.66,
      "loudnorm": "-5.54,3.56,6.50,-15.71,-1.20",
      "filesize": 131923134,
      "duration": 369,
      "default": true,
      "lyrics": [
        {
          "filename": "JPN - BABYMETAL - MV - Ijime, Dame, Zettai.ass",
          "default": true,
          "version": "Default"
        }
      ]
    }
  ],
  "data": {
    "created_at": "2020-08-16T18:22:58.355Z",
    "ignoreHooks": false,
    "kid": "95e6d803-4ff3-4f52-bfc6-c544a56822ce",
    "modified_at": "2023-04-08T13:11:18.094Z",
    "repository": "kara.moe",
    "tags": {
      "authors": [
        "d96d3624-805c-45ec-beff-80c44b493714"
      ],
      "collections": [
        "dbcf2c22-524d-4708-99bb-601703633927"
      ],
      "creators": [
        "6b7472ff-6bb9-4420-8a59-a322b9677779"
      ],
      "families": [
        "5391f9fe-638c-415f-8dc9-958e3a2c5787"
      ],
      "groups": [
        "ae613721-1fbe-480d-ba6b-d6d0702b184d"
      ],
      "langs": [
        "4dcf9614-7914-42aa-99f4-dbce2e059133"
      ],
      "misc": [
        "86705d4b-24e4-4756-9687-2b9c98bcf366"
      ],
      "singergroups": [
        "e95f8edf-36e0-401f-8a73-dad70086a7eb"
      ],
      "songtypes": [
        "7be1b15c-cff8-4b37-a649-5c90f3d569a9"
      ],
      "songwriters": [
        "20a05b3b-a085-4e4e-bda8-9ac69d801204",
        "750591c1-f6c0-4eb1-9918-1b976307f2c9",
        "b9fcb2ea-6828-4c81-86dd-01a3a59edc8b"
      ]
    },
    "titles": {
      "jpn": "イジメ、ダメ、ゼッタイ",
      "qro": "Ijime, Dame, Zettai"
    },
    "titles_default_language": "qro",
    "year": 2013
  }
}