{
  "header": {
    "version": 4,
    "description": "Karaoke Mugen Karaoke Data File"
  },
  "medias": [
    {
      "version": "Default",
      "filename": "JPN - Tate no Yuusha no Nariagari - OP1 - Rise.mp4",
      "audiogain": 1.62,
      "loudnorm": "-18.71,-11.87,3.50,-28.75,-0.90",
      "filesize": 56159997,
      "duration": 92,
      "default": true,
      "lyrics": [
        {
          "filename": "JPN - Tate no Yuusha no Nariagari - OP1 - Rise.ass",
          "default": true,
          "version": "Default"
        }
      ]
    }
  ],
  "data": {
    "created_at": "2019-03-28T22:37:13.000Z",
    "ignoreHooks": false,
    "kid": "868d7406-c4bb-4418-9413-dd0d5ef5fa5b",
    "modified_at": "2022-09-10T16:59:57.609Z",
    "repository": "kara.moe",
    "songorder": 1,
    "tags": {
      "authors": [
        "0081300d-c0f9-4cff-a4f7-e726a293a76b"
      ],
      "collections": [
        "c7db86a0-ff64-4044-9be4-66dd1ef1d1c1"
      ],
      "creators": [
        "08df259d-c4ec-458e-a066-af38a9f7ccc5"
      ],
      "families": [
        "0377db02-3af6-43b8-9b08-c759df3d25c3"
      ],
      "groups": [
        "8c22c899-b3ed-42da-a548-ce00f950798b",
        "ae613721-1fbe-480d-ba6b-d6d0702b184d"
      ],
      "langs": [
        "4dcf9614-7914-42aa-99f4-dbce2e059133"
      ],
      "misc": [
        "fe819ff1-9db8-4a0f-85dc-0e322c9126c4"
      ],
      "origins": [
        "938de218-5343-4865-94d3-fb33f2eaa152"
      ],
      "series": [
        "eb3b1478-3754-47b8-b0da-6b4d8a95b41f"
      ],
      "singers": [
        "160dbb39-5927-49d2-908f-c4e0784f73b3"
      ],
      "songtypes": [
        "f02ad9b3-0bd9-4aad-85b3-9976739ba0e4"
      ],
      "songwriters": [
        "160dbb39-5927-49d2-908f-c4e0784f73b3"
      ],
      "franchises": [
        "1258029b-65d4-4204-a2b1-be863c66353f"
      ]
    },
    "titles": {
      "eng": "RISE"
    },
    "titles_default_language": "eng",
    "title": "Rise",
    "year": 2019
  }
}