{
  "header": {
    "version": 4,
    "description": "Karaoke Mugen Karaoke Data File"
  },
  "medias": [
    {
      "version": "Default",
      "filename": "JPN - Senki Zesshou Symphogear G - CS LIVE - Waikyou Shenshoujing ~ Full Vers.mp4",
      "audiogain": 0.01,
      "loudnorm": "-16.94,-4.97,4.20,-27.00,-0.87",
      "filesize": 107043054,
      "duration": 280,
      "default": true,
      "lyrics": [
        {
          "filename": "JPN - Senki Zesshou Symphogear G - CS LIVE - Waikyou Shenshoujing ~ Full Vers.ass",
          "default": true,
          "version": "Default"
        }
      ]
    }
  ],
  "data": {
    "created_at": "2022-06-08T00:13:52.783Z",
    "ignoreHooks": false,
    "kid": "9d9684d4-f8e5-453b-97a5-3838060eac55",
    "modified_at": "2022-11-06T18:16:32.446Z",
    "repository": "kara.moe",
    "tags": {
      "authors": [
        "a5dbab74-510b-48c5-9cea-5a537a81c974"
      ],
      "collections": [
        "dbcf2c22-524d-4708-99bb-601703633927"
      ],
      "creators": [
        "d2a29c19-019f-4a3d-86ad-2dae9e41a4b1"
      ],
      "families": [
        "5391f9fe-638c-415f-8dc9-958e3a2c5787"
      ],
      "groups": [
        "8c22c899-b3ed-42da-a548-ce00f950798b",
        "ae613721-1fbe-480d-ba6b-d6d0702b184d"
      ],
      "langs": [
        "4dcf9614-7914-42aa-99f4-dbce2e059133"
      ],
      "series": [
        "f56a6158-95bb-4dc3-a8fc-2626a9a9b89e"
      ],
      "singers": [
        "d638c586-47e1-44e4-9976-ad1e47c75c5a"
      ],
      "songtypes": [
        "a0167949-580c-4de3-bf13-497e462e02f3",
        "a8a2616c-b5a1-4df3-ad6f-89291bc67dee"
      ],
      "songwriters": [
        "400922df-5396-43ea-a338-90771426a74f",
        "af3ffe51-8059-461c-bbb8-78ea388731f3"
      ],
      "versions": [
        "c2143a7f-6970-450e-8a79-0302db9220a9"
      ],
      "franchises": [
        "61b24082-a6a9-482b-b126-0ad7be595791"
      ]
    },
    "titles": {
      "jpn": "歪鏡・シェンショウジン",
      "qro": "Waikyô Shenshôjing"
    },
    "titles_default_language": "qro",
    "title": "Waikyô Shenshôjing",
    "year": 2016,
    "titles_aliases": [
      "Waikyou",
      "Shenshoujing"
    ]
  }
}