{
  "header": {
    "version": 4,
    "description": "Karaoke Mugen Karaoke Data File"
  },
  "medias": [
    {
      "version": "Default",
      "filename": "JPN - Senki Zesshou Symphogear - AUDIO CS - FIRST LOVE SONG ~ Full Vers.mp3",
      "audiogain": -5.91,
      "loudnorm": "-11.83,-3.59,7.40,-21.95,-0.57",
      "filesize": 11334109,
      "duration": 279,
      "default": true,
      "lyrics": [
        {
          "filename": "JPN - Senki Zesshou Symphogear - AUDIO CS - FIRST LOVE SONG ~ Full Vers.ass",
          "default": true,
          "version": "Default"
        }
      ]
    }
  ],
  "data": {
    "created_at": "2022-10-23T17:20:46.709Z",
    "ignoreHooks": false,
    "kid": "5c5078e5-53c2-4048-9e4f-5599f9d7a0a9",
    "modified_at": "2022-10-23T17:26:54.474Z",
    "parents": [
      "834409b7-0e13-4b35-97c1-e1f29b4c98b0"
    ],
    "repository": "kara.moe",
    "tags": {
      "authors": [
        "87096920-112f-485f-a310-04156cb4624d"
      ],
      "collections": [
        "c7db86a0-ff64-4044-9be4-66dd1ef1d1c1",
        "dbcf2c22-524d-4708-99bb-601703633927"
      ],
      "creators": [
        "0041fabf-4b82-4ecd-961b-e4c49b8c88be"
      ],
      "genres": [
        "b84e28f9-db1e-447f-b339-7954c3592523",
        "caa86df2-0d59-474b-885c-f240a9e891b0"
      ],
      "groups": [
        "60defa7b-774e-4680-8321-51b742c2e009",
        "ae613721-1fbe-480d-ba6b-d6d0702b184d"
      ],
      "langs": [
        "4dcf9614-7914-42aa-99f4-dbce2e059133"
      ],
      "origins": [
        "938de218-5343-4865-94d3-fb33f2eaa152"
      ],
      "series": [
        "61b24082-a6a9-482b-b126-0ad7be595791"
      ],
      "singers": [
        "0abac712-6493-4c55-856b-e88f2687e34b",
        "6d2045b2-80ab-45ff-a131-c4df02ef52d1",
        "7f71f194-f4a1-4246-9d74-a754a3989c27"
      ],
      "songtypes": [
        "42a262ae-acba-4ab5-a446-c5789c96c821",
        "a8a2616c-b5a1-4df3-ad6f-89291bc67dee"
      ],
      "songwriters": [
        "af3ffe51-8059-461c-bbb8-78ea388731f3"
      ],
      "versions": [
        "c2143a7f-6970-450e-8a79-0302db9220a9"
      ],
      "franchises": [
        "61b24082-a6a9-482b-b126-0ad7be595791"
      ]
    },
    "titles": {
      "eng": "FIRST LOVE SONG"
    },
    "titles_default_language": "eng",
    "titles_aliases": [
      "Gekisou Gungnir"
    ],
    "title": "FIRST LOVE SONG",
    "year": 2012
  }
}