{
  "header": {
    "version": 4,
    "description": "Karaoke Mugen Karaoke Data File"
  },
  "medias": [
    {
      "version": "Default",
      "filename": "JPN - Kenshi Yonezu - MV - Kanden ~ Full Vers.mp4",
      "loudnorm": "-9.09,1.88,4.60,-19.36,-0.33",
      "filesize": 152907178,
      "duration": 292,
      "default": true,
      "lyrics": [
        {
          "filename": "JPN - Kenshi Yonezu - MV - Kanden ~ Full Vers.ass",
          "default": true,
          "version": "Default"
        }
      ]
    }
  ],
  "data": {
    "created_at": "2023-09-19T20:28:16.813Z",
    "ignoreHooks": false,
    "kid": "89f74edf-cfe5-46c6-a85b-20dec21413b1",
    "modified_at": "2023-09-19T20:37:24.521Z",
    "repository": "kara.moe",
    "tags": {
      "authors": [
        "db16cbb8-82a6-4bed-893f-c915b6bc12b4"
      ],
      "collections": [
        "dbcf2c22-524d-4708-99bb-601703633927"
      ],
      "creators": [
        "6fa9de67-21cf-420b-9ddb-57edb5abe523"
      ],
      "families": [
        "5391f9fe-638c-415f-8dc9-958e3a2c5787"
      ],
      "groups": [
        "8e209ae4-4381-438f-89dc-1b21752027d2"
      ],
      "langs": [
        "4dcf9614-7914-42aa-99f4-dbce2e059133"
      ],
      "misc": [
        "86705d4b-24e4-4756-9687-2b9c98bcf366"
      ],
      "singers": [
        "2a71d548-fb9e-4bbf-b10c-eee31eb68c1d"
      ],
      "songtypes": [
        "7be1b15c-cff8-4b37-a649-5c90f3d569a9"
      ],
      "songwriters": [
        "2a71d548-fb9e-4bbf-b10c-eee31eb68c1d"
      ],
      "versions": [
        "c2143a7f-6970-450e-8a79-0302db9220a9"
      ]
    },
    "titles": {
      "jpn": "感電",
      "qro": "Kanden"
    },
    "titles_default_language": "qro",
    "year": 2020
  }
}