{
  "header": {
    "version": 4,
    "description": "Karaoke Mugen Karaoke Data File"
  },
  "medias": [
    {
      "version": "Default",
      "filename": "JPN - 22 7 - ED7 - Kanjou Muyouron.mp4",
      "audiogain": 0.45,
      "loudnorm": "-17.90,-7.31,3.40,-27.99,-0.17",
      "filesize": 61363987,
      "duration": 91,
      "default": true,
      "lyrics": [
        {
          "filename": "JPN - 22 7 - ED7 - Kanjou Muyouron.ass",
          "default": true,
          "version": "Default"
        }
      ]
    }
  ],
  "data": {
    "created_at": "2022-12-19T04:03:44.436Z",
    "ignoreHooks": false,
    "kid": "9fbb17e5-8db5-49d4-8712-63c67275df3d",
    "modified_at": "2023-03-07T22:45:22.188Z",
    "repository": "kara.moe",
    "songorder": 7,
    "tags": {
      "authors": [
        "7848b5dc-a5df-4577-b640-147be5288cec"
      ],
      "collections": [
        "c7db86a0-ff64-4044-9be4-66dd1ef1d1c1"
      ],
      "creators": [
        "9f10c180-4ed1-4a4e-9e39-c37e09b91d5f",
        "b96e3686-bbe0-4b9e-815a-a278d5ff31be"
      ],
      "families": [
        "0377db02-3af6-43b8-9b08-c759df3d25c3"
      ],
      "genres": [
        "caa86df2-0d59-474b-885c-f240a9e891b0"
      ],
      "groups": [
        "8e209ae4-4381-438f-89dc-1b21752027d2"
      ],
      "langs": [
        "4dcf9614-7914-42aa-99f4-dbce2e059133"
      ],
      "misc": [
        "fe819ff1-9db8-4a0f-85dc-0e322c9126c4"
      ],
      "series": [
        "d96541d7-ecf7-45d0-889e-cb6b227bbd18"
      ],
      "singers": [
        "c393e8c5-c621-47e9-928f-9f0d56250440"
      ],
      "songtypes": [
        "38c77c56-2b95-4040-b676-0994a8cb0597"
      ],
      "songwriters": [
        "19045a57-4bc4-4c83-ad1c-3fa9a3b701b1"
      ]
    },
    "titles": {
      "jpn": "感情無用論",
      "qro": "Kanjô Muyôron"
    },
    "titles_default_language": "qro",
    "titles_aliases": [
      "Kanjou",
      "Muyouron"
    ],
    "year": 2020
  }
}