{
  "header": {
    "version": 4,
    "description": "Karaoke Mugen Karaoke Data File"
  },
  "medias": [
    {
      "version": "Default",
      "filename": "JPN - Kadenz fermata Akkord fortissimo - GAME OP - Eigou Shinri no Fermata.mp4",
      "audiogain": -7.94,
      "loudnorm": "-8.97,-0.45,3.10,-19.11,-0.78",
      "filesize": 107400289,
      "duration": 142,
      "default": true,
      "lyrics": [
        {
          "filename": "JPN - Kadenz fermata Akkord fortissimo - GAME OP - Eigou Shinri no Fermata.ass",
          "default": true,
          "version": "Default"
        }
      ]
    }
  ],
  "data": {
    "created_at": "2017-10-11T17:03:06.000Z",
    "ignoreHooks": false,
    "kid": "520a4ded-62de-4f3f-a187-fbdd7f60b84c",
    "modified_at": "2022-09-30T20:12:58.914Z",
    "repository": "kara.moe",
    "tags": {
      "authors": [
        "5bdaba57-27f8-4568-8806-76a807728766"
      ],
      "collections": [
        "c7db86a0-ff64-4044-9be4-66dd1ef1d1c1"
      ],
      "creators": [
        "7a8ad2ad-018d-4341-9be4-77bfc39a6edd",
        "8986e25b-912e-4db1-ab0e-84784a9b7c56"
      ],
      "groups": [
        "ae613721-1fbe-480d-ba6b-d6d0702b184d"
      ],
      "langs": [
        "4dcf9614-7914-42aa-99f4-dbce2e059133"
      ],
      "origins": [
        "2f96e82c-c61b-4413-817e-e6b247509b95",
        "dbedd6b3-d125-4cd8-aa32-c4175e4ca3a3"
      ],
      "series": [
        "26529a2d-4fcf-4c4d-994e-2cf86c7b8bab"
      ],
      "singers": [
        "a5f6e279-1434-4e16-9034-0b70c726f581"
      ],
      "songtypes": [
        "f02ad9b3-0bd9-4aad-85b3-9976739ba0e4"
      ],
      "songwriters": [
        "481d02d3-0cab-4ebb-9b6d-2a65e2cb1cb3"
      ]
    },
    "titles": {
      "jpn": "永劫真理のフェルマータ",
      "qro": "Eigô Shinri no Fermata"
    },
    "titles_default_language": "qro",
    "title": "Eigô Shinri no Fermata",
    "year": 2015,
    "titles_aliases": [
      "Eigou"
    ]
  }
}