{
  "header": {
    "version": 4,
    "description": "Karaoke Mugen Karaoke Data File"
  },
  "medias": [
    {
      "version": "Aizu-ben",
      "filename": "JPN - Honekaruta - MV - Usseewa ~ Aizu-ben ~ Cover Short Vers.mp4",
      "loudnorm": "-17.02,-7.32,3.00,-27.04,-0.22",
      "filesize": 27831368,
      "duration": 91,
      "default": true,
      "lyrics": [
        {
          "filename": "JPN - Honekaruta - MV - Usseewa ~ Aizu-ben ~ Cover Short Vers.ass",
          "default": true,
          "version": "Default"
        }
      ]
    }
  ],
  "data": {
    "created_at": "2023-05-04T16:08:47.261Z",
    "ignoreHooks": false,
    "kid": "569158cc-cadb-4073-831a-759b1434c880",
    "modified_at": "2023-08-30T21:31:56.978Z",
    "parents": [
      "22caaf65-868b-427a-89fd-79fd6f9fc6b2"
    ],
    "repository": "kara.moe",
    "tags": {
      "authors": [
        "61865310-cb97-496c-a722-364b0a9ba90d"
      ],
      "collections": [
        "c7db86a0-ff64-4044-9be4-66dd1ef1d1c1",
        "dbcf2c22-524d-4708-99bb-601703633927"
      ],
      "creators": [
        "adc52b94-4289-4fc0-aba9-db15a7a4a303"
      ],
      "families": [
        "0377db02-3af6-43b8-9b08-c759df3d25c3"
      ],
      "groups": [
        "8c22c899-b3ed-42da-a548-ce00f950798b",
        "8e209ae4-4381-438f-89dc-1b21752027d2"
      ],
      "langs": [
        "4dcf9614-7914-42aa-99f4-dbce2e059133"
      ],
      "singers": [
        "529b4303-5f2a-4022-bee1-476ca16ede5b"
      ],
      "songtypes": [
        "7be1b15c-cff8-4b37-a649-5c90f3d569a9"
      ],
      "songwriters": [
        "13c686dd-4df8-4056-a46a-39ba871cba8b"
      ],
      "versions": [
        "03e1e1d2-8641-47b7-bbcb-39a3df9ff21c",
        "d125c80a-86c1-4321-88e9-07b7800679b6"
      ]
    },
    "titles": {
      "jpn": "うっせぇわ ~ 会津弁 Vers.",
      "qro": "Usseewa ~ Aizu-ben"
    },
    "titles_default_language": "qro",
    "titles_aliases": [
      "Studio Honekalver",
      "Studio:Honekalver",
      "StudioHonekalver"
    ],
    "year": 2021
  }
}