{
  "header": {
    "version": 4,
    "description": "Karaoke Mugen Karaoke Data File"
  },
  "medias": [
    {
      "version": "JUNCA.",
      "filename": "JPN - Rockman 2 Dr. Wairi no Nazo - GAME MV - Air Man ga Taosenai ~ JUNCA Vers. ~ Cover Vers.mp4",
      "audiogain": -10.56,
      "loudnorm": "-7.77,1.15,3.20,-17.78,-0.36",
      "filesize": 17258462,
      "duration": 229,
      "default": true,
      "lyrics": [
        {
          "filename": "JPN - Rockman 2 Dr. Wairi no Nazo - GAME MV - Air Man ga Taosenai ~ JUNCA Vers. ~ Cover Vers.ass",
          "default": true,
          "version": "Default"
        }
      ]
    }
  ],
  "data": {
    "created_at": "2022-04-18T14:18:22.438Z",
    "ignoreHooks": false,
    "kid": "251719ca-f5d1-4301-84aa-375bf6822f24",
    "modified_at": "2022-04-18T14:19:05.680Z",
    "parents": [
      "621a6795-db3e-49d3-be49-133eb1bb31c0"
    ],
    "repository": "kara.moe",
    "tags": {
      "authors": [
        "8c22c899-b3ed-42da-a548-ce00f950798b"
      ],
      "collections": [
        "c7db86a0-ff64-4044-9be4-66dd1ef1d1c1"
      ],
      "creators": [
        "a9b563c0-8ead-481e-9071-277ad918982e"
      ],
      "groups": [
        "3c14c864-533c-49e6-a3cc-6969f1233775",
        "8c22c899-b3ed-42da-a548-ce00f950798b",
        "ae613721-1fbe-480d-ba6b-d6d0702b184d"
      ],
      "langs": [
        "4dcf9614-7914-42aa-99f4-dbce2e059133"
      ],
      "origins": [
        "ac5085db-52d8-44b4-8fbb-1697b24d2046",
        "dbedd6b3-d125-4cd8-aa32-c4175e4ca3a3"
      ],
      "series": [
        "08972f72-20d9-4e10-bc6d-27e3bc8518ae"
      ],
      "singers": [
        "11846a94-2965-4798-9603-a9dec631ad3e",
        "7d210f33-27ba-4e28-8e54-fb74848c3829"
      ],
      "songtypes": [
        "7be1b15c-cff8-4b37-a649-5c90f3d569a9"
      ],
      "songwriters": [
        "c9283178-71b4-45f0-801b-89b0762c9ae9"
      ],
      "versions": [
        "03e1e1d2-8641-47b7-bbcb-39a3df9ff21c"
      ],
      "franchises": [
        "74eff3a1-8127-44f1-aa19-fdddc357af23"
      ]
    },
    "titles": {
      "qro": "Air Man ga Taosenai ~ JUNCA Vers.",
      "jpn": "エアーマンが倒せない ~ JUNCA Vers."
    },
    "titles_default_language": "qro",
    "titles_aliases": [
      "Airman ga Taosenai",
      "Can't Defeat Air Man",
      "Can't Beat Air Man"
    ],
    "title": "Air Man ga Taosenai ~ JUNCA Vers.",
    "year": 2010
  }
}