{
  "header": {
    "version": 4,
    "description": "Karaoke Mugen Karaoke Data File"
  },
  "medias": [
    {
      "version": "Default",
      "filename": "JPN - Boku no Hero Academia S3 - ED2 - Long Hope Philia.mp4",
      "audiogain": -9.47,
      "loudnorm": "-8.84,1.43,7.70,-19.00,-1.91",
      "filesize": 22972174,
      "duration": 90,
      "default": true,
      "lyrics": [
        {
          "filename": "JPN - Boku no Hero Academia S3 - ED2 - Long Hope Philia.ass",
          "default": true,
          "version": "Default",
          "subchecksum": "13d64f13114c4af59e8369da65d97891"
        }
      ]
    }
  ],
  "data": {
    "created_at": "2018-07-31T20:07:52.000Z",
    "kid": "e34a2e52-0e1b-4c1c-83fb-799359753ea7",
    "modified_at": "2021-02-25T10:55:36.302Z",
    "repository": "kara.moe",
    "songorder": 2,
    "tags": {
      "authors": [
        "b5116310-e69b-4ed4-9e47-c5c53ee69023"
      ],
      "collections": [
        "c7db86a0-ff64-4044-9be4-66dd1ef1d1c1"
      ],
      "creators": [
        "57ffcdd9-7e4f-4971-85ce-0fb3aa8151ac"
      ],
      "families": [
        "0377db02-3af6-43b8-9b08-c759df3d25c3"
      ],
      "genres": [
        "a0aeef4a-6428-45ff-a6e1-468b595930c2"
      ],
      "groups": [
        "ae613721-1fbe-480d-ba6b-d6d0702b184d"
      ],
      "langs": [
        "4dcf9614-7914-42aa-99f4-dbce2e059133"
      ],
      "origins": [
        "938de218-5343-4865-94d3-fb33f2eaa152"
      ],
      "series": [
        "f462b8dc-9a28-4e3f-865d-3cd9b78e17e1"
      ],
      "singers": [
        "b2205f45-ffeb-4948-8ff2-fc86db11ba72"
      ],
      "songtypes": [
        "38c77c56-2b95-4040-b676-0994a8cb0597"
      ],
      "songwriters": [
        "caff84bc-059e-4a6e-b273-c857050e75f7"
      ],
      "franchises": [
        "8c9bbcc8-9928-46d1-aecd-7a31a8c9bba3"
      ]
    },
    "title": "Long Hope Philia",
    "titles": {
      "eng": "Long Hope Philia",
      "jpn": "ロングホープ・フィリア"
    },
    "year": 2018,
    "titles_default_language": "eng"
  }
}