{
  "header": {
    "version": 4,
    "description": "Karaoke Mugen Karaoke Data File"
  },
  "medias": [
    {
      "version": "Default",
      "filename": "JPN - Yorushika - MV - Ai Nijou.mp4",
      "audiogain": -9.78,
      "loudnorm": "-7.48,0.91,6.30,-17.73,-0.84",
      "filesize": 73909928,
      "duration": 249,
      "default": true,
      "lyrics": [
        {
          "filename": "JPN - Yorushika - MV - Ai Nijou.ass",
          "default": true,
          "version": "Default"
        }
      ]
    }
  ],
  "data": {
    "created_at": "2021-04-04T16:19:07.940Z",
    "kid": "72e99d34-cc69-4d3d-9895-303a2e39e67b",
    "modified_at": "2022-06-04T00:18:48.089Z",
    "repository": "kara.moe",
    "songorder": null,
    "tags": {
      "authors": [
        "ba4c7606-1e96-4c45-8e21-d5103477336b"
      ],
      "creators": [
        "f1a308d0-4073-420c-8b59-82d0163b0075"
      ],
      "families": [
        "5391f9fe-638c-415f-8dc9-958e3a2c5787"
      ],
      "groups": [
        "2b4e9972-5e17-481b-99f5-d0787c0ada56",
        "ae613721-1fbe-480d-ba6b-d6d0702b184d"
      ],
      "langs": [
        "4dcf9614-7914-42aa-99f4-dbce2e059133"
      ],
      "singers": [
        "29159405-9d6e-482e-beb8-8a390e1184d7"
      ],
      "songtypes": [
        "7be1b15c-cff8-4b37-a649-5c90f3d569a9"
      ],
      "songwriters": [
        "41d76f46-52fe-4f5e-8bc6-40a18f29f540"
      ],
      "collections": [
        "dbcf2c22-524d-4708-99bb-601703633927"
      ]
    },
    "titles": {
      "qro": "Ai Nijô",
      "jpn": "藍二乗"
    },
    "titles_default_language": "qro",
    "titles_aliases": [
      "Nijou"
    ],
    "title": "Ai Nijô",
    "year": 2018
  }
}