{
  "header": {
    "version": 4,
    "description": "Karaoke Mugen Karaoke Data File"
  },
  "medias": [
    {
      "version": "Default",
      "filename": "JPN - Tomori Kusunoki - MV - Romanron ~ Full Vers.mp4",
      "audiogain": -10.49,
      "loudnorm": "-6.34,1.90,4.50,-16.39,-0.60",
      "filesize": 60331899,
      "duration": 184,
      "default": true,
      "lyrics": [
        {
          "filename": "JPN - Tomori Kusunoki - MV - Romanron ~ Full Vers.ass",
          "default": true,
          "version": "Default"
        }
      ]
    }
  ],
  "data": {
    "comment": "* -> ' (voir #karaoke)",
    "created_at": "2023-08-18T22:56:03.722Z",
    "ignoreHooks": false,
    "kid": "8affd615-42ed-4289-bda2-cba3ccad9e3c",
    "modified_at": "2023-08-18T23:47:48.262Z",
    "repository": "kara.moe",
    "tags": {
      "authors": [
        "16b136eb-921f-4c07-be38-ff92d5cc4313"
      ],
      "collections": [
        "dbcf2c22-524d-4708-99bb-601703633927"
      ],
      "creators": [
        "771735da-6b67-403d-8d5c-2761a0665168"
      ],
      "groups": [
        "8e209ae4-4381-438f-89dc-1b21752027d2"
      ],
      "langs": [
        "4dcf9614-7914-42aa-99f4-dbce2e059133"
      ],
      "singers": [
        "1fd01df9-13c6-4442-a8c9-4d7922152b32"
      ],
      "songtypes": [
        "7be1b15c-cff8-4b37-a649-5c90f3d569a9"
      ],
      "songwriters": [
        "1fd01df9-13c6-4442-a8c9-4d7922152b32",
        "cd8a4990-bf8b-4771-9e46-e2680a368211"
      ],
      "versions": [
        "c2143a7f-6970-450e-8a79-0302db9220a9"
      ]
    },
    "titles": {
      "jpn": "ロマンロン",
      "qro": "Romanron"
    },
    "titles_default_language": "qro",
    "year": 2020
  }
}