{
  "header": {
    "version": 4,
    "description": "Karaoke Mugen Karaoke Data File"
  },
  "medias": [
    {
      "version": "Default",
      "filename": "JPN - Ore no Imouto ga Konna ni Kawaii Wake ga Nai - GAME MV - nexus.mp4",
      "audiogain": -6.82,
      "loudnorm": "-9.51,0.78,2.10,-19.61,-1.00",
      "filesize": 45680192,
      "duration": 295,
      "default": true,
      "lyrics": [
        {
          "filename": "JPN - Ore no Imouto ga Konna ni Kawaii Wake ga Nai - GAME MV - nexus.ass",
          "default": true,
          "version": "Default"
        }
      ]
    }
  ],
  "data": {
    "created_at": "2018-08-11T02:06:49.000Z",
    "ignoreHooks": false,
    "kid": "5ed45231-9437-4be7-99a0-0e33e3a7eb4b",
    "modified_at": "2022-12-22T16:08:53.255Z",
    "repository": "kara.moe",
    "tags": {
      "authors": [
        "f5f5697d-ad85-4cc2-b8c2-abcc92e5c1e9"
      ],
      "collections": [
        "c7db86a0-ff64-4044-9be4-66dd1ef1d1c1"
      ],
      "creators": [
        "d4f12628-2031-48c0-b2c7-7c07aaf8af94"
      ],
      "families": [
        "0377db02-3af6-43b8-9b08-c759df3d25c3"
      ],
      "groups": [
        "ae613721-1fbe-480d-ba6b-d6d0702b184d"
      ],
      "langs": [
        "4dcf9614-7914-42aa-99f4-dbce2e059133"
      ],
      "series": [
        "cb627837-d44e-4474-b165-0de71e159e39"
      ],
      "singers": [
        "ff590105-5f65-4b1f-adf9-2cfb5b789428"
      ],
      "songtypes": [
        "7be1b15c-cff8-4b37-a649-5c90f3d569a9"
      ],
      "songwriters": [
        "0098edaf-b60b-4b75-bc82-ccf824f506ce"
      ],
      "franchises": [
        "abae2fb3-81e2-4938-95ef-c8e4d4098f17",
        "cb627837-d44e-4474-b165-0de71e159e39"
      ],
      "origins": [
        "dbedd6b3-d125-4cd8-aa32-c4175e4ca3a3"
      ]
    },
    "titles": {
      "eng": "nexus"
    },
    "titles_default_language": "eng",
    "year": 2011
  }
}