{
  "header": {
    "version": 4,
    "description": "Karaoke Mugen Karaoke Data File"
  },
  "medias": [
    {
      "version": "Default",
      "filename": "JPN - Ai Tenshi Densetsu Wedding Peach DX - OVA OP - Merry Angel.mp4",
      "audiogain": -2.97,
      "loudnorm": "-14.53,0.19,3.10,-24.62,-0.57",
      "filesize": 18381393,
      "duration": 95,
      "default": true,
      "lyrics": [
        {
          "filename": "JPN - Ai Tenshi Densetsu Wedding Peach DX - OVA OP - Merry Angel.ass",
          "default": true,
          "version": "Default",
          "subchecksum": "6a49d0260da0afe8ca359dd047c6c5e8"
        }
      ]
    }
  ],
  "data": {
    "created_at": "2017-10-11T17:02:37.000Z",
    "kid": "689791c3-0016-4139-81af-9583ce5e49e9",
    "modified_at": "2021-02-25T10:36:41.760Z",
    "repository": "kara.moe",
    "tags": {
      "authors": [
        "5bdaba57-27f8-4568-8806-76a807728766"
      ],
      "collections": [
        "c7db86a0-ff64-4044-9be4-66dd1ef1d1c1"
      ],
      "creators": [
        "9cecd8ec-e71a-4d0b-89e2-9cb5b1a965f5"
      ],
      "families": [
        "0377db02-3af6-43b8-9b08-c759df3d25c3"
      ],
      "groups": [
        "24db50aa-a126-4d34-a48a-e45db79c4245"
      ],
      "langs": [
        "4dcf9614-7914-42aa-99f4-dbce2e059133"
      ],
      "origins": [
        "2a6ef087-a000-4f8e-aeb5-9a7968756a36"
      ],
      "series": [
        "f4159edb-db4c-448b-98ab-db165bf938bb"
      ],
      "singers": [
        "76f2b3c7-ea5d-4e82-b107-5b9b70889ed4",
        "8513f0b1-2607-4a03-924f-0b747b57707e",
        "ac3f1e80-b3b5-4d62-8b6c-5f62b5896f27",
        "bdef7d19-b5c0-4bb8-a41d-de0c493fb1b1"
      ],
      "songtypes": [
        "f02ad9b3-0bd9-4aad-85b3-9976739ba0e4"
      ],
      "songwriters": [
        "06f3223f-5fb1-4e1b-b37e-ef0f6949feda",
        "2af4bf63-9c78-41a1-b23a-aec6adbc2731"
      ],
      "franchises": [
        "e2241704-a45c-4a2b-a083-e7042de2dccd"
      ]
    },
    "title": "Merry Angel",
    "titles": {
      "eng": "Merry Angel"
    },
    "year": 1996,
    "titles_default_language": "eng"
  }
}