{
  "header": {
    "version": 4,
    "description": "Karaoke Mugen Karaoke Data File"
  },
  "medias": [
    {
      "version": "Default",
      "filename": "JPN - Kuutei Dragons - ONA OP - Gunjou.mp4",
      "loudnorm": "-17.17,-7.34,6.40,-27.22,-1.33",
      "filesize": 30353696,
      "duration": 88,
      "default": true,
      "lyrics": [
        {
          "filename": "JPN - Kuutei Dragons - ONA OP - Gunjou.ass",
          "default": true,
          "version": "Default"
        }
      ]
    }
  ],
  "data": {
    "created_at": "2023-09-07T22:08:25.239Z",
    "ignoreHooks": false,
    "kid": "3f8c4fee-8aa4-40cd-8c04-b05209678bd3",
    "modified_at": "2023-09-07T22:10:16.829Z",
    "repository": "kara.moe",
    "tags": {
      "authors": [
        "c9234ef5-fb67-4d49-87b6-ee58f9399755"
      ],
      "collections": [
        "c7db86a0-ff64-4044-9be4-66dd1ef1d1c1"
      ],
      "creators": [
        "fb13d18f-0d0e-4eba-bea9-67aebf2f8a24"
      ],
      "families": [
        "0377db02-3af6-43b8-9b08-c759df3d25c3"
      ],
      "groups": [
        "8e209ae4-4381-438f-89dc-1b21752027d2",
        "966d1e74-d1f2-41e2-ab04-24279c22f562"
      ],
      "langs": [
        "4dcf9614-7914-42aa-99f4-dbce2e059133"
      ],
      "misc": [
        "fe819ff1-9db8-4a0f-85dc-0e322c9126c4"
      ],
      "origins": [
        "8db3e098-06ef-45e5-bba9-cb04a21c1e66"
      ],
      "series": [
        "a1937507-4e38-41c6-98b3-83abe096a05c"
      ],
      "singers": [
        "48f8bfe5-dde8-4f10-87d0-9dd8c71f04e6"
      ],
      "songtypes": [
        "f02ad9b3-0bd9-4aad-85b3-9976739ba0e4"
      ],
      "songwriters": [
        "48f8bfe5-dde8-4f10-87d0-9dd8c71f04e6"
      ]
    },
    "titles": {
      "qro": "Gunjô",
      "jpn": "群青"
    },
    "titles_default_language": "qro",
    "titles_aliases": [
      "gunjou",
      "Gunjou"
    ],
    "year": 2020
  }
}