{
  "header": {
    "version": 4,
    "description": "Karaoke Mugen Karaoke Data File"
  },
  "medias": [
    {
      "version": "Default",
      "filename": "JPN - FLOW - MV - Answer.mp4",
      "audiogain": -9.13,
      "loudnorm": "-7.83,1.65,3.20,-17.88,-0.60",
      "filesize": 56365646,
      "duration": 288,
      "default": true,
      "lyrics": [
        {
          "filename": "JPN - FLOW - MV - Answer.ass",
          "default": true,
          "version": "Default"
        }
      ]
    }
  ],
  "data": {
    "created_at": "2023-03-06T04:43:44.240Z",
    "kid": "450b4d51-8741-44df-96f1-c206a67a58f1",
    "modified_at": "2023-03-06T04:43:44.240Z",
    "tags": {
      "authors": [
        "2c1f4c76-4de9-4548-9aa5-bc64ab296076"
      ],
      "collections": [
        "dbcf2c22-524d-4708-99bb-601703633927"
      ],
      "creators": [
        "6df34030-d5ec-4480-a1c2-20103a7c0b63"
      ],
      "families": [
        "5391f9fe-638c-415f-8dc9-958e3a2c5787"
      ],
      "langs": [
        "4dcf9614-7914-42aa-99f4-dbce2e059133"
      ],
      "singers": [
        "ab29c273-6791-4c42-be35-c36a639bfd4a",
        "daae74e4-d769-4496-852d-8d7f909b87a8"
      ],
      "singergroups": [
        "fa3c1f40-c7ef-4ba2-9630-f540bcf94b43"
      ],
      "songtypes": [
        "7be1b15c-cff8-4b37-a649-5c90f3d569a9"
      ],
      "songwriters": [
        "059c908e-e210-4405-a509-04ae79271c6e"
      ]
    },
    "titles": {
      "eng": "Answer"
    },
    "titles_default_language": "eng",
    "titles_aliases": [],
    "year": "2007",
    "repository": "kara.moe"
  }
}