{
  "header": {
    "version": 4,
    "description": "Karaoke Mugen Karaoke Data File"
  },
  "medias": [
    {
      "version": "Default",
      "filename": "JPN - Aikatsu Stars! - IN - MUSIC of DREAM!!!.mp4",
      "audiogain": 3.59,
      "loudnorm": "-21.31,-8.27,4.90,-31.36,-0.58",
      "filesize": 84377604,
      "duration": 120,
      "default": true,
      "lyrics": [
        {
          "filename": "JPN - Aikatsu Stars! - IN - MUSIC of DREAM!!!.ass",
          "default": true,
          "version": "Default"
        }
      ]
    }
  ],
  "data": {
    "created_at": "2018-06-18T19:40:28.000Z",
    "ignoreHooks": false,
    "kid": "e459b8e9-f541-4480-854f-80a8c183a85e",
    "modified_at": "2023-05-18T17:12:25.647Z",
    "repository": "kara.moe",
    "tags": {
      "authors": [
        "739f00e0-2bf5-44c1-8c7f-cecf649cd813"
      ],
      "collections": [
        "c7db86a0-ff64-4044-9be4-66dd1ef1d1c1"
      ],
      "creators": [
        "4d17b0cf-92fd-4ab3-8035-8a260a772e51"
      ],
      "families": [
        "0377db02-3af6-43b8-9b08-c759df3d25c3"
      ],
      "genres": [
        "caa86df2-0d59-474b-885c-f240a9e891b0"
      ],
      "groups": [
        "8c22c899-b3ed-42da-a548-ce00f950798b",
        "ae613721-1fbe-480d-ba6b-d6d0702b184d"
      ],
      "langs": [
        "4dcf9614-7914-42aa-99f4-dbce2e059133"
      ],
      "origins": [
        "938de218-5343-4865-94d3-fb33f2eaa152"
      ],
      "series": [
        "8662068a-0e26-432e-9341-f695888d7214"
      ],
      "singers": [
        "24bfad52-ccfe-42b7-b3dd-c06e7660d1dc"
      ],
      "songtypes": [
        "5e5250d9-351a-4a82-98eb-55db50ad8962"
      ],
      "songwriters": [
        "66398329-540a-4fbd-bd95-4d1ee5d10ccf",
        "7e72484d-b638-4d9a-95f2-5947c59d721b",
        "abb2c35f-bdaa-48b8-b236-6a83a79e9e6f",
        "ad73a27b-de24-4a08-99fc-a16caf59f60d"
      ],
      "franchises": [
        "2ed8f878-186e-4108-a152-c607efbcfcb2"
      ]
    },
    "titles": {
      "eng": "MUSIC of DREAM!!!"
    },
    "titles_default_language": "eng",
    "year": 2016
  }
}