{
  "header": {
    "version": 4,
    "description": "Karaoke Mugen Karaoke Data File"
  },
  "medias": [
    {
      "version": "Default",
      "filename": "JPN - Touhou - MV - Haiko-to Pororoca ~ Short Vers.mp4",
      "audiogain": -3.44,
      "loudnorm": "-14.94,-4.29,2.50,-25.02,-0.27",
      "filesize": 11362081,
      "duration": 69,
      "default": true,
      "lyrics": [
        {
          "filename": "JPN - Touhou - MV - Haiko-to Pororoca ~ Short Vers.ass",
          "default": true,
          "version": "Default"
        }
      ]
    }
  ],
  "data": {
    "created_at": "2022-09-30T19:54:04.905Z",
    "ignoreHooks": false,
    "kid": "f3a8d2a6-9a4b-4f67-afcd-0f1c9ad8f9a1",
    "modified_at": "2022-09-30T21:01:17.155Z",
    "repository": "kara.moe",
    "tags": {
      "authors": [
        "1fbfef73-6731-40df-ba51-65a54b9d1605"
      ],
      "collections": [
        "c7db86a0-ff64-4044-9be4-66dd1ef1d1c1"
      ],
      "creators": [
        "dc775738-b422-46a1-baf3-76f11d2080f7"
      ],
      "families": [
        "0377db02-3af6-43b8-9b08-c759df3d25c3"
      ],
      "groups": [
        "3c14c864-533c-49e6-a3cc-6969f1233775"
      ],
      "langs": [
        "4dcf9614-7914-42aa-99f4-dbce2e059133"
      ],
      "series": [
        "1bdaa5a1-dfa6-4365-b746-7a0b194dafd6"
      ],
      "singers": [
        "4cb575ae-a999-4234-9417-31580bcfab94"
      ],
      "songtypes": [
        "7be1b15c-cff8-4b37-a649-5c90f3d569a9"
      ],
      "songwriters": [
        "26cb5252-8510-49e0-897c-a611a05fc056",
        "4cb575ae-a999-4234-9417-31580bcfab94"
      ],
      "versions": [
        "d125c80a-86c1-4321-88e9-07b7800679b6"
      ],
      "franchises": [
        "1bdaa5a1-dfa6-4365-b746-7a0b194dafd6"
      ]
    },
    "titles": {
      "eng": "High-coat Pororoca",
      "qro": "Haiko-to Pororoca"
    },
    "titles_default_language": "qro",
    "titles_aliases": [
      "Pororokka",
      "Hi",
      "Court"
    ],
    "title": "Haiko-to Pororoca",
    "year": 2008
  }
}