{
  "header": {
    "version": 4,
    "description": "Karaoke Mugen Karaoke Data File"
  },
  "medias": [
    {
      "version": "Default",
      "filename": "JPN - Rakudai Kishi no Cavalry - OP - Identity.mp4",
      "audiogain": 2.09,
      "loudnorm": "-18.95,-9.13,3.40,-28.96,-0.76",
      "filesize": 43582915,
      "duration": 92,
      "default": true,
      "lyrics": [
        {
          "filename": "JPN - Rakudai Kishi no Cavalry - OP - Identity.ass",
          "default": true,
          "version": "Default",
          "subchecksum": "0831d98bd92a8a01b3c1fde331981eb9"
        }
      ]
    }
  ],
  "data": {
    "created_at": "2017-10-11T17:02:59.000Z",
    "kid": "07bfccde-7599-4b12-8936-3b1180218477",
    "modified_at": "2021-02-25T12:49:23.531Z",
    "repository": "kara.moe",
    "tags": {
      "authors": [
        "5bdaba57-27f8-4568-8806-76a807728766"
      ],
      "collections": [
        "c7db86a0-ff64-4044-9be4-66dd1ef1d1c1"
      ],
      "creators": [
        "bee26a9b-bc7b-4cdc-9317-6c9ee6707706"
      ],
      "families": [
        "0377db02-3af6-43b8-9b08-c759df3d25c3"
      ],
      "groups": [
        "56f41a2e-80fb-4bbe-9df0-420ee4c8997a",
        "ae613721-1fbe-480d-ba6b-d6d0702b184d"
      ],
      "langs": [
        "4dcf9614-7914-42aa-99f4-dbce2e059133"
      ],
      "origins": [
        "938de218-5343-4865-94d3-fb33f2eaa152"
      ],
      "series": [
        "b349a41d-ae29-4e40-8cb4-04a219b27320"
      ],
      "singers": [
        "ae48ad0e-7f43-474d-a388-2c6bb13fab6c"
      ],
      "songtypes": [
        "f02ad9b3-0bd9-4aad-85b3-9976739ba0e4"
      ],
      "songwriters": [
        "ae48ad0e-7f43-474d-a388-2c6bb13fab6c"
      ]
    },
    "title": "Identity",
    "titles": {
      "eng": "Identity",
      "jpn": "アイデンティティ"
    },
    "year": 2015,
    "titles_default_language": "eng"
  }
}