{
  "header": {
    "version": 4,
    "description": "Karaoke Mugen Karaoke Data File"
  },
  "medias": [
    {
      "version": "Full.",
      "filename": "JPN - Solatorobo RED the Hunter - DS GAME AMV - Sore kara CODA e ~ Full Vers.mp4",
      "audiogain": -7.12,
      "loudnorm": "-12.12,0.24,11.50,-22.59,-0.86",
      "filesize": 60167136,
      "duration": 197,
      "default": true,
      "lyrics": [
        {
          "filename": "JPN - Solatorobo RED the Hunter - DS GAME AMV - Sore kara CODA e ~ Full Vers.ass",
          "default": true,
          "version": "Default",
          "subchecksum": "d4450811a051ad44f1f780c2c82cdf6a"
        }
      ]
    }
  ],
  "data": {
    "created_at": "2019-09-29T16:18:16.000Z",
    "kid": "0e14cbb9-e7c5-4b25-8b88-0de1f050dfba",
    "modified_at": "2021-05-23T22:38:25.537Z",
    "parents": [
      "ad196f16-728e-44a3-80dd-456ffa105de0"
    ],
    "repository": "kara.moe",
    "tags": {
      "authors": [
        "89d64542-3f1d-4abe-b837-58bfb56bae06"
      ],
      "collections": [
        "c7db86a0-ff64-4044-9be4-66dd1ef1d1c1"
      ],
      "creators": [
        "ff1f1734-715d-4564-a970-24a6630b7d22"
      ],
      "groups": [
        "8c22c899-b3ed-42da-a548-ce00f950798b",
        "ae613721-1fbe-480d-ba6b-d6d0702b184d"
      ],
      "langs": [
        "4dcf9614-7914-42aa-99f4-dbce2e059133"
      ],
      "platforms": [
        "fafc313d-8d8a-4445-90b5-aad7928182ab"
      ],
      "series": [
        "2a4dc1f8-2d2d-4d70-be93-12ce83cb0350"
      ],
      "singers": [
        "15018709-162c-43bd-8a9d-a9505306e40a"
      ],
      "songtypes": [
        "a6c79ce5-89ee-4d50-afe8-3abd7317f6c2"
      ],
      "songwriters": [
        "f80d9dec-700e-4e9a-b9f1-cf098a8da4a0"
      ],
      "versions": [
        "c2143a7f-6970-450e-8a79-0302db9220a9"
      ],
      "origins": [
        "dbedd6b3-d125-4cd8-aa32-c4175e4ca3a3"
      ]
    },
    "title": "Sore kara CODA e",
    "titles": {
      "qro": "Sore kara CODA he",
      "jpn": "それからCODAへ"
    },
    "year": 2010,
    "titles_default_language": "qro"
  }
}