{
  "header": {
    "version": 4,
    "description": "Karaoke Mugen Karaoke Data File"
  },
  "medias": [
    {
      "version": "Default",
      "filename": "JPN - World Dai Star - IN - Masquerade.mp4",
      "audiogain": -8.21,
      "loudnorm": "-8.97,0.72,3.10,-19.39,-0.61",
      "filesize": 43689198,
      "duration": 86,
      "default": true,
      "lyrics": [
        {
          "filename": "JPN - World Dai Star - IN - Masquerade.ass",
          "default": true,
          "version": "Default"
        }
      ]
    }
  ],
  "data": {
    "created_at": "2023-07-05T22:36:55.830Z",
    "ignoreHooks": false,
    "kid": "2ab01f9b-6c3a-4994-9f73-4b2ece5ca593",
    "modified_at": "2023-07-05T22:36:55.943Z",
    "repository": "kara.moe",
    "tags": {
      "authors": [
        "7848b5dc-a5df-4577-b640-147be5288cec"
      ],
      "collections": [
        "c7db86a0-ff64-4044-9be4-66dd1ef1d1c1"
      ],
      "creators": [
        "20a71a02-6670-4e6a-a5be-ad8d71df94f7"
      ],
      "families": [
        "0377db02-3af6-43b8-9b08-c759df3d25c3"
      ],
      "genres": [
        "caa86df2-0d59-474b-885c-f240a9e891b0"
      ],
      "groups": [
        "8e209ae4-4381-438f-89dc-1b21752027d2"
      ],
      "langs": [
        "4dcf9614-7914-42aa-99f4-dbce2e059133"
      ],
      "misc": [
        "1d6ceadf-a885-47e5-b23b-c07bf668a424"
      ],
      "origins": [
        "938de218-5343-4865-94d3-fb33f2eaa152"
      ],
      "series": [
        "2c110cf5-c605-4d05-9893-6a6d06dbe311"
      ],
      "singers": [
        "89f91e06-0831-44e4-92f6-64b612cd19d0",
        "b563ef47-6af0-46cd-a6b8-0bc7d7951b05"
      ],
      "songtypes": [
        "5e5250d9-351a-4a82-98eb-55db50ad8962"
      ],
      "songwriters": [
        "7e72484d-b638-4d9a-95f2-5947c59d721b",
        "64855ac6-4c6a-4467-9629-bd8173501533"
      ],
      "franchises": [
        "04483789-101b-4d59-94e2-09be1fb8b9d3"
      ]
    },
    "titles": {
      "eng": "Masquerade"
    },
    "titles_default_language": "eng",
    "year": 2023
  }
}