{
  "header": {
    "version": 4,
    "description": "Karaoke Mugen Karaoke Data File"
  },
  "medias": [
    {
      "version": "Default",
      "filename": "JPN - Zom 100 Zombie ni Naru made ni Shitai 100 no Koto - AMV - Happiness of the Dead ~ Full Off Vocal Vers.mp4",
      "audiogain": -7.28,
      "loudnorm": "-9.83,4.18,4.10,-20.01,-0.21",
      "filesize": 54787782,
      "duration": 173,
      "default": true,
      "lyrics": [
        {
          "filename": "JPN - Zom 100 Zombie ni Naru made ni Shitai 100 no Koto - AMV - Happiness of the Dead ~ Full Off Vocal Vers.ass",
          "default": true,
          "version": "Default"
        }
      ]
    }
  ],
  "data": {
    "created_at": "2023-08-02T21:10:03.258Z",
    "ignoreHooks": false,
    "kid": "e144aac1-26a5-4869-9a37-4553dcef55ec",
    "modified_at": "2023-08-02T21:22:53.716Z",
    "parents": [
      "681b035d-eac5-4fe1-a610-793d9f465129"
    ],
    "repository": "kara.moe",
    "tags": {
      "authors": [
        "9cdf3b70-3550-457c-bdb9-038f3253c6ad"
      ],
      "collections": [
        "c7db86a0-ff64-4044-9be4-66dd1ef1d1c1",
        "dbcf2c22-524d-4708-99bb-601703633927"
      ],
      "creators": [
        "18323325-d27b-4e95-9bc3-123384c0182f",
        "43124e1f-bc9d-4218-b41e-bfb33aa11dde"
      ],
      "families": [
        "0377db02-3af6-43b8-9b08-c759df3d25c3"
      ],
      "groups": [
        "8e209ae4-4381-438f-89dc-1b21752027d2"
      ],
      "langs": [
        "4dcf9614-7914-42aa-99f4-dbce2e059133"
      ],
      "series": [
        "5e5a2752-912a-4023-9362-69c8f8eca7b0"
      ],
      "singers": [
        "fd787089-437a-45d7-a8db-40c3d1699a1a"
      ],
      "songtypes": [
        "a6c79ce5-89ee-4d50-afe8-3abd7317f6c2"
      ],
      "songwriters": [
        "81884c68-e8af-4a2b-b49a-dd2bc7ccf541"
      ],
      "versions": [
        "c0cc87b9-55b9-40f0-878a-fbb9e34c151e",
        "c2143a7f-6970-450e-8a79-0302db9220a9"
      ]
    },
    "titles": {
      "eng": "Happiness of the Dead",
      "jpn": "ハピネス オブ ザ デッド"
    },
    "titles_default_language": "eng",
    "year": 2023
  }
}