{
  "header": {
    "version": 4,
    "description": "Karaoke Mugen Karaoke Data File"
  },
  "medias": [
    {
      "version": "Default",
      "filename": "JPN - Edens Zero - ED1 - Bouken no VLOG.mp4",
      "audiogain": -10.62,
      "loudnorm": "-7.04,2.31,3.60,-17.17,-0.22",
      "filesize": 36886223,
      "duration": 89,
      "default": true,
      "lyrics": [
        {
          "filename": "JPN - Edens Zero - ED1 - Bouken no VLOG.ass",
          "default": true,
          "version": "Default"
        }
      ]
    }
  ],
  "data": {
    "created_at": "2023-07-28T18:25:12.983Z",
    "ignoreHooks": false,
    "kid": "f4d2e5df-5015-4afd-b321-cf97aadcc13b",
    "modified_at": "2023-07-28T18:31:46.753Z",
    "repository": "kara.moe",
    "songorder": 1,
    "tags": {
      "authors": [
        "df9cb48f-334e-4ceb-b26e-e254ad323492"
      ],
      "collections": [
        "c7db86a0-ff64-4044-9be4-66dd1ef1d1c1"
      ],
      "creators": [
        "802a8ac8-b16f-40a4-944b-99956798c906"
      ],
      "genres": [
        "a0aeef4a-6428-45ff-a6e1-468b595930c2"
      ],
      "groups": [
        "8e209ae4-4381-438f-89dc-1b21752027d2",
        "966d1e74-d1f2-41e2-ab04-24279c22f562"
      ],
      "langs": [
        "4dcf9614-7914-42aa-99f4-dbce2e059133"
      ],
      "misc": [
        "fe819ff1-9db8-4a0f-85dc-0e322c9126c4"
      ],
      "series": [
        "5f49f2fb-04b0-482f-9757-8dd958f55a60"
      ],
      "singers": [
        "60705f2e-e3d4-46a2-a9ce-c641ccddf822",
        "af0dc126-897e-4390-a7a1-cbfed65c2925"
      ],
      "songtypes": [
        "38c77c56-2b95-4040-b676-0994a8cb0597"
      ],
      "songwriters": [
        "af0dc126-897e-4390-a7a1-cbfed65c2925"
      ],
      "franchises": [
        "5f49f2fb-04b0-482f-9757-8dd958f55a60"
      ]
    },
    "titles": {
      "jpn": "冒険のVLOG",
      "qro": "Bouken no VLOG"
    },
    "titles_default_language": "qro",
    "year": 2021
  }
}