{
  "header": {
    "version": 4,
    "description": "Karaoke Mugen Karaoke Data File"
  },
  "medias": [
    {
      "version": "Default",
      "filename": "JPN - Hibike! Euphonium - ED - Tutti!.mp4",
      "audiogain": 4.82,
      "loudnorm": "-22.36,-9.22,2.90,-32.47,-0.61",
      "filesize": 44151767,
      "duration": 91,
      "default": true,
      "lyrics": [
        {
          "filename": "JPN - Hibike! Euphonium - ED - Tutti!.ass",
          "default": true,
          "version": "Default",
          "subchecksum": "39e7b6a9e5d6052c82883f23d4640f3d"
        }
      ]
    }
  ],
  "data": {
    "created_at": "2017-10-11T17:02:51.000Z",
    "kid": "9b38955e-afc3-47df-81fe-0011271763d7",
    "modified_at": "2021-02-25T11:40:14.261Z",
    "repository": "kara.moe",
    "tags": {
      "authors": [
        "5bdaba57-27f8-4568-8806-76a807728766"
      ],
      "collections": [
        "c7db86a0-ff64-4044-9be4-66dd1ef1d1c1"
      ],
      "creators": [
        "d93786af-5098-49b2-9928-37edfb3d0322"
      ],
      "families": [
        "0377db02-3af6-43b8-9b08-c759df3d25c3"
      ],
      "groups": [
        "ae613721-1fbe-480d-ba6b-d6d0702b184d",
        "f53332f8-daed-4ac5-97c9-64239b520db0"
      ],
      "langs": [
        "4dcf9614-7914-42aa-99f4-dbce2e059133"
      ],
      "origins": [
        "938de218-5343-4865-94d3-fb33f2eaa152"
      ],
      "series": [
        "7e9d2ecf-5993-4bb0-99ab-051277eaf525"
      ],
      "singers": [
        "0a4f3433-d171-4d09-92d7-362c3f91d200",
        "6869c8ab-35dd-432b-b2c0-b948724fce38",
        "b78293e4-0222-4826-961e-cbcdd93121ec",
        "fbbfcd25-2f98-4f94-9b7b-cef201df2859"
      ],
      "songtypes": [
        "38c77c56-2b95-4040-b676-0994a8cb0597"
      ],
      "songwriters": [
        "3acbe973-912e-47ca-b5b2-6563181e0c51"
      ],
      "franchises": [
        "7e9d2ecf-5993-4bb0-99ab-051277eaf525"
      ]
    },
    "title": "Tutti!",
    "titles": {
      "jpn": "トゥッティ!",
      "ita": "Tutti!"
    },
    "year": 2015,
    "titles_default_language": "ita"
  }
}