{
  "header": {
    "version": 4,
    "description": "Karaoke Mugen Karaoke Data File"
  },
  "medias": [
    {
      "version": "Default",
      "filename": "JPN - Midori - AUDIO - Suki.mp3",
      "audiogain": 9.58,
      "loudnorm": "-29.47,-17.37,7.80,-40.19,-0.97",
      "filesize": 816163,
      "duration": 43,
      "default": true,
      "lyrics": [
        {
          "filename": "JPN - Midori - AUDIO - Suki.ass",
          "default": true,
          "version": "Default"
        }
      ]
    }
  ],
  "data": {
    "created_at": "2023-07-11T21:38:38.165Z",
    "ignoreHooks": false,
    "kid": "1618cd5b-d787-4eed-a37d-942942b9cdd1",
    "modified_at": "2023-07-11T21:38:38.322Z",
    "repository": "kara.moe",
    "tags": {
      "authors": [
        "df5f446f-d161-4760-8e0c-822e70ea03ae"
      ],
      "collections": [
        "dbcf2c22-524d-4708-99bb-601703633927"
      ],
      "creators": [
        "5b29bf8d-93e9-4601-9992-0b2b6d87e27d"
      ],
      "groups": [
        "df5f446f-d161-4760-8e0c-822e70ea03ae",
        "3c14c864-533c-49e6-a3cc-6969f1233775"
      ],
      "langs": [
        "4dcf9614-7914-42aa-99f4-dbce2e059133"
      ],
      "singers": [
        "6cd3fbfe-59da-459b-8def-3102ac58e815"
      ],
      "songtypes": [
        "42a262ae-acba-4ab5-a446-c5789c96c821"
      ],
      "songwriters": [
        "6efc7ca4-5a4e-40f3-91a0-62e8cd902b10"
      ]
    },
    "titles": {
      "jpn": "スキ",
      "qro": "Suki"
    },
    "titles_default_language": "qro",
    "year": 2008
  }
}