{
  "header": {
    "version": 4,
    "description": "Karaoke Mugen Karaoke Data File"
  },
  "medias": [
    {
      "version": "LIVE HOME 2022",
      "filename": "JPN - Senki Zesshou Symphogear XD Unlimited - LIVE - UNLIMITED BEAT ~ LIVE HOME 2022 ~ Full Vers.mp4",
      "loudnorm": "-6.90,0.23,4.90,-17.32,-0.67",
      "filesize": 254466146,
      "duration": 284,
      "default": true,
      "lyrics": [
        {
          "filename": "JPN - Senki Zesshou Symphogear XD Unlimited - LIVE - UNLIMITED BEAT ~ LIVE HOME 2022 ~ Full Vers.ass",
          "default": true,
          "version": "Default"
        }
      ]
    }
  ],
  "data": {
    "created_at": "2023-09-23T01:56:31.990Z",
    "ignoreHooks": false,
    "kid": "0dbd7e0c-14af-4928-a597-bb1ccad07657",
    "modified_at": "2023-09-23T01:56:32.153Z",
    "parents": [
      "6160541d-75f4-49c2-a88b-048ffd879a34"
    ],
    "repository": "kara.moe",
    "tags": {
      "authors": [
        "5a629611-96b4-422c-b309-ba7a58e263a2",
        "7848b5dc-a5df-4577-b640-147be5288cec"
      ],
      "collections": [
        "dbcf2c22-524d-4708-99bb-601703633927"
      ],
      "creators": [
        "d2a29c19-019f-4a3d-86ad-2dae9e41a4b1"
      ],
      "families": [
        "5391f9fe-638c-415f-8dc9-958e3a2c5787"
      ],
      "groups": [
        "8e209ae4-4381-438f-89dc-1b21752027d2"
      ],
      "langs": [
        "4dcf9614-7914-42aa-99f4-dbce2e059133"
      ],
      "series": [
        "99a6a137-2984-4db4-a59c-66014ffae310"
      ],
      "singers": [
        "6d2045b2-80ab-45ff-a131-c4df02ef52d1"
      ],
      "songtypes": [
        "a0167949-580c-4de3-bf13-497e462e02f3"
      ],
      "songwriters": [
        "178dcba7-6d20-40b9-baea-d7d3e38e2c25",
        "af3ffe51-8059-461c-bbb8-78ea388731f3"
      ],
      "versions": [
        "c2143a7f-6970-450e-8a79-0302db9220a9"
      ],
      "franchises": [
        "61b24082-a6a9-482b-b126-0ad7be595791"
      ]
    },
    "titles": {
      "eng": "UNLIMITED BEAT ~ LIVE HOME 2022"
    },
    "titles_default_language": "eng",
    "year": 2022
  }
}