{
  "header": {
    "version": 4,
    "description": "Karaoke Mugen Karaoke Data File"
  },
  "medias": [
    {
      "version": "Default",
      "filename": "JPN - Healer Girl - OP - Feel You, Heal You.mp4",
      "audiogain": -0.85,
      "loudnorm": "-17.76,-2.84,12.50,-28.12,-1.54",
      "filesize": 51950445,
      "duration": 90,
      "default": true,
      "lyrics": [
        {
          "filename": "JPN - Healer Girl - OP - Feel You, Heal You.ass",
          "default": true,
          "version": "Default"
        }
      ]
    }
  ],
  "data": {
    "created_at": "2022-04-04T20:07:45.675Z",
    "ignoreHooks": false,
    "kid": "5105a65c-b7eb-42ba-9296-c6fbc6693ef7",
    "modified_at": "2022-04-23T15:47:28.261Z",
    "repository": "kara.moe",
    "tags": {
      "authors": [
        "1df04771-a378-4f14-a5e1-1455187d681a"
      ],
      "collections": [
        "c7db86a0-ff64-4044-9be4-66dd1ef1d1c1"
      ],
      "creators": [
        "1bffab9c-7dfc-406e-85d3-06507c00d144"
      ],
      "families": [
        "0377db02-3af6-43b8-9b08-c759df3d25c3"
      ],
      "groups": [
        "8e209ae4-4381-438f-89dc-1b21752027d2"
      ],
      "langs": [
        "4dcf9614-7914-42aa-99f4-dbce2e059133"
      ],
      "origins": [
        "938de218-5343-4865-94d3-fb33f2eaa152"
      ],
      "series": [
        "fbaf0463-3b18-47d6-96dc-2a611ee56122"
      ],
      "singers": [
        "0a4a1409-bf37-41c3-a198-811bc1f893ac",
        "2bad0ed8-50ea-4d45-b632-6497c6e583f6",
        "4bfed7eb-b740-4ee7-a70a-96ca7be7ff59",
        "7acf69f7-97f3-40f9-a089-1e013c26e38f",
        "b607e60e-e507-476f-9738-d1bf01ed0898"
      ],
      "songtypes": [
        "f02ad9b3-0bd9-4aad-85b3-9976739ba0e4"
      ],
      "songwriters": [
        "2171ee13-d4af-4a9c-8d59-dc098b4d3669",
        "7b195129-0abe-420c-b09b-c6357152174a"
      ]
    },
    "titles": {
      "eng": "Feel You, Heal You"
    },
    "titles_default_language": "eng",
    "title": "Feel You, Heal You",
    "year": 2022
  }
}