{
  "header": {
    "version": 4,
    "description": "Karaoke Mugen Karaoke Data File"
  },
  "medias": [
    {
      "version": "Default",
      "filename": "JPN - Touhou - REMIX MV - TOHO Geek -Touhou Eiyashou EX hen-.mp4",
      "audiogain": -8.36,
      "loudnorm": "-8.35,1.40,1.80,-18.36,-0.51",
      "filesize": 201680691,
      "duration": 735,
      "default": true,
      "lyrics": [
        {
          "filename": "JPN - Touhou - REMIX MV - TOHO Geek -Touhou Eiyashou EX hen-.ass",
          "default": true,
          "version": "Default"
        }
      ]
    }
  ],
  "data": {
    "created_at": "2022-01-16T20:25:58.901Z",
    "ignoreHooks": false,
    "kid": "65204abc-b5fe-45eb-a157-9b655114c553",
    "modified_at": "2023-07-16T20:09:34.002Z",
    "repository": "kara.moe",
    "tags": {
      "authors": [
        "84157b43-8a7a-482c-95d3-516757353835"
      ],
      "collections": [
        "c7db86a0-ff64-4044-9be4-66dd1ef1d1c1"
      ],
      "creators": [
        "3b338a2c-0d7e-459c-ab61-a172042c883a"
      ],
      "families": [
        "0377db02-3af6-43b8-9b08-c759df3d25c3"
      ],
      "groups": [
        "ae613721-1fbe-480d-ba6b-d6d0702b184d"
      ],
      "langs": [
        "4dcf9614-7914-42aa-99f4-dbce2e059133"
      ],
      "misc": [
        "86705d4b-24e4-4756-9687-2b9c98bcf366",
        "ec4360fa-3e3c-4f6f-b0e1-fb8b12b6dd18",
        "ec4fee75-71fb-45b4-9772-2ca374b4b600"
      ],
      "series": [
        "1bdaa5a1-dfa6-4365-b746-7a0b194dafd6"
      ],
      "singers": [
        "a72fb41f-02da-44d5-a5f9-be8e1d69bf59"
      ],
      "singergroups": [
        "3b338a2c-0d7e-459c-ab61-a172042c883a"
      ],
      "songtypes": [
        "7be1b15c-cff8-4b37-a649-5c90f3d569a9"
      ],
      "songwriters": [
        "26cb5252-8510-49e0-897c-a611a05fc056",
        "a72fb41f-02da-44d5-a5f9-be8e1d69bf59",
        "f50a7fd8-209f-4165-9ca9-b62a877da134"
      ],
      "franchises": [
        "1bdaa5a1-dfa6-4365-b746-7a0b194dafd6"
      ]
    },
    "titles": {
      "jpn": "TOHO Geek -東方永夜抄EX編-",
      "qro": "TOHO Geek -Touhou Eiyashou EX hen-"
    },
    "titles_default_language": "qro",
    "year": 2017
  }
}