{
  "header": {
    "version": 4,
    "description": "Karaoke Mugen Karaoke Data File"
  },
  "medias": [
    {
      "version": "Default",
      "filename": "JPN - Yuki Kaai - MV - Lagtrain.mp4",
      "audiogain": -10.54,
      "loudnorm": "-6.82,1.61,3.20,-17.01,-0.49",
      "filesize": 30079869,
      "duration": 251,
      "default": true,
      "lyrics": [
        {
          "filename": "JPN - Yuki Kaai - MV - Lagtrain.ass",
          "default": true,
          "version": "Default"
        }
      ]
    }
  ],
  "data": {
    "created_at": "2021-03-11T15:00:17.379Z",
    "ignoreHooks": false,
    "kid": "476b95a1-aafd-4f82-b9be-1ce5d6207a15",
    "modified_at": "2022-04-10T20:23:02.723Z",
    "repository": "kara.moe",
    "tags": {
      "authors": [
        "1631228b-9125-497a-aafc-66f920a44a02"
      ],
      "collections": [
        "c7db86a0-ff64-4044-9be4-66dd1ef1d1c1"
      ],
      "creators": [
        "00f66915-b160-438b-a26d-bf7e39eaf9fd",
        "7a4d3d9d-9982-4c54-a8b0-4cf10d4135ca"
      ],
      "families": [
        "0377db02-3af6-43b8-9b08-c759df3d25c3"
      ],
      "genres": [
        "45623cae-6d68-4304-a49b-896d1d6f4580"
      ],
      "groups": [
        "8c22c899-b3ed-42da-a548-ce00f950798b",
        "8e209ae4-4381-438f-89dc-1b21752027d2"
      ],
      "langs": [
        "4dcf9614-7914-42aa-99f4-dbce2e059133"
      ],
      "singers": [
        "c772094d-498a-4918-a103-0dbe19b225ce"
      ],
      "songtypes": [
        "7be1b15c-cff8-4b37-a649-5c90f3d569a9"
      ],
      "songwriters": [
        "7a4d3d9d-9982-4c54-a8b0-4cf10d4135ca"
      ]
    },
    "titles": {
      "eng": "Lagtrain",
      "jpn": "ラグトレイン"
    },
    "titles_default_language": "eng",
    "title": "Lagtrain",
    "year": 2020
  }
}