{
  "header": {
    "version": 4,
    "description": "Karaoke Mugen Karaoke Data File"
  },
  "medias": [
    {
      "version": "Default",
      "filename": "JPN - Touhou - MV - Alice Dere.mp4",
      "audiogain": -8.9,
      "loudnorm": "-8.01,1.11,3.20,-18.15,-0.42",
      "filesize": 26518475,
      "duration": 291,
      "default": true,
      "lyrics": [
        {
          "filename": "JPN - Touhou - MV - Alice Dere.ass",
          "default": true,
          "version": "Default",
          "subchecksum": "fb63e1db3a53f8aae28cf0579a1984b2"
        }
      ]
    }
  ],
  "data": {
    "created_at": "2020-04-30T19:52:37.778Z",
    "kid": "3dc5dfc2-1c6e-4613-8884-ffb5c8c67ad4",
    "modified_at": "2021-02-25T13:27:23.810Z",
    "repository": "kara.moe",
    "tags": {
      "authors": [
        "60defa7b-774e-4680-8321-51b742c2e009"
      ],
      "collections": [
        "c7db86a0-ff64-4044-9be4-66dd1ef1d1c1"
      ],
      "creators": [
        "25fc251a-0514-4bf5-a818-dd0547723f4a"
      ],
      "families": [
        "0377db02-3af6-43b8-9b08-c759df3d25c3"
      ],
      "groups": [
        "3c14c864-533c-49e6-a3cc-6969f1233775",
        "60defa7b-774e-4680-8321-51b742c2e009"
      ],
      "langs": [
        "4dcf9614-7914-42aa-99f4-dbce2e059133"
      ],
      "origins": [
        "ac5085db-52d8-44b4-8fbb-1697b24d2046"
      ],
      "series": [
        "1bdaa5a1-dfa6-4365-b746-7a0b194dafd6"
      ],
      "singers": [
        "98cd2e0e-44fb-4feb-aada-1b418e94af37"
      ],
      "songtypes": [
        "7be1b15c-cff8-4b37-a649-5c90f3d569a9"
      ],
      "songwriters": [
        "26cb5252-8510-49e0-897c-a611a05fc056",
        "af3c7f21-61be-4d1e-af2a-d5ed4020e771",
        "feceb592-efac-4eda-9b03-c27cf509004c"
      ],
      "franchises": [
        "1bdaa5a1-dfa6-4365-b746-7a0b194dafd6"
      ]
    },
    "title": "Alice→Dere",
    "titles": {
      "qro": "Alice→Dere",
      "jpn": "アリス→デレ"
    },
    "year": 2007,
    "titles_default_language": "qro"
  }
}