{
  "header": {
    "version": 4,
    "description": "Karaoke Mugen Karaoke Data File"
  },
  "medias": [
    {
      "version": "Default",
      "filename": "JPN - Touhou - AUDIO - Lumography.mp3",
      "audiogain": -7.61,
      "loudnorm": "-9.36,0.33,3.30,-19.50,-0.58",
      "filesize": 10527889,
      "duration": 259,
      "default": true,
      "lyrics": [
        {
          "filename": "JPN - Touhou - AUDIO - Lumography.ass",
          "default": true,
          "version": "Default"
        }
      ]
    }
  ],
  "data": {
    "created_at": "2023-04-22T16:01:02.799Z",
    "ignoreHooks": false,
    "kid": "4f69b2c1-b9bc-4f7b-917b-8a71a399dc67",
    "modified_at": "2023-04-22T16:01:03.042Z",
    "repository": "kara.moe",
    "tags": {
      "authors": [
        "0d6a6894-c57e-47aa-90b1-8a673e277813"
      ],
      "collections": [
        "dbcf2c22-524d-4708-99bb-601703633927"
      ],
      "groups": [
        "df5f446f-d161-4760-8e0c-822e70ea03ae",
        "ae613721-1fbe-480d-ba6b-d6d0702b184d"
      ],
      "langs": [
        "4dcf9614-7914-42aa-99f4-dbce2e059133"
      ],
      "origins": [
        "ac5085db-52d8-44b4-8fbb-1697b24d2046"
      ],
      "series": [
        "1bdaa5a1-dfa6-4365-b746-7a0b194dafd6"
      ],
      "singers": [
        "8c99b399-ab59-4db3-b01d-aae9262258ee"
      ],
      "singergroups": [
        "8a3fc0e0-aac3-4ea7-a64a-0730bef86a33"
      ],
      "songtypes": [
        "42a262ae-acba-4ab5-a446-c5789c96c821"
      ],
      "songwriters": [
        "bbe0852f-0468-43cb-b054-e4b321bcb7e2",
        "7e344669-0d60-4468-bdaf-507ca8ee9056",
        "26cb5252-8510-49e0-897c-a611a05fc056"
      ],
      "franchises": [
        "1bdaa5a1-dfa6-4365-b746-7a0b194dafd6"
      ]
    },
    "titles": {
      "eng": "Lumography"
    },
    "titles_default_language": "eng",
    "year": 2016
  }
}