{
  "header": {
    "version": 4,
    "description": "Karaoke Mugen Karaoke Data File"
  },
  "medias": [
    {
      "version": "Default",
      "filename": "JPN - Kidou Senshi Gundam Tekketsu no Orphans - ED2 - STEEL -tekketsu no kizuna-.mp4",
      "audiogain": -2.1,
      "loudnorm": "-16.91,-3.64,7.00,-26.95,-1.54",
      "filesize": 17366588,
      "duration": 92,
      "default": true,
      "lyrics": [
        {
          "filename": "JPN - Kidou Senshi Gundam Tekketsu no Orphans - ED2 - STEEL -tekketsu no kizuna-.ass",
          "default": true,
          "version": "Default"
        }
      ]
    }
  ],
  "data": {
    "created_at": "2017-10-11T17:01:26.000Z",
    "ignoreHooks": false,
    "kid": "557bd215-05e6-430d-933e-9f81740271dd",
    "modified_at": "2022-02-13T17:06:43.053Z",
    "repository": "kara.moe",
    "songorder": 2,
    "tags": {
      "authors": [
        "c1d13047-c6ce-4772-a06d-1808fd3d0476"
      ],
      "collections": [
        "c7db86a0-ff64-4044-9be4-66dd1ef1d1c1"
      ],
      "creators": [
        "ef8f80e1-d244-4aea-b7f0-984d6dd4b82b"
      ],
      "families": [
        "0377db02-3af6-43b8-9b08-c759df3d25c3"
      ],
      "genres": [
        "f60ba57d-5ef4-49e0-b93b-d0dcbcff6592"
      ],
      "groups": [
        "ae613721-1fbe-480d-ba6b-d6d0702b184d"
      ],
      "langs": [
        "4dcf9614-7914-42aa-99f4-dbce2e059133"
      ],
      "misc": [
        "fe819ff1-9db8-4a0f-85dc-0e322c9126c4"
      ],
      "origins": [
        "938de218-5343-4865-94d3-fb33f2eaa152"
      ],
      "series": [
        "844f4f88-0b45-4689-bfb7-aedfb8343fee"
      ],
      "singers": [
        "61c5e3d4-6a0e-46b6-b622-06f5bc6d3294"
      ],
      "songtypes": [
        "38c77c56-2b95-4040-b676-0994a8cb0597"
      ],
      "songwriters": [
        "7e72484d-b638-4d9a-95f2-5947c59d721b",
        "895ceb3c-0bee-4f59-aa9f-28e0168453c0"
      ],
      "franchises": [
        "e6ade589-c2e4-49a1-acdb-ea9b03e57240"
      ]
    },
    "titles": {
      "qro": "Steel: Tekketsu no Kizuna",
      "jpn": "STEEL -鉄血の絆-"
    },
    "title": "STEEL -tekketsu no kizuna-",
    "year": 2016,
    "titles_default_language": "qro"
  }
}