{
  "header": {
    "version": 4,
    "description": "Karaoke Mugen Karaoke Data File"
  },
  "medias": [
    {
      "version": "Default",
      "filename": "JPN - Suzumiya Haruhi no Yuuutsu - OP3 - Super Driver ~ Off Vocal Vers.mp4",
      "audiogain": -8.77,
      "loudnorm": "-7.81,0.65,2.30,-17.82,-0.24",
      "filesize": 94172703,
      "duration": 90,
      "default": true,
      "lyrics": [
        {
          "filename": "JPN - Suzumiya Haruhi no Yuuutsu - OP3 - Super Driver ~ Off Vocal Vers.ass",
          "default": true,
          "version": "Default"
        }
      ]
    }
  ],
  "data": {
    "created_at": "2023-05-04T20:01:42.553Z",
    "ignoreHooks": false,
    "kid": "d568e0f3-d098-4360-9054-d3dd32268a41",
    "modified_at": "2023-05-04T20:01:42.687Z",
    "parents": [
      "5a7b6be6-3167-4691-8fc6-6dce162937c9"
    ],
    "repository": "kara.moe",
    "songorder": 3,
    "tags": {
      "authors": [
        "fa399f2f-ea1d-4902-8796-ea6d8218aff0",
        "90698f28-1d62-4673-82c4-33ae96b1ba97"
      ],
      "collections": [
        "c7db86a0-ff64-4044-9be4-66dd1ef1d1c1"
      ],
      "creators": [
        "d93786af-5098-49b2-9928-37edfb3d0322"
      ],
      "families": [
        "0377db02-3af6-43b8-9b08-c759df3d25c3"
      ],
      "groups": [
        "3c14c864-533c-49e6-a3cc-6969f1233775",
        "56f41a2e-80fb-4bbe-9df0-420ee4c8997a"
      ],
      "langs": [
        "4dcf9614-7914-42aa-99f4-dbce2e059133"
      ],
      "misc": [
        "fe819ff1-9db8-4a0f-85dc-0e322c9126c4"
      ],
      "origins": [
        "938de218-5343-4865-94d3-fb33f2eaa152"
      ],
      "series": [
        "4f132535-c7b6-4147-a324-6995aad44df7"
      ],
      "singers": [
        "488aea99-01a0-4c2c-b475-b61d99efe994"
      ],
      "songtypes": [
        "f02ad9b3-0bd9-4aad-85b3-9976739ba0e4"
      ],
      "songwriters": [
        "d7658a75-7945-4f08-8233-02f38dc385ba",
        "f41e7218-6c19-4e19-9b5f-4612dcd58243"
      ],
      "versions": [
        "c0cc87b9-55b9-40f0-878a-fbb9e34c151e"
      ],
      "franchises": [
        "4f132535-c7b6-4147-a324-6995aad44df7"
      ]
    },
    "titles": {
      "eng": "Super Driver"
    },
    "titles_default_language": "eng",
    "year": 2009
  }
}