{
  "header": {
    "version": 4,
    "description": "Karaoke Mugen Karaoke Data File"
  },
  "medias": [
    {
      "version": "Default",
      "filename": "JPN - Shoujo Kakumei Utena - ED2 - Virtual Star hasseigaku.mp4",
      "audiogain": 3.21,
      "loudnorm": "-20.52,-8.05,3.20,-30.84,-0.32",
      "filesize": 26629901,
      "duration": 76,
      "default": true,
      "lyrics": [
        {
          "filename": "JPN - Shoujo Kakumei Utena - ED2 - Virtual Star hasseigaku.ass",
          "default": true,
          "version": "Default",
          "subchecksum": "a2840122ea5b5411826ca75b1e5b71c9"
        }
      ]
    }
  ],
  "data": {
    "created_at": "2017-10-11T17:03:12.000Z",
    "kid": "f6a205b6-680e-439f-9345-99e443b75813",
    "modified_at": "2021-02-25T13:06:29.908Z",
    "repository": "kara.moe",
    "songorder": 2,
    "tags": {
      "authors": [
        "5bdaba57-27f8-4568-8806-76a807728766"
      ],
      "collections": [
        "c7db86a0-ff64-4044-9be4-66dd1ef1d1c1"
      ],
      "creators": [
        "802a8ac8-b16f-40a4-944b-99956798c906"
      ],
      "families": [
        "0377db02-3af6-43b8-9b08-c759df3d25c3"
      ],
      "groups": [
        "24db50aa-a126-4d34-a48a-e45db79c4245"
      ],
      "langs": [
        "4dcf9614-7914-42aa-99f4-dbce2e059133"
      ],
      "origins": [
        "938de218-5343-4865-94d3-fb33f2eaa152"
      ],
      "series": [
        "84016ca8-d780-4c2e-84b2-c5acab967d6d"
      ],
      "singers": [
        "ec6f013b-a129-4f6d-9c05-ab0413350818"
      ],
      "songtypes": [
        "38c77c56-2b95-4040-b676-0994a8cb0597"
      ],
      "songwriters": [
        "775fbb22-042e-4ce8-bde4-a10cc7fc7d82"
      ],
      "franchises": [
        "84016ca8-d780-4c2e-84b2-c5acab967d6d"
      ]
    },
    "title": "Virtual Star hasseigaku",
    "titles": {
      "qro": "Virtual Star Hasseigaku",
      "jpn": "バーチャルスター発生学"
    },
    "year": 1997,
    "titles_default_language": "qro"
  }
}