{
  "header": {
    "version": 4,
    "description": "Karaoke Mugen Karaoke Data File"
  },
  "medias": [
    {
      "version": "Default",
      "filename": "JPN - Senki Zesshou Symphogear XD Unlimited - AUDIO CS - Gosenfu no Sanctuary.mp3",
      "audiogain": -8.52,
      "loudnorm": "-8.39,0.71,2.40,-18.41,-0.32",
      "filesize": 9194541,
      "duration": 224,
      "default": true,
      "lyrics": [
        {
          "filename": "JPN - Senki Zesshou Symphogear XD Unlimited - AUDIO CS - Gosenfu no Sanctuary.ass",
          "default": true,
          "version": "Default"
        }
      ]
    }
  ],
  "data": {
    "created_at": "2023-06-13T03:57:10.672Z",
    "ignoreHooks": false,
    "kid": "01dd5a70-9a3b-4cbf-8786-a7134fba9c7e",
    "modified_at": "2023-06-13T03:57:10.767Z",
    "repository": "kara.moe",
    "tags": {
      "authors": [
        "7848b5dc-a5df-4577-b640-147be5288cec"
      ],
      "collections": [
        "c7db86a0-ff64-4044-9be4-66dd1ef1d1c1"
      ],
      "creators": [
        "de902543-7032-4edd-a407-6c9fade246cd"
      ],
      "groups": [
        "ae613721-1fbe-480d-ba6b-d6d0702b184d"
      ],
      "langs": [
        "4dcf9614-7914-42aa-99f4-dbce2e059133"
      ],
      "series": [
        "99a6a137-2984-4db4-a59c-66014ffae310"
      ],
      "singers": [
        "7e153b87-dd5f-4ce1-b187-9941ca95ce3e"
      ],
      "songtypes": [
        "42a262ae-acba-4ab5-a446-c5789c96c821",
        "a8a2616c-b5a1-4df3-ad6f-89291bc67dee"
      ],
      "songwriters": [
        "af3ffe51-8059-461c-bbb8-78ea388731f3",
        "edcfaab2-4464-4eab-927a-91be9dfa982e"
      ],
      "franchises": [
        "61b24082-a6a9-482b-b126-0ad7be595791"
      ]
    },
    "titles": {
      "jpn": "五線譜のサンクチュアリ",
      "qro": "Gosenfu no Sanctuary"
    },
    "titles_default_language": "qro",
    "year": 2019
  }
}