{
  "header": {
    "version": 4,
    "description": "Karaoke Mugen Karaoke Data File"
  },
  "medias": [
    {
      "version": "Default",
      "filename": "JPN - Touhou - MV - Miracle Hinacle.mp4",
      "audiogain": -9.12,
      "loudnorm": "-7.58,1.21,1.50,-17.64,-0.17",
      "filesize": 19860914,
      "duration": 143,
      "default": true,
      "lyrics": [
        {
          "filename": "JPN - Touhou - MV - Miracle Hinacle.ass",
          "default": true,
          "version": "Default"
        }
      ]
    }
  ],
  "data": {
    "created_at": "2021-05-21T20:00:51.987Z",
    "ignoreHooks": false,
    "kid": "8f31338b-29fb-4ab5-bf5b-4637a3456e43",
    "modified_at": "2022-09-30T20:38:30.229Z",
    "repository": "kara.moe",
    "tags": {
      "authors": [
        "18ff2361-7b48-4a95-97ae-8e13ff51b7e1"
      ],
      "collections": [
        "c7db86a0-ff64-4044-9be4-66dd1ef1d1c1"
      ],
      "creators": [
        "25fc251a-0514-4bf5-a818-dd0547723f4a",
        "dfdca219-b7f2-4e7b-a18a-0229108ff1cd"
      ],
      "families": [
        "0377db02-3af6-43b8-9b08-c759df3d25c3"
      ],
      "groups": [
        "3c14c864-533c-49e6-a3cc-6969f1233775"
      ],
      "langs": [
        "4dcf9614-7914-42aa-99f4-dbce2e059133"
      ],
      "origins": [
        "ac5085db-52d8-44b4-8fbb-1697b24d2046"
      ],
      "series": [
        "1bdaa5a1-dfa6-4365-b746-7a0b194dafd6"
      ],
      "singers": [
        "65860881-335a-4551-8df8-fa56ee102579"
      ],
      "songtypes": [
        "7be1b15c-cff8-4b37-a649-5c90f3d569a9"
      ],
      "songwriters": [
        "b722bb12-a0f3-4f13-984f-10630694b18b"
      ],
      "franchises": [
        "1bdaa5a1-dfa6-4365-b746-7a0b194dafd6"
      ]
    },
    "titles": {
      "eng": "Miracle∞Hinacle"
    },
    "titles_default_language": "eng",
    "titles_aliases": [
      "Miracle",
      "Hinacle"
    ],
    "title": "Miracle∞Hinacle",
    "year": 2008
  }
}