{
  "header": {
    "version": 4,
    "description": "Karaoke Mugen Karaoke Data File"
  },
  "medias": [
    {
      "version": "Default",
      "filename": "JPN - BTOB - MV - Mirai (Ashita).mp4",
      "audiogain": -9.95,
      "loudnorm": "-7.71,0.46,7.10,-18.25,-1.39",
      "filesize": 42996815,
      "duration": 254,
      "default": true,
      "lyrics": [
        {
          "filename": "JPN - BTOB - MV - Mirai (Ashita).ass",
          "default": true,
          "version": "Default"
        }
      ]
    }
  ],
  "data": {
    "created_at": "2019-10-06T20:49:07.000Z",
    "kid": "59996964-50ad-4a3b-a952-f654f8614cd7",
    "modified_at": "2022-05-26T16:18:45.894Z",
    "repository": "kara.moe",
    "songorder": null,
    "tags": {
      "authors": [
        "622e2a6d-e4e8-4ff5-b218-890e8d7a3abf"
      ],
      "creators": [
        "0635fc01-24ee-40db-b419-7b9c81f23b0c"
      ],
      "families": [
        "5391f9fe-638c-415f-8dc9-958e3a2c5787"
      ],
      "groups": [
        "2b4e9972-5e17-481b-99f5-d0787c0ada56",
        "ae613721-1fbe-480d-ba6b-d6d0702b184d"
      ],
      "langs": [
        "4dcf9614-7914-42aa-99f4-dbce2e059133"
      ],
      "singers": [
        "e29ca23d-958f-47c3-892c-605e38dd0b41"
      ],
      "songtypes": [
        "7be1b15c-cff8-4b37-a649-5c90f3d569a9"
      ],
      "songwriters": [
        "350c41e1-b239-4aa7-bee8-a9ec23295a01",
        "53f485f4-aad4-4859-94f3-7b96fbf50746"
      ],
      "collections": [
        "dbcf2c22-524d-4708-99bb-601703633927"
      ]
    },
    "titles": {
      "qro": "Mirai (Ashita)",
      "jpn": "未來（あした)"
    },
    "titles_default_language": "qro",
    "title": "Mirai (Ashita)",
    "year": 2015
  }
}