{
  "header": {
    "version": 4,
    "description": "Karaoke Mugen Karaoke Data File"
  },
  "medias": [
    {
      "version": "Default",
      "filename": "JPN - Kaori Maeda - AUDIO - Fantasy.mp3",
      "loudnorm": "-8.22,1.57,5.50,-18.29,-0.62",
      "filesize": 9443708,
      "duration": 230,
      "default": true,
      "lyrics": [
        {
          "filename": "JPN - Kaori Maeda - AUDIO - Fantasy.ass",
          "default": true,
          "version": "Default"
        }
      ]
    }
  ],
  "data": {
    "created_at": "2023-09-16T21:38:02.008Z",
    "ignoreHooks": false,
    "kid": "ba44a926-d059-4d75-9659-d88a1bdfac3d",
    "modified_at": "2023-09-16T21:38:02.008Z",
    "repository": "kara.moe",
    "tags": {
      "authors": [
        "16b136eb-921f-4c07-be38-ff92d5cc4313"
      ],
      "collections": [
        "dbcf2c22-524d-4708-99bb-601703633927"
      ],
      "creators": [
        "818d65eb-6436-42e5-be7e-a6b4b4f538b0"
      ],
      "genres": [
        "caa86df2-0d59-474b-885c-f240a9e891b0"
      ],
      "groups": [
        "8e209ae4-4381-438f-89dc-1b21752027d2"
      ],
      "langs": [
        "4dcf9614-7914-42aa-99f4-dbce2e059133"
      ],
      "singers": [
        "747cd011-3914-4212-9079-0da3dd845831"
      ],
      "songtypes": [
        "42a262ae-acba-4ab5-a446-c5789c96c821"
      ],
      "songwriters": [
        "330d205b-72a7-4b06-947c-2e16a0868553",
        "0641a745-f1d3-4003-9f76-4ccc472fddad"
      ]
    },
    "titles": {
      "eng": "Fantasy"
    },
    "titles_default_language": "eng",
    "year": 2023
  }
}