{
  "header": {
    "version": 4,
    "description": "Karaoke Mugen Karaoke Data File"
  },
  "medias": [
    {
      "version": "Default",
      "filename": "JPN - Final Fantasy X - AMV - Suteki da ne ~ Off Vocal Vers.mp4",
      "audiogain": -8.2,
      "loudnorm": "-9.84,2.15,6.90,-19.99,-1.00",
      "filesize": 92946964,
      "duration": 336,
      "default": true,
      "lyrics": [
        {
          "filename": "JPN - Final Fantasy X - AMV - Suteki da ne ~ Off Vocal Vers.ass",
          "default": true,
          "version": "Default"
        }
      ]
    }
  ],
  "data": {
    "created_at": "2022-11-09T17:50:33.928Z",
    "ignoreHooks": false,
    "kid": "8decf373-dee7-4cf4-99a7-ec76208cfa84",
    "modified_at": "2022-11-09T18:44:27.163Z",
    "parents": [
      "e0700f23-7b7a-4a80-b46b-27ba4eb13da6"
    ],
    "repository": "kara.moe",
    "tags": {
      "authors": [
        "1db1738f-acdc-42fc-aec3-60f4bddf660d"
      ],
      "collections": [
        "c7db86a0-ff64-4044-9be4-66dd1ef1d1c1"
      ],
      "creators": [
        "11259605-6535-4a8f-8156-6aaa1e81c4af"
      ],
      "families": [
        "0377db02-3af6-43b8-9b08-c759df3d25c3"
      ],
      "groups": [
        "3c14c864-533c-49e6-a3cc-6969f1233775"
      ],
      "langs": [
        "4dcf9614-7914-42aa-99f4-dbce2e059133"
      ],
      "misc": [
        "86705d4b-24e4-4756-9687-2b9c98bcf366"
      ],
      "series": [
        "a34958ae-1578-4f5b-9472-c9d184372ccb"
      ],
      "singers": [
        "bb45b3c6-3b54-4741-8940-9687349fa99b"
      ],
      "songtypes": [
        "a6c79ce5-89ee-4d50-afe8-3abd7317f6c2"
      ],
      "songwriters": [
        "22973edc-2b1d-4c54-9219-f5470f862bee",
        "e4b6653b-d0a6-46d3-a24f-dad5c8dec4b8"
      ],
      "versions": [
        "c0cc87b9-55b9-40f0-878a-fbb9e34c151e"
      ],
      "franchises": [
        "595c5b14-54f8-4885-a689-02296506a704"
      ]
    },
    "titles": {
      "jpn": "素敵だね",
      "qro": "Suteki da ne"
    },
    "titles_default_language": "qro",
    "title": "Suteki da ne",
    "year": 2001
  }
}