{
  "header": {
    "version": 4,
    "description": "Karaoke Mugen Karaoke Data File"
  },
  "medias": [
    {
      "version": "Default",
      "filename": "JPN - Fairy Tail Final Series - OP4 - MORE THAN LiKE.mp4",
      "audiogain": 2.6,
      "loudnorm": "-19.39,-10.45,5.30,-29.46,-1.38",
      "filesize": 65813152,
      "duration": 89,
      "default": true,
      "lyrics": [
        {
          "filename": "JPN - Fairy Tail Final Series - OP4 - MORE THAN LiKE.ass",
          "default": true,
          "version": "Default",
          "subchecksum": "6c716ff17765b69bc5e7d1a2289c744e"
        }
      ]
    }
  ],
  "data": {
    "created_at": "2020-03-03T16:25:14.276Z",
    "kid": "1276a59e-03a6-4743-a2f3-95c70e2a0f30",
    "modified_at": "2021-02-25T11:17:46.696Z",
    "repository": "kara.moe",
    "songorder": 4,
    "tags": {
      "authors": [
        "84448ecb-bdbf-4c64-a650-ba770714316d"
      ],
      "collections": [
        "c7db86a0-ff64-4044-9be4-66dd1ef1d1c1"
      ],
      "creators": [
        "2b63c455-b186-46b8-8b60-f86c11144ac4",
        "43cebb4a-845f-449b-bbd0-d97d96d97cb4",
        "b96e3686-bbe0-4b9e-815a-a278d5ff31be"
      ],
      "families": [
        "0377db02-3af6-43b8-9b08-c759df3d25c3"
      ],
      "genres": [
        "a0aeef4a-6428-45ff-a6e1-468b595930c2"
      ],
      "groups": [
        "ae613721-1fbe-480d-ba6b-d6d0702b184d"
      ],
      "langs": [
        "4dcf9614-7914-42aa-99f4-dbce2e059133"
      ],
      "origins": [
        "938de218-5343-4865-94d3-fb33f2eaa152"
      ],
      "series": [
        "f0f392d7-03c1-42d7-81dd-08b890867aff"
      ],
      "singers": [
        "8b877341-a725-482b-a034-d87428619ee6"
      ],
      "songtypes": [
        "f02ad9b3-0bd9-4aad-85b3-9976739ba0e4"
      ],
      "songwriters": [
        "2ac9c56b-150e-4266-ae41-d2b635b34691",
        "7aca7073-3852-4772-b069-87c3c1dbc75d",
        "fa66e82a-a909-4b5b-8119-8cf990a30910"
      ],
      "franchises": [
        "6b849ba8-e1a6-4390-bcb5-1d795d536761"
      ]
    },
    "title": "MORE THAN LiKE",
    "titles": {
      "eng": "MORE THAN LiKE"
    },
    "year": 2019,
    "titles_default_language": "eng"
  }
}