{
  "header": {
    "version": 4,
    "description": "Karaoke Mugen Karaoke Data File"
  },
  "medias": [
    {
      "version": "Default",
      "filename": "JPN - Muv-Luv - GAME OP2 - Muv-Luv (Unlimited).mp4",
      "audiogain": -4.3,
      "loudnorm": "-13.74,-0.18,4.30,-23.95,-0.71",
      "filesize": 17016163,
      "duration": 104,
      "default": true,
      "lyrics": [
        {
          "filename": "JPN - Muv-Luv - GAME OP2 - Muv-Luv (Unlimited).ass",
          "default": true,
          "version": "Default",
          "subchecksum": "460a272e65492c625ab34554a0e2df4c"
        }
      ]
    }
  ],
  "data": {
    "created_at": "2017-10-11T17:01:43.000Z",
    "kid": "3032bad9-bc24-4100-a185-a95be971c551",
    "modified_at": "2021-02-25T12:31:16.906Z",
    "repository": "kara.moe",
    "songorder": 2,
    "tags": {
      "authors": [
        "a5dbab74-510b-48c5-9cea-5a537a81c974"
      ],
      "collections": [
        "c7db86a0-ff64-4044-9be4-66dd1ef1d1c1"
      ],
      "creators": [
        "5e87ca69-52dd-4df4-957a-5a24d5a19c94"
      ],
      "groups": [
        "3c14c864-533c-49e6-a3cc-6969f1233775",
        "8c22c899-b3ed-42da-a548-ce00f950798b"
      ],
      "langs": [
        "4dcf9614-7914-42aa-99f4-dbce2e059133"
      ],
      "origins": [
        "2f96e82c-c61b-4413-817e-e6b247509b95",
        "dbedd6b3-d125-4cd8-aa32-c4175e4ca3a3"
      ],
      "series": [
        "71cd681c-bb96-412d-b6af-6c134af20758"
      ],
      "singers": [
        "da2034ae-6d61-4f43-9700-4030f097ef13"
      ],
      "songtypes": [
        "f02ad9b3-0bd9-4aad-85b3-9976739ba0e4"
      ],
      "songwriters": [
        "6d9dc758-b860-4c10-8d5d-43494c2dd6fa",
        "eae43792-43ca-44cd-871b-5d46e5531c45"
      ],
      "franchises": [
        "71cd681c-bb96-412d-b6af-6c134af20758"
      ]
    },
    "title": "Muv-Luv (Unlimited)",
    "titles": {
      "qro": "Muv-Luv (Unlimited)",
      "jpn": "マブラヴ (Unlimited)"
    },
    "year": 2003,
    "titles_default_language": "qro"
  }
}