{
  "header": {
    "version": 4,
    "description": "Karaoke Mugen Karaoke Data File"
  },
  "medias": [
    {
      "version": "Default",
      "filename": "JPN - IA - MV - Kimi no Yozora Shoukaihan ~ Alternative Vers.mp4",
      "audiogain": -11.15,
      "loudnorm": "-6.14,1.73,4.30,-16.17,-1.07",
      "filesize": 8029772,
      "duration": 173,
      "default": true,
      "lyrics": [
        {
          "filename": "JPN - IA - MV - Kimi no Yozora Shoukaihan ~ Alternative Vers.ass",
          "default": true,
          "version": "Default"
        }
      ]
    }
  ],
  "data": {
    "created_at": "2023-01-04T22:17:26.383Z",
    "ignoreHooks": false,
    "kid": "71b3903b-7ee1-4784-ac99-85e71b08276d",
    "modified_at": "2023-01-05T21:38:40.691Z",
    "parents": [
      "6ae74e77-9bfe-4bc7-bc29-3ec4bbdcc816"
    ],
    "repository": "kara.moe",
    "tags": {
      "authors": [
        "a3a99b23-6c42-4d38-8863-491153187437"
      ],
      "collections": [
        "c7db86a0-ff64-4044-9be4-66dd1ef1d1c1"
      ],
      "creators": [
        "f8ae5f07-84f7-4c00-97fd-09f756c190e2"
      ],
      "families": [
        "0377db02-3af6-43b8-9b08-c759df3d25c3"
      ],
      "genres": [
        "45623cae-6d68-4304-a49b-896d1d6f4580"
      ],
      "groups": [
        "ae613721-1fbe-480d-ba6b-d6d0702b184d"
      ],
      "langs": [
        "4dcf9614-7914-42aa-99f4-dbce2e059133"
      ],
      "misc": [
        "ec4fee75-71fb-45b4-9772-2ca374b4b600"
      ],
      "singers": [
        "65ec4b1d-fe71-43f7-959b-65586cf634a9"
      ],
      "songtypes": [
        "7be1b15c-cff8-4b37-a649-5c90f3d569a9"
      ],
      "songwriters": [
        "ac67faa1-692b-47e8-b687-133f5434f43b",
        "ea05cda1-bb09-4818-9ec1-78b21ac84c44"
      ],
      "versions": [
        "9f63c359-d1bf-425a-bcf5-b245c2c9211d"
      ]
    },
    "titles": {
      "eng": "Night Sky Patrol of Tomorrow",
      "jpn": "キミノヨゾラ哨戒班",
      "qro": "Kimi no Yozora Shoukaihan"
    },
    "titles_default_language": "qro",
    "titles_aliases": [
      "Shôkaihan",
      "Asu"
    ],
    "year": 2017
  }
}