{
  "header": {
    "version": 4,
    "description": "Karaoke Mugen Karaoke Data File"
  },
  "medias": [
    {
      "version": "Default",
      "filename": "JPN - Miku Hatsune - MV - Melty Land Nightmare ~ Full Off Vocal Vers.mp4",
      "audiogain": 7.05,
      "loudnorm": "-24.10,-5.31,3.80,-34.24,-0.06",
      "filesize": 15584713,
      "duration": 269,
      "default": true,
      "lyrics": [
        {
          "filename": "JPN - Miku Hatsune - MV - Melty Land Nightmare ~ Full Off Vocal Vers.ass",
          "default": true,
          "version": "Default"
        }
      ]
    }
  ],
  "data": {
    "created_at": "2023-02-22T07:23:06.796Z",
    "ignoreHooks": false,
    "kid": "4f1dd045-7180-4efa-b873-6d5e1ac21a96",
    "modified_at": "2023-02-22T07:44:39.602Z",
    "parents": [
      "8f25acb2-92a2-46da-8d7c-19606a6fafce"
    ],
    "repository": "kara.moe",
    "tags": {
      "authors": [
        "fb28c6d3-a81e-40c0-9a4c-e3268c60a64b"
      ],
      "collections": [
        "c7db86a0-ff64-4044-9be4-66dd1ef1d1c1"
      ],
      "creators": [
        "e173a563-c4f5-4619-afcf-c53fb563526a"
      ],
      "families": [
        "0377db02-3af6-43b8-9b08-c759df3d25c3"
      ],
      "genres": [
        "45623cae-6d68-4304-a49b-896d1d6f4580"
      ],
      "groups": [
        "ae613721-1fbe-480d-ba6b-d6d0702b184d"
      ],
      "langs": [
        "4dcf9614-7914-42aa-99f4-dbce2e059133"
      ],
      "singers": [
        "4407ba0e-5de7-4add-870f-7ac95a4804c9"
      ],
      "songtypes": [
        "7be1b15c-cff8-4b37-a649-5c90f3d569a9"
      ],
      "songwriters": [
        "e173a563-c4f5-4619-afcf-c53fb563526a"
      ],
      "versions": [
        "c0cc87b9-55b9-40f0-878a-fbb9e34c151e",
        "c2143a7f-6970-450e-8a79-0302db9220a9"
      ]
    },
    "titles": {
      "eng": "Melty Land Nightmare",
      "jpn": "メルティランドナイトメア"
    },
    "titles_default_language": "eng",
    "year": 2018
  }
}