{
  "header": {
    "version": 4,
    "description": "Karaoke Mugen Karaoke Data File"
  },
  "medias": [
    {
      "version": "Default",
      "filename": "JPN - Love Live! Sunshine!! - LIVE - Waai WaiWai WaiWaiWai! ~ Full Vers.mp4",
      "loudnorm": "-7.41,0.68,3.20,-17.46,0.05",
      "filesize": 127410293,
      "duration": 224,
      "default": true,
      "lyrics": [
        {
          "filename": "JPN - Love Live! Sunshine!! - LIVE - Waai WaiWai WaiWaiWai! ~ Full Vers.ass",
          "default": true,
          "version": "Default"
        }
      ]
    }
  ],
  "data": {
    "comment": "Sodachi a fait la version normale, et je (Aurebleyde) me suis chargé de l'adapter pour la version live après en avoir discuté avec lui",
    "created_at": "2023-08-25T00:48:52.769Z",
    "ignoreHooks": false,
    "kid": "dd7afe61-68cb-49b5-a9e2-0d731801882d",
    "modified_at": "2023-08-25T00:52:19.331Z",
    "parents": [
      "d4947202-82b7-45b6-a138-84dafb8aa207"
    ],
    "repository": "kara.moe",
    "tags": {
      "authors": [
        "065907f6-055d-41ba-b83b-d92f99d8fec9",
        "449844e4-3a1f-46e1-8a92-bf72e2d1b6f1"
      ],
      "collections": [
        "dbcf2c22-524d-4708-99bb-601703633927"
      ],
      "creators": [
        "b2805292-730e-473a-96f0-fd8e7ffd1fd7"
      ],
      "families": [
        "5391f9fe-638c-415f-8dc9-958e3a2c5787"
      ],
      "genres": [
        "caa86df2-0d59-474b-885c-f240a9e891b0"
      ],
      "groups": [
        "8e209ae4-4381-438f-89dc-1b21752027d2"
      ],
      "langs": [
        "4dcf9614-7914-42aa-99f4-dbce2e059133"
      ],
      "series": [
        "63466536-1102-4f91-b167-4380d274e2a3"
      ],
      "singers": [
        "18b9be9d-c627-47d1-ab88-56201f59a609",
        "8f1cdf03-baf0-4294-bfdf-fdeedcdbeac5",
        "b4084895-9bbd-426a-8384-feef794ca53c"
      ],
      "singergroups": [
        "7604c538-a8d4-4936-9d15-4c4a22657a10",
        "b34161c7-a60d-4f1a-8436-11abc0875436"
      ],
      "songtypes": [
        "a0167949-580c-4de3-bf13-497e462e02f3"
      ],
      "songwriters": [
        "18dd3031-c9cb-4f4e-b44c-3cfb17559aea",
        "2e5a3e82-e351-4325-b1b0-be66fbe3e41b"
      ],
      "versions": [
        "c2143a7f-6970-450e-8a79-0302db9220a9"
      ],
      "franchises": [
        "fd5d066e-e85a-4eea-8688-2979a887450a"
      ]
    },
    "titles": {
      "qro": "Waai WaiWai WaiWaiWai!"
    },
    "titles_default_language": "qro",
    "titles_aliases": [
      "YYY",
      "Wai wai wai"
    ],
    "year": 2022
  }
}