{
  "header": {
    "version": 4,
    "description": "Karaoke Mugen Karaoke Data File"
  },
  "medias": [
    {
      "version": "Default",
      "filename": "JPN - Nanatsu no Taizai Kamigami no Gekirin - ED2 - Good day.mp4",
      "loudnorm": "-16.11,-5.38,5.10,-26.47,0.17",
      "filesize": 107796034,
      "duration": 90,
      "default": true,
      "lyrics": [
        {
          "filename": "JPN - Nanatsu no Taizai Kamigami no Gekirin - ED2 - Good day.ass",
          "default": true,
          "version": "Default"
        }
      ]
    }
  ],
  "data": {
    "created_at": "2023-09-05T20:52:45.716Z",
    "ignoreHooks": false,
    "kid": "cea5b40d-106a-41cf-8293-67d1d19ba9d3",
    "modified_at": "2023-09-05T21:12:24.478Z",
    "repository": "kara.moe",
    "songorder": 2,
    "tags": {
      "authors": [
        "df9cb48f-334e-4ceb-b26e-e254ad323492"
      ],
      "collections": [
        "c7db86a0-ff64-4044-9be4-66dd1ef1d1c1"
      ],
      "creators": [
        "2bf7a71d-d3fc-42ba-8aa0-a94d7ca3888c"
      ],
      "families": [
        "0377db02-3af6-43b8-9b08-c759df3d25c3"
      ],
      "genres": [
        "a0aeef4a-6428-45ff-a6e1-468b595930c2"
      ],
      "groups": [
        "8e209ae4-4381-438f-89dc-1b21752027d2",
        "966d1e74-d1f2-41e2-ab04-24279c22f562"
      ],
      "langs": [
        "4dcf9614-7914-42aa-99f4-dbce2e059133"
      ],
      "misc": [
        "fe819ff1-9db8-4a0f-85dc-0e322c9126c4"
      ],
      "origins": [
        "938de218-5343-4865-94d3-fb33f2eaa152"
      ],
      "series": [
        "78aa179d-2f77-4c89-a8ed-d45d0f1b1719"
      ],
      "singers": [
        "cd03dee7-0a38-4649-ad70-4405403ffa44"
      ],
      "songtypes": [
        "38c77c56-2b95-4040-b676-0994a8cb0597"
      ],
      "songwriters": [
        "167f0ff2-8b47-4eba-b442-376e47ae5e3e",
        "2224d40d-5bce-4aae-8590-84787311172b"
      ],
      "franchises": [
        "72476610-0ddd-4261-8ff7-a98ecaf66563"
      ]
    },
    "titles": {
      "eng": "Good day"
    },
    "titles_default_language": "eng",
    "year": 2020
  }
}