{
  "header": {
    "version": 4,
    "description": "Karaoke Mugen Karaoke Data File"
  },
  "medias": [
    {
      "version": "Default",
      "filename": "JPN - Kuroko no Basket 3 - ED3 - Lantana.mp4",
      "audiogain": -0.97,
      "loudnorm": "-16.01,-6.50,3.50,-26.03,-0.57",
      "filesize": 26117700,
      "duration": 89,
      "default": true,
      "lyrics": [
        {
          "filename": "JPN - Kuroko no Basket 3 - ED3 - Lantana.ass",
          "default": true,
          "version": "Default",
          "subchecksum": "54c368354cd466eb5eac3859d62d6d7e"
        }
      ]
    }
  ],
  "data": {
    "created_at": "2020-11-15T17:21:46.234Z",
    "kid": "de9a9bdc-d772-46c6-a57e-00df62db40a4",
    "modified_at": "2021-02-25T12:07:57.837Z",
    "repository": "kara.moe",
    "songorder": 3,
    "tags": {
      "authors": [
        "1d7745a8-73ea-40bb-ad99-826af98f6e41"
      ],
      "collections": [
        "c7db86a0-ff64-4044-9be4-66dd1ef1d1c1"
      ],
      "creators": [
        "20d023d6-5195-4e4f-bae3-8b28ad6334e2"
      ],
      "families": [
        "0377db02-3af6-43b8-9b08-c759df3d25c3"
      ],
      "groups": [
        "ae613721-1fbe-480d-ba6b-d6d0702b184d"
      ],
      "langs": [
        "4dcf9614-7914-42aa-99f4-dbce2e059133"
      ],
      "origins": [
        "938de218-5343-4865-94d3-fb33f2eaa152"
      ],
      "series": [
        "7766a5b7-ac6b-4cd2-b609-c5a2a3e2d79e"
      ],
      "singers": [
        "aeb69346-3801-4f4a-9136-9d035556e182"
      ],
      "songtypes": [
        "38c77c56-2b95-4040-b676-0994a8cb0597"
      ],
      "songwriters": [
        "894ed683-fb33-47a8-a718-3108c46e0c0d",
        "c3b40c55-5438-48ee-8805-4183cea9b40a"
      ],
      "franchises": [
        "0e0d08c7-45a0-42c3-bd88-7289dfbac807"
      ]
    },
    "title": "Lantana",
    "titles": {
      "eng": "Lantana"
    },
    "year": 2015,
    "titles_default_language": "eng"
  }
}