{
  "header": {
    "version": 4,
    "description": "Karaoke Mugen Karaoke Data File"
  },
  "medias": [
    {
      "version": "Default",
      "filename": "JPN - Uchuu no Stellvia - ED2 - The end of the world.mp4",
      "audiogain": 4.23,
      "loudnorm": "-21.24,-12.53,4.60,-31.43,-0.99",
      "filesize": 45219777,
      "duration": 70,
      "default": true,
      "lyrics": [
        {
          "filename": "JPN - Uchuu no Stellvia - ED2 - The end of the world.ass",
          "default": true,
          "version": "Default",
          "subchecksum": "8d7caffaf87e92a88c8ab8856eac40b4"
        }
      ]
    }
  ],
  "data": {
    "created_at": "2017-10-11T17:01:12.000Z",
    "kid": "905f8dbb-207a-40c7-9ed3-fa56e7079e23",
    "modified_at": "2021-02-25T13:31:06.973Z",
    "repository": "kara.moe",
    "songorder": 2,
    "tags": {
      "authors": [
        "0081300d-c0f9-4cff-a4f7-e726a293a76b",
        "5bdaba57-27f8-4568-8806-76a807728766"
      ],
      "collections": [
        "c7db86a0-ff64-4044-9be4-66dd1ef1d1c1"
      ],
      "creators": [
        "0e26434a-c89a-4366-85b5-9e5c4b7d4195"
      ],
      "families": [
        "0377db02-3af6-43b8-9b08-c759df3d25c3"
      ],
      "groups": [
        "3c14c864-533c-49e6-a3cc-6969f1233775"
      ],
      "langs": [
        "4dcf9614-7914-42aa-99f4-dbce2e059133"
      ],
      "origins": [
        "938de218-5343-4865-94d3-fb33f2eaa152"
      ],
      "series": [
        "2fbe9cd8-525b-4bc2-ad07-6cdcc20c00c3"
      ],
      "singers": [
        "78d91182-ac66-49fb-9561-1d330667d6c4"
      ],
      "songtypes": [
        "38c77c56-2b95-4040-b676-0994a8cb0597"
      ],
      "songwriters": [
        "0b54e69d-4691-4415-be0e-0dd6fd5d4e1a",
        "84a20b00-fd06-43fd-b78e-9c1a2b7b7795"
      ]
    },
    "title": "The end of the world",
    "titles": {
      "eng": "The end of the world"
    },
    "year": 2003,
    "titles_default_language": "eng"
  }
}