{
  "header": {
    "version": 4,
    "description": "Karaoke Mugen Karaoke Data File"
  },
  "medias": [
    {
      "version": "Default",
      "filename": "JPN - Yami no Matsuei - AMV - First Love.mp4",
      "audiogain": -4.28,
      "loudnorm": "-13.19,-0.06,16.30,-24.28,-1.65",
      "filesize": 40972296,
      "duration": 256,
      "default": true,
      "lyrics": [
        {
          "filename": "JPN - Yami no Matsuei - AMV - First Love.ass",
          "default": true,
          "version": "Default",
          "subchecksum": "c0f1f570dc5d4d549123ebf67bcca29b"
        }
      ]
    }
  ],
  "data": {
    "created_at": "2017-10-11T15:01:11.000Z",
    "kid": "a27ef9e2-295b-4c21-9f14-24f19f3515a2",
    "modified_at": "2021-02-25T13:39:12.303Z",
    "repository": "kara.moe",
    "tags": {
      "authors": [
        "5bdaba57-27f8-4568-8806-76a807728766"
      ],
      "collections": [
        "c7db86a0-ff64-4044-9be4-66dd1ef1d1c1"
      ],
      "creators": [
        "a56ed9e7-a3dc-4203-b91c-4128bcf7bfa9"
      ],
      "families": [
        "0377db02-3af6-43b8-9b08-c759df3d25c3"
      ],
      "groups": [
        "3c14c864-533c-49e6-a3cc-6969f1233775"
      ],
      "langs": [
        "4dcf9614-7914-42aa-99f4-dbce2e059133"
      ],
      "origins": [
        "938de218-5343-4865-94d3-fb33f2eaa152"
      ],
      "series": [
        "a1774ca6-d775-4b40-a929-639fa36a5127"
      ],
      "singers": [
        "41a9b640-40e6-4019-a55b-9bb0e858e0fc"
      ],
      "songtypes": [
        "a6c79ce5-89ee-4d50-afe8-3abd7317f6c2"
      ],
      "songwriters": [
        "41a9b640-40e6-4019-a55b-9bb0e858e0fc"
      ]
    },
    "title": "First Love",
    "titles": {
      "eng": "First Love"
    },
    "year": 2000,
    "titles_default_language": "eng"
  }
}