{
  "header": {
    "version": 4,
    "description": "Karaoke Mugen Karaoke Data File"
  },
  "medias": [
    {
      "version": "Default",
      "filename": "JPN - Gekijouban Bang Dream! Poppin' Dream! - MOVIE IN - Hashiri Hajimeta Bakari no Kimi ni ~ Acoustic Short Vers.mp4",
      "loudnorm": "-21.78,-7.73,12.40,-32.24,-1.12",
      "filesize": 60280909,
      "duration": 202,
      "default": true,
      "lyrics": [
        {
          "filename": "JPN - Gekijouban Bang Dream! Poppin' Dream! - MOVIE IN - Hashiri Hajimeta Bakari no Kimi ni ~ Acoustic Short Vers.ass",
          "default": true,
          "version": "Default"
        }
      ]
    }
  ],
  "data": {
    "created_at": "2023-09-17T15:01:09.926Z",
    "ignoreHooks": false,
    "kid": "ed037259-04ad-4342-a6bf-7c6ea8851604",
    "modified_at": "2023-09-17T15:09:42.562Z",
    "repository": "kara.moe",
    "tags": {
      "authors": [
        "002873d6-a84e-4e5a-85aa-fbe3969143c6"
      ],
      "collections": [
        "c7db86a0-ff64-4044-9be4-66dd1ef1d1c1"
      ],
      "creators": [
        "4e1122b4-c09f-445f-bdfa-cbad9581f2dc"
      ],
      "groups": [
        "8e209ae4-4381-438f-89dc-1b21752027d2"
      ],
      "langs": [
        "4dcf9614-7914-42aa-99f4-dbce2e059133"
      ],
      "misc": [
        "1d6ceadf-a885-47e5-b23b-c07bf668a424"
      ],
      "origins": [
        "c8ca9dea-d8b4-48fe-8427-d911653232e9"
      ],
      "series": [
        "83d2962f-070f-49f6-8329-11232cf8e933"
      ],
      "singers": [
        "1477f7cf-7a03-4ecc-a3eb-81fe697202ed",
        "360a527f-69b3-47e2-b028-d2b176bfaaa2",
        "505910d1-e37a-4c15-8d91-3965a217ea6f",
        "721a998c-a803-416e-a40c-98294656ed8e",
        "8ab6e3f9-a691-4fd0-9c55-5426f2218c5d"
      ],
      "singergroups": [
        "adb2af59-5df0-4e18-a0d1-b377416ef134"
      ],
      "songtypes": [
        "5e5250d9-351a-4a82-98eb-55db50ad8962"
      ],
      "songwriters": [
        "178dcba7-6d20-40b9-baea-d7d3e38e2c25",
        "74b347e5-fb3c-43c3-afe0-a2863f36d366",
        "af3ffe51-8059-461c-bbb8-78ea388731f3"
      ],
      "versions": [
        "d125c80a-86c1-4321-88e9-07b7800679b6",
        "dd5e063e-8a40-478e-a4c5-d477ce8f13f7"
      ],
      "franchises": [
        "a65e956d-39ab-4995-9ede-889c30a5cbf0"
      ]
    },
    "titles": {
      "eng": "On Your New Journey",
      "jpn": "走り始めたばかりのキミに",
      "qro": "Hashiri Hajimeta Bakari no Kimi ni"
    },
    "titles_default_language": "qro",
    "year": 2022
  }
}