{
  "header": {
    "version": 4,
    "description": "Karaoke Mugen Karaoke Data File"
  },
  "medias": [
    {
      "version": "Default",
      "filename": "JPN - Naruto Shippuuden - MV - CLOSER ~ Full Vers.mp4",
      "audiogain": -6.15,
      "loudnorm": "-10.29,-0.97,3.80,-20.44,-1.12",
      "filesize": 26361015,
      "duration": 212,
      "default": true,
      "lyrics": [
        {
          "filename": "JPN - Naruto Shippuuden - MV - CLOSER ~ Full Vers.ass",
          "default": true,
          "version": "Default"
        }
      ]
    }
  ],
  "data": {
    "created_at": "2021-06-13T10:22:24.246Z",
    "ignoreHooks": false,
    "kid": "3b56db29-db37-4564-9985-1ffb98182556",
    "modified_at": "2023-08-05T13:14:33.623Z",
    "parents": [
      "3cb242c2-87fe-4039-b99a-3c1e004f9ef1"
    ],
    "repository": "kara.moe",
    "tags": {
      "authors": [
        "70e26885-c0b5-4a01-b95b-2f492b8a8f10"
      ],
      "collections": [
        "dbcf2c22-524d-4708-99bb-601703633927"
      ],
      "creators": [
        "6df34030-d5ec-4480-a1c2-20103a7c0b63"
      ],
      "families": [
        "5391f9fe-638c-415f-8dc9-958e3a2c5787"
      ],
      "groups": [
        "3c14c864-533c-49e6-a3cc-6969f1233775"
      ],
      "langs": [
        "4dcf9614-7914-42aa-99f4-dbce2e059133"
      ],
      "series": [
        "afd38f79-188d-47e4-95c6-f74c38895574"
      ],
      "singers": [
        "0ced1fd5-6ff1-404e-a408-5841771e6f5f"
      ],
      "songtypes": [
        "7be1b15c-cff8-4b37-a649-5c90f3d569a9"
      ],
      "songwriters": [
        "0ced1fd5-6ff1-404e-a408-5841771e6f5f"
      ],
      "versions": [
        "c2143a7f-6970-450e-8a79-0302db9220a9"
      ],
      "franchises": [
        "3201e723-3e75-46f9-bb21-d991f4f7731e"
      ]
    },
    "titles": {
      "eng": "CLOSER"
    },
    "titles_default_language": "eng",
    "year": 2008
  }
}