{
  "header": {
    "version": 4,
    "description": "Karaoke Mugen Karaoke Data File"
  },
  "medias": [
    {
      "version": "Default",
      "filename": "JPN - Kimetsu no Yaiba Yukaku-hen - MV - Zankyou Sanka ~ Full Vers.mp4",
      "audiogain": -7.3,
      "loudnorm": "-8.60,0.68,2.50,-18.67,-0.71",
      "filesize": 170926893,
      "duration": 181,
      "default": true,
      "lyrics": [
        {
          "filename": "JPN - Kimetsu no Yaiba Yukaku-hen - MV - Zankyou Sanka ~ Full Vers.ass",
          "default": true,
          "version": "Default"
        }
      ]
    }
  ],
  "data": {
    "created_at": "2022-04-25T17:06:31.133Z",
    "kid": "bc229e3f-9c3c-4c8f-a474-c3932fb3c104",
    "modified_at": "2022-06-04T00:22:17.889Z",
    "parents": [
      "1396c52f-a304-46ea-aefd-a9b9b1afa7a8"
    ],
    "repository": "kara.moe",
    "songorder": null,
    "tags": {
      "authors": [
        "4b50fcec-273e-4cc5-83f2-b156c2300f7f"
      ],
      "creators": [
        "771735da-6b67-403d-8d5c-2761a0665168"
      ],
      "families": [
        "5391f9fe-638c-415f-8dc9-958e3a2c5787"
      ],
      "groups": [
        "8e209ae4-4381-438f-89dc-1b21752027d2",
        "f5e7d2fc-0cbb-4fb9-a84a-b25dfb0e9e77"
      ],
      "langs": [
        "4dcf9614-7914-42aa-99f4-dbce2e059133"
      ],
      "series": [
        "c8bf1816-de5f-4aae-afc7-a478bdb45b1c"
      ],
      "singers": [
        "6cfc20ab-c855-4f24-8bed-0981e465630b"
      ],
      "songtypes": [
        "7be1b15c-cff8-4b37-a649-5c90f3d569a9"
      ],
      "songwriters": [
        "c4b955ea-a5a1-4554-a8f8-eb4ad5b9c5ac"
      ],
      "versions": [
        "c2143a7f-6970-450e-8a79-0302db9220a9"
      ],
      "collections": [
        "dbcf2c22-524d-4708-99bb-601703633927"
      ],
      "franchises": [
        "fedb7dc4-978d-425b-85ab-4cec99cee4f8"
      ]
    },
    "titles": {
      "eng": "Zankyou Sanka",
      "jpn": "残響散歌"
    },
    "titles_default_language": "eng",
    "title": "Zankyou Sanka",
    "year": 2021
  }
}