{
  "header": {
    "version": 4,
    "description": "Karaoke Mugen Karaoke Data File"
  },
  "medias": [
    {
      "version": "Default",
      "filename": "JPN - Ayumi Hamasaki - MV - MOON.mp4",
      "audiogain": -8.36,
      "loudnorm": "-9.19,1.05,14.00,-19.93,-0.91",
      "filesize": 62598115,
      "duration": 356,
      "default": true,
      "lyrics": []
    }
  ],
  "data": {
    "created_at": "2019-09-08T22:10:44.000Z",
    "kid": "11db99bf-9661-42cd-a9fd-d161ec777b66",
    "modified_at": "2022-06-04T00:16:14.756Z",
    "repository": "kara.moe",
    "songorder": null,
    "tags": {
      "authors": [
        "2b4e9972-5e17-481b-99f5-d0787c0ada56"
      ],
      "creators": [
        "90caf15e-bc86-46e1-8793-9af7906c8310"
      ],
      "families": [
        "5391f9fe-638c-415f-8dc9-958e3a2c5787"
      ],
      "groups": [
        "2b4e9972-5e17-481b-99f5-d0787c0ada56",
        "ae613721-1fbe-480d-ba6b-d6d0702b184d"
      ],
      "langs": [
        "4dcf9614-7914-42aa-99f4-dbce2e059133"
      ],
      "misc": [
        "86705d4b-24e4-4756-9687-2b9c98bcf366"
      ],
      "singers": [
        "c10e51ef-eccd-4c18-b0e6-ada13851361a"
      ],
      "songtypes": [
        "7be1b15c-cff8-4b37-a649-5c90f3d569a9"
      ],
      "songwriters": [
        "528a1a29-73a6-4df8-b430-f08eb39bd447",
        "c10e51ef-eccd-4c18-b0e6-ada13851361a"
      ],
      "collections": [
        "dbcf2c22-524d-4708-99bb-601703633927"
      ]
    },
    "titles": {
      "eng": "MOON"
    },
    "titles_default_language": "eng",
    "title": "MOON",
    "year": 2010
  }
}