{
  "header": {
    "version": 4,
    "description": "Karaoke Mugen Karaoke Data File"
  },
  "medias": [
    {
      "version": "Default",
      "filename": "JPN - Amagi Brilliant Park - AMV - Extra Magic Hour ~ Full Vers.mp4",
      "audiogain": 3.1,
      "loudnorm": "-19.31,-11.44,2.10,-29.33,-0.50",
      "filesize": 206691013,
      "duration": 250,
      "default": true,
      "lyrics": [
        {
          "filename": "JPN - Amagi Brilliant Park - AMV - Extra Magic Hour ~ Full Vers.ass",
          "default": true,
          "version": "Default"
        }
      ]
    }
  ],
  "data": {
    "created_at": "2023-06-24T16:03:27.484Z",
    "ignoreHooks": false,
    "kid": "b01a8840-bd2e-478b-8f5e-468194a7fe9b",
    "modified_at": "2023-06-24T16:10:59.684Z",
    "parents": [
      "09a3be85-467d-4a6d-82d2-767a35b08aac"
    ],
    "repository": "kara.moe",
    "tags": {
      "authors": [
        "b3b1ed96-3042-43ba-aee9-a5f504889618"
      ],
      "collections": [
        "c7db86a0-ff64-4044-9be4-66dd1ef1d1c1"
      ],
      "creators": [
        "d93786af-5098-49b2-9928-37edfb3d0322"
      ],
      "families": [
        "0377db02-3af6-43b8-9b08-c759df3d25c3"
      ],
      "groups": [
        "ae613721-1fbe-480d-ba6b-d6d0702b184d"
      ],
      "langs": [
        "4dcf9614-7914-42aa-99f4-dbce2e059133"
      ],
      "series": [
        "043eda5d-0a8b-42c9-a420-f6e23875b4be"
      ],
      "singers": [
        "d64446ba-b6de-465e-8a1d-2dea222eebc9"
      ],
      "singergroups": [
        "4f300512-aae4-4525-8007-cf24369a794c"
      ],
      "songtypes": [
        "a6c79ce5-89ee-4d50-afe8-3abd7317f6c2"
      ],
      "songwriters": [
        "ad9de3e0-673e-459b-ac88-178ae5e04341"
      ],
      "versions": [
        "c2143a7f-6970-450e-8a79-0302db9220a9"
      ]
    },
    "titles": {
      "qro": "Extra Magic Hour"
    },
    "titles_default_language": "qro",
    "year": 2014
  }
}