{
  "header": {
    "version": 4,
    "description": "Karaoke Mugen Karaoke Data File"
  },
  "medias": [
    {
      "version": "Default",
      "filename": "JPN - alan - AUDIO - Sakura Modern ~ Off Vocal Vers.mp3",
      "audiogain": -5.92,
      "loudnorm": "-10.71,0.85,8.00,-21.32,-1.57",
      "filesize": 12430058,
      "duration": 306,
      "default": true,
      "lyrics": [
        {
          "filename": "JPN - alan - AUDIO - Sakura Modern ~ Off Vocal Vers.ass",
          "default": true,
          "version": "Default"
        }
      ]
    }
  ],
  "data": {
    "created_at": "2023-06-20T13:32:26.481Z",
    "ignoreHooks": false,
    "kid": "34189c3c-dfcd-486d-9d77-61f2b5d3bcdd",
    "modified_at": "2023-06-20T13:32:26.574Z",
    "parents": [
      "c298f672-4b7a-472f-b2c8-9c141167428c"
    ],
    "repository": "kara.moe",
    "tags": {
      "authors": [
        "1db1738f-acdc-42fc-aec3-60f4bddf660d"
      ],
      "collections": [
        "dbcf2c22-524d-4708-99bb-601703633927"
      ],
      "creators": [
        "90caf15e-bc86-46e1-8793-9af7906c8310"
      ],
      "groups": [
        "3c14c864-533c-49e6-a3cc-6969f1233775"
      ],
      "langs": [
        "4dcf9614-7914-42aa-99f4-dbce2e059133"
      ],
      "misc": [
        "86705d4b-24e4-4756-9687-2b9c98bcf366"
      ],
      "singers": [
        "2006368c-3411-499d-80f4-52d5b504315b"
      ],
      "songtypes": [
        "42a262ae-acba-4ab5-a446-c5789c96c821"
      ],
      "songwriters": [
        "37c9b852-b244-440e-a9e6-06bc95ef297e",
        "8c67056d-d624-4a36-a2d6-1de8e015fdea"
      ],
      "versions": [
        "c0cc87b9-55b9-40f0-878a-fbb9e34c151e"
      ]
    },
    "titles": {
      "jpn": "桜モダン",
      "qro": "Sakura Modern"
    },
    "titles_default_language": "qro",
    "year": 2007
  }
}