{
  "header": {
    "version": 4,
    "description": "Karaoke Mugen Karaoke Data File"
  },
  "medias": [
    {
      "version": "Default",
      "filename": "JPN - Hypnosis Mic -Division Rap Battle- - GAME OVA MV - Hypnosis Mic -Glory or Dust-.mp4",
      "audiogain": -10.16,
      "loudnorm": "-6.59,1.60,1.30,-16.62,-0.15",
      "filesize": 115994811,
      "duration": 341,
      "default": true,
      "lyrics": [
        {
          "filename": "JPN - Hypnosis Mic -Division Rap Battle- - GAME OVA MV - Hypnosis Mic -Glory or Dust-.ass",
          "default": true,
          "version": "Default"
        }
      ]
    }
  ],
  "data": {
    "created_at": "2021-11-23T23:50:11.839Z",
    "ignoreHooks": false,
    "kid": "6c903b67-7d61-4ed4-9858-286eea66c688",
    "modified_at": "2023-02-02T18:56:06.557Z",
    "repository": "kara.moe",
    "tags": {
      "authors": [
        "bd5b9365-6c11-4b67-8d32-03517502e115"
      ],
      "collections": [
        "c7db86a0-ff64-4044-9be4-66dd1ef1d1c1"
      ],
      "creators": [
        "57922aa1-eae2-4c1d-946c-bb320505b549",
        "769af53e-df08-4cb5-9cad-7503576dee49",
        "98ab71c6-8066-4d59-84a2-9833a27ec461",
        "d2a29c19-019f-4a3d-86ad-2dae9e41a4b1"
      ],
      "families": [
        "0377db02-3af6-43b8-9b08-c759df3d25c3"
      ],
      "groups": [
        "8e209ae4-4381-438f-89dc-1b21752027d2"
      ],
      "langs": [
        "4dcf9614-7914-42aa-99f4-dbce2e059133"
      ],
      "misc": [
        "86705d4b-24e4-4756-9687-2b9c98bcf366",
        "ec4fee75-71fb-45b4-9772-2ca374b4b600"
      ],
      "origins": [
        "2a6ef087-a000-4f8e-aeb5-9a7968756a36",
        "dbedd6b3-d125-4cd8-aa32-c4175e4ca3a3"
      ],
      "platforms": [
        "213a1a15-e73a-4a08-b3f6-b6e2745a82e5"
      ],
      "series": [
        "8969c1d9-a552-4216-837c-36945e5e730a"
      ],
      "singers": [
        "001574c7-e714-429e-9f67-001d4ddbb080",
        "01c71ea7-b3d5-4ab2-927e-9f56fb3327fd",
        "245206bf-7e1c-4da3-8001-7f7b61aa65ec",
        "28aa4244-7868-43ff-8c35-c67e636e858c",
        "2ebbacb4-48f6-4b38-ab02-24fc5b7ffef8",
        "496d9fd8-7ed9-4c76-9567-332012b1c0ed",
        "67a15f6e-419f-4dae-a239-76648fa39fe5",
        "67b22a49-c3d2-48a9-90e8-4fb2842cfce5",
        "6fc680bc-6637-41af-884c-ec7d86524c41",
        "787d9b3d-2e20-4dca-b83c-6c9c1b9e2202",
        "78be834e-1d7a-4c34-95ae-cd02702bf1fb",
        "7dc3c9cd-cf42-4b32-8cb2-9bc868e97564",
        "9a9da3af-c891-42ae-bd3e-f0696a361c04",
        "9b55465b-ae63-43ae-a2e9-39a86033392d",
        "d3d2814b-b117-43bd-b221-e09926080f54",
        "d72701c8-4aa0-4619-a4ea-aea77d37422c",
        "d7a900d6-65f2-4d9a-a4df-6a5e0f4ecb1e",
        "e88203e1-642b-4754-85b0-4ba62dc18563",
        "fb311ac5-75b0-4125-88e8-4a4f9ba32556"
      ],
      "singergroups": [
        "3038a30c-d18d-49bb-a54c-fe01c7288689",
        "3e33190c-5796-4b46-ba8f-53162959bb1c",
        "be071892-82b3-4b8e-85cf-ea9ae502ae67",
        "e92f40ba-fd68-4f04-b44a-c1dced02c6c2",
        "58083e61-6d68-48a8-a5b3-4bbfa418cf81"
      ],
      "songtypes": [
        "7be1b15c-cff8-4b37-a649-5c90f3d569a9"
      ],
      "songwriters": [
        "062f3fcb-63b9-4874-bd2a-8bc1c04c4b1a",
        "3c5557fb-c51c-45b5-b25c-52351c44f7e7",
        "df384477-4b4a-4877-979e-72c7f4311187"
      ],
      "franchises": [
        "8969c1d9-a552-4216-837c-36945e5e730a"
      ]
    },
    "titles": {
      "eng": "Hypnosis Mic -Glory or Dust-",
      "jpn": "ヒプノシスマイク -Glory or Dust-"
    },
    "titles_default_language": "eng",
    "year": 2021
  }
}