{
  "header": {
    "version": 4,
    "description": "Karaoke Mugen Karaoke Data File"
  },
  "medias": [
    {
      "version": "Default",
      "filename": "JPN - Ookamikakushi - OP - Toki no Mukou Maboroshi no Sora.mp4",
      "audiogain": -1.39,
      "loudnorm": "-16.15,-3.80,3.80,-26.22,-0.80",
      "filesize": 50266879,
      "duration": 88,
      "default": true,
      "lyrics": [
        {
          "filename": "JPN - Ookamikakushi - OP - Toki no Mukou Maboroshi no Sora.ass",
          "default": true,
          "version": "Default"
        }
      ]
    }
  ],
  "data": {
    "created_at": "2017-10-11T17:02:57.000Z",
    "ignoreHooks": false,
    "kid": "7a5f59ee-6b5f-4ffd-bfdc-2d66313ac6d3",
    "modified_at": "2023-07-18T22:18:20.752Z",
    "repository": "kara.moe",
    "tags": {
      "authors": [
        "5bdaba57-27f8-4568-8806-76a807728766"
      ],
      "collections": [
        "c7db86a0-ff64-4044-9be4-66dd1ef1d1c1"
      ],
      "creators": [
        "d4f12628-2031-48c0-b2c7-7c07aaf8af94"
      ],
      "families": [
        "0377db02-3af6-43b8-9b08-c759df3d25c3"
      ],
      "groups": [
        "ae613721-1fbe-480d-ba6b-d6d0702b184d"
      ],
      "langs": [
        "4dcf9614-7914-42aa-99f4-dbce2e059133"
      ],
      "origins": [
        "938de218-5343-4865-94d3-fb33f2eaa152"
      ],
      "series": [
        "4d5d0e95-389f-4343-abb3-03b7d666930e"
      ],
      "singers": [
        "62aa860f-3014-4005-b2b6-cdad2608895b",
        "69a3856d-a7f9-43dc-9891-56f0196444c8",
        "9cd2f440-02a4-47e0-8000-7e9b0e9c1b48",
        "b090971f-db68-4e59-b657-ebac8eb9f61c"
      ],
      "songtypes": [
        "f02ad9b3-0bd9-4aad-85b3-9976739ba0e4"
      ],
      "songwriters": [
        "1f324dc7-f858-415b-bbc1-41fcce3d6ac7"
      ]
    },
    "titles": {
      "jpn": "時の向こう 幻の空",
      "qro": "Toki no Mukô Maboroshi no Sora"
    },
    "titles_default_language": "qro",
    "titles_aliases": [
      "Mukou"
    ],
    "year": 2010
  }
}