{
  "header": {
    "version": 4,
    "description": "Karaoke Mugen Karaoke Data File"
  },
  "medias": [
    {
      "version": "Default",
      "filename": "JPN - Love Live! Nijigasaki Gakuen School Idol Doukoukai 2 - LIVE - EMOTION ~ Full Vers.mp4",
      "loudnorm": "-8.74,2.17,7.90,-18.91,-1.23",
      "filesize": 208403833,
      "duration": 229,
      "default": true,
      "lyrics": [
        {
          "filename": "JPN - Love Live! Nijigasaki Gakuen School Idol Doukoukai 2 - LIVE - EMOTION ~ Full Vers.ass",
          "default": true,
          "version": "Default"
        }
      ]
    }
  ],
  "data": {
    "created_at": "2023-09-23T21:54:17.785Z",
    "ignoreHooks": false,
    "kid": "be0ead15-5825-4f3b-84ae-0bdf37bae970",
    "modified_at": "2023-09-23T21:54:17.785Z",
    "parents": [
      "422ade26-7e84-44a9-8230-8d4c9143e7df"
    ],
    "repository": "kara.moe",
    "tags": {
      "authors": [
        "769104f8-012b-4e06-90b9-1a24cda992b1",
        "449844e4-3a1f-46e1-8a92-bf72e2d1b6f1"
      ],
      "collections": [
        "dbcf2c22-524d-4708-99bb-601703633927"
      ],
      "creators": [
        "b2805292-730e-473a-96f0-fd8e7ffd1fd7"
      ],
      "families": [
        "5391f9fe-638c-415f-8dc9-958e3a2c5787"
      ],
      "genres": [
        "caa86df2-0d59-474b-885c-f240a9e891b0"
      ],
      "groups": [
        "8e209ae4-4381-438f-89dc-1b21752027d2"
      ],
      "langs": [
        "4dcf9614-7914-42aa-99f4-dbce2e059133"
      ],
      "origins": [
        "938de218-5343-4865-94d3-fb33f2eaa152"
      ],
      "series": [
        "e3d58b47-ef1a-48ec-91ec-84afa663ab26"
      ],
      "singers": [
        "cd997481-e2ff-4d88-ab77-152bedb5041a"
      ],
      "singergroups": [
        "425f6083-f574-451a-b719-1257f1d38957"
      ],
      "songtypes": [
        "a0167949-580c-4de3-bf13-497e462e02f3"
      ],
      "songwriters": [
        "f92593ae-2834-467d-9560-dea4dde167b0"
      ],
      "versions": [
        "c2143a7f-6970-450e-8a79-0302db9220a9"
      ],
      "franchises": [
        "fd5d066e-e85a-4eea-8688-2979a887450a"
      ]
    },
    "titles": {
      "eng": "EMOTION"
    },
    "titles_default_language": "eng",
    "year": 2022
  }
}