{
  "header": {
    "version": 4,
    "description": "Karaoke Mugen Karaoke Data File"
  },
  "medias": [
    {
      "version": "Default",
      "filename": "JPN - Gakuen Mokushiroku High School of the Dead - ED1 - Kimi to Taiyou ga Shinda Hi.mp4",
      "audiogain": -0.56,
      "loudnorm": "-16.01,-7.11,2.70,-26.32,0.34",
      "filesize": 53726012,
      "duration": 102,
      "default": true,
      "lyrics": [
        {
          "filename": "JPN - Gakuen Mokushiroku High School of the Dead - ED1 - Kimi to Taiyou ga Shinda Hi.ass",
          "default": true,
          "version": "Default"
        }
      ]
    }
  ],
  "data": {
    "created_at": "2020-08-27T18:33:46.710Z",
    "ignoreHooks": false,
    "kid": "33e233cb-501b-4b14-8346-7f22792593fb",
    "modified_at": "2022-09-30T19:47:40.217Z",
    "repository": "kara.moe",
    "songorder": 1,
    "tags": {
      "authors": [
        "1d7745a8-73ea-40bb-ad99-826af98f6e41"
      ],
      "collections": [
        "c7db86a0-ff64-4044-9be4-66dd1ef1d1c1"
      ],
      "creators": [
        "9c5cf6ba-0bc8-4cfe-a63c-e9be3a14e9fd"
      ],
      "families": [
        "0377db02-3af6-43b8-9b08-c759df3d25c3"
      ],
      "groups": [
        "ae613721-1fbe-480d-ba6b-d6d0702b184d"
      ],
      "langs": [
        "4dcf9614-7914-42aa-99f4-dbce2e059133"
      ],
      "misc": [
        "fe819ff1-9db8-4a0f-85dc-0e322c9126c4"
      ],
      "origins": [
        "938de218-5343-4865-94d3-fb33f2eaa152"
      ],
      "series": [
        "ed7848d0-6d9d-458e-9e11-b16c93b89d84"
      ],
      "singers": [
        "d5d04a4f-594b-4e7c-bf1f-546ea6c6aab4"
      ],
      "songtypes": [
        "38c77c56-2b95-4040-b676-0994a8cb0597"
      ],
      "songwriters": [
        "21bccec2-5874-425f-a97b-95a7125cd14e",
        "d0903f9c-4f2b-4d84-89a3-fbc61f13080a"
      ]
    },
    "titles": {
      "jpn": "君と太陽が死んだ日",
      "qro": "Kimi to Taiyô ga Shinda Hi"
    },
    "titles_default_language": "qro",
    "title": "Kimi to Taiyô ga Shinda Hi",
    "year": 2010,
    "titles_aliases": [
      "Taiyou"
    ]
  }
}