{
  "header": {
    "version": 4,
    "description": "Karaoke Mugen Karaoke Data File"
  },
  "medias": [
    {
      "version": "Default",
      "filename": "JPN - Kidou Senshi Gundam Tekketsu no Orphans - OP1 - Raise your flag.mp4",
      "audiogain": 1.55,
      "loudnorm": "-18.89,-8.68,3.90,-29.02,-0.46",
      "filesize": 73779035,
      "duration": 92,
      "default": true,
      "lyrics": [
        {
          "filename": "JPN - Kidou Senshi Gundam Tekketsu no Orphans - OP1 - Raise your flag.ass",
          "default": true,
          "version": "Default",
          "subchecksum": "8965892ef8a6431b2602ccf01370b769"
        }
      ]
    }
  ],
  "data": {
    "created_at": "2017-10-11T17:02:32.000Z",
    "kid": "626ae61d-26c0-4de4-9e22-ad4081167878",
    "modified_at": "2021-02-25T12:00:26.194Z",
    "repository": "kara.moe",
    "songorder": 1,
    "tags": {
      "authors": [
        "5bdaba57-27f8-4568-8806-76a807728766"
      ],
      "collections": [
        "c7db86a0-ff64-4044-9be4-66dd1ef1d1c1"
      ],
      "creators": [
        "ef8f80e1-d244-4aea-b7f0-984d6dd4b82b"
      ],
      "families": [
        "0377db02-3af6-43b8-9b08-c759df3d25c3"
      ],
      "genres": [
        "f60ba57d-5ef4-49e0-b93b-d0dcbcff6592"
      ],
      "groups": [
        "9a8e0fbc-dcae-4989-be82-7cad3436f1f5",
        "ae613721-1fbe-480d-ba6b-d6d0702b184d",
        "f53332f8-daed-4ac5-97c9-64239b520db0"
      ],
      "langs": [
        "4dcf9614-7914-42aa-99f4-dbce2e059133"
      ],
      "misc": [
        "fe819ff1-9db8-4a0f-85dc-0e322c9126c4"
      ],
      "origins": [
        "938de218-5343-4865-94d3-fb33f2eaa152"
      ],
      "series": [
        "844f4f88-0b45-4689-bfb7-aedfb8343fee"
      ],
      "singers": [
        "814943f5-30aa-4229-b2ed-120f25825b27"
      ],
      "songtypes": [
        "f02ad9b3-0bd9-4aad-85b3-9976739ba0e4"
      ],
      "songwriters": [
        "3dde98ed-a3a6-473d-8fd2-3dd81eb92b26",
        "6cb0e364-b9d2-4fa9-8dfb-98b095c7ac47"
      ],
      "franchises": [
        "e6ade589-c2e4-49a1-acdb-ea9b03e57240"
      ]
    },
    "title": "Raise your flag",
    "titles": {
      "eng": "Raise your flag"
    },
    "year": 2015,
    "titles_default_language": "eng"
  }
}