{
  "header": {
    "version": 4,
    "description": "Karaoke Mugen Karaoke Data File"
  },
  "medias": [
    {
      "version": "Default",
      "filename": "JPN - Given - OP - Kizuato.mp4",
      "audiogain": 2.49,
      "loudnorm": "-19.02,-11.44,1.60,-29.09,-0.16",
      "filesize": 29761912,
      "duration": 89,
      "default": true,
      "lyrics": [
        {
          "filename": "JPN - Given - OP - Kizuato.ass",
          "default": true,
          "version": "Default",
          "subchecksum": "f0935b789e107cf345a2aa06a0dd1074"
        }
      ]
    }
  ],
  "data": {
    "created_at": "2019-07-14T19:49:36.000Z",
    "kid": "042a2cf1-3b0d-48d2-93a2-f05ddc41bd9e",
    "modified_at": "2021-02-25T11:29:43.639Z",
    "repository": "kara.moe",
    "tags": {
      "authors": [
        "2a9bbf75-0722-4b4a-9935-caa92f38fdd1"
      ],
      "collections": [
        "c7db86a0-ff64-4044-9be4-66dd1ef1d1c1"
      ],
      "creators": [
        "20a71a02-6670-4e6a-a5be-ad8d71df94f7"
      ],
      "families": [
        "0377db02-3af6-43b8-9b08-c759df3d25c3"
      ],
      "genres": [
        "724d2d80-a531-4579-bdaf-4a0db9a313d9"
      ],
      "groups": [
        "ae613721-1fbe-480d-ba6b-d6d0702b184d"
      ],
      "langs": [
        "4dcf9614-7914-42aa-99f4-dbce2e059133"
      ],
      "origins": [
        "938de218-5343-4865-94d3-fb33f2eaa152"
      ],
      "series": [
        "c1c35fbb-db52-4ddd-bc0d-3b6038ad0719"
      ],
      "singers": [
        "17909931-df25-4e29-be2a-e05a087936fa"
      ],
      "songtypes": [
        "f02ad9b3-0bd9-4aad-85b3-9976739ba0e4"
      ],
      "songwriters": [
        "17909931-df25-4e29-be2a-e05a087936fa"
      ]
    },
    "title": "Kizuato",
    "titles": {
      "qro": "Kizuato",
      "jpn": "キヅアト"
    },
    "year": 2019,
    "titles_default_language": "qro"
  }
}