{
  "header": {
    "version": 4,
    "description": "Karaoke Mugen Karaoke Data File"
  },
  "medias": [
    {
      "version": "Default",
      "filename": "JPN - Joshiraku - ED - Nippon Egao Hyakkei.mp4",
      "audiogain": 1.92,
      "loudnorm": "-19.14,-10.33,4.30,-29.33,-1.18",
      "filesize": 22198253,
      "duration": 90,
      "default": true,
      "lyrics": [
        {
          "filename": "JPN - Joshiraku - ED - Nippon Egao Hyakkei.ass",
          "default": true,
          "version": "Default"
        }
      ]
    }
  ],
  "data": {
    "created_at": "2017-10-11T19:01:31.000Z",
    "kid": "495e2635-38a9-42db-bdd0-df4d27329c87",
    "modified_at": "2022-09-19T19:17:56.643Z",
    "repository": "kara.moe",
    "tags": {
      "series": [
        "702eaa7a-f9ef-40db-a6a8-eadcb85b6d2e"
      ],
      "singers": [
        "d1ab11d3-bc82-491c-b517-c9a1ad8df7f3"
      ],
      "songtypes": [
        "38c77c56-2b95-4040-b676-0994a8cb0597"
      ],
      "creators": [
        "802a8ac8-b16f-40a4-944b-99956798c906"
      ],
      "langs": [
        "4dcf9614-7914-42aa-99f4-dbce2e059133"
      ],
      "authors": [
        "5a629611-96b4-422c-b309-ba7a58e263a2"
      ],
      "misc": [
        "ec4fee75-71fb-45b4-9772-2ca374b4b600",
        "fe819ff1-9db8-4a0f-85dc-0e322c9126c4"
      ],
      "songwriters": [
        "5d4acd69-3c02-4b32-9fd9-eac6dd11885b"
      ],
      "groups": [
        "56f41a2e-80fb-4bbe-9df0-420ee4c8997a",
        "9a8e0fbc-dcae-4989-be82-7cad3436f1f5",
        "ae613721-1fbe-480d-ba6b-d6d0702b184d"
      ],
      "families": [
        "0377db02-3af6-43b8-9b08-c759df3d25c3"
      ],
      "origins": [
        "938de218-5343-4865-94d3-fb33f2eaa152"
      ],
      "collections": [
        "c7db86a0-ff64-4044-9be4-66dd1ef1d1c1"
      ]
    },
    "titles": {
      "qro": "Nippon Egao Hyakkei",
      "jpn": "ニッポン笑顔百景"
    },
    "titles_default_language": "qro",
    "title": "Nippon Egao Hyakkei",
    "year": 2012
  }
}