{
  "header": {
    "version": 4,
    "description": "Karaoke Mugen Karaoke Data File"
  },
  "medias": [
    {
      "version": "Default",
      "filename": "JPN - Yojouhan Shinwa Taikei - MV - Maigo Inu to Ame no Beat ~ Full Vers.mp4",
      "audiogain": 3.73,
      "loudnorm": "-20.87,-9.43,3.60,-30.96,-0.94",
      "filesize": 143050403,
      "duration": 299,
      "default": true,
      "lyrics": [
        {
          "filename": "JPN - Yojouhan Shinwa Taikei - MV - Maigo Inu to Ame no Beat ~ Full Vers.ass",
          "default": true,
          "version": "Default"
        }
      ]
    }
  ],
  "data": {
    "created_at": "2020-04-30T19:04:30.701Z",
    "kid": "6c701149-a60d-42d2-8d45-562bb5bdb9a3",
    "modified_at": "2022-06-04T00:24:13.754Z",
    "parents": [
      "41155cba-b31b-4347-89f5-b5244ca85dac"
    ],
    "repository": "kara.moe",
    "songorder": null,
    "tags": {
      "authors": [
        "60defa7b-774e-4680-8321-51b742c2e009"
      ],
      "creators": [
        "6df34030-d5ec-4480-a1c2-20103a7c0b63"
      ],
      "families": [
        "5391f9fe-638c-415f-8dc9-958e3a2c5787"
      ],
      "groups": [
        "60defa7b-774e-4680-8321-51b742c2e009",
        "ae613721-1fbe-480d-ba6b-d6d0702b184d"
      ],
      "langs": [
        "4dcf9614-7914-42aa-99f4-dbce2e059133"
      ],
      "series": [
        "3bf483a7-d1ff-4476-80bc-37529b0fa7af"
      ],
      "singers": [
        "6d7243f4-797e-40a2-980d-1fc467d456d8"
      ],
      "songtypes": [
        "7be1b15c-cff8-4b37-a649-5c90f3d569a9"
      ],
      "songwriters": [
        "8bede077-b96f-415c-8057-552e236fe01a"
      ],
      "versions": [
        "c2143a7f-6970-450e-8a79-0302db9220a9"
      ],
      "collections": [
        "dbcf2c22-524d-4708-99bb-601703633927"
      ]
    },
    "titles": {
      "qro": "Maigo Inu to Ame no Beat",
      "jpn": "迷子犬と雨のビート"
    },
    "titles_default_language": "qro",
    "title": "Maigo Inu to Ame no Beat",
    "year": 2010
  }
}