{
  "header": {
    "version": 4,
    "description": "Karaoke Mugen Karaoke Data File"
  },
  "medias": [
    {
      "version": "Default",
      "filename": "JPN - Shikabane-Hime Kuro - ED3 - Hikari, Sagase Naku tomo.mp4",
      "audiogain": 1.27,
      "loudnorm": "-19.54,-6.45,4.50,-29.55,-1.25",
      "filesize": 33664191,
      "duration": 86,
      "default": true,
      "lyrics": [
        {
          "filename": "JPN - Shikabane-Hime Kuro - ED3 - Hikari, Sagase Naku tomo.ass",
          "default": true,
          "version": "Default"
        }
      ]
    }
  ],
  "data": {
    "created_at": "2022-11-18T11:58:29.017Z",
    "ignoreHooks": false,
    "kid": "4e21b3a8-020a-495c-afcf-d66dcfa7a469",
    "modified_at": "2022-11-18T12:09:20.924Z",
    "repository": "kara.moe",
    "songorder": 3,
    "tags": {
      "authors": [
        "96288f85-e1fe-4b30-8003-999b98707e59"
      ],
      "collections": [
        "c7db86a0-ff64-4044-9be4-66dd1ef1d1c1"
      ],
      "creators": [
        "5c15c11c-e09d-4a4f-ab3d-143d69439fc2",
        "dd729cab-2a78-4282-a402-b242e927a0a5"
      ],
      "families": [
        "0377db02-3af6-43b8-9b08-c759df3d25c3"
      ],
      "genres": [
        "a0aeef4a-6428-45ff-a6e1-468b595930c2"
      ],
      "groups": [
        "3c14c864-533c-49e6-a3cc-6969f1233775"
      ],
      "langs": [
        "4dcf9614-7914-42aa-99f4-dbce2e059133"
      ],
      "origins": [
        "938de218-5343-4865-94d3-fb33f2eaa152"
      ],
      "series": [
        "e0cdf296-8e14-4c98-95ff-078c7100f89c"
      ],
      "singers": [
        "78d91182-ac66-49fb-9561-1d330667d6c4"
      ],
      "songtypes": [
        "38c77c56-2b95-4040-b676-0994a8cb0597"
      ],
      "songwriters": [
        "84a20b00-fd06-43fd-b78e-9c1a2b7b7795"
      ],
      "franchises": [
        "147b6f5c-9c94-4972-8631-ad7eaa19436b"
      ]
    },
    "titles": {
      "jpn": "光、探せなくとも",
      "qro": "Hikari, Sagase Naku tomo"
    },
    "titles_default_language": "qro",
    "year": 2009
  }
}