{
  "header": {
    "version": 4,
    "description": "Karaoke Mugen Karaoke Data File"
  },
  "medias": [
    {
      "version": "Default",
      "filename": "JPN - Love Live! Nijigasaki Gakuen School Idol Doukoukai - LIVE - LIKE IT! LOVE IT!.mp4",
      "loudnorm": "-8.06,1.27,1.60,-18.06,-0.09",
      "filesize": 235149550,
      "duration": 256,
      "default": true,
      "lyrics": [
        {
          "filename": "JPN - Love Live! Nijigasaki Gakuen School Idol Doukoukai - LIVE - LIKE IT! LOVE IT!.ass",
          "default": true,
          "version": "Default"
        }
      ]
    }
  ],
  "data": {
    "created_at": "2023-09-17T10:01:25.814Z",
    "ignoreHooks": false,
    "kid": "71fac722-6fd2-4024-a5e8-18e15c189daf",
    "modified_at": "2023-09-17T10:02:22.177Z",
    "repository": "kara.moe",
    "tags": {
      "authors": [
        "449844e4-3a1f-46e1-8a92-bf72e2d1b6f1"
      ],
      "collections": [
        "dbcf2c22-524d-4708-99bb-601703633927"
      ],
      "creators": [
        "b2805292-730e-473a-96f0-fd8e7ffd1fd7"
      ],
      "families": [
        "5391f9fe-638c-415f-8dc9-958e3a2c5787"
      ],
      "genres": [
        "caa86df2-0d59-474b-885c-f240a9e891b0"
      ],
      "groups": [
        "8e209ae4-4381-438f-89dc-1b21752027d2"
      ],
      "langs": [
        "4dcf9614-7914-42aa-99f4-dbce2e059133"
      ],
      "series": [
        "9609e3a6-60db-412a-9d81-e9d9d2e0fb79"
      ],
      "singers": [
        "1fd01df9-13c6-4442-a8c9-4d7922152b32"
      ],
      "singergroups": [
        "425f6083-f574-451a-b719-1257f1d38957"
      ],
      "songtypes": [
        "a0167949-580c-4de3-bf13-497e462e02f3"
      ],
      "songwriters": [
        "101355ce-da03-4611-bcd5-7fa8952f98e3",
        "5405b648-17c3-427b-9f7f-391712ab1140",
        "648bd8fc-f94e-41d9-bd08-e13ec044b4bc",
        "f90a0ab6-0367-437a-877e-c650c022f8ec"
      ],
      "franchises": [
        "fd5d066e-e85a-4eea-8688-2979a887450a"
      ]
    },
    "titles": {
      "eng": "LIKE IT! LOVE IT!"
    },
    "titles_default_language": "eng",
    "year": 2020
  }
}