{
  "header": {
    "version": 4,
    "description": "Karaoke Mugen Karaoke Data File"
  },
  "medias": [
    {
      "version": "Default",
      "filename": "JPN - Love Live! Nijigasaki Gakuen School Idol Doukoukai - LIVE - Yume ga Koko Kara Hajimaru yo ~ Full Vers.mp4",
      "loudnorm": "-8.02,1.33,12.40,-18.71,-1.00",
      "filesize": 196435358,
      "duration": 338,
      "default": true,
      "lyrics": [
        {
          "filename": "JPN - Love Live! Nijigasaki Gakuen School Idol Doukoukai - LIVE - Yume ga Koko Kara Hajimaru yo ~ Full Vers.ass",
          "default": true,
          "version": "Default"
        }
      ]
    }
  ],
  "data": {
    "created_at": "2023-09-13T19:14:23.724Z",
    "ignoreHooks": false,
    "kid": "907ec889-3920-472c-82c7-fd1141399dcb",
    "modified_at": "2023-09-13T19:14:23.724Z",
    "parents": [
      "e25fdf52-376c-4dc8-beed-07f65c6fd470"
    ],
    "repository": "kara.moe",
    "tags": {
      "authors": [
        "16b136eb-921f-4c07-be38-ff92d5cc4313"
      ],
      "collections": [
        "dbcf2c22-524d-4708-99bb-601703633927"
      ],
      "creators": [
        "ef8f80e1-d244-4aea-b7f0-984d6dd4b82b"
      ],
      "families": [
        "5391f9fe-638c-415f-8dc9-958e3a2c5787"
      ],
      "genres": [
        "caa86df2-0d59-474b-885c-f240a9e891b0"
      ],
      "groups": [
        "8c22c899-b3ed-42da-a548-ce00f950798b",
        "8e209ae4-4381-438f-89dc-1b21752027d2"
      ],
      "langs": [
        "4dcf9614-7914-42aa-99f4-dbce2e059133"
      ],
      "misc": [
        "1d6ceadf-a885-47e5-b23b-c07bf668a424"
      ],
      "series": [
        "9609e3a6-60db-412a-9d81-e9d9d2e0fb79"
      ],
      "singers": [
        "0df41f72-5e97-4788-99b7-93fe4b628367",
        "178c3a64-efbc-48d4-a7d3-1847414eebc1",
        "1fd01df9-13c6-4442-a8c9-4d7922152b32",
        "458ec0c5-db5e-4103-af88-b15a1699264d",
        "747cd011-3914-4212-9079-0da3dd845831",
        "8f4dc795-4e05-4e8f-a5fc-61e45e229402",
        "8fb3d553-3283-4508-bc26-5968c03cb89a",
        "a76efdf9-3d65-488d-bc3b-9ab329d3fb7f",
        "e73e8731-3f33-4d6a-b8f1-d2a6137480be"
      ],
      "singergroups": [
        "425f6083-f574-451a-b719-1257f1d38957"
      ],
      "songtypes": [
        "a0167949-580c-4de3-bf13-497e462e02f3"
      ],
      "songwriters": [
        "5b71968c-1f46-41de-9683-f8ac211aecb3",
        "8a7a7b01-20f2-41bb-a8a1-8052cfbf9f9a",
        "ff73b3ab-c654-45f7-8ebe-0a23b898cb94"
      ],
      "versions": [
        "c2143a7f-6970-450e-8a79-0302db9220a9"
      ],
      "franchises": [
        "fd5d066e-e85a-4eea-8688-2979a887450a"
      ]
    },
    "titles": {
      "jpn": "夢がここからはじまるよ",
      "qro": "Yume ga Koko Kara Hajimaru yo"
    },
    "titles_default_language": "qro",
    "year": 2021
  }
}