{
  "header": {
    "version": 4,
    "description": "Karaoke Mugen Karaoke Data File"
  },
  "medias": [
    {
      "version": "Default",
      "filename": "JPN - Nanatsu no Maken ga Shihai Suru - ED - AIM.mp4",
      "audiogain": 2.66,
      "loudnorm": "-20.10,-4.96,10.00,-30.90,-1.19",
      "filesize": 10462369,
      "duration": 90,
      "default": true,
      "lyrics": [
        {
          "filename": "JPN - Nanatsu no Maken ga Shihai Suru - ED - AIM.ass",
          "default": true,
          "version": "Default"
        }
      ]
    }
  ],
  "data": {
    "created_at": "2023-08-21T16:03:38.978Z",
    "ignoreHooks": false,
    "kid": "704068d4-2b1c-4306-9016-bac8b29318f3",
    "modified_at": "2023-08-21T16:03:39.163Z",
    "repository": "kara.moe",
    "tags": {
      "authors": [
        "1631228b-9125-497a-aafc-66f920a44a02"
      ],
      "collections": [
        "c7db86a0-ff64-4044-9be4-66dd1ef1d1c1"
      ],
      "creators": [
        "802a8ac8-b16f-40a4-944b-99956798c906"
      ],
      "families": [
        "0377db02-3af6-43b8-9b08-c759df3d25c3"
      ],
      "genres": [
        "a0aeef4a-6428-45ff-a6e1-468b595930c2"
      ],
      "groups": [
        "8e209ae4-4381-438f-89dc-1b21752027d2",
        "8c22c899-b3ed-42da-a548-ce00f950798b"
      ],
      "langs": [
        "4dcf9614-7914-42aa-99f4-dbce2e059133"
      ],
      "misc": [
        "fe819ff1-9db8-4a0f-85dc-0e322c9126c4"
      ],
      "origins": [
        "938de218-5343-4865-94d3-fb33f2eaa152"
      ],
      "series": [
        "fa2afa9d-013f-459b-b7ae-21092b95b13f"
      ],
      "singers": [
        "723185ce-b561-4c00-aaeb-86d1b9165685"
      ],
      "songtypes": [
        "38c77c56-2b95-4040-b676-0994a8cb0597"
      ],
      "songwriters": [
        "7e72484d-b638-4d9a-95f2-5947c59d721b",
        "d78dcc07-3a53-4869-b26d-2ecb0d14ea42",
        "990c72f9-683e-4477-9c93-2b39ea3a7908"
      ]
    },
    "titles": {
      "eng": "AIM",
      "jpn": "アイム",
      "qro": "AIM"
    },
    "titles_default_language": "qro",
    "year": 2023
  }
}