{
  "header": {
    "version": 4,
    "description": "Karaoke Mugen Karaoke Data File"
  },
  "medias": [
    {
      "version": "Default",
      "filename": "KOR - BTS - MV - Life Goes On.mp4",
      "audiogain": -7.21,
      "loudnorm": "-7.40,0.37,7.50,-17.80,-0.50",
      "filesize": 29568013,
      "duration": 221,
      "default": true,
      "lyrics": [
        {
          "filename": "KOR - BTS - MV - Life Goes On.ass",
          "default": true,
          "version": "Default"
        }
      ]
    }
  ],
  "data": {
    "created_at": "2022-05-03T20:18:37.786Z",
    "ignoreHooks": false,
    "kid": "784fcf78-8731-4343-a65c-143b6c4da91c",
    "modified_at": "2023-02-04T18:44:35.289Z",
    "repository": "kara.moe",
    "tags": {
      "authors": [
        "1d7745a8-73ea-40bb-ad99-826af98f6e41"
      ],
      "collections": [
        "dbcf2c22-524d-4708-99bb-601703633927"
      ],
      "creators": [
        "c62489b5-2ae8-4e09-af56-18bbd85093bb"
      ],
      "families": [
        "5391f9fe-638c-415f-8dc9-958e3a2c5787"
      ],
      "genres": [
        "caa86df2-0d59-474b-885c-f240a9e891b0"
      ],
      "groups": [
        "8e209ae4-4381-438f-89dc-1b21752027d2"
      ],
      "langs": [
        "3b9e2749-27d0-4a78-873d-ea91a9ee9a25"
      ],
      "misc": [
        "1d6ceadf-a885-47e5-b23b-c07bf668a424"
      ],
      "singers": [
        "473bcd5a-bbd9-4296-aceb-014d261e93d8",
        "e9efcafa-9697-4b56-9f10-c220c95be784",
        "0717f873-2ea2-4c72-ab1c-56cd8b1c389b",
        "30ca1233-c4d4-4e25-a975-6b1e66c30ef4",
        "c91ba8a3-3de9-4479-b633-07b5ff7b4553",
        "817671df-895f-46fe-9d5a-e16267c379b4",
        "f38f2fe5-9f54-4a8e-b3cf-d4f6c8f3ca98"
      ],
      "singergroups": [
        "b00876f7-3ffb-438c-8229-35a47fa9e667"
      ],
      "songtypes": [
        "7be1b15c-cff8-4b37-a649-5c90f3d569a9"
      ],
      "songwriters": [
        "0717f873-2ea2-4c72-ab1c-56cd8b1c389b",
        "3b77604d-5e08-4247-b8d6-8a3836d0e58a",
        "3ea6777e-09fa-43eb-ae21-070b1a39fa08",
        "473bcd5a-bbd9-4296-aceb-014d261e93d8",
        "6223231d-9600-4447-bb70-905dd0c1d88d",
        "dd9ef0d9-9966-453d-98ad-97c132d3f22f",
        "e9efcafa-9697-4b56-9f10-c220c95be784"
      ]
    },
    "titles": {
      "eng": "Life Goes On"
    },
    "titles_default_language": "eng",
    "year": 2020
  }
}