{
  "header": {
    "version": 4,
    "description": "Karaoke Mugen Karaoke Data File"
  },
  "medias": [
    {
      "version": "Default",
      "filename": "KOR - Dreamcatcher - MV - Odd Eye.mp4",
      "audiogain": -12.36,
      "loudnorm": "-4.49,3.48,4.50,-14.99,-0.75",
      "filesize": 86080546,
      "duration": 201,
      "default": true,
      "lyrics": [
        {
          "filename": "KOR - Dreamcatcher - MV - Odd Eye.ass",
          "default": true,
          "version": "Default"
        }
      ]
    }
  ],
  "data": {
    "comment": "Suggéré via issue 3872",
    "created_at": "2023-06-26T21:26:26.865Z",
    "ignoreHooks": false,
    "kid": "2a8162c2-96ce-437e-997c-5f302b8b05d7",
    "modified_at": "2023-07-20T22:15:58.759Z",
    "repository": "kara.moe",
    "tags": {
      "authors": [
        "f70c7314-b8d3-4bf4-96a0-dc8b2c5a6c94"
      ],
      "collections": [
        "dbcf2c22-524d-4708-99bb-601703633927"
      ],
      "creators": [
        "d5337315-0172-4746-b5a7-9549f65a3dd3"
      ],
      "families": [
        "5391f9fe-638c-415f-8dc9-958e3a2c5787"
      ],
      "groups": [
        "8e209ae4-4381-438f-89dc-1b21752027d2",
        "966d1e74-d1f2-41e2-ab04-24279c22f562"
      ],
      "langs": [
        "3b9e2749-27d0-4a78-873d-ea91a9ee9a25"
      ],
      "singers": [
        "0efe8a35-ec2a-4d85-9020-90019ec8b3d2",
        "388d68c3-0993-4f27-b716-7ef2cccf4dbc",
        "569924fc-0ae7-4dd0-9d98-31efd25d8dff",
        "5b6be5fa-5f0a-4aa6-af51-00ec20141247",
        "64d7e75b-5433-4175-9995-fdc9cf1efb28",
        "d09fd477-72ad-43e1-a244-52f0d296b3ad",
        "e7c26758-c0f3-45d0-a76a-d38659131ca2"
      ],
      "singergroups": [
        "f2c35a04-6f78-42cb-bdd5-6b530f2ce11c"
      ],
      "songtypes": [
        "7be1b15c-cff8-4b37-a649-5c90f3d569a9"
      ],
      "songwriters": [
        "5a2edc7c-36e0-4a0b-afc5-abc5f1f6c40a",
        "ffd3005f-fb10-4d17-967b-95a5d1cc116d"
      ]
    },
    "titles": {
      "eng": "Odd Eye"
    },
    "titles_default_language": "eng",
    "year": 2021
  }
}