{
  "header": {
    "version": 4,
    "description": "Karaoke Mugen Karaoke Data File"
  },
  "medias": [
    {
      "version": "Default",
      "filename": "KOR - Orange Caramel - MV - My Copycat.mp4",
      "audiogain": -11.24,
      "loudnorm": "-6.25,1.36,2.40,-16.26,-1.07",
      "filesize": 67166559,
      "duration": 209,
      "default": true,
      "lyrics": [
        {
          "filename": "KOR - Orange Caramel - MV - My Copycat.ass",
          "default": true,
          "version": "Default"
        }
      ]
    }
  ],
  "data": {
    "created_at": "2019-09-18T18:00:49.000Z",
    "kid": "9bb09876-9065-47a9-a6d9-f7e3a696dd77",
    "modified_at": "2022-05-26T16:30:23.175Z",
    "repository": "kara.moe",
    "songorder": null,
    "tags": {
      "authors": [
        "10dd9fe7-e71e-47d6-85be-da1017f995f4"
      ],
      "creators": [
        "196ce727-bcb4-4b5a-b626-9b30cf788ffc"
      ],
      "families": [
        "5391f9fe-638c-415f-8dc9-958e3a2c5787"
      ],
      "groups": [
        "2b4e9972-5e17-481b-99f5-d0787c0ada56",
        "ae613721-1fbe-480d-ba6b-d6d0702b184d"
      ],
      "langs": [
        "3b9e2749-27d0-4a78-873d-ea91a9ee9a25"
      ],
      "singers": [
        "d521a381-9b09-4094-bd5a-a8e483b0dbf0"
      ],
      "songtypes": [
        "7be1b15c-cff8-4b37-a649-5c90f3d569a9"
      ],
      "songwriters": [
        "2939f8ce-62a7-4177-aed3-d48e04bf3ca6",
        "72c08da0-ecc5-4db1-84c7-047304b375cb"
      ],
      "collections": [
        "dbcf2c22-524d-4708-99bb-601703633927"
      ]
    },
    "titles": {
      "eng": "My Copycat"
    },
    "titles_default_language": "eng",
    "title": "My Copycat",
    "year": 2014
  }
}