{
  "header": {
    "version": 4,
    "description": "Karaoke Mugen Karaoke Data File"
  },
  "medias": [
    {
      "version": "Default",
      "filename": "KOR - Wonder Girls - MV - So Hot.mp4",
      "audiogain": -1.79,
      "loudnorm": "-17.05,-2.03,4.40,-27.25,-1.26",
      "filesize": 40993075,
      "duration": 184,
      "default": true,
      "lyrics": [
        {
          "filename": "KOR - Wonder Girls - MV - So Hot.ass",
          "default": true,
          "version": "Default"
        }
      ]
    }
  ],
  "data": {
    "created_at": "2023-04-10T17:14:53.221Z",
    "ignoreHooks": false,
    "kid": "a0d31a41-c3a5-47e1-a87f-92b3641ceee0",
    "modified_at": "2023-04-10T17:15:07.706Z",
    "repository": "kara.moe",
    "tags": {
      "authors": [
        "dd4f1279-de1b-4d06-b80d-29c4878bfd8e"
      ],
      "collections": [
        "dbcf2c22-524d-4708-99bb-601703633927"
      ],
      "creators": [
        "e1a9a889-9e39-49c9-8ff7-7d7d16331ee5"
      ],
      "families": [
        "5391f9fe-638c-415f-8dc9-958e3a2c5787"
      ],
      "groups": [
        "3c14c864-533c-49e6-a3cc-6969f1233775",
        "8c22c899-b3ed-42da-a548-ce00f950798b"
      ],
      "langs": [
        "3b9e2749-27d0-4a78-873d-ea91a9ee9a25"
      ],
      "singergroups": [
        "ed0cbcfd-7cc2-450e-859a-08e24aba2b58"
      ],
      "songtypes": [
        "7be1b15c-cff8-4b37-a649-5c90f3d569a9"
      ],
      "songwriters": [
        "7fba4dd8-377a-4e59-9c00-346aff00c43a"
      ]
    },
    "titles": {
      "eng": "So Hot"
    },
    "titles_default_language": "eng",
    "year": 2008
  }
}