{
  "header": {
    "version": 4,
    "description": "Karaoke Mugen Karaoke Data File"
  },
  "medias": [
    {
      "version": "Default",
      "filename": "KOR - TOMORROW X TOGETHER - MV - CROWN.mp4",
      "audiogain": -8.38,
      "loudnorm": "-8.04,2.28,4.60,-18.25,-1.16",
      "filesize": 87468627,
      "duration": 239,
      "default": true,
      "lyrics": [
        {
          "filename": "KOR - TOMORROW X TOGETHER - MV - CROWN.ass",
          "default": true,
          "version": "Default"
        }
      ]
    }
  ],
  "data": {
    "created_at": "2023-02-02T15:22:55.262Z",
    "ignoreHooks": false,
    "kid": "fffc6e11-0007-4daa-85d5-02746a01adad",
    "modified_at": "2023-02-04T18:32:24.857Z",
    "repository": "kara.moe",
    "tags": {
      "authors": [
        "a3a99b23-6c42-4d38-8863-491153187437"
      ],
      "collections": [
        "dbcf2c22-524d-4708-99bb-601703633927"
      ],
      "creators": [
        "c62489b5-2ae8-4e09-af56-18bbd85093bb"
      ],
      "families": [
        "5391f9fe-638c-415f-8dc9-958e3a2c5787"
      ],
      "genres": [
        "caa86df2-0d59-474b-885c-f240a9e891b0"
      ],
      "groups": [
        "ae613721-1fbe-480d-ba6b-d6d0702b184d"
      ],
      "langs": [
        "3b9e2749-27d0-4a78-873d-ea91a9ee9a25"
      ],
      "misc": [
        "1d6ceadf-a885-47e5-b23b-c07bf668a424"
      ],
      "singers": [
        "0e7d9e0a-3bc4-4c44-ac1a-5f87db5876b5",
        "1be9fced-4607-4454-bf06-e0b10f14ba2b",
        "ae1f6c2e-cdf3-4564-b49d-8314985b0d96",
        "b1258403-eacf-4ee3-b323-651fbab89975",
        "f6239c1a-9824-4801-aa0d-770b447a19b9"
      ],
      "singergroups": [
        "46fc3e06-382f-4bbf-a079-8ecd5522f6b2"
      ],
      "songtypes": [
        "7be1b15c-cff8-4b37-a649-5c90f3d569a9"
      ],
      "songwriters": [
        "10fab4bb-b40a-4c77-93b8-2d64e9a88956",
        "2f5d27a8-bd26-4248-8f1b-791ef84112e3",
        "3a39c80d-922e-45e8-9c3f-0acb8622bb9f",
        "49c28382-effe-4c7b-a241-31e309f88a54",
        "db767c5b-9154-45af-9ecc-ff5cad924080",
        "ac335f8d-9096-4202-9fee-eed07d089110"
      ]
    },
    "titles": {
      "eng": "CROWN",
      "kor": "어느날 머리에서 뿔이 자랐다",
      "qro": "eoneunal meorieseo ppuri jaratta"
    },
    "titles_default_language": "eng",
    "year": 2019
  }
}