{
  "header": {
    "version": 4,
    "description": "Karaoke Mugen Karaoke Data File"
  },
  "medias": [
    {
      "version": "Default",
      "filename": "KOR - BTS - MV - We Are Bulletproof the Eternal.mp4",
      "audiogain": -8.64,
      "loudnorm": "-8.53,1.13,8.00,-18.86,-1.53",
      "filesize": 39019050,
      "duration": 264,
      "default": true,
      "lyrics": [
        {
          "filename": "KOR - BTS - MV - We Are Bulletproof the Eternal.ass",
          "default": true,
          "version": "Default"
        }
      ]
    }
  ],
  "data": {
    "created_at": "2022-08-04T13:20:10.590Z",
    "ignoreHooks": false,
    "kid": "177b9279-8e95-43fd-b883-c15e00ca69ea",
    "modified_at": "2023-02-04T18:58:54.259Z",
    "repository": "kara.moe",
    "tags": {
      "authors": [
        "1d7745a8-73ea-40bb-ad99-826af98f6e41"
      ],
      "collections": [
        "dbcf2c22-524d-4708-99bb-601703633927"
      ],
      "creators": [
        "c62489b5-2ae8-4e09-af56-18bbd85093bb"
      ],
      "families": [
        "0377db02-3af6-43b8-9b08-c759df3d25c3"
      ],
      "genres": [
        "caa86df2-0d59-474b-885c-f240a9e891b0"
      ],
      "groups": [
        "8e209ae4-4381-438f-89dc-1b21752027d2"
      ],
      "langs": [
        "3b9e2749-27d0-4a78-873d-ea91a9ee9a25"
      ],
      "misc": [
        "1d6ceadf-a885-47e5-b23b-c07bf668a424"
      ],
      "singers": [
        "0717f873-2ea2-4c72-ab1c-56cd8b1c389b",
        "817671df-895f-46fe-9d5a-e16267c379b4",
        "f38f2fe5-9f54-4a8e-b3cf-d4f6c8f3ca98",
        "e9efcafa-9697-4b56-9f10-c220c95be784"
      ],
      "singergroups": [
        "b00876f7-3ffb-438c-8229-35a47fa9e667"
      ],
      "songtypes": [
        "7be1b15c-cff8-4b37-a649-5c90f3d569a9"
      ],
      "songwriters": [
        "0717f873-2ea2-4c72-ab1c-56cd8b1c389b",
        "473bcd5a-bbd9-4296-aceb-014d261e93d8",
        "4d0cb615-eac2-4923-90d7-6d0f52e0b60e",
        "915881b8-7c24-4e28-b2bd-e5337278e357",
        "971d476f-ab25-4018-913a-fcd2253b8889",
        "aeafd9df-7d70-4db4-ad6c-14e8204ce31f",
        "cab64abb-87c4-4740-af58-e2435810778f",
        "cc859eb0-36ac-4c47-b6df-6a8155b58f89",
        "dd9ef0d9-9966-453d-98ad-97c132d3f22f",
        "e9efcafa-9697-4b56-9f10-c220c95be784",
        "f7a7d0d1-70bb-4667-8124-9d1e90c7553c"
      ]
    },
    "titles": {
      "eng": "We Are Bulletproof: the Eternal"
    },
    "titles_default_language": "eng",
    "year": 2020
  }
}