{
  "header": {
    "version": 4,
    "description": "Karaoke Mugen Karaoke Data File"
  },
  "medias": [
    {
      "version": "Default",
      "filename": "KOR - PSY - MV - Gangnam Style.mp4",
      "audiogain": -10.36,
      "loudnorm": "-7.40,2.01,4.40,-17.57,-1.26",
      "filesize": 109128574,
      "duration": 252,
      "default": true,
      "lyrics": [
        {
          "filename": "KOR - PSY - MV - Gangnam Style.ass",
          "default": true,
          "version": "Default"
        }
      ]
    }
  ],
  "data": {
    "created_at": "2019-10-21T22:09:19.000Z",
    "kid": "2a1683bd-8bae-4b20-989f-0ccb34bcc8b2",
    "modified_at": "2022-05-26T16:30:25.339Z",
    "repository": "kara.moe",
    "songorder": null,
    "tags": {
      "authors": [
        "1db1738f-acdc-42fc-aec3-60f4bddf660d"
      ],
      "creators": [
        "b4ac6a4a-0d54-460b-a56d-f3c97aaeb45e"
      ],
      "families": [
        "5391f9fe-638c-415f-8dc9-958e3a2c5787"
      ],
      "groups": [
        "ae613721-1fbe-480d-ba6b-d6d0702b184d",
        "f5e7d2fc-0cbb-4fb9-a84a-b25dfb0e9e77"
      ],
      "langs": [
        "3b9e2749-27d0-4a78-873d-ea91a9ee9a25"
      ],
      "singers": [
        "e29ef02f-1423-4d0e-ac18-b2e6a7081985"
      ],
      "songtypes": [
        "7be1b15c-cff8-4b37-a649-5c90f3d569a9"
      ],
      "songwriters": [
        "5debcfa8-ffe9-4fac-a188-46c126ee9b01",
        "aea49184-0d9f-4af0-a9c4-0cfc8b3cf305"
      ],
      "collections": [
        "dbcf2c22-524d-4708-99bb-601703633927"
      ]
    },
    "titles": {
      "eng": "Gangnam Style"
    },
    "titles_default_language": "eng",
    "title": "Gangnam Style",
    "year": 2012
  }
}