{
  "header": {
    "version": 4,
    "description": "Karaoke Mugen Karaoke Data File"
  },
  "medias": [
    {
      "version": "Default",
      "filename": "KOR - SISTAR - MV - Loving U.mp4",
      "audiogain": -6.7,
      "loudnorm": "-10.54,0.70,4.00,-20.66,-0.71",
      "filesize": 109053356,
      "duration": 218,
      "default": true,
      "lyrics": [
        {
          "filename": "KOR - SISTAR - MV - Loving U.ass",
          "default": true,
          "version": "Default"
        }
      ]
    }
  ],
  "data": {
    "created_at": "2019-09-29T15:24:23.000Z",
    "kid": "40bfe9f5-91a9-4f2f-893d-f5c5de3ca099",
    "modified_at": "2022-05-26T16:30:19.839Z",
    "repository": "kara.moe",
    "songorder": null,
    "tags": {
      "authors": [
        "622e2a6d-e4e8-4ff5-b218-890e8d7a3abf"
      ],
      "creators": [
        "574dc4d3-9b79-4df5-83c5-f44ae60e2637"
      ],
      "families": [
        "5391f9fe-638c-415f-8dc9-958e3a2c5787"
      ],
      "groups": [
        "2b4e9972-5e17-481b-99f5-d0787c0ada56",
        "ae613721-1fbe-480d-ba6b-d6d0702b184d"
      ],
      "langs": [
        "3b9e2749-27d0-4a78-873d-ea91a9ee9a25"
      ],
      "singers": [
        "a91d4129-fe46-4e71-a8cb-bf3a109f7333"
      ],
      "songtypes": [
        "7be1b15c-cff8-4b37-a649-5c90f3d569a9"
      ],
      "songwriters": [
        "4152331f-48a3-44c3-a262-c8daa1d72dc3"
      ],
      "collections": [
        "dbcf2c22-524d-4708-99bb-601703633927"
      ]
    },
    "titles": {
      "eng": "Loving U"
    },
    "titles_default_language": "eng",
    "title": "Loving U",
    "year": 2012
  }
}