{
  "header": {
    "version": 4,
    "description": "Karaoke Mugen Karaoke Data File"
  },
  "medias": [
    {
      "version": "Default",
      "filename": "KOR - BLACKPINK - MV - Playing With Fire.mp4",
      "audiogain": -9.11,
      "loudnorm": "-7.73,3.18,4.00,-17.86,-0.74",
      "filesize": 45248803,
      "duration": 208,
      "default": true,
      "lyrics": [
        {
          "filename": "KOR - BLACKPINK - MV - Playing With Fire.ass",
          "default": true,
          "version": "Default"
        }
      ]
    }
  ],
  "data": {
    "created_at": "2022-04-06T19:44:05.371Z",
    "kid": "512be01a-1f11-4f12-bec3-2d84b6bae4db",
    "modified_at": "2022-05-26T16:31:04.309Z",
    "repository": "kara.moe",
    "songorder": null,
    "tags": {
      "authors": [
        "a8c04378-d185-40e8-95fa-c095b4b09727"
      ],
      "creators": [
        "b4ac6a4a-0d54-460b-a56d-f3c97aaeb45e"
      ],
      "families": [
        "5391f9fe-638c-415f-8dc9-958e3a2c5787"
      ],
      "groups": [
        "ae613721-1fbe-480d-ba6b-d6d0702b184d"
      ],
      "langs": [
        "3b9e2749-27d0-4a78-873d-ea91a9ee9a25"
      ],
      "singers": [
        "0e965310-c0c9-4001-8c2c-42e74b41573e"
      ],
      "songtypes": [
        "7be1b15c-cff8-4b37-a649-5c90f3d569a9"
      ],
      "songwriters": [
        "209cdc0a-9333-48d0-944f-15fdf6eb1997",
        "3e9e5b76-e9c8-4aed-86a2-65749fb98ade"
      ],
      "collections": [
        "dbcf2c22-524d-4708-99bb-601703633927"
      ]
    },
    "titles": {
      "eng": "Playing With Fire"
    },
    "titles_default_language": "eng",
    "title": "Playing With Fire",
    "year": 2016
  }
}