{
  "header": {
    "version": 4,
    "description": "Karaoke Mugen Karaoke Data File"
  },
  "medias": [
    {
      "version": "Default",
      "filename": "KOR - 2PM - MV - A.D.T.O.Y. ~ Off Vocal Vers.mp4",
      "audiogain": -2.6,
      "loudnorm": "-14.10,0.28,4.90,-24.25,-0.54",
      "filesize": 74391791,
      "duration": 248,
      "default": true,
      "lyrics": [
        {
          "filename": "KOR - 2PM - MV - A.D.T.O.Y. ~ Off Vocal Vers.ass",
          "default": true,
          "version": "Default"
        }
      ]
    }
  ],
  "data": {
    "created_at": "2023-07-10T21:43:01.493Z",
    "ignoreHooks": false,
    "kid": "73aeef2d-7d3f-475a-a708-c20f7fb31ed4",
    "modified_at": "2023-07-10T21:43:01.597Z",
    "parents": [
      "c196a68f-d014-492c-9145-e1250371c854"
    ],
    "repository": "kara.moe",
    "tags": {
      "authors": [
        "94af8136-d0f9-4c55-8160-963683b85811"
      ],
      "collections": [
        "dbcf2c22-524d-4708-99bb-601703633927"
      ],
      "creators": [
        "e1a9a889-9e39-49c9-8ff7-7d7d16331ee5"
      ],
      "families": [
        "5391f9fe-638c-415f-8dc9-958e3a2c5787"
      ],
      "groups": [
        "ae613721-1fbe-480d-ba6b-d6d0702b184d"
      ],
      "langs": [
        "3b9e2749-27d0-4a78-873d-ea91a9ee9a25"
      ],
      "misc": [
        "ec4fee75-71fb-45b4-9772-2ca374b4b600"
      ],
      "singers": [
        "44837964-5cfd-4aa1-b97c-d2a157d8b3b5"
      ],
      "songtypes": [
        "7be1b15c-cff8-4b37-a649-5c90f3d569a9"
      ],
      "songwriters": [
        "8b0a2ae0-faea-458e-b3a1-2b793296ae05"
      ],
      "versions": [
        "c0cc87b9-55b9-40f0-878a-fbb9e34c151e"
      ]
    },
    "titles": {
      "eng": "A.D.T.O.Y.",
      "kor": "하.니.뿐.",
      "qro": "ha.ni.ppun."
    },
    "titles_default_language": "eng",
    "year": 2013
  }
}