{
  "header": {
    "version": 4,
    "description": "Karaoke Mugen Karaoke Data File"
  },
  "medias": [
    {
      "version": "Default",
      "filename": "KOR - 2NE1 - MV - Ugly.mp4",
      "audiogain": -10.01,
      "loudnorm": "-8.62,0.71,7.30,-19.03,-1.10",
      "filesize": 121606395,
      "duration": 273,
      "default": true,
      "lyrics": [
        {
          "filename": "KOR - 2NE1 - MV - Ugly.ass",
          "default": true,
          "version": "Default"
        }
      ]
    }
  ],
  "data": {
    "created_at": "2023-07-10T21:26:56.369Z",
    "ignoreHooks": false,
    "kid": "47e80d53-398c-45b1-9645-576462335028",
    "modified_at": "2023-07-10T21:27:22.125Z",
    "repository": "kara.moe",
    "tags": {
      "authors": [
        "94af8136-d0f9-4c55-8160-963683b85811"
      ],
      "collections": [
        "dbcf2c22-524d-4708-99bb-601703633927"
      ],
      "creators": [
        "b4ac6a4a-0d54-460b-a56d-f3c97aaeb45e"
      ],
      "families": [
        "5391f9fe-638c-415f-8dc9-958e3a2c5787"
      ],
      "groups": [
        "ae613721-1fbe-480d-ba6b-d6d0702b184d"
      ],
      "langs": [
        "3b9e2749-27d0-4a78-873d-ea91a9ee9a25"
      ],
      "singergroups": [
        "29f295fb-79a7-41db-92a7-bcabf48f01ef"
      ],
      "songtypes": [
        "7be1b15c-cff8-4b37-a649-5c90f3d569a9"
      ],
      "songwriters": [
        "209cdc0a-9333-48d0-944f-15fdf6eb1997",
        "daf6f3f7-d088-4a3f-b5be-8d6d570f1fe7"
      ]
    },
    "titles": {
      "eng": "Ugly"
    },
    "titles_default_language": "eng",
    "year": 2011
  }
}