{
  "header": {
    "version": 4,
    "description": "Karaoke Mugen Karaoke Data File"
  },
  "medias": [
    {
      "version": "Default",
      "filename": "KOR - Stray Kids - MV - God's Menu.mp4",
      "loudnorm": "-8.00,2.89,3.30,-18.34,-0.25",
      "filesize": 96329300,
      "duration": 186,
      "default": true,
      "lyrics": [
        {
          "filename": "KOR - Stray Kids - MV - God's Menu.ass",
          "default": true,
          "version": "Default"
        }
      ]
    }
  ],
  "data": {
    "comment": "Suggéré via #8559",
    "created_at": "2023-08-16T20:31:24.220Z",
    "ignoreHooks": false,
    "kid": "fe236bf4-ed34-47ea-b1a6-5bcb4f72160f",
    "modified_at": "2023-08-30T18:18:37.169Z",
    "repository": "kara.moe",
    "tags": {
      "authors": [
        "f70c7314-b8d3-4bf4-96a0-dc8b2c5a6c94"
      ],
      "collections": [
        "dbcf2c22-524d-4708-99bb-601703633927"
      ],
      "creators": [
        "e1a9a889-9e39-49c9-8ff7-7d7d16331ee5"
      ],
      "families": [
        "5391f9fe-638c-415f-8dc9-958e3a2c5787"
      ],
      "groups": [
        "8e209ae4-4381-438f-89dc-1b21752027d2",
        "966d1e74-d1f2-41e2-ab04-24279c22f562"
      ],
      "langs": [
        "3b9e2749-27d0-4a78-873d-ea91a9ee9a25"
      ],
      "singers": [
        "18d9f88d-379b-44bc-bbad-833e5592e37c",
        "3536c5e8-32d7-43e8-b41e-683a629d0140",
        "4479de05-3890-418b-ac78-390756b202c9",
        "6fd6c8c3-9f0e-4d6a-aa3b-040d32708ae6",
        "9fe0ff62-784d-4f06-ad70-9f99ca9f7d01",
        "ba5d4a5e-3018-461f-a571-9c5d3c66c2b7",
        "d58db71a-a082-422d-9a3f-5339d5aec9af",
        "f71a419f-3e10-4a58-a158-bff7a18bc5cc"
      ],
      "singergroups": [
        "18e36fb1-1135-44db-a4ac-a113849d64b3"
      ],
      "songtypes": [
        "7be1b15c-cff8-4b37-a649-5c90f3d569a9"
      ],
      "songwriters": [
        "9fe0ff62-784d-4f06-ad70-9f99ca9f7d01",
        "ba5d4a5e-3018-461f-a571-9c5d3c66c2b7",
        "c3fe2cd4-8fc1-4e14-8e19-cede81dacb96",
        "d58db71a-a082-422d-9a3f-5339d5aec9af",
        "e0390214-b936-49bf-afbf-51fb59db4d90"
      ]
    },
    "titles": {
      "eng": "God's Menu"
    },
    "titles_default_language": "eng",
    "year": 2020
  }
}