{
  "header": {
    "version": 4,
    "description": "Karaoke Mugen Karaoke Data File"
  },
  "medias": [
    {
      "version": "Default",
      "filename": "KOR - Brown Eyed Girls - MV - Abracadabra ~ Off Vocal Vers.mp4",
      "audiogain": -4.09,
      "loudnorm": "-13.76,0.22,8.20,-24.00,-0.86",
      "filesize": 65699542,
      "duration": 260,
      "default": true,
      "lyrics": [
        {
          "filename": "KOR - Brown Eyed Girls - MV - Abracadabra ~ Off Vocal Vers.ass",
          "default": true,
          "version": "Default"
        }
      ]
    }
  ],
  "data": {
    "created_at": "2023-07-12T22:35:58.124Z",
    "ignoreHooks": false,
    "kid": "a8e7d570-ee01-4636-9264-bf4f39680115",
    "modified_at": "2023-07-12T22:35:58.220Z",
    "parents": [
      "600d0a39-a9ce-4a37-961f-f48a2756c336"
    ],
    "repository": "kara.moe",
    "tags": {
      "authors": [
        "94af8136-d0f9-4c55-8160-963683b85811"
      ],
      "collections": [
        "dbcf2c22-524d-4708-99bb-601703633927"
      ],
      "creators": [
        "baecd455-16b5-4cb9-9908-3a2a4bf06039"
      ],
      "families": [
        "5391f9fe-638c-415f-8dc9-958e3a2c5787"
      ],
      "groups": [
        "3c14c864-533c-49e6-a3cc-6969f1233775"
      ],
      "langs": [
        "3b9e2749-27d0-4a78-873d-ea91a9ee9a25"
      ],
      "singergroups": [
        "d4d17c0c-b6b1-4718-bc1b-bec82af17f34"
      ],
      "songtypes": [
        "7be1b15c-cff8-4b37-a649-5c90f3d569a9"
      ],
      "songwriters": [
        "1352907c-eef7-4314-b75a-da056e9a7c62",
        "74d278a0-f64e-494b-9e83-3e72375938ed",
        "8c4da7d4-d844-4138-a84c-6d3c31a19214",
        "ff7b06dc-19cb-4fba-8424-4c02a1323b1f"
      ],
      "versions": [
        "c0cc87b9-55b9-40f0-878a-fbb9e34c151e"
      ]
    },
    "titles": {
      "kor": "아브라카다브라",
      "qro": "Abracadabra"
    },
    "titles_default_language": "qro",
    "year": 2009
  }
}