{
  "header": {
    "version": 4,
    "description": "Karaoke Mugen Karaoke Data File"
  },
  "medias": [
    {
      "version": "Default",
      "filename": "KOR - 2NE1 - MV - Lonely.mp4",
      "audiogain": -9.24,
      "loudnorm": "-8.24,1.96,4.00,-18.26,-0.77",
      "filesize": 67462593,
      "duration": 210,
      "default": true,
      "lyrics": [
        {
          "filename": "KOR - 2NE1 - MV - Lonely.ass",
          "default": true,
          "version": "Default"
        }
      ]
    }
  ],
  "data": {
    "created_at": "2023-07-10T21:05:24.776Z",
    "ignoreHooks": false,
    "kid": "942ec64c-eb90-4943-adda-85d6889aad1d",
    "modified_at": "2023-07-10T21:06:15.724Z",
    "repository": "kara.moe",
    "tags": {
      "authors": [
        "d665d760-72b5-42f9-8397-91cce3d0081e"
      ],
      "collections": [
        "dbcf2c22-524d-4708-99bb-601703633927"
      ],
      "creators": [
        "b4ac6a4a-0d54-460b-a56d-f3c97aaeb45e"
      ],
      "families": [
        "5391f9fe-638c-415f-8dc9-958e3a2c5787"
      ],
      "groups": [
        "ae613721-1fbe-480d-ba6b-d6d0702b184d"
      ],
      "langs": [
        "3b9e2749-27d0-4a78-873d-ea91a9ee9a25"
      ],
      "singergroups": [
        "29f295fb-79a7-41db-92a7-bcabf48f01ef"
      ],
      "songtypes": [
        "7be1b15c-cff8-4b37-a649-5c90f3d569a9"
      ],
      "songwriters": [
        "209cdc0a-9333-48d0-944f-15fdf6eb1997"
      ]
    },
    "titles": {
      "eng": "Lonely"
    },
    "titles_default_language": "eng",
    "year": 2011
  }
}