{
  "header": {
    "version": 4,
    "description": "Karaoke Mugen Karaoke Data File"
  },
  "medias": [
    {
      "version": "Default",
      "filename": "KOR - BTS - MV - IDOL.mp4",
      "audiogain": -9.03,
      "loudnorm": "-7.70,2.52,4.90,-17.82,-1.22",
      "filesize": 250335742,
      "duration": 222,
      "default": true,
      "lyrics": [
        {
          "filename": "KOR - BTS - MV - IDOL.ass",
          "default": true,
          "version": "Default"
        }
      ]
    }
  ],
  "data": {
    "created_at": "2021-09-12T11:55:57.119Z",
    "ignoreHooks": false,
    "kid": "5e811f75-f665-4745-a461-c4a0b59f9921",
    "modified_at": "2023-02-04T18:42:31.756Z",
    "repository": "kara.moe",
    "tags": {
      "authors": [
        "4d71ce82-eed1-4c44-ac85-5f7255f3dad3"
      ],
      "collections": [
        "dbcf2c22-524d-4708-99bb-601703633927"
      ],
      "creators": [
        "c62489b5-2ae8-4e09-af56-18bbd85093bb"
      ],
      "families": [
        "5391f9fe-638c-415f-8dc9-958e3a2c5787"
      ],
      "genres": [
        "caa86df2-0d59-474b-885c-f240a9e891b0"
      ],
      "groups": [
        "ae613721-1fbe-480d-ba6b-d6d0702b184d"
      ],
      "langs": [
        "3b9e2749-27d0-4a78-873d-ea91a9ee9a25"
      ],
      "misc": [
        "1d6ceadf-a885-47e5-b23b-c07bf668a424"
      ],
      "singers": [
        "473bcd5a-bbd9-4296-aceb-014d261e93d8",
        "e9efcafa-9697-4b56-9f10-c220c95be784",
        "30ca1233-c4d4-4e25-a975-6b1e66c30ef4",
        "0717f873-2ea2-4c72-ab1c-56cd8b1c389b",
        "817671df-895f-46fe-9d5a-e16267c379b4",
        "c91ba8a3-3de9-4479-b633-07b5ff7b4553",
        "f38f2fe5-9f54-4a8e-b3cf-d4f6c8f3ca98"
      ],
      "singergroups": [
        "b00876f7-3ffb-438c-8229-35a47fa9e667"
      ],
      "songtypes": [
        "7be1b15c-cff8-4b37-a649-5c90f3d569a9"
      ],
      "songwriters": [
        "10fab4bb-b40a-4c77-93b8-2d64e9a88956",
        "3b77604d-5e08-4247-b8d6-8a3836d0e58a",
        "473bcd5a-bbd9-4296-aceb-014d261e93d8",
        "ac335f8d-9096-4202-9fee-eed07d089110",
        "caf001aa-91c2-4863-ba03-25aeea1162b3",
        "f8b5f602-7d48-4dcd-9a1c-2cc6ab765f55"
      ]
    },
    "titles": {
      "eng": "IDOL"
    },
    "titles_default_language": "eng",
    "year": 2018
  }
}