{
  "header": {
    "version": 4,
    "description": "Karaoke Mugen Karaoke Data File"
  },
  "medias": [
    {
      "version": "Yook Sungiae.",
      "filename": "KOR - Who Are You School 2015 - PV - I Love You ~ Yook Sungiae Vers. ~ Cover Vers.mp4",
      "audiogain": -8.37,
      "loudnorm": "-11.03,1.35,10.80,-21.36,-0.82",
      "filesize": 36332565,
      "duration": 248,
      "default": true,
      "lyrics": [
        {
          "filename": "KOR - Who Are You School 2015 - PV - I Love You ~ Yook Sungiae Vers. ~ Cover Vers.ass",
          "default": true,
          "version": "Default"
        }
      ]
    }
  ],
  "data": {
    "created_at": "2019-07-30T23:58:51.000Z",
    "kid": "bb2d5aa6-3972-48dc-ba59-a3f7fd005250",
    "modified_at": "2022-05-26T16:31:25.926Z",
    "repository": "kara.moe",
    "songorder": null,
    "tags": {
      "authors": [
        "622e2a6d-e4e8-4ff5-b218-890e8d7a3abf"
      ],
      "families": [
        "5391f9fe-638c-415f-8dc9-958e3a2c5787"
      ],
      "groups": [
        "2b4e9972-5e17-481b-99f5-d0787c0ada56",
        "ae613721-1fbe-480d-ba6b-d6d0702b184d"
      ],
      "langs": [
        "3b9e2749-27d0-4a78-873d-ea91a9ee9a25"
      ],
      "series": [
        "de62bcda-0c29-4702-80a1-3b8039fd0842"
      ],
      "singers": [
        "94dd6a0d-ed39-4aae-a53c-255335fe8919"
      ],
      "songtypes": [
        "66e195b9-64ea-432d-a917-2e2c88d26052"
      ],
      "versions": [
        "03e1e1d2-8641-47b7-bbcb-39a3df9ff21c"
      ],
      "collections": [
        "dbcf2c22-524d-4708-99bb-601703633927"
      ],
      "genres": [
        "28650021-2b2a-4a55-aff4-85dd4896c687"
      ]
    },
    "titles": {
      "eng": "I Love You ~ Yook Sungiae Vers."
    },
    "titles_default_language": "eng",
    "title": "I Love You ~ Yook Sungiae Vers.",
    "year": 2015
  }
}