{
  "header": {
    "version": 4,
    "description": "Karaoke Mugen Karaoke Data File"
  },
  "medias": [
    {
      "version": "Default",
      "filename": "KOR - LE SSERAFIM - MV - FEARLESS.mp4",
      "audiogain": -7.56,
      "loudnorm": "-7.77,2.05,3.00,-17.85,-0.06",
      "filesize": 72515887,
      "duration": 182,
      "default": true,
      "lyrics": [
        {
          "filename": "KOR - LE SSERAFIM - MV - FEARLESS.ass",
          "default": true,
          "version": "Default"
        }
      ]
    }
  ],
  "data": {
    "created_at": "2023-05-09T19:57:50.997Z",
    "ignoreHooks": false,
    "kid": "31015cfd-53d0-4b40-b367-f6eee5ff88a8",
    "modified_at": "2023-07-20T22:15:58.874Z",
    "repository": "kara.moe",
    "tags": {
      "authors": [
        "1d7745a8-73ea-40bb-ad99-826af98f6e41",
        "f70c7314-b8d3-4bf4-96a0-dc8b2c5a6c94"
      ],
      "collections": [
        "dbcf2c22-524d-4708-99bb-601703633927"
      ],
      "creators": [
        "8bf0ddac-229f-4980-b3c0-a23c3ddf4d4a"
      ],
      "families": [
        "5391f9fe-638c-415f-8dc9-958e3a2c5787"
      ],
      "groups": [
        "8e209ae4-4381-438f-89dc-1b21752027d2",
        "966d1e74-d1f2-41e2-ab04-24279c22f562"
      ],
      "langs": [
        "3b9e2749-27d0-4a78-873d-ea91a9ee9a25"
      ],
      "singers": [
        "26d5a27f-5132-42a4-8f12-b31e306d4290",
        "2d7d252d-f371-42bd-a398-457648a13c63",
        "70a00bbf-74f7-4b5c-a2bd-6b9429fc7d0d",
        "a866f372-6487-4209-b094-9140ba713c93",
        "c50cf2ca-74d9-496e-be28-8d818ea9fd5f",
        "d4f6b62f-c283-4c2f-8063-530c51f7160d"
      ],
      "singergroups": [
        "b3ab46dd-66a0-4ed0-b2d6-11025e2a4156"
      ],
      "songtypes": [
        "7be1b15c-cff8-4b37-a649-5c90f3d569a9"
      ],
      "songwriters": [
        "10fab4bb-b40a-4c77-93b8-2d64e9a88956",
        "3aafcb61-ca32-4ce1-b2bf-2028bb000111",
        "3e704d88-d6b4-4dc9-bd1f-04cc3c7f0f3d",
        "49a6dd18-5956-4df0-97d3-7579f66bc0e1",
        "5e62a984-1b34-4032-809e-a7125510e75a",
        "7f3cc3c2-c658-43aa-863c-a370a1d80f36",
        "8ac85a26-1f0f-42cd-b609-79cfba7fe088",
        "ab28d8fa-54ac-41f1-8e2a-c01f26fda607",
        "ac335f8d-9096-4202-9fee-eed07d089110",
        "c29303bf-2839-4634-845d-cfdac96058e9",
        "c975734e-8775-4817-b10b-cc8b8bae395a",
        "f3843da4-24ee-4436-b056-1fbc441e4a17",
        "f64ea224-ba40-450a-be61-39140ddfabad"
      ]
    },
    "titles": {
      "eng": "FEARLESS"
    },
    "titles_default_language": "eng",
    "year": 2022
  }
}