{
  "header": {
    "version": 4,
    "description": "Karaoke Mugen Karaoke Data File"
  },
  "medias": [
    {
      "version": "Default",
      "filename": "KOR - BTOB - MV - WOW.mp4",
      "audiogain": -9.09,
      "loudnorm": "-7.55,3.21,2.90,-17.77,-0.84",
      "filesize": 99573370,
      "duration": 219,
      "default": true,
      "lyrics": [
        {
          "filename": "KOR - BTOB - MV - WOW.ass",
          "default": true,
          "version": "Default"
        }
      ]
    }
  ],
  "data": {
    "created_at": "2019-10-10T20:57:48.000Z",
    "kid": "bd53eb25-9ac9-4d3f-b1d5-aad5fe9721c4",
    "modified_at": "2022-05-26T16:31:58.924Z",
    "repository": "kara.moe",
    "songorder": null,
    "tags": {
      "authors": [
        "622e2a6d-e4e8-4ff5-b218-890e8d7a3abf"
      ],
      "creators": [
        "0635fc01-24ee-40db-b419-7b9c81f23b0c"
      ],
      "families": [
        "5391f9fe-638c-415f-8dc9-958e3a2c5787"
      ],
      "groups": [
        "2b4e9972-5e17-481b-99f5-d0787c0ada56",
        "ae613721-1fbe-480d-ba6b-d6d0702b184d"
      ],
      "langs": [
        "3b9e2749-27d0-4a78-873d-ea91a9ee9a25"
      ],
      "singers": [
        "e29ca23d-958f-47c3-892c-605e38dd0b41"
      ],
      "songtypes": [
        "7be1b15c-cff8-4b37-a649-5c90f3d569a9"
      ],
      "songwriters": [
        "72c08da0-ecc5-4db1-84c7-047304b375cb",
        "75a2f705-d50e-47b3-b0ee-14cc000274d2",
        "9b3a1a85-f379-495d-8840-f8582d935e7d"
      ],
      "collections": [
        "dbcf2c22-524d-4708-99bb-601703633927"
      ]
    },
    "titles": {
      "eng": "WOW"
    },
    "titles_default_language": "eng",
    "title": "WOW",
    "year": 2016
  }
}