{
  "header": {
    "version": 4,
    "description": "Karaoke Mugen Karaoke Data File"
  },
  "medias": [
    {
      "version": "Default",
      "filename": "KOR - TWICE - MV - Like OOH-AAH.mp4",
      "audiogain": -0.92,
      "loudnorm": "-17.07,-2.65,6.70,-27.29,0.44",
      "filesize": 214821225,
      "duration": 271,
      "default": true,
      "lyrics": [
        {
          "filename": "KOR - TWICE - MV - Like OOH-AAH.ass",
          "default": true,
          "version": "Default"
        }
      ]
    }
  ],
  "data": {
    "created_at": "2022-06-26T15:28:52.501Z",
    "ignoreHooks": false,
    "kid": "918f0cfd-e1db-4ea1-8f09-56ddb998fc29",
    "modified_at": "2022-06-26T15:36:41.483Z",
    "repository": "kara.moe",
    "tags": {
      "authors": [
        "dd4f1279-de1b-4d06-b80d-29c4878bfd8e"
      ],
      "collections": [
        "dbcf2c22-524d-4708-99bb-601703633927"
      ],
      "creators": [
        "e1a9a889-9e39-49c9-8ff7-7d7d16331ee5"
      ],
      "families": [
        "5391f9fe-638c-415f-8dc9-958e3a2c5787"
      ],
      "groups": [
        "8c22c899-b3ed-42da-a548-ce00f950798b",
        "ae613721-1fbe-480d-ba6b-d6d0702b184d"
      ],
      "langs": [
        "3b9e2749-27d0-4a78-873d-ea91a9ee9a25"
      ],
      "singers": [
        "fe421082-61b7-4758-bcf2-71b03dd52a1d"
      ],
      "songtypes": [
        "7be1b15c-cff8-4b37-a649-5c90f3d569a9"
      ],
      "songwriters": [
        "6e177b9a-ba33-4373-ba4a-f44fd8e35b03",
        "9c0ac289-1862-4b50-bf6e-31fc563114ff"
      ]
    },
    "titles": {
      "eng": "Like OOH-AAH",
      "kor": "OOH-AHH하게",
      "qro": "OOH-AHH Hage"
    },
    "titles_default_language": "eng",
    "title": "Like OOH-AAH",
    "year": 2015
  }
}