{
  "header": {
    "version": 4,
    "description": "Karaoke Mugen Karaoke Data File"
  },
  "medias": [
    {
      "version": "Default",
      "filename": "KOR - BTS - LIVE - Make It Right ~ Full Vers.mp4",
      "audiogain": 2.41,
      "loudnorm": "-21.28,-7.02,6.90,-31.50,-0.58",
      "filesize": 44159757,
      "duration": 241,
      "default": true,
      "lyrics": [
        {
          "filename": "KOR - BTS - LIVE - Make It Right ~ Full Vers.ass",
          "default": true,
          "version": "Default"
        }
      ]
    }
  ],
  "data": {
    "created_at": "2022-08-04T12:55:06.260Z",
    "ignoreHooks": false,
    "kid": "23c7cf9e-84ef-4496-831a-e7130d85bc7f",
    "modified_at": "2023-02-04T18:58:54.566Z",
    "repository": "kara.moe",
    "tags": {
      "authors": [
        "1d7745a8-73ea-40bb-ad99-826af98f6e41"
      ],
      "collections": [
        "dbcf2c22-524d-4708-99bb-601703633927"
      ],
      "creators": [
        "c62489b5-2ae8-4e09-af56-18bbd85093bb"
      ],
      "families": [
        "5391f9fe-638c-415f-8dc9-958e3a2c5787"
      ],
      "genres": [
        "caa86df2-0d59-474b-885c-f240a9e891b0"
      ],
      "groups": [
        "ae613721-1fbe-480d-ba6b-d6d0702b184d"
      ],
      "langs": [
        "3b9e2749-27d0-4a78-873d-ea91a9ee9a25"
      ],
      "misc": [
        "1d6ceadf-a885-47e5-b23b-c07bf668a424"
      ],
      "singers": [
        "0717f873-2ea2-4c72-ab1c-56cd8b1c389b",
        "817671df-895f-46fe-9d5a-e16267c379b4",
        "f38f2fe5-9f54-4a8e-b3cf-d4f6c8f3ca98",
        "e9efcafa-9697-4b56-9f10-c220c95be784"
      ],
      "singergroups": [
        "b00876f7-3ffb-438c-8229-35a47fa9e667"
      ],
      "songtypes": [
        "a0167949-580c-4de3-bf13-497e462e02f3"
      ],
      "songwriters": [
        "0717f873-2ea2-4c72-ab1c-56cd8b1c389b",
        "3bb90dfd-2120-4caf-a051-9ff5f6d59de9",
        "4428fbb9-d31b-4725-b3d0-d7b57e462b41",
        "466c11fe-742c-4438-bc30-fdf7c4c5dcf9",
        "473bcd5a-bbd9-4296-aceb-014d261e93d8",
        "7a33c32e-6e0f-4a1e-8130-75ad03a58546",
        "e9efcafa-9697-4b56-9f10-c220c95be784"
      ],
      "versions": [
        "c2143a7f-6970-450e-8a79-0302db9220a9"
      ]
    },
    "titles": {
      "eng": "Make It Right"
    },
    "titles_default_language": "eng",
    "year": 2019
  }
}