{
  "header": {
    "version": 4,
    "description": "Karaoke Mugen Karaoke Data File"
  },
  "medias": [
    {
      "version": "Default",
      "filename": "KOR - Orange Caramel - MV - Catallena.mp4",
      "audiogain": -0.76,
      "loudnorm": "-17.08,-7.45,4.30,-27.14,-0.72",
      "filesize": 61892623,
      "duration": 202,
      "default": true,
      "lyrics": [
        {
          "filename": "KOR - Orange Caramel - MV - Catallena.ass",
          "default": true,
          "version": "Default"
        }
      ]
    }
  ],
  "data": {
    "created_at": "2022-06-04T21:29:20.940Z",
    "ignoreHooks": false,
    "kid": "392d0ef3-9fbe-47e8-b84c-e3bad69d76ac",
    "modified_at": "2022-06-04T21:30:18.339Z",
    "repository": "kara.moe",
    "tags": {
      "authors": [
        "dd4f1279-de1b-4d06-b80d-29c4878bfd8e"
      ],
      "collections": [
        "dbcf2c22-524d-4708-99bb-601703633927"
      ],
      "creators": [
        "196ce727-bcb4-4b5a-b626-9b30cf788ffc"
      ],
      "families": [
        "5391f9fe-638c-415f-8dc9-958e3a2c5787"
      ],
      "groups": [
        "8c22c899-b3ed-42da-a548-ce00f950798b",
        "ae613721-1fbe-480d-ba6b-d6d0702b184d"
      ],
      "langs": [
        "3b9e2749-27d0-4a78-873d-ea91a9ee9a25"
      ],
      "singers": [
        "d521a381-9b09-4094-bd5a-a8e483b0dbf0"
      ],
      "songtypes": [
        "7be1b15c-cff8-4b37-a649-5c90f3d569a9"
      ],
      "songwriters": [
        "2939f8ce-62a7-4177-aed3-d48e04bf3ca6",
        "72c08da0-ecc5-4db1-84c7-047304b375cb"
      ]
    },
    "titles": {
      "kor": "까탈레나",
      "qro": "Catallena"
    },
    "titles_default_language": "qro",
    "title": "Catallena",
    "year": 2014
  }
}