{
  "header": {
    "version": 4,
    "description": "Karaoke Mugen Karaoke Data File"
  },
  "medias": [
    {
      "version": "Default",
      "filename": "KOR - Taeyang - MV - Wedding Dress.mp4",
      "audiogain": -8.52,
      "loudnorm": "-9.56,1.16,6.60,-20.04,-0.84",
      "filesize": 66794011,
      "duration": 284,
      "default": true,
      "lyrics": [
        {
          "filename": "KOR - Taeyang - MV - Wedding Dress.ass",
          "default": true,
          "version": "Default"
        }
      ]
    }
  ],
  "data": {
    "created_at": "2019-09-29T15:09:33.000Z",
    "kid": "1c3c80b8-ef76-49bc-b02b-3f9e27c10840",
    "modified_at": "2022-05-26T16:31:37.146Z",
    "repository": "kara.moe",
    "songorder": null,
    "tags": {
      "authors": [
        "622e2a6d-e4e8-4ff5-b218-890e8d7a3abf"
      ],
      "creators": [
        "b4ac6a4a-0d54-460b-a56d-f3c97aaeb45e"
      ],
      "families": [
        "5391f9fe-638c-415f-8dc9-958e3a2c5787"
      ],
      "groups": [
        "2b4e9972-5e17-481b-99f5-d0787c0ada56",
        "3c14c864-533c-49e6-a3cc-6969f1233775"
      ],
      "langs": [
        "3b9e2749-27d0-4a78-873d-ea91a9ee9a25"
      ],
      "singers": [
        "028c6776-15c0-4e2e-911d-093a7ca2ba20"
      ],
      "songtypes": [
        "7be1b15c-cff8-4b37-a649-5c90f3d569a9"
      ],
      "songwriters": [
        "209cdc0a-9333-48d0-944f-15fdf6eb1997"
      ],
      "collections": [
        "dbcf2c22-524d-4708-99bb-601703633927"
      ]
    },
    "titles": {
      "eng": "Wedding Dress"
    },
    "titles_default_language": "eng",
    "title": "Wedding Dress",
    "year": 2009
  }
}