{
  "header": {
    "version": 4,
    "description": "Karaoke Mugen Karaoke Data File"
  },
  "medias": [
    {
      "version": "Default",
      "filename": "KOR - Girls' Generation - MV - I GOT A BOY.mp4",
      "audiogain": -13.23,
      "loudnorm": "-5.30,3.18,7.70,-15.58,-1.56",
      "filesize": 68644870,
      "duration": 304,
      "default": true,
      "lyrics": [
        {
          "filename": "KOR - Girls' Generation - MV - I GOT A BOY.ass",
          "default": true,
          "version": "Default"
        }
      ]
    }
  ],
  "data": {
    "created_at": "2022-08-04T13:20:10.590Z",
    "ignoreHooks": false,
    "kid": "7773fbca-638f-4ca2-9ac1-f263a3023cb5",
    "modified_at": "2022-08-24T11:39:00.786Z",
    "repository": "kara.moe",
    "tags": {
      "authors": [
        "4d71ce82-eed1-4c44-ac85-5f7255f3dad3"
      ],
      "collections": [
        "dbcf2c22-524d-4708-99bb-601703633927"
      ],
      "creators": [
        "41112842-f1a3-4fef-9ebd-55b7fa600589",
        "f46f992b-7b6e-43e2-a6e1-b445da5e69fd"
      ],
      "families": [
        "5391f9fe-638c-415f-8dc9-958e3a2c5787"
      ],
      "groups": [
        "ae613721-1fbe-480d-ba6b-d6d0702b184d"
      ],
      "langs": [
        "3b9e2749-27d0-4a78-873d-ea91a9ee9a25"
      ],
      "singers": [
        "76378421-153e-410d-a62c-2db43d5ed5fd"
      ],
      "songtypes": [
        "7be1b15c-cff8-4b37-a649-5c90f3d569a9"
      ],
      "songwriters": [
        "3f69a0b1-4ec3-4ef3-a9e5-87b32b7643bf",
        "4a748765-1717-446b-9e52-f229b9818f33",
        "6a913343-8866-4b75-a50b-bd1584380e4e",
        "e8e7f8d9-d13c-4411-bf60-0932aea02f1f"
      ],
      "misc": [
        "86705d4b-24e4-4756-9687-2b9c98bcf366"
      ]
    },
    "titles": {
      "eng": "I GOT A BOY"
    },
    "titles_default_language": "eng",
    "titles_aliases": [
      "Shiner on U"
    ],
    "title": "I GOT A BOY",
    "year": 2013
  }
}