{
  "header": {
    "version": 4,
    "description": "Karaoke Mugen Karaoke Data File"
  },
  "medias": [
    {
      "version": "Default",
      "filename": "LTZ - Pocket Monsters - OP - Pokemon Theme ~ Cover Vers.mp4",
      "audiogain": -5.81,
      "loudnorm": "-12.38,-0.17,4.80,-22.55,-1.29",
      "filesize": 62458130,
      "duration": 60,
      "default": true,
      "lyrics": [
        {
          "filename": "LTZ - Pocket Monsters - OP - Pokemon Theme ~ Cover Vers.ass",
          "default": true,
          "version": "Default"
        }
      ]
    }
  ],
  "data": {
    "comment": "Voilaaaaa enfin le luxembourgeois",
    "created_at": "2023-05-24T19:21:48.742Z",
    "ignoreHooks": false,
    "kid": "7b1f879f-61f6-4f24-afa1-5762a7118377",
    "modified_at": "2023-05-24T19:21:48.742Z",
    "repository": "kara.moe",
    "tags": {
      "authors": [
        "31a3036f-e2af-4cc9-a45e-bdf9d42ee041"
      ],
      "collections": [
        "c7db86a0-ff64-4044-9be4-66dd1ef1d1c1"
      ],
      "creators": [
        "03fe574b-c7f5-4520-96dc-47320c39e2cc"
      ],
      "families": [
        "0377db02-3af6-43b8-9b08-c759df3d25c3"
      ],
      "genres": [
        "a0aeef4a-6428-45ff-a6e1-468b595930c2"
      ],
      "groups": [
        "24db50aa-a126-4d34-a48a-e45db79c4245"
      ],
      "langs": [
        "52c4c92f-fef8-4a50-ad48-b6d533fa0697"
      ],
      "origins": [
        "938de218-5343-4865-94d3-fb33f2eaa152"
      ],
      "series": [
        "cc1f8e40-71a2-4097-9bcf-7132b4b19ef7"
      ],
      "singers": [
        "31a3036f-e2af-4cc9-a45e-bdf9d42ee041"
      ],
      "songtypes": [
        "f02ad9b3-0bd9-4aad-85b3-9976739ba0e4"
      ],
      "songwriters": [
        "8c03deb2-503d-4c95-b6ae-3199751dbb46",
        "a372bd40-7a4f-47d1-af15-0d97760a45ec"
      ],
      "versions": [
        "03e1e1d2-8641-47b7-bbcb-39a3df9ff21c"
      ],
      "franchises": [
        "c6923c03-f8c0-4258-a478-8dfa08f3ccd0"
      ]
    },
    "titles": {
      "eng": "Pokemon Theme"
    },
    "titles_default_language": "eng",
    "titles_aliases": [],
    "year": 1998
  }
}