{
  "header": {
    "version": 4,
    "description": "Karaoke Mugen Karaoke Data File"
  },
  "medias": [
    {
      "version": "Default",
      "filename": "MUL - Pocket Monsters - OP1 - Gotta Catch 'Em All.mp4",
      "audiogain": -1.21,
      "loudnorm": "-15.60,-1.99,3.20,-25.68,-0.31",
      "filesize": 17805167,
      "duration": 73,
      "default": true,
      "lyrics": [
        {
          "filename": "MUL - Pocket Monsters - OP1 - Gotta Catch 'Em All.ass",
          "default": true,
          "version": "Default",
          "subchecksum": "04955f2eab2f3a5837fa32c2227608db"
        }
      ]
    }
  ],
  "data": {
    "created_at": "2017-10-11T17:03:16.000Z",
    "kid": "96963009-c6e8-4f63-a9e1-d4ba960a8111",
    "modified_at": "2021-02-25T13:49:00.302Z",
    "repository": "kara.moe",
    "songorder": 1,
    "tags": {
      "authors": [
        "5e93f02a-bcd1-40a9-ba7a-91ada6683aea"
      ],
      "collections": [
        "c7db86a0-ff64-4044-9be4-66dd1ef1d1c1"
      ],
      "creators": [
        "03fe574b-c7f5-4520-96dc-47320c39e2cc"
      ],
      "families": [
        "0377db02-3af6-43b8-9b08-c759df3d25c3"
      ],
      "genres": [
        "a0aeef4a-6428-45ff-a6e1-468b595930c2"
      ],
      "groups": [
        "24db50aa-a126-4d34-a48a-e45db79c4245",
        "f5e7d2fc-0cbb-4fb9-a84a-b25dfb0e9e77"
      ],
      "langs": [
        "1a23082a-620c-4bd8-9930-64d1798515c1"
      ],
      "origins": [
        "938de218-5343-4865-94d3-fb33f2eaa152"
      ],
      "series": [
        "cc1f8e40-71a2-4097-9bcf-7132b4b19ef7"
      ],
      "singers": [
        "01065c01-7fef-4f21-928d-0295b9f98884"
      ],
      "songtypes": [
        "f02ad9b3-0bd9-4aad-85b3-9976739ba0e4"
      ],
      "songwriters": [
        "01065c01-7fef-4f21-928d-0295b9f98884"
      ],
      "franchises": [
        "c6923c03-f8c0-4258-a478-8dfa08f3ccd0"
      ]
    },
    "title": "Gotta Catch 'Em All",
    "titles": {
      "eng": "Gotta Catch 'Em All"
    },
    "year": 1998
  }
}