{
  "header": {
    "version": 4,
    "description": "Karaoke Mugen Karaoke Data File"
  },
  "medias": [
    {
      "version": "Default",
      "filename": "RUS - Suzumiya Haruhi no Yuuutsu - ED1 - Hare Hare Yukai.mp4",
      "audiogain": -2.94,
      "loudnorm": "-14.83,-4.02,4.40,-24.92,-0.69",
      "filesize": 10273575,
      "duration": 65,
      "default": true,
      "lyrics": [
        {
          "filename": "RUS - Suzumiya Haruhi no Yuuutsu - ED1 - Hare Hare Yukai.ass",
          "default": true,
          "version": "Default",
          "subchecksum": "31a4749ec34505adf7d4f300f0e4da11"
        }
      ]
    }
  ],
  "data": {
    "created_at": "2021-01-16T14:47:01.932Z",
    "kid": "2f085c2a-6c7d-40db-ab3d-9240fd499a74",
    "modified_at": "2021-02-25T13:49:24.749Z",
    "parents": [
      "2fea8b45-38ba-40ed-b2ca-100c0328c95c"
    ],
    "repository": "kara.moe",
    "songorder": 1,
    "tags": {
      "authors": [
        "9f3384cb-3e04-4f0d-9e4b-4999c80966bc"
      ],
      "collections": [
        "c7db86a0-ff64-4044-9be4-66dd1ef1d1c1"
      ],
      "creators": [
        "d93786af-5098-49b2-9928-37edfb3d0322"
      ],
      "families": [
        "0377db02-3af6-43b8-9b08-c759df3d25c3"
      ],
      "groups": [
        "3c14c864-533c-49e6-a3cc-6969f1233775"
      ],
      "langs": [
        "f7ac64d8-9317-45b9-a4b4-cf32e4eb527a"
      ],
      "origins": [
        "938de218-5343-4865-94d3-fb33f2eaa152"
      ],
      "series": [
        "4f132535-c7b6-4147-a324-6995aad44df7"
      ],
      "singers": [
        "c291c52e-e2c7-4c3d-b447-9373eed6450f"
      ],
      "songtypes": [
        "38c77c56-2b95-4040-b676-0994a8cb0597"
      ],
      "songwriters": [
        "4f8ba040-1f56-4340-807d-eefa481ae17f",
        "e27989e9-c584-49b6-aa61-0a16904f6a39",
        "f41e7218-6c19-4e19-9b5f-4612dcd58243"
      ],
      "franchises": [
        "4f132535-c7b6-4147-a324-6995aad44df7"
      ]
    },
    "title": "Hare Hare Yukai",
    "titles": {
      "eng": "Hare Hare Yukai"
    },
    "year": 2006
  }
}