{
  "header": {
    "version": 4,
    "description": "Karaoke Mugen Karaoke Data File"
  },
  "medias": [
    {
      "version": "Default",
      "filename": "RUS - Ookami to Koushinryou - OP1 - Tabi no Tochuu.mp4",
      "audiogain": -1.97,
      "loudnorm": "-15.62,-2.03,5.60,-25.80,-1.67",
      "filesize": 6225318,
      "duration": 86,
      "default": true,
      "lyrics": [
        {
          "filename": "RUS - Ookami to Koushinryou - OP1 - Tabi no Tochuu.ass",
          "default": true,
          "version": "Default"
        }
      ]
    }
  ],
  "data": {
    "created_at": "2021-01-16T14:47:01.932Z",
    "ignoreHooks": false,
    "kid": "97e0777f-3b60-40b9-a8a3-6b2d372b7065",
    "modified_at": "2022-09-30T21:30:02.100Z",
    "parents": [
      "585274cc-4e4c-4610-8405-99cf5660b1e8"
    ],
    "repository": "kara.moe",
    "songorder": 1,
    "tags": {
      "authors": [
        "9f3384cb-3e04-4f0d-9e4b-4999c80966bc"
      ],
      "collections": [
        "c7db86a0-ff64-4044-9be4-66dd1ef1d1c1"
      ],
      "creators": [
        "09527d8b-d9b0-4f2e-96d5-e988b62ac7d8"
      ],
      "families": [
        "0377db02-3af6-43b8-9b08-c759df3d25c3"
      ],
      "groups": [
        "3c14c864-533c-49e6-a3cc-6969f1233775"
      ],
      "langs": [
        "f7ac64d8-9317-45b9-a4b4-cf32e4eb527a"
      ],
      "origins": [
        "938de218-5343-4865-94d3-fb33f2eaa152"
      ],
      "series": [
        "95925674-a1b6-44d2-8710-c64961f5d700"
      ],
      "singers": [
        "1f7e0369-8b75-4f52-89b2-d23430b9e514"
      ],
      "songtypes": [
        "f02ad9b3-0bd9-4aad-85b3-9976739ba0e4"
      ],
      "songwriters": [
        "7664026b-aca9-4ecd-8156-bb5a60d17cde"
      ],
      "franchises": [
        "95925674-a1b6-44d2-8710-c64961f5d700"
      ]
    },
    "titles": {
      "jpn": "旅の途中",
      "qro": "Tabi no Tochû"
    },
    "titles_default_language": "qro",
    "title": "Tabi no Tochû",
    "year": 2008,
    "titles_aliases": [
      "Tochuu"
    ]
  }
}