{
  "header": {
    "version": 4,
    "description": "Karaoke Mugen Karaoke Data File"
  },
  "medias": [
    {
      "version": "Default",
      "filename": "RUS - Suzumiya Haruhi no Yuuutsu - OP2 - Bouken Deshou Deshou question_mark.mp4",
      "audiogain": -3.95,
      "loudnorm": "-14.14,-1.21,2.30,-24.32,-0.13",
      "filesize": 18008020,
      "duration": 85,
      "default": true,
      "lyrics": [
        {
          "filename": "RUS - Suzumiya Haruhi no Yuuutsu - OP2 - Bouken Deshou Deshou question_mark.ass",
          "default": true,
          "version": "Default"
        }
      ]
    }
  ],
  "data": {
    "created_at": "2021-01-20T23:25:22.349Z",
    "ignoreHooks": false,
    "kid": "505653bd-d554-47f4-91e5-3e291262f429",
    "modified_at": "2022-10-14T22:23:21.475Z",
    "parents": [
      "62bfcd0e-7dea-4789-9e5e-462dc34bec95"
    ],
    "repository": "kara.moe",
    "songorder": 2,
    "tags": {
      "authors": [
        "9f3384cb-3e04-4f0d-9e4b-4999c80966bc"
      ],
      "collections": [
        "c7db86a0-ff64-4044-9be4-66dd1ef1d1c1"
      ],
      "creators": [
        "d93786af-5098-49b2-9928-37edfb3d0322"
      ],
      "families": [
        "0377db02-3af6-43b8-9b08-c759df3d25c3"
      ],
      "groups": [
        "3c14c864-533c-49e6-a3cc-6969f1233775"
      ],
      "langs": [
        "f7ac64d8-9317-45b9-a4b4-cf32e4eb527a"
      ],
      "origins": [
        "938de218-5343-4865-94d3-fb33f2eaa152"
      ],
      "series": [
        "4f132535-c7b6-4147-a324-6995aad44df7"
      ],
      "singers": [
        "1d63b895-0f98-4041-8594-76b73e68963e"
      ],
      "songtypes": [
        "f02ad9b3-0bd9-4aad-85b3-9976739ba0e4"
      ],
      "songwriters": [
        "30e4f047-50d7-4ed7-8ed3-57cef0f20489",
        "61e42b65-cfc0-433c-b2b4-ec9e365d3fe1"
      ],
      "franchises": [
        "4f132535-c7b6-4147-a324-6995aad44df7"
      ]
    },
    "titles": {
      "jpn": "冒険でしょでしょ?",
      "qro": "Bôken Deshô Deshô?"
    },
    "titles_default_language": "qro",
    "titles_aliases": [
      "Bouken",
      "Deshou",
      "Deshou?"
    ],
    "title": "Bôken Deshô Deshô?",
    "year": 2006
  }
}