{
  "header": {
    "version": 4,
    "description": "Karaoke Mugen Karaoke Data File"
  },
  "medias": [
    {
      "version": "Lena Ruiz.",
      "filename": "SPA - Touhou - MV - Bad Apple!! ~ Lena Ruiz Vers. ~ Cover Vers.mp4",
      "audiogain": -10.29,
      "loudnorm": "-6.61,1.97,4.00,-16.66,-0.82",
      "filesize": 16549157,
      "duration": 219,
      "default": true,
      "lyrics": [
        {
          "filename": "SPA - Touhou - MV - Bad Apple!! ~ Lena Ruiz Vers. ~ Cover Vers.ass",
          "default": true,
          "version": "Default"
        }
      ]
    }
  ],
  "data": {
    "created_at": "2017-10-11T17:01:42.000Z",
    "ignoreHooks": false,
    "kid": "7f07c62a-f7d4-469c-a719-0b8292a2635d",
    "modified_at": "2022-09-17T21:20:51.964Z",
    "parents": [
      "c8e61289-31fd-430a-8a56-f0ed95f84d50"
    ],
    "repository": "kara.moe",
    "tags": {
      "authors": [
        "5bdaba57-27f8-4568-8806-76a807728766"
      ],
      "collections": [
        "c7db86a0-ff64-4044-9be4-66dd1ef1d1c1"
      ],
      "creators": [
        "dcab7259-efff-4dd3-917c-aec97652b5df",
        "d57e7ffa-d32f-41d8-b909-5b10126283f4"
      ],
      "families": [
        "0377db02-3af6-43b8-9b08-c759df3d25c3"
      ],
      "groups": [
        "ae613721-1fbe-480d-ba6b-d6d0702b184d"
      ],
      "langs": [
        "11e9665f-f813-4495-bced-7ef9422cc992"
      ],
      "series": [
        "1bdaa5a1-dfa6-4365-b746-7a0b194dafd6"
      ],
      "singers": [
        "72b07022-9e4f-4bcb-b7ab-22b74db74373"
      ],
      "songtypes": [
        "7be1b15c-cff8-4b37-a649-5c90f3d569a9"
      ],
      "songwriters": [
        "161b51ee-adbb-4e39-84c6-bde865a368bf",
        "26cb5252-8510-49e0-897c-a611a05fc056",
        "9607f3c8-c583-4471-9075-308f46745afd"
      ],
      "versions": [
        "03e1e1d2-8641-47b7-bbcb-39a3df9ff21c"
      ],
      "franchises": [
        "1bdaa5a1-dfa6-4365-b746-7a0b194dafd6"
      ]
    },
    "titles": {
      "eng": "Bad Apple!! ~ Lena Ruiz Vers."
    },
    "titles_default_language": "eng",
    "title": "Bad Apple!! ~ Lena Ruiz Vers.",
    "year": 2011
  }
}