{
  "header": {
    "version": 4,
    "description": "Karaoke Mugen Karaoke Data File"
  },
  "medias": [
    {
      "version": "Default",
      "filename": "SWE - Legend of Mana - PSX GAME OP - Song of Mana.mp4",
      "audiogain": -0.55,
      "loudnorm": "-17.80,-5.68,6.50,-28.00,-0.92",
      "filesize": 16769380,
      "duration": 165,
      "default": true,
      "lyrics": [
        {
          "filename": "SWE - Legend of Mana - PSX GAME OP - Song of Mana.ass",
          "default": true,
          "version": "Default",
          "subchecksum": "5e986e00d36fd4c41125eff37853c597"
        }
      ]
    }
  ],
  "data": {
    "created_at": "2017-10-11T17:01:07.000Z",
    "kid": "24d958cb-d48a-46ab-86fc-773501a717b4",
    "modified_at": "2021-02-25T13:49:42.199Z",
    "repository": "kara.moe",
    "tags": {
      "authors": [
        "2a9bbf75-0722-4b4a-9935-caa92f38fdd1"
      ],
      "collections": [
        "c7db86a0-ff64-4044-9be4-66dd1ef1d1c1"
      ],
      "creators": [
        "11259605-6535-4a8f-8156-6aaa1e81c4af"
      ],
      "groups": [
        "24db50aa-a126-4d34-a48a-e45db79c4245"
      ],
      "langs": [
        "f1256048-84f3-4b51-8f5d-ce5e9da20c98"
      ],
      "platforms": [
        "f84b68ac-943a-495a-9c6e-d90ec959b19e"
      ],
      "series": [
        "1d7863c9-491c-49a4-9fb4-9adfc12e0db8"
      ],
      "singers": [
        "75a6b624-cb29-432a-ae4d-06229bc1c0b8"
      ],
      "songtypes": [
        "f02ad9b3-0bd9-4aad-85b3-9976739ba0e4"
      ],
      "songwriters": [
        "89a16e38-c118-4d76-95a6-4f4ce55792bb"
      ],
      "origins": [
        "dbedd6b3-d125-4cd8-aa32-c4175e4ca3a3"
      ]
    },
    "title": "Song of Mana",
    "titles": {
      "eng": "Song of Mana"
    },
    "year": 1999
  }
}