{
  "header": {
    "description": "Karaoke Mugen Tag File",
    "version": 1
  },
  "tag": {
    "i18n": {
      "eng": "(G)I-DLE"
    },
    "name": "(G)I-DLE",
    "repository": "kara.moe",
    "tid": "963b5ad3-acc1-44b3-bcbd-ed3d36d490a4",
    "types": [
      "singergroups",
      "17"
    ]
  }
}