{
  "header": {
    "description": "Karaoke Mugen Tag File",
    "version": 1
  },
  "tag": {
    "i18n": {
      "eng": "(The Gregory Brothers') Song Voyage"
    },
    "modified_at": "2020-03-31T19:04:30.860Z",
    "name": "(The Gregory Brothers') Song Voyage",
    "repository": "kara.moe",
    "tid": "34b70bb2-854d-44bf-a9bd-8a5f68c94e18",
    "types": [
      "series",
      "1"
    ]
  }
}