{
  "header": {
    "description": "Karaoke Mugen Tag File",
    "version": 1
  },
  "tag": {
    "i18n": {
      "eng": "-xuě dǐng táozi-"
    },
    "name": "-xuě dǐng táozi-",
    "repository": "kara.moe",
    "tid": "df99016c-820f-41d2-9e38-72a99d397075",
    "types": [
      "creators",
      "4"
    ]
  }
}