{
  "header": {
    "description": "Karaoke Mugen Tag File",
    "version": 1
  },
  "tag": {
    "i18n": {
      "eng": "07th Expansion"
    },
    "name": "07th Expansion",
    "tid": "ee8900e9-5aee-4872-9093-0b5ce99c363c",
    "types": [
      "creators",
      "4"
    ],
    "repository": "kara.moe",
    "modified_at": "2020-03-31T19:04:33.222Z"
  }
}