{
  "header": {
    "description": "Karaoke Mugen Tag File",
    "version": 1
  },
  "tag": {
    "aliases": [
      "100kai Outo",
      "100 回嘔吐"
    ],
    "i18n": {
      "jpn": "100回嘔吐",
      "qro": "100kaiOuto"
    },
    "name": "100kaiOuto",
    "repository": "kara.moe",
    "tid": "c83db176-81d3-42fe-bd43-daaa2790da33",
    "types": [
      "songwriters",
      "8"
    ]
  }
}