{
  "header": {
    "description": "Karaoke Mugen Tag File",
    "version": 1
  },
  "tag": {
    "i18n": {
      "eng": "100pseudo"
    },
    "name": "100pseudo",
    "repository": "kara.moe",
    "tid": "ee72054d-33b0-49f6-8831-8214c42d17a6",
    "types": [
      "singers",
      "2"
    ]
  }
}