{
  "header": {
    "description": "Karaoke Mugen Tag File",
    "version": 1
  },
  "tag": {
    "i18n": {
      "eng": "1171"
    },
    "name": "1171",
    "repository": "kara.moe",
    "tid": "b15e6b6a-ff9b-4318-b008-a79a74791683",
    "types": [
      "songwriters",
      "8"
    ]
  }
}