{
  "header": {
    "description": "Karaoke Mugen Tag File",
    "version": 1
  },
  "tag": {
    "aliases": [
      "Sin Damnation and the Atonement Girl"
    ],
    "i18n": {
      "eng": "11eyes -Tsumi to Batsu to Aganai no Shoujo-",
      "jpn": "11eyes－罪と罰と贖いの少女－",
      "qro": "11eyes -Tsumi to Batsu to Aganai no Shoujo-"
    },
    "modified_at": "2020-03-31T19:04:30.861Z",
    "name": "11eyes -Tsumi to Batsu to Aganai no Shoujo-",
    "repository": "kara.moe",
    "tid": "153449fb-69f4-4b35-a13b-22e1a544bc54",
    "types": [
      "series",
      "1"
    ]
  }
}