{
  "header": {
    "description": "Karaoke Mugen Tag File",
    "version": 1
  },
  "tag": {
    "i18n": {
      "eng": "12012"
    },
    "name": "12012",
    "tid": "af439e38-29fd-42ce-93d6-4d9835c5e387",
    "types": [
      "singers",
      "2"
    ],
    "repository": "kara.moe",
    "modified_at": "2020-03-31T19:04:33.222Z"
  }
}