{
  "header": {
    "description": "Karaoke Mugen Tag File",
    "version": 1
  },
  "tag": {
    "i18n": {
      "eng": "13_14"
    },
    "modified_at": "2020-08-18T22:30:38.916Z",
    "name": "13_14",
    "repository": "kara.moe",
    "tid": "46f3eba4-65f1-4bc1-b975-d10892760ce3",
    "types": [
      "authors",
      "6"
    ]
  }
}