{
  "header": {
    "description": "Karaoke Mugen Tag File",
    "version": 1
  },
  "tag": {
    "i18n": {
      "eng": "1Nm8"
    },
    "name": "1Nm8",
    "repository": "kara.moe",
    "tid": "bfe8c920-fa51-4573-ab47-93402a687e75",
    "types": [
      "singergroups",
      "17"
    ]
  }
}