{
  "header": {
    "description": "Karaoke Mugen Tag File",
    "version": 1
  },
  "tag": {
    "i18n": {
      "eng": "2 LUV"
    },
    "name": "2 LUV",
    "tid": "fc7382c9-0713-44fe-916d-189a773a5842",
    "types": [
      "singers",
      "2"
    ],
    "repository": "kara.moe",
    "modified_at": "2020-03-31T19:04:33.227Z"
  }
}