{
  "header": {
    "description": "Karaoke Mugen Tag File",
    "version": 1
  },
  "tag": {
    "i18n": {
      "eng": "2 Unlimited"
    },
    "name": "2 Unlimited",
    "repository": "kara.moe",
    "tid": "cd1aed5a-0493-4043-8ae8-9451a8b73410",
    "types": [
      "singers",
      "2"
    ]
  }
}