{
  "header": {
    "description": "Karaoke Mugen Tag File",
    "version": 1
  },
  "tag": {
    "i18n": {
      "eng": "2216cm"
    },
    "modified_at": "2021-01-25T21:08:39.976Z",
    "name": "2216cm",
    "repository": "kara.moe",
    "tid": "3c825fd4-7eac-4dbc-a6eb-4a81d3c266c9",
    "types": [
      "songwriters",
      "8"
    ]
  }
}