{
  "header": {
    "description": "Karaoke Mugen Tag File",
    "version": 1
  },
  "tag": {
    "i18n": {
      "eng": "2P"
    },
    "name": "2P",
    "repository": "kara.moe",
    "tid": "2732ad11-6c8c-4c30-ac5a-36b3829f63c1",
    "types": [
      "creators",
      "4"
    ]
  }
}