{
  "header": {
    "description": "Karaoke Mugen Tag File",
    "version": 1
  },
  "tag": {
    "i18n": {
      "eng": "3 Nen E Gumi Utatan"
    },
    "name": "3 Nen E Gumi Utatan",
    "tid": "80941abb-e2fd-46a0-a710-29832817b9c2",
    "types": [
      "singers",
      "2"
    ],
    "repository": "kara.moe",
    "modified_at": "2020-03-31T19:04:33.233Z"
  }
}