{
  "header": {
    "description": "Karaoke Mugen Tag File",
    "version": 1
  },
  "tag": {
    "i18n": {
      "eng": "315 STARS"
    },
    "name": "315 STARS",
    "tid": "9d3273ad-d07e-4fa3-a787-3b5c977c859b",
    "types": [
      "singers",
      "2"
    ],
    "repository": "kara.moe",
    "modified_at": "2020-03-31T19:04:33.234Z"
  }
}