{
  "header": {
    "description": "Karaoke Mugen Tag File",
    "version": 1
  },
  "tag": {
    "i18n": {
      "eng": "3tuiro"
    },
    "modified_at": "2021-03-06T15:43:21.241Z",
    "name": "3tuiro",
    "repository": "kara.moe",
    "tid": "a4fb015c-0881-4a6b-971d-b53f9d3ba1b1",
    "types": [
      "creators",
      "4"
    ]
  }
}