{
  "header": {
    "description": "Karaoke Mugen Tag File",
    "version": 1
  },
  "tag": {
    "i18n": {
      "eng": "4096"
    },
    "name": "4096",
    "repository": "kara.moe",
    "tid": "f64856da-048f-4e5a-831d-0277315bfbfd",
    "types": [
      "creators",
      "4"
    ]
  }
}