{
  "header": {
    "description": "Karaoke Mugen Tag File",
    "version": 1
  },
  "tag": {
    "i18n": {
      "eng": "4Kids Entertainment"
    },
    "modified_at": "2021-10-15T17:36:55.630Z",
    "name": "4Kids Entertainment",
    "repository": "kara.moe",
    "tid": "8a5a865d-b786-4a98-853d-cc340d79b95f",
    "types": [
      "creators",
      "4"
    ]
  }
}