{
  "header": {
    "description": "Karaoke Mugen Tag File",
    "version": 1
  },
  "tag": {
    "i18n": {
      "eng": "5pb."
    },
    "name": "5pb.",
    "tid": "7a8ad2ad-018d-4341-9be4-77bfc39a6edd",
    "types": [
      "creators",
      "4"
    ],
    "repository": "kara.moe",
    "modified_at": "2020-03-31T19:04:33.242Z"
  }
}