{
  "header": {
    "description": "Karaoke Mugen Tag File",
    "version": 1
  },
  "tag": {
    "i18n": {
      "eng": "5yncri5e!"
    },
    "name": "5yncri5e!",
    "repository": "kara.moe",
    "tid": "bb338b55-f931-463e-976b-9095d5baf831",
    "types": [
      "singergroups",
      "17"
    ]
  }
}