{
  "header": {
    "description": "Karaoke Mugen Tag File",
    "version": 1
  },
  "tag": {
    "i18n": {
      "eng": "6coups6mouches"
    },
    "name": "6coups6mouches",
    "tid": "b98ba9af-c254-4a23-970a-657fa3c7efcb",
    "types": [
      "songwriters",
      "8"
    ],
    "repository": "kara.moe",
    "modified_at": "2020-03-31T19:04:33.244Z"
  }
}