{
  "header": {
    "description": "Karaoke Mugen Tag File",
    "version": 1
  },
  "tag": {
    "i18n": {
      "eng": "70s"
    },
    "name": "70s",
    "tid": "57e5e0c0-e02e-4871-a6cb-d48ea604ebab",
    "types": [
      "groups",
      "9"
    ],
    "repository": "kara.moe",
    "modified_at": "2020-03-31T19:04:33.246Z"
  }
}