{
  "header": {
    "description": "Karaoke Mugen Tag File",
    "version": 1
  },
  "tag": {
    "i18n": {
      "eng": "765PRO ALLSTARS"
    },
    "name": "765PRO ALLSTARS",
    "repository": "kara.moe",
    "tid": "6b9e0c83-60db-4f0f-bf10-63c37a8198d6",
    "types": [
      "singergroups",
      "17"
    ]
  }
}