{
  "header": {
    "description": "Karaoke Mugen Tag File",
    "version": 1
  },
  "tag": {
    "i18n": {
      "eng": "7chiKo♪"
    },
    "name": "7chiKo♪",
    "tid": "f9967857-8633-4c0e-b2dd-5bd2c327f2cd",
    "types": [
      "songwriters",
      "8"
    ],
    "repository": "kara.moe",
    "modified_at": "2020-03-31T19:04:33.247Z"
  }
}