{
  "header": {
    "description": "Karaoke Mugen Tag File",
    "version": 1
  },
  "tag": {
    "i18n": {
      "eng": "7HOUSE"
    },
    "name": "7HOUSE",
    "tid": "a2342c97-91ba-4466-b60b-bacbac1ca21c",
    "types": [
      "singers",
      "2"
    ],
    "repository": "kara.moe",
    "modified_at": "2020-03-31T19:04:33.247Z"
  }
}