{
  "header": {
    "description": "Karaoke Mugen Tag File",
    "version": 1
  },
  "tag": {
    "i18n": {
      "eng": "876 PRO ALLSTARS"
    },
    "name": "876 PRO ALLSTARS",
    "tid": "1a7dfbe0-3508-4786-8973-90213b902717",
    "types": [
      "singers",
      "2"
    ],
    "repository": "kara.moe",
    "modified_at": "2020-03-31T19:04:33.251Z"
  }
}