{
  "header": {
    "description": "Karaoke Mugen Tag File",
    "version": 1
  },
  "tag": {
    "i18n": {
      "eng": "_Rai28"
    },
    "name": "_Rai28",
    "repository": "kara.moe",
    "tid": "89d7a16f-336d-4afe-a28c-42a99c5c6a46",
    "types": [
      "creators",
      "4"
    ]
  }
}