{
  "header": {
    "description": "Karaoke Mugen Tag File",
    "version": 1
  },
  "tag": {
    "i18n": {
      "eng": "A Bone"
    },
    "name": "A Bone",
    "tid": "62a122d3-94d5-4408-8753-a836459a226b",
    "types": [
      "songwriters",
      "8"
    ],
    "repository": "kara.moe",
    "modified_at": "2020-03-31T19:04:33.259Z"
  }
}