{
  "header": {
    "description": "Karaoke Mugen Tag File",
    "version": 1
  },
  "tag": {
    "i18n": {
      "eng": "A Fine Frenzy"
    },
    "modified_at": "2020-09-27T12:05:13.250Z",
    "name": "A Fine Frenzy",
    "repository": "kara.moe",
    "tid": "fcbc404d-2fc7-4aee-8dc2-17a1dff1a781",
    "types": [
      "singers",
      "2"
    ]
  }
}