{
  "header": {
    "description": "Karaoke Mugen Tag File",
    "version": 1
  },
  "tag": {
    "i18n": {
      "eng": "a-ha"
    },
    "modified_at": "2020-06-01T15:24:33.185Z",
    "name": "a-ha",
    "repository": "kara.moe",
    "tid": "060879f4-9598-47fa-b4ac-5336ff90827a",
    "types": [
      "singers",
      "2"
    ]
  }
}