{
  "header": {
    "description": "Karaoke Mugen Tag File",
    "version": 1
  },
  "tag": {
    "i18n": {
      "eng": "A-JARI"
    },
    "name": "A-JARI",
    "tid": "54d54fb1-fa40-4eab-9397-249efaeba9b2",
    "types": [
      "singers",
      "2",
      "songwriters",
      "8"
    ],
    "repository": "kara.moe",
    "modified_at": "2020-03-31T19:04:33.260Z"
  }
}