{
  "header": {
    "description": "Karaoke Mugen Tag File",
    "version": 1
  },
  "tag": {
    "i18n": {
      "eng": "a-li"
    },
    "modified_at": "2020-04-17T23:06:14.582Z",
    "name": "a-li",
    "repository": "kara.moe",
    "tid": "5c9b7668-a630-4f15-9a57-5e3b7b4e06b5",
    "types": [
      "singers",
      "2"
    ]
  }
}