{
  "header": {
    "description": "Karaoke Mugen Tag File",
    "version": 1
  },
  "tag": {
    "i18n": {
      "eng": "A-NOTE"
    },
    "name": "A-NOTE",
    "repository": "kara.moe",
    "tid": "a1a21bf1-1ad0-42fb-8c22-08e43c7d482b",
    "types": [
      "songwriters",
      "8"
    ]
  }
}