{
  "header": {
    "description": "Karaoke Mugen Tag File",
    "version": 1
  },
  "tag": {
    "i18n": {
      "eng": "A.O.I."
    },
    "name": "A.O.I.",
    "repository": "kara.moe",
    "tid": "e4c455ae-6278-46f0-be2a-5d4649de9f79",
    "types": [
      "songwriters",
      "8"
    ]
  }
}