{
  "header": {
    "description": "Karaoke Mugen Tag File",
    "version": 1
  },
  "tag": {
    "aliases": [
      "Another Push Pin Planning Company"
    ],
    "i18n": {
      "eng": "A.P.P.P.",
      "jpn": "アナザープッシュピンプランニング",
      "qro": "A.P.P.P."
    },
    "modified_at": "2021-03-09T15:27:58.585Z",
    "name": "A.P.P.P.",
    "repository": "kara.moe",
    "tid": "c47de6e0-9734-4ed3-9732-caf1b05f2d1e",
    "types": [
      "creators",
      "4"
    ]
  }
}