{
  "header": {
    "description": "Karaoke Mugen Tag File",
    "version": 1
  },
  "tag": {
    "i18n": {
      "jpn": "アズナ",
      "qro": "A・ZU・NA"
    },
    "name": "A・ZU・NA",
    "repository": "kara.moe",
    "tid": "bb9989c8-4c91-464c-9267-b453af9ec286",
    "types": [
      "singergroups",
      "17"
    ]
  }
}