{
  "header": {
    "description": "Karaoke Mugen Tag File",
    "version": 1
  },
  "tag": {
    "i18n": {
      "eng": "A2c"
    },
    "modified_at": "2020-04-18T17:12:33.161Z",
    "name": "A2c",
    "repository": "kara.moe",
    "tid": "0ac070d5-931f-402c-89d7-9b0526912fe8",
    "types": [
      "songwriters",
      "8"
    ]
  }
}