{
  "header": {
    "description": "Karaoke Mugen Tag File",
    "version": 1
  },
  "tag": {
    "aliases": [
      "Act! Addict! Actors!",
      "エースリー Season Spring & Summer"
    ],
    "external_database_ids": {
      "anilist": 107651,
      "myanimelist": 39184,
      "kitsu": 42146
    },
    "i18n": {
      "eng": "A3! Season Spring & Summer",
      "jpn": "A3! SEASON SPRING & SUMMER",
      "qro": "A3! Season Spring & Summer"
    },
    "modified_at": "2020-03-31T19:04:30.876Z",
    "name": "A3! Season Spring & Summer",
    "repository": "kara.moe",
    "tid": "9fa5a38c-da93-4cb3-a72f-e1e189cf8376",
    "types": [
      "series",
      "1"
    ]
  }
}