{
  "header": {
    "description": "Karaoke Mugen Tag File",
    "version": 1
  },
  "tag": {
    "i18n": {
      "eng": "A3ders!"
    },
    "name": "A3ders!",
    "repository": "kara.moe",
    "tid": "d9b9d3d6-dbcc-44ca-98ba-cd3a723bdc16",
    "types": [
      "singers",
      "2"
    ],
    "modified_at": "2020-03-31T19:04:33.267Z"
  }
}