{
  "header": {
    "description": "Karaoke Mugen Tag File",
    "version": 1
  },
  "tag": {
    "aliases": [
      "AA! Nữ thần của tôi: Đôi cánh chiến đấu",
      "Ah! My Goddess: Fighting Wings",
      "Ah! My Goddess: Tatakau Tsubasa",
      "我的女神 战斗之翼"
    ],
    "external_database_ids": {
      "anilist": 3090,
      "myanimelist": 3090,
      "kitsu": 2786
    },
    "i18n": {
      "eng": "Ah! My Goddess: Fighting Wings",
      "fre": "Ah! My Goddess: Fighting Wings",
      "jpn": "ああっ女神さまっ 闘う翼",
      "qro": "Aa! Megami-sama! Tatakau Tsubasa"
    },
    "modified_at": "2020-03-31T19:04:30.880Z",
    "name": "Aa! Megami-sama! Tatakau Tsubasa",
    "repository": "kara.moe",
    "tid": "c0ae15ae-5902-48e3-ab3c-7c720ec4d5a1",
    "types": [
      "series",
      "1"
    ]
  }
}