{
  "header": {
    "description": "Karaoke Mugen Tag File",
    "version": 1
  },
  "tag": {
    "i18n": {
      "eng": "AAAMYYY"
    },
    "name": "AAAMYYY",
    "repository": "kara.moe",
    "tid": "f5591df5-bb60-4d5e-a27a-1b9338d84b1e",
    "types": [
      "songwriters",
      "8",
      "singers",
      "2"
    ],
    "modified_at": "2020-03-31T19:04:33.270Z"
  }
}