{
  "header": {
    "description": "Karaoke Mugen Tag File",
    "version": 1
  },
  "tag": {
    "i18n": {
      "afr": "Ver",
      "amh": "አፋር",
      "ara": "بعيد",
      "aze": "Афар",
      "bak": "Афар",
      "bel": "Афар",
      "bul": "Афар",
      "ben": "বহুদূর",
      "bos": "Daleka",
      "cat": "De lluny",
      "cze": "Dálky",
      "wel": "Bell",
      "dan": "Afstand",
      "ger": "Der Ferne",
      "gre": "Μακριά",
      "eng": "Afar",
      "epo": "Malproksime",
      "spa": "Lejos",
      "est": "Kaugel",
      "baq": "Urrundik",
      "per": "دور",
      "fin": "Kaukaa",
      "fre": "Loin",
      "gle": "Afar",
      "gla": "Afar",
      "glg": "Lonxe",
      "guj": "આઘે",
      "heb": "מרחוק",
      "hin": "दूर",
      "hrv": "Afar",
      "hat": "Yon ti jan lwen",
      "hun": "Távolból",
      "arm": "Աֆար",
      "ind": "Jauh",
      "ice": "Fjarska",
      "ita": "Lontano",
      "jpn": "遠方",
      "jav": "Afar",
      "geo": "შორიდან",
      "kaz": "Афар",
      "kan": "ಬಲುದೂರಕ್ಕೆ",
      "kor": "멀리서",
      "kir": "Афар",
      "lat": "Longe",
      "lit": "Tolo",
      "lav": "Tālienes",
      "mlg": "Lavitra",
      "mao": "Tawhiti",
      "mac": "Далеку",
      "mal": "അക്കാനി",
      "mon": "Холоос",
      "mar": "खूप लांबून",
      "may": "Jauh",
      "mlt": "- Bogħod",
      "nep": "टाढाबाट",
      "dut": "Van verre",
      "nor": "Avstand",
      "pan": "ਅਜੇ ਦੂਰ",
      "pol": "Daleka",
      "por": "Longe",
      "rum": "Departe",
      "rus": "Афар",
      "sin": "දුර",
      "slo": "Diaľky",
      "slv": "Daleč",
      "alb": "Larg",
      "srp": "Афар",
      "sun": "Afar",
      "swe": "Avstånd",
      "swa": "Mbali",
      "tam": "தூரத்திலிருந்து",
      "tel": "దూరంగా",
      "tgk": "Афар",
      "tha": "ภาษาอะฟาร์ name",
      "tgl": "Sa kalayuan",
      "tur": "Afar",
      "tat": "Афар",
      "ukr": "Афар",
      "urd": "دور",
      "uzb": "Uzoqdan",
      "vie": "Afar",
      "xho": "Kude",
      "yid": "דער ווייַטן",
      "chi": "远道而来"
    },
    "name": "aar",
    "tid": "28b1e95f-ac01-4581-a59d-d8e6c8b7a10b",
    "types": [
      "langs",
      "5"
    ],
    "repository": "kara.moe",
    "modified_at": "2020-03-31T19:04:33.270Z"
  }
}