{
  "header": {
    "description": "Karaoke Mugen Tag File",
    "version": 1
  },
  "tag": {
    "i18n": {
      "eng": "ABBA"
    },
    "name": "ABBA",
    "repository": "kara.moe",
    "tid": "c0e2944a-bcc0-4d85-a70b-37681943c9d7",
    "types": [
      "singers",
      "2"
    ]
  }
}