{
  "header": {
    "description": "Karaoke Mugen Tag File",
    "version": 1
  },
  "tag": {
    "i18n": {
      "eng": "AC-bu"
    },
    "name": "AC-bu",
    "repository": "kara.moe",
    "tid": "4230f9c8-e495-46f9-b926-c5507a742cd7",
    "types": [
      "creators",
      "4"
    ],
    "modified_at": "2020-03-31T19:04:33.278Z"
  }
}