{
  "header": {
    "description": "Karaoke Mugen Tag File",
    "version": 1
  },
  "tag": {
    "i18n": {
      "eng": "ACCAMER"
    },
    "modified_at": "2020-10-10T20:13:39.432Z",
    "name": "ACCAMER",
    "repository": "kara.moe",
    "tid": "002e7491-d3f4-4d1d-b07f-d8121eb166ae",
    "types": [
      "singers",
      "2"
    ]
  }
}