{
  "header": {
    "description": "Karaoke Mugen Tag File",
    "version": 1
  },
  "tag": {
    "i18n": {
      "eng": "Acchu Iwata",
      "qro": "Acchu Iwata",
      "jpn": "岩田 アッチュ"
    },
    "name": "Acchu Iwata",
    "repository": "kara.moe",
    "tid": "3d9c01ba-2713-4b24-bab2-f3a8f9e496b0",
    "types": [
      "songwriters",
      "8"
    ]
  }
}