{
  "header": {
    "description": "Karaoke Mugen Tag File",
    "version": 1
  },
  "tag": {
    "i18n": {
      "eng": "Accorinrin"
    },
    "name": "Accorinrin",
    "repository": "kara.moe",
    "tid": "5ea51c66-4fd4-4642-9a51-a469ca41ca06",
    "types": [
      "songwriters",
      "8"
    ]
  }
}