{
  "header": {
    "description": "Karaoke Mugen Tag File",
    "version": 1
  },
  "tag": {
    "i18n": {
      "eng": "Achilles KEN"
    },
    "name": "Achilles KEN",
    "tid": "6159a525-0caa-4ff2-b54c-88111e456dbc",
    "types": [
      "songwriters",
      "8"
    ],
    "repository": "kara.moe",
    "modified_at": "2020-03-31T19:04:33.283Z"
  }
}