{
  "header": {
    "description": "Karaoke Mugen Tag File",
    "version": 1
  },
  "tag": {
    "i18n": {
      "eng": "ACID"
    },
    "name": "ACID",
    "tid": "35d83fbb-d7e4-4a70-a8e8-cc8833881065",
    "types": [
      "singers",
      "2"
    ],
    "repository": "kara.moe",
    "modified_at": "2020-03-31T19:04:33.285Z"
  }
}