{
  "header": {
    "description": "Karaoke Mugen Tag File",
    "version": 1
  },
  "tag": {
    "aliases": [
      "Active Raid Second",
      "Active Raid: Kidou Kyoushuushitsu Dai Hachi Gakari 2nd",
      "kidou",
      "kyoushuushitsu"
    ],
    "external_database_ids": {
      "anilist": 21534,
      "myanimelist": 32301,
      "kitsu": 11618
    },
    "i18n": {
      "eng": "Active Raid: Special Public Security Fifth Division Third Mobile Assault Eighth Unit 2nd ",
      "jpn": "アクティヴレイド – 機動強襲室第八係 – 2nd ",
      "qro": "Active Raid: Kidô Kyôshûshitsu Dai Hachi Gakari 2nd"
    },
    "modified_at": "2020-03-31T19:04:30.887Z",
    "name": "Active Raid: Kidô Kyôshûshitsu Dai Hachi Gakari 2nd",
    "repository": "kara.moe",
    "tid": "7f2a9149-e04e-4cd0-b45b-b0b7bde8ab9a",
    "types": [
      "series",
      "1"
    ]
  }
}