{
  "header": {
    "description": "Karaoke Mugen Tag File",
    "version": 1
  },
  "tag": {
    "i18n": {
      "eng": "Adam Young"
    },
    "modified_at": "2020-08-17T12:05:13.421Z",
    "name": "Adam Young",
    "repository": "kara.moe",
    "tid": "0f192f4e-f0ef-44ef-b9f1-93dfbf7cc469",
    "types": [
      "songwriters",
      "8"
    ]
  }
}