{
  "header": {
    "description": "Karaoke Mugen Tag File",
    "version": 1
  },
  "tag": {
    "i18n": {
      "eng": "Adassa"
    },
    "name": "Adassa",
    "repository": "kara.moe",
    "tid": "4de4cf04-5419-45d7-9905-2e3469e7fdd3",
    "types": [
      "singers",
      "2"
    ]
  }
}