{
  "header": {
    "description": "Karaoke Mugen Tag File",
    "version": 1
  },
  "tag": {
    "i18n": {},
    "name": "Adonero",
    "repository": "kara.moe",
    "tid": "29d9db83-e35c-4827-a807-10043014a0a1",
    "types": [
      "creators",
      "4"
    ]
  }
}