{
  "header": {
    "description": "Karaoke Mugen Tag File",
    "version": 1
  },
  "tag": {
    "i18n": {
      "eng": "Adrien Blaise"
    },
    "name": "Adrien Blaise",
    "repository": "kara.moe",
    "tid": "a04ce354-b7ea-4235-8199-324cabdd1c99",
    "types": [
      "songwriters",
      "8"
    ]
  }
}