{
  "header": {
    "description": "Karaoke Mugen Tag File",
    "version": 1
  },
  "tag": {
    "i18n": {
      "eng": "Adrian Bott"
    },
    "name": "Adrian Bott",
    "repository": "kara.moe",
    "tid": "05d6630f-78b1-4221-ac61-3aceb8b09857",
    "types": [
      "songwriters",
      "8"
    ]
  }
}