{
  "header": {
    "description": "Karaoke Mugen Tag File",
    "version": 1
  },
  "tag": {
    "i18n": {
      "eng": "Aeden"
    },
    "name": "Aeden",
    "tid": "611aa6ee-ebf8-4ef5-8eed-9f1eaec5117e",
    "types": [
      "authors",
      "6"
    ],
    "repository": "kara.moe",
    "modified_at": "2020-03-31T19:04:33.293Z"
  }
}