{
  "header": {
    "description": "Karaoke Mugen Tag File",
    "version": 1
  },
  "tag": {
    "i18n": {
      "afr": "Afrikaans",
      "amh": "አፍሪቃንስኛ",
      "ara": "الأفريكانية",
      "aze": "Afrikaans",
      "bak": "Африкаанс",
      "bel": "Афрыкаанс",
      "bul": "Африкаанс",
      "ben": "আফ্রিকানস",
      "bos": "Afrikanka",
      "cat": "Afrikaans",
      "cze": "Afrikánština",
      "wel": "Afrikaans",
      "dan": "Afrikaans",
      "ger": "Afrikaans",
      "gre": "Αφρικάανς",
      "eng": "Afrikaans",
      "epo": "Afrikansa",
      "spa": "Afrikaans",
      "est": "Afrikaani",
      "baq": "Afrikaans",
      "per": "آفریکانس",
      "fin": "Afrikaans",
      "fre": "Afrikaans",
      "gle": "Afracáinis",
      "gla": "Afraganais",
      "glg": "Afrikaans",
      "guj": "આફ્રિકન્સ",
      "heb": "אפריקאנס",
      "hin": "अफ्रीकांस",
      "hrv": "Afrikaans",
      "hat": "Afrikaans",
      "hun": "Afrikaans",
      "arm": "Աֆրիկանս",
      "ind": "Bahasa Afrikaans",
      "ice": "Enska",
      "ita": "Afrikaans",
      "jpn": "Afrikaans",
      "jav": "Afrikaan",
      "geo": "აფრიკაანსი",
      "kaz": "Бур",
      "kan": "ಆಫ್ರಿಕಾನ್ಸ್",
      "kor": "아프리칸스어",
      "kir": "Африкаанс",
      "lat": "Africa",
      "lit": "Afrikansas",
      "lav": "Afrikandu",
      "mlg": "Afrikaans",
      "mao": "Afrikaans",
      "mac": "Африкански",
      "mal": "ആഫ്രിക്കാൻസ്",
      "mon": "Африк",
      "mar": "अफ्रिकान्स",
      "may": "Bahasa afrika",
      "mlt": "}",
      "nep": "अफ्रिकी",
      "dut": "Afrikaans",
      "nor": "Afrikaans",
      "pan": "ਅਫ਼ਰੀਕਾਂਸ",
      "pol": "Afrikaans",
      "por": "Africanês",
      "rum": "Afrikaans",
      "rus": "Африкаанс",
      "sin": "අප්රිකානු",
      "slo": "Afrikánčina",
      "slv": "\" ",
      "alb": "Afrikanisht",
      "srp": "Африканс",
      "sun": "Afrikaans",
      "swe": "Afrikaans",
      "swa": "Kiafrikana",
      "tam": "ஆஃப்ரிகான்ஸ்",
      "tel": "ఆఫ్రికాన్స్",
      "tgk": "Африкаанс",
      "tha": "ภาษาแอฟริคานส์ name",
      "tgl": "Afrikaans",
      "tur": "Afrikanca",
      "tat": "Африкаанс",
      "ukr": "Африкаанс",
      "urd": "ایفریکانز",
      "uzb": "Afrikaans",
      "vie": "Nam phi",
      "xho": "Isibhulu",
      "yid": "אַפֿריקאַנס",
      "chi": "南非荷兰语"
    },
    "name": "afr",
    "tid": "47d63a9d-6c25-4182-9bc1-ac879ab5dcf0",
    "types": [
      "langs",
      "5"
    ],
    "repository": "kara.moe",
    "modified_at": "2020-03-31T19:04:33.296Z"
  }
}