{
  "header": {
    "description": "Karaoke Mugen Tag File",
    "version": 1
  },
  "tag": {
    "aliases": [
      "Afro Samurajus",
      "Афро Самурай"
    ],
    "external_database_ids": {
      "anilist": 1292,
      "myanimelist": 1292,
      "kitsu": 1165
    },
    "i18n": {
      "eng": "Afro Samurai",
      "fre": "Afro Samurai",
      "hun": "Afro Szamuráj",
      "jpn": "アフロサムライ",
      "pol": "Afrosamuraj",
      "por": "Afro Samurai",
      "rus": "Афросамурай",
      "qro": "Afro Samurai"
    },
    "modified_at": "2020-03-31T19:04:30.890Z",
    "name": "Afro Samurai",
    "repository": "kara.moe",
    "tid": "6256688b-4dba-4d3b-a581-9b5f0c81e46b",
    "types": [
      "series",
      "1"
    ]
  }
}