{
  "header": {
    "description": "Karaoke Mugen Tag File",
    "version": 1
  },
  "tag": {
    "i18n": {
      "eng": "Afrojack"
    },
    "name": "Afrojack",
    "repository": "kara.moe",
    "tid": "8048b05a-d7b4-47c5-b8c3-0cba1be36e92",
    "types": [
      "songwriters",
      "8"
    ]
  }
}