{
  "header": {
    "description": "Karaoke Mugen Tag File",
    "version": 1
  },
  "tag": {
    "i18n": {
      "eng": "Afromania"
    },
    "name": "Afromania",
    "tid": "ca3da0dd-f2e9-4c02-a28c-c1e0ae71fc99",
    "types": [
      "singers",
      "2"
    ],
    "repository": "kara.moe",
    "modified_at": "2020-03-31T19:04:33.297Z"
  }
}