{
  "header": {
    "description": "Karaoke Mugen Tag File",
    "version": 1
  },
  "tag": {
    "i18n": {
      "eng": "Aftermath Entertainment"
    },
    "name": "Aftermath Entertainment",
    "repository": "kara.moe",
    "tid": "63167bab-c3d9-48dc-83a5-2924f7620af4",
    "types": [
      "creators",
      "4"
    ]
  }
}