{
  "header": {
    "description": "Karaoke Mugen Tag File",
    "version": 1
  },
  "tag": {
    "external_database_ids": {},
    "i18n": {
      "jpn": "アガレスト戦記",
      "qro": "Agarest Senki"
    },
    "name": "Agarest Senki",
    "repository": "kara.moe",
    "tid": "922de679-f4ab-4748-ae81-7d76192a7614",
    "types": [
      "franchises",
      "18"
    ]
  }
}