{
  "header": {
    "description": "Karaoke Mugen Tag File",
    "version": 1
  },
  "tag": {
    "i18n": {
      "eng": "Agnete Kjølsrud"
    },
    "name": "Agnete Kjølsrud",
    "repository": "kara.moe",
    "tid": "4ad68cd3-d378-4c9f-89b9-ca428769c07b",
    "types": [
      "singers",
      "2"
    ]
  }
}