{
  "header": {
    "description": "Karaoke Mugen Tag File",
    "version": 1
  },
  "tag": {
    "i18n": {
      "eng": "Agoaniki-P"
    },
    "name": "Agoaniki-P",
    "repository": "kara.moe",
    "tid": "fc9b86c4-5c2f-4e71-b9f9-ab6aa61a4d43",
    "types": [
      "songwriters",
      "8",
      "creators",
      "4"
    ]
  }
}