{
  "header": {
    "description": "Karaoke Mugen Tag File",
    "version": 1
  },
  "tag": {
    "i18n": {
      "eng": "Agorila"
    },
    "name": "Agorila",
    "repository": "kara.moe",
    "tid": "c8e62894-f0c7-4f08-b26c-f1b43b9e06dc",
    "types": [
      "creators",
      "4"
    ]
  }
}