{
  "header": {
    "description": "Karaoke Mugen Tag File",
    "version": 1
  },
  "tag": {
    "aliases": [
      "Aharen Is Indecipherable",
      "Aharen Is Unfathomable"
    ],
    "external_database_ids": {
      "anilist": 137281,
      "kitsu": 44944,
      "myanimelist": 49520
    },
    "i18n": {
      "jpn": "阿波連さんははかれない",
      "qro": "Aharen-san wa Hakarenai"
    },
    "name": "Aharen-san wa Hakarenai",
    "repository": "kara.moe",
    "tid": "fb98523a-b113-4c96-93b2-7ab4d2fb528c",
    "types": [
      "series",
      "1"
    ]
  }
}