{
  "header": {
    "description": "Karaoke Mugen Tag File",
    "version": 1
  },
  "tag": {
    "i18n": {
      "eng": "AHIN"
    },
    "name": "AHIN",
    "repository": "kara.moe",
    "tid": "74b3da8b-c356-4696-b599-a9f33a2ae685",
    "types": [
      "songwriters",
      "8"
    ]
  }
}