{
  "header": {
    "description": "Karaoke Mugen Tag File",
    "version": 1
  },
  "tag": {
    "i18n": {
      "jpn": "樋口 愛",
      "qro": "Ai Higuchi"
    },
    "name": "Ai Higuchi",
    "repository": "kara.moe",
    "tid": "c369374e-c2be-47a3-b0d7-aa927cd64e3b",
    "types": [
      "singers",
      "2",
      "songwriters",
      "8"
    ]
  }
}