{
  "header": {
    "description": "Karaoke Mugen Tag File",
    "version": 1
  },
  "tag": {
    "i18n": {
      "eng": "Ai Kamano"
    },
    "name": "Ai Kamano",
    "tid": "4c0cf20b-8cff-4200-b2f7-2973df393814",
    "types": [
      "singers",
      "2"
    ],
    "repository": "kara.moe",
    "modified_at": "2020-03-31T19:04:33.304Z"
  }
}