{
  "header": {
    "description": "Karaoke Mugen Tag File",
    "version": 1
  },
  "tag": {
    "i18n": {
      "eng": "Ai Kakuma"
    },
    "name": "Ai Kakuma",
    "tid": "a1ecf5f5-c668-46fa-8bfe-a5085180b888",
    "types": [
      "singers",
      "2"
    ],
    "repository": "kara.moe",
    "modified_at": "2020-03-31T19:04:33.304Z"
  }
}