{
  "header": {
    "description": "Karaoke Mugen Tag File",
    "version": 1
  },
  "tag": {
    "i18n": {
      "eng": "Ai*Mei Gui"
    },
    "name": "Ai*Mei Gui",
    "tid": "1ab9e474-8a1f-4f8a-b1c2-dbaaf4d61296",
    "types": [
      "songwriters",
      "8"
    ],
    "repository": "kara.moe",
    "modified_at": "2020-03-31T19:04:33.307Z"
  }
}