{
  "header": {
    "description": "Karaoke Mugen Tag File",
    "version": 1
  },
  "tag": {
    "i18n": {
      "eng": "Ai Nonaka"
    },
    "name": "Ai Nonaka",
    "tid": "2b32d4b1-3b3a-4081-a3eb-a5ed652b9570",
    "types": [
      "singers",
      "2"
    ],
    "repository": "kara.moe",
    "modified_at": "2020-03-31T19:04:33.307Z"
  }
}