{
  "header": {
    "description": "Karaoke Mugen Tag File",
    "version": 1
  },
  "tag": {
    "i18n": {
      "eng": "Ai Otsuka"
    },
    "name": "Ai Otsuka",
    "tid": "7527572f-940e-471e-ad41-91600900baec",
    "types": [
      "singers",
      "2",
      "songwriters",
      "8"
    ],
    "repository": "kara.moe",
    "modified_at": "2020-03-31T19:04:33.309Z"
  }
}