{
  "header": {
    "description": "Karaoke Mugen Tag File",
    "version": 1
  },
  "tag": {
    "i18n": {
      "eng": "Ai Shimizu"
    },
    "name": "Ai Shimizu",
    "tid": "97870a7c-c04e-4fe5-83a4-542882d2c66d",
    "types": [
      "singers",
      "2"
    ],
    "repository": "kara.moe",
    "modified_at": "2020-03-31T19:04:33.309Z"
  }
}