{
  "header": {
    "description": "Karaoke Mugen Tag File",
    "version": 1
  },
  "tag": {
    "i18n": {
      "eng": "ai"
    },
    "name": "ai",
    "repository": "kara.moe",
    "tid": "66e32947-51bb-44f8-af5b-8c62d57d1a9c",
    "types": [
      "creators",
      "4"
    ]
  }
}