{
  "header": {
    "description": "Karaoke Mugen Tag File",
    "version": 1
  },
  "tag": {
    "i18n": {
      "eng": "Aidanoniwa"
    },
    "name": "Aidanoniwa",
    "repository": "kara.moe",
    "tid": "e81b3060-f8b2-400e-bd98-15a883032a6d",
    "types": [
      "creators",
      "4"
    ]
  }
}