{
  "header": {
    "description": "Karaoke Mugen Tag File",
    "version": 1
  },
  "tag": {
    "external_database_ids": {
      "anilist": 21648,
      "myanimelist": 32717,
      "kitsu": 11868
    },
    "i18n": {
      "eng": "Aikatsu Stars!",
      "jpn": "アイカツスターズ!",
      "kor": "아이카츠 스타즈!",
      "qro": "Aikatsu Stars!"
    },
    "modified_at": "2020-03-31T19:04:30.898Z",
    "name": "Aikatsu Stars!",
    "repository": "kara.moe",
    "tid": "8662068a-0e26-432e-9341-f695888d7214",
    "types": [
      "series",
      "1"
    ]
  }
}