{
  "header": {
    "description": "Karaoke Mugen Tag File",
    "version": 1
  },
  "tag": {
    "i18n": {
      "eng": "Aiko Ikuta"
    },
    "name": "Aiko Ikuta",
    "tid": "e8acb94e-a30b-4d8e-b0dc-6dee537fa78e",
    "types": [
      "singers",
      "2"
    ],
    "repository": "kara.moe",
    "modified_at": "2020-03-31T19:04:33.317Z"
  }
}