{
  "header": {
    "description": "Karaoke Mugen Tag File",
    "version": 1
  },
  "tag": {
    "i18n": {
      "eng": "Aimee Blackschleger"
    },
    "name": "Aimee Blackschleger",
    "tid": "764e85a2-4514-46a8-9379-b2b63d4734e7",
    "types": [
      "singers",
      "2"
    ],
    "repository": "kara.moe",
    "modified_at": "2020-03-31T19:04:33.322Z"
  }
}