{
  "header": {
    "description": "Karaoke Mugen Tag File",
    "version": 1
  },
  "tag": {
    "i18n": {
      "eng": "Aimer"
    },
    "name": "Aimer",
    "tid": "6cfc20ab-c855-4f24-8bed-0981e465630b",
    "types": [
      "singers",
      "2",
      "songwriters",
      "8"
    ],
    "repository": "kara.moe",
    "modified_at": "2020-03-31T19:04:33.322Z"
  }
}