{
  "header": {
    "description": "Karaoke Mugen Tag File",
    "version": 1
  },
  "tag": {
    "i18n": {
      "jpn": "田中 あいみ",
      "qro": "Aimi Tanaka"
    },
    "name": "Aimi Tanaka",
    "repository": "kara.moe",
    "tid": "1a0351fb-565c-4d34-874a-02b371fc8ff5",
    "types": [
      "singers",
      "2"
    ]
  }
}