{
  "header": {
    "description": "Karaoke Mugen Tag File",
    "version": 1
  },
  "tag": {
    "i18n": {
      "eng": "Aintunez"
    },
    "name": "Aintunez",
    "repository": "kara.moe",
    "tid": "40f3e146-3c4c-4444-81be-ac5215bee53e",
    "types": [
      "songwriters",
      "8"
    ]
  }
}