{
  "header": {
    "description": "Karaoke Mugen Tag File",
    "version": 1
  },
  "tag": {
    "aliases": [
      "AIR TV",
      "AIR 青空",
      "Air Natsu Tokubetsu-hen",
      "Gaiss",
      "Gökyüzü",
      "Powietrze",
      "airtv",
      "Въздух",
      "Высь",
      "Повітря",
      "ایئر",
      "هواء"
    ],
    "external_database_ids": {
      "anilist": 101,
      "myanimelist": 101,
      "kitsu": 7660
    },
    "i18n": {
      "eng": "Air",
      "jpn": "AIR",
      "qro": "Air"
    },
    "modified_at": "2020-03-31T19:04:30.903Z",
    "name": "Air",
    "repository": "kara.moe",
    "tid": "eaaff7c4-3d53-4efa-9f32-d8f24cf62d29",
    "types": [
      "series",
      "1",
      "franchises",
      "18"
    ]
  }
}