{
  "header": {
    "description": "Karaoke Mugen Tag File",
    "version": 1
  },
  "tag": {
    "i18n": {
      "eng": "Aira"
    },
    "name": "Aira",
    "repository": "kara.moe",
    "tid": "ac143e9c-0930-49d8-9a83-1cfaea1d9af5",
    "types": [
      "songwriters",
      "8"
    ]
  }
}