{
  "header": {
    "description": "Karaoke Mugen Tag File",
    "version": 1
  },
  "tag": {
    "i18n": {
      "eng": "Airi Kirishima"
    },
    "name": "Airi Kirishima",
    "tid": "891281a2-7e41-4816-a143-5c8171e099fe",
    "types": [
      "songwriters",
      "8"
    ],
    "repository": "kara.moe",
    "modified_at": "2020-03-31T19:04:33.330Z"
  }
}