{
  "header": {
    "description": "Karaoke Mugen Tag File",
    "version": 1
  },
  "tag": {
    "i18n": {
      "eng": "AISHA"
    },
    "modified_at": "2020-08-17T19:54:08.209Z",
    "name": "AISHA",
    "repository": "kara.moe",
    "tid": "30f981bb-506a-4dd6-9640-505e85c75846",
    "types": [
      "singers",
      "2"
    ]
  }
}