{
  "header": {
    "description": "Karaoke Mugen Tag File",
    "version": 1
  },
  "tag": {
    "aliases": [
      "aiu love"
    ],
    "i18n": {
      "eng": "Aiu♥Love"
    },
    "modified_at": "2020-03-31T19:41:38.743Z",
    "name": "Aiu♥Love",
    "repository": "kara.moe",
    "tid": "70bd4a73-ff22-4a85-9a9b-753983843a5d",
    "types": [
      "singers",
      "2"
    ]
  }
}