{
  "header": {
    "description": "Karaoke Mugen Tag File",
    "version": 1
  },
  "tag": {
    "external_database_ids": {
      "anilist": 17082,
      "myanimelist": 17082,
      "kitsu": 7576
    },
    "i18n": {
      "eng": "Aiura",
      "jpn": "あいうら",
      "qro": "Aiura"
    },
    "modified_at": "2020-03-31T19:04:30.906Z",
    "name": "Aiura",
    "repository": "kara.moe",
    "tid": "e4ea3819-0b16-472e-a461-9c912085e1eb",
    "types": [
      "series",
      "1"
    ]
  }
}