{
  "header": {
    "description": "Karaoke Mugen Tag File",
    "version": 1
  },
  "tag": {
    "i18n": {
      "eng": "Aivi Tran"
    },
    "name": "Aivi Tran",
    "tid": "7fbb41c7-1dfc-45f8-ad1d-0de97ceedbcc",
    "types": [
      "songwriters",
      "8"
    ],
    "repository": "kara.moe",
    "modified_at": "2020-03-31T19:04:33.333Z"
  }
}