{
  "header": {
    "description": "Karaoke Mugen Tag File",
    "version": 1
  },
  "tag": {
    "aliases": [
      "A megfakult szárnyú Eustia",
      "Eustia of the Tarnished Wings",
      "Huiyi de Yousidiya"
    ],
    "i18n": {
      "eng": "Aiyoku no Eustia",
      "jpn": "穢翼のユースティア",
      "qro": "Aiyoku no Eustia"
    },
    "modified_at": "2020-03-31T19:04:30.907Z",
    "name": "Aiyoku no Eustia",
    "repository": "kara.moe",
    "tid": "e15c0ea3-cc51-4405-9b71-31ee0a3d5e51",
    "types": [
      "series",
      "1"
    ]
  }
}