{
  "header": {
    "description": "Karaoke Mugen Tag File",
    "version": 1
  },
  "tag": {
    "aliases": [
      "Demi-Human",
      "Semi-Humain"
    ],
    "external_database_ids": {},
    "i18n": {
      "chi": "亞人",
      "jpn": "亜人",
      "qro": "Ajin"
    },
    "name": "Ajin",
    "repository": "kara.moe",
    "tid": "253f8dfb-cf9a-4d52-aacc-c575ac2af94a",
    "types": [
      "franchises",
      "18"
    ]
  }
}