{
  "header": {
    "description": "Karaoke Mugen Tag File",
    "version": 1
  },
  "tag": {
    "i18n": {
      "eng": "Aka Akasaka",
      "jpn": "赤坂 アカ",
      "qro": "Aka Akasaka"
    },
    "name": "Aka Akasaka",
    "repository": "kara.moe",
    "tid": "7643fe5d-3724-482f-9640-ec6f46ae15b5",
    "types": [
      "songwriters",
      "8"
    ]
  }
}