{
  "header": {
    "description": "Karaoke Mugen Tag File",
    "version": 1
  },
  "tag": {
    "i18n": {
      "eng": "AKABEiSOFT2"
    },
    "name": "AKABEiSOFT2",
    "tid": "ffd0e932-5dbc-4d7e-86be-95da7d837700",
    "types": [
      "creators",
      "4"
    ],
    "repository": "kara.moe",
    "modified_at": "2020-03-31T19:04:33.339Z"
  }
}