{
  "header": {
    "description": "Karaoke Mugen Tag File",
    "version": 1
  },
  "tag": {
    "aliases": [
      "Akai Kodan Zillion",
      "Akai Koudan Zillion",
      "Red Photon Zillion",
      "Wojownicy Maris",
      "붉은 광탄 질리온",
      "koudan"
    ],
    "external_database_ids": {
      "anilist": 2688,
      "myanimelist": 2688,
      "kitsu": 2450
    },
    "i18n": {
      "eng": "Zillion",
      "jpn": "赤い光弾ジリオン",
      "pol": "Zillion",
      "qro": "Akai Kôdan Zillion"
    },
    "modified_at": "2020-06-21T23:45:31.966Z",
    "name": "Akai Kôdan Zillion",
    "repository": "kara.moe",
    "tid": "3e1e5ab3-a159-4271-9e03-7b1b590beb3d",
    "types": [
      "series",
      "1"
    ]
  }
}