{
  "header": {
    "description": "Karaoke Mugen Tag File",
    "version": 1
  },
  "tag": {
    "i18n": {},
    "name": "Akane Kaida",
    "repository": "kara.moe",
    "tid": "f509400b-8bed-4f11-8151-d4a87395f3cd",
    "types": [
      "singers",
      "2"
    ]
  }
}