{
  "header": {
    "description": "Karaoke Mugen Tag File",
    "version": 1
  },
  "tag": {
    "i18n": {
      "eng": "Akane Ikeya"
    },
    "name": "Akane Ikeya",
    "repository": "kara.moe",
    "tid": "591f89c9-f453-4251-9be3-2829e87f956e",
    "types": [
      "singers",
      "2"
    ]
  }
}