{
  "header": {
    "description": "Karaoke Mugen Tag File",
    "version": 1
  },
  "tag": {
    "aliases": [
      "Akanesasu Shoujo",
      "shoujo"
    ],
    "external_database_ids": {
      "anilist": 101360,
      "myanimelist": 37561,
      "kitsu": 41943
    },
    "i18n": {
      "eng": "The Girl in Twilight",
      "jpn": "あかねさす少女",
      "qro": "Akanesasu Shôjo"
    },
    "modified_at": "2020-03-31T19:04:30.914Z",
    "name": "Akanesasu Shôjo",
    "repository": "kara.moe",
    "tid": "63510a0e-9cb3-460f-97f0-43fb8eefa695",
    "types": [
      "series",
      "1"
    ]
  }
}