{
  "header": {
    "description": "Karaoke Mugen Tag File",
    "version": 1
  },
  "tag": {
    "aliases": [
      "Akari Nanawo",
      "ななをあかり"
    ],
    "i18n": {
      "eng": "Akari Nanao",
      "jpn": "ナナヲアカリ",
      "qro": "Akari Nanao"
    },
    "modified_at": "2021-05-17T22:49:21.113Z",
    "name": "Akari Nanao",
    "repository": "kara.moe",
    "tid": "6bc43435-9f6b-4c50-836b-7077cfdfe3e0",
    "types": [
      "singers",
      "2",
      "songwriters",
      "8",
      "creators",
      "4"
    ]
  }
}