{
  "header": {
    "description": "Karaoke Mugen Tag File",
    "version": 1
  },
  "tag": {
    "i18n": {
      "eng": "Akari Dritschler"
    },
    "modified_at": "2021-11-16T17:29:22.448Z",
    "name": "Akari Dritschler",
    "repository": "kara.moe",
    "tid": "ff4bec67-a8d2-4078-833f-f92ee367a471",
    "types": [
      "singers",
      "2"
    ]
  }
}