{
  "header": {
    "description": "Karaoke Mugen Tag File",
    "version": 1
  },
  "tag": {
    "i18n": {
      "eng": "Akari Kitô",
      "jpn": "明里 鬼頭",
      "qro": "Akari Kitô"
    },
    "name": "Akari Kitô",
    "repository": "kara.moe",
    "tid": "0df41f72-5e97-4788-99b7-93fe4b628367",
    "types": [
      "singers",
      "2"
    ]
  }
}