{
  "header": {
    "description": "Karaoke Mugen Tag File",
    "version": 1
  },
  "tag": {
    "i18n": {
      "eng": "Akari Yamaguchi"
    },
    "name": "Akari Yamaguchi",
    "tid": "2e7417dd-8d38-4134-bc9f-f73662babd01",
    "types": [
      "songwriters",
      "8"
    ],
    "repository": "kara.moe",
    "modified_at": "2020-03-31T19:04:33.349Z"
  }
}