{
  "header": {
    "description": "Karaoke Mugen Tag File",
    "version": 1
  },
  "tag": {
    "i18n": {
      "eng": "Akatsuki Yamatoya"
    },
    "name": "Akatsuki Yamatoya",
    "tid": "1c97a5a7-0f87-4fb3-acb1-3a6959c18925",
    "types": [
      "songwriters",
      "8"
    ],
    "repository": "kara.moe",
    "modified_at": "2020-03-31T19:04:33.350Z"
  }
}