{
  "header": {
    "description": "Karaoke Mugen Tag File",
    "version": 1
  },
  "tag": {
    "i18n": {
      "eng": "Akatsuki WORKS"
    },
    "name": "Akatsuki WORKS",
    "tid": "2ad8c2cb-491f-468b-8cb9-d75f98f61642",
    "types": [
      "creators",
      "4"
    ],
    "repository": "kara.moe",
    "modified_at": "2020-03-31T19:04:33.350Z"
  }
}