{
  "header": {
    "description": "Karaoke Mugen Tag File",
    "version": 1
  },
  "tag": {
    "aliases": [
      "The Girl Standing in the Blush of Dawn",
      "yotd",
      "Иона на заре",
      "Йон А - момичето на утринната свежест",
      "Йона на заре",
      "Рассвет Ёны",
      "Рассвет Йоны",
      "拂晓的尤娜"
    ],
    "external_database_ids": {
      "anilist": 20770,
      "myanimelist": 25013,
      "kitsu": 8648
    },
    "i18n": {
      "eng": "Yona of the Dawn",
      "fre": "Yona, princesse de l'aube",
      "jpn": "暁のヨナ",
      "qro": "Akatsuki no Yona"
    },
    "modified_at": "2020-03-31T19:04:30.915Z",
    "name": "Akatsuki no Yona",
    "repository": "kara.moe",
    "tid": "8b162378-ad80-4c3c-864f-1996534ac8ec",
    "types": [
      "series",
      "1"
    ]
  }
}