{
  "header": {
    "description": "Karaoke Mugen Tag File",
    "version": 1
  },
  "tag": {
    "i18n": {
      "eng": "akem"
    },
    "name": "akem",
    "repository": "kara.moe",
    "tid": "836c9f12-0049-4c40-9197-69eb28f5ea00",
    "types": [
      "creators",
      "4"
    ]
  }
}