{
  "header": {
    "description": "Karaoke Mugen Tag File",
    "version": 1
  },
  "tag": {
    "i18n": {
      "eng": "AKEMI"
    },
    "name": "AKEMI",
    "tid": "64f0e187-36af-439c-a569-899ea6d7547d",
    "types": [
      "singers",
      "2"
    ],
    "repository": "kara.moe",
    "modified_at": "2020-03-31T19:04:33.354Z"
  }
}