{
  "header": {
    "description": "Karaoke Mugen Tag File",
    "version": 1
  },
  "tag": {
    "i18n": {
      "eng": "Akeno Watanabe"
    },
    "name": "Akeno Watanabe",
    "tid": "88f5c40c-db36-404a-9303-5219e2898fee",
    "types": [
      "singers",
      "2"
    ],
    "repository": "kara.moe",
    "modified_at": "2020-03-31T19:04:33.354Z"
  }
}