{
  "header": {
    "description": "Karaoke Mugen Tag File",
    "version": 1
  },
  "tag": {
    "i18n": {
      "eng": "Aki Youko"
    },
    "name": "Aki Youko",
    "repository": "kara.moe",
    "tid": "f6ac37d9-15f9-45dc-8793-e8cd0ff6dd7e",
    "types": [
      "songwriters",
      "8"
    ]
  }
}