{
  "header": {
    "description": "Karaoke Mugen Tag File",
    "version": 1
  },
  "tag": {
    "i18n": {
      "eng": "Aki (CYTOKINE)"
    },
    "name": "Aki (CYTOKINE)",
    "repository": "kara.moe",
    "tid": "37333ba5-4924-4e13-8a24-b4ca5c810b22",
    "types": [
      "singers",
      "2"
    ]
  }
}