{
  "header": {
    "description": "Karaoke Mugen Tag File",
    "version": 1
  },
  "tag": {
    "i18n": {
      "eng": "Aki Mimegumi"
    },
    "name": "Aki Mimegumi",
    "tid": "c4b81837-6130-4465-a399-6a52a5c1b90e",
    "types": [
      "songwriters",
      "8"
    ],
    "repository": "kara.moe",
    "modified_at": "2020-03-31T19:04:33.361Z"
  }
}