{
  "header": {
    "description": "Karaoke Mugen Tag File",
    "version": 1
  },
  "tag": {
    "i18n": {
      "eng": "Aki Misato"
    },
    "name": "Aki Misato",
    "tid": "6e7b7117-cc92-43e8-b097-66c794da0e03",
    "types": [
      "singers",
      "2"
    ],
    "repository": "kara.moe",
    "modified_at": "2020-03-31T19:04:33.362Z"
  }
}