{
  "header": {
    "description": "Karaoke Mugen Tag File",
    "version": 1
  },
  "tag": {
    "i18n": {
      "eng": "Aki Mokumu"
    },
    "name": "Aki Mokumu",
    "repository": "kara.moe",
    "tid": "88365fc4-d408-48d0-ab20-3ef40cfe8d2a",
    "types": [
      "singers",
      "2"
    ]
  }
}