{
  "header": {
    "description": "Karaoke Mugen Tag File",
    "version": 1
  },
  "tag": {
    "i18n": {
      "eng": "Aki Yashiro"
    },
    "name": "Aki Yashiro",
    "tid": "685ba389-c0eb-4d10-a72b-202cfcb25ed8",
    "types": [
      "singers",
      "2"
    ],
    "repository": "kara.moe",
    "modified_at": "2020-03-31T19:04:33.364Z"
  }
}