{
  "header": {
    "description": "Karaoke Mugen Tag File",
    "version": 1
  },
  "tag": {
    "i18n": {
      "qro": "Aki Suda",
      "jpn": "菅田 愛貴"
    },
    "name": "Aki Suda",
    "repository": "kara.moe",
    "tid": "f6fce380-2944-4b77-be4e-d0330f4c5f10",
    "types": [
      "singers",
      "2"
    ]
  }
}