{
  "header": {
    "description": "Karaoke Mugen Tag File",
    "version": 1
  },
  "tag": {
    "i18n": {
      "eng": "Aki Mutô"
    },
    "name": "Aki Mutô",
    "tid": "ca1be94f-6964-4f8c-bffa-42d91da9bfce",
    "types": [
      "songwriters",
      "8"
    ],
    "repository": "kara.moe",
    "modified_at": "2020-03-31T19:04:33.362Z"
  }
}