{
  "header": {
    "description": "Karaoke Mugen Tag File",
    "version": 1
  },
  "tag": {
    "i18n": {
      "eng": "Aki"
    },
    "name": "Aki",
    "tid": "bdb83d07-320d-4415-b60b-1355f3417739",
    "types": [
      "songwriters",
      "8"
    ],
    "repository": "kara.moe",
    "modified_at": "2020-03-31T19:04:33.364Z"
  }
}