{
  "header": {
    "description": "Karaoke Mugen Tag File",
    "version": 1
  },
  "tag": {
    "i18n": {
      "eng": "Akiakane"
    },
    "name": "Akiakane",
    "tid": "8da56750-72e9-4489-a6e5-b78ce4779e85",
    "types": [
      "singers",
      "2",
      "creators",
      "4"
    ],
    "repository": "kara.moe",
    "modified_at": "2020-03-31T19:04:33.365Z"
  }
}