{
  "header": {
    "description": "Karaoke Mugen Tag File",
    "version": 1
  },
  "tag": {
    "aliases": [
      "Akibas Trip the Animation"
    ],
    "external_database_ids": {
      "anilist": 97636,
      "myanimelist": 34051,
      "kitsu": 12532
    },
    "i18n": {
      "chi": "秋叶原之旅",
      "eng": "Akiba's Trip the Animation",
      "jpn": "AKIBA'S TRIP THE ANIMATION",
      "qro": "Akiba's Trip The Animation"
    },
    "modified_at": "2020-06-21T23:45:31.966Z",
    "name": "Akiba's Trip The Animation",
    "repository": "kara.moe",
    "tid": "be259d72-4693-4116-be1f-d64812be7bff",
    "types": [
      "series",
      "1"
    ]
  }
}