{
  "header": {
    "description": "Karaoke Mugen Tag File",
    "version": 1
  },
  "tag": {
    "i18n": {
      "eng": "Akihiro Hino"
    },
    "modified_at": "1982-04-06",
    "name": "Akihiro Hino",
    "repository": "kara.moe",
    "tid": "7df2c725-6071-425b-9c62-a03e017b95bd",
    "types": [
      "songwriters",
      "8"
    ]
  }
}