{
  "header": {
    "description": "Karaoke Mugen Tag File",
    "version": 1
  },
  "tag": {
    "i18n": {
      "eng": "Akihito Tokunaga"
    },
    "name": "Akihito Tokunaga",
    "tid": "96c5114a-7034-4174-9635-b8a1f8403594",
    "types": [
      "songwriters",
      "8"
    ],
    "repository": "kara.moe",
    "modified_at": "2020-03-31T19:04:33.375Z"
  }
}