{
  "header": {
    "description": "Karaoke Mugen Tag File",
    "version": 1
  },
  "tag": {
    "i18n": {
      "eng": "Akihiko Takashima"
    },
    "name": "Akihiko Takashima",
    "repository": "kara.moe",
    "tid": "f6e6b98a-9631-4af3-8e04-6c117ebb2c2e",
    "types": [
      "songwriters",
      "8"
    ],
    "modified_at": "2020-03-31T19:04:33.370Z"
  }
}