{
  "header": {
    "description": "Karaoke Mugen Tag File",
    "version": 1
  },
  "tag": {
    "i18n": {
      "eng": "AKIHIDE"
    },
    "modified_at": "2020-08-18T23:21:50.774Z",
    "name": "AKIHIDE",
    "repository": "kara.moe",
    "tid": "335c5f53-a8be-4121-8010-7641f2cb210d",
    "types": [
      "songwriters",
      "8",
      "singers",
      "2"
    ]
  }
}