{
  "header": {
    "description": "Karaoke Mugen Tag File",
    "version": 1
  },
  "tag": {
    "i18n": {
      "eng": "Akihiko Hirama"
    },
    "name": "Akihiko Hirama",
    "tid": "05781631-127e-4581-8b58-2c7173725ac6",
    "types": [
      "songwriters",
      "8"
    ],
    "repository": "kara.moe",
    "modified_at": "2020-03-31T19:04:33.369Z"
  }
}