{
  "header": {
    "description": "Karaoke Mugen Tag File",
    "version": 1
  },
  "tag": {
    "i18n": {
      "eng": "Akihito Tanaka"
    },
    "name": "Akihito Tanaka",
    "tid": "2dd37024-3f5a-42b9-b448-c64c5b888890",
    "types": [
      "songwriters",
      "8"
    ],
    "repository": "kara.moe",
    "modified_at": "2020-03-31T19:04:33.374Z"
  }
}