{
  "header": {
    "description": "Karaoke Mugen Tag File",
    "version": 1
  },
  "tag": {
    "i18n": {
      "eng": "Akiko Hasegawa"
    },
    "name": "Akiko Hasegawa",
    "tid": "cf4351d6-7a21-41cf-ac5e-0601fc673915",
    "types": [
      "singers",
      "2"
    ],
    "repository": "kara.moe",
    "modified_at": "2020-03-31T19:04:33.376Z"
  }
}