{
  "header": {
    "description": "Karaoke Mugen Tag File",
    "version": 1
  },
  "tag": {
    "i18n": {
      "eng": "Akiko Wada",
      "jpn": "和田アキ子"
    },
    "name": "Akiko Wada",
    "repository": "kara.moe",
    "tid": "3237b627-d72c-4df2-afe1-40241a7b7bef",
    "types": [
      "singers",
      "2"
    ]
  }
}