{
  "header": {
    "description": "Karaoke Mugen Tag File",
    "version": 1
  },
  "tag": {
    "i18n": {
      "eng": "Akima Tsuneo"
    },
    "name": "Akima Tsuneo",
    "tid": "e932ebdd-8cb9-490b-8539-fc3e13ddbd14",
    "types": [
      "songwriters",
      "8"
    ],
    "repository": "kara.moe",
    "modified_at": "2020-03-31T19:04:33.381Z"
  }
}