{
  "header": {
    "description": "Karaoke Mugen Tag File",
    "version": 1
  },
  "tag": {
    "i18n": {
      "eng": "Akinori Suzuki"
    },
    "name": "Akinori Suzuki",
    "tid": "ac67faa1-692b-47e8-b687-133f5434f43b",
    "types": [
      "songwriters",
      "8"
    ],
    "repository": "kara.moe",
    "modified_at": "2020-03-31T19:04:33.385Z"
  }
}