{
  "header": {
    "description": "Karaoke Mugen Tag File",
    "version": 1
  },
  "tag": {
    "i18n": {
      "eng": "Akinori Oosawa"
    },
    "name": "Akinori Oosawa",
    "tid": "d6afc395-1576-49f1-868e-bcaca7f17e51",
    "types": [
      "songwriters",
      "8"
    ],
    "repository": "kara.moe",
    "modified_at": "2020-03-31T19:04:33.384Z"
  }
}