{
  "header": {
    "description": "Karaoke Mugen Tag File",
    "version": 1
  },
  "tag": {
    "i18n": {
      "eng": "Akio Togashi"
    },
    "name": "Akio Togashi",
    "tid": "9eab9fdd-35e0-485b-91b6-970f8b4ee425",
    "types": [
      "songwriters",
      "8"
    ],
    "repository": "kara.moe",
    "modified_at": "2020-03-31T19:04:33.388Z"
  }
}