{
  "header": {
    "description": "Karaoke Mugen Tag File",
    "version": 1
  },
  "tag": {
    "i18n": {
      "eng": "Akio Dobashi"
    },
    "name": "Akio Dobashi",
    "tid": "ee91fc43-9df7-4168-a975-04bdd8d200ea",
    "types": [
      "songwriters",
      "8"
    ],
    "repository": "kara.moe",
    "modified_at": "2020-03-31T19:04:33.385Z"
  }
}