{
  "header": {
    "description": "Karaoke Mugen Tag File",
    "version": 1
  },
  "tag": {
    "i18n": {
      "eng": "Akira Aoi"
    },
    "name": "Akira Aoi",
    "tid": "6b0c8475-ecd9-49fa-9830-268854cc5780",
    "types": [
      "songwriters",
      "8"
    ],
    "repository": "kara.moe",
    "modified_at": "2020-03-31T19:04:33.389Z"
  }
}