{
  "header": {
    "description": "Karaoke Mugen Tag File",
    "version": 1
  },
  "tag": {
    "i18n": {
      "eng": "AKIRA"
    },
    "name": "AKIRA",
    "tid": "9584a7e9-3976-4ab7-a7a4-87cee8bca50f",
    "types": [
      "singers",
      "2",
      "songwriters",
      "8"
    ],
    "repository": "kara.moe",
    "modified_at": "2020-03-31T19:04:33.405Z"
  }
}