{
  "header": {
    "description": "Karaoke Mugen Tag File",
    "version": 1
  },
  "tag": {
    "i18n": {
      "eng": "Akira Takasaki"
    },
    "name": "Akira Takasaki",
    "tid": "fe49cc0f-7d4d-4742-a834-2388b144f556",
    "types": [
      "songwriters",
      "8"
    ],
    "repository": "kara.moe",
    "modified_at": "2020-03-31T19:04:33.404Z"
  }
}