{
  "header": {
    "description": "Karaoke Mugen Tag File",
    "version": 1
  },
  "tag": {
    "i18n": {
      "eng": "Akira Kawabata"
    },
    "name": "Akira Kawabata",
    "tid": "62281281-7214-4f5b-8ec4-a62b7fcda4d2",
    "types": [
      "songwriters",
      "8"
    ],
    "repository": "kara.moe",
    "modified_at": "2020-03-31T19:04:33.396Z"
  }
}