{
  "header": {
    "description": "Karaoke Mugen Tag File",
    "version": 1
  },
  "tag": {
    "i18n": {
      "eng": "Akira Uchida",
      "jpn": "内田晟 ",
      "qro": "Akira Uchida"
    },
    "modified_at": "2021-09-08T23:04:58.349Z",
    "name": "Akira Uchida",
    "repository": "kara.moe",
    "tid": "27934c6d-d14e-4dcd-ba52-28c155ccd951",
    "types": [
      "creators",
      "4"
    ]
  }
}