{
  "header": {
    "description": "Karaoke Mugen Tag File",
    "version": 1
  },
  "tag": {
    "i18n": {
      "eng": "Akira Ôse"
    },
    "name": "Akira Ôse",
    "tid": "43c72f6b-3e6e-47b5-86de-6d921a7f20a5",
    "types": [
      "singers",
      "2",
      "songwriters",
      "8"
    ],
    "repository": "kara.moe",
    "modified_at": "2020-03-31T19:04:33.400Z"
  }
}