{
  "header": {
    "description": "Karaoke Mugen Tag File",
    "version": 1
  },
  "tag": {
    "i18n": {
      "eng": "Akira Jimbo"
    },
    "name": "Akira Jimbo",
    "tid": "fa353ee7-cdb5-49ba-b8af-e56c2a4a30dd",
    "types": [
      "songwriters",
      "8"
    ],
    "repository": "kara.moe",
    "modified_at": "2020-03-31T19:04:33.395Z"
  }
}