{
  "header": {
    "description": "Karaoke Mugen Tag File",
    "version": 1
  },
  "tag": {
    "i18n": {
      "eng": "Akira Murada"
    },
    "modified_at": "2020-06-15T23:12:09.608Z",
    "name": "Akira Murada",
    "repository": "kara.moe",
    "tid": "1ff4099f-8a73-4723-a53b-fbb91812b700",
    "types": [
      "singers",
      "2"
    ]
  }
}