{
  "header": {
    "description": "Karaoke Mugen Tag File",
    "version": 1
  },
  "tag": {
    "i18n": {
      "eng": "Akira Mutsumuro",
      "jpn": "アキラ ムツムロ"
    },
    "name": "Akira Mutsumuro",
    "repository": "kara.moe",
    "tid": "2647f94b-a377-4035-aaee-5a0609146fb7",
    "types": [
      "songwriters",
      "8"
    ]
  }
}