{
  "header": {
    "description": "Karaoke Mugen Tag File",
    "version": 1
  },
  "tag": {
    "i18n": {
      "eng": "AKIRASTAR"
    },
    "name": "AKIRASTAR",
    "tid": "ccb4b36b-d11f-4c70-85c2-d7b21363551f",
    "types": [
      "songwriters",
      "8"
    ],
    "repository": "kara.moe",
    "modified_at": "2020-03-31T19:04:33.406Z"
  }
}