{
  "header": {
    "description": "Karaoke Mugen Tag File",
    "version": 1
  },
  "tag": {
    "i18n": {
      "eng": "Akira\"BOSS\"Yokota"
    },
    "name": "Akira\"BOSS\"Yokota",
    "tid": "8bb8aeb4-3537-4097-9c60-be5365a8b4ca",
    "types": [
      "songwriters",
      "8"
    ],
    "repository": "kara.moe",
    "modified_at": "2020-03-31T19:04:33.406Z"
  }
}