{
  "header": {
    "description": "Karaoke Mugen Tag File",
    "version": 1
  },
  "tag": {
    "i18n": {
      "eng": "Akira Fuse"
    },
    "name": "Akira Fuse",
    "tid": "193c2eca-9264-4d32-9baa-aa27d0755129",
    "types": [
      "singers",
      "2"
    ],
    "repository": "kara.moe",
    "modified_at": "2020-03-31T19:04:33.391Z"
  }
}