{
  "header": {
    "description": "Karaoke Mugen Tag File",
    "version": 1
  },
  "tag": {
    "i18n": {
      "eng": "Akira (UVERworld)"
    },
    "name": "Akira (UVERworld)",
    "tid": "efd3525a-3875-45d1-ae29-771fccbae8eb",
    "types": [
      "songwriters",
      "8"
    ],
    "repository": "kara.moe",
    "modified_at": "2020-03-31T19:04:33.389Z"
  }
}