{
  "header": {
    "description": "Karaoke Mugen Tag File",
    "version": 1
  },
  "tag": {
    "i18n": {
      "eng": "Akira Kosemura"
    },
    "name": "Akira Kosemura",
    "repository": "kara.moe",
    "tid": "8042f64e-c1bd-4d18-9bbf-2660bc4a5f7a",
    "types": [
      "songwriters",
      "8"
    ]
  }
}