{
  "header": {
    "description": "Karaoke Mugen Tag File",
    "version": 1
  },
  "tag": {
    "i18n": {
      "eng": "Akito Hayashi"
    },
    "name": "Akito Hayashi",
    "repository": "kara.moe",
    "tid": "04985133-db9d-41b2-b286-0fad41c2cb16",
    "types": [
      "songwriters",
      "8",
      "singers",
      "2"
    ]
  }
}