{
  "header": {
    "description": "Karaoke Mugen Tag File",
    "version": 1
  },
  "tag": {
    "aliases": [
      "Akihito Suzuki"
    ],
    "i18n": {
      "eng": "akkin"
    },
    "name": "akkin",
    "repository": "kara.moe",
    "tid": "3cd850b0-30a4-4c6b-8680-9cc39ce97c6a",
    "types": [
      "songwriters",
      "8"
    ]
  }
}