{
  "header": {
    "description": "Karaoke Mugen Tag File",
    "version": 1
  },
  "tag": {
    "i18n": {
      "eng": "Akkii"
    },
    "name": "Akkii",
    "tid": "f5fd0478-7f40-47a0-a303-7516593c08cb",
    "types": [
      "songwriters",
      "8"
    ],
    "repository": "kara.moe",
    "modified_at": "2020-03-31T19:04:33.411Z"
  }
}