{
  "header": {
    "description": "Karaoke Mugen Tag File",
    "version": 1
  },
  "tag": {
    "i18n": {
      "eng": "AKKOGORILLA"
    },
    "name": "AKKOGORILLA",
    "repository": "kara.moe",
    "tid": "4d46055d-4ce2-4fb3-85ce-6a14c429dd8b",
    "types": [
      "songwriters",
      "8"
    ]
  }
}