{
  "header": {
    "description": "Karaoke Mugen Tag File",
    "version": 1
  },
  "tag": {
    "i18n": {
      "eng": "Aksuli"
    },
    "modified_at": "2020-05-23T21:38:47.174Z",
    "name": "Aksuli",
    "repository": "kara.moe",
    "tid": "6ba8f599-1706-4739-93a0-b0ed17f3e8d8",
    "types": [
      "singers",
      "2",
      "songwriters",
      "8"
    ]
  }
}