{
  "header": {
    "description": "Karaoke Mugen Tag File",
    "version": 1
  },
  "tag": {
    "i18n": {
      "eng": "AkumaLollipop"
    },
    "modified_at": "2020-04-26T00:13:18.561Z",
    "name": "AkumaLollipop",
    "repository": "kara.moe",
    "tid": "028f1721-9885-4929-a3f8-9bdd2324aed1",
    "types": [
      "songwriters",
      "8"
    ]
  }
}