{
  "header": {
    "description": "Karaoke Mugen Tag File",
    "version": 1
  },
  "tag": {
    "i18n": {
      "eng": "Al Rinker"
    },
    "modified_at": "2021-06-05T20:46:28.409Z",
    "name": "Al Rinker",
    "repository": "kara.moe",
    "tid": "368da85b-9630-4f5e-943f-48678a307206",
    "types": [
      "songwriters",
      "8"
    ]
  }
}