{
  "header": {
    "description": "Karaoke Mugen Tag File",
    "version": 1
  },
  "tag": {
    "i18n": {
      "ara": "علاء الدين",
      "chi": "阿拉丁",
      "eng": "Aladdin",
      "fre": "Aladdin",
      "gre": "Αλαντίν",
      "heb": "אלאדין",
      "jpn": "アラジン",
      "kor": "알라딘",
      "qro": "Aladdin"
    },
    "modified_at": "2020-03-31T19:04:30.927Z",
    "name": "Aladdin",
    "repository": "kara.moe",
    "tid": "71190d22-e29e-4857-9720-9d7d2841bc17",
    "types": [
      "series",
      "1",
      "franchises",
      "18"
    ]
  }
}