{
  "header": {
    "description": "Karaoke Mugen Tag File",
    "version": 1
  },
  "tag": {
    "i18n": {
      "eng": "Alaine Baybayan"
    },
    "modified_at": "2020-08-11T18:38:13.291Z",
    "name": "Alaine Baybayan",
    "repository": "kara.moe",
    "tid": "ff538fe2-3cb9-4b69-b8c0-8857a55952fc",
    "types": [
      "creators",
      "4"
    ]
  }
}