{
  "header": {
    "description": "Karaoke Mugen Tag File",
    "version": 1
  },
  "tag": {
    "i18n": {
      "eng": "Alaina Beaton"
    },
    "name": "Alaina Beaton",
    "repository": "kara.moe",
    "tid": "01c26483-5989-4f30-bdea-2782ee6ba40c",
    "types": [
      "songwriters",
      "8"
    ]
  }
}