{
  "header": {
    "description": "Karaoke Mugen Tag File",
    "version": 1
  },
  "tag": {
    "i18n": {
      "eng": "Alan Menken"
    },
    "name": "Alan Menken",
    "tid": "95fcb428-a4b0-4564-9ef7-ab6474736236",
    "types": [
      "songwriters",
      "8"
    ],
    "repository": "kara.moe",
    "modified_at": "2020-03-31T19:04:33.420Z"
  }
}