{
  "header": {
    "description": "Karaoke Mugen Tag File",
    "version": 1
  },
  "tag": {
    "i18n": {
      "eng": "Alan Doyle"
    },
    "name": "Alan Doyle",
    "repository": "kara.moe",
    "tid": "7f0acdd0-58eb-407d-bd77-53d2dcbc67b5",
    "types": [
      "songwriters",
      "8"
    ]
  }
}