{
  "header": {
    "description": "Karaoke Mugen Tag File",
    "version": 1
  },
  "tag": {
    "i18n": {
      "eng": "Alan Stivell"
    },
    "name": "Alan Stivell",
    "repository": "kara.moe",
    "tid": "351d168f-c6c1-4a95-b266-013ff131dcd6",
    "types": [
      "songwriters",
      "8"
    ]
  }
}