{
  "header": {
    "description": "Karaoke Mugen Tag File",
    "version": 1
  },
  "tag": {
    "i18n": {
      "eng": "albanderuaz"
    },
    "name": "albanderuaz",
    "repository": "kara.moe",
    "tid": "57f644b1-2604-48a1-bf66-23b314f10566",
    "types": [
      "authors",
      "6"
    ]
  }
}