{
  "header": {
    "description": "Karaoke Mugen Tag File",
    "version": 1
  },
  "tag": {
    "i18n": {
      "eng": "Albert Uderzo"
    },
    "name": "Albert Uderzo",
    "tid": "af566284-7974-415a-a9fd-ac6591b4950e",
    "types": [
      "creators",
      "4"
    ],
    "repository": "kara.moe",
    "modified_at": "2020-03-31T19:04:33.422Z"
  }
}