{
  "header": {
    "description": "Karaoke Mugen Tag File",
    "version": 1
  },
  "tag": {
    "i18n": {
      "eng": "Alberto Tadini"
    },
    "modified_at": "2021-09-18T22:05:47.182Z",
    "name": "Alberto Tadini",
    "repository": "kara.moe",
    "tid": "f694996d-ec44-4920-991b-f36fba73f85d",
    "types": [
      "singers",
      "2"
    ]
  }
}