{
  "header": {
    "description": "Karaoke Mugen Tag File",
    "version": 1
  },
  "tag": {
    "i18n": {
      "eng": "Albert Productions"
    },
    "name": "Albert Productions",
    "repository": "kara.moe",
    "tid": "604d14e8-4585-4b94-a50e-6922f58cdb65",
    "types": [
      "creators",
      "4"
    ]
  }
}