{
  "header": {
    "description": "Karaoke Mugen Tag File",
    "version": 1
  },
  "tag": {
    "i18n": {
      "eng": "Aldo Nova"
    },
    "name": "Aldo Nova",
    "repository": "kara.moe",
    "tid": "70ec7af3-eb46-40e9-a942-4ad702b8f396",
    "types": [
      "songwriters",
      "8"
    ]
  }
}