{
  "header": {
    "description": "Karaoke Mugen Tag File",
    "version": 1
  },
  "tag": {
    "i18n": {
      "eng": "Alec Constandinos"
    },
    "name": "Alec Constandinos",
    "tid": "262f3330-03f8-4926-b6ab-b31eb0baf5f2",
    "types": [
      "songwriters",
      "8"
    ],
    "repository": "kara.moe",
    "modified_at": "2020-03-31T19:04:33.424Z"
  }
}