{
  "header": {
    "description": "Karaoke Mugen Tag File",
    "version": 1
  },
  "tag": {
    "i18n": {
      "eng": "Alexej Viktorovitch"
    },
    "name": "Alexej Viktorovitch",
    "repository": "kara.moe",
    "tid": "cc859eb0-36ac-4c47-b6df-6a8155b58f89",
    "types": [
      "songwriters",
      "8"
    ]
  }
}