{
  "header": {
    "description": "Karaoke Mugen Tag File",
    "version": 1
  },
  "tag": {
    "i18n": {
      "eng": "Alexandre Desbets-Jestaire"
    },
    "name": "Alexandre Desbets-Jestaire",
    "tid": "9829aed1-8f5b-47dc-8c4b-6abd6947cb70",
    "types": [
      "songwriters",
      "8"
    ],
    "repository": "kara.moe",
    "modified_at": "2020-03-31T19:04:33.430Z"
  }
}