{
  "header": {
    "description": "Karaoke Mugen Tag File",
    "version": 1
  },
  "tag": {
    "i18n": {
      "eng": "Alexis Tomassian"
    },
    "name": "Alexis Tomassian",
    "tid": "212bba9f-44f0-41f8-9c9b-564a011e9757",
    "types": [
      "singers",
      "2"
    ],
    "repository": "kara.moe",
    "modified_at": "2020-03-31T19:04:33.435Z"
  }
}