{
  "header": {
    "description": "Karaoke Mugen Tag File",
    "version": 1
  },
  "tag": {
    "i18n": {
      "eng": "Alex Walker"
    },
    "name": "Alex Walker",
    "tid": "79dcdbbd-d0eb-4ab3-82a9-f6a4861f1de2",
    "types": [
      "singers",
      "2"
    ],
    "repository": "kara.moe",
    "modified_at": "2020-03-31T19:04:33.428Z"
  }
}