{
  "header": {
    "description": "Karaoke Mugen Tag File",
    "version": 1
  },
  "tag": {
    "i18n": {
      "eng": "AlexTheSoutherner"
    },
    "name": "AlexTheSoutherner",
    "repository": "kara.moe",
    "tid": "1e896a25-3654-428f-8cba-2bc770080703",
    "types": [
      "creators",
      "4"
    ]
  }
}