{
  "header": {
    "description": "Karaoke Mugen Tag File",
    "version": 1
  },
  "tag": {
    "i18n": {
      "eng": "Alex Cameron"
    },
    "modified_at": "2020-08-19T10:26:41.626Z",
    "name": "Alex Cameron",
    "repository": "kara.moe",
    "tid": "fe3a0de2-8ac0-462b-a03c-12d13c152f0d",
    "types": [
      "creators",
      "4",
      "singers",
      "2",
      "songwriters",
      "8"
    ]
  }
}