{
  "header": {
    "description": "Karaoke Mugen Tag File",
    "version": 1
  },
  "tag": {
    "aliases": [
      "Alfred Jodocus Kwak",
      "Chiisana Ahiru no Ooki na Ai no Monogatari: Ahiru no Kwak",
      "Little Duck's Big Love Story",
      "The Adventures of Alfred J. Quack"
    ],
    "external_database_ids": {
      "anilist": 2813,
      "kitsu": 2567,
      "myanimelist": 2813
    },
    "i18n": {
      "ara": "ألفرد كواك",
      "dan": "Rasmus Rap",
      "dut": "Alfred J. Kwak",
      "eng": "Alfred J. Kwak",
      "fin": "Alfred J. Kwak",
      "fre": "Alfred J. Kwak",
      "ger": "Alfred J. Kwak",
      "gre": "Ο Άλφρεντ το Παπί",
      "heb": "שאלתיאל קוואק",
      "hun": "Alfréd a kacsa",
      "ita": "Niente paura c'è Alfred",
      "jpn": "小さなアヒルの大きな愛の物語 あひるのクワック",
      "pol": "Alfred Jonatan Kwak",
      "qro": "Chiisana Ahiru no Ooki na Ai no Monogatari: Ahiru no Kwak",
      "srp": "Алфред Џонатан Квак",
      "swe": "Alfred J. Kvack"
    },
    "name": "Alfred J. Kwak",
    "repository": "kara.moe",
    "tid": "1776042c-f12b-4c86-80ba-615bf2f7e103",
    "types": [
      "series",
      "1"
    ]
  }
}