{
  "header": {
    "description": "Karaoke Mugen Tag File",
    "version": 1
  },
  "tag": {
    "i18n": {
      "eng": "Ali Zackowski"
    },
    "name": "Ali Zackowski",
    "tid": "08cf7405-ceb2-4b4d-a5bc-b1e958cb248d",
    "types": [
      "songwriters",
      "8"
    ],
    "repository": "kara.moe",
    "modified_at": "2020-03-31T19:04:33.439Z"
  }
}