{
  "header": {
    "description": "Karaoke Mugen Tag File",
    "version": 1
  },
  "tag": {
    "external_database_ids": {
      "anilist": 144188,
      "kitsu": 43845,
      "myanimelist": 50871
    },
    "i18n": {
      "eng": "Alice Gear Aegis Expansion",
      "jpn": "アリス・ギア・アイギス Expansion",
      "qro": "Alice Gear Aegis Expansion"
    },
    "name": "Alice Gear Aegis Expansion",
    "repository": "kara.moe",
    "tid": "26c03399-1936-484d-bef0-a5d930b398f8",
    "types": [
      "series",
      "1"
    ]
  }
}