{
  "header": {
    "description": "Karaoke Mugen Tag File",
    "version": 1
  },
  "tag": {
    "aliases": [
      "Aayley"
    ],
    "i18n": {
      "eng": "Alicia Jolly"
    },
    "name": "Alicia Jolly",
    "tid": "cd782219-4064-436a-9892-33e1b0e80e62",
    "types": [
      "singers",
      "2"
    ],
    "repository": "kara.moe",
    "modified_at": "2020-03-31T19:04:33.445Z"
  }
}