{
  "header": {
    "description": "Karaoke Mugen Tag File",
    "version": 1
  },
  "tag": {
    "i18n": {
      "eng": "Alice ice"
    },
    "name": "Alice ice",
    "tid": "e99fb8ab-a736-449f-82e3-a869dd09f520",
    "types": [
      "songwriters",
      "8"
    ],
    "repository": "kara.moe",
    "modified_at": "2020-03-31T19:04:33.441Z"
  }
}