{
  "header": {
    "description": "Karaoke Mugen Tag File",
    "version": 1
  },
  "tag": {
    "aliases": [
      "Alice & Zouroku",
      "Alice and Zoroku",
      "a&z",
      "zouroku"
    ],
    "external_database_ids": {
      "anilist": 97821,
      "myanimelist": 34350,
      "kitsu": 12726
    },
    "i18n": {
      "eng": "Alice & Zoroku",
      "fre": "Alice & Zôroku",
      "jpn": "アリスと蔵六",
      "kor": "앨리스와 조로쿠",
      "qro": "Alice to Zôroku"
    },
    "modified_at": "2020-03-31T19:04:30.930Z",
    "name": "Alice to Zôroku",
    "repository": "kara.moe",
    "tid": "99c57af8-c779-46f0-9bb5-b2b5f90455fb",
    "types": [
      "series",
      "1"
    ]
  }
}