{
  "header": {
    "description": "Karaoke Mugen Tag File",
    "version": 1
  },
  "tag": {
    "i18n": {
      "eng": "Alice Taurand"
    },
    "name": "Alice Taurand",
    "tid": "d82c2a7c-df8e-418d-8ab0-b0fe74e2a1f1",
    "types": [
      "singers",
      "2"
    ],
    "repository": "kara.moe",
    "modified_at": "2020-03-31T19:04:33.443Z"
  }
}