{
  "header": {
    "description": "Karaoke Mugen Tag File",
    "version": 1
  },
  "tag": {
    "external_database_ids": {
      "anilist": 99638,
      "myanimelist": 36001,
      "kitsu": 13679
    },
    "i18n": {
      "eng": "Alice or Alice",
      "jpn": "ありすorありす ～シスコン兄さんと双子の妹～",
      "kor": "앨리스 or 앨리스",
      "qro": "Alice or Alice"
    },
    "modified_at": "2020-03-31T19:04:30.930Z",
    "name": "Alice or Alice",
    "repository": "kara.moe",
    "tid": "a56c76ea-a6b9-41c0-b6f9-b6dcc2e26523",
    "types": [
      "series",
      "1"
    ]
  }
}