{
  "header": {
    "description": "Karaoke Mugen Tag File",
    "version": 1
  },
  "tag": {
    "i18n": {
      "eng": "Alice S.O.S."
    },
    "name": "Alice S.O.S.",
    "repository": "kara.moe",
    "tid": "bca2026f-1e00-4932-81c6-af33481dc03d",
    "types": [
      "series",
      "1"
    ]
  }
}