{
  "header": {
    "description": "Karaoke Mugen Tag File",
    "version": 1
  },
  "tag": {
    "i18n": {
      "eng": "Alin_El_Rene"
    },
    "name": "Alin_El_Rene",
    "repository": "kara.moe",
    "tid": "b184839e-5131-4ef0-b8f1-0f70e4df0c85",
    "types": [
      "authors",
      "6"
    ]
  }
}