{
  "header": {
    "description": "Karaoke Mugen Tag File",
    "version": 1
  },
  "tag": {
    "i18n": {
      "eng": "Alisa Mizuki"
    },
    "name": "Alisa Mizuki",
    "tid": "530cf922-953f-4bc4-9f80-cb8479e74fe0",
    "types": [
      "singers",
      "2"
    ],
    "repository": "kara.moe",
    "modified_at": "2020-03-31T19:04:33.445Z"
  }
}