{
  "header": {
    "description": "Karaoke Mugen Tag File",
    "version": 1
  },
  "tag": {
    "i18n": {
      "eng": "Alizée"
    },
    "name": "Alizée",
    "repository": "kara.moe",
    "tid": "27842684-2019-4970-9173-2800a402e4e3",
    "types": [
      "singers",
      "2"
    ]
  }
}