{
  "header": {
    "description": "Karaoke Mugen Tag File",
    "version": 1
  },
  "tag": {
    "i18n": {
      "eng": "Allan Peter Grigg"
    },
    "name": "Allan Peter Grigg",
    "repository": "kara.moe",
    "tid": "7927e9c0-3c7f-47db-b286-f38741aef672",
    "types": [
      "songwriters",
      "8"
    ]
  }
}