{
  "header": {
    "description": "Karaoke Mugen Tag File",
    "version": 1
  },
  "tag": {
    "i18n": {
      "eng": "Allee Wiliss"
    },
    "name": "Allee Wiliss",
    "repository": "kara.moe",
    "tid": "c51546be-95ae-4ff9-931d-41153e22122f",
    "types": [
      "songwriters",
      "8"
    ],
    "modified_at": "2020-03-31T19:04:33.448Z"
  }
}