{
  "header": {
    "description": "Karaoke Mugen Tag File",
    "version": 1
  },
  "tag": {
    "i18n": {
      "eng": "Allie X"
    },
    "name": "Allie X",
    "repository": "kara.moe",
    "tid": "cad6ebee-baaa-4449-9caa-b1f30cdf6a74",
    "types": [
      "songwriters",
      "8"
    ]
  }
}