{
  "header": {
    "description": "Karaoke Mugen Tag File",
    "version": 1
  },
  "tag": {
    "i18n": {
      "eng": "Allie Crystal"
    },
    "modified_at": "2020-08-23T17:34:14.457Z",
    "name": "Allie Crystal",
    "repository": "kara.moe",
    "tid": "f247e8d7-266f-4272-8221-366bd4713df9",
    "types": [
      "singers",
      "2"
    ]
  }
}