{
  "header": {
    "description": "Karaoke Mugen Tag File",
    "version": 1
  },
  "tag": {
    "i18n": {
      "eng": ""
    },
    "name": "Alstroemeria Records",
    "repository": "kara.moe",
    "tid": "d57e7ffa-d32f-41d8-b909-5b10126283f4",
    "types": [
      "creators",
      "4"
    ]
  }
}