{
  "header": {
    "description": "Karaoke Mugen Tag File",
    "version": 1
  },
  "tag": {
    "i18n": {
      "eng": "alt-j"
    },
    "name": "alt-j",
    "tid": "68d2cd7d-37af-435f-95ce-e037b906318d",
    "types": [
      "singers",
      "2"
    ],
    "repository": "kara.moe",
    "modified_at": "2020-03-31T19:04:33.450Z"
  }
}