{
  "header": {
    "description": "Karaoke Mugen Tag File",
    "version": 1
  },
  "tag": {
    "i18n": {
      "eng": "ALT"
    },
    "name": "ALT",
    "repository": "kara.moe",
    "tid": "f75c8f29-1319-4f1b-a0cc-064c579e2b89",
    "types": [
      "songwriters",
      "8"
    ]
  }
}