{
  "header": {
    "description": "Karaoke Mugen Tag File",
    "version": 1
  },
  "tag": {
    "i18n": {
      "eng": "alterdintend"
    },
    "name": "alterdintend",
    "repository": "kara.moe",
    "tid": "04a000e6-81c9-420e-bc77-5c9e237d56d0",
    "types": [
      "creators",
      "4"
    ]
  }
}