{
  "header": {
    "description": "Karaoke Mugen Tag File",
    "version": 1
  },
  "tag": {
    "i18n": {
      "eng": "ALTIMA"
    },
    "name": "ALTIMA",
    "tid": "1a0909ec-a66c-4fd7-ab0b-5ce943206803",
    "types": [
      "singers",
      "2"
    ],
    "repository": "kara.moe",
    "modified_at": "2020-03-31T19:04:33.451Z"
  }
}