{
  "header": {
    "description": "Karaoke Mugen Tag File",
    "version": 1
  },
  "tag": {
    "i18n": {
      "eng": "AltrAudio"
    },
    "modified_at": "2020-08-27T13:32:07.343Z",
    "name": "AltrAudio",
    "repository": "kara.moe",
    "tid": "e331c957-0447-4c8f-bf82-e79f7898d851",
    "types": [
      "songwriters",
      "8"
    ]
  }
}