{
  "header": {
    "description": "Karaoke Mugen Tag File",
    "version": 1
  },
  "tag": {
    "i18n": {
      "eng": "Alulu-can"
    },
    "name": "Alulu-can",
    "tid": "d3aa4449-9020-4683-aac1-fab4b632da40",
    "types": [
      "singers",
      "2"
    ],
    "repository": "kara.moe",
    "modified_at": "2020-03-31T19:04:33.451Z"
  }
}