{
  "header": {
    "description": "Karaoke Mugen Tag File",
    "version": 1
  },
  "tag": {
    "i18n": {
      "eng": "alura"
    },
    "modified_at": "2020-10-25T15:07:59.795Z",
    "name": "alura",
    "repository": "kara.moe",
    "tid": "43843511-9d63-464f-8f9b-833375265f78",
    "types": [
      "songwriters",
      "8"
    ]
  }
}