{
  "header": {
    "description": "Karaoke Mugen Tag File",
    "version": 1
  },
  "tag": {
    "i18n": {
      "eng": "Alvaro Véliz"
    },
    "name": "Alvaro Véliz",
    "repository": "kara.moe",
    "tid": "60649ed0-b297-4dbf-a35d-dc457e4a7bd1",
    "types": [
      "singers",
      "2"
    ]
  }
}