{
  "header": {
    "description": "Karaoke Mugen Tag File",
    "version": 1
  },
  "tag": {
    "i18n": {
      "eng": "Alyona Beseda"
    },
    "name": "Alyona Beseda",
    "repository": "kara.moe",
    "tid": "1f7e0369-8b75-4f52-89b2-d23430b9e514",
    "types": [
      "singers",
      "2"
    ]
  }
}