{
  "header": {
    "description": "Karaoke Mugen Tag File",
    "version": 1
  },
  "tag": {
    "i18n": {
      "eng": "Amadori"
    },
    "name": "Amadori",
    "tid": "82cbe5a0-fcac-4df1-8819-edc94917650f",
    "types": [
      "singers",
      "2",
      "songwriters",
      "8"
    ],
    "repository": "kara.moe",
    "modified_at": "2020-03-31T19:04:33.452Z"
  }
}