{
  "header": {
    "description": "Karaoke Mugen Tag File",
    "version": 1
  },
  "tag": {
    "i18n": {
      "eng": "Amairo ＊ Islenauts",
      "jpn": "天色＊アイルノーツ",
      "qro": "Amairo ＊ Islenauts"
    },
    "modified_at": "2020-03-31T19:04:30.937Z",
    "name": "Amairo ＊ Islenauts",
    "repository": "kara.moe",
    "tid": "97600002-175a-4931-af9b-cdaa78041e63",
    "types": [
      "series",
      "1"
    ]
  }
}