{
  "header": {
    "description": "Karaoke Mugen Tag File",
    "version": 1
  },
  "tag": {
    "i18n": {
      "eng": "Amako Kodama"
    },
    "name": "Amako Kodama",
    "repository": "kara.moe",
    "tid": "88191f42-57ce-49df-9634-3a457aa6e9c1",
    "types": [
      "songwriters",
      "8"
    ]
  }
}