{
  "header": {
    "description": "Karaoke Mugen Tag File",
    "version": 1
  },
  "tag": {
    "i18n": {
      "eng": "Amamori P"
    },
    "modified_at": "2021-09-05T12:44:07.007Z",
    "name": "Amamori P",
    "repository": "kara.moe",
    "tid": "95011c48-6d29-4b6a-a382-0bdf1e850f6a",
    "types": [
      "songwriters",
      "8"
    ]
  }
}