{
  "header": {
    "description": "Karaoke Mugen Tag File",
    "version": 1
  },
  "tag": {
    "external_database_ids": {
      "anilist": 21406,
      "myanimelist": 31771,
      "kitsu": 11432
    },
    "i18n": {
      "eng": "Amanchu!",
      "jpn": "あまんちゅ!",
      "qro": "Amanchu!"
    },
    "modified_at": "2020-03-31T19:04:30.940Z",
    "name": "Amanchu!",
    "repository": "kara.moe",
    "tid": "2f7923b6-d789-4460-8e60-cf9f9ef727c7",
    "types": [
      "series",
      "1",
      "franchises",
      "18"
    ]
  }
}