{
  "header": {
    "description": "Karaoke Mugen Tag File",
    "version": 1
  },
  "tag": {
    "i18n": {
      "eng": "Amélie Morin"
    },
    "name": "Amélie Morin",
    "tid": "50a28097-7201-48f3-a8e0-25b4eb79a7d7",
    "types": [
      "singers",
      "2"
    ],
    "repository": "kara.moe",
    "modified_at": "2020-03-31T19:04:33.457Z"
  }
}