{
  "header": {
    "description": "Karaoke Mugen Tag File",
    "version": 1
  },
  "tag": {
    "i18n": {
      "eng": "American Dad!"
    },
    "name": "American Dad!",
    "repository": "kara.moe",
    "tid": "e34b273b-9549-4a23-852f-25b3eebaf449",
    "types": [
      "series",
      "1"
    ]
  }
}