{
  "header": {
    "description": "Karaoke Mugen Tag File",
    "version": 1
  },
  "tag": {
    "i18n": {
      "eng": "Amesaki Annainin"
    },
    "name": "Amesaki Annainin",
    "repository": "kara.moe",
    "tid": "583c1735-98af-488d-a011-27f079cebe70",
    "types": [
      "singers",
      "2"
    ],
    "modified_at": "2020-03-31T19:04:33.458Z"
  }
}