{
  "header": {
    "description": "Karaoke Mugen Tag File",
    "version": 1
  },
  "tag": {
    "aliases": [
      "Piruko Minami"
    ],
    "i18n": {
      "eng": "Ami Shizuki"
    },
    "modified_at": "2020-12-30T14:01:12.756Z",
    "name": "Ami Shizuki",
    "repository": "kara.moe",
    "tid": "35a74efa-fb98-4b36-aa73-1332546cde0c",
    "types": [
      "singers",
      "2"
    ]
  }
}