{
  "header": {
    "description": "Karaoke Mugen Tag File",
    "version": 1
  },
  "tag": {
    "i18n": {
      "eng": "Amir El-Falaki"
    },
    "name": "Amir El-Falaki",
    "tid": "a436db65-97bf-44f8-b0d6-a478df4accad",
    "types": [
      "singers",
      "2"
    ],
    "repository": "kara.moe",
    "modified_at": "2020-03-31T19:04:33.466Z"
  }
}