{
  "header": {
    "description": "Karaoke Mugen Tag File",
    "version": 1
  },
  "tag": {
    "i18n": {
      "eng": "Ammy"
    },
    "name": "Ammy",
    "tid": "695b3932-30cb-40aa-9a88-2c3a2f6a54f6",
    "types": [
      "singers",
      "2"
    ],
    "repository": "kara.moe",
    "modified_at": "2020-03-31T19:04:33.467Z"
  }
}