{
  "header": {
    "description": "Karaoke Mugen Tag File",
    "version": 1
  },
  "tag": {
    "i18n": {
      "eng": "amplified"
    },
    "name": "amplified",
    "tid": "d3416675-4e80-4d27-9242-e477ab2754b0",
    "types": [
      "singers",
      "2"
    ],
    "repository": "kara.moe",
    "modified_at": "2020-03-31T19:04:33.469Z"
  }
}