{
  "header": {
    "description": "Karaoke Mugen Tag File",
    "version": 1
  },
  "tag": {
    "i18n": {
      "eng": ""
    },
    "name": "AMPRULE",
    "repository": "kara.moe",
    "tid": "a2c908da-7174-43d1-9506-674de75a24b6",
    "types": [
      "singergroups",
      "17"
    ]
  }
}