{
  "header": {
    "description": "Karaoke Mugen Tag File",
    "version": 1
  },
  "tag": {
    "i18n": {
      "eng": "Amusement Vision"
    },
    "name": "Amusement Vision",
    "tid": "f4514ed0-c666-408f-8f6e-86025718ab11",
    "types": [
      "creators",
      "4"
    ],
    "repository": "kara.moe",
    "modified_at": "2020-03-31T19:04:33.471Z"
  }
}