{
  "header": {
    "description": "Karaoke Mugen Tag File",
    "version": 1
  },
  "tag": {
    "i18n": {
      "fre": "Amuse 3"
    },
    "modified_at": "2020-03-31T19:04:30.947Z",
    "name": "Amuse 3",
    "repository": "kara.moe",
    "tid": "a43e6340-51c7-4dca-b800-99142896f240",
    "types": [
      "series",
      "1"
    ]
  }
}