{
  "header": {
    "description": "Karaoke Mugen Tag File",
    "version": 1
  },
  "tag": {
    "aliases": [
      "AMV Hell à problème - Le film",
      "AMV Céleste",
      "Un AMV Français"
    ],
    "i18n": {
      "fre": "AMV Enfer - Troll no More"
    },
    "modified_at": "2021-06-05T21:57:08.905Z",
    "name": "AMV Enfer - Troll no More",
    "repository": "kara.moe",
    "tid": "7b09b6cc-4e8d-452f-a222-1621d05bd427",
    "types": [
      "series",
      "1"
    ]
  }
}