{
  "header": {
    "description": "Karaoke Mugen Tag File",
    "version": 1
  },
  "tag": {
    "aliases": [
      "AMV Enfer",
      "AMV Hell",
      "Un AMV Français"
    ],
    "i18n": {
      "eng": "AMV Céleste"
    },
    "modified_at": "2021-06-05T23:32:58.437Z",
    "name": "AMV Céleste",
    "repository": "kara.moe",
    "tid": "43fd1bc2-9ed6-462d-9c7e-c6dbaa88a0a9",
    "types": [
      "series",
      "1"
    ]
  }
}