{
  "header": {
    "description": "Karaoke Mugen Tag File",
    "version": 1
  },
  "tag": {
    "i18n": {
      "eng": "An Yu-jin"
    },
    "name": "An Yu-jin",
    "repository": "kara.moe",
    "tid": "18d41737-c93f-42c7-acfe-0ebf2f6d89cf",
    "types": [
      "singers",
      "2"
    ]
  }
}