{
  "header": {
    "description": "Karaoke Mugen Tag File",
    "version": 1
  },
  "tag": {
    "i18n": {
      "eng": "Anaïs Nyl"
    },
    "name": "Anaïs Nyl",
    "tid": "66efc07d-a021-4c1b-842b-eeace261b28d",
    "types": [
      "singers",
      "2"
    ],
    "repository": "kara.moe",
    "modified_at": "2020-03-31T19:04:33.474Z"
  }
}