{
  "header": {
    "description": "Karaoke Mugen Tag File",
    "version": 1
  },
  "tag": {
    "i18n": {
      "eng": "Anamu & Maki"
    },
    "name": "Anamu & Maki",
    "tid": "38723d90-7443-45b8-842f-2e22c8aaad52",
    "types": [
      "singers",
      "2"
    ],
    "repository": "kara.moe",
    "modified_at": "2020-03-31T19:04:33.475Z"
  }
}