{
  "header": {
    "description": "Karaoke Mugen Tag File",
    "version": 1
  },
  "tag": {
    "i18n": {
      "eng": "Andrew Gregory"
    },
    "name": "Andrew Gregory",
    "repository": "kara.moe",
    "tid": "3d18e7c3-bd59-43d4-8cef-7460bc747f2a",
    "types": [
      "songwriters",
      "8"
    ],
    "modified_at": "2020-03-31T19:04:33.481Z"
  }
}