{
  "header": {
    "description": "Karaoke Mugen Tag File",
    "version": 1
  },
  "tag": {
    "i18n": {
      "eng": "Andrew Choi"
    },
    "name": "Andrew Choi",
    "repository": "kara.moe",
    "tid": "ad6cdc9d-52c5-44cd-a047-f846fc7d3588",
    "types": [
      "songwriters",
      "8"
    ]
  }
}