{
  "header": {
    "description": "Karaoke Mugen Tag File",
    "version": 1
  },
  "tag": {
    "description": {},
    "i18n": {
      "eng": "Andreas Johnson"
    },
    "name": "Andreas Johnson",
    "repository": "kara.moe",
    "tid": "f373fb8d-1275-4e8f-aa09-82216b4ad9a6",
    "types": [
      "singers",
      "2",
      "songwriters",
      "8"
    ]
  }
}