{
  "header": {
    "description": "Karaoke Mugen Tag File",
    "version": 1
  },
  "tag": {
    "i18n": {
      "eng": "Andrew W.K."
    },
    "name": "Andrew W.K.",
    "tid": "ae8c3136-1a09-41fb-a1d2-df377edaebbd",
    "types": [
      "singers",
      "2"
    ],
    "repository": "kara.moe",
    "modified_at": "2020-03-31T19:04:33.482Z"
  }
}