{
  "header": {
    "description": "Karaoke Mugen Tag File",
    "version": 1
  },
  "tag": {
    "i18n": {
      "eng": "ANDW"
    },
    "modified_at": "2020-08-17T16:02:48.347Z",
    "name": "ANDW",
    "repository": "kara.moe",
    "tid": "823c4a3b-0e88-435f-b309-c94df17b611a",
    "types": [
      "songwriters",
      "8"
    ]
  }
}