{
  "header": {
    "description": "Karaoke Mugen Tag File",
    "version": 1
  },
  "tag": {
    "i18n": {
      "eng": "andymori"
    },
    "name": "andymori",
    "repository": "kara.moe",
    "tid": "3c1300aa-d4b2-4740-94be-ebc6283fba2b",
    "types": [
      "singergroups",
      "17"
    ]
  }
}