{
  "header": {
    "description": "Karaoke Mugen Tag File",
    "version": 1
  },
  "tag": {
    "i18n": {
      "eng": "Andy Knote"
    },
    "name": "Andy Knote",
    "tid": "9230ebfc-982a-4ee3-ba7d-f93410433dfb",
    "types": [
      "songwriters",
      "8"
    ],
    "repository": "kara.moe",
    "modified_at": "2020-03-31T19:04:33.483Z"
  }
}