{
  "header": {
    "description": "Karaoke Mugen Tag File",
    "version": 1
  },
  "tag": {
    "i18n": {
      "eng": "Andy Tunstall"
    },
    "name": "Andy Tunstall",
    "repository": "kara.moe",
    "tid": "d454c731-7643-4516-beb5-a69d15daef2b",
    "types": [
      "songwriters",
      "8"
    ]
  }
}