{
  "header": {
    "description": "Karaoke Mugen Tag File",
    "version": 1
  },
  "tag": {
    "i18n": {
      "eng": "Angelo Lahaual"
    },
    "name": "Angelo Lahaual",
    "repository": "kara.moe",
    "tid": "2231782d-e7c3-4ae2-b373-e68d319aaeee",
    "types": [
      "singers",
      "2"
    ]
  }
}