{
  "header": {
    "description": "Karaoke Mugen Tag File",
    "version": 1
  },
  "tag": {
    "aliases": [
      "S/mileage",
      "Smileage",
      "スマイレージ"
    ],
    "i18n": {
      "eng": "ANGERME",
      "jpn": "アンジュルム"
    },
    "name": "ANGERME",
    "repository": "kara.moe",
    "tid": "be74b82d-f84d-41a7-9732-bba3c402b468",
    "types": [
      "singers",
      "2"
    ]
  }
}