{
  "header": {
    "description": "Karaoke Mugen Tag File",
    "version": 1
  },
  "tag": {
    "aliases": [
      "Mori Mamoru"
    ],
    "i18n": {
      "eng": "Angel Note"
    },
    "name": "Angel Note",
    "repository": "kara.moe",
    "tid": "5c877fdf-4fb8-45b8-a331-f77b64ed435f",
    "types": [
      "songwriters",
      "8"
    ]
  }
}