{
  "header": {
    "description": "Karaoke Mugen Tag File",
    "version": 1
  },
  "tag": {
    "i18n": {
      "eng": "Angela Aki"
    },
    "modified_at": "2020-08-08T18:45:19.800Z",
    "name": "Angela Aki",
    "repository": "kara.moe",
    "tid": "125d0519-37b0-493d-8d93-d6768170717e",
    "types": [
      "singers",
      "2",
      "songwriters",
      "8"
    ]
  }
}