{
  "header": {
    "description": "Karaoke Mugen Tag File",
    "version": 1
  },
  "tag": {
    "i18n": {
      "eng": "Anggun"
    },
    "name": "Anggun",
    "repository": "kara.moe",
    "tid": "a49ee9cf-d74e-4678-b339-0f24f6d375e6",
    "types": [
      "singers",
      "2"
    ]
  }
}