{
  "header": {
    "description": "Karaoke Mugen Tag File",
    "version": 1
  },
  "tag": {
    "aliases": [
      "AniTore! EX",
      "あにトレ!EX"
    ],
    "external_database_ids": {
      "anilist": 21320,
      "myanimelist": 31519,
      "kitsu": 11347
    },
    "i18n": {
      "eng": "Anime de Training! Ex",
      "fre": "Ani Tore! EX",
      "jpn": "あにトレ! EX",
      "qro": "Ani Tore! EX"
    },
    "modified_at": "2020-03-31T19:04:30.953Z",
    "name": "Ani Tore! EX",
    "repository": "kara.moe",
    "tid": "05961fc5-dc84-4a3a-bf43-c3947bab6082",
    "types": [
      "series",
      "1"
    ]
  }
}