{
  "header": {
    "description": "Karaoke Mugen Tag File",
    "version": 1
  },
  "tag": {
    "i18n": {
      "eng": "Anime Jinchuriki333"
    },
    "name": "Anime Jinchuriki333",
    "tid": "fe16fc07-426e-4382-9179-09cce55ae486",
    "types": [
      "creators",
      "4"
    ],
    "repository": "kara.moe",
    "modified_at": "2020-03-31T19:04:33.492Z"
  }
}