{
  "header": {
    "description": "Karaoke Mugen Tag File",
    "version": 1
  },
  "tag": {
    "i18n": {
      "eng": "anime & manga circle - University of Electro-Communications"
    },
    "name": "anime & manga circle - University of Electro-Communications",
    "tid": "f9d11e4b-fa08-4bdb-8ff2-28204a49b1ba",
    "types": [
      "creators",
      "4"
    ],
    "repository": "kara.moe",
    "modified_at": "2020-03-31T19:04:33.491Z"
  }
}