{
  "header": {
    "description": "Karaoke Mugen Tag File",
    "version": 1
  },
  "tag": {
    "aliases": [
      "Animated Three Musketeers",
      "Anime San Jushi",
      "Anime San Juushi",
      "Anime Sanjuushi",
      "Anime Senjuushi",
      "Os Três Mosqueteiros",
      "anisan",
      "アニ三",
      "sanjuushi"
    ],
    "external_database_ids": {
      "anilist": 2333,
      "myanimelist": 2333,
      "kitsu": 2113
    },
    "i18n": {
      "ara": "فرقة الفرسان",
      "eng": "The Three Musketeers",
      "fre": "Sous le signe des mousquetaires",
      "ger": "D'Artagnan und die drei Musketiere",
      "gre": "Οι τρεις σωματοφύλακες",
      "heb": "(שלושת המוסקטרים (1987",
      "ita": "D'Artagnan e i moschettieri del re",
      "jpn": "アニメ三銃士",
      "por": "D'Artagnan e os Três Mosqueteiros",
      "rum": "Cei trei muşchetari",
      "spa": "Las Aventuras del Joven D'Artagnan",
      "qro": "Anime Sanjûshi"
    },
    "modified_at": "2020-03-31T19:04:30.955Z",
    "name": "Anime Sanjûshi",
    "repository": "kara.moe",
    "tid": "61ff9333-4f70-4b2e-893d-0380b6446dbf",
    "types": [
      "series",
      "1"
    ]
  }
}