{
  "header": {
    "description": "Karaoke Mugen Tag File",
    "version": 1
  },
  "tag": {
    "aliases": [
      "ADHD"
    ],
    "i18n": {
      "eng": "Animation Domination High Def"
    },
    "name": "Animation Domination High Def",
    "repository": "kara.moe",
    "tid": "b2ba06d3-2b5c-401c-86a6-2869466b2310",
    "types": [
      "creators",
      "4"
    ]
  }
}