{
  "header": {
    "description": "Karaoke Mugen Tag File",
    "version": 1
  },
  "tag": {
    "i18n": {
      "eng": "Anira",
      "jpn": "あにら"
    },
    "name": "Anira",
    "repository": "kara.moe",
    "tid": "dcab7259-efff-4dd3-917c-aec97652b5df",
    "types": [
      "creators",
      "4"
    ]
  }
}