{
  "header": {
    "description": "Karaoke Mugen Tag File",
    "version": 1
  },
  "tag": {
    "i18n": {
      "eng": "Anna"
    },
    "name": "Anna",
    "repository": "kara.moe",
    "tid": "e62c0f9e-5c9a-4948-86a1-1c7a0c232925",
    "types": [
      "songwriters",
      "8",
      "singers",
      "2"
    ]
  }
}