{
  "header": {
    "description": "Karaoke Mugen Tag File",
    "version": 1
  },
  "tag": {
    "i18n": {
      "eng": "Anna Timgren"
    },
    "name": "Anna Timgren",
    "repository": "kara.moe",
    "tid": "fd6aad4e-98b3-4b2d-8aa0-829c21849df2",
    "types": [
      "songwriters",
      "8"
    ]
  }
}