{
  "header": {
    "description": "Karaoke Mugen Tag File",
    "version": 1
  },
  "tag": {
    "i18n": {
      "eng": "Anna Maria Gioco"
    },
    "name": "Anna Maria Gioco",
    "repository": "kara.moe",
    "tid": "5d040cac-b68a-4c52-b0ab-423778e6bf3e",
    "types": [
      "songwriters",
      "8"
    ]
  }
}