{
  "header": {
    "description": "Karaoke Mugen Tag File",
    "version": 1
  },
  "tag": {
    "i18n": {
      "eng": "Anna Koshino"
    },
    "name": "Anna Koshino",
    "tid": "5249bcf3-f405-4cf9-aa5f-2c185056aad9",
    "types": [
      "songwriters",
      "8"
    ],
    "repository": "kara.moe",
    "modified_at": "2020-03-31T19:04:33.498Z"
  }
}