{
  "header": {
    "description": "Karaoke Mugen Tag File",
    "version": 1
  },
  "tag": {
    "i18n": {
      "eng": "Anneliese van der Pol"
    },
    "name": "Anneliese van der Pol",
    "tid": "fde94179-b256-4078-8a22-c6478f69242f",
    "types": [
      "singers",
      "2"
    ],
    "repository": "kara.moe",
    "modified_at": "2020-03-31T19:04:33.502Z"
  }
}