{
  "header": {
    "description": "Karaoke Mugen Tag File",
    "version": 1
  },
  "tag": {
    "i18n": {
      "eng": "Annerley Gordon"
    },
    "modified_at": "2021-05-21T17:46:28.600Z",
    "name": "Annerley Gordon",
    "repository": "kara.moe",
    "tid": "b836945a-cdd6-4db3-a9cd-bcad6975aaae",
    "types": [
      "songwriters",
      "8"
    ]
  }
}