{
  "header": {
    "description": "Karaoke Mugen Tag File",
    "version": 1
  },
  "tag": {
    "aliases": [
      "Anne Happy♪",
      "Unhappy♪"
    ],
    "external_database_ids": {
      "anilist": 21238,
      "myanimelist": 31080,
      "kitsu": 11134
    },
    "i18n": {
      "eng": "Anne-Happy♪",
      "jpn": "あんハピ♪",
      "qro": "Anne Happy"
    },
    "modified_at": "2020-03-31T19:04:30.958Z",
    "name": "Anne Happy",
    "repository": "kara.moe",
    "tid": "eed3ccb7-e5db-463f-aa1f-109a17af1ba6",
    "types": [
      "series",
      "1"
    ]
  }
}