{
  "header": {
    "description": "Karaoke Mugen Tag File",
    "version": 1
  },
  "tag": {
    "i18n": {
      "eng": "Anne-Marie Gaspard"
    },
    "name": "Anne-Marie Gaspard",
    "repository": "kara.moe",
    "tid": "ead9eea7-7ee0-4687-8efd-c803cb2f6a77",
    "types": [
      "creators",
      "4"
    ]
  }
}