{
  "header": {
    "description": "Karaoke Mugen Tag File",
    "version": 1
  },
  "tag": {
    "i18n": {
      "eng": "Annie Lennox"
    },
    "name": "Annie Lennox",
    "repository": "kara.moe",
    "tid": "c3813a48-61b5-48e0-83e9-2eb2bb8cdc8a",
    "types": [
      "songwriters",
      "8"
    ]
  }
}