{
  "header": {
    "description": "Karaoke Mugen Tag File",
    "version": 1
  },
  "tag": {
    "i18n": {
      "eng": "Annie Cordy"
    },
    "name": "Annie Cordy",
    "repository": "kara.moe",
    "tid": "4ae5100c-0487-4127-b084-f2ae762fe048",
    "types": [
      "singers",
      "2"
    ]
  }
}