{
  "header": {
    "description": "Karaoke Mugen Tag File",
    "version": 1
  },
  "tag": {
    "i18n": {
      "eng": "annyyy"
    },
    "name": "annyyy",
    "repository": "kara.moe",
    "tid": "742b078c-ea41-46b9-95f5-b91237e5fdfb",
    "types": [
      "singers",
      "2"
    ]
  }
}