{
  "header": {
    "description": "Karaoke Mugen Tag File",
    "version": 1
  },
  "tag": {
    "aliases": [
      "AnoHana",
      "Nadal nie znamy nazwy kwiatu który widzieliśmy tamtego dnia.",
      "O Gün Gördüğümüz Çiçeğin Adını Hala Bilmiyoruz",
      "We Still Don't Know the Name of the Flower We Saw That Day.",
      "anohana",
      "А нам всё невдомёк как звался тот цветок",
      "Ано Хана",
      "Невиданный цветок",
      "Невідома квітка що ми побачили того дня",
      "Тэр Цэцэг",
      "אנחנו עדיין לא יודעים את השם של הפרח שראינו באותו היום",
      "لازلنا لا نعرف أسماء الزهور التي رأيناها في ذلك اليوم",
      "هنوز اسم گلی که آن روز دیدیم را نمی دانیم",
      "那日所見花兒之名我們仍未知曉",
      "那日所见花儿之名我们仍未知晓",
      "那朵花"
    ],
    "external_database_ids": {
      "anilist": 9989,
      "myanimelist": 9989,
      "kitsu": 5981
    },
    "i18n": {
      "bul": "Все още не знаем името на цветето, което видяхме онзи ден.",
      "chi": "我们仍未知道那天所看见的花的名字.",
      "eng": "Anohana: The Flower We Saw That Day",
      "fre": "Ano Hi Mita Hana no Namae o Bokutachi wa Mada Shiranai",
      "ita": "Ano hana",
      "jpn": "あの日見た花の名前を僕達はまだ知らない.",
      "kor": "그날 본 꽃의 이름을 우리는 아직 모른다",
      "mon": "Тэр Нэгэн Өдөр Харсан Цэцгийн Нэрийг Бид Одоо ч Мэдэхгүй",
      "tha": "ดอกไม้ มิตรภาพ และ ความทรงจำ",
      "qro": "Ano Hi Mita Hana no Namae o Bokutachi wa Mada Shiranai."
    },
    "modified_at": "2020-06-21T23:45:31.966Z",
    "name": "Ano Hi Mita Hana no Namae o Bokutachi wa Mada Shiranai.",
    "repository": "kara.moe",
    "tid": "b4636c1e-46fc-410a-89b9-d92605be5b5d",
    "types": [
      "series",
      "1",
      "franchises",
      "18"
    ]
  }
}