{
  "header": {
    "description": "Karaoke Mugen Tag File",
    "version": 1
  },
  "tag": {
    "aliases": [
      "AnoNatsu",
      "natsumachi",
      "Ждём тебя летом",
      "מחכים בקיץ",
      "منتظر آن تابستان هستم",
      "なつまち"
    ],
    "external_database_ids": {
      "anilist": 11433,
      "myanimelist": 11433,
      "kitsu": 6508
    },
    "i18n": {
      "eng": "Waiting in the Summer",
      "fre": "Ano Natsu De Matteru",
      "ger": "Waiting in the Summer",
      "jpn": "あの夏で待ってる",
      "mon": "Тэр нэг зунд хүлээж байя",
      "qro": "Ano Natsu de Matteru"
    },
    "modified_at": "2020-03-31T19:04:30.960Z",
    "name": "Ano Natsu de Matteru",
    "repository": "kara.moe",
    "tid": "fcb2e8d8-22e1-42e4-bd57-f36502d888bc",
    "types": [
      "series",
      "1"
    ]
  }
}