{
  "header": {
    "description": "Karaoke Mugen Tag File",
    "version": 1
  },
  "tag": {
    "i18n": {
      "eng": "Anos"
    },
    "name": "Anos",
    "repository": "kara.moe",
    "tid": "6eae6b07-45d2-4d55-baf3-d78f1fb0791a",
    "types": [
      "authors",
      "6"
    ]
  }
}