{
  "header": {
    "description": "Karaoke Mugen Tag File",
    "version": 1
  },
  "tag": {
    "aliases": [
      "Інша",
      "Другата",
      "Иная",
      "Лишний",
      "Следващият",
      "دیگری",
      "アナザー"
    ],
    "external_database_ids": {
      "anilist": 11111,
      "myanimelist": 11111,
      "kitsu": 6462
    },
    "i18n": {
      "chi": "Another",
      "eng": "Another",
      "jpn": "アナザー",
      "mon": "Өөр",
      "qro": "Another"
    },
    "modified_at": "2020-03-31T19:04:30.963Z",
    "name": "Another",
    "repository": "kara.moe",
    "tid": "5eb7d77e-a815-48b6-9fee-dc235b61c407",
    "types": [
      "series",
      "1"
    ]
  }
}