{
  "header": {
    "description": "Karaoke Mugen Tag File",
    "version": 1
  },
  "tag": {
    "i18n": {
      "eng": "Anthony Kavanagh"
    },
    "name": "Anthony Kavanagh",
    "tid": "7f3a4ff7-1a72-44a3-88ac-d5524dcb7afb",
    "types": [
      "singers",
      "2"
    ],
    "repository": "kara.moe",
    "modified_at": "2020-03-31T19:04:33.509Z"
  }
}