{
  "header": {
    "description": "Karaoke Mugen Tag File",
    "version": 1
  },
  "tag": {
    "i18n": {
      "eng": "Antic Cafe"
    },
    "name": "Antic Cafe",
    "tid": "1dadd76f-5729-4a92-9fc8-7db601a65b69",
    "types": [
      "singers",
      "2"
    ],
    "repository": "kara.moe",
    "modified_at": "2020-03-31T19:04:33.510Z"
  }
}