{
  "header": {
    "description": "Karaoke Mugen Tag File",
    "version": 1
  },
  "tag": {
    "i18n": {
      "eng": "Anton Malmberg Hård af Segerstad"
    },
    "name": "Anton Malmberg Hård af Segerstad",
    "repository": "kara.moe",
    "tid": "032627c2-6170-40a0-a8b7-30de35135cd3",
    "types": [
      "songwriters",
      "8"
    ]
  }
}