{
  "header": {
    "description": "Karaoke Mugen Tag File",
    "version": 1
  },
  "tag": {
    "i18n": {
      "eng": "Anton Ragoza"
    },
    "modified_at": "2021-07-24T23:57:23.928Z",
    "name": "Anton Ragoza",
    "repository": "kara.moe",
    "tid": "65e321e2-d1d1-4cf0-a0a0-e10fd3eef53f",
    "types": [
      "songwriters",
      "8"
    ]
  }
}