{
  "header": {
    "description": "Karaoke Mugen Tag File",
    "version": 1
  },
  "tag": {
    "aliases": [
      "Antonin Dvorak"
    ],
    "i18n": {
      "eng": "Antonín Dvořák"
    },
    "modified_at": "2020-10-27T00:21:25.550Z",
    "name": "Antonín Dvořák",
    "repository": "kara.moe",
    "tid": "231e631b-dbcd-445e-8a1a-22d72ad61c31",
    "types": [
      "songwriters",
      "8"
    ]
  }
}