{
  "header": {
    "description": "Karaoke Mugen Tag File",
    "version": 1
  },
  "tag": {
    "i18n": {
      "eng": "Antoine Renard"
    },
    "name": "Antoine Renard",
    "tid": "8293b74c-888e-4ab9-83fb-a5bf0f6ed05e",
    "types": [
      "songwriters",
      "8"
    ],
    "repository": "kara.moe",
    "modified_at": "2020-03-31T19:04:33.512Z"
  }
}