{
  "header": {
    "description": "Karaoke Mugen Tag File",
    "version": 1
  },
  "tag": {
    "aliases": [
      "Ao Haride",
      "Aoha Ride",
      "Aoharaido",
      "Youth Ride",
      "aoha",
      "Неудержимая юность",
      "Пътят на младостта"
    ],
    "external_database_ids": {
      "anilist": 20596,
      "myanimelist": 21995,
      "kitsu": 8246
    },
    "i18n": {
      "eng": "Blue Spring Ride",
      "fre": "Blue Spring Ride",
      "jpn": "アオハライド",
      "qro": "Ao Haru Ride"
    },
    "modified_at": "2020-03-31T19:04:30.964Z",
    "name": "Ao Haru Ride",
    "repository": "kara.moe",
    "tid": "f6995287-82a6-4ff6-9321-3617afda5474",
    "types": [
      "series",
      "1"
    ]
  }
}