{
  "header": {
    "description": "Karaoke Mugen Tag File",
    "version": 1
  },
  "tag": {
    "external_database_ids": {
      "anilist": 21319,
      "kitsu": 10021,
      "myanimelist": 28391
    },
    "i18n": {
      "eng": "AOKANA: Four Rhythm Across the Blue",
      "jpn": "蒼の彼方のフォーリズム",
      "qro": "Ao no Kanata no Four Rhythm"
    },
    "name": "Ao no Kanata no Four Rhythm",
    "repository": "kara.moe",
    "tid": "056a9c8e-70b4-40d8-ae22-62676bdb9624",
    "types": [
      "series",
      "1"
    ]
  }
}