{
  "header": {
    "description": "Karaoke Mugen Tag File",
    "version": 1
  },
  "tag": {
    "aliases": [
      "Fujouou"
    ],
    "external_database_ids": {
      "anilist": 21861,
      "kitsu": 12275,
      "myanimelist": 33506
    },
    "i18n": {
      "chi": "青之驱魔师 京都不净王篇",
      "eng": "Blue Exorcist: Kyoto Saga",
      "jpn": "青の祓魔師 京都不浄王篇",
      "qro": "Ao no Exorcist: Kyoto Fujôô Hen"
    },
    "name": "Ao no Exorcist: Kyoto Fujôô Hen",
    "repository": "kara.moe",
    "tid": "f934bc78-6330-494e-b937-b5fd9a9ae0fb",
    "types": [
      "series",
      "1"
    ]
  }
}