{
  "header": {
    "description": "Karaoke Mugen Tag File",
    "version": 1
  },
  "tag": {
    "aliases": [
      "Aoharu x Kikanjuu",
      "Млади и въоръжени",
      "kikanjuu"
    ],
    "external_database_ids": {
      "anilist": 21078,
      "myanimelist": 30205,
      "kitsu": 10716
    },
    "i18n": {
      "eng": "Aoharu x Machinegun",
      "jpn": "青春x機関銃",
      "qro": "Aoharu x Kikanjû"
    },
    "modified_at": "2020-03-31T19:04:30.968Z",
    "name": "Aoharu x Kikanjû",
    "repository": "kara.moe",
    "tid": "ebaa3aab-cf55-4a26-a306-d5803c4653fd",
    "types": [
      "series",
      "1"
    ]
  }
}