{
  "header": {
    "description": "Karaoke Mugen Tag File",
    "version": 1
  },
  "tag": {
    "aliases": [
      "Fleurs bleues",
      "Голубые Цветочки",
      "Сини Цветчета",
      "青之花",
      "青花"
    ],
    "external_database_ids": {
      "anilist": 6164,
      "myanimelist": 6164,
      "kitsu": 4454
    },
    "i18n": {
      "eng": "Sweet Blue Flowers",
      "fre": "Fleurs Bleues",
      "jpn": "青い花",
      "qro": "Aoi Hana"
    },
    "modified_at": "2020-03-31T19:04:30.970Z",
    "name": "Aoi Hana",
    "repository": "kara.moe",
    "tid": "aa93ef50-8e40-4b52-b6f4-c1a5890fdd17",
    "types": [
      "series",
      "1"
    ]
  }
}