{
  "header": {
    "description": "Karaoke Mugen Tag File",
    "version": 1
  },
  "tag": {
    "i18n": {
      "eng": "Aoi Fuji"
    },
    "name": "Aoi Fuji",
    "repository": "kara.moe",
    "tid": "43aa9b40-ed88-446c-9da9-6aa380ced3cf",
    "types": [
      "singers",
      "2"
    ]
  }
}