{
  "header": {
    "description": "Karaoke Mugen Tag File",
    "version": 1
  },
  "tag": {
    "i18n": {
      "eng": "Aoi Kiba"
    },
    "name": "Aoi Kiba",
    "tid": "f7d305da-1329-4bcc-9fa3-cc766e255e10",
    "types": [
      "songwriters",
      "8"
    ],
    "repository": "kara.moe",
    "modified_at": "2020-03-31T19:04:33.518Z"
  }
}