{
  "header": {
    "description": "Karaoke Mugen Tag File",
    "version": 1
  },
  "tag": {
    "i18n": {
      "eng": "Aoi Teshima"
    },
    "name": "Aoi Teshima",
    "tid": "f85932d8-35cc-4470-9c85-4d6f9e9109b7",
    "types": [
      "singers",
      "2"
    ],
    "repository": "kara.moe",
    "modified_at": "2020-03-31T19:04:33.520Z"
  }
}