{
  "header": {
    "description": "Karaoke Mugen Tag File",
    "version": 1
  },
  "tag": {
    "i18n": {
      "eng": "Aoki Konnie"
    },
    "name": "Aoki Konnie",
    "tid": "0aa59f82-95a5-4c67-911f-f99d52c71cd2",
    "types": [
      "songwriters",
      "8"
    ],
    "repository": "kara.moe",
    "modified_at": "2020-03-31T19:04:33.524Z"
  }
}