{
  "header": {
    "description": "Karaoke Mugen Tag File",
    "version": 1
  },
  "tag": {
    "aliases": [
      "Anime Ouen Project"
    ],
    "i18n": {
      "eng": "AOP",
      "jpn": "A応P"
    },
    "name": "AOP",
    "repository": "kara.moe",
    "tid": "f00210d5-b88a-4f7a-ac3f-6743e950749f",
    "types": [
      "singergroups",
      "17"
    ]
  }
}