{
  "header": {
    "description": "Karaoke Mugen Tag File",
    "version": 1
  },
  "tag": {
    "i18n": {
      "eng": "aoppella!?"
    },
    "name": "aoppella!?",
    "repository": "kara.moe",
    "tid": "c6596ded-a165-435b-bf96-a01d6143b629",
    "types": [
      "series",
      "1"
    ]
  }
}