{
  "header": {
    "description": "Karaoke Mugen Tag File",
    "version": 1
  },
  "tag": {
    "i18n": {
      "eng": "AoShift"
    },
    "name": "AoShift",
    "repository": "kara.moe",
    "tid": "1ff6c20f-9b2e-492a-9682-a0330aeda061",
    "types": [
      "creators",
      "4"
    ]
  }
}