{
  "header": {
    "description": "Karaoke Mugen Tag File",
    "version": 1
  },
  "tag": {
    "external_database_ids": {
      "anilist": 112444,
      "myanimelist": 40532,
      "kitsu": 42622
    },
    "i18n": {
      "eng": "Appare-Ranman!",
      "jpn": "天晴爛漫!",
      "qro": "Appare-Ranman!"
    },
    "modified_at": "2020-08-07T22:19:41.141Z",
    "name": "Appare-Ranman!",
    "repository": "kara.moe",
    "tid": "f98ea9ab-eec0-4d1b-b27f-fa52539ba127",
    "types": [
      "series",
      "1"
    ]
  }
}