{
  "header": {
    "description": "Karaoke Mugen Tag File",
    "version": 1
  },
  "tag": {
    "i18n": {
      "eng": "Aqua Minato",
      "jpn": "湊あくあ",
      "qro": "Aqua Minato"
    },
    "name": "Aqua Minato",
    "repository": "kara.moe",
    "tid": "5ccf4c5b-2a3a-4ada-a24d-6bfa58728689",
    "types": [
      "songwriters",
      "8",
      "singers",
      "2"
    ]
  }
}