{
  "header": {
    "description": "Karaoke Mugen Tag File",
    "version": 1
  },
  "tag": {
    "i18n": {
      "eng": "Aqua"
    },
    "modified_at": "2020-06-01T18:23:11.250Z",
    "name": "Aqua",
    "repository": "kara.moe",
    "tid": "06a9f65f-7c2d-4014-b68d-54046f6d6b79",
    "types": [
      "singers",
      "2"
    ]
  }
}