{
  "header": {
    "description": "Karaoke Mugen Tag File",
    "version": 1
  },
  "tag": {
    "i18n": {
      "eng": "AQURIA"
    },
    "name": "AQURIA",
    "tid": "5d88e979-2036-4d49-8d96-422bdec99775",
    "types": [
      "creators",
      "4"
    ],
    "repository": "kara.moe",
    "modified_at": "2020-03-31T19:04:33.529Z"
  }
}