{
  "header": {
    "description": "Karaoke Mugen Tag File",
    "version": 1
  },
  "tag": {
    "aliases": [
      "A Song that Prays for A Planet Being Born",
      "Surge Concerto"
    ],
    "i18n": {
      "eng": "Ar nosurge: Ode to an Unborn Star",
      "jpn": "アルノサージュ ～生まれいずる星へ祈る詩～",
      "qro": "Ar Nosurge ~Umareizuru Hoshi e Inoru Uta~"
    },
    "modified_at": "2020-08-27T15:16:59.223Z",
    "name": "Ar Nosurge ~Umareizuru Hoshi e Inoru Uta~",
    "repository": "kara.moe",
    "tid": "1b2d7e34-93ed-4fec-b3cb-8ef8bb40cc83",
    "types": [
      "series",
      "1"
    ]
  }
}