{
  "header": {
    "description": "Karaoke Mugen Tag File",
    "version": 1
  },
  "tag": {
    "aliases": [
      "Ar-Tonelico"
    ],
    "external_database_ids": {},
    "i18n": {
      "jpn": "アルトネリコ",
      "qro": "Ar Tonelico"
    },
    "name": "Ar Tonelico",
    "repository": "kara.moe",
    "tid": "c3da97d2-5ff0-4b28-8598-fc5ccf3e040d",
    "types": [
      "franchises",
      "18"
    ]
  }
}