{
  "header": {
    "description": "Karaoke Mugen Tag File",
    "version": 1
  },
  "tag": {
    "i18n": {
      "afr": "Arabies",
      "amh": "ዐርቢኛ",
      "ara": "العربية",
      "aze": "Ərəb dili",
      "bak": "Тел инглиз теле",
      "bel": "Арабскую мову",
      "bul": "Арабски език",
      "ben": "আরবি",
      "bos": "Arapski",
      "cat": "Àrab",
      "cze": "Arabština",
      "wel": "Arabeg",
      "dan": "Arabisk",
      "ger": "Arabisch",
      "gre": "Αραβικά",
      "eng": "Arabic",
      "epo": "Araba",
      "spa": "Árabe",
      "est": "Araabia",
      "baq": "Arabiera",
      "per": "عربی",
      "fin": "Arabia",
      "fre": "Arabe",
      "gle": "Araibis",
      "gla": "Arabais",
      "glg": "Árabe",
      "guj": "અરબી",
      "heb": "ערבית",
      "hin": "अरबी",
      "hrv": "Arapski jezik",
      "hat": "Arabic",
      "hun": "Arab",
      "arm": "Արաբերեն",
      "ind": "Bahasa arab",
      "ice": "Arabíska",
      "ita": "Arabo",
      "jpn": "アラビア語",
      "jav": "Arab",
      "geo": "არაბული",
      "kaz": "Араб тілі",
      "kan": "ಅರೇಬಿಕ್",
      "kor": "아랍어",
      "kir": "Араб тили",
      "lat": "Arabic",
      "lit": "Arabų",
      "lav": "Arābu",
      "mlg": "Ny teny arabo",
      "mao": "Arabic",
      "mac": "Арапски",
      "mal": "അറബി",
      "mon": "Араб хэл",
      "mar": "Arabic",
      "may": "Arab",
      "mlt": "L-għarbi",
      "nep": "अरबी",
      "dut": "Arabisch",
      "nor": "Arabisk",
      "pan": "ਅਰਬੀ",
      "pol": "Język arabski",
      "por": "Árabe",
      "rum": "Arabă",
      "rus": "Арабский язык",
      "sin": "අරාබි",
      "slo": "Arabský",
      "slv": "Arabski",
      "alb": "Arabe",
      "srp": "Арапски језик",
      "sun": "Arab",
      "swe": "Arabiska",
      "swa": "Kiarabu",
      "tam": "அரபு",
      "tel": "అరబిక్",
      "tgk": "Забони арабӣ",
      "tha": "อารบิก",
      "tgl": "Arabic",
      "tur": "Arapça",
      "tat": "Тел гарәп теле",
      "ukr": "Арабська мова",
      "urd": "عربی",
      "uzb": "Arab",
      "vie": "Tiếng ả rập",
      "xho": "Arabic",
      "yid": "אַראַביש",
      "chi": "阿拉伯文"
    },
    "name": "ara",
    "tid": "1b5e871e-bc48-412a-9da9-7a66ab86c31c",
    "types": [
      "langs",
      "5"
    ],
    "repository": "kara.moe",
    "modified_at": "2020-03-31T19:04:33.530Z"
  }
}