{
  "header": {
    "description": "Karaoke Mugen Tag File",
    "version": 1
  },
  "tag": {
    "aliases": [
      "araoto"
    ],
    "external_database_ids": {
      "anilist": 105932,
      "myanimelist": 38753,
      "kitsu": 42025
    },
    "i18n": {
      "chi": "骚动时节的少女们啊。",
      "eng": "O Maidens in Your Savage Season",
      "jpn": "荒ぶる季節の乙女どもよ.",
      "qro": "Araburu Kisetsu no Otome-domo yo."
    },
    "modified_at": "2020-03-31T19:04:30.978Z",
    "name": "Araburu Kisetsu no Otome-domo yo.",
    "repository": "kara.moe",
    "tid": "a361d5c6-154e-4254-aa61-ff48368690eb",
    "types": [
      "series",
      "1"
    ]
  }
}