{
  "header": {
    "description": "Karaoke Mugen Tag File",
    "version": 1
  },
  "tag": {
    "aliases": [
      "Slap Up Party: Arad Senki",
      "アラド戦記~スラップアップパーティー~",
      "地下城与勇士 -阿拉德战记"
    ],
    "external_database_ids": {
      "anilist": 4657,
      "myanimelist": 4657,
      "kitsu": 3726
    },
    "i18n": {
      "eng": "Arad Senki: Slap Up Party",
      "jpn": "スラップアップパーティ -アラド戦記-  ",
      "qro": "Arad Senki: Slap Up Party"
    },
    "modified_at": "2020-03-31T19:04:30.979Z",
    "name": "Arad Senki: Slap Up Party",
    "repository": "kara.moe",
    "tid": "a521af21-c32f-4fde-afb6-cbe032b30e51",
    "types": [
      "series",
      "1"
    ]
  }
}