{
  "header": {
    "description": "Karaoke Mugen Tag File",
    "version": 1
  },
  "tag": {
    "i18n": {
      "eng": "Arai Man"
    },
    "name": "Arai Man",
    "repository": "kara.moe",
    "tid": "bc762aa7-9f6f-46bd-a714-e3a508b66b41",
    "types": [
      "songwriters",
      "8"
    ]
  }
}