{
  "header": {
    "description": "Karaoke Mugen Tag File",
    "version": 1
  },
  "tag": {
    "aliases": [
      "Ken Araki"
    ],
    "i18n": {
      "eng": "araken"
    },
    "name": "araken",
    "repository": "kara.moe",
    "tid": "b9614002-2c2b-477c-b63a-6419c77eb8a0",
    "types": [
      "songwriters",
      "8"
    ]
  }
}