{
  "header": {
    "description": "Karaoke Mugen Tag File",
    "version": 1
  },
  "tag": {
    "i18n": {
      "eng": "Arata Yasutake"
    },
    "name": "Arata Yasutake",
    "repository": "kara.moe",
    "tid": "5db4b167-618e-46ff-8359-489085537880",
    "types": [
      "songwriters",
      "8"
    ]
  }
}