{
  "header": {
    "description": "Karaoke Mugen Tag File",
    "version": 1
  },
  "tag": {
    "aliases": [
      "The Story of the Arcana Family"
    ],
    "external_database_ids": {
      "anilist": 12967,
      "myanimelist": 12967,
      "kitsu": 6859
    },
    "i18n": {
      "eng": "La Storia della Arcana Famiglia",
      "ger": "Arcana Famiglia: La storia della Arcana Famiglia",
      "jpn": "アルカナ・ファミリア La storia della Arcana Famiglia",
      "qro": "Arcana Famiglia: La Storia della Arcana Famiglia"
    },
    "modified_at": "2020-06-21T23:45:31.966Z",
    "name": "Arcana Famiglia: La Storia della Arcana Famiglia",
    "repository": "kara.moe",
    "tid": "71ce1507-317e-4ae9-a16e-283ebd2513a8",
    "types": [
      "series",
      "1"
    ]
  }
}