{
  "header": {
    "description": "Karaoke Mugen Tag File",
    "version": 1
  },
  "tag": {
    "aliases": [
      "La storia della Arcana Famiglia"
    ],
    "i18n": {
      "eng": "Arcana Famiglia",
      "jpn": "アルカナ・ファミリア",
      "qro": "Arcana Famiglia"
    },
    "modified_at": "2020-03-31T19:04:30.985Z",
    "name": "Arcana Famiglia",
    "repository": "kara.moe",
    "tid": "77e900da-56df-4590-a613-caef9e36e6d0",
    "types": [
      "series",
      "1",
      "franchises",
      "18"
    ]
  }
}