{
  "header": {
    "description": "Karaoke Mugen Tag File",
    "version": 1
  },
  "tag": {
    "i18n": {
      "eng": "Area-ZERO"
    },
    "name": "Area-ZERO",
    "tid": "41ab53ff-ae72-4eed-93ef-24ece3d984a9",
    "types": [
      "creators",
      "4"
    ],
    "repository": "kara.moe",
    "modified_at": "2020-03-31T19:04:33.533Z"
  }
}