{
  "header": {
    "description": "Karaoke Mugen Tag File",
    "version": 1
  },
  "tag": {
    "aliases": [
      "Απήεντο Σομα",
      "Απήεντο Σώμα",
      "沉默的未知"
    ],
    "external_database_ids": {
      "anilist": 285,
      "myanimelist": 285,
      "kitsu": 260
    },
    "i18n": {
      "eng": "Argentosoma",
      "fre": "Argento Soma",
      "jpn": "アルジェントソーマ ΑΠΗΕΝΤΟ ΣΟΜΑ",
      "qro": "Argento Soma"
    },
    "modified_at": "2020-06-21T23:45:31.966Z",
    "name": "Argento Soma",
    "repository": "kara.moe",
    "tid": "6df397f4-8806-4af9-918d-a9d951419838",
    "types": [
      "series",
      "1"
    ]
  }
}