{
  "header": {
    "description": "Karaoke Mugen Tag File",
    "version": 1
  },
  "tag": {
    "i18n": {
      "eng": "Arheis"
    },
    "modified_at": "2021-02-13T23:22:02.288Z",
    "name": "Arheis",
    "repository": "kara.moe",
    "tid": "72a00a26-f466-4540-9c36-178863e177b1",
    "types": [
      "creators",
      "4"
    ]
  }
}