{
  "header": {
    "description": "Karaoke Mugen Tag File",
    "version": 1
  },
  "tag": {
    "aliases": [
      "Arifureta Shokugyou de Sekai Saikyou",
      "shokugyou",
      "saikyou"
    ],
    "external_database_ids": {
      "anilist": 100668,
      "kitsu": 14043,
      "myanimelist": 36882
    },
    "i18n": {
      "chi": "平凡职业成就世界最强",
      "eng": "Arifureta: From Commonplace to World's Strongest",
      "jpn": "ありふれた職業で世界最強",
      "qro": "Arifureta Shokugyô de Sekai Saikyô"
    },
    "name": "Arifureta Shokugyô de Sekai Saikyô",
    "repository": "kara.moe",
    "tid": "6d0251e9-f026-412e-b7ae-758c7d3358e8",
    "types": [
      "franchises",
      "18",
      "series",
      "1"
    ]
  }
}