{
  "header": {
    "description": "Karaoke Mugen Tag File",
    "version": 1
  },
  "tag": {
    "aliases": [
      "平凡職業造就世界最強 第二季"
    ],
    "external_database_ids": {
      "anilist": 112323,
      "kitsu": 42611,
      "myanimelist": 40507
    },
    "i18n": {
      "chi": "平凡职业成就世界最强 第二季",
      "eng": "Arifureta: From Commonplace to World's Strongest Season 2",
      "jpn": "ありふれた職業で世界最強 2nd season",
      "qro": "Arifureta Shokugyô de Sekai Saikyô 2nd Season"
    },
    "name": "Arifureta Shokugyô de Sekai Saikyô 2nd Season",
    "repository": "kara.moe",
    "tid": "b7de51ec-d8e8-486d-b04f-627afbfbce46",
    "types": [
      "series",
      "1"
    ]
  }
}