{
  "header": {
    "description": "Karaoke Mugen Tag File",
    "version": 1
  },
  "tag": {
    "aliases": [
      "Arin"
    ],
    "i18n": {
      "eng": "Ye-won Choi",
      "kor": "최예원",
      "qro": "Choi Ye-won"
    },
    "name": "Arin",
    "repository": "kara.moe",
    "tid": "18d856cc-0157-4579-807d-71592ca49e4b",
    "types": [
      "singers",
      "2"
    ]
  }
}