{
  "header": {
    "description": "Karaoke Mugen Tag File",
    "version": 1
  },
  "tag": {
    "aliases": [
      "Egoraptor"
    ],
    "i18n": {
      "eng": "Arin Hanson"
    },
    "modified_at": "2020-12-13T12:38:55.621Z",
    "name": "Arin Hanson",
    "repository": "kara.moe",
    "tid": "07c59304-a7c4-48de-8d39-1fefcf0bb94d",
    "types": [
      "singers",
      "2",
      "songwriters",
      "8"
    ]
  }
}