{
  "header": {
    "description": "Karaoke Mugen Tag File",
    "version": 1
  },
  "tag": {
    "i18n": {
      "eng": "ARION"
    },
    "name": "ARION",
    "tid": "0013d435-45fa-4d09-b4cf-d2d13378c4bb",
    "types": [
      "songwriters",
      "8"
    ],
    "repository": "kara.moe",
    "modified_at": "2020-03-31T19:04:33.540Z"
  }
}