{
  "header": {
    "description": "Karaoke Mugen Tag File",
    "version": 1
  },
  "tag": {
    "i18n": {
      "eng": "Arisa Date"
    },
    "name": "Arisa Date",
    "tid": "cc905dc7-7c66-40ca-ab4d-a27eaa088c43",
    "types": [
      "singers",
      "2"
    ],
    "repository": "kara.moe",
    "modified_at": "2020-03-31T19:04:33.540Z"
  }
}