{
  "header": {
    "description": "Karaoke Mugen Tag File",
    "version": 1
  },
  "tag": {
    "i18n": {
      "eng": "Arknights"
    },
    "name": "Arknights",
    "repository": "kara.moe",
    "tid": "6c9dee36-911a-4e24-8e5c-45e8545aca6f",
    "types": [
      "franchises",
      "18"
    ]
  }
}