{
  "header": {
    "description": "Karaoke Mugen Tag File",
    "version": 1
  },
  "tag": {
    "i18n": {
      "eng": "Arknights"
    },
    "name": "Arknights",
    "repository": "kara.moe",
    "tid": "2203c1f8-7d80-4358-94f7-20d567ef783d",
    "types": [
      "series",
      "1"
    ]
  }
}