{
  "header": {
    "description": "Karaoke Mugen Tag File",
    "version": 1
  },
  "tag": {
    "i18n": {
      "eng": "Armand Migiani"
    },
    "name": "Armand Migiani",
    "tid": "8acb11d0-3d2e-4559-bf99-4b7b37c2f7e8",
    "types": [
      "songwriters",
      "8"
    ],
    "repository": "kara.moe",
    "modified_at": "2020-03-31T19:04:33.545Z"
  }
}