{
  "header": {
    "description": "Karaoke Mugen Tag File",
    "version": 1
  },
  "tag": {
    "i18n": {
      "eng": "ArmySlick"
    },
    "name": "ArmySlick",
    "tid": "16cce37f-55c6-4970-beb8-cf555fa78fc2",
    "types": [
      "songwriters",
      "8"
    ],
    "repository": "kara.moe",
    "modified_at": "2020-03-31T19:04:33.546Z"
  }
}