{
  "header": {
    "description": "Karaoke Mugen Tag File",
    "version": 1
  },
  "tag": {
    "aliases": [
      "Au Pays de Carlos"
    ],
    "i18n": {
      "eng": "Around The World In Eighty Dreams",
      "fre": "Les Aventures de Carlos",
      "heb": "מסביב לעולם ב-80 חלומות",
      "ita": "80 sogni per viaggiare",
      "pol": "W 80 marzeń dookoła świata"
    },
    "modified_at": "2020-03-31T19:04:30.989Z",
    "name": "Around The World In Eighty Dreams",
    "repository": "kara.moe",
    "tid": "160c811f-e04e-4c83-80b6-8b866550116a",
    "types": [
      "series",
      "1"
    ]
  }
}