{
  "header": {
    "description": "Karaoke Mugen Tag File",
    "version": 1
  },
  "tag": {
    "i18n": {
      "eng": "Arte Refact"
    },
    "modified_at": "2021-09-17T13:50:47.516Z",
    "name": "Arte Refact",
    "repository": "kara.moe",
    "tid": "a76e43c2-7e0b-48bc-ad6b-6ccaff12e938",
    "types": [
      "songwriters",
      "8"
    ]
  }
}