{
  "header": {
    "description": "Karaoke Mugen Tag File",
    "version": 1
  },
  "tag": {
    "i18n": {
      "eng": "Arukarider"
    },
    "name": "Arukarider",
    "repository": "kara.moe",
    "tid": "1707f2f1-3e03-4cce-a01f-8dc17742b696",
    "types": [
      "songwriters",
      "8"
    ]
  }
}