{
  "header": {
    "description": "Karaoke Mugen Tag File",
    "version": 1
  },
  "tag": {
    "i18n": {
      "eng": "Arurandeisu"
    },
    "name": "Arurandeisu",
    "repository": "kara.moe",
    "tid": "f575047f-3fcb-4a51-83d3-a7c823a277b0",
    "types": [
      "singers",
      "2"
    ]
  }
}