{
  "header": {
    "description": "Karaoke Mugen Tag File",
    "version": 1
  },
  "tag": {
    "i18n": {
      "eng": "Arururu Honjô"
    },
    "name": "Arururu Honjô",
    "tid": "140f523f-730d-4a56-a17f-e46e96f4c4e3",
    "types": [
      "songwriters",
      "8"
    ],
    "repository": "kara.moe",
    "modified_at": "2020-03-31T19:04:33.550Z"
  }
}