{
  "header": {
    "description": "Karaoke Mugen Tag File",
    "version": 1
  },
  "tag": {
    "i18n": {
      "eng": "Aruvn"
    },
    "modified_at": "2020-12-16T20:19:01.788Z",
    "name": "Aruvn",
    "repository": "kara.moe",
    "tid": "e2c03928-6c1a-4dc1-a9f0-af61f48755de",
    "types": [
      "songwriters",
      "8"
    ]
  }
}