{
  "header": {
    "description": "Karaoke Mugen Tag File",
    "version": 1
  },
  "tag": {
    "i18n": {
      "eng": "Asada Hideyuki"
    },
    "name": "Asada Hideyuki",
    "repository": "kara.moe",
    "tid": "43c62a03-2f5d-433a-8771-295bb3f846f2",
    "types": [
      "songwriters",
      "8"
    ]
  }
}