{
  "header": {
    "description": "Karaoke Mugen Tag File",
    "version": 1
  },
  "tag": {
    "i18n": {
      "eng": "Asahi"
    },
    "modified_at": "2021-07-08T20:41:22.233Z",
    "name": "Asahi",
    "repository": "kara.moe",
    "tid": "b4eac9aa-5a77-4b00-b75d-1d735e94c893",
    "types": [
      "songwriters",
      "8"
    ]
  }
}