{
  "header": {
    "description": "Karaoke Mugen Tag File",
    "version": 1
  },
  "tag": {
    "i18n": {
      "eng": "Asaka",
      "jpn": "亜咲花"
    },
    "name": "Asaka",
    "repository": "kara.moe",
    "tid": "f97ee9f8-c652-4eaa-b8df-5e5a7ff30318",
    "types": [
      "singers",
      "2",
      "songwriters",
      "8"
    ]
  }
}