{
  "header": {
    "description": "Karaoke Mugen Tag File",
    "version": 1
  },
  "tag": {
    "i18n": {
      "eng": "Asami Sanada"
    },
    "name": "Asami Sanada",
    "tid": "d9666bac-108d-4326-a43c-bd40cb4c9cab",
    "types": [
      "singers",
      "2"
    ],
    "repository": "kara.moe",
    "modified_at": "2020-03-31T19:04:33.559Z"
  }
}