{
  "header": {
    "description": "Karaoke Mugen Tag File",
    "version": 1
  },
  "tag": {
    "i18n": {
      "eng": "Asami Takano"
    },
    "modified_at": "2021-03-18T17:50:17.156Z",
    "name": "Asami Takano",
    "repository": "kara.moe",
    "tid": "63a74e6c-e382-4cb0-addc-abc80e8cb522",
    "types": [
      "singers",
      "2"
    ]
  }
}