{
  "header": {
    "description": "Karaoke Mugen Tag File",
    "version": 1
  },
  "tag": {
    "i18n": {
      "eng": "Asana"
    },
    "name": "Asana",
    "repository": "kara.moe",
    "tid": "3aca3fd6-6024-481d-a47d-997e262b78c7",
    "types": [
      "singers",
      "2"
    ]
  }
}