{
  "header": {
    "description": "Karaoke Mugen Tag File",
    "version": 1
  },
  "tag": {
    "i18n": {
      "eng": "Asei Kobayashi"
    },
    "name": "Asei Kobayashi",
    "tid": "7e111e93-86b1-449d-bbce-675d45f62997",
    "types": [
      "songwriters",
      "8"
    ],
    "repository": "kara.moe",
    "modified_at": "2020-03-31T19:04:33.566Z"
  }
}