{
  "header": {
    "description": "Karaoke Mugen Tag File",
    "version": 1
  },
  "tag": {
    "aliases": [
      "Tomorrow's Joe",
      "anj"
    ],
    "external_database_ids": {
      "anilist": 2402,
      "myanimelist": 2402,
      "kitsu": 2178
    },
    "i18n": {
      "eng": "Champion Joe",
      "fre": "Ashita no Joe",
      "ita": "Rocky Joe",
      "jpn": "あしたのジョー",
      "qro": "Ashita no Joe"
    },
    "modified_at": "2020-03-31T19:04:30.997Z",
    "name": "Ashita no Joe",
    "repository": "kara.moe",
    "tid": "3cd9fd14-5c0a-4ce9-87ee-82b969928305",
    "types": [
      "series",
      "1",
      "franchises",
      "18"
    ]
  }
}