{
  "header": {
    "description": "Karaoke Mugen Tag File",
    "version": 1
  },
  "tag": {
    "aliases": [
      "Mimì e le ragazze della pallavolo"
    ],
    "external_database_ids": {
      "anilist": 4339,
      "myanimelist": 4339,
      "kitsu": 3560
    },
    "i18n": {
      "eng": "Attack on Tomorrow",
      "fre": "Smash",
      "jpn": "あしたへアタック!",
      "qro": "Ashita e Attack!"
    },
    "modified_at": "2020-03-31T19:04:30.994Z",
    "name": "Ashita e Attack!",
    "repository": "kara.moe",
    "tid": "dd9a5e58-a81e-4b11-8bec-44f491ca9cb4",
    "types": [
      "series",
      "1"
    ]
  }
}