{
  "header": {
    "description": "Karaoke Mugen Tag File",
    "version": 1
  },
  "tag": {
    "aliases": [
      "Tomorrow's Joe 2",
      "rocky joe 2"
    ],
    "external_database_ids": {
      "anilist": 2921,
      "myanimelist": 2921,
      "kitsu": 2646
    },
    "i18n": {
      "ara": "جو البطل",
      "eng": "Champion Joe 2",
      "fre": "Ashita no Joe 2",
      "jpn": "あしたのジョー2",
      "qro": "Ashita no Joe 2"
    },
    "modified_at": "2020-06-21T23:45:31.966Z",
    "name": "Ashita no Joe 2",
    "repository": "kara.moe",
    "tid": "99a7529d-bc9e-4ed3-af64-893b09234a83",
    "types": [
      "series",
      "1"
    ]
  }
}