{
  "header": {
    "description": "Karaoke Mugen Tag File",
    "version": 1
  },
  "tag": {
    "aliases": [
      "PRODUCTION REED"
    ],
    "i18n": {
      "eng": "Ashi Productions"
    },
    "modified_at": "2021-02-08T13:38:16.580Z",
    "name": "Ashi Productions",
    "repository": "kara.moe",
    "tid": "fa1cbae7-2b13-45ec-8233-15807fd5f1a3",
    "types": [
      "creators",
      "4"
    ]
  }
}