{
  "header": {
    "description": "Karaoke Mugen Tag File",
    "version": 1
  },
  "tag": {
    "i18n": {
      "eng": "Ashleigh Ball"
    },
    "name": "Ashleigh Ball",
    "tid": "d6c8ad52-6803-4f7c-98e4-8576581a10d7",
    "types": [
      "singers",
      "2"
    ],
    "repository": "kara.moe",
    "modified_at": "2020-03-31T19:04:33.568Z"
  }
}