{
  "header": {
    "description": "Karaoke Mugen Tag File",
    "version": 1
  },
  "tag": {
    "i18n": {
      "eng": "Ashu Nekota"
    },
    "name": "Ashu Nekota",
    "repository": "kara.moe",
    "tid": "0e4daebc-6cbc-40c1-990e-95a9592c127f",
    "types": [
      "singers",
      "2"
    ]
  }
}