{
  "header": {
    "description": "Karaoke Mugen Tag File",
    "version": 1
  },
  "tag": {
    "i18n": {
      "eng": "ASK"
    },
    "modified_at": "2020-07-21T22:04:55.338Z",
    "name": "ASK",
    "repository": "kara.moe",
    "tid": "f19f637c-3a8f-4e07-b358-8caf785ccc9f",
    "types": [
      "singers",
      "2"
    ]
  }
}