{
  "header": {
    "description": "Karaoke Mugen Tag File",
    "version": 1
  },
  "tag": {
    "i18n": {
      "afr": "Assamees",
      "amh": "Assamese",
      "ara": "الأسامية",
      "aze": "Norveç",
      "bak": "Ассам",
      "bel": "Асамская",
      "bul": "Асамски",
      "ben": "আসামি",
      "bos": "Ukrajinski",
      "cat": "Assamese",
      "cze": "Assamese",
      "wel": "Asameg",
      "dan": "Netværk",
      "ger": "Assamesisch",
      "gre": "Ασαμεζικά",
      "eng": "Assamese",
      "epo": "Asama",
      "spa": "Assamese",
      "est": "Assamese",
      "baq": "Assamera",
      "per": "آسامی",
      "fin": "Assamese",
      "fre": "Assamais",
      "gle": "Asaimis",
      "gla": "Assamese",
      "glg": "Assamés",
      "guj": "આસામી",
      "heb": "אסאמיתname",
      "hin": "असमिया",
      "hrv": "Asamski",
      "hat": "Assamese",
      "hun": "Assamese",
      "arm": "Բենգալերեն",
      "ind": "Assamese",
      "ice": "Enska",
      "ita": "Assamese",
      "jpn": "が可能",
      "jav": "Assamese",
      "geo": "ასამური",
      "kaz": "Ассамский",
      "kan": "ಅಸ್ಸಾಮೀಸ್",
      "kor": "Assamese",
      "kir": "Ассамский",
      "lat": "Assamese",
      "lit": "Assamese",
      "lav": "Assamese",
      "mlg": "Assamese",
      "mao": "Assamese",
      "mac": "Assamese",
      "mal": "ആസാമീസ്",
      "mon": "Assamese",
      "mar": "आसामी",
      "may": "Bahasa cina",
      "mlt": "}",
      "nep": "आसामीname",
      "dut": "Assamees",
      "nor": "Assamese",
      "pan": "Assamese",
      "pol": "Assamski",
      "por": "Assamês",
      "rum": "Assamese",
      "rus": "Ассамский",
      "sin": "Assamese",
      "slo": "Ásámčina",
      "slv": "V tagaloščino",
      "alb": "Tatarisht",
      "srp": "Асамски",
      "sun": "Makaka",
      "swe": "[[Lang]]",
      "swa": "Kiassam",
      "tam": "அஸ்ஸாமி",
      "tel": "అస్సామీ",
      "tgk": "Ассамский",
      "tha": "ภาษาอัสสัม name",
      "tgl": "Assamese",
      "tur": "Dili, Assam dili",
      "tat": "Ассамский",
      "ukr": "Ассамська",
      "urd": "آسامی",
      "uzb": "Assamese",
      "vie": "Assam",
      "xho": "Name",
      "yid": "Assamese",
      "chi": "阿萨姆"
    },
    "name": "asm",
    "tid": "c07b4f37-2c98-4b0e-a043-e813f371c95e",
    "types": [
      "langs",
      "5"
    ],
    "repository": "kara.moe",
    "modified_at": "2020-03-31T19:04:33.571Z"
  }
}