{
  "header": {
    "description": "Karaoke Mugen Tag File",
    "version": 1
  },
  "tag": {
    "aliases": [
      "Asobi ni Ikuyo",
      "Asobi ni Ikuyo: Bombshells from the Sky",
      "Let's Go Play!",
      "Wir kommen um Spaß zu haben!",
      "asoiku",
      "Давай играть!",
      "あそいく",
      "玩伴猫耳娘"
    ],
    "external_database_ids": {
      "anilist": 6166,
      "myanimelist": 6166,
      "kitsu": 4456
    },
    "i18n": {
      "chi": "玩伴貓耳娘",
      "eng": "Cat Planet Cuties",
      "fre": "Asobi ni Ikuyo!",
      "jpn": "あそびにいくヨ!",
      "qro": "Asobi ni Iku yo!"
    },
    "modified_at": "2020-03-31T19:04:31.000Z",
    "name": "Asobi ni Iku yo!",
    "repository": "kara.moe",
    "tid": "efeb5844-4c03-448b-9fc3-63be3d2c1eb9",
    "types": [
      "series",
      "1"
    ]
  }
}