{
  "header": {
    "description": "Karaoke Mugen Tag File",
    "version": 1
  },
  "tag": {
    "i18n": {
      "eng": "asread"
    },
    "name": "asread",
    "tid": "7cac28be-6aa5-46b8-971d-d244a7069e37",
    "types": [
      "creators",
      "4"
    ],
    "repository": "kara.moe",
    "modified_at": "2020-03-31T19:04:33.571Z"
  }
}