{
  "header": {
    "description": "Karaoke Mugen Tag File",
    "version": 1
  },
  "tag": {
    "i18n": {
      "eng": "Asriel"
    },
    "name": "Asriel",
    "tid": "28629ab5-9436-4043-8e07-0d1f63d0b9d4",
    "types": [
      "singers",
      "2"
    ],
    "repository": "kara.moe",
    "modified_at": "2020-03-31T19:04:33.572Z"
  }
}