{
  "header": {
    "description": "Karaoke Mugen Tag File",
    "version": 1
  },
  "tag": {
    "aliases": [
      "Astarotte Toy",
      "Lotte no Omocha",
      "Lotte no Omocha!",
      "Lotte's Toy",
      "Играчката на Астароте"
    ],
    "external_database_ids": {
      "anilist": 9736,
      "myanimelist": 9736,
      "kitsu": 5843
    },
    "i18n": {
      "eng": "Astarotte's Toy",
      "fre": "Astarotte no Omocha!",
      "jpn": "アスタロッテのおもちゃ!",
      "qro": "Astarotte no Omocha!"
    },
    "modified_at": "2020-03-31T19:04:31.003Z",
    "name": "Astarotte no Omocha!",
    "repository": "kara.moe",
    "tid": "bdc00993-1e3d-4094-8914-b42e4131583b",
    "types": [
      "series",
      "1"
    ]
  }
}