{
  "header": {
    "description": "Karaoke Mugen Tag File",
    "version": 1
  },
  "tag": {
    "i18n": {
      "eng": "AsTrAl"
    },
    "modified_at": "2021-02-14T16:15:25.896Z",
    "name": "AsTrAl",
    "repository": "kara.moe",
    "tid": "9a37b6f1-fe3a-446f-aa09-2e1d75924638",
    "types": [
      "creators",
      "4"
    ]
  }
}