{
  "header": {
    "description": "Karaoke Mugen Tag File",
    "version": 1
  },
  "tag": {
    "aliases": [
      "AB",
      "Astroboy",
      "Mighty Atom 2003",
      "アストロボーイ・鉄腕アトム",
      "自动机器人・铁臂阿童木"
    ],
    "external_database_ids": {
      "anilist": 971,
      "myanimelist": 971,
      "kitsu": 861
    },
    "i18n": {
      "ara": "الفتى أسترو",
      "eng": "Astro Boy (2003)",
      "fre": "Astro Boy (2003)",
      "hrv": "Astro Boy",
      "jpn": "ASTRO BOY・ 鉄腕アトム (2003)",
      "por": "AstroBoy",
      "slo": "Astro",
      "tha": "เจ้าหนูอะตอม",
      "qro": "Astro Boy: Tetsuwan Atom (2003)"
    },
    "modified_at": "2020-03-31T19:04:31.005Z",
    "name": "Astro Boy: Tetsuwan Atom (2003)",
    "repository": "kara.moe",
    "tid": "c5e123ab-b991-4ca1-ad22-9c1e145c6b69",
    "types": [
      "series",
      "1"
    ]
  }
}