{
  "header": {
    "description": "Karaoke Mugen Tag File",
    "version": 1
  },
  "tag": {
    "i18n": {
      "eng": "Asu"
    },
    "name": "Asu",
    "tid": "8e0ca58b-b55e-4bfb-ae6d-1287404ca39f",
    "types": [
      "songwriters",
      "8"
    ],
    "repository": "kara.moe",
    "modified_at": "2020-03-31T19:04:33.573Z"
  }
}