{
  "header": {
    "description": "Karaoke Mugen Tag File",
    "version": 1
  },
  "tag": {
    "i18n": {
      "eng": "Asue Sakura"
    },
    "name": "Asue Sakura",
    "tid": "41ca7478-3988-4a55-8e4e-a07849acc4ee",
    "types": [
      "songwriters",
      "8"
    ],
    "repository": "kara.moe",
    "modified_at": "2020-03-31T19:04:33.574Z"
  }
}