{
  "header": {
    "description": "Karaoke Mugen Tag File",
    "version": 1
  },
  "tag": {
    "i18n": {
      "eng": "Asuka Hayashi"
    },
    "name": "Asuka Hayashi",
    "tid": "661d2655-f8d3-4e98-b98a-02bf7a62f879",
    "types": [
      "singers",
      "2"
    ],
    "repository": "kara.moe",
    "modified_at": "2020-03-31T19:04:33.574Z"
  }
}