{
  "header": {
    "description": "Karaoke Mugen Tag File",
    "version": 1
  },
  "tag": {
    "i18n": {
      "eng": "Asuna Tomari"
    },
    "name": "Asuna Tomari",
    "repository": "kara.moe",
    "tid": "8955600f-ac9a-49f7-a6cd-fcba5f24acbb",
    "types": [
      "singers",
      "2"
    ]
  }
}