{
  "header": {
    "description": "Karaoke Mugen Tag File",
    "version": 1
  },
  "tag": {
    "aliases": [
      "Asura2",
      "Асура Краин 2",
      "Плачущий Асура",
      "机巧魔神2"
    ],
    "external_database_ids": {
      "anilist": 6676,
      "myanimelist": 6676,
      "kitsu": 4660
    },
    "i18n": {
      "eng": "Asura Cryin' 2",
      "jpn": "アスラクライン2",
      "qro": "Asura Cryin' 2"
    },
    "modified_at": "2020-03-31T19:04:31.008Z",
    "name": "Asura Cryin' 2",
    "repository": "kara.moe",
    "tid": "d0677cc2-19a5-4575-adf8-c9cd2ee44661",
    "types": [
      "series",
      "1"
    ]
  }
}