{
  "header": {
    "description": "Karaoke Mugen Tag File",
    "version": 1
  },
  "tag": {
    "aliases": [
      "Asura Cryin' 1",
      "Асура Краин",
      "Плач Асуры",
      "机巧魔神"
    ],
    "external_database_ids": {
      "anilist": 5342,
      "myanimelist": 5342,
      "kitsu": 4064
    },
    "i18n": {
      "eng": "Asura Cryin'",
      "jpn": "アスラクライン",
      "qro": "Asura Cryin'"
    },
    "modified_at": "2020-03-31T19:04:31.009Z",
    "name": "Asura Cryin'",
    "repository": "kara.moe",
    "tid": "cb781bcb-0714-478c-bbab-670531bd0392",
    "types": [
      "series",
      "1",
      "franchises",
      "18"
    ]
  }
}