{
  "header": {
    "description": "Karaoke Mugen Tag File",
    "version": 1
  },
  "tag": {
    "i18n": {
      "eng": "ASY"
    },
    "modified_at": "2020-05-31T00:24:21.981Z",
    "name": "ASY",
    "repository": "kara.moe",
    "tid": "d4909a90-bb38-4a79-bfaf-70f2ca4b7e00",
    "types": [
      "singers",
      "2"
    ]
  }
}