{
  "header": {
    "description": "Karaoke Mugen Tag File",
    "version": 1
  },
  "tag": {
    "i18n": {
      "eng": "ATLUS"
    },
    "name": "ATLUS",
    "tid": "e9bb3a58-48d2-478c-bfe7-95237ddfe0fd",
    "types": [
      "creators",
      "4"
    ],
    "repository": "kara.moe",
    "modified_at": "2020-03-31T19:04:33.582Z"
  }
}