{
  "header": {
    "description": "Karaoke Mugen Tag File",
    "version": 1
  },
  "tag": {
    "aliases": [
      "アトム ザ・ビギニング"
    ],
    "external_database_ids": {
      "anilist": 21830,
      "myanimelist": 33371,
      "kitsu": 12235
    },
    "i18n": {
      "eng": "Atom: The Beginning",
      "jpn": "アトム ザ・ビギニング",
      "kor": "아톰 더 비기닝",
      "qro": "Atom: The Beginning"
    },
    "modified_at": "2020-03-31T19:04:31.010Z",
    "name": "Atom: The Beginning",
    "repository": "kara.moe",
    "tid": "ed8ec96a-7497-4b95-b7d3-521b8bad3a18",
    "types": [
      "series",
      "1"
    ]
  }
}