{
  "header": {
    "description": "Karaoke Mugen Tag File",
    "version": 1
  },
  "tag": {
    "aliases": [
      "アツシ・ACE"
    ],
    "i18n": {
      "eng": "Atsushi",
      "jpn": "厚志"
    },
    "name": "Atsushi (Sekken'ya)",
    "repository": "kara.moe",
    "tid": "95995521-0e6f-4cf2-92a3-6e536c6e4747",
    "types": [
      "singers",
      "2",
      "songwriters",
      "8"
    ]
  }
}