{
  "header": {
    "description": "Karaoke Mugen Tag File",
    "version": 1
  },
  "tag": {
    "i18n": {
      "eng": "Atsushi Tamura"
    },
    "name": "Atsushi Tamura",
    "repository": "kara.moe",
    "tid": "9b832496-259e-471a-8cd8-3ef19077d029",
    "types": [
      "singers",
      "2",
      "songwriters",
      "8"
    ]
  }
}