{
  "header": {
    "description": "Karaoke Mugen Tag File",
    "version": 1
  },
  "tag": {
    "i18n": {
      "eng": "Atsumi Tanezaki"
    },
    "name": "Atsumi Tanezaki",
    "tid": "09b47b31-940d-4b3f-9788-2bab5873639a",
    "types": [
      "singers",
      "2"
    ],
    "repository": "kara.moe",
    "modified_at": "2020-03-31T19:04:33.586Z"
  }
}