{
  "header": {
    "description": "Karaoke Mugen Tag File",
    "version": 1
  },
  "tag": {
    "i18n": {
      "eng": "Atsushi Satô"
    },
    "name": "Atsushi Satô",
    "tid": "f5c52f69-0422-4bb1-8c9b-332fd6ef187c",
    "types": [
      "songwriters",
      "8"
    ],
    "repository": "kara.moe",
    "modified_at": "2020-03-31T19:04:33.591Z"
  }
}