{
  "header": {
    "description": "Karaoke Mugen Tag File",
    "version": 1
  },
  "tag": {
    "i18n": {
      "eng": "Atsushi Enomoto"
    },
    "modified_at": "2021-02-19T22:03:38.420Z",
    "name": "Atsushi Enomoto",
    "repository": "kara.moe",
    "tid": "a3ba41c9-c337-435f-bdb7-c984ebea1ad1",
    "types": [
      "singers",
      "2"
    ]
  }
}