{
  "header": {
    "description": "Karaoke Mugen Tag File",
    "version": 1
  },
  "tag": {
    "i18n": {
      "eng": "Attila Dorn"
    },
    "modified_at": "2020-10-25T18:20:35.666Z",
    "name": "Attila Dorn",
    "repository": "kara.moe",
    "tid": "4e2b1d0b-25a6-4075-a340-25947c97b4ee",
    "types": [
      "songwriters",
      "8"
    ]
  }
}