{
  "header": {
    "description": "Karaoke Mugen Tag File",
    "version": 1
  },
  "tag": {
    "i18n": {
      "eng": "AUDIO RULEZ"
    },
    "name": "AUDIO RULEZ",
    "tid": "2f56508c-2b54-4ef5-b72d-5001a73e16e0",
    "types": [
      "singers",
      "2"
    ],
    "repository": "kara.moe",
    "modified_at": "2020-03-31T19:04:33.599Z"
  }
}