{
  "header": {
    "description": "Karaoke Mugen Tag File",
    "version": 1
  },
  "tag": {
    "i18n": {
      "eng": "Audrey Drake"
    },
    "name": "Audrey Drake",
    "tid": "cf7a36b8-54c1-4c24-acd7-af24a87578c1",
    "types": [
      "songwriters",
      "8"
    ],
    "repository": "kara.moe",
    "modified_at": "2020-03-31T19:04:33.599Z"
  }
}