{
  "header": {
    "description": "Karaoke Mugen Tag File",
    "version": 1
  },
  "tag": {
    "i18n": {
      "eng": "Aurebleyde"
    },
    "name": "Aurebleyde",
    "repository": "kara.moe",
    "tid": "065907f6-055d-41ba-b83b-d92f99d8fec9",
    "types": [
      "authors",
      "6"
    ]
  }
}