{
  "header": {
    "description": "Karaoke Mugen Tag File",
    "version": 1
  },
  "tag": {
    "i18n": {
      "afr": "Avaric",
      "amh": "Avaric",
      "ara": "الأفاريكية",
      "aze": "Avarların",
      "bak": "Авар теле",
      "bel": "Аварская",
      "bul": "Аварски",
      "ben": "আভেরিক",
      "bos": "Dari",
      "cat": "Avaric",
      "cze": "Avarština",
      "wel": "Avaric",
      "dan": "Avaric",
      "ger": "Avaric",
      "gre": "Avaric",
      "eng": "Avaric",
      "epo": "Avaric",
      "spa": "Avaric",
      "est": "Avaric",
      "baq": "Avaric",
      "per": "Avaric",
      "fin": "Avaric",
      "fre": "Avaric",
      "gle": "Avaric",
      "gla": "Avaric",
      "glg": "Avaric",
      "guj": "અવેરિક",
      "heb": "Avaric",
      "hin": "Avaric",
      "hrv": "Avarski",
      "hat": "Avaric",
      "hun": "Avaric",
      "arm": "Avaric",
      "ind": "Avar",
      "ice": "Avaríska",
      "ita": "Avaric",
      "jpn": "Avaric",
      "jav": "Avaric",
      "geo": "Avaric",
      "kaz": "Аварский",
      "kan": "ಅವರಿಕ್",
      "kor": "아바릭",
      "kir": "Аварский",
      "lat": "Avaric",
      "lit": "Avaric",
      "lav": "Avaric",
      "mlg": "Czech",
      "mao": "Avaric",
      "mac": "Avaric",
      "mal": "Avaric",
      "mon": "Avaric",
      "mar": "Avaric",
      "may": "Avaric",
      "mlt": "Avarik",
      "nep": "Avaric",
      "dut": "Avaric",
      "nor": "Avaric",
      "pan": "Avaric",
      "pol": "Awarów",
      "por": "Avaric",
      "rum": "Avară",
      "rus": "Аварский",
      "sin": "Avaric",
      "slo": "Avaric",
      "slv": "Avaric",
      "alb": "Avaric",
      "srp": "Аварский",
      "sun": "Avaric",
      "swe": "Avaric",
      "swa": "Avaric",
      "tam": "அவேரிக்",
      "tel": "అవారిక్",
      "tgk": "Аварский",
      "tha": "Avaric",
      "tgl": "Avaric",
      "tur": "Avaric",
      "tat": "Авар теле",
      "ukr": "Аварська",
      "urd": "Avaric",
      "uzb": "Avaric",
      "vie": "Hồi giáo",
      "xho": "Avaric",
      "yid": "Avaric",
      "chi": "阿瓦尔文"
    },
    "name": "ava",
    "tid": "fa78dd50-4c38-4b76-a64f-4488a234c8ad",
    "types": [
      "langs",
      "5"
    ],
    "repository": "kara.moe",
    "modified_at": "2020-03-31T19:04:33.601Z"
  }
}