{
  "header": {
    "description": "Karaoke Mugen Tag File",
    "version": 1
  },
  "tag": {
    "i18n": {
      "eng": "Avenue Q Ensemble"
    },
    "name": "Avenue Q Ensemble",
    "tid": "39bc697d-cd2f-47fd-abe5-06c274ae2d60",
    "types": [
      "singers",
      "2"
    ],
    "repository": "kara.moe",
    "modified_at": "2020-03-31T19:04:33.602Z"
  }
}