{
  "header": {
    "description": "Karaoke Mugen Tag File",
    "version": 1
  },
  "tag": {
    "i18n": {
      "eng": "avex"
    },
    "name": "avex",
    "repository": "kara.moe",
    "tid": "8fb6d342-5573-4d48-9085-a238b0c36968",
    "types": [
      "creators",
      "4"
    ]
  }
}