{
  "header": {
    "description": "Karaoke Mugen Tag File",
    "version": 1
  },
  "tag": {
    "i18n": {
      "eng": "Aviron Bayonnais"
    },
    "name": "Aviron Bayonnais",
    "repository": "kara.moe",
    "tid": "d459be74-2e9b-471b-824a-6267bfd24b90",
    "types": [
      "singergroups",
      "17"
    ]
  }
}