{
  "header": {
    "description": "Karaoke Mugen Tag File",
    "version": 1
  },
  "tag": {
    "i18n": {
      "eng": "Awkmiu"
    },
    "name": "Awkmiu",
    "repository": "kara.moe",
    "tid": "2601fca0-a4d7-44b1-8958-304d5f551e06",
    "types": [
      "songwriters",
      "8"
    ]
  }
}