{
  "header": {
    "description": "Karaoke Mugen Tag File",
    "version": 1
  },
  "tag": {
    "i18n": {
      "eng": "Axolotl"
    },
    "name": "Axolotl",
    "repository": "kara.moe",
    "tid": "fc081222-a5c6-4b2b-a1d0-b6da2bf42ccc",
    "types": [
      "authors",
      "6"
    ]
  }
}