{
  "header": {
    "description": "Karaoke Mugen Tag File",
    "version": 1
  },
  "tag": {
    "i18n": {
      "eng": "Ay P Beats"
    },
    "name": "Ay P Beats",
    "repository": "kara.moe",
    "tid": "1baf7f5e-fb25-4526-b286-0aef462a5708",
    "types": [
      "songwriters",
      "8"
    ]
  }
}