{
  "header": {
    "description": "Karaoke Mugen Tag File",
    "version": 1
  },
  "tag": {
    "i18n": {
      "eng": "Aya Yamane"
    },
    "modified_at": "2020-05-05T20:26:06.549Z",
    "name": "Aya Yamane",
    "repository": "kara.moe",
    "tid": "a0581c56-d209-42b9-b9e1-456e7e5bdf5a",
    "types": [
      "singers",
      "2"
    ]
  }
}