{
  "header": {
    "description": "Karaoke Mugen Tag File",
    "version": 1
  },
  "tag": {
    "i18n": {
      "eng": "Aya Sakamoto"
    },
    "name": "Aya Sakamoto",
    "tid": "2fa09e23-780b-4e52-b206-a2b2407699ae",
    "types": [
      "singers",
      "2"
    ],
    "repository": "kara.moe",
    "modified_at": "2020-03-31T19:04:33.612Z"
  }
}