{
  "header": {
    "description": "Karaoke Mugen Tag File",
    "version": 1
  },
  "tag": {
    "i18n": {
      "qro": "Aya",
      "jpn": "彩"
    },
    "name": "Aya (Heta no Yokozuki)",
    "repository": "kara.moe",
    "tid": "8742acdc-528b-43ba-ae39-41bb65d01578",
    "types": [
      "singers",
      "2"
    ]
  }
}