{
  "header": {
    "description": "Karaoke Mugen Tag File",
    "version": 1
  },
  "tag": {
    "i18n": {
      "eng": "Aya Uchida"
    },
    "name": "Aya Uchida",
    "tid": "1d78156e-3eb3-409b-b0e0-82e8ef7efe01",
    "types": [
      "singers",
      "2"
    ],
    "repository": "kara.moe",
    "modified_at": "2020-03-31T19:04:33.614Z"
  }
}