{
  "header": {
    "description": "Karaoke Mugen Tag File",
    "version": 1
  },
  "tag": {
    "i18n": {
      "eng": "Aya Gouda"
    },
    "name": "Aya Gouda",
    "tid": "0a88dc9a-5cba-4627-b68d-482f2dcb0aa1",
    "types": [
      "singers",
      "2"
    ],
    "repository": "kara.moe",
    "modified_at": "2020-03-31T19:04:33.608Z"
  }
}