{
  "header": {
    "description": "Karaoke Mugen Tag File",
    "version": 1
  },
  "tag": {
    "i18n": {
      "eng": "Aya Ueto"
    },
    "modified_at": "2020-06-15T11:01:45.922Z",
    "name": "Aya Ueto",
    "repository": "kara.moe",
    "tid": "086978d9-5b97-4c81-a043-400191b3a801",
    "types": [
      "singers",
      "2"
    ]
  }
}