{
  "header": {
    "description": "Karaoke Mugen Tag File",
    "version": 1
  },
  "tag": {
    "i18n": {
      "eng": "Aya Shirase"
    },
    "name": "Aya Shirase",
    "tid": "77e56ef6-4ee7-4133-82b0-e592397ba440",
    "types": [
      "songwriters",
      "8"
    ],
    "repository": "kara.moe",
    "modified_at": "2020-03-31T19:04:33.613Z"
  }
}