{
  "header": {
    "description": "Karaoke Mugen Tag File",
    "version": 1
  },
  "tag": {
    "i18n": {
      "qro": "Ayaka Kitazawa",
      "jpn": "北沢 綾香"
    },
    "name": "Ayaka Kitazawa",
    "repository": "kara.moe",
    "tid": "ee48a61e-311b-4a88-a28d-5f2335029178",
    "types": [
      "singers",
      "2"
    ]
  }
}