{
  "header": {
    "description": "Karaoke Mugen Tag File",
    "version": 1
  },
  "tag": {
    "i18n": {
      "eng": "Ayaka Arai"
    },
    "name": "Ayaka Arai",
    "repository": "kara.moe",
    "tid": "4fec03a2-12f9-47c9-89d1-867421668f5f",
    "types": [
      "singers",
      "2"
    ]
  }
}