{
  "header": {
    "description": "Karaoke Mugen Tag File",
    "version": 1
  },
  "tag": {
    "i18n": {
      "eng": "Ayako"
    },
    "name": "Ayako",
    "tid": "f29fd43a-b7fb-4704-b555-03182f6d4fa0",
    "types": [
      "singers",
      "2"
    ],
    "repository": "kara.moe",
    "modified_at": "2020-03-31T19:04:33.626Z"
  }
}