{
  "header": {
    "description": "Karaoke Mugen Tag File",
    "version": 1
  },
  "tag": {
    "i18n": {
      "eng": "Ayaka Wada"
    },
    "name": "Ayaka Wada",
    "tid": "ee073294-8cb5-400e-9617-1793a50ec10f",
    "types": [
      "singers",
      "2"
    ],
    "repository": "kara.moe",
    "modified_at": "2020-03-31T19:04:33.623Z"
  }
}