{
  "header": {
    "description": "Karaoke Mugen Tag File",
    "version": 1
  },
  "tag": {
    "i18n": {
      "eng": "Ayaka Suwa"
    },
    "name": "Ayaka Suwa",
    "tid": "354d309f-0f66-41b6-8085-c191e2b37370",
    "types": [
      "singers",
      "2"
    ],
    "repository": "kara.moe",
    "modified_at": "2020-03-31T19:04:33.621Z"
  }
}