{
  "header": {
    "description": "Karaoke Mugen Tag File",
    "version": 1
  },
  "tag": {
    "i18n": {
      "eng": "Ayaka Hirahara"
    },
    "name": "Ayaka Hirahara",
    "tid": "7db3bd03-265e-4c4f-ac00-8635cede49a8",
    "types": [
      "singers",
      "2"
    ],
    "repository": "kara.moe",
    "modified_at": "2020-03-31T19:04:33.618Z"
  }
}