{
  "header": {
    "description": "Karaoke Mugen Tag File",
    "version": 1
  },
  "tag": {
    "i18n": {
      "eng": "Ayanga"
    },
    "name": "Ayanga",
    "repository": "kara.moe",
    "tid": "15d2ee4f-150c-41e7-937d-a9c44838b440",
    "types": [
      "singers",
      "2"
    ]
  }
}