{
  "header": {
    "description": "Karaoke Mugen Tag File",
    "version": 1
  },
  "tag": {
    "i18n": {
      "eng": "Ayano Kaneko"
    },
    "name": "Ayano Kaneko",
    "repository": "kara.moe",
    "tid": "d279bfae-30c0-4665-8e6a-a636d25c1830",
    "types": [
      "singers",
      "2",
      "songwriters",
      "8"
    ]
  }
}