{
  "header": {
    "description": "Karaoke Mugen Tag File",
    "version": 1
  },
  "tag": {
    "i18n": {
      "eng": "Ayane Katsuki"
    },
    "name": "Ayane Katsuki",
    "tid": "14a9b209-ef19-4dd7-96c0-a85d122f7651",
    "types": [
      "songwriters",
      "8"
    ],
    "repository": "kara.moe",
    "modified_at": "2020-03-31T19:04:33.630Z"
  }
}