{
  "header": {
    "description": "Karaoke Mugen Tag File",
    "version": 1
  },
  "tag": {
    "aliases": [
      "Ayaponzu*"
    ],
    "i18n": {
      "eng": "Ayaponzu＊",
      "qro": "Ayaponzu＊",
      "jpn": "あやぽんず＊"
    },
    "name": "Ayaponzu＊",
    "repository": "kara.moe",
    "tid": "df7eaeb6-af8a-4277-8527-ce1a41d4cd39",
    "types": [
      "singers",
      "2"
    ]
  }
}