{
  "header": {
    "description": "Karaoke Mugen Tag File",
    "version": 1
  },
  "tag": {
    "i18n": {
      "eng": "Ayase"
    },
    "name": "Ayase",
    "repository": "kara.moe",
    "tid": "b36b14e9-03bb-468a-91fc-f4b5c3ed875f",
    "types": [
      "singers",
      "2"
    ]
  }
}