{
  "header": {
    "description": "Karaoke Mugen Tag File",
    "version": 1
  },
  "tag": {
    "i18n": {
      "eng": "Ayu"
    },
    "name": "Ayu",
    "tid": "b87c99b9-70ea-4e0b-9873-36651a384fe5",
    "types": [
      "singers",
      "2"
    ],
    "repository": "kara.moe",
    "modified_at": "2020-03-31T19:04:33.636Z"
  }
}