{
  "header": {
    "description": "Karaoke Mugen Tag File",
    "version": 1
  },
  "tag": {
    "i18n": {
      "eng": "Ayumi."
    },
    "name": "Ayumi.",
    "tid": "ae7c48c1-4e92-4dc4-9c26-494422d6f0df",
    "types": [
      "singers",
      "2",
      "songwriters",
      "8"
    ],
    "repository": "kara.moe",
    "modified_at": "2020-03-31T19:04:33.645Z"
  }
}