{
  "header": {
    "description": "Karaoke Mugen Tag File",
    "version": 1
  },
  "tag": {
    "i18n": {
      "eng": "Ayumi Murô"
    },
    "name": "Ayumi Murô",
    "tid": "4086b08c-e85c-42ab-b6b5-61dc58e3c1e8",
    "types": [
      "songwriters",
      "8"
    ],
    "repository": "kara.moe",
    "modified_at": "2020-03-31T19:04:33.641Z"
  }
}