{
  "header": {
    "description": "Karaoke Mugen Tag File",
    "version": 1
  },
  "tag": {
    "i18n": {
      "eng": "Ayumi Miyazaki"
    },
    "name": "Ayumi Miyazaki",
    "tid": "9b700920-91ff-4f43-9ebc-5d584792a1d4",
    "types": [
      "singers",
      "2",
      "songwriters",
      "8"
    ],
    "repository": "kara.moe",
    "modified_at": "2020-03-31T19:04:33.640Z"
  }
}