{
  "header": {
    "description": "Karaoke Mugen Tag File",
    "version": 1
  },
  "tag": {
    "i18n": {
      "eng": "Ayumi Nakamura"
    },
    "name": "Ayumi Nakamura",
    "tid": "4e2dc297-61b8-4176-81be-2603b2f6f3b3",
    "types": [
      "singers",
      "2",
      "songwriters",
      "8"
    ],
    "repository": "kara.moe",
    "modified_at": "2020-03-31T19:04:33.641Z"
  }
}