{
  "header": {
    "description": "Karaoke Mugen Tag File",
    "version": 1
  },
  "tag": {
    "i18n": {
      "eng": "Ayumi Tamura"
    },
    "name": "Ayumi Tamura",
    "tid": "8bbd1947-ee0d-4541-8221-71be0108d974",
    "types": [
      "songwriters",
      "8"
    ],
    "repository": "kara.moe",
    "modified_at": "2020-03-31T19:04:33.643Z"
  }
}