{
  "header": {
    "description": "Karaoke Mugen Tag File",
    "version": 1
  },
  "tag": {
    "i18n": {
      "eng": "Ayumi Murata"
    },
    "name": "Ayumi Murata",
    "tid": "70dd753f-259a-4d84-985b-a96d2f6d8745",
    "types": [
      "singers",
      "2"
    ],
    "repository": "kara.moe",
    "modified_at": "2020-03-31T19:04:33.640Z"
  }
}