{
  "header": {
    "description": "Karaoke Mugen Tag File",
    "version": 1
  },
  "tag": {
    "i18n": {
      "eng": "Ayumi Tsuji"
    },
    "name": "Ayumi Tsuji",
    "tid": "f6cff574-5909-425f-ae57-b0e070f2abdc",
    "types": [
      "singers",
      "2"
    ],
    "repository": "kara.moe",
    "modified_at": "2020-03-31T19:04:33.643Z"
  }
}