{
  "header": {
    "description": "Karaoke Mugen Tag File",
    "version": 1
  },
  "tag": {
    "i18n": {
      "eng": "Ayuru Oohashi"
    },
    "name": "Ayuru Oohashi",
    "tid": "5f3fd740-d5e4-43f1-a8a3-a0db0ad8dfe3",
    "types": [
      "singers",
      "2"
    ],
    "repository": "kara.moe",
    "modified_at": "2020-03-31T19:04:33.648Z"
  }
}