{
  "header": {
    "description": "Karaoke Mugen Tag File",
    "version": 1
  },
  "tag": {
    "i18n": {
      "eng": "azuki"
    },
    "name": "azuki",
    "repository": "kara.moe",
    "tid": "79f7c9c1-3969-406e-ade0-53504b4d6e3b",
    "types": [
      "songwriters",
      "8"
    ]
  }
}