{
  "header": {
    "description": "Karaoke Mugen Tag File",
    "version": 1
  },
  "tag": {
    "i18n": {
      "eng": "Azumi Asakura"
    },
    "name": "Azumi Asakura",
    "tid": "1479a024-81fb-47b3-8990-02964fbda606",
    "types": [
      "singers",
      "2"
    ],
    "repository": "kara.moe",
    "modified_at": "2020-03-31T19:04:33.653Z"
  }
}