{
  "header": {
    "description": "Karaoke Mugen Tag File",
    "version": 1
  },
  "tag": {
    "external_database_ids": {},
    "i18n": {
      "eng": "Azur Lane",
      "jpn": "アズールレーン",
      "chi": "碧蓝航线",
      "rus": "Азур Лэйн"
    },
    "name": "Azur Lane",
    "repository": "kara.moe",
    "tid": "2250b143-177c-4f14-b71a-0acef3016c9e",
    "types": [
      "franchises",
      "18"
    ]
  }
}