{
  "header": {
    "description": "Karaoke Mugen Tag File",
    "version": 1
  },
  "tag": {
    "i18n": {
      "eng": "Azusa Senou"
    },
    "name": "Azusa Senou",
    "tid": "3269913c-e6b2-4cfe-a908-f5cc81c76308",
    "types": [
      "singers",
      "2"
    ],
    "repository": "kara.moe",
    "modified_at": "2020-03-31T19:04:33.655Z"
  }
}