{
  "header": {
    "description": "Karaoke Mugen Tag File",
    "version": 1
  },
  "tag": {
    "i18n": {
      "eng": "B-Fighter Kabuto",
      "jpn": "ビーファイターカブト",
      "qro": "B-Fighter Kabuto"
    },
    "modified_at": "2020-03-31T19:04:31.019Z",
    "name": "B-Fighter Kabuto",
    "repository": "kara.moe",
    "tid": "b818d119-6cf5-48b2-ac6d-ff94cb9df24b",
    "types": [
      "series",
      "1"
    ]
  }
}