{
  "header": {
    "description": "Karaoke Mugen Tag File",
    "version": 1
  },
  "tag": {
    "external_database_ids": {
      "anilist": 100186,
      "myanimelist": 36483,
      "kitsu": 41992
    },
    "i18n": {
      "jpn": "B-PROJECT～絶頂＊エモーション～",
      "qro": "B-PROJECT ~ Zecchô*Emotion ~"
    },
    "name": "B-Project: Zecchou*Emotion",
    "repository": "kara.moe",
    "tid": "e4cd5a29-2489-4ce0-a690-e93d53580ed6",
    "types": [
      "series",
      "1"
    ]
  }
}