{
  "header": {
    "description": "Karaoke Mugen Tag File",
    "version": 1
  },
  "tag": {
    "aliases": [
      "B-Project: Kodou Ambitious",
      "kodou"
    ],
    "external_database_ids": {
      "anilist": 21751,
      "myanimelist": 33046,
      "kitsu": 12088
    },
    "i18n": {
      "eng": "B-Project",
      "jpn": "B-PROJECT 鼓動*アンビシャス",
      "chi": "B-PROJECT～鼓动＊Ambitious～",
      "qro": "B-Project: Kodô Ambitious"
    },
    "modified_at": "2020-08-19T16:29:26.106Z",
    "name": "B-Project: Kodô Ambitious",
    "repository": "kara.moe",
    "tid": "f2440d0c-ac9c-4f64-a076-ffc96c584ec9",
    "types": [
      "series",
      "1"
    ]
  }
}