{
  "header": {
    "description": "Karaoke Mugen Tag File",
    "version": 1
  },
  "tag": {
    "i18n": {
      "eng": "Babbe Music"
    },
    "name": "Babbe Music",
    "tid": "6eaebceb-6569-47cf-b598-707da3709724",
    "types": [
      "songwriters",
      "8"
    ],
    "repository": "kara.moe",
    "modified_at": "2020-03-31T19:04:33.660Z"
  }
}