{
  "header": {
    "description": "Karaoke Mugen Tag File",
    "version": 1
  },
  "tag": {
    "external_database_ids": {
      "anilist": 10196,
      "myanimelist": 10196,
      "kitsu": 6071
    },
    "i18n": {
      "eng": "Baby Princess 3D Paradise 0 [Love]",
      "jpn": "ベイビー・プリンセス 3Dぱらだいす0[ラブ]",
      "qro": "Baby Princess 3D Paradise 0 [Love]"
    },
    "modified_at": "2020-05-26T20:45:04.894Z",
    "name": "Baby Princess 3D Paradise 0 [Love]",
    "repository": "kara.moe",
    "tid": "7404e817-ea1d-476e-8220-024bf71aabf3",
    "types": [
      "series",
      "1"
    ]
  }
}