{
  "header": {
    "description": "Karaoke Mugen Tag File",
    "version": 1
  },
  "tag": {
    "aliases": [
      "LOTTE x BUMP OF CHICKEN",
      "LOTTE×BUMP OF CHICKEN"
    ],
    "external_database_ids": {
      "anilist": 106246,
      "myanimelist": 38824,
      "kitsu": 42029
    },
    "i18n": {
      "jpn": "ベイビーアイラブユーだぜ",
      "qro": "Baby I Love You Daze"
    },
    "modified_at": "2020-03-31T19:04:31.022Z",
    "name": "Baby I Love You Daze",
    "repository": "kara.moe",
    "tid": "3f57ea0a-faaa-469c-9bc0-37b6b319b664",
    "types": [
      "series",
      "1"
    ]
  }
}