{
  "header": {
    "description": "Karaoke Mugen Tag File",
    "version": 1
  },
  "tag": {
    "i18n": {
      "eng": "BACK-ON"
    },
    "name": "BACK-ON",
    "tid": "54516d2a-2536-4a13-ac5f-fe0a1a37f1cf",
    "types": [
      "singers",
      "2",
      "songwriters",
      "8"
    ],
    "repository": "kara.moe",
    "modified_at": "2020-03-31T19:04:33.664Z"
  }
}