{
  "header": {
    "description": "Karaoke Mugen Tag File",
    "version": 1
  },
  "tag": {
    "aliases": [
      "バックストリートガールズ",
      "gokudolls"
    ],
    "external_database_ids": {
      "anilist": 100665,
      "myanimelist": 36873,
      "kitsu": 41021
    },
    "i18n": {
      "eng": "Back Street Girls: Gokudols",
      "jpn": "Back Street Girls -ゴクドルズ-",
      "rus": "Из якудзы в идолы",
      "chi": "后街女孩",
      "kor": "백 스트리트 걸스: 조폭 아이돌",
      "qro": "Back Street Girls: Gokudols"
    },
    "modified_at": "2020-08-20T14:43:08.322Z",
    "name": "Back Street Girls: Gokudols",
    "repository": "kara.moe",
    "tid": "58b6c73e-c7c7-4433-8dda-4ab0a646dca9",
    "types": [
      "series",
      "1"
    ]
  }
}