{
  "header": {
    "description": "Karaoke Mugen Tag File",
    "version": 1
  },
  "tag": {
    "i18n": {
      "eng": "Bad Luck"
    },
    "name": "Bad Luck",
    "repository": "kara.moe",
    "tid": "e93274c6-5cd1-44a1-aff8-ed796b2d85bf",
    "types": [
      "singers",
      "2"
    ],
    "modified_at": "2020-03-31T19:04:33.666Z"
  }
}