{
  "header": {
    "description": "Karaoke Mugen Tag File",
    "version": 1
  },
  "tag": {
    "i18n": {
      "eng": "Bad Ass Temple"
    },
    "name": "Bad Ass Temple",
    "repository": "kara.moe",
    "tid": "be071892-82b3-4b8e-85cf-ea9ae502ae67",
    "types": [
      "singergroups",
      "17"
    ]
  }
}