{
  "header": {
    "description": "Karaoke Mugen Tag File",
    "version": 1
  },
  "tag": {
    "i18n": {
      "eng": "Bae Seok-hyeon"
    },
    "name": "Bae Seok-hyeon",
    "tid": "ba4101f6-b71b-480a-8f6a-c71ee6720df1",
    "types": [
      "songwriters",
      "8"
    ],
    "repository": "kara.moe",
    "modified_at": "2020-03-31T19:04:33.670Z"
  }
}