{
  "header": {
    "description": "Karaoke Mugen Tag File",
    "version": 1
  },
  "tag": {
    "aliases": [
      "Sousaku no, Ima!!: Baja",
      "Baja's Studio"
    ],
    "external_database_ids": {
      "anilist": 112010,
      "myanimelist": 39735,
      "kitsu": 42366
    },
    "i18n": {
      "eng": "Baja no Studio: Baja no Mita Umi",
      "jpn": "バジャのスタジオ~バジャのみた海~",
      "qro": "Baja no Studio ~Baja no Mita Umi~"
    },
    "modified_at": "2020-09-16T00:33:06.461Z",
    "name": "Baja no Studio ~Baja no Mita Umi~",
    "repository": "kara.moe",
    "tid": "57128b7a-26d4-4b95-a833-1543233eccbb",
    "types": [
      "series",
      "1"
    ]
  }
}