{
  "header": {
    "description": "Karaoke Mugen Tag File",
    "version": 1
  },
  "tag": {
    "aliases": [
      "Viieux"
    ],
    "i18n": {
      "eng": "Bakaclub"
    },
    "name": "Bakaclub",
    "repository": "kara.moe",
    "tid": "8c22c899-b3ed-42da-a548-ce00f950798b",
    "types": [
      "authors",
      "6",
      "groups",
      "9"
    ]
  }
}