{
  "header": {
    "description": "Karaoke Mugen Tag File",
    "version": 1
  },
  "tag": {
    "aliases": [
      "妖逆门"
    ],
    "external_database_ids": {
      "anilist": 2786,
      "myanimelist": 2786,
      "kitsu": 2542
    },
    "i18n": {
      "eng": "Bakegyamon",
      "jpn": "妖逆門",
      "qro": "Bakegyamon"
    },
    "modified_at": "2020-03-31T19:04:31.027Z",
    "name": "Bakegyamon",
    "repository": "kara.moe",
    "tid": "e3bfa1d8-0951-42a0-9cfc-525eee8f9ba4",
    "types": [
      "series",
      "1"
    ]
  }
}