{
  "header": {
    "description": "Karaoke Mugen Tag File",
    "version": 1
  },
  "tag": {
    "aliases": [
      "Bakuman 3nd Season",
      "Bakuman S3",
      "bakuman3",
      "Бакуман (2012)",
      "Бакуман 3"
    ],
    "external_database_ids": {
      "anilist": 12365,
      "myanimelist": 12365,
      "kitsu": 6714
    },
    "i18n": {
      "eng": "Bakuman. 3rd Season",
      "fre": "Bakuman. 3",
      "jpn": "バクマン. 3",
      "qro": "Bakuman. 3rd Season"
    },
    "modified_at": "2020-03-31T19:04:31.029Z",
    "name": "Bakuman. 3rd Season",
    "repository": "kara.moe",
    "tid": "3a385b5a-0034-4511-920f-469f46572a13",
    "types": [
      "series",
      "1"
    ]
  }
}