{
  "header": {
    "description": "Karaoke Mugen Tag File",
    "version": 1
  },
  "tag": {
    "aliases": [
      "Iroha",
      "bki",
      "Борба за власт по времето на Бакумацу: Никой не е вечен",
      "Борьба за власть времён бакумацу - никто не вечен",
      "いろは",
      "幕末机关说·伊吕波歌"
    ],
    "external_database_ids": {
      "anilist": 1576,
      "myanimelist": 1576,
      "kitsu": 1416
    },
    "i18n": {
      "eng": "Intrigue in the Bakumatsu: Irohanihoheto",
      "fre": "Bakumatsu Kikansetsu Irohanihoheto",
      "jpn": "幕末機関説 いろはにほへと",
      "kor": "막말기관설 이로하니 호헤토",
      "qro": "Bakumatsu Kikansetsu Irohanihoheto"
    },
    "modified_at": "2020-03-31T19:04:31.031Z",
    "name": "Bakumatsu Kikansetsu Irohanihoheto",
    "repository": "kara.moe",
    "tid": "151eeec4-c778-49e5-ba83-78eebd292e8d",
    "types": [
      "series",
      "1"
    ]
  }
}