{
  "header": {
    "description": "Karaoke Mugen Tag File",
    "version": 1
  },
  "tag": {
    "external_database_ids": {
      "anilist": 20649,
      "myanimelist": 23037,
      "kitsu": 8533
    },
    "i18n": {
      "eng": "Samurai Jam: Bakumatsu Rock",
      "jpn": "幕末Rock",
      "qro": "Bakumatsu Rock"
    },
    "modified_at": "2020-03-31T19:04:31.032Z",
    "name": "Bakumatsu Rock",
    "repository": "kara.moe",
    "tid": "56ba8a94-c748-4427-bf95-1b66b223a714",
    "types": [
      "series",
      "1"
    ]
  }
}