{
  "header": {
    "description": "Karaoke Mugen Tag File",
    "version": 1
  },
  "tag": {
    "aliases": [
      "BSD2",
      "Baldrsky 2",
      "éバルドスカイ ダイブ2 レコルダーレ",
      "recordare"
    ],
    "i18n": {
      "eng": "Baldr Sky Dive2 “Recordare”",
      "jpn": "バルドスカイ ダイブ2 レコルダーレ",
      "qro": "Baldr Sky Dive2 “Recordare”"
    },
    "modified_at": "2020-03-31T19:04:31.037Z",
    "name": "Baldr Sky Dive2 “Recordare”",
    "repository": "kara.moe",
    "tid": "85e8b33f-1cb8-4355-86e0-dfb592318f79",
    "types": [
      "series",
      "1"
    ]
  }
}