{
  "header": {
    "description": "Karaoke Mugen Tag File",
    "version": 1
  },
  "tag": {
    "i18n": {
      "eng": "Bancounours"
    },
    "name": "Bancounours",
    "repository": "kara.moe",
    "tid": "9eff1e26-5436-45ea-b0f3-ed66e15ae175",
    "types": [
      "authors",
      "6"
    ]
  }
}