{
  "header": {
    "description": "Karaoke Mugen Tag File",
    "version": 1
  },
  "tag": {
    "aliases": [
      "BN Pictures"
    ],
    "i18n": {
      "eng": "BANDAI NAMCO Pictures"
    },
    "name": "BANDAI NAMCO Pictures",
    "repository": "kara.moe",
    "tid": "4d17b0cf-92fd-4ab3-8035-8a260a772e51",
    "types": [
      "creators",
      "4"
    ]
  }
}