{
  "header": {
    "description": "Karaoke Mugen Tag File",
    "version": 1
  },
  "tag": {
    "i18n": {
      "eng": "Bandit"
    },
    "name": "Bandit",
    "repository": "kara.moe",
    "tid": "5166290f-6803-439e-b4ee-68dd4409f08e",
    "types": [
      "creators",
      "4"
    ]
  }
}