{
  "header": {
    "description": "Karaoke Mugen Tag File",
    "version": 1
  },
  "tag": {
    "i18n": {
      "eng": "BAND-MAID"
    },
    "modified_at": "2021-03-05T23:21:41.592Z",
    "name": "BAND-MAID",
    "repository": "kara.moe",
    "tid": "39a513a6-ca71-4f8d-a7d1-0c375b69b807",
    "types": [
      "singers",
      "2",
      "songwriters",
      "8"
    ]
  }
}