{
  "header": {
    "description": "Karaoke Mugen Tag File",
    "version": 1
  },
  "tag": {
    "i18n": {
      "eng": "band harassement"
    },
    "name": "band harassement",
    "tid": "a5e1bda5-f234-4998-95ac-4a332af32bbc",
    "types": [
      "singers",
      "2"
    ],
    "repository": "kara.moe",
    "modified_at": "2020-03-31T19:04:33.680Z"
  }
}