{
  "header": {
    "description": "Karaoke Mugen Tag File",
    "version": 1
  },
  "tag": {
    "aliases": [
      "Bahng Chan"
    ],
    "i18n": {
      "eng": "Bang Chan",
      "kor": "방찬"
    },
    "name": "Bang Chan",
    "repository": "kara.moe",
    "tid": "d58db71a-a082-422d-9a3f-5339d5aec9af",
    "types": [
      "singers",
      "2",
      "songwriters",
      "8"
    ]
  }
}