{
  "header": {
    "description": "Karaoke Mugen Tag File",
    "version": 1
  },
  "tag": {
    "i18n": {
      "eng": "Bang Yong-seok"
    },
    "name": "Bang Yong-seok",
    "tid": "fb620e48-e8b6-418f-9baa-736440306755",
    "types": [
      "songwriters",
      "8"
    ],
    "repository": "kara.moe",
    "modified_at": "2020-03-31T19:04:33.686Z"
  }
}