{
  "header": {
    "description": "Karaoke Mugen Tag File",
    "version": 1
  },
  "tag": {
    "i18n": {
      "eng": "Bank of Innovation"
    },
    "name": "Bank of Innovation",
    "repository": "kara.moe",
    "tid": "f2c0b572-ca3b-4145-97d1-e904217a1bff",
    "types": [
      "creators",
      "4"
    ]
  }
}