{
  "header": {
    "description": "Karaoke Mugen Tag File",
    "version": 1
  },
  "tag": {
    "aliases": [
      "Bannou Bunka Nekomusume Dash!",
      "bannou"
    ],
    "external_database_ids": {
      "anilist": 374,
      "myanimelist": 374,
      "kitsu": 341
    },
    "i18n": {
      "eng": "All Purpose Cultural Cat Girl Nuku Nuku DASH!",
      "jpn": "万能文化猫娘DASH!",
      "heb": "נוקו נוקו דאש",
      "qro": "Bannô Bunka Nekomusume Dash!"
    },
    "modified_at": "2020-09-03T21:31:26.788Z",
    "name": "Bannô Bunka Nekomusume Dash!",
    "repository": "kara.moe",
    "tid": "0591d46b-c978-485e-ba43-d8cc4cd0e198",
    "types": [
      "series",
      "1"
    ]
  }
}