{
  "header": {
    "description": "Karaoke Mugen Tag File",
    "version": 1
  },
  "tag": {
    "i18n": {
      "eng": "Bård Vegard Urheim Ylvisåker"
    },
    "modified_at": "2021-09-12T11:41:16.888Z",
    "name": "Bård Vegard Urheim Ylvisåker",
    "repository": "kara.moe",
    "tid": "6a673e74-7f35-487e-9452-286b1ca4e026",
    "types": [
      "songwriters",
      "8"
    ]
  }
}