{
  "header": {
    "description": "Karaoke Mugen Tag File",
    "version": 1
  },
  "tag": {
    "i18n": {
      "eng": "Barrett Wilbert Weed"
    },
    "name": "Barrett Wilbert Weed",
    "repository": "kara.moe",
    "tid": "13f00fe1-6cf3-49aa-b00e-f9a587f3df86",
    "types": [
      "singers",
      "2"
    ]
  }
}