{
  "header": {
    "description": "Karaoke Mugen Tag File",
    "version": 1
  },
  "tag": {
    "i18n": {
      "eng": "BaseSon"
    },
    "name": "BaseSon",
    "tid": "f2355cb5-91ba-44b9-9df3-4da25f1d90e5",
    "types": [
      "creators",
      "4"
    ],
    "repository": "kara.moe",
    "modified_at": "2020-03-31T19:04:33.691Z"
  }
}