{
  "header": {
    "description": "Karaoke Mugen Tag File",
    "version": 1
  },
  "tag": {
    "aliases": [
      "Basilisk: Kouga Ninpou Chou",
      "Basilisk: Super-Refined Ninja Arts",
      "Basilisk: The Kouga Ninja Scrolls",
      "Базилиск: Нинджа свитъкът на Кога",
      "Базіліск",
      "kouga",
      "ninpou",
      "chou"
    ],
    "external_database_ids": {
      "anilist": 67,
      "myanimelist": 67,
      "kitsu": 48
    },
    "i18n": {
      "ara": "شينوبي",
      "eng": "Basilisk",
      "fin": "Basilisk",
      "fre": "Basilisk",
      "ger": "Basilisk: Chronik der Koga-Ninja",
      "jpn": "バジリスク 甲賀忍法帖",
      "kor": "바실리스크 코우가 인법첩",
      "por": "Basilisk - O Pergaminho Secreto do Ninja Kouga",
      "rus": "Василиск",
      "spa": "Basilisk",
      "qro": "Basilisk: Kôga Ninpô Chô"
    },
    "modified_at": "2020-03-31T19:04:31.049Z",
    "name": "Basilisk: Kôga Ninpô Chô",
    "repository": "kara.moe",
    "tid": "983a813c-9b93-4dbe-9271-a9ab69a4c5c1",
    "types": [
      "series",
      "1"
    ]
  }
}