{
  "header": {
    "description": "Karaoke Mugen Tag File",
    "version": 1
  },
  "tag": {
    "i18n": {
      "eng": "Bastián"
    },
    "name": "Bastián",
    "repository": "kara.moe",
    "tid": "5724f82e-adf8-4581-90f1-2801b625eef3",
    "types": [
      "authors",
      "6"
    ]
  }
}