{
  "header": {
    "description": "Karaoke Mugen Tag File",
    "version": 1
  },
  "tag": {
    "aliases": [
      "Les Aventures de Batman et Robin"
    ],
    "i18n": {
      "eng": "Batman: The Animated Series",
      "fre": "Batman, la série animée"
    },
    "modified_at": "2020-10-30T00:03:00.660Z",
    "name": "Batman: The Animated Series",
    "repository": "kara.moe",
    "tid": "9bd15fdf-04b2-41af-bf39-6965b7ddba9b",
    "types": [
      "series",
      "1"
    ]
  }
}