{
  "header": {
    "description": "Karaoke Mugen Tag File",
    "version": 1
  },
  "tag": {
    "external_database_ids": {
      "anilist": 11017,
      "myanimelist": 11017,
      "kitsu": 6440
    },
    "i18n": {
      "eng": "Battle Spirits: Heroes",
      "jpn": "バトルスピリッツ 覇王[ヒーローズ]",
      "qro": "Battle Spirits: Heroes"
    },
    "modified_at": "2020-03-31T19:04:31.055Z",
    "name": "Battle Spirits: Heroes",
    "repository": "kara.moe",
    "tid": "842a27d9-4d9f-4bcd-86ab-653479ca2392",
    "types": [
      "series",
      "1"
    ]
  }
}