{
  "header": {
    "description": "Karaoke Mugen Tag File",
    "version": 1
  },
  "tag": {
    "i18n": {
      "eng": "BEAST"
    },
    "name": "BEAST",
    "tid": "e89fecfd-cde2-443a-9dd7-74232f7bef6e",
    "types": [
      "singers",
      "2"
    ],
    "repository": "kara.moe",
    "modified_at": "2020-03-31T19:04:33.696Z"
  }
}