{
  "header": {
    "description": "Karaoke Mugen Tag File",
    "version": 1
  },
  "tag": {
    "i18n": {
      "eng": "beatmania IIDX",
      "jpn": "ビートマニア ツーディーエックス",
      "qro": "beatmania IIDX"
    },
    "modified_at": "2020-03-31T19:04:31.059Z",
    "name": "beatmania IIDX",
    "repository": "kara.moe",
    "tid": "b6d2d054-d875-44bc-a5a7-218fca59c358",
    "types": [
      "series",
      "1"
    ]
  }
}