{
  "header": {
    "description": "Karaoke Mugen Tag File",
    "version": 1
  },
  "tag": {
    "i18n": {
      "eng": "Beatzarre"
    },
    "modified_at": "2021-04-04T12:58:31.162Z",
    "name": "Beatzarre",
    "repository": "kara.moe",
    "tid": "d628922c-7fc6-4df6-84ee-6cbb484915bd",
    "types": [
      "songwriters",
      "8"
    ]
  }
}