{
  "header": {
    "description": "Karaoke Mugen Tag File",
    "version": 1
  },
  "tag": {
    "i18n": {
      "eng": "BEATNINE"
    },
    "modified_at": "2021-09-19T20:13:53.583Z",
    "name": "BEATNINE",
    "repository": "kara.moe",
    "tid": "49519d1c-d96d-4322-9911-f2c4dca78f42",
    "types": [
      "songwriters",
      "8"
    ]
  }
}