{
  "header": {
    "description": "Karaoke Mugen Tag File",
    "version": 1
  },
  "tag": {
    "i18n": {
      "eng": "Beauty and the Beast (2017)",
      "fre": "La Belle et la Bête (2017)",
      "jpn": "美女と野獣 (2017)",
      "qro": "Beauty and the Beast (2017)"
    },
    "modified_at": "2020-03-31T19:04:31.060Z",
    "name": "Beauty and the Beast (2017)",
    "repository": "kara.moe",
    "tid": "3324ff2e-6573-4586-b740-f66d47a88e36",
    "types": [
      "series",
      "1"
    ]
  }
}