{
  "header": {
    "description": "Karaoke Mugen Tag File",
    "version": 1
  },
  "tag": {
    "i18n": {
      "eng": "Becca"
    },
    "name": "Becca",
    "tid": "a8da1f83-edff-44e3-9533-b974cf3e0d8b",
    "types": [
      "singers",
      "2",
      "songwriters",
      "8"
    ],
    "repository": "kara.moe",
    "modified_at": "2020-03-31T19:04:33.702Z"
  }
}