{
  "header": {
    "description": "Karaoke Mugen Tag File",
    "version": 1
  },
  "tag": {
    "aliases": [
      "Бек",
      "ベック"
    ],
    "external_database_ids": {
      "anilist": 57,
      "myanimelist": 57,
      "kitsu": 38
    },
    "i18n": {
      "eng": "Beck: Mongolian Chop Squad",
      "fre": "Beck",
      "ita": "Beck - Mongolian Chop Squad",
      "jpn": "ベック",
      "qro": "Beck: Mongolian Chop Squad"
    },
    "modified_at": "2020-03-31T19:04:31.061Z",
    "name": "Beck: Mongolian Chop Squad",
    "repository": "kara.moe",
    "tid": "48ce5bc3-be8e-4578-8771-29b2581e3af9",
    "types": [
      "series",
      "1"
    ]
  }
}