{
  "header": {
    "description": "Karaoke Mugen Tag File",
    "version": 1
  },
  "tag": {
    "aliases": [
      "Beelzebub TV",
      "beel",
      "Белзебъб",
      "Вельзепуз",
      "بلزباب",
      "惡魔奶爸"
    ],
    "external_database_ids": {
      "anilist": 9513,
      "myanimelist": 9513,
      "kitsu": 5766
    },
    "i18n": {
      "eng": "Beelzebub",
      "fre": "Beelzebub",
      "jpn": "べるぜバブ",
      "qro": "Beelzebub"
    },
    "modified_at": "2020-03-31T19:04:31.063Z",
    "name": "Beelzebub",
    "repository": "kara.moe",
    "tid": "0cbbdc05-45d9-4eb1-a1cb-10456bc2d59b",
    "types": [
      "series",
      "1",
      "franchises",
      "18"
    ]
  }
}