{
  "header": {
    "description": "Karaoke Mugen Tag File",
    "version": 1
  },
  "tag": {
    "i18n": {
      "eng": "BELIFT LAB Inc."
    },
    "name": "BELIFT LAB Inc.",
    "repository": "kara.moe",
    "tid": "7af075f7-9eb6-41c4-a28c-230b93f38781",
    "types": [
      "creators",
      "4"
    ]
  }
}