{
  "header": {
    "description": "Karaoke Mugen Tag File",
    "version": 1
  },
  "tag": {
    "aliases": [
      "Ahmad Balshe"
    ],
    "i18n": {
      "eng": "Belly"
    },
    "modified_at": "2021-06-04T21:03:09.977Z",
    "name": "Belly",
    "repository": "kara.moe",
    "tid": "be0241c5-3829-49e0-bf25-98d018572768",
    "types": [
      "songwriters",
      "8"
    ]
  }
}