{
  "header": {
    "description": "Karaoke Mugen Tag File",
    "version": 1
  },
  "tag": {
    "i18n": {
      "eng": "Bélokapi"
    },
    "name": "Bélokapi",
    "tid": "52496446-0fa9-4281-8edb-e2b1f0e0dc3c",
    "types": [
      "creators",
      "4"
    ],
    "repository": "kara.moe",
    "modified_at": "2020-03-31T19:04:33.708Z"
  }
}