{
  "header": {
    "description": "Karaoke Mugen Tag File",
    "version": 1
  },
  "tag": {
    "i18n": {
      "eng": "Benedique"
    },
    "modified_at": "2021-05-05T20:45:15.167Z",
    "name": "Benedique",
    "repository": "kara.moe",
    "tid": "db9ce8e2-a810-4f6f-9ebb-ef43dd292403",
    "types": [
      "creators",
      "4"
    ]
  }
}