{
  "header": {
    "description": "Karaoke Mugen Tag File",
    "version": 1
  },
  "tag": {
    "i18n": {
      "eng": "Benjamin Franklin"
    },
    "name": "Benjamin Franklin",
    "tid": "8b713fb8-07b2-4775-a094-8ca07fede289",
    "types": [
      "songwriters",
      "8"
    ],
    "repository": "kara.moe",
    "modified_at": "2020-03-31T19:04:33.713Z"
  }
}