{
  "header": {
    "description": "Karaoke Mugen Tag File",
    "version": 1
  },
  "tag": {
    "i18n": {
      "eng": "Benjamin Esser"
    },
    "modified_at": "2021-11-21T21:53:39.410Z",
    "name": "Benjamin Esser",
    "repository": "kara.moe",
    "tid": "54908f32-35ca-49ad-bdbc-491f3f262f0c",
    "types": [
      "songwriters",
      "8"
    ]
  }
}