{
  "header": {
    "description": "Karaoke Mugen Tag File",
    "version": 1
  },
  "tag": {
    "i18n": {
      "eng": "Benjamin Levin"
    },
    "name": "Benjamin Levin",
    "repository": "kara.moe",
    "tid": "4d463f8f-5b10-48bc-a548-8a7d98ff5d6e",
    "types": [
      "songwriters",
      "8"
    ]
  }
}