{
  "header": {
    "description": "Karaoke Mugen Tag File",
    "version": 1
  },
  "tag": {
    "i18n": {
      "eng": "Benny Sings"
    },
    "name": "Benny Sings",
    "tid": "9e76819b-f48a-4188-ad03-d6506c19c7fd",
    "types": [
      "songwriters",
      "8"
    ],
    "repository": "kara.moe",
    "modified_at": "2020-03-31T19:04:33.716Z"
  }
}