{
  "header": {
    "description": "Karaoke Mugen Tag File",
    "version": 1
  },
  "tag": {
    "aliases": [
      "Saitousan"
    ],
    "external_database_ids": {
      "anilist": 144092,
      "kitsu": 45788,
      "myanimelist": 50854
    },
    "i18n": {
      "eng": "Handyman Saitou in Another World",
      "qro": "Benriya Saitô-san, Isekai ni Iku",
      "jpn": "便利屋斎藤さん, 異世界に行く",
      "ukr": "Майстер на всі руки Сайто в іншому світі",
      "chi": "万事屋斋藤，到异世界"
    },
    "name": "Benriya Saitô-san, Isekai ni Iku",
    "repository": "kara.moe",
    "tid": "e51f8b80-9b59-4ab0-9701-3c37a289dfc8",
    "types": [
      "series",
      "1"
    ]
  }
}