{
  "header": {
    "description": "Karaoke Mugen Tag File",
    "version": 1
  },
  "tag": {
    "i18n": {
      "eng": "Beppu City"
    },
    "name": "Beppu City",
    "repository": "kara.moe",
    "tid": "d4ba34eb-c402-476c-9b3e-457d0e831b21",
    "types": [
      "series",
      "1"
    ]
  }
}