{
  "header": {
    "description": "Karaoke Mugen Tag File",
    "version": 1
  },
  "tag": {
    "i18n": {
      "eng": "BERABOW"
    },
    "name": "BERABOW",
    "repository": "kara.moe",
    "tid": "82fbfd84-5a25-4b5c-bb4f-1bb2fcdc9d41",
    "types": [
      "creators",
      "4"
    ]
  }
}