{
  "header": {
    "description": "Karaoke Mugen Tag File",
    "version": 1
  },
  "tag": {
    "i18n": {
      "eng": "BeReKet"
    },
    "name": "BeReKet",
    "repository": "kara.moe",
    "tid": "2ebd11fd-ced2-4a3e-9ee0-82783cf352a6",
    "types": [
      "creators",
      "4"
    ]
  }
}