{
  "header": {
    "description": "Karaoke Mugen Tag File",
    "version": 1
  },
  "tag": {
    "i18n": {
      "eng": "Bernad Denimal"
    },
    "name": "Bernad Denimal",
    "tid": "5f917572-c664-458c-a546-e930437e088f",
    "types": [
      "singers",
      "2"
    ],
    "repository": "kara.moe",
    "modified_at": "2020-03-31T19:04:33.718Z"
  }
}