{
  "header": {
    "description": "Karaoke Mugen Tag File",
    "version": 1
  },
  "tag": {
    "aliases": [
      "Берсерк (2016)"
    ],
    "external_database_ids": {
      "anilist": 21560,
      "kitsu": 11655,
      "myanimelist": 32379
    },
    "i18n": {
      "eng": "Berserk (2016)",
      "jpn": "ベルセルク (2016) "
    },
    "name": "Berserk",
    "repository": "kara.moe",
    "tid": "d08e4325-f6f3-46ee-9a0f-5276f85a86f5",
    "types": [
      "series",
      "1"
    ]
  }
}