{
  "header": {
    "description": "Karaoke Mugen Tag File",
    "version": 1
  },
  "tag": {
    "aliases": [
      "Berserk: Ougon Jidai Hen III - Kourin",
      "ougon",
      "kourin"
    ],
    "external_database_ids": {
      "anilist": 12115,
      "myanimelist": 12115,
      "kitsu": 6665
    },
    "i18n": {
      "eng": "Berserk: The Golden Age Arc III - The Advent",
      "jpn": "ベルセルク 黄金時代篇Ⅲ 降臨 ",
      "fre": "Berserk : L'Âge d'or III - L'Avent",
      "qro": "Berserk: Ôgon Jidai-hen III - Kôrin"
    },
    "modified_at": "2020-08-17T16:20:11.188Z",
    "name": "Berserk: Ôgon Jidai-hen III - Kôrin",
    "repository": "kara.moe",
    "tid": "67551f51-86c8-4058-bf55-9b6ab85a8340",
    "types": [
      "series",
      "1"
    ]
  }
}