{
  "header": {
    "description": "Karaoke Mugen Tag File",
    "version": 1
  },
  "tag": {
    "external_database_ids": {
      "anilist": 97643,
      "myanimelist": 34055,
      "kitsu": 12569
    },
    "i18n": {
      "eng": "Berserk (2016) 2nd season",
      "jpn": "ベルセルク (2017)",
      "qro": "Berserk 2nd Season"
    },
    "modified_at": "2020-03-31T19:04:31.065Z",
    "name": "Berserk 2nd Season",
    "repository": "kara.moe",
    "tid": "6b4a34b5-ca3a-4300-bc66-9ecef6b58f70",
    "types": [
      "series",
      "1"
    ]
  }
}