{
  "header": {
    "description": "Karaoke Mugen Tag File",
    "version": 1
  },
  "tag": {
    "i18n": {
      "eng": "Bertrand Pierre"
    },
    "name": "Bertrand Pierre",
    "repository": "kara.moe",
    "tid": "865a7cde-7b92-4ae5-bc9b-90da55e287f3",
    "types": [
      "songwriters",
      "8",
      "singers",
      "2"
    ]
  }
}