{
  "header": {
    "description": "Karaoke Mugen Tag File",
    "version": 1
  },
  "tag": {
    "i18n": {
      "eng": "Bertrand Cantat"
    },
    "modified_at": "2020-07-11T21:42:49.525Z",
    "name": "Bertrand Cantat",
    "repository": "kara.moe",
    "tid": "a9da8d01-bfee-4d37-b816-eed778159eb0",
    "types": [
      "songwriters",
      "8"
    ]
  }
}