{
  "header": {
    "description": "Karaoke Mugen Tag File",
    "version": 1
  },
  "tag": {
    "i18n": {
      "eng": "Bettel Gavis"
    },
    "name": "Bettel Gavis",
    "repository": "kara.moe",
    "tid": "10b0a278-5960-471f-ba22-45accff72e59",
    "types": [
      "singers",
      "2"
    ]
  }
}