{
  "header": {
    "description": "Karaoke Mugen Tag File",
    "version": 1
  },
  "tag": {
    "i18n": {
      "eng": "Beyoncé Knowles"
    },
    "name": "Beyoncé Knowles",
    "repository": "kara.moe",
    "tid": "71e32ef8-1314-4840-8ff2-e8d8523c9f66",
    "types": [
      "songwriters",
      "8"
    ]
  }
}