{
  "header": {
    "description": "Karaoke Mugen Tag File",
    "version": 1
  },
  "tag": {
    "i18n": {
      "eng": "BiBi"
    },
    "name": "BiBi",
    "repository": "kara.moe",
    "tid": "8ddeed4c-d8d1-480b-ab2e-179013612a48",
    "types": [
      "singergroups",
      "17"
    ]
  }
}