{
  "header": {
    "description": "Karaoke Mugen Tag File",
    "version": 1
  },
  "tag": {
    "i18n": {
      "eng": "Big Brother Recordings"
    },
    "modified_at": "2020-05-07T17:56:44.314Z",
    "name": "Big Brother Recordings",
    "repository": "kara.moe",
    "tid": "4eba50d2-34d6-4a34-8e5a-c63075e814e1",
    "types": [
      "creators",
      "4"
    ]
  }
}