{
  "header": {
    "description": "Karaoke Mugen Tag File",
    "version": 1
  },
  "tag": {
    "i18n": {
      "eng": "BIGBANG"
    },
    "name": "BIGBANG",
    "tid": "d815dd7d-9cc5-48f0-9b11-d38e504f21ee",
    "types": [
      "singers",
      "2"
    ],
    "repository": "kara.moe",
    "modified_at": "2020-03-31T19:04:33.730Z"
  }
}