{
  "header": {
    "description": "Karaoke Mugen Tag File",
    "version": 1
  },
  "tag": {
    "i18n": {
      "eng": "BIGMAMA"
    },
    "modified_at": "2021-05-27T02:38:21.786Z",
    "name": "BIGMAMA",
    "repository": "kara.moe",
    "tid": "585dedbe-b6a6-4454-97d2-97ace3118da6",
    "types": [
      "singers",
      "2",
      "songwriters",
      "8"
    ]
  }
}