{
  "header": {
    "description": "Karaoke Mugen Tag File",
    "version": 1
  },
  "tag": {
    "i18n": {
      "eng": "Bikutâ Shônen Gasshô-tai"
    },
    "name": "Bikutâ Shônen Gasshô-tai",
    "tid": "f52397bb-b6bf-4d07-9bd4-f87d34e7be69",
    "types": [
      "singers",
      "2"
    ],
    "repository": "kara.moe",
    "modified_at": "2020-03-31T19:04:33.732Z"
  }
}