{
  "header": {
    "description": "Karaoke Mugen Tag File",
    "version": 1
  },
  "tag": {
    "i18n": {
      "eng": "Billy Steinberg"
    },
    "name": "Billy Steinberg",
    "repository": "kara.moe",
    "tid": "874c3bce-3727-4b96-85aa-3f9a89db5091",
    "types": [
      "songwriters",
      "8"
    ]
  }
}