{
  "header": {
    "description": "Karaoke Mugen Tag File",
    "version": 1
  },
  "tag": {
    "i18n": {
      "eng": "Bill Muir"
    },
    "name": "Bill Muir",
    "tid": "573b41b4-dbdb-4e57-87a6-4891672345b8",
    "types": [
      "singers",
      "2"
    ],
    "repository": "kara.moe",
    "modified_at": "2020-03-31T19:04:33.733Z"
  }
}