{
  "header": {
    "description": "Karaoke Mugen Tag File",
    "version": 1
  },
  "tag": {
    "i18n": {
      "eng": "Billy Van and Laurie Bower Singers"
    },
    "name": "Billy Van and Laurie Bower Singers",
    "tid": "bd4a5b84-a35a-491a-953a-2c2f91f629c6",
    "types": [
      "singers",
      "2"
    ],
    "repository": "kara.moe",
    "modified_at": "2020-03-31T19:04:33.735Z"
  }
}