{
  "header": {
    "description": "Karaoke Mugen Tag File",
    "version": 1
  },
  "tag": {
    "i18n": {
      "eng": "Bill Bottrell"
    },
    "name": "Bill Bottrell",
    "repository": "kara.moe",
    "tid": "257b3627-64c7-4312-b8bc-f5787d8d1adc",
    "types": [
      "songwriters",
      "8"
    ]
  }
}