{
  "header": {
    "description": "Karaoke Mugen Tag File",
    "version": 1
  },
  "tag": {
    "i18n": {
      "eng": "BiS"
    },
    "name": "BiS",
    "tid": "597d6d9d-37af-47b7-b531-86911595ee1e",
    "types": [
      "singers",
      "2"
    ],
    "repository": "kara.moe",
    "modified_at": "2020-03-31T19:04:33.738Z"
  }
}