{
  "header": {
    "description": "Karaoke Mugen Tag File",
    "version": 1
  },
  "tag": {
    "aliases": [
      "Bishoujo Senshi Sailor Moon S",
      "Bishoujo Senshi Sailormoon Super",
      "Pretty Guardian Sailor Moon S",
      "Pretty Soldier Sailor Moon S",
      "SM S",
      "sms",
      "bishoujo"
    ],
    "external_database_ids": {
      "anilist": 532,
      "myanimelist": 532,
      "kitsu": 491
    },
    "i18n": {
      "chi": "美少女战士S",
      "eng": "Sailor Moon S",
      "fre": "Sailor Moon S",
      "ger": "Sailor Moon S",
      "hun": "Varázslatos álmok S",
      "ita": "Sailor Moon e il Cristallo del Cuore",
      "jpn": "美少女戦士セーラームーン S",
      "pol": "Czarodziejka z Księżyca: Sailor Moon S",
      "por": "Sailor Moon S",
      "rum": "Sailor Moon S",
      "rus": "Сейлормун - супервоин",
      "spa": "Sailor Moon S",
      "tha": "เซเลอร์มูน S",
      "qro": "Bishôjo Senshi Sailor Moon S"
    },
    "modified_at": "2020-03-31T19:04:31.076Z",
    "name": "Bishôjo Senshi Sailor Moon S",
    "repository": "kara.moe",
    "tid": "452ab99e-34b8-4872-b0e4-c8ca3404079d",
    "types": [
      "series",
      "1"
    ]
  }
}