{
  "header": {
    "description": "Karaoke Mugen Tag File",
    "version": 1
  },
  "tag": {
    "aliases": [
      "Bishoujo Senshi Sailor Moon Crystal",
      "Bishoujo Senshi Sailor Moon Crystal Season I",
      "Bishoujo Senshi Sailor Moon Crystal Season II",
      "Pretty Guardian Sailor Moon Crystal",
      "Pretty Guardian Sailor Moon: Crystal",
      "Pretty Soldier Sailor Moon (2014)",
      "Pretty Soldier Sailor Moon Crystal",
      "SMC",
      "Sailor Moon Remake",
      "sm2014",
      "Красавица-воин Сейлор Мун: Кристалл",
      "Красивата пазителка Сейлър Муун: Кристал",
      "Прекрасная воительница Сейлор Мун: Кристалл",
      "美少女戦士セーラームーン Crystal Season I",
      "美少女戦士セーラームーン Crystal Season II",
      "美少女戦士セーラームーン クリスタル",
      "美少女戦士セーラームーンCrystal 第1期",
      "美少女戦士セーラームーンCrystal 第2期",
      "bishoujo"
    ],
    "external_database_ids": {
      "anilist": 14751,
      "myanimelist": 14751,
      "kitsu": 7163
    },
    "i18n": {
      "eng": "Sailor Moon Crystal",
      "fre": "Sailor Moon Crystal",
      "jpn": "美少女戦士セーラームーン Crystal",
      "por": "Sailor Moon Crystal",
      "spa": "Sailor Moon Crystal",
      "qro": "Bishôjo Senshi Sailor Moon Crystal"
    },
    "modified_at": "2020-06-21T23:45:31.966Z",
    "name": "Bishôjo Senshi Sailor Moon Crystal",
    "repository": "kara.moe",
    "tid": "edcddb04-fdc9-4410-8804-cc6dd36a5c2f",
    "types": [
      "series",
      "1"
    ]
  }
}