{
  "header": {
    "description": "Karaoke Mugen Tag File",
    "version": 1
  },
  "tag": {
    "aliases": [
      "Bishoujo Mangekyou Shoujo",
      "Meishaonv Wanhuajing -Beizuzhou zhi Chuanshuo Shaonv-"
    ],
    "i18n": {
      "eng": "Bishoujo Mangekyou: A Girl's Cursed Legend",
      "jpn": "美少女万華鏡 -呪われし伝説の少女-",
      "qro": "Bishôjo Mangekyô -Norowareshi Densetsu no Shôjo-",
      "chi": "美少女万华镜 -被诅咒之传说少女-"
    },
    "name": "Bishôjo Mangekyô -Norowareshi Densetsu no Shôjo-",
    "repository": "kara.moe",
    "tid": "191c8c91-63c2-4511-bb88-bd6a54c27b36",
    "types": [
      "series",
      "1"
    ]
  }
}