{
  "header": {
    "description": "Karaoke Mugen Tag File",
    "version": 1
  },
  "tag": {
    "i18n": {
      "eng": "Bitoman"
    },
    "name": "Bitoman",
    "repository": "kara.moe",
    "tid": "c5fa3e4b-3582-4fbb-a48c-bf758c6d2bcd",
    "types": [
      "series",
      "1"
    ]
  }
}