{
  "header": {
    "description": "Karaoke Mugen Tag File",
    "version": 1
  },
  "tag": {
    "i18n": {
      "eng": "bkub Ookawa"
    },
    "name": "bkub Ookawa",
    "tid": "510e1d76-9c22-4e69-aae6-964cbe7c45be",
    "types": [
      "songwriters",
      "8"
    ],
    "repository": "kara.moe",
    "modified_at": "2020-03-31T19:04:33.742Z"
  }
}