{
  "header": {
    "description": "Karaoke Mugen Tag File",
    "version": 1
  },
  "tag": {
    "i18n": {
      "eng": "Blackstar"
    },
    "modified_at": "2020-03-31T19:04:31.090Z",
    "name": "Blackstar",
    "repository": "kara.moe",
    "tid": "119d1198-0118-4410-ae84-37eb6ddc5560",
    "types": [
      "series",
      "1"
    ]
  }
}