{
  "header": {
    "description": "Karaoke Mugen Tag File",
    "version": 1
  },
  "tag": {
    "aliases": [
      "bctv"
    ],
    "external_database_ids": {
      "anilist": 97940,
      "myanimelist": 34572,
      "kitsu": 13209
    },
    "i18n": {
      "bul": "Черна детелина",
      "eng": "Black Clover",
      "fre": "Black Clover",
      "jpn": "ブラッククローバー",
      "qro": "Black Clover (2017)"
    },
    "modified_at": "2020-03-31T19:04:31.082Z",
    "name": "Black Clover (2017)",
    "repository": "kara.moe",
    "tid": "db775746-e1f4-49e0-9cca-e507222b80a8",
    "types": [
      "series",
      "1"
    ]
  }
}