{
  "header": {
    "description": "Karaoke Mugen Tag File",
    "version": 1
  },
  "tag": {
    "i18n": {
      "eng": "Blackground Records"
    },
    "name": "Blackground Records",
    "repository": "kara.moe",
    "tid": "171b983b-a26e-44e6-b11a-4abf51c87a3b",
    "types": [
      "creators",
      "4"
    ]
  }
}