{
  "header": {
    "description": "Karaoke Mugen Tag File",
    "version": 1
  },
  "tag": {
    "i18n": {
      "eng": "Black Eyed Pilseung"
    },
    "name": "Black Eyed Pilseung",
    "repository": "kara.moe",
    "tid": "9c0ac289-1862-4b50-bf6e-31fc563114ff",
    "types": [
      "songwriters",
      "8"
    ]
  }
}