{
  "header": {
    "description": "Karaoke Mugen Tag File",
    "version": 1
  },
  "tag": {
    "i18n": {
      "eng": "Black Lace"
    },
    "name": "Black Lace",
    "repository": "kara.moe",
    "tid": "3ebce48d-2bb3-44e4-b689-c93ce85589de",
    "types": [
      "singers",
      "2"
    ]
  }
}