{
  "header": {
    "description": "Karaoke Mugen Tag File",
    "version": 1
  },
  "tag": {
    "aliases": [
      "Apagão",
      "ブレードランナー ブラックアウト2022"
    ],
    "i18n": {
      "eng": "Blade Runner: Black Out 2022"
    },
    "name": "Blade Runner: Black Out 2022",
    "repository": "kara.moe",
    "tid": "4e0c1c9c-c1e9-455c-abd6-c2cf98ea5692",
    "types": [
      "series",
      "1"
    ]
  }
}