{
  "header": {
    "description": "Karaoke Mugen Tag File",
    "version": 1
  },
  "tag": {
    "i18n": {
      "eng": "Blake Slatkin"
    },
    "name": "Blake Slatkin",
    "repository": "kara.moe",
    "tid": "1cf0acc8-2d12-474b-95ed-390ea08d2e33",
    "types": [
      "songwriters",
      "8"
    ]
  }
}