{
  "header": {
    "description": "Karaoke Mugen Tag File",
    "version": 1
  },
  "tag": {
    "i18n": {
      "eng": "Blanche Ravalec"
    },
    "name": "Blanche Ravalec",
    "tid": "888816af-9b89-47cf-8a51-ec120088436b",
    "types": [
      "singers",
      "2"
    ],
    "repository": "kara.moe",
    "modified_at": "2020-03-31T19:04:33.746Z"
  }
}