{
  "header": {
    "description": "Karaoke Mugen Tag File",
    "version": 1
  },
  "tag": {
    "aliases": [
      "BlazBlue CT"
    ],
    "i18n": {
      "eng": "BlazBlue: Calamity Trigger",
      "jpn": "ブレイブルー カラミティ トリガー",
      "qro": "BlazBlue: Calamity Trigger"
    },
    "modified_at": "2020-03-31T19:04:31.094Z",
    "name": "BlazBlue: Calamity Trigger",
    "repository": "kara.moe",
    "tid": "a24d0bc8-eae2-425d-9b2f-9f742f910b21",
    "types": [
      "series",
      "1"
    ]
  }
}