{
  "header": {
    "description": "Karaoke Mugen Tag File",
    "version": 1
  },
  "tag": {
    "aliases": [
      "BlazBlue CS"
    ],
    "i18n": {
      "eng": "BlazBlue: Continuum Shift",
      "jpn": "ブレイブルー コンティニュアム シフト",
      "qro": "BlazBlue: Continuum Shift"
    },
    "modified_at": "2020-03-31T19:04:31.096Z",
    "name": "BlazBlue: Continuum Shift",
    "repository": "kara.moe",
    "tid": "2723e0a5-0752-4d7d-8a71-4c7c1e0b7282",
    "types": [
      "series",
      "1"
    ]
  }
}