{
  "header": {
    "description": "Karaoke Mugen Tag File",
    "version": 1
  },
  "tag": {
    "external_database_ids": {},
    "i18n": {
      "eng": "BlazBlue",
      "jpn": "ブレイブルー"
    },
    "name": "BlazBlue",
    "repository": "kara.moe",
    "tid": "39637867-c852-4398-9597-f681bc78355e",
    "types": [
      "franchises",
      "18"
    ]
  }
}