{
  "header": {
    "description": "Karaoke Mugen Tag File",
    "version": 1
  },
  "tag": {
    "external_database_ids": {
      "anilist": 1686,
      "kitsu": 1515,
      "myanimelist": 1686
    },
    "i18n": {
      "eng": "Bleach: Memories of Nobody"
    },
    "name": "Bleach: Memories of Nobody",
    "repository": "kara.moe",
    "tid": "31d5a3c5-d106-4b66-a651-8d6c702eb935",
    "types": [
      "series",
      "1"
    ]
  }
}