{
  "header": {
    "description": "Karaoke Mugen Tag File",
    "version": 1
  },
  "tag": {
    "external_database_ids": {
      "anilist": 116674,
      "kitsu": 43078,
      "myanimelist": 41467
    },
    "i18n": {
      "eng": "Bleach: Thousand-Year Blood War",
      "jpn": "BLEACH 千年血戦篇",
      "qro": "BLEACH Sennen Kessen-hen"
    },
    "name": "Bleach Sennen Kessen Hen",
    "repository": "kara.moe",
    "tid": "7207e0c9-f179-45a0-9504-ffc9940bc439",
    "types": [
      "series",
      "1"
    ]
  }
}