{
  "header": {
    "description": "Karaoke Mugen Tag File",
    "version": 1
  },
  "tag": {
    "i18n": {
      "eng": "Bleach: Heat The Soul 6",
      "jpn": "BLEACH：ヒート・ザ・ソウル6",
      "qro": "Bleach: Heat The Soul 6"
    },
    "modified_at": "2020-03-31T19:04:31.096Z",
    "name": "Bleach: Heat The Soul 6",
    "repository": "kara.moe",
    "tid": "6d2ad4da-d32d-41bd-a2ae-9c283ff3b4b0",
    "types": [
      "series",
      "1"
    ]
  }
}