{
  "header": {
    "description": "Karaoke Mugen Tag File",
    "version": 1
  },
  "tag": {
    "i18n": {
      "eng": "BlissCo Records"
    },
    "modified_at": "2020-07-10T22:10:03.477Z",
    "name": "BlissCo Records",
    "repository": "kara.moe",
    "tid": "91b1baa9-8d8d-4711-924c-8064fbcfe752",
    "types": [
      "creators",
      "4"
    ]
  }
}