{
  "header": {
    "description": "Karaoke Mugen Tag File",
    "version": 1
  },
  "tag": {
    "i18n": {
      "eng": "Blue Swede"
    },
    "name": "Blue Swede",
    "repository": "kara.moe",
    "tid": "156a7d32-c982-4c5f-9188-8b185fc3a11e",
    "types": [
      "singers",
      "2"
    ]
  }
}