{
  "header": {
    "description": "Karaoke Mugen Tag File",
    "version": 1
  },
  "tag": {
    "i18n": {
      "eng": "Blueberry&Yogurt"
    },
    "name": "Blueberry&Yogurt",
    "tid": "ed8ccb33-0009-46c1-b718-d6ff37ea5603",
    "types": [
      "songwriters",
      "8"
    ],
    "repository": "kara.moe",
    "modified_at": "2020-03-31T19:04:33.752Z"
  }
}