{
  "header": {
    "description": "Karaoke Mugen Tag File",
    "version": 1
  },
  "tag": {
    "i18n": {
      "eng": "Blues T"
    },
    "name": "Blues T",
    "tid": "4b482c3d-30aa-474f-bd40-d4548a8d34de",
    "types": [
      "songwriters",
      "8"
    ],
    "repository": "kara.moe",
    "modified_at": "2020-03-31T19:04:33.753Z"
  }
}