{
  "header": {
    "description": "Karaoke Mugen Tag File",
    "version": 1
  },
  "tag": {
    "aliases": [
      "bs",
      "ブルーシード"
    ],
    "external_database_ids": {
      "anilist": 998,
      "myanimelist": 998,
      "kitsu": 888
    },
    "i18n": {
      "eng": "Blue Seed",
      "fre": "Blue Seed",
      "jpn": "BLUE SEED",
      "por": "Blue Seed",
      "spa": "Blue Seed",
      "qro": "Blue Seed"
    },
    "modified_at": "2020-03-31T19:04:31.103Z",
    "name": "Blue Seed",
    "repository": "kara.moe",
    "tid": "a5021d88-5d46-4a04-a682-cf1f277d107a",
    "types": [
      "series",
      "1"
    ]
  }
}