{
  "header": {
    "description": "Karaoke Mugen Tag File",
    "version": 1
  },
  "tag": {
    "i18n": {
      "eng": "Bluth/Goldman Productions"
    },
    "modified_at": "2020-07-03T22:59:30.978Z",
    "name": "Bluth/Goldman Productions",
    "repository": "kara.moe",
    "tid": "5734f886-47ae-47d9-bd86-c51be9656bf9",
    "types": [
      "creators",
      "4"
    ]
  }
}