{
  "header": {
    "description": "Karaoke Mugen Tag File",
    "version": 1
  },
  "tag": {
    "i18n": {
      "eng": "bo en"
    },
    "name": "bo en",
    "repository": "kara.moe",
    "tid": "60733ce5-ca20-4dfb-b50c-239d6bab5c9e",
    "types": [
      "songwriters",
      "8",
      "singers",
      "2"
    ]
  }
}