{
  "header": {
    "description": "Karaoke Mugen Tag File",
    "version": 1
  },
  "tag": {
    "i18n": {
      "eng": "Bob Mayo"
    },
    "modified_at": "2020-05-09T20:20:59.428Z",
    "name": "Bob Mayo",
    "repository": "kara.moe",
    "tid": "d51a2fde-10a4-4046-813a-e8414824205d",
    "types": [
      "songwriters",
      "8"
    ]
  }
}