{
  "header": {
    "description": "Karaoke Mugen Tag File",
    "version": 1
  },
  "tag": {
    "i18n": {
      "eng": "Bob Marley"
    },
    "name": "Bob Marley",
    "repository": "kara.moe",
    "tid": "961a126f-cc50-4a43-af52-8d8c1d6d825a",
    "types": [
      "singers",
      "2",
      "songwriters",
      "8"
    ]
  }
}