{
  "header": {
    "description": "Karaoke Mugen Tag File",
    "version": 1
  },
  "tag": {
    "i18n": {
      "eng": "BOB"
    },
    "name": "BOB",
    "repository": "kara.moe",
    "tid": "83690e16-52c4-4637-af03-d8bd8c32e6c3",
    "types": [
      "authors",
      "6"
    ]
  }
}