{
  "header": {
    "description": "Karaoke Mugen Tag File",
    "version": 1
  },
  "tag": {
    "i18n": {
      "eng": "BOBBY"
    },
    "name": "BOBBY",
    "tid": "46657464-15f7-4e88-8eeb-4e75b1bdb7be",
    "types": [
      "singers",
      "2"
    ],
    "repository": "kara.moe",
    "modified_at": "2020-03-31T19:04:33.759Z"
  }
}