{
  "header": {
    "description": "Karaoke Mugen Tag File",
    "version": 1
  },
  "tag": {
    "i18n": {
      "eng": "Bobby Conscious"
    },
    "name": "Bobby Conscious",
    "tid": "4cac6984-610d-4911-bae7-3035163e6124",
    "types": [
      "songwriters",
      "8"
    ],
    "repository": "kara.moe",
    "modified_at": "2020-03-31T19:04:33.758Z"
  }
}