{
  "header": {
    "description": "Karaoke Mugen Tag File",
    "version": 1
  },
  "tag": {
    "external_database_ids": {
      "anilist": 1639,
      "kitsu": 1474,
      "myanimelist": 1639
    },
    "i18n": {
      "eng": "Boku no Pico",
      "jpn": "ぼくのぴこ",
      "qro": "Boku no Pico"
    },
    "name": "Boku no Pico",
    "repository": "kara.moe",
    "tid": "ea6f7041-6064-4380-88be-ae557ec6d4a0",
    "types": [
      "franchises",
      "18",
      "series",
      "1"
    ]
  }
}