{
  "header": {
    "description": "Karaoke Mugen Tag File",
    "version": 1
  },
  "tag": {
    "aliases": [
      "e"
    ],
    "external_database_ids": {
      "anilist": 139310,
      "kitsu": 45220,
      "myanimelist": 49834
    },
    "i18n": {
      "eng": "To Every You I've Loved Before",
      "jpn": "僕が愛したすべての君へ",
      "qro": "Boku ga Aishita Subete no Kimi he"
    },
    "name": "Boku ga Aishita Subete no Kimi he",
    "repository": "kara.moe",
    "tid": "efe3cb0b-01d6-40f9-a975-a30bcff44070",
    "types": [
      "series",
      "1"
    ]
  }
}