{
  "header": {
    "description": "Karaoke Mugen Tag File",
    "version": 1
  },
  "tag": {
    "aliases": [
      "Bokurema"
    ],
    "external_database_ids": {
      "anilist": 114065,
      "myanimelist": 40904,
      "kitsu": 42924
    },
    "i18n": {
      "fre": "Remake Our Life!",
      "jpn": "ぼくたちのリメイク",
      "eng": "Remake Our Life!",
      "qro": "Bokutachi no Remake"
    },
    "modified_at": "2021-07-31T16:35:12.166Z",
    "name": "Bokutachi no Remake",
    "repository": "kara.moe",
    "tid": "0d4aff0f-452a-45a0-9842-ff08ad59b87a",
    "types": [
      "series",
      "1"
    ]
  }
}