{
  "header": {
    "description": "Karaoke Mugen Tag File",
    "version": 1
  },
  "tag": {
    "i18n": {
      "eng": "Boku-P"
    },
    "name": "Boku-P",
    "tid": "8be908c9-5f50-4f2f-8236-50176b133f53",
    "types": [
      "songwriters",
      "8"
    ],
    "repository": "kara.moe",
    "modified_at": "2020-03-31T19:04:33.761Z"
  }
}