{
  "header": {
    "description": "Karaoke Mugen Tag File",
    "version": 1
  },
  "tag": {
    "external_database_ids": {
      "anilist": 103900,
      "myanimelist": 38186,
      "kitsu": 41956
    },
    "i18n": {
      "chi": "我们无法一起学习",
      "eng": "We Never Learn: Bokuben",
      "jpn": "ぼくたちは勉強ができない",
      "qro": "Bokutachi wa Benkyô ga Dekinai"
    },
    "modified_at": "2020-03-31T19:04:31.117Z",
    "name": "Bokutachi wa Benkyô ga Dekinai",
    "repository": "kara.moe",
    "tid": "d6d47dde-9286-4e5c-b8fb-8409d6e04d2e",
    "types": [
      "series",
      "1"
    ]
  }
}