{
  "header": {
    "description": "Karaoke Mugen Tag File",
    "version": 1
  },
  "tag": {
    "aliases": [
      "Club-To-Death Angel Dokuro-chan S2",
      "dokuro-chan2",
      "dokuro2",
      "Убойный ангел Докуро-тян 2"
    ],
    "external_database_ids": {
      "anilist": 2131,
      "myanimelist": 2131,
      "kitsu": 1928
    },
    "i18n": {
      "eng": "Bludgeoning Angel Dokuro-chan 2",
      "fre": "Dokuro-chan 2",
      "jpn": "撲殺天使ドクロちゃん2[セカンド]",
      "qro": "Bokusatsu Tenshi Dokuro-chan 2"
    },
    "modified_at": "2020-06-21T23:45:31.966Z",
    "name": "Bokusatsu Tenshi Dokuro-chan 2",
    "repository": "kara.moe",
    "tid": "420f5396-f66a-487a-8e08-1c1ded7d7a54",
    "types": [
      "series",
      "1"
    ]
  }
}