{
  "header": {
    "description": "Karaoke Mugen Tag File",
    "version": 1
  },
  "tag": {
    "i18n": {
      "eng": "Bon Jovi"
    },
    "modified_at": "2021-05-23T23:39:37.695Z",
    "name": "Bon Jovi",
    "repository": "kara.moe",
    "tid": "c93fe32c-0b03-4333-b484-46c3938370e6",
    "types": [
      "singers",
      "2"
    ]
  }
}