{
  "header": {
    "description": "Karaoke Mugen Tag File",
    "version": 1
  },
  "tag": {
    "i18n": {
      "eng": "bones"
    },
    "name": "bones",
    "tid": "57ffcdd9-7e4f-4971-85ce-0fb3aa8151ac",
    "types": [
      "creators",
      "4"
    ],
    "repository": "kara.moe",
    "modified_at": "2020-03-31T19:04:33.764Z"
  }
}