{
  "header": {
    "description": "Karaoke Mugen Tag File",
    "version": 1
  },
  "tag": {
    "i18n": {
      "eng": "Bonnie Tyler"
    },
    "modified_at": "2021-07-24T09:48:42.215Z",
    "name": "Bonnie Tyler",
    "repository": "kara.moe",
    "tid": "1d6391ec-3375-4d7f-b4d0-1eeaf42f5b58",
    "types": [
      "singers",
      "2"
    ]
  }
}