{
  "header": {
    "description": "Karaoke Mugen Tag File",
    "version": 1
  },
  "tag": {
    "i18n": {
      "dut": "Barend de Beer (1963)",
      "fre": "Bonne nuit les petits (1963)"
    },
    "modified_at": "2020-03-31T19:04:31.117Z",
    "name": "Bonne nuit les petits (1963)",
    "repository": "kara.moe",
    "tid": "f2316083-11fc-4fe2-a5d2-200fd44f10a6",
    "types": [
      "series",
      "1"
    ]
  }
}