{
  "header": {
    "description": "Karaoke Mugen Tag File",
    "version": 1
  },
  "tag": {
    "i18n": {
      "eng": "BONNIE PINK"
    },
    "name": "BONNIE PINK",
    "tid": "7e4b0aed-efae-469f-b923-33bde55ab3e8",
    "types": [
      "singers",
      "2",
      "songwriters",
      "8"
    ],
    "repository": "kara.moe",
    "modified_at": "2020-03-31T19:04:33.766Z"
  }
}