{
  "header": {
    "description": "Karaoke Mugen Tag File",
    "version": 1
  },
  "tag": {
    "aliases": [
      "Boogiepop Doesn't Laugh",
      "Boogiepop Never Laughs",
      "Boogiepop Phantom"
    ],
    "external_database_ids": {
      "anilist": 101283,
      "myanimelist": 37451,
      "kitsu": 41032
    },
    "i18n": {
      "eng": "Boogiepop and Others",
      "jpn": "ブギーポップは笑わない (2019)",
      "qro": "Boogiepop wa Warawanai (2019)"
    },
    "modified_at": "2020-09-13T13:34:40.943Z",
    "name": "Boogiepop wa Warawanai (2019)",
    "repository": "kara.moe",
    "tid": "8cb10254-b414-4b81-92d1-7af54431de31",
    "types": [
      "series",
      "1"
    ]
  }
}