{
  "header": {
    "description": "Karaoke Mugen Tag File",
    "version": 1
  },
  "tag": {
    "i18n": {
      "eng": "BOOM BOOM SATELLITES"
    },
    "name": "BOOM BOOM SATELLITES",
    "tid": "8769ea1c-73b5-42c2-b3af-f5e7f87afcae",
    "types": [
      "singers",
      "2",
      "songwriters",
      "8"
    ],
    "repository": "kara.moe",
    "modified_at": "2020-03-31T19:04:33.767Z"
  }
}