{
  "header": {
    "description": "Karaoke Mugen Tag File",
    "version": 1
  },
  "tag": {
    "i18n": {
      "eng": "BooneBum"
    },
    "name": "BooneBum",
    "repository": "kara.moe",
    "tid": "d55bc1a3-3586-4296-9393-ddc16f6610b3",
    "types": [
      "creators",
      "4"
    ]
  }
}