{
  "header": {
    "description": "Karaoke Mugen Tag File",
    "version": 1
  },
  "tag": {
    "i18n": {
      "eng": "Boris"
    },
    "name": "Boris",
    "repository": "kara.moe",
    "tid": "fb6b5348-596c-4ca4-8ee9-4ee728eb8ef0",
    "types": [
      "songwriters",
      "8"
    ]
  }
}