{
  "header": {
    "description": "Karaoke Mugen Tag File",
    "version": 1
  },
  "tag": {
    "i18n": {
      "eng": "Bouyar"
    },
    "name": "Bouyar",
    "repository": "kara.moe",
    "tid": "c4592176-0500-4a0b-9b84-945a3dff0686",
    "types": [
      "authors",
      "6"
    ]
  }
}