{
  "header": {
    "description": "Karaoke Mugen Tag File",
    "version": 1
  },
  "tag": {
    "i18n": {
      "eng": "BOWWOW"
    },
    "name": "BOWWOW",
    "tid": "e3a56154-053f-4c29-9cef-4ed6c6612a12",
    "types": [
      "singers",
      "2"
    ],
    "repository": "kara.moe",
    "modified_at": "2020-03-31T19:04:33.773Z"
  }
}