{
  "header": {
    "description": "Karaoke Mugen Tag File",
    "version": 1
  },
  "tag": {
    "i18n": {
      "eng": "Boys' love"
    },
    "name": "Boys' love",
    "tid": "724d2d80-a531-4579-bdaf-4a0db9a313d9",
    "types": [
      "genres",
      "12"
    ],
    "short": "BL",
    "repository": "kara.moe",
    "modified_at": "2020-03-31T19:04:33.774Z"
  }
}