{
  "header": {
    "description": "Karaoke Mugen Tag File",
    "version": 1
  },
  "tag": {
    "aliases": [
      "BPS",
      "Korsan Yazılımcı Shirase",
      "Бойният програмист Ширасе"
    ],
    "external_database_ids": {
      "anilist": 579,
      "myanimelist": 579,
      "kitsu": 535
    },
    "i18n": {
      "eng": "BPS: Battle Programmer Shirase",
      "jpn": "bpS バトルプログラマーシラセ",
      "qro": "BPS: Battle Programmer Shirase"
    },
    "modified_at": "2020-03-31T19:04:31.124Z",
    "name": "BPS: Battle Programmer Shirase",
    "repository": "kara.moe",
    "tid": "9b32f571-7583-467e-b262-0b259386f547",
    "types": [
      "series",
      "1"
    ]
  }
}