{
  "header": {
    "description": "Karaoke Mugen Tag File",
    "version": 1
  },
  "tag": {
    "i18n": {
      "eng": "Brad Wilk"
    },
    "name": "Brad Wilk",
    "repository": "kara.moe",
    "tid": "cb0dcc69-9d56-4d07-8c20-ff765082f906",
    "types": [
      "songwriters",
      "8"
    ]
  }
}