{
  "header": {
    "description": "Karaoke Mugen Tag File",
    "version": 1
  },
  "tag": {
    "i18n": {
      "eng": "Bratt Sinclaire"
    },
    "name": "Bratt Sinclaire",
    "tid": "4bdc90bf-eb19-49ab-a693-1278aa05e716",
    "types": [
      "songwriters",
      "8"
    ],
    "repository": "kara.moe",
    "modified_at": "2020-03-31T19:04:33.781Z"
  }
}