{
  "header": {
    "description": "Karaoke Mugen Tag File",
    "version": 1
  },
  "tag": {
    "aliases": [
      "ブレイブ・テン"
    ],
    "external_database_ids": {
      "anilist": 11241,
      "myanimelist": 11241,
      "kitsu": 6481
    },
    "i18n": {
      "eng": "Brave 10",
      "jpn": "BRAVE10",
      "qro": "Brave10"
    },
    "modified_at": "2020-03-31T19:04:31.126Z",
    "name": "Brave10",
    "repository": "kara.moe",
    "tid": "7ff40407-ed44-4c08-ba77-e2b33bc54597",
    "types": [
      "series",
      "1"
    ]
  }
}