{
  "header": {
    "description": "Karaoke Mugen Tag File",
    "version": 1
  },
  "tag": {
    "i18n": {
      "afr": "Bretons",
      "amh": "Breton",
      "ara": "بريتون",
      "aze": "Breton",
      "bak": "Бретон",
      "bel": "Брэтон",
      "bul": "Бретон",
      "ben": "ব্রেটন",
      "bos": "Breton",
      "cat": "Breton",
      "cze": "Breton",
      "wel": "Llydaweg",
      "dan": "Breton",
      "ger": "Breton",
      "gre": "Βρετονικά",
      "eng": "Breton",
      "epo": "Bretona",
      "spa": "Bretón",
      "est": "Bretooni",
      "baq": "Breton",
      "per": "برتانیایی",
      "fin": "Breton",
      "fre": "Breton",
      "gle": "Briotáinis",
      "gla": "Breton",
      "glg": "Bretón",
      "guj": "બ્રેટોન",
      "heb": "ברטון",
      "hin": "ब्रेटन",
      "hrv": "Breton",
      "hat": "Breton",
      "hun": "Breton",
      "arm": "Breton",
      "ind": "Breton",
      "ice": "Scout gore",
      "ita": "Breton",
      "jpn": "ブルトン",
      "jav": "Breton",
      "geo": "ბრეტონული",
      "kaz": "Бретон",
      "kan": "ಬ್ರೆಟನ್",
      "kor": "브르타뉴",
      "kir": "Бретон",
      "lat": "Breton",
      "lit": "Bretonų",
      "lav": "Breton",
      "mlg": "Breton",
      "mao": "Bashkir",
      "mac": "Breton",
      "mal": "Breton",
      "mon": "Breton",
      "mar": "Breton",
      "may": "Breton",
      "mlt": "}",
      "nep": "बिच",
      "dut": "Bretons",
      "nor": "Breton",
      "pan": "ਬ੍ਰਿਟਨ",
      "pol": "Breton",
      "por": "Breton",
      "rum": "Breton",
      "rus": "Бретон",
      "sin": "Breton",
      "slo": "Breton",
      "slv": "Breton",
      "alb": "Gjuhë.",
      "srp": "Бретонски",
      "sun": "Breton",
      "swe": "Bretonska",
      "swa": "Breton",
      "tam": "பிரெட்டன்",
      "tel": "బ్రెటన్",
      "tgk": "Бретон",
      "tha": "ภาษาเบร็ตตัน name",
      "tgl": "Breton",
      "tur": "Breton",
      "tat": "Бретон",
      "ukr": "Бретон",
      "urd": "بریٹن",
      "uzb": "Breton",
      "vie": "Breton",
      "xho": "Breton",
      "yid": "ברעטאָן",
      "chi": "布列塔尼"
    },
    "name": "bre",
    "tid": "adc7ef7e-5749-4534-985e-1eec5c2f4c75",
    "types": [
      "langs",
      "5"
    ],
    "repository": "kara.moe",
    "modified_at": "2020-03-31T19:04:33.783Z"
  }
}