{
  "header": {
    "description": "Karaoke Mugen Tag File",
    "version": 1
  },
  "tag": {
    "i18n": {
      "eng": "Breakin'"
    },
    "name": "Breakin'",
    "repository": "kara.moe",
    "tid": "23846f4f-a00c-4132-aab6-7156388e9fe8",
    "types": [
      "creators",
      "4"
    ]
  }
}