{
  "header": {
    "description": "Karaoke Mugen Tag File",
    "version": 1
  },
  "tag": {
    "aliases": [
      "JelloApocalypse"
    ],
    "i18n": {
      "eng": "Brendan Blaber"
    },
    "modified_at": "2020-12-12T15:24:46.299Z",
    "name": "Brendan Blaber",
    "repository": "kara.moe",
    "tid": "3f17caa9-c6a9-4963-8514-f539f3adbb9f",
    "types": [
      "songwriters",
      "8"
    ]
  }
}