{
  "header": {
    "description": "Karaoke Mugen Tag File",
    "version": 1
  },
  "tag": {
    "i18n": {
      "eng": "Brentalfloss"
    },
    "name": "Brentalfloss",
    "repository": "kara.moe",
    "tid": "89b23a2c-b5ba-47e6-913e-294707a6b9b7",
    "types": [
      "singers",
      "2",
      "songwriters",
      "8"
    ]
  }
}