{
  "header": {
    "description": "Karaoke Mugen Tag File",
    "version": 1
  },
  "tag": {
    "i18n": {
      "eng": "Brenda Burch"
    },
    "name": "Brenda Burch",
    "repository": "kara.moe",
    "tid": "7b3e5d47-d373-4236-a8f7-4a67dcefcbc0",
    "types": [
      "songwriters",
      "8"
    ]
  }
}