{
  "header": {
    "description": "Karaoke Mugen Tag File",
    "version": 1
  },
  "tag": {
    "i18n": {
      "eng": "Brett Rivière"
    },
    "name": "Brett Rivière",
    "tid": "585f5d0e-f6aa-41ba-bee9-bd1b98160403",
    "types": [
      "singers",
      "2"
    ],
    "repository": "kara.moe",
    "modified_at": "2020-03-31T19:04:33.786Z"
  }
}