{
  "header": {
    "description": "Karaoke Mugen Tag File",
    "version": 1
  },
  "tag": {
    "i18n": {
      "eng": "Brian Burton"
    },
    "modified_at": "2020-08-25T15:20:22.669Z",
    "name": "Brian Burton",
    "repository": "kara.moe",
    "tid": "43596288-5d72-44e2-b561-ba48c2922819",
    "types": [
      "songwriters",
      "8"
    ]
  }
}