{
  "header": {
    "description": "Karaoke Mugen Tag File",
    "version": 1
  },
  "tag": {
    "i18n": {
      "eng": "Brice Chevillard"
    },
    "modified_at": "2020-12-30T17:04:45.089Z",
    "name": "Brice Chevillard",
    "repository": "kara.moe",
    "tid": "9876413e-4ee2-4316-ba5d-a8e4cc928d35",
    "types": [
      "singers",
      "2",
      "songwriters",
      "8"
    ]
  }
}