{
  "header": {
    "description": "Karaoke Mugen Tag File",
    "version": 1
  },
  "tag": {
    "i18n": {
      "eng": "Brice de Nice"
    },
    "name": "Brice de Nice",
    "repository": "kara.moe",
    "tid": "cf4d6c84-30a9-4adc-b5d7-bc4314107b47",
    "types": [
      "series",
      "1"
    ]
  }
}