{
  "header": {
    "description": "Karaoke Mugen Tag File",
    "version": 1
  },
  "tag": {
    "aliases": [
      "MariMera",
      "ブリガドーン まりんとメラン"
    ],
    "external_database_ids": {
      "anilist": 1450,
      "myanimelist": 1450,
      "kitsu": 1300
    },
    "i18n": {
      "eng": "Brigadoon",
      "jpn": "BRIGADOON まりんとメラン",
      "qro": "Brigadoon: Marin to Melan"
    },
    "modified_at": "2020-03-31T19:04:31.129Z",
    "name": "Brigadoon: Marin to Melan",
    "repository": "kara.moe",
    "tid": "15af2180-bb70-45a7-908e-758926ecdad9",
    "types": [
      "series",
      "1"
    ]
  }
}