{
  "header": {
    "description": "Karaoke Mugen Tag File",
    "version": 1
  },
  "tag": {
    "i18n": {
      "eng": "Britney Spears"
    },
    "name": "Britney Spears",
    "tid": "5a820073-4925-498d-8ec8-0a90bcfc7eeb",
    "types": [
      "singers",
      "2"
    ],
    "repository": "kara.moe",
    "modified_at": "2020-03-31T19:04:33.794Z"
  }
}