{
  "header": {
    "description": "Karaoke Mugen Tag File",
    "version": 1
  },
  "tag": {
    "i18n": {
      "eng": "Bro.Hi"
    },
    "name": "Bro.Hi",
    "tid": "f058d1fd-87fa-4680-a7e8-0166c4879fd4",
    "types": [
      "songwriters",
      "8"
    ],
    "repository": "kara.moe",
    "modified_at": "2020-03-31T19:04:33.796Z"
  }
}