{
  "header": {
    "description": "Karaoke Mugen Tag File",
    "version": 1
  },
  "tag": {
    "i18n": {
      "eng": "Brother-P"
    },
    "name": "Brother-P",
    "tid": "90811a7e-30ca-4365-ba97-b346f1a21e6d",
    "types": [
      "creators",
      "4"
    ],
    "repository": "kara.moe",
    "modified_at": "2020-03-31T19:04:33.798Z"
  }
}