{
  "header": {
    "description": "Karaoke Mugen Tag File",
    "version": 1
  },
  "tag": {
    "aliases": [
      "Kobra"
    ],
    "i18n": {
      "eng": "Bruno Tibaldi"
    },
    "modified_at": "2021-09-12T13:15:14.515Z",
    "name": "Bruno Tibaldi",
    "repository": "kara.moe",
    "tid": "6a4eeea3-f32e-4e4a-8017-f9aa65de948d",
    "types": [
      "songwriters",
      "8"
    ]
  }
}