{
  "header": {
    "description": "Karaoke Mugen Tag File",
    "version": 1
  },
  "tag": {
    "i18n": {
      "eng": "Bucchigiri-P"
    },
    "name": "Bucchigiri-P",
    "tid": "a5190ca6-0e88-47be-b515-d8f56cf2c17a",
    "types": [
      "creators",
      "4",
      "songwriters",
      "8"
    ],
    "repository": "kara.moe",
    "modified_at": "2020-03-31T19:04:33.806Z"
  }
}