{
  "header": {
    "description": "Karaoke Mugen Tag File",
    "version": 1
  },
  "tag": {
    "external_database_ids": {
      "anilist": 155907,
      "kitsu": 46650,
      "myanimelist": 53411
    },
    "i18n": {
      "eng": "Buddy Daddies"
    },
    "name": "Buddy Daddies",
    "repository": "kara.moe",
    "tid": "29048401-263b-4721-9666-2d8a2b7589af",
    "types": [
      "series",
      "1"
    ]
  }
}