{
  "header": {
    "description": "Karaoke Mugen Tag File",
    "version": 1
  },
  "tag": {
    "i18n": {
      "eng": "BUG FILMS"
    },
    "name": "BUG FILMS",
    "repository": "kara.moe",
    "tid": "2463fcaa-1d08-40f0-82bb-8c201e8f8518",
    "types": [
      "creators",
      "4"
    ]
  }
}