{
  "header": {
    "description": "Karaoke Mugen Tag File",
    "version": 1
  },
  "tag": {
    "aliases": [
      "Build Divide 2nd season"
    ],
    "external_database_ids": {
      "anilist": 132526,
      "myanimelist": 48777,
      "kitsu": 44426
    },
    "i18n": {
      "eng": "Build Divide -#FFFFFF- Code White",
      "jpn": "ビルディバイド -#FFFFFF- CODE WHITE",
      "qro": "BUILD DIVIDE -#FFFFFF- CODE WHITE"
    },
    "name": "Build Divide: Code White",
    "repository": "kara.moe",
    "tid": "0ded370b-03a2-480b-a379-2cb48bf5e071",
    "types": [
      "series",
      "1"
    ]
  }
}