{
  "header": {
    "description": "Karaoke Mugen Tag File",
    "version": 1
  },
  "tag": {
    "i18n": {
      "afr": "Bulgaarse",
      "amh": "ቡልጋሪኛ",
      "ara": "البلغارية",
      "aze": "Bolqar",
      "bak": "Болгар теле",
      "bel": "Балгарская",
      "bul": "Български",
      "ben": "বুলগেরিয়ান",
      "bos": "Bugarska",
      "cat": "Búlgar",
      "cze": "Bulharské",
      "wel": "Bwlgareg",
      "dan": "Bulgarske",
      "ger": "Bulgarisch",
      "gre": "Βουλγαρικά",
      "eng": "Bulgarian",
      "epo": "Bulgara",
      "spa": "Búlgaro",
      "est": "Bulgaaria",
      "baq": "Bulgarian",
      "per": "بلغاری",
      "fin": "Bulgarian",
      "fre": "Bulgare",
      "gle": "Bulgáiris",
      "gla": "Bulgarian",
      "glg": "Lev",
      "guj": "બલ્ગેરિયન",
      "heb": "בולגרית",
      "hin": "बल्गेरियाई",
      "hrv": "Bugarski",
      "hat": "Bulgarian",
      "hun": "Bolgár",
      "arm": "Բուլղարերեն",
      "ind": "Bulgaria",
      "ice": "Búlgarska",
      "ita": "Bulgaro",
      "jpn": "ブルガリア",
      "jav": "Bulgaria",
      "geo": "ბულგარული",
      "kaz": "Болгар",
      "kan": "ಬಲ್ಗೇರಿಯನ್",
      "kor": "불가리아",
      "kir": "Болгарский",
      "lat": "Bulgarorum",
      "lit": "Bulgarų",
      "lav": "Bulgāru",
      "mlg": "Bolgara",
      "mao": "Bulgarian",
      "mac": "Бугарски",
      "mal": "ബൾഗേറിയൻ",
      "mon": "Болгар",
      "mar": "Bulgarian",
      "may": "Bulgaria",
      "mlt": "Il-bulgaru",
      "nep": "बुल्गेरियन",
      "dut": "Bulgaars",
      "nor": "Bulgarske",
      "pan": "ਬੁਲਗਾਰੀ",
      "pol": "Nowy",
      "por": "Lev",
      "rum": "Bulgară",
      "rus": "Болгарский",
      "sin": "බල්ගේරියානු",
      "slo": "Bulharský",
      "slv": "Bolgarski",
      "alb": "Bullgare",
      "srp": "Бугарски",
      "sun": "Bulgaria",
      "swe": "Bulgariska",
      "swa": "Bulgariska",
      "tam": "பல்கேரியன்",
      "tel": "బల్గేరియ దేశస్తుడు",
      "tgk": "Булғорӣ",
      "tha": "ภาษาบัลแกเรีย name",
      "tgl": "Bulgarian",
      "tur": "Bulgar",
      "tat": "Болгар теле",
      "ukr": "Болгарська",
      "urd": "بلغاری",
      "uzb": "Bolgar",
      "vie": "Bungari",
      "xho": "Bulgarian",
      "yid": "בולגאַריש",
      "chi": "保加利亚"
    },
    "name": "bul",
    "tid": "ccc548e8-88f3-4b8d-b5c7-6ee902e43374",
    "types": [
      "langs",
      "5"
    ],
    "repository": "kara.moe",
    "modified_at": "2020-03-31T19:04:33.809Z"
  }
}