{
  "header": {
    "description": "Karaoke Mugen Tag File",
    "version": 1
  },
  "tag": {
    "i18n": {
      "eng": "BULGE"
    },
    "name": "BULGE",
    "tid": "e0dbe3d4-f0ff-4b54-84ca-f23c761569a3",
    "types": [
      "songwriters",
      "8"
    ],
    "repository": "kara.moe",
    "modified_at": "2020-03-31T19:04:33.810Z"
  }
}