{
  "header": {
    "description": "Karaoke Mugen Tag File",
    "version": 1
  },
  "tag": {
    "i18n": {
      "eng": "Bun'ichi Takenaka"
    },
    "name": "Bun'ichi Takenaka",
    "tid": "088bd423-cb53-4c34-8d6a-9e4330799d08",
    "types": [
      "songwriters",
      "8"
    ],
    "repository": "kara.moe",
    "modified_at": "2020-03-31T19:04:33.815Z"
  }
}