{
  "header": {
    "description": "Karaoke Mugen Tag File",
    "version": 1
  },
  "tag": {
    "i18n": {
      "eng": "BURNOUT SYNDROMES"
    },
    "name": "BURNOUT SYNDROMES",
    "tid": "00b1f396-3c50-4135-9300-a0d8d4dcc2d2",
    "types": [
      "singers",
      "2"
    ],
    "repository": "kara.moe",
    "modified_at": "2020-03-31T19:04:33.818Z"
  }
}