{
  "header": {
    "description": "Karaoke Mugen Tag File",
    "version": 1
  },
  "tag": {
    "i18n": {
      "eng": "Bushiroad Music"
    },
    "name": "Bushiroad Music",
    "repository": "kara.moe",
    "tid": "186d62ea-dc87-481b-84ff-6df9c171ba3a",
    "types": [
      "creators",
      "4"
    ]
  }
}