{
  "header": {
    "description": "Karaoke Mugen Tag File",
    "version": 1
  },
  "tag": {
    "aliases": [
      "Arms Alchemy",
      "BoRe",
      "BuRe",
      "Busou Renkin",
      "Silah Simyası",
      "Алхимическое оружие",
      "Алхимично оръжие",
      "武装炼金",
      "busou"
    ],
    "external_database_ids": {
      "anilist": 1536,
      "myanimelist": 1536,
      "kitsu": 1377
    },
    "i18n": {
      "eng": "Buso Renkin",
      "fre": "Busô Renkin",
      "jpn": "武装錬金",
      "qro": "Busô Renkin"
    },
    "modified_at": "2020-03-31T19:04:31.141Z",
    "name": "Busô Renkin",
    "repository": "kara.moe",
    "tid": "bd19e660-c298-487d-aeb8-d2dd3f5c403e",
    "types": [
      "series",
      "1"
    ]
  }
}