{
  "header": {
    "description": "Karaoke Mugen Tag File",
    "version": 1
  },
  "tag": {
    "i18n": {
      "eng": "Butch Walker"
    },
    "name": "Butch Walker",
    "repository": "kara.moe",
    "tid": "00c1732e-07c4-4684-893e-71862891b908",
    "types": [
      "songwriters",
      "8"
    ]
  }
}