{
  "header": {
    "description": "Karaoke Mugen Tag File",
    "version": 1
  },
  "tag": {
    "i18n": {
      "eng": "Butter"
    },
    "name": "Butter",
    "repository": "kara.moe",
    "tid": "672ce359-8bcd-49a6-bc5b-694c88ec03da",
    "types": [
      "songwriters",
      "8",
      "singers",
      "2",
      "creators",
      "4"
    ]
  }
}