{
  "header": {
    "description": "Karaoke Mugen Tag File",
    "version": 1
  },
  "tag": {
    "i18n": {
      "eng": "Buttercup"
    },
    "name": "Buttercup",
    "tid": "d33491f0-a8a7-47f8-b625-8857535ef2bc",
    "types": [
      "singers",
      "2"
    ],
    "repository": "kara.moe",
    "modified_at": "2020-03-31T19:04:33.821Z"
  }
}