{
  "header": {
    "description": "Karaoke Mugen Tag File",
    "version": 1
  },
  "tag": {
    "i18n": {
      "eng": "Byrishyn"
    },
    "name": "Byrishyn",
    "repository": "kara.moe",
    "tid": "21dfc9a4-12d4-45cd-a300-e4dcfdc8d76f",
    "types": [
      "authors",
      "6"
    ],
    "modified_at": "2020-03-31T19:04:33.825Z"
  }
}