{
  "header": {
    "description": "Karaoke Mugen Tag File",
    "version": 1
  },
  "tag": {
    "i18n": {
      "eng": "C-CLAYS"
    },
    "name": "C-CLAYS",
    "repository": "kara.moe",
    "tid": "12f0ebc4-e6c2-4c79-8920-64a5b4211593",
    "types": [
      "creators",
      "4"
    ]
  }
}