{
  "header": {
    "description": "Karaoke Mugen Tag File",
    "version": 1
  },
  "tag": {
    "i18n": {
      "eng": "C-Show"
    },
    "name": "C-Show",
    "tid": "3a67daa6-c931-480b-90b7-f43d80ce5530",
    "types": [
      "songwriters",
      "8"
    ],
    "repository": "kara.moe",
    "modified_at": "2020-03-31T19:04:33.827Z"
  }
}