{
  "header": {
    "description": "Karaoke Mugen Tag File",
    "version": 1
  },
  "tag": {
    "i18n": {
      "eng": "C2C"
    },
    "name": "C2C",
    "tid": "c5b27231-6ac3-4a71-9d0c-06aa0282f55f",
    "types": [
      "creators",
      "4"
    ],
    "repository": "kara.moe",
    "modified_at": "2020-03-31T19:04:33.830Z"
  }
}