{
  "header": {
    "description": "Karaoke Mugen Tag File",
    "version": 1
  },
  "tag": {
    "aliases": [
      "C Cube",
      "C-Cube",
      "C3",
      "C3 Anime",
      "CCC",
      "C^3",
      "CxCxC",
      "C³",
      "cxcxc",
      "سی به توان 3",
      "مکعب X نفرین شده X کنجکاو",
      "مکعب سی",
      "シーキューブ",
      "c3"
    ],
    "i18n": {
      "eng": "C³ Cube x Cursed x Curious",
      "jpn": "シーキューブ",
      "qro": "C³: Cube x Cursed x Curious"
    },
    "modified_at": "2020-03-31T19:04:31.143Z",
    "name": "C³: Cube x Cursed x Curious",
    "repository": "kara.moe",
    "tid": "c1bcc59f-59db-4d60-a9e5-1483708c1faa",
    "types": [
      "series",
      "1"
    ]
  }
}