{
  "header": {
    "description": "Karaoke Mugen Tag File",
    "version": 1
  },
  "tag": {
    "i18n": {
      "eng": "Cagouille"
    },
    "name": "Cagouille",
    "repository": "kara.moe",
    "tid": "dd374ae8-01a0-430c-8db7-847550a8fa55",
    "types": [
      "authors",
      "6"
    ]
  }
}