{
  "header": {
    "description": "Karaoke Mugen Tag File",
    "version": 1
  },
  "tag": {
    "i18n": {
      "eng": "Caitlin Myers"
    },
    "name": "Caitlin Myers",
    "repository": "kara.moe",
    "tid": "c35febbe-0419-46b2-a971-385776c200e7",
    "types": [
      "songwriters",
      "8",
      "singers",
      "2"
    ]
  }
}