{
  "header": {
    "description": "Karaoke Mugen Tag File",
    "version": 1
  },
  "tag": {
    "i18n": {
      "eng": "Calliope Mori"
    },
    "name": "Calliope Mori",
    "repository": "kara.moe",
    "tid": "c4cd517c-9219-4757-9d66-0ffb56c754f9",
    "types": [
      "songwriters",
      "8",
      "singers",
      "2"
    ]
  }
}