{
  "header": {
    "description": "Karaoke Mugen Tag File",
    "version": 1
  },
  "tag": {
    "i18n": {
      "eng": "Camping Orchestra"
    },
    "name": "Camping Orchestra",
    "repository": "kara.moe",
    "tid": "5b021a0e-2aa3-4420-999c-5c4196f30ae5",
    "types": [
      "singers",
      "2"
    ]
  }
}