{
  "header": {
    "description": "Karaoke Mugen Tag File",
    "version": 1
  },
  "tag": {
    "i18n": {
      "eng": "Canal+"
    },
    "name": "Canal+",
    "tid": "9b320632-3e5b-408b-912b-20f1a816fe96",
    "types": [
      "creators",
      "4"
    ],
    "repository": "kara.moe",
    "modified_at": "2020-03-31T19:04:33.836Z"
  }
}