{
  "header": {
    "description": "Karaoke Mugen Tag File",
    "version": 1
  },
  "tag": {
    "i18n": {
      "eng": "CANDY ISLAND"
    },
    "name": "CANDY ISLAND",
    "repository": "kara.moe",
    "tid": "4085451b-8794-475e-883f-0eb83b1f7025",
    "types": [
      "singergroups",
      "17"
    ]
  }
}