{
  "header": {
    "description": "Karaoke Mugen Tag File",
    "version": 1
  },
  "tag": {
    "i18n": {
      "eng": "Canni"
    },
    "modified_at": "2020-06-01T16:27:09.854Z",
    "name": "Canni",
    "repository": "kara.moe",
    "tid": "568285fd-64fc-4faa-8331-c0a847024008",
    "types": [
      "authors",
      "6"
    ]
  }
}