{
  "header": {
    "description": "Karaoke Mugen Tag File",
    "version": 1
  },
  "tag": {
    "i18n": {
      "eng": "CAPCOM"
    },
    "name": "CAPCOM",
    "tid": "a9b563c0-8ead-481e-9071-277ad918982e",
    "types": [
      "creators",
      "4"
    ],
    "repository": "kara.moe",
    "modified_at": "2020-03-31T19:04:33.839Z"
  }
}