{
  "header": {
    "description": "Karaoke Mugen Tag File",
    "version": 1
  },
  "tag": {
    "i18n": {
      "eng": "Capitol Music France"
    },
    "name": "Capitol Music France",
    "repository": "kara.moe",
    "tid": "dec410df-49d5-4838-936a-78c2f27b5066",
    "types": [
      "creators",
      "4"
    ]
  }
}