{
  "header": {
    "description": "Karaoke Mugen Tag File",
    "version": 1
  },
  "tag": {
    "i18n": {
      "eng": "Caramel Box"
    },
    "modified_at": "2020-08-23T15:21:25.653Z",
    "name": "Caramel Box",
    "repository": "kara.moe",
    "tid": "1ae669e4-89dd-48e4-99fe-de9294cdb2e1",
    "types": [
      "creators",
      "4"
    ]
  }
}