{
  "header": {
    "description": "Karaoke Mugen Tag File",
    "version": 1
  },
  "tag": {
    "aliases": [
      "カードファイト!! ヴァンガード レギオンメイト編"
    ],
    "external_database_ids": {
      "anilist": 20564,
      "myanimelist": 21729,
      "kitsu": 8264
    },
    "i18n": {
      "eng": "Cardfight!! Vanguard: Legion Mate",
      "jpn": "CARDFIGHT!! ヴァンガード レギオンメイト編",
      "qro": "Cardfight!! Vanguard: Legion Mate-hen"
    },
    "modified_at": "2020-03-31T19:04:31.157Z",
    "name": "Cardfight!! Vanguard: Legion Mate-hen",
    "repository": "kara.moe",
    "tid": "ddd2db98-8932-4861-aa36-59cc926ea539",
    "types": [
      "series",
      "1"
    ]
  }
}