{
  "header": {
    "description": "Karaoke Mugen Tag File",
    "version": 1
  },
  "tag": {
    "aliases": [
      "カードファイト!! ヴァンガードG"
    ],
    "external_database_ids": {
      "anilist": 20921,
      "myanimelist": 27815,
      "kitsu": 9781
    },
    "i18n": {
      "eng": "Cardfight!! Vanguard G",
      "jpn": "CARDFIGHT!! ヴァンガードG",
      "qro": "Cardfight!! Vanguard G"
    },
    "modified_at": "2020-03-31T19:04:31.156Z",
    "name": "Cardfight!! Vanguard G",
    "repository": "kara.moe",
    "tid": "c8564b0a-40f1-4c6d-abab-61a63ba1d392",
    "types": [
      "series",
      "1"
    ]
  }
}