{
  "header": {
    "description": "Karaoke Mugen Tag File",
    "version": 1
  },
  "tag": {
    "aliases": [
      "CCS OVA"
    ],
    "external_database_ids": {
      "anilist": 98554,
      "kitsu": 13318,
      "myanimelist": 35320
    },
    "i18n": {
      "chi": "魔卡少女樱 透明牌篇 序幕 小樱与两人的小熊",
      "eng": "Cardcaptor Sakura: Clear Card Prologue - Sakura and the Two Bearsa and the Two Bearsptor Sakura: Clear Card Hen - Prologue - Sakura to Futatsu no Kuma",
      "jpn": "カードキャプターさくら クリアカード編 プロローグ さくらとふたつのくま",
      "qro": "Cardcaptor Sakura: Clear Card Hen - Prologue - Sakura to Futatsu no Kuma"
    },
    "name": "Cardcaptor Sakura: Clear Card Hen - Prologue - Sakura to Futatsu no Kuma",
    "repository": "kara.moe",
    "tid": "112b207d-9bf3-4893-85c2-740c3aaf1de4",
    "types": [
      "series",
      "1"
    ]
  }
}