{
  "header": {
    "description": "Karaoke Mugen Tag File",
    "version": 1
  },
  "tag": {
    "i18n": {
      "eng": "Carinho"
    },
    "name": "Carinho",
    "repository": "kara.moe",
    "tid": "0b5959f3-0ec2-4e8a-879c-6b79686ceab8",
    "types": [
      "singers",
      "2"
    ]
  }
}