{
  "header": {
    "description": "Karaoke Mugen Tag File",
    "version": 1
  },
  "tag": {
    "i18n": {
      "eng": "Carl Douglas"
    },
    "modified_at": "2021-05-23T23:26:19.540Z",
    "name": "Carl Douglas",
    "repository": "kara.moe",
    "tid": "d07dc531-e8b2-49a0-a879-2c1eda298a13",
    "types": [
      "songwriters",
      "8",
      "singers",
      "2"
    ]
  }
}