{
  "header": {
    "description": "Karaoke Mugen Tag File",
    "version": 1
  },
  "tag": {
    "i18n": {
      "eng": "Caroline Gustavsson"
    },
    "name": "Caroline Gustavsson",
    "tid": "93850861-6aec-4d5b-9142-4ce013d9b895",
    "types": [
      "songwriters",
      "8"
    ],
    "repository": "kara.moe",
    "modified_at": "2020-03-31T19:04:33.848Z"
  }
}