{
  "header": {
    "description": "Karaoke Mugen Tag File",
    "version": 1
  },
  "tag": {
    "i18n": {
      "eng": "Caroline Combes"
    },
    "name": "Caroline Combes",
    "repository": "kara.moe",
    "tid": "be308569-43d9-41c9-9786-83c5becdc317",
    "types": [
      "singers",
      "2"
    ]
  }
}