{
  "header": {
    "description": "Karaoke Mugen Tag File",
    "version": 1
  },
  "tag": {
    "i18n": {
      "eng": "Carpainter"
    },
    "name": "Carpainter",
    "tid": "2edcf0d4-7a6e-4733-a8b6-b51ff572c95b",
    "types": [
      "songwriters",
      "8"
    ],
    "repository": "kara.moe",
    "modified_at": "2020-03-31T19:04:33.850Z"
  }
}