{
  "header": {
    "description": "Karaoke Mugen Tag File",
    "version": 1
  },
  "tag": {
    "i18n": {
      "eng": "Cartuna"
    },
    "name": "Cartuna",
    "repository": "kara.moe",
    "tid": "4af29a9b-81aa-4956-baef-98d5d886bac1",
    "types": [
      "creators",
      "4"
    ]
  }
}