{
  "header": {
    "description": "Karaoke Mugen Tag File",
    "version": 1
  },
  "tag": {
    "i18n": {
      "eng": "Casey Lee Williams"
    },
    "name": "Casey Lee Williams",
    "repository": "kara.moe",
    "tid": "8e5157e0-6948-470b-89ca-aa242bf99d39",
    "types": [
      "songwriters",
      "8",
      "singers",
      "2"
    ]
  }
}