{
  "header": {
    "description": "Karaoke Mugen Tag File",
    "version": 1
  },
  "tag": {
    "i18n": {
      "eng": "CASG"
    },
    "name": "CASG",
    "repository": "kara.moe",
    "tid": "7d916d09-73c0-4b87-b23e-6536196fbee6",
    "types": [
      "singers",
      "2"
    ]
  }
}