{
  "header": {
    "description": "Karaoke Mugen Tag File",
    "version": 1
  },
  "tag": {
    "i18n": {
      "eng": "Cash Cash"
    },
    "name": "Cash Cash",
    "repository": "kara.moe",
    "tid": "99e16827-4257-4bf7-b6be-315d006063d2",
    "types": [
      "singers",
      "2"
    ]
  }
}