{
  "header": {
    "description": "Karaoke Mugen Tag File",
    "version": 1
  },
  "tag": {
    "i18n": {
      "eng": "Castlevania"
    },
    "name": "Castlevania",
    "repository": "kara.moe",
    "tid": "c51bd6c3-9ba9-4c81-aa8a-a11b97060377",
    "types": [
      "series",
      "1"
    ]
  }
}