{
  "header": {
    "description": "Karaoke Mugen Tag File",
    "version": 1
  },
  "tag": {
    "aliases": [
      "Cats Toninden Teyande",
      "Kyattou Ninden Teyandee",
      "Kyattô Ninden Teyandee",
      "Samouraï Pizza Cats"
    ],
    "external_database_ids": {
      "anilist": 1261,
      "myanimelist": 1261,
      "kitsu": 1136
    },
    "i18n": {
      "eng": "Samuraï Pizza Cats",
      "fre": "Samuraï Pizza Cats",
      "jpn": "キャッ党忍伝てやんでえ",
      "qro": "Cat Ninden Teyandee"
    },
    "modified_at": "2021-05-24T02:21:13.044Z",
    "name": "Cat Ninden Teyandee",
    "repository": "kara.moe",
    "tid": "2c33a4a6-904d-4fcd-96d1-ed4f89348657",
    "types": [
      "series",
      "1"
    ]
  }
}