{
  "header": {
    "description": "Karaoke Mugen Tag File",
    "version": 1
  },
  "tag": {
    "i18n": {
      "afr": "Katalaans",
      "amh": "ካታላንኛ",
      "ara": "الكاتالانية",
      "aze": "Katalan",
      "bak": "Каталан теле",
      "bel": "Каталонская",
      "bul": "Каталонски",
      "ben": "কাতালান",
      "bos": "Katalonski",
      "cat": "Català",
      "cze": "Katalánština",
      "wel": "Catalaneg",
      "dan": "Catalansk",
      "ger": "Katalanisch",
      "gre": "Καταλανικά",
      "eng": "Catalan",
      "epo": "Kataluna",
      "spa": "Catalán",
      "est": "Katalaani keel",
      "baq": "Katalana",
      "per": "کاتالان",
      "fin": "Katalaani",
      "fre": "Catalan",
      "gle": "Catalóinis",
      "gla": "Catalanais",
      "glg": "Catalán",
      "guj": "કતલાન",
      "heb": "קטלאנית",
      "hin": "कातालान",
      "hrv": "Katalonski",
      "hat": "Katalan",
      "hun": "Katalán",
      "arm": "Կատալոներեն",
      "ind": "Bahasa katala",
      "ice": "Katalónsku",
      "ita": "Catalano",
      "jpn": "カタロニア語",
      "jav": "Katalan",
      "geo": "კატალონიის",
      "kaz": "Каталан тілі",
      "kan": "ಕೆಟಲಾನ್",
      "kor": "카탈로니아",
      "kir": "Каталанский",
      "lat": "Catalan",
      "lit": "Katalonų",
      "lav": "Kataloniešu",
      "mlg": "Catalan",
      "mao": "Catalan",
      "mac": "Каталонски",
      "mal": "കാറ്റലൻ",
      "mon": "Каталан",
      "mar": "Catalan",
      "may": "Bahasa",
      "mlt": "Il-katalan",
      "nep": "कैटलन",
      "dut": "Catalaans",
      "nor": "Katalansk",
      "pan": "ਕਾਤਾਲਾਨ",
      "pol": "Kataloński",
      "por": "Catalão",
      "rum": "Catalană",
      "rus": "Каталанский",
      "sin": "ගලීසියානු ග්රීක",
      "slo": "Katalánsky",
      "slv": "Katalonski",
      "alb": "Katalanas",
      "srp": "Каталонски",
      "sun": "Catalan",
      "swe": "Katalanska",
      "swa": "Kikatalani",
      "tam": "கடாலன்",
      "tel": "కాటలాన్",
      "tgk": "Каталанский",
      "tha": "ภาษาคาตาลาน name",
      "tgl": "Catalan",
      "tur": "Katalanca",
      "tat": "Каталан теле",
      "ukr": "Каталонська",
      "urd": "کاٹالانین",
      "uzb": "Iye",
      "vie": "Catalan",
      "xho": "Isicatala",
      "yid": "קאַטאַלאַניש",
      "chi": "加泰罗尼亚语"
    },
    "name": "cat",
    "tid": "12633b6b-442c-4ba3-938d-378c18b515f3",
    "types": [
      "langs",
      "5"
    ],
    "repository": "kara.moe",
    "modified_at": "2020-03-31T19:04:33.854Z"
  }
}