{
  "header": {
    "description": "Karaoke Mugen Tag File",
    "version": 1
  },
  "tag": {
    "i18n": {
      "eng": "CatChu!"
    },
    "name": "CatChu!",
    "repository": "kara.moe",
    "tid": "653e895b-3a82-4511-ac05-2a2999f3bc3c",
    "types": [
      "singergroups",
      "17"
    ]
  }
}