{
  "header": {
    "description": "Karaoke Mugen Tag File",
    "version": 1
  },
  "tag": {
    "i18n": {
      "eng": "Catfish Deluxe"
    },
    "name": "Catfish Deluxe",
    "tid": "2cc8787c-832c-4d4d-a8e9-35d88e888e95",
    "types": [
      "creators",
      "4"
    ],
    "repository": "kara.moe",
    "modified_at": "2020-03-31T19:04:33.855Z"
  }
}