{
  "header": {
    "description": "Karaoke Mugen Tag File",
    "version": 1
  },
  "tag": {
    "i18n": {},
    "name": "Cathy Dennis",
    "repository": "kara.moe",
    "tid": "c51bd42c-5bf3-4cae-861b-5eb8ad34c96c",
    "types": [
      "songwriters",
      "8"
    ]
  }
}