{
  "header": {
    "description": "Karaoke Mugen Tag File",
    "version": 1
  },
  "tag": {
    "i18n": {
      "eng": "CAVE"
    },
    "name": "CAVE",
    "tid": "581d29d4-f419-4a73-aaf7-4536f3085104",
    "types": [
      "singers",
      "2"
    ],
    "repository": "kara.moe",
    "modified_at": "2020-03-31T19:04:33.857Z"
  }
}