{
  "header": {
    "description": "Karaoke Mugen Tag File",
    "version": 1
  },
  "tag": {
    "i18n": {
      "eng": "CAXX"
    },
    "name": "CAXX",
    "tid": "d51bb82e-a772-4c3f-a44a-d8c3d141aac6",
    "types": [
      "singers",
      "2"
    ],
    "repository": "kara.moe",
    "modified_at": "2020-03-31T19:04:33.858Z"
  }
}