{
  "header": {
    "description": "Karaoke Mugen Tag File",
    "version": 1
  },
  "tag": {
    "i18n": {
      "eng": "CaYOCO"
    },
    "name": "CaYOCO",
    "tid": "02a1b89f-1ca8-427b-9ea6-2001785f4b6e",
    "types": [
      "singers",
      "2"
    ],
    "repository": "kara.moe",
    "modified_at": "2020-03-31T19:04:33.858Z"
  }
}