{
  "header": {
    "description": "Karaoke Mugen Tag File",
    "version": 1
  },
  "tag": {
    "i18n": {
      "eng": "ccnaov"
    },
    "name": "ccnaov",
    "repository": "kara.moe",
    "tid": "4ec756ea-6f89-4c61-a442-0db32dbb536e",
    "types": [
      "creators",
      "4"
    ]
  }
}