{
  "header": {
    "description": "Karaoke Mugen Tag File",
    "version": 1
  },
  "tag": {
    "i18n": {
      "eng": "CD Projekt Red"
    },
    "name": "CD Projekt Red",
    "tid": "c9596af3-ff12-4142-9ca5-0cdc8662f8d1",
    "types": [
      "creators",
      "4"
    ],
    "repository": "kara.moe",
    "modified_at": "2020-03-31T19:04:33.860Z"
  }
}