{
  "header": {
    "description": "Karaoke Mugen Tag File",
    "version": 1
  },
  "tag": {
    "i18n": {
      "eng": "Ceka Éclair"
    },
    "name": "Ceka Éclair",
    "repository": "kara.moe",
    "tid": "e1ad5a47-1378-49fe-9a39-38294c2d3537",
    "types": [
      "songwriters",
      "8"
    ]
  }
}