{
  "header": {
    "description": "Karaoke Mugen Tag File",
    "version": 1
  },
  "tag": {
    "i18n": {
      "eng": "Celeina Ann"
    },
    "name": "Celeina Ann",
    "tid": "04968248-0bb4-4679-97c0-0ab02cdd79cf",
    "types": [
      "singers",
      "2"
    ],
    "repository": "kara.moe",
    "modified_at": "2020-03-31T19:04:33.862Z"
  }
}