{
  "header": {
    "description": "Karaoke Mugen Tag File",
    "version": 1
  },
  "tag": {
    "i18n": {
      "eng": "Celine Svanbäck"
    },
    "name": "Celine Svanbäck",
    "repository": "kara.moe",
    "tid": "d08740ad-3ffc-4634-8022-bd50ff67e472",
    "types": [
      "songwriters",
      "8"
    ]
  }
}