{
  "header": {
    "description": "Karaoke Mugen Tag File",
    "version": 1
  },
  "tag": {
    "i18n": {
      "eng": "Cellchrome"
    },
    "name": "Cellchrome",
    "tid": "f4f400ad-8819-4557-8319-18f5f1a02aa7",
    "types": [
      "singers",
      "2"
    ],
    "repository": "kara.moe",
    "modified_at": "2020-03-31T19:04:33.863Z"
  }
}