{
  "header": {
    "description": "Karaoke Mugen Tag File",
    "version": 1
  },
  "tag": {
    "i18n": {
      "eng": "Century Media Records"
    },
    "name": "Century Media Records",
    "repository": "kara.moe",
    "tid": "767bd17b-f8d7-4479-9fd3-628ad8df203f",
    "types": [
      "creators",
      "4"
    ]
  }
}