{
  "header": {
    "description": "Karaoke Mugen Tag File",
    "version": 1
  },
  "tag": {
    "i18n": {
      "eng": "Cerise Calixte"
    },
    "name": "Cerise Calixte",
    "tid": "04ad9740-a5b1-4c32-91d0-09745159eb26",
    "types": [
      "singers",
      "2"
    ],
    "repository": "kara.moe",
    "modified_at": "2020-03-31T19:04:33.866Z"
  }
}