{
  "header": {
    "description": "Karaoke Mugen Tag File",
    "version": 1
  },
  "tag": {
    "i18n": {
      "eng": "Cerise Bouquet"
    },
    "name": "Cerise Bouquet",
    "repository": "kara.moe",
    "tid": "c60ae79c-f8cf-466f-abc1-d008ff6cab25",
    "types": [
      "singergroups",
      "17"
    ]
  }
}