{
  "header": {
    "description": "Karaoke Mugen Tag File",
    "version": 1
  },
  "tag": {
    "i18n": {
      "eng": "Cesare De Natale"
    },
    "name": "Cesare De Natale",
    "tid": "46fd7864-26a4-4817-8bb8-45d3c985bd0b",
    "types": [
      "songwriters",
      "8"
    ],
    "repository": "kara.moe",
    "modified_at": "2020-03-31T19:04:33.866Z"
  }
}