{
  "header": {
    "description": "Karaoke Mugen Tag File",
    "version": 1
  },
  "tag": {
    "i18n": {
      "eng": "Chainsaw Dance"
    },
    "modified_at": "2021-05-11T23:07:52.752Z",
    "name": "Chainsaw Dance",
    "repository": "kara.moe",
    "tid": "56d5d60f-bab8-4975-8c6e-9a3ccd55e0c2",
    "types": [
      "series",
      "1"
    ]
  }
}