{
  "header": {
    "description": "Karaoke Mugen Tag File",
    "version": 1
  },
  "tag": {
    "external_database_ids": {
      "anilist": 127230,
      "myanimelist": 44511,
      "kitsu": 43806
    },
    "i18n": {
      "eng": "Chainsaw Man",
      "jpn": "チェンソーマン"
    },
    "name": "Chainsaw Man",
    "repository": "kara.moe",
    "tid": "0223cfec-8497-42fc-a5f4-b8eb0589c014",
    "types": [
      "series",
      "1"
    ]
  }
}