{
  "header": {
    "description": "Karaoke Mugen Tag File",
    "version": 1
  },
  "tag": {
    "i18n": {
      "eng": "CHAKA"
    },
    "name": "CHAKA",
    "repository": "kara.moe",
    "tid": "dc724aab-2f38-45e2-a5fc-faf32a0d9f39",
    "types": [
      "singers",
      "2"
    ]
  }
}