{
  "header": {
    "description": "Karaoke Mugen Tag File",
    "version": 1
  },
  "tag": {
    "i18n": {
      "eng": "ChamJam"
    },
    "name": "ChamJam",
    "repository": "kara.moe",
    "tid": "75e0df78-23fe-46cb-9a25-c23e9475d5fb",
    "types": [
      "singers",
      "2"
    ],
    "modified_at": "2020-03-31T19:04:33.871Z"
  }
}