{
  "header": {
    "description": "Karaoke Mugen Tag File",
    "version": 1
  },
  "tag": {
    "i18n": {
      "eng": "Changin' My Life"
    },
    "name": "Changin' My Life",
    "tid": "f3d5a851-6f99-4d43-b152-7b41891722d2",
    "types": [
      "singers",
      "2"
    ],
    "repository": "kara.moe",
    "modified_at": "2020-03-31T19:04:33.872Z"
  }
}