{
  "header": {
    "description": "Karaoke Mugen Tag File",
    "version": 1
  },
  "tag": {
    "aliases": [
      "Change!! Getter Robo",
      "Change!! True Getter Robo - The Final Days of the World",
      "Getter Robo Armageddon",
      "Shin (Change!!) Getter Robo - The Final Days of the World",
      "Shin Getter Robo: The Last Day",
      "True (Change!!) Getter Robo - The Final Days of the World"
    ],
    "external_database_ids": {
      "anilist": 978,
      "myanimelist": 978,
      "kitsu": 868
    },
    "i18n": {
      "eng": "Getter Robo: Armageddon",
      "jpn": "真(チェンジ!!)ゲッターロボ 世界最後の日",
      "qro": "Change!! Getter Robo: Sekai Saigo no Hi"
    },
    "modified_at": "2020-03-31T19:04:31.168Z",
    "name": "Change!! Getter Robo: Sekai Saigo no Hi",
    "repository": "kara.moe",
    "tid": "f9abef9d-da8b-4bdf-a590-758d866ed2e8",
    "types": [
      "series",
      "1"
    ]
  }
}