{
  "header": {
    "description": "Karaoke Mugen Tag File",
    "version": 1
  },
  "tag": {
    "i18n": {
      "eng": "Changbin"
    },
    "modified_at": "2020-06-01T16:55:45.458Z",
    "name": "Changbin",
    "repository": "kara.moe",
    "tid": "691268ca-1543-4abe-a2bb-3a115cad8752",
    "types": [
      "songwriters",
      "8"
    ]
  }
}