{
  "header": {
    "description": "Karaoke Mugen Tag File",
    "version": 1
  },
  "tag": {
    "aliases": [
      "Chaos Dragon Sekiryuu Seneki",
      "sekiryuu"
    ],
    "external_database_ids": {
      "anilist": 21055,
      "myanimelist": 30091,
      "kitsu": 10619
    },
    "i18n": {
      "eng": "Chaos Dragon",
      "fre": "Chaos Dragon",
      "jpn": "ケイオスドラゴン 赤竜戦役",
      "qro": "Chaos Dragon: Sekiryû Sen'eki"
    },
    "modified_at": "2020-03-31T19:04:31.170Z",
    "name": "Chaos Dragon: Sekiryû Sen'eki",
    "repository": "kara.moe",
    "tid": "d37794f5-a23a-4069-8a38-f755945343b5",
    "types": [
      "series",
      "1"
    ]
  }
}