{
  "header": {
    "description": "Karaoke Mugen Tag File",
    "version": 1
  },
  "tag": {
    "i18n": {
      "eng": "Charlie King"
    },
    "name": "Charlie King",
    "tid": "78de5cf3-f0e6-4c1a-8d37-64486611267f",
    "types": [
      "songwriters",
      "8"
    ],
    "repository": "kara.moe",
    "modified_at": "2020-03-31T19:04:33.878Z"
  }
}