{
  "header": {
    "description": "Karaoke Mugen Tag File",
    "version": 1
  },
  "tag": {
    "external_database_ids": {
      "anilist": 6383,
      "myanimelist": 6383,
      "kitsu": 4541
    },
    "i18n": {
      "eng": "Chargeman Ken!",
      "jpn": "チャージマン研！",
      "qro": "Chargeman Ken!"
    },
    "name": "Chargeman Ken!",
    "repository": "kara.moe",
    "tid": "65fa213b-5d7d-403f-bb8d-01ebf7e30a23",
    "types": [
      "series",
      "1"
    ]
  }
}