{
  "header": {
    "description": "Karaoke Mugen Tag File",
    "version": 1
  },
  "tag": {
    "i18n": {
      "eng": "Charlie J. Perry"
    },
    "name": "Charlie J. Perry",
    "repository": "kara.moe",
    "tid": "db256e9e-e4d3-443b-9080-14abfb68b7e5",
    "types": [
      "songwriters",
      "8"
    ]
  }
}