{
  "header": {
    "description": "Karaoke Mugen Tag File",
    "version": 1
  },
  "tag": {
    "i18n": {
      "eng": "Charlie Puth"
    },
    "name": "Charlie Puth",
    "repository": "kara.moe",
    "tid": "8c57fdca-692e-410e-841e-c1e845d64ee8",
    "types": [
      "singers",
      "2",
      "songwriters",
      "8"
    ]
  }
}