{
  "header": {
    "description": "Karaoke Mugen Tag File",
    "version": 1
  },
  "tag": {
    "i18n": {
      "eng": "CHARMY♡QUEEN"
    },
    "name": "CHARMY♡QUEEN",
    "repository": "kara.moe",
    "tid": "e0a58aa9-8fd1-45c8-836a-461df0cb0ef9",
    "types": [
      "singers",
      "2"
    ]
  }
}