{
  "header": {
    "description": "Karaoke Mugen Tag File",
    "version": 1
  },
  "tag": {
    "i18n": {
      "eng": "Charlotte Fullerton"
    },
    "name": "Charlotte Fullerton",
    "tid": "fd1b3393-f3ff-4319-b90c-58399e279e3b",
    "types": [
      "songwriters",
      "8"
    ],
    "repository": "kara.moe",
    "modified_at": "2020-03-31T19:04:33.880Z"
  }
}