{
  "header": {
    "description": "Karaoke Mugen Tag File",
    "version": 1
  },
  "tag": {
    "i18n": {
      "eng": "Charles Level"
    },
    "name": "Charles Level",
    "tid": "916f8470-3203-4e7b-b8fa-a9b721315d85",
    "types": [
      "songwriters",
      "8"
    ],
    "repository": "kara.moe",
    "modified_at": "2020-03-31T19:04:33.876Z"
  }
}