{
  "header": {
    "description": "Karaoke Mugen Tag File",
    "version": 1
  },
  "tag": {
    "i18n": {
      "eng": "Charles Ludig"
    },
    "name": "Charles Ludig",
    "repository": "kara.moe",
    "tid": "83ef6a69-cc56-4bb9-89ac-8aa5a2a4832d",
    "types": [
      "songwriters",
      "8"
    ]
  }
}