{
  "header": {
    "description": "Karaoke Mugen Tag File",
    "version": 1
  },
  "tag": {
    "i18n": {
      "eng": "Charles Hart"
    },
    "modified_at": "2020-07-11T22:19:27.072Z",
    "name": "Charles Hart",
    "repository": "kara.moe",
    "tid": "b4e0eb5a-7413-46d1-8c99-5ed2dfb6d7c1",
    "types": [
      "songwriters",
      "8"
    ]
  }
}