{
  "header": {
    "description": "Karaoke Mugen Tag File",
    "version": 1
  },
  "tag": {
    "i18n": {
      "eng": "Charlie Andrew"
    },
    "name": "Charlie Andrew",
    "tid": "d6049a51-d7d6-4ea5-9f4b-43e7ccc23d3b",
    "types": [
      "songwriters",
      "8"
    ],
    "repository": "kara.moe",
    "modified_at": "2020-03-31T19:04:33.877Z"
  }
}