{
  "header": {
    "description": "Karaoke Mugen Tag File",
    "version": 1
  },
  "tag": {
    "i18n": {
      "eng": "Chelsy"
    },
    "name": "Chelsy",
    "tid": "3b084fa6-b9af-43f4-93ea-e189d277cd90",
    "types": [
      "singers",
      "2",
      "songwriters",
      "8"
    ],
    "repository": "kara.moe",
    "modified_at": "2020-03-31T19:04:33.886Z"
  }
}