{
  "header": {
    "description": "Karaoke Mugen Tag File",
    "version": 1
  },
  "tag": {
    "i18n": {
      "eng": "cheluce"
    },
    "name": "cheluce",
    "repository": "kara.moe",
    "tid": "6943d748-9330-45dc-97dc-2a9c8d17705b",
    "types": [
      "singers",
      "2"
    ]
  }
}