{
  "header": {
    "description": "Karaoke Mugen Tag File",
    "version": 1
  },
  "tag": {
    "i18n": {
      "eng": "CHEMISTRY"
    },
    "name": "CHEMISTRY",
    "tid": "e50b6a83-1cb1-4db2-9248-4137930362f0",
    "types": [
      "singers",
      "2",
      "songwriters",
      "8"
    ],
    "repository": "kara.moe",
    "modified_at": "2020-03-31T19:04:33.886Z"
  }
}