{
  "header": {
    "description": "Karaoke Mugen Tag File",
    "version": 1
  },
  "tag": {
    "i18n": {
      "eng": "Chenggong Wang",
      "chi": " 王成功",
      "qro": "Wáng Chénggōng"
    },
    "name": "Chenggong Wang",
    "repository": "kara.moe",
    "tid": "d7fc0954-8a8c-4130-b84f-af3dcec35702",
    "types": [
      "singers",
      "2"
    ]
  }
}