{
  "header": {
    "description": "Karaoke Mugen Tag File",
    "version": 1
  },
  "tag": {
    "aliases": [
      "Cheng Yi"
    ],
    "i18n": {
      "chi": "澄一 ",
      "qro": "Chéng Yī"
    },
    "name": "Chéng Yī",
    "repository": "kara.moe",
    "tid": "3579713c-baca-437d-b8c4-161c3f2d5bbf",
    "types": [
      "songwriters",
      "8"
    ]
  }
}