{
  "header": {
    "description": "Karaoke Mugen Tag File",
    "version": 1
  },
  "tag": {
    "i18n": {
      "eng": "CHERRYBLOSSOM"
    },
    "name": "CHERRYBLOSSOM",
    "tid": "cde4491c-e6f5-4300-92e0-d535dcc28475",
    "types": [
      "singers",
      "2"
    ],
    "repository": "kara.moe",
    "modified_at": "2020-03-31T19:04:33.888Z"
  }
}