{
  "header": {
    "description": "Karaoke Mugen Tag File",
    "version": 1
  },
  "tag": {
    "i18n": {
      "eng": "Cheritz"
    },
    "name": "Cheritz",
    "tid": "3887942e-6a82-4735-9918-2d445e3155f4",
    "types": [
      "creators",
      "4",
      "songwriters",
      "8"
    ],
    "repository": "kara.moe",
    "modified_at": "2020-03-31T19:04:33.888Z"
  }
}