{
  "header": {
    "description": "Karaoke Mugen Tag File",
    "version": 1
  },
  "tag": {
    "i18n": {
      "eng": "Chfou"
    },
    "name": "Chfou",
    "tid": "351522fb-b05b-4424-bf4e-38255645150f",
    "types": [
      "authors",
      "6"
    ],
    "repository": "kara.moe",
    "modified_at": "2020-03-31T19:04:33.889Z"
  }
}