{
  "header": {
    "description": "Karaoke Mugen Tag File",
    "version": 1
  },
  "tag": {
    "i18n": {
      "eng": "Chi"
    },
    "name": "Chi",
    "repository": "kara.moe",
    "tid": "1d246a89-5f0b-42bc-85cb-8a80e8f38054",
    "types": [
      "creators",
      "4"
    ]
  }
}