{
  "header": {
    "description": "Karaoke Mugen Tag File",
    "version": 1
  },
  "tag": {
    "i18n": {
      "eng": "Chiaki Natsume"
    },
    "modified_at": "2020-09-16T00:46:24.957Z",
    "name": "Chiaki Natsume",
    "repository": "kara.moe",
    "tid": "f4264ddc-50aa-4b39-8ec7-6b80bcd6c334",
    "types": [
      "songwriters",
      "8",
      "creators",
      "4"
    ]
  }
}