{
  "header": {
    "description": "Karaoke Mugen Tag File",
    "version": 1
  },
  "tag": {
    "i18n": {
      "eng": "Chiaki Nagasawa"
    },
    "name": "Chiaki Nagasawa",
    "tid": "17a666a7-bb79-4449-bfe5-fa8bd6ea2491",
    "types": [
      "songwriters",
      "8"
    ],
    "repository": "kara.moe",
    "modified_at": "2020-03-31T19:04:33.893Z"
  }
}