{
  "header": {
    "description": "Karaoke Mugen Tag File",
    "version": 1
  },
  "tag": {
    "i18n": {
      "eng": "Chiaki Ishikawa"
    },
    "name": "Chiaki Ishikawa",
    "tid": "7d007ea2-a183-4f90-a60e-a2b401190292",
    "types": [
      "songwriters",
      "8",
      "singers",
      "2"
    ],
    "repository": "kara.moe",
    "modified_at": "2020-03-31T19:04:33.892Z"
  }
}