{
  "header": {
    "description": "Karaoke Mugen Tag File",
    "version": 1
  },
  "tag": {
    "i18n": {
      "eng": "Chiaki Himizu"
    },
    "modified_at": "2020-08-20T14:58:02.075Z",
    "name": "Chiaki Himizu",
    "repository": "kara.moe",
    "tid": "6a21f7c2-7775-426f-8755-93c28246c96b",
    "types": [
      "songwriters",
      "8"
    ]
  }
}