{
  "header": {
    "description": "Karaoke Mugen Tag File",
    "version": 1
  },
  "tag": {
    "i18n": {
      "eng": "Chiaki Kon"
    },
    "name": "Chiaki Kon",
    "repository": "kara.moe",
    "tid": "828fd91a-c95e-4c43-8ebc-ad0842ca4653",
    "types": [
      "singers",
      "2"
    ]
  }
}