{
  "header": {
    "description": "Karaoke Mugen Tag File",
    "version": 1
  },
  "tag": {
    "i18n": {
      "eng": "Chiba Yusuke"
    },
    "name": "Chiba Yusuke",
    "repository": "kara.moe",
    "tid": "09a6c180-d91a-4f2b-9fe2-795d14a5941d",
    "types": [
      "singers",
      "2"
    ]
  }
}