{
  "header": {
    "description": "Karaoke Mugen Tag File",
    "version": 1
  },
  "tag": {
    "i18n": {
      "eng": "Chickenny"
    },
    "name": "Chickenny",
    "tid": "387343ce-4a23-443b-9990-00d91c490c39",
    "types": [
      "authors",
      "6"
    ],
    "repository": "kara.moe",
    "modified_at": "2020-03-31T19:04:33.897Z"
  }
}