{
  "header": {
    "description": "Karaoke Mugen Tag File",
    "version": 1
  },
  "tag": {
    "i18n": {
      "eng": "Chiemi Tanaka"
    },
    "name": "Chiemi Tanaka",
    "repository": "kara.moe",
    "tid": "178c3a64-efbc-48d4-a7d3-1847414eebc1",
    "types": [
      "singers",
      "2"
    ]
  }
}