{
  "header": {
    "description": "Karaoke Mugen Tag File",
    "version": 1
  },
  "tag": {
    "i18n": {
      "eng": "Chie Masami"
    },
    "modified_at": "2020-08-15T23:31:38.447Z",
    "name": "Chie Masami",
    "repository": "kara.moe",
    "tid": "3ebb1fa8-3175-4ce7-8078-5239177cd814",
    "types": [
      "creators",
      "4"
    ]
  }
}