{
  "header": {
    "description": "Karaoke Mugen Tag File",
    "version": 1
  },
  "tag": {
    "i18n": {
      "eng": "Chie Ishibashi"
    },
    "name": "Chie Ishibashi",
    "tid": "150edcfd-1eb7-449d-b53e-2ecf0485cffb",
    "types": [
      "singers",
      "2"
    ],
    "repository": "kara.moe",
    "modified_at": "2020-03-31T19:04:33.899Z"
  }
}