{
  "header": {
    "description": "Karaoke Mugen Tag File",
    "version": 1
  },
  "tag": {
    "i18n": {
      "eng": "Chiemi Nagao"
    },
    "name": "Chiemi Nagao",
    "repository": "kara.moe",
    "tid": "2c425b5f-a30d-40b7-b26d-2f029341f1c9",
    "types": [
      "singers",
      "2",
      "songwriters",
      "8"
    ]
  }
}