{
  "header": {
    "description": "Karaoke Mugen Tag File",
    "version": 1
  },
  "tag": {
    "i18n": {
      "eng": "Chihiro Kurosu"
    },
    "name": "Chihiro Kurosu",
    "tid": "fae43852-d200-4995-a2d1-a06e9b748fab",
    "types": [
      "songwriters",
      "8"
    ],
    "repository": "kara.moe",
    "modified_at": "2020-03-31T19:04:33.911Z"
  }
}