{
  "header": {
    "description": "Karaoke Mugen Tag File",
    "version": 1
  },
  "tag": {
    "i18n": {
      "eng": "Chiho Kiyooka"
    },
    "name": "Chiho Kiyooka",
    "tid": "5ef38e64-35cc-40fe-9469-4c8b8699d349",
    "types": [
      "songwriters",
      "8"
    ],
    "repository": "kara.moe",
    "modified_at": "2020-03-31T19:04:33.915Z"
  }
}