{
  "header": {
    "description": "Karaoke Mugen Tag File",
    "version": 1
  },
  "tag": {
    "external_database_ids": {
      "anilist": 101215,
      "myanimelist": 37379,
      "kitsu": 40998
    },
    "i18n": {
      "eng": "Chihayafuru 3",
      "jpn": "ちはやふる3",
      "qro": "Chihayafuru 3"
    },
    "modified_at": "2020-03-31T19:04:31.180Z",
    "name": "Chihayafuru 3",
    "repository": "kara.moe",
    "tid": "897bce6f-3b91-4bd7-b69c-3c48ed2c296e",
    "types": [
      "series",
      "1"
    ]
  }
}