{
  "header": {
    "description": "Karaoke Mugen Tag File",
    "version": 1
  },
  "tag": {
    "i18n": {
      "eng": "Chiharu Tamashiro"
    },
    "name": "Chiharu Tamashiro",
    "tid": "b98dbea7-750e-4699-987b-30dd8e9abef7",
    "types": [
      "songwriters",
      "8"
    ],
    "repository": "kara.moe",
    "modified_at": "2020-03-31T19:04:33.908Z"
  }
}