{
  "header": {
    "description": "Karaoke Mugen Tag File",
    "version": 1
  },
  "tag": {
    "i18n": {
      "eng": "Chiharu Kaneko"
    },
    "name": "Chiharu Kaneko",
    "tid": "ea37eba5-dede-4da1-ba5b-7fa54ec4233d",
    "types": [
      "songwriters",
      "8"
    ],
    "repository": "kara.moe",
    "modified_at": "2020-03-31T19:04:33.907Z"
  }
}