{
  "header": {
    "description": "Karaoke Mugen Tag File",
    "version": 1
  },
  "tag": {
    "aliases": [
      "Chikyuu Seifuku Bu"
    ],
    "i18n": {
      "eng": "Chikyû Seifuku Bu"
    },
    "modified_at": "2020-08-19T17:51:07.277Z",
    "name": "Chikyû Seifuku Bu",
    "repository": "kara.moe",
    "tid": "d4b86c94-b1af-4df4-8cbe-eb90169713b0",
    "types": [
      "singers",
      "2"
    ]
  }
}