{
  "header": {
    "description": "Karaoke Mugen Tag File",
    "version": 1
  },
  "tag": {
    "i18n": {
      "eng": "Chikara Ozaki"
    },
    "name": "Chikara Ozaki",
    "tid": "e4619ee6-acb6-4b07-b33c-88a44a0cfa52",
    "types": [
      "songwriters",
      "8"
    ],
    "repository": "kara.moe",
    "modified_at": "2020-03-31T19:04:33.920Z"
  }
}