{
  "header": {
    "description": "Karaoke Mugen Tag File",
    "version": 1
  },
  "tag": {
    "aliases": [
      "Chikyuu Bouei Bu"
    ],
    "i18n": {
      "eng": "Chikyû Bôei Bu"
    },
    "modified_at": "2020-08-19T17:50:50.843Z",
    "name": "Chikyû Bôei Bu",
    "repository": "kara.moe",
    "tid": "70aa604f-c5a1-4b1b-9731-18396fcff8a2",
    "types": [
      "singers",
      "2"
    ]
  }
}