{
  "header": {
    "description": "Karaoke Mugen Tag File",
    "version": 1
  },
  "tag": {
    "i18n": {
      "jpn": "高橋 知伽江",
      "qro": "Chikae Takahashi"
    },
    "name": "Chikae Takahashi",
    "repository": "kara.moe",
    "tid": "52286fc0-27d0-4b1d-8863-03206c62c544",
    "types": [
      "songwriters",
      "8"
    ]
  }
}