{
  "header": {
    "description": "Karaoke Mugen Tag File",
    "version": 1
  },
  "tag": {
    "i18n": {
      "eng": "Chikara Gonohe"
    },
    "modified_at": "2021-05-09T10:55:30.113Z",
    "name": "Chikara Gonohe",
    "repository": "kara.moe",
    "tid": "0efcba04-abcb-4e78-931c-eb3427971ef2",
    "types": [
      "songwriters",
      "8"
    ]
  }
}