{
  "header": {
    "description": "Karaoke Mugen Tag File",
    "version": 1
  },
  "tag": {
    "aliases": [
      "Chikyuu Shoujo Arjuna",
      "EGA",
      "Earth Girl Arjuna",
      "Earth Maiden Arjuna",
      "Земная Дева Арджуна",
      "Земното момиче Арджуна",
      "chikyuu",
      "shoujo"
    ],
    "external_database_ids": {
      "anilist": 812,
      "myanimelist": 812,
      "kitsu": 719
    },
    "i18n": {
      "eng": "Arjuna",
      "fre": "Arjuna",
      "ger": "Arjuna",
      "jpn": "地球少女アルジュナ",
      "pol": "Arjuna - córka Ziemi",
      "por": "Arjuna",
      "rus": "Арджуна",
      "spa": "Arjuna",
      "qro": "Chikyû Shôjo Arjuna"
    },
    "modified_at": "2020-03-31T19:04:31.183Z",
    "name": "Chikyû Shôjo Arjuna",
    "repository": "kara.moe",
    "tid": "5b2648fa-82b6-4eff-954a-4df48b41cb8e",
    "types": [
      "series",
      "1"
    ]
  }
}