{
  "header": {
    "description": "Karaoke Mugen Tag File",
    "version": 1
  },
  "tag": {
    "i18n": {
      "eng": "Children of Daicon"
    },
    "modified_at": "2021-07-04T19:01:16.832Z",
    "name": "Children of Daicon",
    "repository": "kara.moe",
    "tid": "ecaf1077-3ee7-4cbc-9f7a-694b5ee80083",
    "types": [
      "series",
      "1"
    ]
  }
}