{
  "header": {
    "description": "Karaoke Mugen Tag File",
    "version": 1
  },
  "tag": {
    "external_database_ids": {
      "anilist": 144858,
      "kitsu": 45856,
      "myanimelist": 50985
    },
    "i18n": {
      "jpn": "ちみも",
      "qro": "Chimimo"
    },
    "name": "Chimimo",
    "repository": "kara.moe",
    "tid": "db0601e1-175d-4297-9864-4e94367f890b",
    "types": [
      "series",
      "1"
    ]
  }
}