{
  "header": {
    "description": "Karaoke Mugen Tag File",
    "version": 1
  },
  "tag": {
    "i18n": {
      "eng": "Chinatsu Nakayama"
    },
    "name": "Chinatsu Nakayama",
    "tid": "1a8b4fb4-31df-4439-be70-245d23b46bff",
    "types": [
      "songwriters",
      "8"
    ],
    "repository": "kara.moe",
    "modified_at": "2020-03-31T19:04:33.925Z"
  }
}