{
  "header": {
    "description": "Karaoke Mugen Tag File",
    "version": 1
  },
  "tag": {
    "i18n": {
      "eng": "Chino"
    },
    "name": "Chino",
    "tid": "e0f1c8ec-5203-4a7c-a8b7-a2d4dc76b0bc",
    "types": [
      "songwriters",
      "8"
    ],
    "repository": "kara.moe",
    "modified_at": "2020-03-31T19:04:33.926Z"
  }
}