{
  "header": {
    "description": "Karaoke Mugen Tag File",
    "version": 1
  },
  "tag": {
    "i18n": {
      "eng": "Chipzel"
    },
    "name": "Chipzel",
    "repository": "kara.moe",
    "tid": "c55e77f9-7dbf-44cc-a278-112101de9bca",
    "types": [
      "songwriters",
      "8"
    ],
    "modified_at": "2020-03-31T19:04:33.926Z"
  }
}