{
  "header": {
    "description": "Karaoke Mugen Tag File",
    "version": 1
  },
  "tag": {
    "i18n": {
      "eng": "CHIVA"
    },
    "name": "CHIVA",
    "repository": "kara.moe",
    "tid": "10ca5671-5389-436e-9b9c-5f1cb1fa8e11",
    "types": [
      "songwriters",
      "8"
    ]
  }
}