{
  "header": {
    "description": "Karaoke Mugen Tag File",
    "version": 1
  },
  "tag": {
    "i18n": {
      "eng": "Chiwa Saitô"
    },
    "name": "Chiwa Saitô",
    "tid": "a6a98cd7-362e-404b-aa73-651526e190bb",
    "types": [
      "singers",
      "2"
    ],
    "repository": "kara.moe",
    "modified_at": "2020-03-31T19:04:33.935Z"
  }
}