{
  "header": {
    "description": "Karaoke Mugen Tag File",
    "version": 1
  },
  "tag": {
    "i18n": {
      "eng": "Chiwata Hidenori"
    },
    "modified_at": "2020-09-10T21:59:09.682Z",
    "name": "Chiwata Hidenori",
    "repository": "kara.moe",
    "tid": "ca1bcc74-4967-46dc-8a78-2128710836c5",
    "types": [
      "singers",
      "2"
    ]
  }
}