{
  "header": {
    "description": "Karaoke Mugen Tag File",
    "version": 1
  },
  "tag": {
    "i18n": {
      "eng": "Chiyoko Mori"
    },
    "name": "Chiyoko Mori",
    "tid": "14ff928e-8d83-4b76-8efb-eaf5fa1657da",
    "types": [
      "songwriters",
      "8"
    ],
    "repository": "kara.moe",
    "modified_at": "2020-03-31T19:04:33.936Z"
  }
}