{
  "header": {
    "description": "Karaoke Mugen Tag File",
    "version": 1
  },
  "tag": {
    "i18n": {
      "eng": "Chiyuki Miura"
    },
    "name": "Chiyuki Miura",
    "repository": "kara.moe",
    "tid": "f9240006-ffa9-44e8-ae9c-152ca7b4c2d9",
    "types": [
      "singers",
      "2"
    ]
  }
}