{
  "header": {
    "description": "Karaoke Mugen Tag File",
    "version": 1
  },
  "tag": {
    "i18n": {
      "eng": "Chizuko Moriai"
    },
    "name": "Chizuko Moriai",
    "repository": "kara.moe",
    "tid": "9f099aa6-b4e1-488e-b301-97d3ae6b705e",
    "types": [
      "songwriters",
      "8"
    ]
  }
}