{
  "header": {
    "description": "Karaoke Mugen Tag File",
    "version": 1
  },
  "tag": {
    "aliases": [
      "El Armario de Cloe"
    ],
    "i18n": {
      "dut": "Chloe's Toverkast",
      "eng": "Chloe's Closet",
      "fre": "Chloé Magique",
      "ger": "Zoés Zauberschrank",
      "ita": "L'armadio di Chloé",
      "spa": "La Magia de Chloe"
    },
    "modified_at": "2020-03-31T19:04:31.185Z",
    "name": "Chloé Magique",
    "repository": "kara.moe",
    "tid": "40668ea3-c78f-4270-9ab7-6b820764728f",
    "types": [
      "series",
      "1"
    ]
  }
}