{
  "header": {
    "description": "Karaoke Mugen Tag File",
    "version": 1
  },
  "tag": {
    "i18n": {
      "eng": "Chloe Sakamata",
      "jpn": "沙花叉クロヱ",
      "qro": "Chloe Sakamata"
    },
    "name": "Chloe Sakamata",
    "repository": "kara.moe",
    "tid": "6eefee09-6045-4411-b952-c0899586ba91",
    "types": [
      "singers",
      "2",
      "songwriters",
      "8"
    ]
  }
}