{
  "header": {
    "description": "Karaoke Mugen Tag File",
    "version": 1
  },
  "tag": {
    "i18n": {
      "eng": "Choco Yuzuki",
      "jpn": "癒月ちょこ",
      "qro": "Choco Yuzuki"
    },
    "modified_at": "2021-09-02T20:09:15.242Z",
    "name": "Choco Yuzuki",
    "repository": "kara.moe",
    "tid": "a8d48bb4-57c4-4fb7-8976-7582f0a6e5f5",
    "types": [
      "singers",
      "2"
    ]
  }
}