{
  "header": {
    "description": "Karaoke Mugen Tag File",
    "version": 1
  },
  "tag": {
    "description": {
      "eng": ""
    },
    "i18n": {
      "eng": "Chogakusei",
      "qro": "Chou gakusei",
      "jpn": "超学生"
    },
    "name": "Chogakusei",
    "repository": "kara.moe",
    "tid": "0320ebd0-877c-4777-ac7e-8b6acfdb1f03",
    "types": [
      "singers",
      "2",
      "creators",
      "4"
    ]
  }
}