{
  "header": {
    "description": "Karaoke Mugen Tag File",
    "version": 1
  },
  "tag": {
    "i18n": {
      "eng": "Choi Ye-na"
    },
    "name": "Choi Ye-na",
    "repository": "kara.moe",
    "tid": "d4fad199-d556-4adb-bb33-fe17e512fb6b",
    "types": [
      "singers",
      "2"
    ]
  }
}