{
  "header": {
    "description": "Karaoke Mugen Tag File",
    "version": 1
  },
  "tag": {
    "aliases": [
      "SAN"
    ],
    "i18n": {
      "kor": "최산",
      "qro": "Choi San"
    },
    "name": "Choi San",
    "repository": "kara.moe",
    "tid": "24598bd0-6a1f-4717-9084-5699a260bf74",
    "types": [
      "singers",
      "2"
    ]
  }
}