{
  "header": {
    "description": "Karaoke Mugen Tag File",
    "version": 1
  },
  "tag": {
    "aliases": [
      "Choi Jong ho",
      "JONGHO"
    ],
    "i18n": {
      "kor": "최종호",
      "qro": "Choi Jong-ho"
    },
    "name": "Choi Jong-ho",
    "repository": "kara.moe",
    "tid": "772f9580-0bf7-471c-bfe3-bdad84c4374d",
    "types": [
      "singers",
      "2"
    ]
  }
}