{
  "header": {
    "description": "Karaoke Mugen Tag File",
    "version": 1
  },
  "tag": {
    "i18n": {
      "eng": "CHOKKAKU"
    },
    "name": "CHOKKAKU",
    "tid": "b6f3cc48-27eb-4ea6-8373-797ea538f063",
    "types": [
      "songwriters",
      "8"
    ],
    "repository": "kara.moe",
    "modified_at": "2020-03-31T19:04:33.944Z"
  }
}