{
  "header": {
    "description": "Karaoke Mugen Tag File",
    "version": 1
  },
  "tag": {
    "i18n": {
      "eng": "Chokkyu Murano"
    },
    "name": "Chokkyu Murano",
    "tid": "c67132c2-a0a2-474c-b5e3-b84b9b5c6613",
    "types": [
      "songwriters",
      "8"
    ],
    "repository": "kara.moe",
    "modified_at": "2020-03-31T19:04:33.944Z"
  }
}