{
  "header": {
    "description": "Karaoke Mugen Tag File",
    "version": 1
  },
  "tag": {
    "aliases": [
      "Chou Soku Henkei Gyrozetter",
      "Hyper Speed Transforming Gyrozetter",
      "chou"
    ],
    "external_database_ids": {
      "anilist": 14989,
      "myanimelist": 14989,
      "kitsu": 7191
    },
    "i18n": {
      "eng": "Hyper Speed Transforming Gyrozetter",
      "jpn": "超速変形ジャイロゼッター",
      "qro": "Chô Soku Henkei Gyrozetter"
    },
    "modified_at": "2020-03-31T19:04:31.200Z",
    "name": "Chô Soku Henkei Gyrozetter",
    "repository": "kara.moe",
    "tid": "e912a442-edd3-45a7-8bf4-2b6d75241a50",
    "types": [
      "series",
      "1"
    ]
  }
}