{
  "header": {
    "description": "Karaoke Mugen Tag File",
    "version": 1
  },
  "tag": {
    "aliases": [
      "Chou on Senshi Borgman",
      "chou"
    ],
    "external_database_ids": {
      "anilist": 3035,
      "myanimelist": 3035,
      "kitsu": 2741
    },
    "i18n": {
      "eng": "Sonic Soldier Borgman",
      "fre": "Borgman",
      "jpn": "超音戦士ボーグマン",
      "qro": "Chô on Senshi Borgman"
    },
    "modified_at": "2020-03-31T19:04:31.198Z",
    "name": "Chô on Senshi Borgman",
    "repository": "kara.moe",
    "tid": "dc9e5421-0996-4468-bd25-8fccf22b0565",
    "types": [
      "series",
      "1"
    ]
  }
}