{
  "header": {
    "description": "Karaoke Mugen Tag File",
    "version": 1
  },
  "tag": {
    "i18n": {
      "eng": "Chôji Yoshikawa"
    },
    "name": "Chôji Yoshikawa",
    "repository": "kara.moe",
    "tid": "073d1005-6b6c-4b28-9001-1c25bd17e8a4",
    "types": [
      "songwriters",
      "8"
    ],
    "modified_at": "2020-03-31T19:04:33.948Z"
  }
}