{
  "header": {
    "description": "Karaoke Mugen Tag File",
    "version": 1
  },
  "tag": {
    "aliases": [
      "Choujin Locke",
      "Choujin Locke: Majo no Millennium",
      "Choujin Locke: Witch Era",
      "Locke - superczłowiek",
      "Locke The Superman: Millennium of the Witch",
      "Locke the Superman: Witch Era",
      "Space Warriors",
      "Star Warriors",
      "超人ロック 魔女の世紀[ミレニアム]",
      "초인 로크",
      "choujin"
    ],
    "external_database_ids": {
      "anilist": 3522,
      "myanimelist": 3522,
      "kitsu": 3071
    },
    "i18n": {
      "eng": "Locke the Superman",
      "fre": "Luck the galaxy fighter",
      "gre": "Λοκ ο Σούπερμαν",
      "jpn": "超人ロック",
      "por": "Locke - O Superman das Galáxias",
      "spa": "Superman de las Galaxias",
      "qro": "Chôjin Locke"
    },
    "modified_at": "2020-03-31T19:04:31.206Z",
    "name": "Chôjin Locke",
    "repository": "kara.moe",
    "tid": "1a10adf7-42c1-49d1-b602-0749b28b1929",
    "types": [
      "series",
      "1"
    ]
  }
}