{
  "header": {
    "description": "Karaoke Mugen Tag File",
    "version": 1
  },
  "tag": {
    "aliases": [
      "Choujigen Game Neptune mk2",
      "Choujijigen Game Neptune Re;Birth 2: Sisters Generation",
      "Hyperdimension Neptunia Re;Birth2",
      "超次次元ゲイム ネプテューヌ Re;Birth2 SISTERS GENERATION",
      "choujigen"
    ],
    "i18n": {
      "eng": "Hyperdimension Neptunia mk2",
      "jpn": "超次元ゲイム ネプテューヌmk2",
      "qro": "Chôjigen Game Neptune mk2"
    },
    "modified_at": "2020-03-31T19:04:31.201Z",
    "name": "Chôjigen Game Neptune mk2",
    "repository": "kara.moe",
    "tid": "3f4c649f-a42f-4f9a-8222-1e39e6aeda12",
    "types": [
      "series",
      "1"
    ]
  }
}