{
  "header": {
    "description": "Karaoke Mugen Tag File",
    "version": 1
  },
  "tag": {
    "i18n": {
      "eng": "Chris Edwards"
    },
    "name": "Chris Edwards",
    "tid": "13ab15cd-feca-4ca0-99d5-e2c56d22a3bd",
    "types": [
      "songwriters",
      "8"
    ],
    "repository": "kara.moe",
    "modified_at": "2020-03-31T19:04:33.948Z"
  }
}