{
  "header": {
    "description": "Karaoke Mugen Tag File",
    "version": 1
  },
  "tag": {
    "i18n": {
      "eng": "Chris Shiflett"
    },
    "name": "Chris Shiflett",
    "tid": "f025eb39-6ae1-44bd-a9b9-aafe90ea4bc8",
    "types": [
      "songwriters",
      "8"
    ],
    "repository": "kara.moe",
    "modified_at": "2020-03-31T19:04:33.952Z"
  }
}