{
  "header": {
    "description": "Karaoke Mugen Tag File",
    "version": 1
  },
  "tag": {
    "i18n": {
      "eng": "Christoph Schneider"
    },
    "modified_at": "2020-07-11T15:27:01.393Z",
    "name": "Christoph Schneider",
    "repository": "kara.moe",
    "tid": "bae7369b-0278-4a58-be8c-295500eeb6b8",
    "types": [
      "songwriters",
      "8"
    ]
  }
}