{
  "header": {
    "description": "Karaoke Mugen Tag File",
    "version": 1
  },
  "tag": {
    "i18n": {
      "eng": "Christophe Beugrand"
    },
    "name": "Christophe Beugrand",
    "repository": "kara.moe",
    "tid": "b293eba2-b93b-4b86-8ffe-6e691ec604b1",
    "types": [
      "singers",
      "2"
    ]
  }
}