{
  "header": {
    "description": "Karaoke Mugen Tag File",
    "version": 1
  },
  "tag": {
    "i18n": {
      "eng": "Chris Sutherland"
    },
    "name": "Chris Sutherland",
    "tid": "a6559e9c-6f31-4eaf-a325-55437ba34d4f",
    "types": [
      "singers",
      "2"
    ],
    "repository": "kara.moe",
    "modified_at": "2020-03-31T19:04:33.952Z"
  }
}