{
  "header": {
    "description": "Karaoke Mugen Tag File",
    "version": 1
  },
  "tag": {
    "i18n": {
      "eng": "Chris Montal"
    },
    "name": "Chris Montal",
    "repository": "kara.moe",
    "tid": "b6dd909d-3916-4b2e-abc8-edce66afcf66",
    "types": [
      "songwriters",
      "8"
    ]
  }
}