{
  "header": {
    "description": "Karaoke Mugen Tag File",
    "version": 1
  },
  "tag": {
    "i18n": {
      "eng": "Christophe"
    },
    "name": "Christophe",
    "repository": "kara.moe",
    "tid": "8f3bd1a4-8470-4c29-983f-7ad1b897b163",
    "types": [
      "songwriters",
      "8"
    ]
  }
}