{
  "header": {
    "description": "Karaoke Mugen Tag File",
    "version": 1
  },
  "tag": {
    "i18n": {
      "eng": "Christophe Lemoine"
    },
    "modified_at": "2021-02-19T00:16:18.772Z",
    "name": "Christophe Lemoine",
    "repository": "kara.moe",
    "tid": "af63dee5-d430-45da-8567-66fe86c00607",
    "types": [
      "singers",
      "2"
    ]
  }
}