{
  "header": {
    "description": "Karaoke Mugen Tag File",
    "version": 1
  },
  "tag": {
    "i18n": {
      "eng": "Chris Cornell"
    },
    "name": "Chris Cornell",
    "repository": "kara.moe",
    "tid": "416283ad-ce59-4d3c-8d5c-97cf6dbfdcc8",
    "types": [
      "singers",
      "2",
      "songwriters",
      "8"
    ]
  }
}