{
  "header": {
    "description": "Karaoke Mugen Tag File",
    "version": 1
  },
  "tag": {
    "external_database_ids": {
      "anilist": 1751,
      "myanimelist": 1751,
      "kitsu": 1571
    },
    "i18n": {
      "eng": "Chrono Trigger",
      "jpn": "Chrono Trigger",
      "qro": "Chrono Trigger"
    },
    "modified_at": "2020-03-31T19:04:31.214Z",
    "name": "Chrono Trigger",
    "repository": "kara.moe",
    "tid": "c77d4074-282a-45cf-8015-b83d0914cead",
    "types": [
      "series",
      "1"
    ]
  }
}