{
  "header": {
    "description": "Karaoke Mugen Tag File",
    "version": 1
  },
  "tag": {
    "i18n": {
      "eng": "Chrome Shelled"
    },
    "name": "Chrome Shelled",
    "tid": "e39ec9ef-1682-4ca8-95fd-688d2415cb76",
    "types": [
      "singers",
      "2",
      "songwriters",
      "8"
    ],
    "repository": "kara.moe",
    "modified_at": "2020-03-31T19:04:33.961Z"
  }
}