{
  "header": {
    "description": "Karaoke Mugen Tag File",
    "version": 1
  },
  "tag": {
    "aliases": [
      "ChuChu FD"
    ],
    "i18n": {
      "eng": "Chu x Chu Paradise: Encore Live",
      "jpn": "Chu×Chuぱらだいす～Encore Live～",
      "qro": "Chu x Chu Paradise ~Encore Live~"
    },
    "modified_at": "2020-03-31T19:04:31.215Z",
    "name": "Chu x Chu Paradise ~Encore Live~",
    "repository": "kara.moe",
    "tid": "386ced8a-1247-4c57-b4f8-8da62e823234",
    "types": [
      "series",
      "1"
    ]
  }
}