{
  "header": {
    "description": "Karaoke Mugen Tag File",
    "version": 1
  },
  "tag": {
    "i18n": {
      "eng": "chu-ji"
    },
    "modified_at": "2020-11-03T18:42:06.820Z",
    "name": "chu-ji",
    "repository": "kara.moe",
    "tid": "b1771a7e-ac79-48d9-842e-f84b8f0be51f",
    "types": [
      "songwriters",
      "8"
    ]
  }
}