{
  "header": {
    "description": "Karaoke Mugen Tag File",
    "version": 1
  },
  "tag": {
    "i18n": {
      "eng": "Cídài Jūn",
      "chi": "磁带君"
    },
    "modified_at": "2021-03-13T13:30:10.056Z",
    "name": "Cídài Jūn",
    "repository": "kara.moe",
    "tid": "ebe7789b-2e7e-488c-ac3c-caebdaf4baf6",
    "types": [
      "songwriters",
      "8"
    ]
  }
}