{
  "header": {
    "description": "Karaoke Mugen Tag File",
    "version": 1
  },
  "tag": {
    "i18n": {
      "eng": "cillia"
    },
    "name": "cillia",
    "repository": "kara.moe",
    "tid": "b5b63071-c23f-4474-a0c2-67ef00ac2481",
    "types": [
      "songwriters",
      "8"
    ]
  }
}