{
  "header": {
    "description": "Karaoke Mugen Tag File",
    "version": 1
  },
  "tag": {
    "i18n": {
      "eng": "Cinar"
    },
    "name": "Cinar",
    "tid": "17387d30-a569-41c7-9bef-566dc66e9c9c",
    "types": [
      "creators",
      "4"
    ],
    "repository": "kara.moe",
    "modified_at": "2020-03-31T19:04:33.965Z"
  }
}