{
  "header": {
    "description": "Karaoke Mugen Tag File",
    "version": 1
  },
  "tag": {
    "i18n": {
      "eng": "Cindy Layla"
    },
    "modified_at": "2020-04-17T19:40:00.813Z",
    "name": "Cindy Layla",
    "repository": "kara.moe",
    "tid": "b300db3f-7f06-487b-a5ce-aa83a626109f",
    "types": [
      "singers",
      "2"
    ]
  }
}