{
  "header": {
    "description": "Karaoke Mugen Tag File",
    "version": 1
  },
  "tag": {
    "external_database_ids": {
      "anilist": 11867,
      "kitsu": 6621,
      "myanimelist": 11867
    },
    "i18n": {
      "eng": "CIPHER THE VIDEO"
    },
    "name": "CIPHER THE VIDEO",
    "repository": "kara.moe",
    "tid": "7f18be32-6703-439f-9325-c8c09af30782",
    "types": [
      "series",
      "1"
    ]
  }
}