{
  "header": {
    "description": "Karaoke Mugen Tag File",
    "version": 1
  },
  "tag": {
    "i18n": {
      "eng": "Ciro Dammicco"
    },
    "name": "Ciro Dammicco",
    "repository": "kara.moe",
    "tid": "25f33e9b-6ae1-43d6-b72b-8969b7c2082e",
    "types": [
      "singers",
      "2"
    ]
  }
}