{
  "header": {
    "description": "Karaoke Mugen Tag File",
    "version": 1
  },
  "tag": {
    "aliases": [
      "CHun3",
      "シティーハンター3",
      "III"
    ],
    "external_database_ids": {
      "anilist": 1472,
      "kitsu": 1318,
      "myanimelist": 1472
    },
    "i18n": {
      "eng": "City Hunter 3",
      "fre": "Nicky Larson (saison 3)"
    },
    "name": "City Hunter 3",
    "repository": "kara.moe",
    "tid": "ec73ff88-e369-4fc0-965d-603113f26ef8",
    "types": [
      "series",
      "1"
    ]
  }
}