{
  "header": {
    "description": "Karaoke Mugen Tag File",
    "version": 1
  },
  "tag": {
    "aliases": [
      "CHun1",
      "City Hunter (1. Staffel)",
      "city hunter 1",
      "Şehir Avcısı",
      "Городской охотник",
      "シティーハンター"
    ],
    "external_database_ids": {
      "anilist": 1470,
      "myanimelist": 1470,
      "kitsu": 1316
    },
    "i18n": {
      "ara": "صياد المدينة",
      "eng": "City Hunter",
      "fre": "Nicky Larson",
      "ger": "City Hunter",
      "ita": "City Hunter",
      "jpn": "シティーハンター",
      "qro": "City Hunter"
    },
    "modified_at": "2020-03-31T19:04:31.226Z",
    "name": "City Hunter",
    "repository": "kara.moe",
    "tid": "85745b8d-9be6-4ab9-98fb-61f63cb50b22",
    "types": [
      "series",
      "1"
    ]
  }
}