{
  "header": {
    "description": "Karaoke Mugen Tag File",
    "version": 1
  },
  "tag": {
    "i18n": {
      "eng": "Claire Guyot"
    },
    "name": "Claire Guyot",
    "tid": "fc0cc212-8016-48ab-ac15-1207fb802fad",
    "types": [
      "singers",
      "2"
    ],
    "repository": "kara.moe",
    "modified_at": "2020-03-31T19:04:33.971Z"
  }
}