{
  "header": {
    "description": "Karaoke Mugen Tag File",
    "version": 1
  },
  "tag": {
    "aliases": [
      "CLAMP Gakuen Tanteiden",
      "Clamp Campus Detectives"
    ],
    "external_database_ids": {
      "anilist": 1844,
      "myanimelist": 1844,
      "kitsu": 1661
    },
    "i18n": {
      "ara": "الثابتون",
      "eng": "Clamp School Detectives",
      "fre": "Clamp School Detectives",
      "jpn": "CLAMP学園探偵団",
      "pol": "Szkoła detektywów CLAMP",
      "por": "Detectives CLAMP",
      "qro": "Clamp Gakuen Tanteidan"
    },
    "modified_at": "2020-03-31T19:04:31.227Z",
    "name": "Clamp Gakuen Tanteidan",
    "repository": "kara.moe",
    "tid": "8b05c1f4-2ccf-4af6-9d51-dd2a8bff0283",
    "types": [
      "series",
      "1"
    ]
  }
}