{
  "header": {
    "description": "Karaoke Mugen Tag File",
    "version": 1
  },
  "tag": {
    "aliases": [
      "Clannad 1",
      "Clannad TV",
      "Кланад",
      "Кланнад",
      "كلاناد",
      "کلاناد",
      "クラナド"
    ],
    "external_database_ids": {
      "anilist": 2167,
      "myanimelist": 2167,
      "kitsu": 1962
    },
    "i18n": {
      "chi": "CLANNAD",
      "eng": "Clannad",
      "ger": "Clannad",
      "jpn": "CLANNAD",
      "per": "خانواده",
      "tha": "แคลนนาด",
      "qro": "CLANNAD"
    },
    "modified_at": "2020-03-31T19:04:31.230Z",
    "name": "CLANNAD",
    "repository": "kara.moe",
    "tid": "03831007-d498-4a8d-8a4c-6a6fac0c92c5",
    "types": [
      "series",
      "1",
      "franchises",
      "18"
    ]
  }
}