{
  "header": {
    "description": "Karaoke Mugen Tag File",
    "version": 1
  },
  "tag": {
    "aliases": [
      "Clannad 2",
      "Clannad AS",
      "Clannad2",
      "Кланад: Продовження Історії",
      "Кланнад: След историята",
      "كلاناد ما بعد القصة",
      "کلاناد ادامه داستان",
      "クラナド アフターストーリー",
      "クラナド- AFTER STORY"
    ],
    "external_database_ids": {
      "anilist": 4181,
      "myanimelist": 4181,
      "kitsu": 3505
    },
    "i18n": {
      "chi": "CLANNAD ~AFTER STORY~",
      "eng": "Clannad After Story",
      "ger": "Clannad After Story",
      "jpn": "CLANNAD ~AFTER STORY~",
      "kor": "클라나드 애프터 스토리",
      "per": "خانواده: ادامه داستان",
      "tha": "แคลนนาด อาฟเตอร์ สตอรี่",
      "qro": "CLANNAD After Story"
    },
    "modified_at": "2020-03-31T19:04:31.229Z",
    "name": "CLANNAD After Story",
    "repository": "kara.moe",
    "tid": "946ce070-ee14-43ac-b966-ad38041977d4",
    "types": [
      "series",
      "1"
    ]
  }
}