{
  "header": {
    "description": "Karaoke Mugen Tag File",
    "version": 1
  },
  "tag": {
    "description": {
      "eng": "Classroom of the Elite II"
    },
    "i18n": {
      "eng": "Classroom of the Elite II",
      "fre": "Classroom of the Elite - Saison 2",
      "jpn": "ようこそ実力至上主義の教室へ 2期 ",
      "qro": "Youkoso Jitsuryoku Shijou Shugi no Kyoushitsu e 2nd Season"
    },
    "name": "Classroom of the Elite II",
    "repository": "kara.moe",
    "tid": "5f92a327-5f3f-496b-b7ec-288074a7fa23",
    "types": [
      "series",
      "1"
    ]
  }
}