{
  "header": {
    "description": "Karaoke Mugen Tag File",
    "version": 1
  },
  "tag": {
    "i18n": {
      "eng": "Claude Vallois"
    },
    "name": "Claude Vallois",
    "tid": "4218f521-69c3-43a2-9dee-78e7d201d72a",
    "types": [
      "singers",
      "2"
    ],
    "repository": "kara.moe",
    "modified_at": "2020-03-31T19:04:33.978Z"
  }
}