{
  "header": {
    "description": "Karaoke Mugen Tag File",
    "version": 1
  },
  "tag": {
    "i18n": {
      "eng": "Claudia Benamou"
    },
    "name": "Claudia Benamou",
    "repository": "kara.moe",
    "tid": "0a0e3f80-9257-4356-94af-23a4dd6eccca",
    "types": [
      "singers",
      "2"
    ]
  }
}