{
  "header": {
    "description": "Karaoke Mugen Tag File",
    "version": 1
  },
  "tag": {
    "i18n": {
      "eng": "Claudio Accantino"
    },
    "name": "Claudio Accantino",
    "tid": "9bbc0a3a-8f8b-476d-bcb4-2c481eb2992b",
    "types": [
      "songwriters",
      "8"
    ],
    "repository": "kara.moe",
    "modified_at": "2020-03-31T19:04:33.979Z"
  }
}