{
  "header": {
    "description": "Karaoke Mugen Tag File",
    "version": 1
  },
  "tag": {
    "i18n": {
      "eng": "Clémentine Jane"
    },
    "name": "Clémentine Jane",
    "repository": "kara.moe",
    "tid": "3621f7d5-bdaf-432e-ae4c-b6e3cb8b76e6",
    "types": [
      "songwriters",
      "8"
    ]
  }
}