{
  "header": {
    "description": "Karaoke Mugen Tag File",
    "version": 1
  },
  "tag": {
    "i18n": {
      "eng": "CLOUD"
    },
    "name": "CLOUD",
    "tid": "e28a3311-f1f6-4fa8-a64b-2b3b0365db13",
    "types": [
      "singers",
      "2"
    ],
    "repository": "kara.moe",
    "modified_at": "2020-03-31T19:04:33.983Z"
  }
}