{
  "header": {
    "description": "Karaoke Mugen Tag File",
    "version": 1
  },
  "tag": {
    "aliases": [
      "NEOBASARA",
      "Reimu Sumeragi",
      "Yashiro",
      "Mint"
    ],
    "i18n": {
      "eng": "CLUB NEO BASARA"
    },
    "name": "CLUB NEO BASARA",
    "repository": "kara.moe",
    "tid": "349bf022-d5aa-49d0-bead-4083fdd42375",
    "types": [
      "singergroups",
      "17"
    ]
  }
}