{
  "header": {
    "description": "Karaoke Mugen Tag File",
    "version": 1
  },
  "tag": {
    "i18n": {
      "eng": "coalowl"
    },
    "modified_at": "2021-03-07T12:02:58.959Z",
    "name": "coalowl",
    "repository": "kara.moe",
    "tid": "8360c0f3-2568-48d0-9900-037a2e20887b",
    "types": [
      "creators",
      "4"
    ]
  }
}