{
  "header": {
    "description": "Karaoke Mugen Tag File",
    "version": 1
  },
  "tag": {
    "i18n": {
      "eng": "coba"
    },
    "name": "coba",
    "tid": "00ee2fd3-85cc-4219-821f-17d5cc8e1f10",
    "types": [
      "songwriters",
      "8",
      "singers",
      "2"
    ],
    "repository": "kara.moe",
    "modified_at": "2020-03-31T19:04:33.990Z"
  }
}