{
  "header": {
    "description": "Karaoke Mugen Tag File",
    "version": 1
  },
  "tag": {
    "i18n": {
      "eng": "Cobrand"
    },
    "name": "Cobrand",
    "tid": "deacaabb-cdea-40d3-a80d-585eac4d5dd8",
    "types": [
      "authors",
      "6"
    ],
    "repository": "kara.moe",
    "modified_at": "2020-03-31T19:04:33.990Z"
  }
}