{
  "header": {
    "description": "Karaoke Mugen Tag File",
    "version": 1
  },
  "tag": {
    "i18n": {
      "eng": "Cocone Suzuyo"
    },
    "modified_at": "2021-01-29T01:02:29.387Z",
    "name": "Cocone Suzuyo",
    "repository": "kara.moe",
    "tid": "ebb8857e-a62b-4fec-8ec6-ab4351283266",
    "types": [
      "singers",
      "2"
    ]
  }
}