{
  "header": {
    "description": "Karaoke Mugen Tag File",
    "version": 1
  },
  "tag": {
    "i18n": {
      "fre": "Coco"
    },
    "modified_at": "2020-03-31T19:04:31.236Z",
    "name": "Coco",
    "repository": "kara.moe",
    "tid": "6344c317-17f2-4f6d-80b0-90f6dcc50f13",
    "types": [
      "series",
      "1"
    ]
  }
}