{
  "header": {
    "description": "Karaoke Mugen Tag File",
    "version": 1
  },
  "tag": {
    "i18n": {
      "eng": "Cocs"
    },
    "modified_at": "2020-08-08T12:24:51.670Z",
    "name": "Cocs",
    "repository": "kara.moe",
    "tid": "8f250931-fdb2-4974-b12a-1519800b5324",
    "types": [
      "authors",
      "6"
    ]
  }
}