{
  "header": {
    "description": "Karaoke Mugen Tag File",
    "version": 1
  },
  "tag": {
    "i18n": {
      "eng": "Code Geass: Lelouch of the Re;surrection"
    },
    "name": "Code Geass: Lelouch of the Re;surrection",
    "repository": "kara.moe",
    "tid": "badf0212-2bc3-48b6-a4ff-ad19524f0736",
    "types": [
      "series",
      "1"
    ]
  }
}