{
  "header": {
    "description": "Karaoke Mugen Tag File",
    "version": 1
  },
  "tag": {
    "aliases": [
      "C0DE:BREAKER",
      "C:B",
      "Code Breaker",
      "CØDE:BREAKER",
      "Код: Руйнівник",
      "コード:ブレイカー",
      "code breaker"
    ],
    "external_database_ids": {
      "anilist": 11703,
      "myanimelist": 11703,
      "kitsu": 6570
    },
    "i18n": {
      "eng": "Code: Breaker",
      "fre": "CODE:BREAKER",
      "jpn": "CØDE:BREAKER",
      "qro": "Code:Breaker"
    },
    "modified_at": "2020-03-31T19:04:31.236Z",
    "name": "Code:Breaker",
    "repository": "kara.moe",
    "tid": "096fab35-ce9d-4862-9e8a-516c7552d636",
    "types": [
      "series",
      "1"
    ]
  }
}