{
  "header": {
    "description": "Karaoke Mugen Tag File",
    "version": 1
  },
  "tag": {
    "i18n": {
      "eng": "Cody・Lee"
    },
    "name": "Cody・Lee",
    "repository": "kara.moe",
    "tid": "7c0e5c15-6eab-4690-bde9-8599ebfdee8a",
    "types": [
      "singers",
      "2"
    ]
  }
}