{
  "header": {
    "description": "Karaoke Mugen Tag File",
    "version": 1
  },
  "tag": {
    "i18n": {
      "eng": "Colorful Palette"
    },
    "modified_at": "2021-09-03T12:34:59.087Z",
    "name": "Colorful Palette",
    "repository": "kara.moe",
    "tid": "1e5648fb-22fc-474d-b865-254eb31fa000",
    "types": [
      "creators",
      "4"
    ]
  }
}