{
  "header": {
    "description": "Karaoke Mugen Tag File",
    "version": 1
  },
  "tag": {
    "i18n": {
      "eng": "Colored-Pencil Animation Design"
    },
    "name": "Colored-Pencil Animation Design",
    "tid": "375917b3-a22b-4d9b-87b0-7d2f77864f46",
    "types": [
      "creators",
      "4"
    ],
    "repository": "kara.moe",
    "modified_at": "2020-03-31T19:04:33.997Z"
  }
}