{
  "header": {
    "description": "Karaoke Mugen Tag File",
    "version": 1
  },
  "tag": {
    "aliases": [
      "Rengarenk",
      "Яркий",
      "カラフル "
    ],
    "external_database_ids": {
      "anilist": 8142,
      "myanimelist": 8142,
      "kitsu": 5212
    },
    "i18n": {
      "eng": "Colorful",
      "jpn": "Colorful",
      "cze": "Pestrobarevný",
      "lit": "Spalvinga",
      "rus": "Многоцветье",
      "per": "رنگارنگ",
      "qro": "Colorful"
    },
    "modified_at": "2020-07-21T21:56:35.397Z",
    "name": "Colorful",
    "repository": "kara.moe",
    "tid": "7dc15bec-b904-401a-96d7-2affa45dd6db",
    "types": [
      "series",
      "1"
    ]
  }
}