{
  "header": {
    "description": "Karaoke Mugen Tag File",
    "version": 1
  },
  "tag": {
    "i18n": {
      "eng": "Columbia Yurikago Kai"
    },
    "name": "Columbia Yurikago Kai",
    "tid": "05cebf64-d08f-4626-b4f4-f35954e259ec",
    "types": [
      "singers",
      "2",
      "songwriters",
      "8"
    ],
    "repository": "kara.moe",
    "modified_at": "2020-03-31T19:04:33.999Z"
  }
}