{
  "header": {
    "description": "Karaoke Mugen Tag File",
    "version": 1
  },
  "tag": {
    "external_database_ids": {
      "anilist": 99131,
      "myanimelist": 35756,
      "kitsu": 13722
    },
    "i18n": {
      "eng": "Comic Girls",
      "jpn": "こみっくがーるず",
      "kor": "코믹 걸즈",
      "qro": "Comic Girls"
    },
    "modified_at": "2020-03-31T19:04:31.239Z",
    "name": "Comic Girls",
    "repository": "kara.moe",
    "tid": "d40d9812-4b81-4c70-b8b9-f8e9e1f507b3",
    "types": [
      "series",
      "1"
    ]
  }
}