{
  "header": {
    "description": "Karaoke Mugen Tag File",
    "version": 1
  },
  "tag": {
    "i18n": {
      "eng": "Comic Girls"
    },
    "name": "Comic Girls",
    "repository": "kara.moe",
    "tid": "6b970f8b-c323-4fe0-b434-37ca46ade451",
    "types": [
      "singergroups",
      "17"
    ]
  }
}