{
  "header": {
    "description": "Karaoke Mugen Tag File",
    "version": 1
  },
  "tag": {
    "aliases": [
      "comipa",
      "cp"
    ],
    "external_database_ids": {
      "anilist": 289,
      "myanimelist": 289,
      "kitsu": 264
    },
    "i18n": {
      "eng": "Comic Party",
      "ger": "Comic Party",
      "jpn": "こみっくパーティー",
      "qro": "Comic Party"
    },
    "modified_at": "2020-03-31T19:04:31.241Z",
    "name": "Comic Party",
    "repository": "kara.moe",
    "tid": "75bbfecd-a38f-4679-a397-def5adfe9b1a",
    "types": [
      "series",
      "1"
    ]
  }
}