{
  "header": {
    "description": "Karaoke Mugen Tag File",
    "version": 1
  },
  "tag": {
    "i18n": {
      "eng": "COMiNUM"
    },
    "name": "COMiNUM",
    "repository": "kara.moe",
    "tid": "e09f8529-3322-4470-8858-569988e73fee",
    "types": [
      "songwriters",
      "8"
    ]
  }
}