{
  "header": {
    "description": "Karaoke Mugen Tag File",
    "version": 1
  },
  "tag": {
    "i18n": {
      "eng": "Comp",
      "jpn": "コンプ"
    },
    "name": "Comp",
    "repository": "kara.moe",
    "tid": "cbb6b661-766c-45ef-ae72-26bc37a71ba9",
    "types": [
      "songwriters",
      "8"
    ]
  }
}