{
  "header": {
    "description": "Karaoke Mugen Tag File",
    "version": 1
  },
  "tag": {
    "i18n": {
      "eng": "COMPILE HEART"
    },
    "name": "COMPILE HEART",
    "tid": "2797c42a-c4af-49d2-8aa6-762ef0a41338",
    "types": [
      "creators",
      "4"
    ],
    "repository": "kara.moe",
    "modified_at": "2020-03-31T19:04:34.002Z"
  }
}