{
  "header": {
    "description": "Karaoke Mugen Tag File",
    "version": 1
  },
  "tag": {
    "i18n": {
      "eng": "Conny Kreitmeier"
    },
    "name": "Conny Kreitmeier",
    "repository": "kara.moe",
    "tid": "232eaa15-4d5a-43f6-ae93-5198ee41f21e",
    "types": [
      "songwriters",
      "8",
      "singers",
      "2"
    ]
  }
}