{
  "header": {
    "description": "Karaoke Mugen Tag File",
    "version": 1
  },
  "tag": {
    "aliases": [
      "Cooking Idol",
      "Cooking Idol Ai! Mai! Main",
      "نجمة الطبخ"
    ],
    "external_database_ids": {
      "anilist": 6119,
      "myanimelist": 6119,
      "kitsu": 4434
    },
    "i18n": {
      "eng": "Cooking Idol Ai! Mai! Main!",
      "jpn": "クッキンアイドル アイ! マイ! まいん!",
      "qro": "Cookin' Idol Ai! Mai! Main!"
    },
    "modified_at": "2020-06-21T23:45:31.966Z",
    "name": "Cookin' Idol Ai! Mai! Main!",
    "repository": "kara.moe",
    "tid": "b4cce7c0-0978-4615-bdf1-3535a0904f08",
    "types": [
      "series",
      "1"
    ]
  }
}