{
  "header": {
    "description": "Karaoke Mugen Tag File",
    "version": 1
  },
  "tag": {
    "external_database_ids": {
      "anilist": 147885,
      "kitsu": 46078,
      "myanimelist": 51680
    },
    "i18n": {
      "eng": "Play It Cool, Guys",
      "jpn": "クールドジ男子",
      "qro": "Cool Doji Danshi"
    },
    "name": "Cool Doji Danshi",
    "repository": "kara.moe",
    "tid": "ecb4bd9b-5461-4916-a32b-b4b400205c89",
    "types": [
      "series",
      "1"
    ]
  }
}