{
  "header": {
    "description": "Karaoke Mugen Tag File",
    "version": 1
  },
  "tag": {
    "i18n": {
      "eng": "COOL&CREATE"
    },
    "name": "COOL&CREATE",
    "repository": "kara.moe",
    "tid": "2b873ad5-a3ce-4abf-9f11-6f600e6e6ba0",
    "types": [
      "singergroups",
      "17",
      "songwriters",
      "8",
      "singers",
      "2",
      "creators",
      "4"
    ]
  }
}