{
  "header": {
    "description": "Karaoke Mugen Tag File",
    "version": 1
  },
  "tag": {
    "aliases": [
      "コッペリオン"
    ],
    "external_database_ids": {
      "anilist": 9479,
      "myanimelist": 9479,
      "kitsu": 5746
    },
    "i18n": {
      "chi": "核爆末世录",
      "eng": "Coppelion",
      "fre": "Coppelion",
      "jpn": "COPPELION",
      "qro": "Coppelion"
    },
    "modified_at": "2020-03-31T19:04:31.247Z",
    "name": "Coppelion",
    "repository": "kara.moe",
    "tid": "3e2403f3-22f6-4d47-b3be-c5cb66936a94",
    "types": [
      "series",
      "1"
    ]
  }
}