{
  "header": {
    "description": "Karaoke Mugen Tag File",
    "version": 1
  },
  "tag": {
    "i18n": {
      "eng": "Corey Glover"
    },
    "name": "Corey Glover",
    "repository": "kara.moe",
    "tid": "9ca323c9-4692-4305-8737-d6d68d81aac4",
    "types": [
      "songwriters",
      "8"
    ]
  }
}