{
  "header": {
    "description": "Karaoke Mugen Tag File",
    "version": 1
  },
  "tag": {
    "i18n": {
      "eng": "corin."
    },
    "name": "corin.",
    "tid": "67324517-ec42-4f7f-a25e-b8d91378b369",
    "types": [
      "songwriters",
      "8"
    ],
    "repository": "kara.moe",
    "modified_at": "2020-03-31T19:04:34.009Z"
  }
}