{
  "header": {
    "description": "Karaoke Mugen Tag File",
    "version": 1
  },
  "tag": {
    "i18n": {
      "eng": "Cornelia Jakobs"
    },
    "name": "Cornelia Jakobs",
    "repository": "kara.moe",
    "tid": "2a9f9132-025a-4737-affa-00d35416356c",
    "types": [
      "singers",
      "2",
      "songwriters",
      "8"
    ]
  }
}