{
  "header": {
    "description": "Karaoke Mugen Tag File",
    "version": 1
  },
  "tag": {
    "aliases": [
      "Corpse Party BC",
      "Corpse Party BR (Blood Covered Repeated Fear editions)"
    ],
    "i18n": {
      "eng": "Corpse Party",
      "jpn": "コープスパーティー ブラッドカバー",
      "qro": "Corpse Party BloodCovered"
    },
    "modified_at": "2020-03-31T19:04:31.250Z",
    "name": "Corpse Party BloodCovered",
    "repository": "kara.moe",
    "tid": "393e1ad4-d68c-43ce-ba33-65737924cd99",
    "types": [
      "series",
      "1"
    ]
  }
}