{
  "header": {
    "description": "Karaoke Mugen Tag File",
    "version": 1
  },
  "tag": {
    "i18n": {
      "afr": "Korsikaans",
      "amh": "Corsican",
      "ara": "الكورسيكية",
      "aze": "Корсиканец",
      "bak": "Корсиканы",
      "bel": "Карсіканец",
      "bul": "Корсиканец",
      "ben": "কর্সিকান",
      "bos": "Korzikanska",
      "cat": "Cors",
      "cze": "Korsický",
      "wel": "Corsica",
      "dan": "Korsikanske",
      "ger": "Korsika",
      "gre": "Κορσικής",
      "eng": "Corsican",
      "epo": "Korsiko",
      "spa": "Corso",
      "est": "Korsika",
      "baq": "Korsikera",
      "per": "کورسی",
      "fin": "Korsikan",
      "fre": "Corse",
      "gle": "Corsaicis",
      "gla": "Corsican",
      "glg": "Corso",
      "guj": "કોર્સિકન",
      "heb": "קורסיקנית",
      "hin": "कोर्सीकन",
      "hrv": "Корсиканец",
      "hat": "Corsican",
      "hun": "Korzikai",
      "arm": "Корсиканец",
      "ind": "Korsika",
      "ice": "Korsíku",
      "ita": "Corso",
      "jpn": "コルシカ",
      "jav": "Korsika",
      "geo": "კორსიკული",
      "kaz": "Корсиканец",
      "kan": "ಕೋರ್ಸಿಕನ್",
      "kor": "코르시카어",
      "kir": "Корсиканец",
      "lat": "Corsican",
      "lit": "Korsikos",
      "lav": "Korsikāņu",
      "mlg": "Zavatra",
      "mao": "Cornish",
      "mac": "Corsican",
      "mal": "Corsican",
      "mon": "Corsican",
      "mar": "कोर्सिकी",
      "may": "Korsika",
      "mlt": "Korsika",
      "nep": "कोर्सीकन",
      "dut": "Corsicaans",
      "nor": "Korsikanske",
      "pan": "ਕਾਰਸਿਕੀ ਦਾ",
      "pol": "Korsykanin",
      "por": "Corsa",
      "rum": "Corsican",
      "rus": "Корсиканец",
      "sin": "Corsican",
      "slo": "Korzické",
      "slv": "Korzike",
      "alb": "Corsican",
      "srp": "Корзикански",
      "sun": "Corsican",
      "swe": "Korsikanska",
      "swa": "Corsican",
      "tam": "கோர்சிகன்",
      "tel": "కోర్సికన్",
      "tgk": "Корсиканец",
      "tha": "ภาษาคอร์ซิกัน name",
      "tgl": "Corsican",
      "tur": "Korsika",
      "tat": "Корсиканец",
      "ukr": "Корсиканець",
      "urd": "کوراسیکن",
      "uzb": "Corsican",
      "vie": "Corsica",
      "xho": "Corsican",
      "yid": "קאָרסיקאַן",
      "chi": "科西嘉"
    },
    "name": "cos",
    "tid": "e692dc96-6d26-4d03-8744-6e575ac2d57b",
    "types": [
      "langs",
      "5"
    ],
    "repository": "kara.moe",
    "modified_at": "2020-03-31T19:04:34.011Z"
  }
}