{
  "header": {
    "description": "Karaoke Mugen Tag File",
    "version": 1
  },
  "tag": {
    "aliases": [
      "cosMo@Bousou-P",
      "cosMo@暴走P",
      "黒猫アンティーク",
      "Kuroneko Antique"
    ],
    "i18n": {
      "eng": "CosMo"
    },
    "modified_at": "2021-12-04T20:00:34.961Z",
    "name": "CosMo",
    "repository": "kara.moe",
    "tid": "afe54380-fbbe-408e-a604-3137cc3fff0b",
    "types": [
      "songwriters",
      "8"
    ]
  }
}