{
  "header": {
    "description": "Karaoke Mugen Tag File",
    "version": 1
  },
  "tag": {
    "i18n": {
      "eng": "Costric"
    },
    "name": "Costric",
    "tid": "f56d24c3-26d9-4df1-9d82-c8f8ed09561e",
    "types": [
      "songwriters",
      "8"
    ],
    "repository": "kara.moe",
    "modified_at": "2020-03-31T19:04:34.015Z"
  }
}