{
  "header": {
    "description": "Karaoke Mugen Tag File",
    "version": 1
  },
  "tag": {
    "aliases": [
      "CBB",
      "CowBe"
    ],
    "i18n": {
      "eng": "Cowboy Bebop (Netflix)",
      "jpn": "カウボーイビバップ (Netflix)",
      "heb": "קאובוי ביבופ (Netflix)",
      "bul": "Марсиански каубой (Netflix)",
      "hun": "Csillagközi fejvadászok (Netflix)",
      "cze": "Kovboj Bebop (Netflix)",
      "chi": "星际牛仔 (Netflix)",
      "kor": "카우보이 비밥 (Netflix)"
    },
    "modified_at": "2021-09-25T19:55:09.687Z",
    "name": "Cowboy Bebop (Netflix)",
    "repository": "kara.moe",
    "tid": "994ebd9f-21b8-4271-a105-38a6cde30b7c",
    "types": [
      "series",
      "1"
    ]
  }
}