{
  "header": {
    "description": "Karaoke Mugen Tag File",
    "version": 1
  },
  "tag": {
    "i18n": {
      "eng": "Crash Bandicoot"
    },
    "name": "Crash Bandicoot",
    "repository": "kara.moe",
    "tid": "5502e175-c269-4d86-b372-5f9253353b5e",
    "types": [
      "series",
      "1",
      "franchises",
      "18"
    ]
  }
}