{
  "header": {
    "description": "Karaoke Mugen Tag File",
    "version": 1
  },
  "tag": {
    "i18n": {
      "eng": "Creators in Pack"
    },
    "name": "Creators in Pack",
    "tid": "c252889a-eb7a-4c3d-92c7-90a87aa7997c",
    "types": [
      "creators",
      "4"
    ],
    "repository": "kara.moe",
    "modified_at": "2020-03-31T19:04:34.020Z"
  }
}