{
  "header": {
    "description": "Karaoke Mugen Tag File",
    "version": 1
  },
  "tag": {
    "i18n": {
      "eng": "CreepHyp"
    },
    "name": "CreepHyp",
    "repository": "kara.moe",
    "tid": "edbffb14-8437-43a4-b4ff-cb4883f90799",
    "types": [
      "singers",
      "2",
      "songwriters",
      "8"
    ]
  }
}