{
  "header": {
    "description": "Karaoke Mugen Tag File",
    "version": 1
  },
  "tag": {
    "aliases": [
      "Gokushufudou"
    ],
    "i18n": {
      "eng": "Crimecatch Policure",
      "jpn": "クライムキャッチポリキュア☆",
      "qro": "Crimecatch Policure"
    },
    "name": "Crimecatch Policure",
    "repository": "kara.moe",
    "tid": "b410cbc1-0e7e-49bd-9f65-50beb8f1df18",
    "types": [
      "series",
      "1"
    ]
  }
}