{
  "header": {
    "description": "Karaoke Mugen Tag File",
    "version": 1
  },
  "tag": {
    "i18n": {
      "eng": "Critical Role"
    },
    "name": "Critical Role",
    "repository": "kara.moe",
    "tid": "4d716ccd-0d07-48e5-8356-8ccb86abb0ed",
    "types": [
      "series",
      "1"
    ]
  }
}