{
  "header": {
    "description": "Karaoke Mugen Tag File",
    "version": 1
  },
  "tag": {
    "i18n": {
      "eng": "Critical Role Team"
    },
    "name": "Critical Role Team",
    "repository": "kara.moe",
    "tid": "1d24e79e-7bbd-48e9-86e5-a0c401a7a36c",
    "types": [
      "creators",
      "4"
    ]
  }
}