{
  "header": {
    "description": "Karaoke Mugen Tag File",
    "version": 1
  },
  "tag": {
    "i18n": {
      "eng": "crouka"
    },
    "name": "crouka",
    "repository": "kara.moe",
    "tid": "0fca8f52-755b-4385-a45c-6fa883996e80",
    "types": [
      "songwriters",
      "8"
    ]
  }
}