{
  "header": {
    "description": "Karaoke Mugen Tag File",
    "version": 1
  },
  "tag": {
    "i18n": {
      "eng": "crouton"
    },
    "name": "crouton",
    "repository": "kara.moe",
    "tid": "5583dcd4-c8cb-4398-882d-26e25848beac",
    "types": [
      "singers",
      "2"
    ]
  }
}