{
  "header": {
    "description": "Karaoke Mugen Tag File",
    "version": 1
  },
  "tag": {
    "aliases": [
      "Cien Miller",
      "Cursher-P"
    ],
    "i18n": {
      "eng": "CrusherP"
    },
    "name": "CrusherP",
    "repository": "kara.moe",
    "tid": "6c2c0764-ac9e-4af4-91bd-655e9404418e",
    "types": [
      "creators",
      "4",
      "songwriters",
      "8"
    ]
  }
}