{
  "header": {
    "description": "Karaoke Mugen Tag File",
    "version": 1
  },
  "tag": {
    "i18n": {
      "eng": "Crystal King"
    },
    "name": "Crystal King",
    "tid": "7e7fe005-2cd9-4b98-865d-71a5de0677c7",
    "types": [
      "singers",
      "2"
    ],
    "repository": "kara.moe",
    "modified_at": "2020-03-31T19:04:34.030Z"
  }
}