{
  "header": {
    "description": "Karaoke Mugen Tag File",
    "version": 1
  },
  "tag": {
    "i18n": {
      "eng": "Crystal Boy"
    },
    "name": "Crystal Boy",
    "tid": "09136595-03be-4a9a-8183-14420193c0ba",
    "types": [
      "songwriters",
      "8"
    ],
    "repository": "kara.moe",
    "modified_at": "2020-03-31T19:04:34.028Z"
  }
}