{
  "header": {
    "description": "Karaoke Mugen Tag File",
    "version": 1
  },
  "tag": {
    "i18n": {
      "eng": "Ctrl Ult Delete"
    },
    "modified_at": "2021-01-24T13:46:13.799Z",
    "name": "Ctrl Ult Delete",
    "repository": "kara.moe",
    "tid": "2889cb18-6c6b-438a-aa13-dfcf1db4b8dc",
    "types": [
      "creators",
      "4"
    ]
  }
}