{
  "header": {
    "description": "Karaoke Mugen Tag File",
    "version": 1
  },
  "tag": {
    "i18n": {
      "eng": "Currymalker"
    },
    "modified_at": "2020-05-12T17:33:45.273Z",
    "name": "Currymalker",
    "repository": "kara.moe",
    "tid": "8605a8b9-3b45-44b9-9d98-1a25096bf702",
    "types": [
      "authors",
      "6"
    ]
  }
}