{
  "header": {
    "description": "Karaoke Mugen Tag File",
    "version": 1
  },
  "tag": {
    "i18n": {
      "eng": "CustomiZ"
    },
    "name": "CustomiZ",
    "tid": "4a2257fe-3d6f-487e-a220-1c04d3626248",
    "types": [
      "singers",
      "2"
    ],
    "repository": "kara.moe",
    "modified_at": "2020-03-31T19:04:34.034Z"
  }
}