{
  "header": {
    "description": "Karaoke Mugen Tag File",
    "version": 1
  },
  "tag": {
    "i18n": {
      "eng": "CuSutahira"
    },
    "name": "CuSutahira",
    "tid": "5b86eb7a-4009-4075-b182-0f4997f2533f",
    "types": [
      "singers",
      "2"
    ],
    "repository": "kara.moe",
    "modified_at": "2020-03-31T19:04:34.034Z"
  }
}