{
  "header": {
    "description": "Karaoke Mugen Tag File",
    "version": 1
  },
  "tag": {
    "aliases": [
      "CH",
      "Cutey Honey 73",
      "Милашка Хани"
    ],
    "external_database_ids": {
      "anilist": 1661,
      "kitsu": 1492,
      "myanimelist": 1661
    },
    "i18n": {
      "eng": "Cutie Honey",
      "fre": "Cherry Miel",
      "jpn": "キューティーハニー"
    },
    "name": "Cutie Honey",
    "repository": "kara.moe",
    "tid": "cc67fd78-495d-4b27-a60f-26e95130ce46",
    "types": [
      "series",
      "1"
    ]
  }
}