{
  "header": {
    "description": "Karaoke Mugen Tag File",
    "version": 1
  },
  "tag": {
    "i18n": {
      "eng": "CYaRon!"
    },
    "name": "CYaRon!",
    "repository": "kara.moe",
    "tid": "8506e0eb-a445-4bef-8ad7-5b39e5fc0f1e",
    "types": [
      "singergroups",
      "17"
    ]
  }
}