{
  "header": {
    "description": "Karaoke Mugen Tag File",
    "version": 1
  },
  "tag": {
    "i18n": {
      "eng": "CyberConnect2"
    },
    "name": "CyberConnect2",
    "tid": "ff1f1734-715d-4564-a970-24a6630b7d22",
    "types": [
      "creators",
      "4"
    ],
    "repository": "kara.moe",
    "modified_at": "2020-03-31T19:04:34.036Z"
  }
}