{
  "header": {
    "description": "Karaoke Mugen Tag File",
    "version": 1
  },
  "tag": {
    "i18n": {
      "eng": "Cybergirl76"
    },
    "modified_at": "2020-07-03T20:50:38.382Z",
    "name": "Cybergirl76",
    "repository": "kara.moe",
    "tid": "ff1c291a-2b0c-43b4-8c49-494366e479cc",
    "types": [
      "authors",
      "6"
    ]
  }
}