{
  "header": {
    "description": "Karaoke Mugen Tag File",
    "version": 1
  },
  "tag": {
    "i18n": {
      "eng": "Cyril Féraud"
    },
    "name": "Cyril Féraud",
    "repository": "kara.moe",
    "tid": "5a594432-c48a-4518-8388-31d39aaacc9b",
    "types": [
      "singers",
      "2"
    ]
  }
}