{
  "header": {
    "description": "Karaoke Mugen Tag File",
    "version": 1
  },
  "tag": {
    "i18n": {
      "eng": "Cytus"
    },
    "name": "Cytus",
    "repository": "kara.moe",
    "tid": "ab1258d1-2d78-4b62-8fef-e0440f246b2b",
    "types": [
      "franchises",
      "18",
      "series",
      "1"
    ]
  }
}