{
  "header": {
    "description": "Karaoke Mugen Tag File",
    "version": 1
  },
  "tag": {
    "i18n": {
      "eng": "D Pai"
    },
    "name": "D Pai",
    "tid": "8a370606-904f-46b4-a386-85eff682ee8e",
    "types": [
      "singers",
      "2"
    ],
    "repository": "kara.moe",
    "modified_at": "2020-03-31T19:04:34.041Z"
  }
}