{
  "header": {
    "description": "Karaoke Mugen Tag File",
    "version": 1
  },
  "tag": {
    "i18n": {
      "eng": "d-rights"
    },
    "name": "d-rights",
    "tid": "336af295-9161-4b9b-bd41-3846acc10064",
    "types": [
      "creators",
      "4"
    ],
    "repository": "kara.moe",
    "modified_at": "2020-03-31T19:04:34.042Z"
  }
}