{
  "header": {
    "description": "Karaoke Mugen Tag File",
    "version": 1
  },
  "tag": {
    "aliases": [
      "DC"
    ],
    "external_database_ids": {
      "anilist": 62,
      "myanimelist": 62,
      "kitsu": 43
    },
    "i18n": {
      "eng": "D.C. ~Da Capo~",
      "jpn": "D.C.~ダ・カーポ~",
      "qro": "D.C. ~Da Capo~"
    },
    "modified_at": "2020-03-31T19:04:31.267Z",
    "name": "D.C. ~Da Capo~",
    "repository": "kara.moe",
    "tid": "16d7c6a0-4074-482f-ab3d-0815556c7daf",
    "types": [
      "series",
      "1",
      "franchises",
      "18"
    ]
  }
}