{
  "header": {
    "description": "Karaoke Mugen Tag File",
    "version": 1
  },
  "tag": {
    "aliases": [
      "Algo acerca de ti que perdí en algún lugar",
      "D.N.A.²",
      "D.N.A²",
      "DNA 2",
      "DNA Squared",
      "DNA2",
      "DNA^2",
      "d.n.a2"
    ],
    "external_database_ids": {
      "anilist": 563,
      "myanimelist": 563,
      "kitsu": 520
    },
    "i18n": {
      "cat": "DNA²",
      "eng": "DNA2",
      "fre": "DNA²",
      "ger": "DNA²",
      "ita": "DNA²",
      "jpn": "D・N・A² ~何処かで失くしたあいつのアイツ~",
      "por": "DNA²",
      "qro": "D・N・A²"
    },
    "modified_at": "2020-03-31T19:04:31.270Z",
    "name": "D・N・A²",
    "repository": "kara.moe",
    "tid": "97c43fad-0d18-492d-b758-4c11e8d3f939",
    "types": [
      "series",
      "1"
    ]
  }
}