{
  "header": {
    "description": "Karaoke Mugen Tag File",
    "version": 1
  },
  "tag": {
    "aliases": [
      "D4P",
      "Drill for Princess"
    ],
    "external_database_ids": {
      "anilist": 2723,
      "myanimelist": 2723,
      "kitsu": 2483
    },
    "i18n": {
      "eng": "D4 Princess",
      "jpn": "D4 プリンセス",
      "qro": "D4 Princess"
    },
    "modified_at": "2020-03-31T19:04:31.270Z",
    "name": "D4 Princess",
    "repository": "kara.moe",
    "tid": "965e7c40-d288-407a-b773-a5747018bce4",
    "types": [
      "series",
      "1"
    ]
  }
}