{
  "header": {
    "description": "Karaoke Mugen Tag File",
    "version": 1
  },
  "tag": {
    "i18n": {
      "eng": "Dàdǎn Yīn Zǔ",
      "chi": "大膽音組"
    },
    "modified_at": "2021-03-13T14:14:06.873Z",
    "name": "Dàdǎn Yīn Zǔ",
    "repository": "kara.moe",
    "tid": "ee22d84f-f780-49d0-baf1-ca52c855bd99",
    "types": [
      "singers",
      "2"
    ]
  }
}