{
  "header": {
    "description": "Karaoke Mugen Tag File",
    "version": 1
  },
  "tag": {
    "aliases": [
      "Магазинчик сладостей",
      "粗点心战争"
    ],
    "external_database_ids": {
      "anilist": 21365,
      "myanimelist": 31636,
      "kitsu": 11381
    },
    "i18n": {
      "eng": "Dagashi Kashi",
      "jpn": "だがしかし",
      "kor": "다가시카시",
      "qro": "Dagashi Kashi"
    },
    "modified_at": "2020-03-31T19:04:31.273Z",
    "name": "Dagashi Kashi",
    "repository": "kara.moe",
    "tid": "b939b40c-111a-4757-b712-8fbbc768bc50",
    "types": [
      "series",
      "1",
      "franchises",
      "18"
    ]
  }
}