{
  "header": {
    "description": "Karaoke Mugen Tag File",
    "version": 1
  },
  "tag": {
    "i18n": {
      "eng": "Dai Sakai"
    },
    "name": "Dai Sakai",
    "tid": "978f2d94-cbfc-46c6-9b29-b56001fd5ec6",
    "types": [
      "songwriters",
      "8"
    ],
    "repository": "kara.moe",
    "modified_at": "2020-03-31T19:04:34.049Z"
  }
}