{
  "header": {
    "description": "Karaoke Mugen Tag File",
    "version": 1
  },
  "tag": {
    "i18n": {
      "eng": "Dai-ni Bungei-bu"
    },
    "name": "Dai-ni Bungei-bu",
    "tid": "198a8b37-5a3a-4102-94b5-8e16b47aafb7",
    "types": [
      "singers",
      "2",
      "songwriters",
      "8"
    ],
    "repository": "kara.moe",
    "modified_at": "2020-03-31T19:04:34.052Z"
  }
}