{
  "header": {
    "description": "Karaoke Mugen Tag File",
    "version": 1
  },
  "tag": {
    "i18n": {
      "eng": "dai"
    },
    "name": "dai",
    "tid": "127e564b-a210-406d-b510-4fadd1a33790",
    "types": [
      "songwriters",
      "8"
    ],
    "repository": "kara.moe",
    "modified_at": "2020-03-31T19:04:34.053Z"
  }
}