{
  "header": {
    "description": "Karaoke Mugen Tag File",
    "version": 1
  },
  "tag": {
    "i18n": {
      "eng": "Daichi Yoshioka"
    },
    "name": "Daichi Yoshioka",
    "repository": "kara.moe",
    "tid": "838c82cf-4b5d-47f1-883d-62f4e7ce8c06",
    "types": [
      "songwriters",
      "8"
    ]
  }
}