{
  "header": {
    "description": "Karaoke Mugen Tag File",
    "version": 1
  },
  "tag": {
    "i18n": {
      "eng": "Daichi Soflan"
    },
    "name": "Daichi Soflan",
    "repository": "kara.moe",
    "tid": "e58a915a-6729-4426-a8ef-fb0e4570bfec",
    "types": [
      "songwriters",
      "8"
    ]
  }
}