{
  "header": {
    "description": "Karaoke Mugen Tag File",
    "version": 1
  },
  "tag": {
    "i18n": {
      "eng": "Daichi Watanabe"
    },
    "modified_at": "2020-08-17T20:54:40.937Z",
    "name": "Daichi Watanabe",
    "repository": "kara.moe",
    "tid": "45230a0c-ed04-4232-9794-92e62c599f1c",
    "types": [
      "songwriters",
      "8"
    ]
  }
}