{
  "header": {
    "description": "Karaoke Mugen Tag File",
    "version": 1
  },
  "tag": {
    "i18n": {
      "eng": "Daichi Miura"
    },
    "name": "Daichi Miura",
    "tid": "92a8cfe8-46d1-4348-a67d-450f2deec517",
    "types": [
      "singers",
      "2",
      "songwriters",
      "8"
    ],
    "repository": "kara.moe",
    "modified_at": "2020-03-31T19:04:34.054Z"
  }
}