{
  "header": {
    "description": "Karaoke Mugen Tag File",
    "version": 1
  },
  "tag": {
    "aliases": [
      "Daikuu Maryuu Gaiking",
      "daikuu",
      "maryuu"
    ],
    "external_database_ids": {
      "anilist": 956,
      "myanimelist": 956,
      "kitsu": 846
    },
    "i18n": {
      "eng": "Dino Mech Gaiking",
      "ita": "Gaiking",
      "jpn": "大空魔竜ガイキング",
      "spa": "El Gladiador",
      "qro": "Daikû Maryû Gaiking"
    },
    "modified_at": "2020-03-31T19:04:31.277Z",
    "name": "Daikû Maryû Gaiking",
    "repository": "kara.moe",
    "tid": "8d13fb87-7426-415e-a40f-c908cfe91d1d",
    "types": [
      "series",
      "1"
    ]
  }
}