{
  "header": {
    "description": "Karaoke Mugen Tag File",
    "version": 1
  },
  "tag": {
    "i18n": {
      "eng": "Daiki Tsuneta"
    },
    "name": "Daiki Tsuneta",
    "tid": "13c1ef7a-0b82-4f0e-9ebb-0aef854fcc59",
    "types": [
      "songwriters",
      "8"
    ],
    "repository": "kara.moe",
    "modified_at": "2020-03-31T19:04:34.058Z"
  }
}