{
  "header": {
    "description": "Karaoke Mugen Tag File",
    "version": 1
  },
  "tag": {
    "i18n": {
      "eng": "Daisy×Daisy"
    },
    "name": "Daisy×Daisy",
    "tid": "32c3db1f-b1c5-4a6e-895c-dd0a73ba04b5",
    "types": [
      "singers",
      "2"
    ],
    "repository": "kara.moe",
    "modified_at": "2020-03-31T19:04:34.074Z"
  }
}