{
  "header": {
    "description": "Karaoke Mugen Tag File",
    "version": 1
  },
  "tag": {
    "i18n": {
      "eng": "Daisuke Kadowaki"
    },
    "name": "Daisuke Kadowaki",
    "repository": "kara.moe",
    "tid": "8e65a5b9-024f-4ce3-a359-c3a6c35d3fa5",
    "types": [
      "songwriters",
      "8"
    ]
  }
}