{
  "header": {
    "description": "Karaoke Mugen Tag File",
    "version": 1
  },
  "tag": {
    "i18n": {
      "eng": "Daisuke Katô"
    },
    "name": "Daisuke Katô",
    "tid": "57f06dc0-fda6-469c-8f51-69d01546f64c",
    "types": [
      "songwriters",
      "8"
    ],
    "repository": "kara.moe",
    "modified_at": "2020-03-31T19:04:34.067Z"
  }
}