{
  "header": {
    "description": "Karaoke Mugen Tag File",
    "version": 1
  },
  "tag": {
    "aliases": [
      "Daisuke Satou"
    ],
    "i18n": {
      "eng": "Daisuke Satô"
    },
    "modified_at": "2021-03-09T15:45:01.661Z",
    "name": "Daisuke Satô",
    "repository": "kara.moe",
    "tid": "95264af9-918c-40b5-90fe-248cf84d4507",
    "types": [
      "songwriters",
      "8"
    ]
  }
}