{
  "header": {
    "description": "Karaoke Mugen Tag File",
    "version": 1
  },
  "tag": {
    "i18n": {
      "eng": "Daisuke Ikeda"
    },
    "name": "Daisuke Ikeda",
    "tid": "07af4393-9645-4019-9b6c-e349662c9c6a",
    "types": [
      "songwriters",
      "8"
    ],
    "repository": "kara.moe",
    "modified_at": "2020-03-31T19:04:34.063Z"
  }
}