{
  "header": {
    "description": "Karaoke Mugen Tag File",
    "version": 1
  },
  "tag": {
    "i18n": {
      "eng": "Daisuke Mizuno"
    },
    "name": "Daisuke Mizuno",
    "tid": "257f6692-804e-414c-939a-cd8d25da097f",
    "types": [
      "songwriters",
      "8"
    ],
    "repository": "kara.moe",
    "modified_at": "2020-03-31T19:04:34.069Z"
  }
}