{
  "header": {
    "description": "Karaoke Mugen Tag File",
    "version": 1
  },
  "tag": {
    "i18n": {
      "eng": "Daler Mehndi"
    },
    "modified_at": "2021-03-18T23:22:18.876Z",
    "name": "Daler Mehndi",
    "repository": "kara.moe",
    "tid": "506ae478-4b6e-4fc3-8117-b7fe5359fac1",
    "types": [
      "songwriters",
      "8",
      "singers",
      "2"
    ]
  }
}