{
  "header": {
    "description": "Karaoke Mugen Tag File",
    "version": 1
  },
  "tag": {
    "i18n": {
      "eng": "Dale North"
    },
    "name": "Dale North",
    "repository": "kara.moe",
    "tid": "aa4e6b1a-5c09-4fc0-844c-120f1d30d876",
    "types": [
      "songwriters",
      "8"
    ],
    "modified_at": "2020-03-31T19:04:34.077Z"
  }
}