{
  "header": {
    "description": "Karaoke Mugen Tag File",
    "version": 1
  },
  "tag": {
    "i18n": {
      "eng": "Damhnait Doyle"
    },
    "name": "Damhnait Doyle",
    "repository": "kara.moe",
    "tid": "0a0eda2f-eb94-45b9-9568-d9cbf07973d8",
    "types": [
      "singers",
      "2"
    ]
  }
}