{
  "header": {
    "description": "Karaoke Mugen Tag File",
    "version": 1
  },
  "tag": {
    "i18n": {
      "eng": "Damhnait Doyle"
    },
    "name": "Damhnait Doyle",
    "repository": "kara.moe",
    "tid": "1626d5ad-24ba-4d67-a3cf-a3cd1dc394ea",
    "types": [
      "singers",
      "2"
    ]
  }
}