{
  "header": {
    "description": "Karaoke Mugen Tag File",
    "version": 1
  },
  "tag": {
    "i18n": {
      "eng": "Damien Sargue"
    },
    "name": "Damien Sargue",
    "repository": "kara.moe",
    "tid": "3272dcef-12f5-4948-a6ec-419f13f4b79f",
    "types": [
      "singers",
      "2"
    ]
  }
}