{
  "header": {
    "description": "Karaoke Mugen Tag File",
    "version": 1
  },
  "tag": {
    "i18n": {
      "eng": "Damian Hamada"
    },
    "name": "Damian Hamada",
    "tid": "23693ae3-8d35-4ca1-95d9-6b75b8ddcdef",
    "types": [
      "songwriters",
      "8"
    ],
    "repository": "kara.moe",
    "modified_at": "2020-03-31T19:04:34.079Z"
  }
}