{
  "header": {
    "description": "Karaoke Mugen Tag File",
    "version": 1
  },
  "tag": {
    "aliases": [
      "ダンボール戦機ウォーズ"
    ],
    "external_database_ids": {
      "anilist": 17917,
      "myanimelist": 17917,
      "kitsu": 7925
    },
    "i18n": {
      "eng": "Danball Senki Wars",
      "jpn": "ダンボール戦機WARS",
      "qro": "Danball Senki Wars"
    },
    "modified_at": "2020-03-31T19:04:31.283Z",
    "name": "Danball Senki Wars",
    "repository": "kara.moe",
    "tid": "d78f6bfa-6278-4322-9f3a-e71f1bbaacb1",
    "types": [
      "series",
      "1"
    ]
  }
}