{
  "header": {
    "description": "Karaoke Mugen Tag File",
    "version": 1
  },
  "tag": {
    "external_database_ids": {},
    "i18n": {
      "jpn": "Dancing Blade かってに桃天使!",
      "qro": "Dancing Blade Katte ni Momotenshi"
    },
    "name": "Dancing Blade Katte ni Momotenshi",
    "repository": "kara.moe",
    "tid": "79fc7e4e-f3e4-4c07-bb77-0fb8ad4692e9",
    "types": [
      "series",
      "1",
      "franchises",
      "18"
    ]
  }
}