{
  "header": {
    "description": "Karaoke Mugen Tag File",
    "version": 1
  },
  "tag": {
    "i18n": {
      "eng": "Dance Dance Revolution Hottest Party 3",
      "jpn": "ダンスダンスレボリューション：ミュージックフィット",
      "qro": "Dance Dance Revolution: Music Fit"
    },
    "name": "Dance Dance Revolution: Music Fit",
    "repository": "kara.moe",
    "tid": "8ae7e952-11a6-450c-99f3-570436238e28",
    "types": [
      "series",
      "1"
    ]
  }
}