{
  "header": {
    "description": "Karaoke Mugen Tag File",
    "version": 1
  },
  "tag": {
    "aliases": [
      "DitVB",
      "Танец на Вампирском берегу",
      "Танець на набережній вампірів",
      "رقص در باند خون آشام",
      "吸血鬼同盟"
    ],
    "external_database_ids": {
      "anilist": 6747,
      "myanimelist": 6747,
      "kitsu": 4697
    },
    "i18n": {
      "eng": "Dance in the Vampire Bund",
      "fre": "Dance in the Vampire Bund",
      "ger": "Dance in the Vampire Bund",
      "jpn": "ダンスインザヴァンパイアバンド",
      "spa": "Bailando con Vampiros",
      "qro": "Dance in the Vampire Bund"
    },
    "modified_at": "2020-06-21T23:45:31.966Z",
    "name": "Dance in the Vampire Bund",
    "repository": "kara.moe",
    "tid": "01264b27-5c82-476b-97ca-b00b8e94ea15",
    "types": [
      "series",
      "1"
    ]
  }
}