{
  "header": {
    "description": "Karaoke Mugen Tag File",
    "version": 1
  },
  "tag": {
    "i18n": {
      "eng": "DandeLion Animation Studio"
    },
    "name": "DandeLion Animation Studio",
    "tid": "c1c8df16-028c-4e3e-bd71-7f5ea345f34c",
    "types": [
      "creators",
      "4"
    ],
    "repository": "kara.moe",
    "modified_at": "2020-03-31T19:04:34.086Z"
  }
}