{
  "header": {
    "description": "Karaoke Mugen Tag File",
    "version": 1
  },
  "tag": {
    "external_database_ids": {
      "anilist": 21825,
      "myanimelist": 33028,
      "kitsu": 12105
    },
    "i18n": {
      "eng": "Danganronpa 3: The End of Hope's Peak High School ‒ Despair Arc",
      "jpn": "ダンガンロンパ3 -The End of 希望ヶ峰学園- 絶望編",
      "kor": "단간론파 3 -The End of 키보가미네 학원 - 절망편",
      "qro": "Danganronpa 3: The End of Kibougamine Gakuen - Zetsubou Hen"
    },
    "modified_at": "2020-03-31T19:04:31.288Z",
    "name": "Danganronpa 3: The End of Kibougamine Gakuen - Zetsubou Hen",
    "repository": "kara.moe",
    "tid": "aa212355-9f74-4f51-9a20-4d6873078da1",
    "types": [
      "series",
      "1"
    ]
  }
}