{
  "header": {
    "description": "Karaoke Mugen Tag File",
    "version": 1
  },
  "tag": {
    "external_database_ids": {},
    "i18n": {
      "eng": "Danganronpa",
      "jpn": "ダンガンロンパ",
      "kor": "단간론파"
    },
    "name": "Danganronpa",
    "repository": "kara.moe",
    "tid": "15c7ca82-8e24-43d6-8d65-42df016c2c8c",
    "types": [
      "franchises",
      "18"
    ]
  }
}