{
  "header": {
    "description": "Karaoke Mugen Tag File",
    "version": 1
  },
  "tag": {
    "i18n": {
      "eng": "Daniele Coro"
    },
    "name": "Daniele Coro",
    "tid": "13a5932e-1693-440a-84d5-8b183e7b656d",
    "types": [
      "songwriters",
      "8"
    ],
    "repository": "kara.moe",
    "modified_at": "2020-03-31T19:04:34.095Z"
  }
}