{
  "header": {
    "description": "Karaoke Mugen Tag File",
    "version": 1
  },
  "tag": {
    "i18n": {
      "eng": "Danielle Licari"
    },
    "name": "Danielle Licari",
    "tid": "f156a4c8-0bf1-4783-98e9-586e1c6f7444",
    "types": [
      "singers",
      "2"
    ],
    "repository": "kara.moe",
    "modified_at": "2020-03-31T19:04:34.096Z"
  }
}