{
  "header": {
    "description": "Karaoke Mugen Tag File",
    "version": 1
  },
  "tag": {
    "i18n": {
      "eng": "Daniel Lévi"
    },
    "name": "Daniel Lévi",
    "repository": "kara.moe",
    "tid": "fa4e9101-b9be-4343-978d-6294c754f6c1",
    "types": [
      "singers",
      "2"
    ]
  }
}