{
  "header": {
    "description": "Karaoke Mugen Tag File",
    "version": 1
  },
  "tag": {
    "i18n": {
      "eng": "Daniel Goudie"
    },
    "name": "Daniel Goudie",
    "tid": "8377b0ad-d8b4-4ca4-b13b-e09d181a1d27",
    "types": [
      "songwriters",
      "8"
    ],
    "repository": "kara.moe",
    "modified_at": "2020-03-31T19:04:34.090Z"
  }
}