{
  "header": {
    "description": "Karaoke Mugen Tag File",
    "version": 1
  },
  "tag": {
    "i18n": {
      "eng": "Daniel Licht"
    },
    "modified_at": "2021-01-15T21:38:43.009Z",
    "name": "Daniel Licht",
    "repository": "kara.moe",
    "tid": "3bedb5c8-c6a2-4dd8-922d-b159784a566e",
    "types": [
      "songwriters",
      "8"
    ]
  }
}