{
  "header": {
    "description": "Karaoke Mugen Tag File",
    "version": 1
  },
  "tag": {
    "i18n": {
      "eng": "Daniel Ingram"
    },
    "name": "Daniel Ingram",
    "tid": "6d231afc-3b14-4464-961a-fe637a23cecf",
    "types": [
      "songwriters",
      "8"
    ],
    "repository": "kara.moe",
    "modified_at": "2020-03-31T19:04:34.090Z"
  }
}