{
  "header": {
    "description": "Karaoke Mugen Tag File",
    "version": 1
  },
  "tag": {
    "i18n": {
      "eng": "Danny Chang"
    },
    "name": "Danny Chang",
    "tid": "8956daa2-ad49-4ffc-b73c-e93b7bdec08b",
    "types": [
      "songwriters",
      "8"
    ],
    "repository": "kara.moe",
    "modified_at": "2020-03-31T19:04:34.097Z"
  }
}