{
  "header": {
    "description": "Karaoke Mugen Tag File",
    "version": 1
  },
  "tag": {
    "aliases": [
      "I Love Mama More Than Anyone"
    ],
    "i18n": {
      "eng": "Dare yori mo Mama wo Aisu",
      "jpn": "誰よりもママを愛す",
      "qro": "Dare yori mo Mama wo Aisu"
    },
    "modified_at": "2020-03-31T19:04:31.293Z",
    "name": "Dare yori mo Mama wo Aisu",
    "repository": "kara.moe",
    "tid": "c485992c-8b84-437e-ae08-4702871f3b59",
    "types": [
      "series",
      "1"
    ]
  }
}