{
  "header": {
    "description": "Karaoke Mugen Tag File",
    "version": 1
  },
  "tag": {
    "i18n": {
      "eng": "Dario Farina"
    },
    "modified_at": "2020-07-09T20:13:35.052Z",
    "name": "Dario Farina",
    "repository": "kara.moe",
    "tid": "4ca148e5-4207-4b87-be38-424b474f9b79",
    "types": [
      "songwriters",
      "8"
    ]
  }
}