{
  "header": {
    "description": "Karaoke Mugen Tag File",
    "version": 1
  },
  "tag": {
    "aliases": [
      "DTB",
      "Darker Than Black Ryuusei no Gemini",
      "Darker than Black 2",
      "Darker than Black Gaiden",
      "Darker than Black OVA",
      "Tamsiau už Juodą: Meteoro Dvyniai",
      "Zifiri Karanlık 2",
      "dtb2",
      "dtbrng",
      "Близнюки метеора",
      "По-тъмно от черното: Близнаците на Метеора",
      "Темнее черного: Близнецы и падающая звезда",
      "Темніше чорного: Близнюки метеора",
      "黑之契约者-流星的双子-",
      "ryuusei"
    ],
    "external_database_ids": {
      "anilist": 6573,
      "myanimelist": 6573,
      "kitsu": 4617
    },
    "i18n": {
      "eng": "Darker Than Black: Gemini of the Meteor",
      "jpn": "DARKER THAN BLACK 流星の双子[ジェミニ]",
      "kor": "Darker than BLACK -유성의 제미니-",
      "qro": "Darker Than Black: Ryûsei no Gemini"
    },
    "modified_at": "2020-03-31T19:04:31.294Z",
    "name": "Darker Than Black: Ryûsei no Gemini",
    "repository": "kara.moe",
    "tid": "a186ff25-de62-4708-ba50-228097ab8d27",
    "types": [
      "series",
      "1"
    ]
  }
}