{
  "header": {
    "description": "Karaoke Mugen Tag File",
    "version": 1
  },
  "tag": {
    "i18n": {
      "eng": "Darker Than Black"
    },
    "name": "Darker Than Black",
    "repository": "kara.moe",
    "tid": "be8bc785-2cba-4faf-9162-af582d31113b",
    "types": [
      "franchises",
      "18"
    ]
  }
}