{
  "header": {
    "description": "Karaoke Mugen Tag File",
    "version": 1
  },
  "tag": {
    "i18n": {
      "eng": "DarkSoul"
    },
    "modified_at": "2020-05-31T22:50:10.988Z",
    "name": "DarkSoul",
    "repository": "kara.moe",
    "tid": "e8f62543-7fd0-4c0b-938f-a61448fea179",
    "types": [
      "authors",
      "6",
      "creators",
      "4"
    ]
  }
}