{
  "header": {
    "description": "Karaoke Mugen Tag File",
    "version": 1
  },
  "tag": {
    "aliases": [
      "DarliFra",
      "DitF",
      "darlifra",
      "ダリフラ"
    ],
    "external_database_ids": {
      "anilist": 99423,
      "myanimelist": 35849,
      "kitsu": 13600
    },
    "i18n": {
      "eng": "DARLING in the FRANXX",
      "jpn": "ダーリン・イン・ザ・フランキス",
      "rus": "Любимый во Франксе",
      "qro": "DARLING in the FRANXX"
    },
    "modified_at": "2020-03-31T19:04:31.295Z",
    "name": "DARLING in the FRANXX",
    "repository": "kara.moe",
    "tid": "f3bc35b6-39b0-43d9-ae3f-3aabd65ee330",
    "types": [
      "series",
      "1"
    ]
  }
}