{
  "header": {
    "description": "Karaoke Mugen Tag File",
    "version": 1
  },
  "tag": {
    "i18n": {
      "eng": "Darren Hayes"
    },
    "name": "Darren Hayes",
    "tid": "426dd9d8-69b7-41e7-b4fc-08f676a072d9",
    "types": [
      "songwriters",
      "8"
    ],
    "repository": "kara.moe",
    "modified_at": "2020-03-31T19:04:34.105Z"
  }
}