{
  "header": {
    "description": "Karaoke Mugen Tag File",
    "version": 1
  },
  "tag": {
    "aliases": [
      "Dashing Kappei"
    ],
    "external_database_ids": {
      "anilist": 2748,
      "myanimelist": 2748,
      "kitsu": 2508
    },
    "i18n": {
      "eng": "Dash Kappei",
      "gre": "Τζίτζι",
      "ita": "Gigi la trottola",
      "jpn": "ダッシュ勝平",
      "pol": "Gigi",
      "spa": "Chicho Terremoto",
      "tur": "Çiko",
      "qro": "Dash Kappei"
    },
    "modified_at": "2020-03-31T19:04:31.295Z",
    "name": "Dash Kappei",
    "repository": "kara.moe",
    "tid": "8fc953b1-5408-4926-a391-65f55d1cbefa",
    "types": [
      "series",
      "1"
    ]
  }
}