{
  "header": {
    "description": "Karaoke Mugen Tag File",
    "version": 1
  },
  "tag": {
    "aliases": [
      "Datenkou"
    ],
    "i18n": {
      "eng": "Datenkô"
    },
    "modified_at": "2021-09-26T22:07:56.874Z",
    "name": "Datenkô",
    "repository": "kara.moe",
    "tid": "c6861323-d02b-42b6-80d6-63f25d1f47af",
    "types": [
      "songwriters",
      "8"
    ]
  }
}