{
  "header": {
    "description": "Karaoke Mugen Tag File",
    "version": 1
  },
  "tag": {
    "i18n": {
      "eng": "datenkou"
    },
    "name": "datenkou",
    "repository": "kara.moe",
    "tid": "c767c1e1-5428-432e-9bf7-37573c05606b",
    "types": [
      "singers",
      "2"
    ]
  }
}