{
  "header": {
    "description": "Karaoke Mugen Tag File",
    "version": 1
  },
  "tag": {
    "external_database_ids": {
      "anilist": 100722,
      "myanimelist": 36633,
      "kitsu": 14040
    },
    "i18n": {
      "jpn": "Date a Live III",
      "qro": "Date a Live III"
    },
    "modified_at": "2020-03-31T19:04:31.298Z",
    "name": "Date a Live III",
    "repository": "kara.moe",
    "tid": "ef339f70-5640-4ffe-aefa-3f8cd7c0ceec",
    "types": [
      "series",
      "1"
    ]
  }
}