{
  "header": {
    "description": "Karaoke Mugen Tag File",
    "version": 1
  },
  "tag": {
    "aliases": [
      "Date a Live 2",
      "Среща на живо 2"
    ],
    "external_database_ids": {
      "anilist": 19163,
      "myanimelist": 19163,
      "kitsu": 7864
    },
    "i18n": {
      "eng": "Date a Live II",
      "jpn": "デート・ア・ライブ II",
      "qro": "Date a Live II"
    },
    "modified_at": "2020-03-31T19:04:31.297Z",
    "name": "Date a Live II",
    "repository": "kara.moe",
    "tid": "679fca63-dc48-417c-b75f-04116f6ba88f",
    "types": [
      "series",
      "1"
    ]
  }
}