{
  "header": {
    "description": "Karaoke Mugen Tag File",
    "version": 1
  },
  "tag": {
    "i18n": {
      "eng": "Daume"
    },
    "name": "Daume",
    "tid": "1b35f6f8-1c71-4243-95be-ff7b67ff5c6e",
    "types": [
      "creators",
      "4"
    ],
    "repository": "kara.moe",
    "modified_at": "2020-03-31T19:04:34.107Z"
  }
}