{
  "header": {
    "description": "Karaoke Mugen Tag File",
    "version": 1
  },
  "tag": {
    "i18n": {
      "eng": "Dave Bulmer"
    },
    "name": "Dave Bulmer",
    "repository": "kara.moe",
    "tid": "e636c361-f10a-4c2b-b358-336404383b96",
    "types": [
      "singers",
      "2"
    ]
  }
}