{
  "header": {
    "description": "Karaoke Mugen Tag File",
    "version": 1
  },
  "tag": {
    "i18n": {
      "eng": "Dave Bassett"
    },
    "modified_at": "2020-07-16T16:39:04.775Z",
    "name": "Dave Bassett",
    "repository": "kara.moe",
    "tid": "c7d3598e-de9b-47f7-8523-854cd94ad182",
    "types": [
      "songwriters",
      "8"
    ]
  }
}