{
  "header": {
    "description": "Karaoke Mugen Tag File",
    "version": 1
  },
  "tag": {
    "i18n": {
      "eng": "David Jost"
    },
    "modified_at": "2021-07-18T18:02:46.641Z",
    "name": "David Jost",
    "repository": "kara.moe",
    "tid": "8319b2e8-c10b-4c18-ba83-a15e68cf0bfe",
    "types": [
      "songwriters",
      "8"
    ]
  }
}