{
  "header": {
    "description": "Karaoke Mugen Tag File",
    "version": 1
  },
  "tag": {
    "i18n": {
      "eng": "David Biral"
    },
    "name": "David Biral",
    "repository": "kara.moe",
    "tid": "a4061ed1-af7f-43a8-a0da-fcf9ee550e29",
    "types": [
      "songwriters",
      "8"
    ]
  }
}