{
  "header": {
    "description": "Karaoke Mugen Tag File",
    "version": 1
  },
  "tag": {
    "i18n": {
      "eng": "David Hartman"
    },
    "name": "David Hartman",
    "tid": "e9ca6fc7-7e1a-4a2d-baba-4ebf19a29221",
    "types": [
      "songwriters",
      "8"
    ],
    "repository": "kara.moe",
    "modified_at": "2020-03-31T19:04:34.111Z"
  }
}