{
  "header": {
    "description": "Karaoke Mugen Tag File",
    "version": 1
  },
  "tag": {
    "i18n": {
      "eng": "David Stewart"
    },
    "name": "David Stewart",
    "repository": "kara.moe",
    "tid": "3c853fa1-08c1-4654-9ee1-fbb79b53848a",
    "types": [
      "songwriters",
      "8"
    ]
  }
}