{
  "header": {
    "description": "Karaoke Mugen Tag File",
    "version": 1
  },
  "tag": {
    "i18n": {
      "eng": "David Bergeaud"
    },
    "name": "David Bergeaud",
    "tid": "deea9212-825c-4b79-a765-8c8518a5af3a",
    "types": [
      "songwriters",
      "8"
    ],
    "repository": "kara.moe",
    "modified_at": "2020-03-31T19:04:34.110Z"
  }
}