{
  "header": {
    "description": "Karaoke Mugen Tag File",
    "version": 1
  },
  "tag": {
    "i18n": {
      "eng": "David Kim"
    },
    "name": "David Kim",
    "tid": "22ec6c16-57a0-421d-b796-0009488b825f",
    "types": [
      "songwriters",
      "8"
    ],
    "repository": "kara.moe",
    "modified_at": "2020-03-31T19:04:34.112Z"
  }
}