{
  "header": {
    "description": "Karaoke Mugen Tag File",
    "version": 1
  },
  "tag": {
    "i18n": {
      "eng": "David Westbom"
    },
    "name": "David Westbom",
    "repository": "kara.moe",
    "tid": "5614f395-b3de-42b2-9b25-2efdd733a793",
    "types": [
      "songwriters",
      "8"
    ]
  }
}