{
  "header": {
    "description": "Karaoke Mugen Tag File",
    "version": 1
  },
  "tag": {
    "i18n": {
      "eng": "David Hasselhoff"
    },
    "name": "David Hasselhoff",
    "repository": "kara.moe",
    "tid": "365dac02-5d90-44e6-a606-fbb6ea74d53d",
    "types": [
      "singers",
      "2"
    ],
    "modified_at": "2020-03-31T19:04:34.112Z"
  }
}