{
  "header": {
    "description": "Karaoke Mugen Tag File",
    "version": 1
  },
  "tag": {
    "i18n": {
      "eng": "day after tomorrow"
    },
    "name": "day after tomorrow",
    "tid": "d00189a8-a23e-4fd2-a2af-dbbf4d4fa070",
    "types": [
      "singers",
      "2"
    ],
    "repository": "kara.moe",
    "modified_at": "2020-03-31T19:04:34.121Z"
  }
}