{
  "header": {
    "description": "Karaoke Mugen Tag File",
    "version": 1
  },
  "tag": {
    "i18n": {
      "eng": "Dead Workers Party"
    },
    "name": "Dead Workers Party",
    "repository": "kara.moe",
    "tid": "97fe5c4a-484c-416d-86aa-ff41c085311c",
    "types": [
      "singers",
      "2",
      "songwriters",
      "8"
    ]
  }
}