{
  "header": {
    "description": "Karaoke Mugen Tag File",
    "version": 1
  },
  "tag": {
    "i18n": {
      "eng": "deadmau5"
    },
    "modified_at": "2020-08-29T18:21:19.423Z",
    "name": "deadmau5",
    "repository": "kara.moe",
    "tid": "7cb0ebf4-33cc-48a3-bffd-86e40191f84a",
    "types": [
      "songwriters",
      "8"
    ]
  }
}