{
  "header": {
    "description": "Karaoke Mugen Tag File",
    "version": 1
  },
  "tag": {
    "aliases": [
      "dmw",
      "dw",
      "dwl",
      "Мъртвата Страна на Чудесата",
      "Страна чудес смертников",
      "デッドマンワンダーランド"
    ],
    "external_database_ids": {
      "anilist": 6880,
      "myanimelist": 6880,
      "kitsu": 4765
    },
    "i18n": {
      "eng": "Deadman Wonderland",
      "ger": "Deadman Wonderland",
      "jpn": "デッドマン・ワンダーランド",
      "ukr": "Країна чудес смертників",
      "qro": "Deadman Wonderland"
    },
    "modified_at": "2020-03-31T19:04:31.301Z",
    "name": "Deadman Wonderland",
    "repository": "kara.moe",
    "tid": "db1651f9-cd43-4369-87ed-7cc12b4ec038",
    "types": [
      "series",
      "1"
    ]
  }
}