{
  "header": {
    "description": "Karaoke Mugen Tag File",
    "version": 1
  },
  "tag": {
    "i18n": {
      "eng": "Dear☆Stage Records "
    },
    "name": "Dear☆Stage Records ",
    "repository": "kara.moe",
    "tid": "8e289542-8c5b-4c3b-9589-c2a33588d90b",
    "types": [
      "creators",
      "4"
    ]
  }
}