{
  "header": {
    "description": "Karaoke Mugen Tag File",
    "version": 1
  },
  "tag": {
    "i18n": {
      "eng": "Deborah Miles-Johnson"
    },
    "name": "Deborah Miles-Johnson",
    "repository": "kara.moe",
    "tid": "577e96fe-95ab-46bb-80ba-4a6b50213672",
    "types": [
      "singers",
      "2"
    ]
  }
}