{
  "header": {
    "description": "Karaoke Mugen Tag File",
    "version": 1
  },
  "tag": {
    "i18n": {
      "eng": "Deep Insanity"
    },
    "name": "Deep Insanity",
    "repository": "kara.moe",
    "tid": "035f0548-5e28-4dc0-a580-25c76f1b467b",
    "types": [
      "franchises",
      "18"
    ]
  }
}