{
  "header": {
    "description": "Karaoke Mugen Tag File",
    "version": 1
  },
  "tag": {
    "i18n": {
      "eng": "Deep Insanity: Asylum",
      "jpn": "ディープインサニティ アサイラム",
      "qro": "Deep Insanity: Asylum"
    },
    "modified_at": "2021-10-26T20:51:37.599Z",
    "name": "Deep Insanity: Asylum",
    "repository": "kara.moe",
    "tid": "cfc1e5c2-8453-46bf-b8bf-5b5cbfeadeef",
    "types": [
      "series",
      "1"
    ]
  }
}