{
  "header": {
    "description": "Karaoke Mugen Tag File",
    "version": 1
  },
  "tag": {
    "i18n": {
      "eng": "Defconn"
    },
    "name": "Defconn",
    "tid": "6beec92b-cd3e-4b7e-be9a-f7158d9de12a",
    "types": [
      "songwriters",
      "8"
    ],
    "repository": "kara.moe",
    "modified_at": "2020-03-31T19:04:34.130Z"
  }
}