{
  "header": {
    "description": "Karaoke Mugen Tag File",
    "version": 1
  },
  "tag": {
    "i18n": {
      "jpn": "デカ盛り 閃乱カグラ",
      "eng": "Senran Kagura: Bon Appétit!",
      "qro": "Dekamori Senran Kagura"
    },
    "modified_at": "2021-03-10T00:08:31.386Z",
    "name": "Dekamori Senran Kagura",
    "repository": "kara.moe",
    "tid": "fd68363a-cc9e-4679-a71a-77a8612e7f10",
    "types": [
      "series",
      "1"
    ]
  }
}