{
  "header": {
    "description": "Karaoke Mugen Tag File",
    "version": 1
  },
  "tag": {
    "i18n": {
      "eng": "Deko Akao"
    },
    "name": "Deko Akao",
    "tid": "1000fd0f-4088-4105-a053-a33b5daea9a0",
    "types": [
      "songwriters",
      "8"
    ],
    "repository": "kara.moe",
    "modified_at": "2020-03-31T19:04:34.132Z"
  }
}