{
  "header": {
    "description": "Karaoke Mugen Tag File",
    "version": 1
  },
  "tag": {
    "external_database_ids": {
      "anilist": 154678,
      "kitsu": 47025,
      "myanimelist": 53196
    },
    "i18n": {
      "eng": "Delicious Party Precure: Watashi dake no Oko-sama Lunch",
      "jpn": "わたしだけのお子さまランチ",
      "qro": "Eiga Delicious Party Precure: Watashi dake no Okosama Lunch"
    },
    "name": "Delicious Party Precure: Watashi dake no Oko-sama Lunch",
    "repository": "kara.moe",
    "tid": "fbbee93d-b85a-4bac-8f82-b8c5022cbdb5",
    "types": [
      "series",
      "1"
    ]
  }
}