{
  "header": {
    "description": "Karaoke Mugen Tag File",
    "version": 1
  },
  "tag": {
    "aliases": [
      "Delicious Academy"
    ],
    "i18n": {
      "eng": "Delicious Gakuin",
      "jpn": "美味學院",
      "qro": "Delicious Gakuin"
    },
    "modified_at": "2020-03-31T19:04:31.306Z",
    "name": "Delicious Gakuin",
    "repository": "kara.moe",
    "tid": "95a32f85-9f61-40a2-b368-2c5da86f59ae",
    "types": [
      "series",
      "1"
    ]
  }
}