{
  "header": {
    "description": "Karaoke Mugen Tag File",
    "version": 1
  },
  "tag": {
    "external_database_ids": {
      "anilist": 144687,
      "kitsu": 46277,
      "myanimelist": 50963
    },
    "i18n": {
      "eng": "Delicious Party♡Precure Movie: Yumemiru♡Oko-sama Lunch",
      "jpn": "映画デリシャスパーティ♡プリキュア 夢みる♡お子さまランチ!",
      "qro": "Delicious Party♡Precure Movie: Yumemiru♡Oko-sama Lunch"
    },
    "name": "Delicious Party♡Precure Movie: Yumemiru♡Oko-sama Lunch",
    "repository": "kara.moe",
    "tid": "2686fbef-e5e5-4c21-85ce-da5eaee1b6c2",
    "types": [
      "series",
      "1"
    ]
  }
}