{
  "header": {
    "description": "Karaoke Mugen Tag File",
    "version": 1
  },
  "tag": {
    "i18n": {
      "eng": "Demae"
    },
    "modified_at": "2021-10-10T20:54:43.603Z",
    "name": "Demae",
    "repository": "kara.moe",
    "tid": "021b7c66-0d86-4ac7-bcba-ecd3d5850ad1",
    "types": [
      "creators",
      "4"
    ]
  }
}