{
  "header": {
    "description": "Karaoke Mugen Tag File",
    "version": 1
  },
  "tag": {
    "aliases": [
      "Freaky Girls",
      "Разговоры с мифами"
    ],
    "external_database_ids": {
      "anilist": 97592,
      "myanimelist": 33988,
      "kitsu": 12529
    },
    "i18n": {
      "chi": "亚人酱有话要说",
      "cze": "Rozhovory s půlslečnami",
      "eng": "Interviews with Monster Girls",
      "fre": "Freaky Girls",
      "jpn": "亜人ちゃんは語りたい",
      "kor": "데미는 이야기하고 싶어",
      "per": "مصاحبه با دختران هیولا",
      "qro": "Demi-chan wa Kataritai"
    },
    "modified_at": "2020-06-21T23:45:31.966Z",
    "name": "Demi-chan wa Kataritai",
    "repository": "kara.moe",
    "tid": "239e8bb9-4c6d-4fc1-b97f-5ab75604de98",
    "types": [
      "series",
      "1"
    ]
  }
}