{
  "header": {
    "description": "Karaoke Mugen Tag File",
    "version": 1
  },
  "tag": {
    "aliases": [
      "karen",
      "DEMONDICEkaren",
      "カレン"
    ],
    "i18n": {
      "eng": "DEMONDICE"
    },
    "modified_at": "2021-09-29T23:17:17.504Z",
    "name": "DEMONDICE",
    "repository": "kara.moe",
    "tid": "6c8af326-1b4b-42e0-b54f-d3f8c8dbfab0",
    "types": [
      "songwriters",
      "8",
      "singers",
      "2",
      "creators",
      "4"
    ]
  }
}