{
  "header": {
    "description": "Karaoke Mugen Tag File",
    "version": 1
  },
  "tag": {
    "i18n": {
      "eng": "Dempagumi.inc"
    },
    "name": "Dempagumi.inc",
    "repository": "kara.moe",
    "tid": "b6e8881b-3bc1-47ef-9470-985d37c9e1cb",
    "types": [
      "creators",
      "4",
      "singergroups",
      "17"
    ]
  }
}