{
  "header": {
    "description": "Karaoke Mugen Tag File",
    "version": 1
  },
  "tag": {
    "i18n": {
      "eng": "DENKI GROOVE"
    },
    "name": "DENKI GROOVE",
    "tid": "c37e2baf-85e6-4b12-a029-95080ee60a66",
    "types": [
      "singers",
      "2",
      "songwriters",
      "8"
    ],
    "repository": "kara.moe",
    "modified_at": "2020-03-31T19:04:34.136Z"
  }
}