{
  "header": {
    "description": "Karaoke Mugen Tag File",
    "version": 1
  },
  "tag": {
    "aliases": [
      "Denkou Choujin Gridman",
      "denkou",
      "choujin"
    ],
    "i18n": {
      "eng": "Gridman the Hyper Agent",
      "jpn": "電光超人グリッドマン",
      "qro": "Denkô Chôjin Gridman"
    },
    "modified_at": "2020-03-31T19:04:31.311Z",
    "name": "Denkô Chôjin Gridman",
    "repository": "kara.moe",
    "tid": "fab064ed-3c40-48d0-86b3-16dc2e0ad534",
    "types": [
      "series",
      "1"
    ]
  }
}