{
  "header": {
    "description": "Karaoke Mugen Tag File",
    "version": 1
  },
  "tag": {
    "i18n": {
      "eng": "Denny Crockett"
    },
    "name": "Denny Crockett",
    "tid": "fe6f9619-f080-41f8-ae27-548491f4a848",
    "types": [
      "singers",
      "2"
    ],
    "repository": "kara.moe",
    "modified_at": "2020-03-31T19:04:34.139Z"
  }
}