{
  "header": {
    "description": "Karaoke Mugen Tag File",
    "version": 1
  },
  "tag": {
    "aliases": [
      "Coil - A Circle of Children",
      "Cyber Coil",
      "Cyberkrąg",
      "DenCo",
      "Denno Coil",
      "Dennou Coil",
      "Виртуален шум",
      "Кибер-виток",
      "ذغال الکترونیکی",
      "电脑线圈",
      "dennou"
    ],
    "external_database_ids": {
      "anilist": 2164,
      "myanimelist": 2164,
      "kitsu": 1959
    },
    "i18n": {
      "eng": "Den-noh Coil",
      "fre": "Dennô Coil",
      "ita": "Dennô Coil",
      "jpn": "電脳コイル",
      "per": "سایبر کویل",
      "qro": "Dennô Coil"
    },
    "modified_at": "2020-03-31T19:04:31.312Z",
    "name": "Dennô Coil",
    "repository": "kara.moe",
    "tid": "8163b477-9b6e-4c49-8146-aaebad46f953",
    "types": [
      "series",
      "1"
    ]
  }
}