{
  "header": {
    "description": "Karaoke Mugen Tag File",
    "version": 1
  },
  "tag": {
    "i18n": {
      "eng": "Denpagumi.Inc"
    },
    "name": "Denpagumi.Inc",
    "tid": "74b1c135-7425-490c-a2d4-4cf51655d274",
    "types": [
      "singers",
      "2"
    ],
    "repository": "kara.moe",
    "modified_at": "2020-03-31T19:04:34.139Z"
  }
}