{
  "header": {
    "description": "Karaoke Mugen Tag File",
    "version": 1
  },
  "tag": {
    "external_database_ids": {
      "anilist": 5177,
      "myanimelist": 5177,
      "kitsu": 3967
    },
    "i18n": {
      "eng": "Denpa Teki na Kanojo",
      "jpn": "電波的な彼女"
    },
    "name": "Denpa Teki na Kanojo",
    "repository": "kara.moe",
    "tid": "935076cb-1998-4969-bcd9-0e03f8706009",
    "types": [
      "series",
      "1"
    ]
  }
}