{
  "header": {
    "description": "Karaoke Mugen Tag File",
    "version": 1
  },
  "tag": {
    "i18n": {
      "eng": "Denzel Baptiste"
    },
    "name": "Denzel Baptiste",
    "repository": "kara.moe",
    "tid": "6a6a69d2-3e5f-492c-8849-3bf49c2ef193",
    "types": [
      "songwriters",
      "8"
    ]
  }
}