{
  "header": {
    "description": "Karaoke Mugen Tag File",
    "version": 1
  },
  "tag": {
    "i18n": {
      "eng": "Derek Drymon"
    },
    "modified_at": "2021-02-14T14:50:23.333Z",
    "name": "Derek Drymon",
    "repository": "kara.moe",
    "tid": "d844e751-0767-452a-95f7-ab6385bfc0c3",
    "types": [
      "songwriters",
      "8"
    ]
  }
}