{
  "header": {
    "description": "Karaoke Mugen Tag File",
    "version": 1
  },
  "tag": {
    "i18n": {
      "eng": "DESIGN FACTORY"
    },
    "name": "DESIGN FACTORY",
    "tid": "ad1aac04-47e7-42e6-bd2b-c4a0e38c1afe",
    "types": [
      "creators",
      "4"
    ],
    "repository": "kara.moe",
    "modified_at": "2020-03-31T19:04:34.140Z"
  }
}