{
  "header": {
    "description": "Karaoke Mugen Tag File",
    "version": 1
  },
  "tag": {
    "i18n": {
      "eng": "Desire"
    },
    "name": "Desire",
    "tid": "5521dd2d-d06b-43ce-985b-429860454a15",
    "types": [
      "creators",
      "4"
    ],
    "repository": "kara.moe",
    "modified_at": "2020-03-31T19:04:34.141Z"
  }
}