{
  "header": {
    "description": "Karaoke Mugen Tag File",
    "version": 1
  },
  "tag": {
    "i18n": {
      "eng": "Destroian"
    },
    "modified_at": "2021-04-14T23:45:03.969Z",
    "name": "Destroian",
    "repository": "kara.moe",
    "tid": "45ac68a0-450e-429b-914d-a56f88d68b2f",
    "types": [
      "songwriters",
      "8"
    ]
  }
}