{
  "header": {
    "description": "Karaoke Mugen Tag File",
    "version": 1
  },
  "tag": {
    "i18n": {
      "eng": "Devon Giehl"
    },
    "name": "Devon Giehl",
    "tid": "2604678d-537a-41dc-997c-d47980d4ac5a",
    "types": [
      "songwriters",
      "8"
    ],
    "repository": "kara.moe",
    "modified_at": "2020-03-31T19:04:34.145Z"
  }
}