{
  "header": {
    "description": "Karaoke Mugen Tag File",
    "version": 1
  },
  "tag": {
    "i18n": {
      "eng": "Diabolik Lovers: Vandead Carnival",
      "jpn": "ディアボリック ラバーズ ヴァンデッド カーニバル",
      "qro": "Diabolik Lovers: Vandead Carnival"
    },
    "modified_at": "2020-03-31T19:04:31.331Z",
    "name": "Diabolik Lovers: Vandead Carnival",
    "repository": "kara.moe",
    "tid": "d49cb765-ca45-453f-95d4-8d7cec4dd322",
    "types": [
      "series",
      "1"
    ]
  }
}