{
  "header": {
    "description": "Karaoke Mugen Tag File",
    "version": 1
  },
  "tag": {
    "i18n": {
      "eng": "Diabolik Lovers: Chaos Lineage",
      "jpn": "ディアボリックラヴァーズ ケイオスリネージュ",
      "qro": "Diabolik Lovers: Chaos Lineage"
    },
    "modified_at": "2020-03-31T19:04:31.327Z",
    "name": "Diabolik Lovers: Chaos Lineage",
    "repository": "kara.moe",
    "tid": "0544a1d0-cf5b-4e79-890a-026c61205b08",
    "types": [
      "series",
      "1"
    ]
  }
}