{
  "header": {
    "description": "Karaoke Mugen Tag File",
    "version": 1
  },
  "tag": {
    "i18n": {
      "eng": "Diabolik Lovers: MORE,BLOOD Limited V Edition ",
      "jpn": "ディアボリックラヴァーズ モア、ブラッ - Limited V Edition",
      "qro": "Diabolik Lovers: More Blood - Limited V Edition"
    },
    "modified_at": "2020-03-31T19:04:31.330Z",
    "name": "Diabolik Lovers: More Blood - Limited V Edition",
    "repository": "kara.moe",
    "tid": "bb72c658-822b-43b7-b68f-677d090a076e",
    "types": [
      "series",
      "1"
    ]
  }
}