{
  "header": {
    "description": "Karaoke Mugen Tag File",
    "version": 1
  },
  "tag": {
    "i18n": {
      "eng": "dicot"
    },
    "name": "dicot",
    "tid": "dc9e033e-5aa5-4134-8bda-fe904cf7fd98",
    "types": [
      "singers",
      "2"
    ],
    "repository": "kara.moe",
    "modified_at": "2020-03-31T19:04:34.149Z"
  }
}