{
  "header": {
    "description": "Karaoke Mugen Tag File",
    "version": 1
  },
  "tag": {
    "i18n": {
      "eng": "Didier Bourdon"
    },
    "name": "Didier Bourdon",
    "tid": "eb0c4033-d496-484f-910b-9f95b0f4a06d",
    "types": [
      "singers",
      "2",
      "songwriters",
      "8"
    ],
    "repository": "kara.moe",
    "modified_at": "2020-03-31T19:04:34.150Z"
  }
}