{
  "header": {
    "description": "Karaoke Mugen Tag File",
    "version": 1
  },
  "tag": {
    "i18n": {
      "eng": "Die Another Day",
      "fre": "Meurs un autre jour"
    },
    "name": "Die Another Day",
    "repository": "kara.moe",
    "tid": "51d2f1d3-1915-4c45-aa7b-9ce3c5f89c39",
    "types": [
      "series",
      "1"
    ]
  }
}