{
  "header": {
    "description": "Karaoke Mugen Tag File",
    "version": 1
  },
  "tag": {
    "i18n": {
      "eng": "Die Woody's"
    },
    "name": "Die Woody's",
    "repository": "kara.moe",
    "tid": "94c2848b-93e4-4ec9-bad9-4ba30b93a3a8",
    "types": [
      "singers",
      "2"
    ]
  }
}