{
  "header": {
    "description": "Karaoke Mugen Tag File",
    "version": 1
  },
  "tag": {
    "i18n": {
      "jpn": "Dies irae ~Amantes amentes~",
      "qro": "Dies irae ~Amantes amentes~"
    },
    "modified_at": "2020-03-31T19:04:31.336Z",
    "name": "Dies irae ~Amantes amentes~",
    "repository": "kara.moe",
    "tid": "23a9d891-8316-4f3b-b3d6-3730c95af395",
    "types": [
      "series",
      "1"
    ]
  }
}