{
  "header": {
    "description": "Karaoke Mugen Tag File",
    "version": 1
  },
  "tag": {
    "i18n": {
      "jpn": "Dies irae ~Interview with Kaziklu Bey~",
      "qro": "Dies irae ~Interview with Kaziklu Bey~"
    },
    "modified_at": "2020-03-31T19:04:31.336Z",
    "name": "Dies irae ~Interview with Kaziklu Bey~",
    "repository": "kara.moe",
    "tid": "421a6ce7-e1eb-41a8-92f9-dfe752aa036b",
    "types": [
      "series",
      "1"
    ]
  }
}