{
  "header": {
    "description": "Karaoke Mugen Tag File",
    "version": 1
  },
  "tag": {
    "aliases": [
      "Day of Wrath",
      "Гневът божи",
      "Судный день",
      "디에스 이레"
    ],
    "external_database_ids": {
      "anilist": 21555,
      "myanimelist": 32271,
      "kitsu": 11212
    },
    "i18n": {
      "bul": "Ден на Гняв",
      "eng": "Dies Irae",
      "fre": "Dies Irae",
      "jpn": "Dies irae",
      "qro": "Dies Irae"
    },
    "modified_at": "2020-03-31T19:04:31.337Z",
    "name": "Dies Irae",
    "repository": "kara.moe",
    "tid": "9c56c3e7-34f6-4aa5-900c-655a84744264",
    "types": [
      "series",
      "1",
      "franchises",
      "18"
    ]
  }
}