{
  "header": {
    "description": "Karaoke Mugen Tag File",
    "version": 1
  },
  "tag": {
    "aliases": [
      "Digimon season 4"
    ],
    "external_database_ids": {
      "anilist": 1132,
      "myanimelist": 1132,
      "kitsu": 1014
    },
    "i18n": {
      "jpn": "デジモンフロンティア",
      "qro": "Digimon Frontier"
    },
    "modified_at": "2020-03-31T19:04:31.339Z",
    "name": "Digimon Frontier",
    "repository": "kara.moe",
    "tid": "a152a9bd-faa2-413f-a2b7-f357636f03fd",
    "types": [
      "series",
      "1"
    ]
  }
}