{
  "header": {
    "description": "Karaoke Mugen Tag File",
    "version": 1
  },
  "tag": {
    "i18n": {
      "eng": "Digital Double"
    },
    "name": "Digital Double",
    "repository": "kara.moe",
    "tid": "901f8359-9513-44a4-9e9d-691b9a97c696",
    "types": [
      "creators",
      "4"
    ]
  }
}