{
  "header": {
    "description": "Karaoke Mugen Tag File",
    "version": 1
  },
  "tag": {
    "external_database_ids": {
      "anilist": 97734,
      "kitsu": 11548,
      "myanimelist": 34299
    },
    "i18n": {
      "eng": "Digimon Adventure tri. 4: Loss",
      "qro": "Digimon Adventure tri. 4: Soushitsu",
      "jpn": "デジモンアドベンチャーtri.（トライ）第４章「喪失」",
      "spa": "Digimon Adventure tri Película 4: Pérdida"
    },
    "name": "Digimon Adventure tri. 4: Soushitsu",
    "repository": "kara.moe",
    "tid": "5bfea58a-2428-4ed5-bd90-edca89fd8324",
    "types": [
      "series",
      "1"
    ]
  }
}