{
  "header": {
    "description": "Karaoke Mugen Tag File",
    "version": 1
  },
  "tag": {
    "i18n": {
      "eng": "Dimitri Rougeul"
    },
    "name": "Dimitri Rougeul",
    "tid": "b38dcb17-00c2-407b-8848-8d3a09a78538",
    "types": [
      "singers",
      "2"
    ],
    "repository": "kara.moe",
    "modified_at": "2020-03-31T19:04:34.156Z"
  }
}