{
  "header": {
    "description": "Karaoke Mugen Tag File",
    "version": 1
  },
  "tag": {
    "i18n": {
      "eng": "Dina Ariya"
    },
    "name": "Dina Ariya",
    "repository": "kara.moe",
    "tid": "cf3a6928-0189-4730-ba72-b15777242ab7",
    "types": [
      "creators",
      "4"
    ]
  }
}