{
  "header": {
    "description": "Karaoke Mugen Tag File",
    "version": 1
  },
  "tag": {
    "i18n": {
      "eng": "Dino Cha"
    },
    "modified_at": "2021-01-13T18:12:32.208Z",
    "name": "Dino Cha",
    "repository": "kara.moe",
    "tid": "8d5b0fe1-165d-4356-9ce5-8e604b6b629c",
    "types": [
      "creators",
      "4"
    ]
  }
}