{
  "header": {
    "description": "Karaoke Mugen Tag File",
    "version": 1
  },
  "tag": {
    "i18n": {
      "eng": "Dirge of Cerberus: Final Fantasy VII",
      "jpn": "ダージュ オブ ケルベロス -ファイナルファンタジーVII",
      "qro": "Dirge of Cerberus: Final Fantasy VII"
    },
    "modified_at": "2020-03-31T19:04:31.342Z",
    "name": "Dirge of Cerberus: Final Fantasy VII",
    "repository": "kara.moe",
    "tid": "5cea90f6-c161-4623-9e50-36f65828d67c",
    "types": [
      "series",
      "1"
    ]
  }
}