{
  "header": {
    "description": "Karaoke Mugen Tag File",
    "version": 1
  },
  "tag": {
    "i18n": {
      "eng": "DISH//"
    },
    "modified_at": "2020-08-17T20:02:44.177Z",
    "name": "DISH//",
    "repository": "kara.moe",
    "tid": "da74dc87-2fa3-4e99-bd0c-9f13cb8208da",
    "types": [
      "singers",
      "2"
    ]
  }
}