{
  "header": {
    "description": "Karaoke Mugen Tag File",
    "version": 1
  },
  "tag": {
    "i18n": {
      "eng": "Diz"
    },
    "name": "Diz",
    "repository": "kara.moe",
    "tid": "ec9dc791-f286-4f96-b74d-8bc3190ae113",
    "types": [
      "songwriters",
      "8"
    ]
  }
}