{
  "header": {
    "description": "Karaoke Mugen Tag File",
    "version": 1
  },
  "tag": {
    "i18n": {
      "eng": "DiZeroX"
    },
    "name": "DiZeroX",
    "repository": "kara.moe",
    "tid": "8b1cad20-c50b-4d2b-8510-89b474ccd20e",
    "types": [
      "authors",
      "6"
    ]
  }
}