{
  "header": {
    "description": "Karaoke Mugen Tag File",
    "version": 1
  },
  "tag": {
    "i18n": {
      "eng": "Dizzy Sunfist"
    },
    "name": "Dizzy Sunfist",
    "repository": "kara.moe",
    "tid": "fda73b5a-d8b7-4478-b345-e21d800d4439",
    "types": [
      "singergroups",
      "17"
    ]
  }
}