{
  "header": {
    "description": "Karaoke Mugen Tag File",
    "version": 1
  },
  "tag": {
    "i18n": {
      "eng": "DJ Arts"
    },
    "name": "DJ Arts",
    "repository": "kara.moe",
    "tid": "8c2765a7-9af6-45e9-b736-1616f8cd906c",
    "types": [
      "songwriters",
      "8"
    ]
  }
}