{
  "header": {
    "description": "Karaoke Mugen Tag File",
    "version": 1
  },
  "tag": {
    "i18n": {
      "eng": "DJ Command"
    },
    "name": "DJ Command",
    "repository": "kara.moe",
    "tid": "2b60a43d-4920-4f46-a6f0-125923868ac6",
    "types": [
      "songwriters",
      "8"
    ]
  }
}