{
  "header": {
    "description": "Karaoke Mugen Tag File",
    "version": 1
  },
  "tag": {
    "i18n": {
      "eng": "DJ Chika a.k.a Inherit"
    },
    "name": "DJ Chika a.k.a Inherit",
    "repository": "kara.moe",
    "tid": "914618b5-c030-4305-87f7-f3c0ce2b1338",
    "types": [
      "songwriters",
      "8"
    ]
  }
}