{
  "header": {
    "description": "Karaoke Mugen Tag File",
    "version": 1
  },
  "tag": {
    "i18n": {
      "eng": "DJ Miso Shiru to MC Gohan"
    },
    "name": "DJ Miso Shiru to MC Gohan",
    "tid": "4031d42b-594e-4823-b60c-868242d88063",
    "types": [
      "singers",
      "2",
      "songwriters",
      "8"
    ],
    "repository": "kara.moe",
    "modified_at": "2020-03-31T19:04:34.165Z"
  }
}