{
  "header": {
    "description": "Karaoke Mugen Tag File",
    "version": 1
  },
  "tag": {
    "i18n": {
      "eng": "DJ OZMA"
    },
    "name": "DJ OZMA",
    "tid": "80a5b83d-79ee-430f-9496-0194dec5447a",
    "types": [
      "songwriters",
      "8",
      "singers",
      "2"
    ],
    "repository": "kara.moe",
    "modified_at": "2020-03-31T19:04:34.166Z"
  }
}