{
  "header": {
    "description": "Karaoke Mugen Tag File",
    "version": 1
  },
  "tag": {
    "i18n": {
      "eng": "Djidkay"
    },
    "name": "Djidkay",
    "tid": "1502f6a0-6ae2-4c74-926f-4aa0b8f1e110",
    "types": [
      "authors",
      "6"
    ],
    "repository": "kara.moe",
    "modified_at": "2020-03-31T19:04:34.169Z"
  }
}