{
  "header": {
    "description": "Karaoke Mugen Tag File",
    "version": 1
  },
  "tag": {
    "i18n": {
      "eng": "Djorkaeff"
    },
    "modified_at": "2021-04-04T12:58:31.078Z",
    "name": "Djorkaeff",
    "repository": "kara.moe",
    "tid": "5162806f-99bb-4bce-aa85-13fbffa29ee5",
    "types": [
      "songwriters",
      "8"
    ]
  }
}