{
  "header": {
    "description": "Karaoke Mugen Tag File",
    "version": 1
  },
  "tag": {
    "i18n": {
      "eng": "DK"
    },
    "name": "DK",
    "tid": "f44978b8-40a2-43b6-a5d5-56d8e7f42dfe",
    "types": [
      "songwriters",
      "8"
    ],
    "repository": "kara.moe",
    "modified_at": "2020-03-31T19:04:34.170Z"
  }
}