{
  "header": {
    "description": "Karaoke Mugen Tag File",
    "version": 1
  },
  "tag": {
    "i18n": {
      "eng": "DNA Productions"
    },
    "name": "DNA Productions",
    "tid": "ac5e72d7-1a42-4e3a-9a13-eecf1a8eaa34",
    "types": [
      "creators",
      "4"
    ],
    "repository": "kara.moe",
    "modified_at": "2020-03-31T19:04:34.173Z"
  }
}