{
  "header": {
    "description": "Karaoke Mugen Tag File",
    "version": 1
  },
  "tag": {
    "i18n": {
      "eng": "doa"
    },
    "modified_at": "2020-12-26T17:10:08.803Z",
    "name": "doa",
    "repository": "kara.moe",
    "tid": "5c88db74-63b4-4584-b603-ce40c1a9c080",
    "types": [
      "singers",
      "2"
    ]
  }
}