{
  "header": {
    "description": "Karaoke Mugen Tag File",
    "version": 1
  },
  "tag": {
    "i18n": {
      "eng": "Doberman Infinity"
    },
    "name": "Doberman Infinity",
    "repository": "kara.moe",
    "tid": "39b511bc-2a4c-4e9f-96ba-ee1eb85ad1a8",
    "types": [
      "singergroups",
      "17"
    ]
  }
}