{
  "header": {
    "description": "Karaoke Mugen Tag File",
    "version": 1
  },
  "tag": {
    "i18n": {
      "eng": "DOES"
    },
    "name": "DOES",
    "tid": "5becaf86-0668-478d-8491-57fc1daa0be6",
    "types": [
      "singers",
      "2"
    ],
    "repository": "kara.moe",
    "modified_at": "2020-03-31T19:04:34.175Z"
  }
}