{
  "header": {
    "description": "Karaoke Mugen Tag File",
    "version": 1
  },
  "tag": {
    "i18n": {
      "eng": "Dogengers",
      "jpn": "ドゲンジャーズ",
      "qro": "Dogengers"
    },
    "modified_at": "2020-07-25T15:08:28.981Z",
    "name": "Dogengers",
    "repository": "kara.moe",
    "tid": "7ef2d5ad-d1d2-4f42-90d3-007af0ef1080",
    "types": [
      "series",
      "1"
    ]
  }
}