{
  "header": {
    "description": "Karaoke Mugen Tag File",
    "version": 1
  },
  "tag": {
    "aliases": [
      "DDLC"
    ],
    "i18n": {
      "eng": "Doki Doki Literature Club"
    },
    "modified_at": "2020-03-31T19:04:31.347Z",
    "name": "Doki Doki Literature Club",
    "repository": "kara.moe",
    "tid": "ef83b8a9-4a95-4ada-8aee-2d426a5eea51",
    "types": [
      "series",
      "1"
    ]
  }
}