{
  "header": {
    "description": "Karaoke Mugen Tag File",
    "version": 1
  },
  "tag": {
    "aliases": [
      "Dokonjou Gaeru",
      "Frog With Guts!",
      "The Gutsy Frog",
      "dokonjou"
    ],
    "external_database_ids": {
      "anilist": 5618,
      "myanimelist": 5618,
      "kitsu": 4204
    },
    "i18n": {
      "eng": "Dokonjô Gaeru",
      "jpn": "ど根性ガエル",
      "por": "A Rã Valente",
      "qro": "Dokonjô Gaeru"
    },
    "modified_at": "2020-03-31T19:04:31.349Z",
    "name": "Dokonjô Gaeru",
    "repository": "kara.moe",
    "tid": "d09c234c-233a-4a25-84c2-dfb4d20f6f30",
    "types": [
      "series",
      "1"
    ]
  }
}