{
  "header": {
    "description": "Karaoke Mugen Tag File",
    "version": 1
  },
  "tag": {
    "i18n": {
      "eng": "DOLL$BOXX"
    },
    "name": "DOLL$BOXX",
    "tid": "abe8a8a8-1941-40a5-b159-c2665ee831f2",
    "types": [
      "songwriters",
      "8",
      "singers",
      "2"
    ],
    "repository": "kara.moe",
    "modified_at": "2020-03-31T19:04:34.176Z"
  }
}