{
  "header": {
    "description": "Karaoke Mugen Tag File",
    "version": 1
  },
  "tag": {
    "aliases": [
      "Dome x Kano",
      "Domekano",
      "ドメカノ"
    ],
    "external_database_ids": {
      "anilist": 103139,
      "myanimelist": 37982,
      "kitsu": 41479
    },
    "i18n": {
      "chi": "家有女友",
      "eng": "Domestic Girlfriend",
      "fre": "Domestic Girlfriend – Love X Dilemma",
      "jpn": "ドメスティックな彼女",
      "kor": "도메스틱한 그녀",
      "qro": "Domestic na Kanojo"
    },
    "modified_at": "2020-03-31T19:04:31.350Z",
    "name": "Domestic na Kanojo",
    "repository": "kara.moe",
    "tid": "6e7fe577-d2ca-45a4-9d24-e3c895b317ff",
    "types": [
      "series",
      "1"
    ]
  }
}