{
  "header": {
    "description": "Karaoke Mugen Tag File",
    "version": 1
  },
  "tag": {
    "i18n": {
      "eng": "domerica"
    },
    "modified_at": "2021-06-14T15:32:39.726Z",
    "name": "domerica",
    "repository": "kara.moe",
    "tid": "9330a266-0786-4fbd-838a-a7a96ac5c049",
    "types": [
      "creators",
      "4"
    ]
  }
}