{
  "header": {
    "description": "Karaoke Mugen Tag File",
    "version": 1
  },
  "tag": {
    "aliases": [
      "DOM"
    ],
    "i18n": {
      "eng": "Dominique Rodriguez"
    },
    "name": "Dominique Rodriguez",
    "tid": "c80a491e-18d1-4cc8-8bbf-2c6d27864136",
    "types": [
      "songwriters",
      "8"
    ],
    "repository": "kara.moe",
    "modified_at": "2020-03-31T19:04:34.179Z"
  }
}