{
  "header": {
    "description": "Karaoke Mugen Tag File",
    "version": 1
  },
  "tag": {
    "i18n": {
      "eng": "Dominique Delaby"
    },
    "name": "Dominique Delaby",
    "repository": "kara.moe",
    "tid": "33df7370-c5cf-437c-a506-33a56a742c59",
    "types": [
      "songwriters",
      "8"
    ]
  }
}