{
  "header": {
    "description": "Karaoke Mugen Tag File",
    "version": 1
  },
  "tag": {
    "i18n": {
      "eng": "DOMINO"
    },
    "name": "DOMINO",
    "tid": "cccd5438-018a-42e8-9006-bee88d236719",
    "types": [
      "singers",
      "2",
      "songwriters",
      "8"
    ],
    "repository": "kara.moe",
    "modified_at": "2020-03-31T19:04:34.179Z"
  }
}