{
  "header": {
    "description": "Karaoke Mugen Tag File",
    "version": 1
  },
  "tag": {
    "i18n": {
      "eng": "Don Rockwell"
    },
    "name": "Don Rockwell",
    "tid": "f894a068-b25f-4123-b321-bea41be058aa",
    "types": [
      "songwriters",
      "8"
    ],
    "repository": "kara.moe",
    "modified_at": "2020-03-31T19:04:34.181Z"
  }
}