{
  "header": {
    "description": "Karaoke Mugen Tag File",
    "version": 1
  },
  "tag": {
    "i18n": {
      "eng": "Don Dokken"
    },
    "name": "Don Dokken",
    "repository": "kara.moe",
    "tid": "5af5058a-3d5f-4925-979a-41d455c2e5d9",
    "types": [
      "songwriters",
      "8"
    ],
    "modified_at": "2020-03-31T19:04:34.180Z"
  }
}