{
  "header": {
    "description": "Karaoke Mugen Tag File",
    "version": 1
  },
  "tag": {
    "i18n": {
      "eng": "Don Darryl Rivera"
    },
    "name": "Don Darryl Rivera",
    "repository": "kara.moe",
    "tid": "0c30d14b-e3c8-4359-8b0d-c9dbfcfa07ec",
    "types": [
      "singers",
      "2"
    ]
  }
}