{
  "header": {
    "description": "Karaoke Mugen Tag File",
    "version": 1
  },
  "tag": {
    "i18n": {
      "eng": "Don't Worry Records"
    },
    "name": "Don't Worry Records",
    "repository": "kara.moe",
    "tid": "a61efbb1-6692-4d0d-b0e9-f1896e4d9810",
    "types": [
      "creators",
      "4"
    ]
  }
}