{
  "header": {
    "description": "Karaoke Mugen Tag File",
    "version": 1
  },
  "tag": {
    "aliases": [
      "DK 64"
    ],
    "i18n": {
      "eng": "Donkey Kong 64",
      "jpn": "ドンキーコング64",
      "qro": "Donkey Kong 64"
    },
    "modified_at": "2020-03-31T19:04:31.353Z",
    "name": "Donkey Kong 64",
    "repository": "kara.moe",
    "tid": "cb36ebef-8077-4945-b983-ecc93d48ea1f",
    "types": [
      "series",
      "1"
    ]
  }
}