{
  "header": {
    "description": "Karaoke Mugen Tag File",
    "version": 1
  },
  "tag": {
    "i18n": {
      "eng": "Donkey Kong Country",
      "ger": "Donkey Kongs Abenteuer",
      "hin": "डॉनकी कोंग कंट्री",
      "jpn": "ドンキーコング ",
      "kor": "동키 콩",
      "spa": "El País de Donkey Kong",
      "qro": "Donkey Kong Country"
    },
    "modified_at": "2020-03-31T19:04:31.353Z",
    "name": "Donkey Kong Country",
    "repository": "kara.moe",
    "tid": "0a0bca8b-b158-48b2-9323-176a5fa79b69",
    "types": [
      "series",
      "1"
    ]
  }
}