{
  "header": {
    "description": "Karaoke Mugen Tag File",
    "version": 1
  },
  "tag": {
    "i18n": {
      "eng": "DOOMGUY BOT"
    },
    "name": "DOOMGUY BOT",
    "repository": "kara.moe",
    "tid": "48b40e92-9931-4f56-8e59-aac9bcbe557d",
    "types": [
      "creators",
      "4"
    ]
  }
}