{
  "header": {
    "description": "Karaoke Mugen Tag File",
    "version": 1
  },
  "tag": {
    "i18n": {
      "eng": "Door"
    },
    "name": "Door",
    "repository": "kara.moe",
    "tid": "73cd9cec-e448-4a55-b96f-aa68630fc74b",
    "types": [
      "songwriters",
      "8"
    ]
  }
}