{
  "header": {
    "description": "Karaoke Mugen Tag File",
    "version": 1
  },
  "tag": {
    "i18n": {
      "eng": "Doppelman"
    },
    "name": "Doppelman",
    "repository": "kara.moe",
    "tid": "17592eb8-08f4-46f8-ad77-7263267ba166",
    "types": [
      "songwriters",
      "8"
    ]
  }
}