{
  "header": {
    "description": "Karaoke Mugen Tag File",
    "version": 1
  },
  "tag": {
    "i18n": {
      "eng": "Dora"
    },
    "modified_at": "2021-09-03T21:21:09.323Z",
    "name": "Dora",
    "repository": "kara.moe",
    "tid": "e370c282-9e13-4ad2-a5a8-4b33be3fe4bc",
    "types": [
      "singers",
      "2"
    ]
  }
}