{
  "header": {
    "description": "Karaoke Mugen Tag File",
    "version": 1
  },
  "tag": {
    "i18n": {
      "eng": "Dorian Chandelier"
    },
    "name": "Dorian Chandelier",
    "repository": "kara.moe",
    "tid": "ccddde91-79db-4d1d-a914-6e14c0077f89",
    "types": [
      "singers",
      "2"
    ]
  }
}