{
  "header": {
    "description": "Karaoke Mugen Tag File",
    "version": 1
  },
  "tag": {
    "aliases": [
      "Dororo and Hyakkimaru",
      "どろろ (1969)"
    ],
    "external_database_ids": {
      "anilist": 5760,
      "kitsu": 4266,
      "myanimelist": 5760
    },
    "i18n": {
      "eng": "Dororo (1969)",
      "jpn": "どろろと百鬼丸",
      "qro": "Dororo to Hyakkimaru"
    },
    "name": "Dororo to Hyakkimaru",
    "repository": "kara.moe",
    "tid": "e63bca9f-ea79-4458-b51f-0c614dd827e3",
    "types": [
      "series",
      "1"
    ]
  }
}