{
  "header": {
    "description": "Karaoke Mugen Tag File",
    "version": 1
  },
  "tag": {
    "aliases": [
      "Doubutsu Sentai Zyuohger",
      "Jyuohger",
      "doubutsu"
    ],
    "i18n": {
      "eng": "Dobutsu Sentai Zyuohger",
      "fre": "Dôbutsu Sentai Zyuohger",
      "jpn": "動物戦隊ジュウオウジャ",
      "qro": "Dôbutsu Sentai Zyuohger"
    },
    "modified_at": "2020-03-31T19:04:31.357Z",
    "name": "Dôbutsu Sentai Zyuohger",
    "repository": "kara.moe",
    "tid": "4b088414-068e-4ce3-b6f6-800c3d757208",
    "types": [
      "series",
      "1"
    ]
  }
}