{
  "header": {
    "description": "Karaoke Mugen Tag File",
    "version": 1
  },
  "tag": {
    "i18n": {
      "eng": "Douglas Robb"
    },
    "name": "Douglas Robb",
    "tid": "efeac64c-5167-4c24-9ee2-5dc07992a44e",
    "types": [
      "songwriters",
      "8",
      "singers",
      "2"
    ],
    "repository": "kara.moe",
    "modified_at": "2020-03-31T19:04:34.192Z"
  }
}