{
  "header": {
    "description": "Karaoke Mugen Tag File",
    "version": 1
  },
  "tag": {
    "i18n": {
      "eng": "Doug Rasheed"
    },
    "modified_at": "2021-07-23T21:38:47.567Z",
    "name": "Doug Rasheed",
    "repository": "kara.moe",
    "tid": "d0f5ff76-7ca5-4349-90ec-e48a53c061da",
    "types": [
      "songwriters",
      "8"
    ]
  }
}