{
  "header": {
    "description": "Karaoke Mugen Tag File",
    "version": 1
  },
  "tag": {
    "i18n": {
      "eng": "Dove Attia"
    },
    "name": "Dove Attia",
    "repository": "kara.moe",
    "tid": "6664a8ea-4dd4-416c-aaaf-2739cf34ead6",
    "types": [
      "songwriters",
      "8",
      "creators",
      "4"
    ]
  }
}