{
  "header": {
    "description": "Karaoke Mugen Tag File",
    "version": 1
  },
  "tag": {
    "i18n": {
      "eng": "dovinoxty"
    },
    "modified_at": "2021-09-04T00:02:31.619Z",
    "name": "dovinoxty",
    "repository": "kara.moe",
    "tid": "18fd6fb8-e71a-4abb-bae3-431ebb623fe8",
    "types": [
      "creators",
      "4",
      "authors",
      "6"
    ]
  }
}