{
  "header": {
    "description": "Karaoke Mugen Tag File",
    "version": 1
  },
  "tag": {
    "i18n": {
      "eng": "DOZ"
    },
    "name": "DOZ",
    "repository": "kara.moe",
    "tid": "0a7b2e13-d3ec-4d12-ba1b-bd707788e340",
    "types": [
      "singers",
      "2"
    ],
    "modified_at": "2020-03-31T19:04:34.193Z"
  }
}