{
  "header": {
    "description": "Karaoke Mugen Tag File",
    "version": 1
  },
  "tag": {
    "i18n": {
      "eng": "Dr. Lilcom"
    },
    "modified_at": "2020-08-18T12:21:02.479Z",
    "name": "Dr. Lilcom",
    "repository": "kara.moe",
    "tid": "a38223e7-8e7b-4d33-83c0-a08626ae20b3",
    "types": [
      "songwriters",
      "8"
    ]
  }
}