{
  "header": {
    "description": "Karaoke Mugen Tag File",
    "version": 1
  },
  "tag": {
    "i18n": {
      "eng": "Dr.Usui"
    },
    "name": "Dr.Usui",
    "tid": "1c1db008-4c46-4ef2-a206-7b70a8550357",
    "types": [
      "songwriters",
      "8"
    ],
    "repository": "kara.moe",
    "modified_at": "2020-03-31T19:04:34.194Z"
  }
}