{
  "header": {
    "description": "Karaoke Mugen Tag File",
    "version": 1
  },
  "tag": {
    "i18n": {
      "eng": "Dragalia Lost",
      "jpn": "ドラガリアロスト",
      "qro": "Dragalia Lost"
    },
    "modified_at": "2020-03-31T19:04:31.362Z",
    "name": "Dragalia Lost",
    "repository": "kara.moe",
    "tid": "cc3f210c-5b01-4303-9528-c743624cbc55",
    "types": [
      "series",
      "1"
    ]
  }
}