{
  "header": {
    "description": "Karaoke Mugen Tag File",
    "version": 1
  },
  "tag": {
    "aliases": [
      "7 viên ngọc rồng",
      "DB",
      "DBTV",
      "Dragonball",
      "Dragonball TV",
      "Ejder Topu",
      "Esferas del Dragón",
      "Globurile Dragonului",
      "Sfere del drago",
      "Smocze Kule",
      "Драконий жемчуг",
      "драконова топка",
      "ドラゴンボール"
    ],
    "external_database_ids": {
      "anilist": 223,
      "myanimelist": 223,
      "kitsu": 199
    },
    "i18n": {
      "ara": "دراغون بول",
      "cat": "Bola de Drac",
      "chi": "龙珠",
      "dan": "Dragon Ball",
      "eng": "Dragon Ball",
      "fre": "Dragon Ball",
      "ger": "Dragon Ball",
      "glg": "As Bolas Máxicas",
      "gre": "Dragon Ball",
      "hrv": "Zmajeva Kugla",
      "hun": "Dragon Ball",
      "ita": "Dragon Ball",
      "jpn": "ドラゴンボール",
      "kor": "드래곤볼",
      "lit": "Drakonų kovos",
      "pol": "Dragon Ball",
      "por": "Dragon Ball",
      "rum": "Dragon Ball",
      "slv": "Dragonball",
      "spa": "Dragon Ball",
      "srp": "Zmajeva kugla",
      "tha": "ดราก้อนบอล",
      "tur": "Dragon Ball",
      "qro": "Dragon Ball"
    },
    "modified_at": "2020-03-31T19:04:31.376Z",
    "name": "Dragon Ball",
    "repository": "kara.moe",
    "tid": "c46f5c45-e15a-41b3-a3e6-a1ac023116e1",
    "types": [
      "series",
      "1",
      "franchises",
      "18"
    ]
  }
}