{
  "header": {
    "description": "Karaoke Mugen Tag File",
    "version": 1
  },
  "tag": {
    "aliases": [
      "Dragon Ball Z: Super Battle in the World",
      "Thales",
      "Tullece",
      "chikyu",
      "chokessen"
    ],
    "external_database_ids": {
      "anilist": 896,
      "myanimelist": 896,
      "kitsu": 796
    },
    "i18n": {
      "eng": "Dragon Ball Z: The Tree of Might",
      "fre": "Dragon Ball Z: Le combat fratricide",
      "jpn": "ドラゴンボールZゼット 地球まるごと超決戦",
      "qro": "Dragon Ball Z Movie 3: Chikyū Marugoto Chōkessen"
    },
    "modified_at": "2020-03-31T19:04:31.371Z",
    "name": "Dragon Ball Z Movie 3: Chikyū Marugoto Chōkessen",
    "repository": "kara.moe",
    "tid": "1281b381-b21e-49a3-a71d-3a87231c21f8",
    "types": [
      "series",
      "1"
    ]
  }
}