{
  "header": {
    "description": "Karaoke Mugen Tag File",
    "version": 1
  },
  "tag": {
    "i18n": {
      "eng": "Dragon Ball GT: Final Bout",
      "fre": "Dragon Ball Z : Final Bout",
      "jpn": "ドラゴンボール ファイナルバウト",
      "qro": "Dragon Ball: Final Bout"
    },
    "modified_at": "2020-03-31T19:04:31.362Z",
    "name": "Dragon Ball: Final Bout",
    "repository": "kara.moe",
    "tid": "95e2883e-7b35-45ea-a88f-6462ab7f55db",
    "types": [
      "series",
      "1"
    ]
  }
}