{
  "header": {
    "description": "Karaoke Mugen Tag File",
    "version": 1
  },
  "tag": {
    "aliases": [
      "Broly",
      "DBZ 8",
      "Dragon Ball Z: Burn Up!! A Close Fight - A Violent Fight - A Super Fierce Fight"
    ],
    "external_database_ids": {
      "anilist": 901,
      "myanimelist": 901,
      "kitsu": 801
    },
    "i18n": {
      "eng": "Dragon Ball Z: Broly – The Legendary Super Saiyan",
      "fre": "Dragon Ball Z : Broly le super guerrier",
      "jpn": "ドラゴンボールZ 燃えつきろ!!熱戦・烈戦・超激戦",
      "qro": "Dragon Ball Z Movie 8: Moetsukiro!! Nessen Ressen Chougekisen"
    },
    "modified_at": "2020-03-31T19:04:31.374Z",
    "name": "Dragon Ball Z Movie 8: Moetsukiro!! Nessen Ressen Chougekisen",
    "repository": "kara.moe",
    "tid": "09fcb9b5-cdd0-44b9-996e-8e022068b9f3",
    "types": [
      "series",
      "1"
    ]
  }
}