{
  "header": {
    "description": "Karaoke Mugen Tag File",
    "version": 1
  },
  "tag": {
    "i18n": {
      "eng": "Drakengard 3",
      "jpn": "ドラッグオンドラグーン3",
      "qro": "Drag-On Dragoon 3"
    },
    "name": "Drakengard 3",
    "repository": "kara.moe",
    "tid": "4f05686e-28b8-4146-9abe-3bff5e970a8e",
    "types": [
      "series",
      "1"
    ]
  }
}