{
  "header": {
    "description": "Karaoke Mugen Tag File",
    "version": 1
  },
  "tag": {
    "i18n": {
      "eng": "Drakengard",
      "jpn": "ドラッグオンドラグーン",
      "qro": "Drag-On Dragoon"
    },
    "name": "Drakengard",
    "repository": "kara.moe",
    "tid": "e22de966-45bf-4693-b95a-a4a16408e984",
    "types": [
      "franchises",
      "18"
    ]
  }
}