{
  "header": {
    "description": "Karaoke Mugen Tag File",
    "version": 1
  },
  "tag": {
    "i18n": {
      "eng": "DREAMFIELD"
    },
    "name": "DREAMFIELD",
    "tid": "b1115d48-d19e-4105-bc9a-fd71825ca1fb",
    "types": [
      "songwriters",
      "8"
    ],
    "repository": "kara.moe",
    "modified_at": "2020-03-31T19:04:34.198Z"
  }
}