{
  "header": {
    "description": "Karaoke Mugen Tag File",
    "version": 1
  },
  "tag": {
    "i18n": {
      "eng": "DreamSoft"
    },
    "name": "DreamSoft",
    "tid": "1a501080-9278-4ab3-bff6-53a16a84ee30",
    "types": [
      "creators",
      "4"
    ],
    "repository": "kara.moe",
    "modified_at": "2020-03-31T19:04:34.199Z"
  }
}