{
  "header": {
    "description": "Karaoke Mugen Tag File",
    "version": 1
  },
  "tag": {
    "i18n": {
      "eng": "Dreaming"
    },
    "name": "Dreaming",
    "tid": "ac599707-d94b-4b70-b9bb-524d72e36d50",
    "types": [
      "singers",
      "2"
    ],
    "repository": "kara.moe",
    "modified_at": "2020-03-31T19:04:34.199Z"
  }
}