{
  "header": {
    "description": "Karaoke Mugen Tag File",
    "version": 1
  },
  "tag": {
    "i18n": {
      "eng": "Dreamcatcher"
    },
    "name": "Dreamcatcher",
    "repository": "kara.moe",
    "tid": "f2c35a04-6f78-42cb-bdd5-6b530f2ce11c",
    "types": [
      "singergroups",
      "17"
    ]
  }
}