{
  "header": {
    "description": "Karaoke Mugen Tag File",
    "version": 1
  },
  "tag": {
    "i18n": {
      "eng": "Drive"
    },
    "name": "Drive",
    "tid": "f4e4afb2-befa-4d3c-850f-96bb44f25cf9",
    "types": [
      "creators",
      "4"
    ],
    "repository": "kara.moe",
    "modified_at": "2020-03-31T19:04:34.201Z"
  }
}