{
  "header": {
    "description": "Karaoke Mugen Tag File",
    "version": 1
  },
  "tag": {
    "i18n": {
      "chi": "唐老鴨俱樂部",
      "eng": "DuckTales (1987)",
      "fre": "La Bande à Picsou (1987)",
      "ger": "DuckTales – Neues aus Entenhausen",
      "hin": "डक टेल्स",
      "ita": "DuckTales - Avventure di paperi",
      "spa": "Patoaventuras"
    },
    "modified_at": "2020-03-31T19:04:31.383Z",
    "name": "DuckTales (1987)",
    "repository": "kara.moe",
    "tid": "47d21601-221b-4e27-b591-3033e7db806c",
    "types": [
      "series",
      "1"
    ]
  }
}