{
  "header": {
    "description": "Karaoke Mugen Tag File",
    "version": 1
  },
  "tag": {
    "aliases": [
      "デュエル・マスターズ キング!"
    ],
    "i18n": {
      "eng": "Duel Masters King!",
      "jpn": "DUEL MASTERS キング!"
    },
    "name": "Duel Masters King!",
    "repository": "kara.moe",
    "tid": "0a940abb-9463-436f-8b82-04a67c42c56a",
    "types": [
      "series",
      "1"
    ]
  }
}