{
  "header": {
    "description": "Karaoke Mugen Tag File",
    "version": 1
  },
  "tag": {
    "i18n": {
      "eng": "Duffy"
    },
    "name": "Duffy",
    "repository": "kara.moe",
    "tid": "7703aa21-19eb-4f1f-bc09-de669ec1d8cd",
    "types": [
      "singers",
      "2"
    ]
  }
}