{
  "header": {
    "description": "Karaoke Mugen Tag File",
    "version": 1
  },
  "tag": {
    "i18n": {
      "eng": "Duke Aces"
    },
    "name": "Duke Aces",
    "tid": "734b82fb-f26c-4e94-ae55-933b81960d54",
    "types": [
      "singers",
      "2"
    ],
    "repository": "kara.moe",
    "modified_at": "2020-03-31T19:04:34.207Z"
  }
}