{
  "header": {
    "description": "Karaoke Mugen Tag File",
    "version": 1
  },
  "tag": {
    "aliases": [
      "Dungeon ni Deai o Motomeru no wa Machigatte Iru Darouka: Familia Myth II",
      "ダンまち",
      "darouka"
    ],
    "external_database_ids": {
      "anilist": 101167,
      "myanimelist": 37347,
      "kitsu": 40599
    },
    "i18n": {
      "ara": "ل من الخطأ الإيقاع بفتياتٍ في ديماس؟ II",
      "chi": "在地下城寻求邂逅是否搞错了什么Ⅱ",
      "eng": "Is It Wrong to Try to Pick Up Girls in a Dungeon? II",
      "fre": "DanMachi : Familia Myth II",
      "jpn": "ダンジョンに出会いを求めるのは間違っているだろうか FAMILIA MYTH II",
      "kor": "던전에서 만남을 추구하면 안 되는 걸까? 2",
      "qro": "Dungeon ni Deai wo Motomeru no wa Machigatte Iru Darôka: Familia Myth II"
    },
    "name": "Dungeon ni Deai o Motomeru no wa Machigatte Iru Darôka: Familia Myth II",
    "repository": "kara.moe",
    "tid": "25c6e8b8-5a68-4db0-9fdd-be7b58e8ede1",
    "types": [
      "series",
      "1"
    ]
  }
}