{
  "header": {
    "description": "Karaoke Mugen Tag File",
    "version": 1
  },
  "tag": {
    "external_database_ids": {
      "anilist": 155211,
      "kitsu": 46556,
      "myanimelist": 53111
    },
    "i18n": {
      "eng": "Is It Wrong to Try to Pick Up Girls in a Dungeon? IV - Part 2",
      "jpn": "ダンジョンに出会いを求めるのは間違っているだろうかⅣ 深章 厄災篇",
      "qro": "Dungeon ni Deai o Motomeru no wa Machigatteiru Darôka IV: Fuka Shou - Yakusai-hen",
      "fre": "DanMachi : Familia Myth IV - Partie 2"
    },
    "name": "Dungeon ni Deai o Motomeru no wa Machigatteiru Darôka IV: Fuka Shou - Yakusai-hen",
    "repository": "kara.moe",
    "tid": "5909c7ca-ba89-47ae-834c-ddaf726a1286",
    "types": [
      "series",
      "1"
    ]
  }
}