{
  "header": {
    "description": "Karaoke Mugen Tag File",
    "version": 1
  },
  "tag": {
    "external_database_ids": {
      "anilist": 21068,
      "myanimelist": 30191,
      "kitsu": 10707
    },
    "i18n": {
      "eng": "Durarara!! x2 Shou: My Heart Is in the Pattern of a Hot Pot",
      "jpn": "デュラララ!!×２ 承　第4.5話「私の心は鍋模様」",
      "qro": "Durarara!!x2 Shô: Watashi no Kokoro wa Nabe Moyô"
    },
    "name": "Durarara!!x2 Shô: Watashi no Kokoro wa Nabe Moyô",
    "repository": "kara.moe",
    "tid": "d1d9e7df-61d4-40a2-b8a2-11dd965c5b59",
    "types": [
      "series",
      "1"
    ]
  }
}