{
  "header": {
    "description": "Karaoke Mugen Tag File",
    "version": 1
  },
  "tag": {
    "i18n": {
      "eng": "DUSTCELL"
    },
    "name": "DUSTCELL",
    "repository": "kara.moe",
    "tid": "fbc54beb-3c1a-450f-9f6f-936e29aed43e",
    "types": [
      "singers",
      "2"
    ]
  }
}