{
  "header": {
    "description": "Karaoke Mugen Tag File",
    "version": 1
  },
  "tag": {
    "i18n": {
      "eng": "Dynamord"
    },
    "name": "Dynamord",
    "tid": "c22b857f-ad82-4417-b9e1-697d690fa47b",
    "types": [
      "creators",
      "4"
    ],
    "repository": "kara.moe",
    "modified_at": "2020-03-31T19:04:34.213Z"
  }
}