{
  "header": {
    "description": "Karaoke Mugen Tag File",
    "version": 1
  },
  "tag": {
    "i18n": {
      "eng": "E&G Films"
    },
    "name": "E&G Films",
    "tid": "0822b053-2365-4998-bb04-b09b5f8c4e54",
    "types": [
      "creators",
      "4"
    ],
    "repository": "kara.moe",
    "modified_at": "2020-03-31T19:04:34.215Z"
  }
}