{
  "header": {
    "description": "Karaoke Mugen Tag File",
    "version": 1
  },
  "tag": {
    "aliases": [
      "EO"
    ],
    "external_database_ids": {
      "anilist": 236,
      "myanimelist": 236,
      "kitsu": 211
    },
    "i18n": {
      "dut": "E's Otherwise",
      "eng": "E's Otherwise",
      "fre": "E's Otherwise",
      "ger": "E's Otherwise",
      "jpn": "エスアザーワイズ",
      "qro": "E's Otherwise"
    },
    "modified_at": "2020-06-21T23:45:31.966Z",
    "name": "E's Otherwise",
    "repository": "kara.moe",
    "tid": "932cc315-edf4-4e5d-9856-7507c682bec3",
    "types": [
      "series",
      "1"
    ]
  }
}