{
  "header": {
    "description": "Karaoke Mugen Tag File",
    "version": 1
  },
  "tag": {
    "i18n": {
      "eng": "E.Kida"
    },
    "name": "E.Kida",
    "tid": "3b874305-84b6-423e-850b-debacab9b602",
    "types": [
      "songwriters",
      "8",
      "singers",
      "2"
    ],
    "repository": "kara.moe",
    "modified_at": "2020-03-31T19:04:34.217Z"
  }
}