{
  "header": {
    "description": "Karaoke Mugen Tag File",
    "version": 1
  },
  "tag": {
    "i18n": {
      "eng": "E5TATIK"
    },
    "modified_at": "2021-09-06T20:43:38.540Z",
    "name": "E5TATIK",
    "repository": "kara.moe",
    "tid": "feeeb0b7-2851-462f-b483-b69be9f60b68",
    "types": [
      "songwriters",
      "8",
      "creators",
      "4"
    ]
  }
}