{
  "header": {
    "description": "Karaoke Mugen Tag File",
    "version": 1
  },
  "tag": {
    "i18n": {
      "eng": "EasyPop"
    },
    "name": "EasyPop",
    "repository": "kara.moe",
    "tid": "a06a7380-d2a5-4939-b04e-187d7fe15b8e",
    "types": [
      "songwriters",
      "8"
    ]
  }
}