{
  "header": {
    "description": "Karaoke Mugen Tag File",
    "version": 1
  },
  "tag": {
    "i18n": {
      "eng": "EB-TRAIN"
    },
    "name": "EB-TRAIN",
    "tid": "43dede21-66ae-4556-a9a0-b2b930ae1a5a",
    "types": [
      "songwriters",
      "8"
    ],
    "repository": "kara.moe",
    "modified_at": "2020-03-31T19:04:34.222Z"
  }
}