{
  "header": {
    "description": "Karaoke Mugen Tag File",
    "version": 1
  },
  "tag": {
    "i18n": {
      "eng": "Eddi Josif"
    },
    "name": "Eddi Josif",
    "repository": "kara.moe",
    "tid": "292d6be7-7993-43c4-90a3-e0699b9b38a7",
    "types": [
      "songwriters",
      "8"
    ]
  }
}