{
  "header": {
    "description": "Karaoke Mugen Tag File",
    "version": 1
  },
  "tag": {
    "i18n": {
      "eng": "Eddie Warner"
    },
    "modified_at": "2021-01-15T23:12:24.871Z",
    "name": "Eddie Warner",
    "repository": "kara.moe",
    "tid": "6ad6c045-059e-4d41-b619-0cdffeeb41f7",
    "types": [
      "songwriters",
      "8"
    ]
  }
}