{
  "header": {
    "description": "Karaoke Mugen Tag File",
    "version": 1
  },
  "tag": {
    "aliases": [
      "Claude Moine"
    ],
    "i18n": {
      "eng": "Eddy Mitchell"
    },
    "modified_at": "2021-09-12T11:18:46.594Z",
    "name": "Eddy Mitchell",
    "repository": "kara.moe",
    "tid": "ece96c1d-3256-4167-8032-837e356911b6",
    "types": [
      "songwriters",
      "8",
      "singers",
      "2"
    ]
  }
}