{
  "header": {
    "description": "Karaoke Mugen Tag File",
    "version": 1
  },
  "tag": {
    "i18n": {
      "eng": "Eddy Murphy"
    },
    "modified_at": "2020-08-10T14:04:11.997Z",
    "name": "Eddy Murphy",
    "repository": "kara.moe",
    "tid": "ef968d49-b9c1-4899-8997-bcfca04cc133",
    "types": [
      "singers",
      "2"
    ]
  }
}