{
  "header": {
    "description": "Karaoke Mugen Tag File",
    "version": 1
  },
  "tag": {
    "aliases": [
      "3DENs BOwY",
      "EB",
      "エデンズ ボゥイ"
    ],
    "external_database_ids": {
      "anilist": 1189,
      "myanimelist": 1189,
      "kitsu": 1069
    },
    "i18n": {
      "eng": "Eden's Bowy",
      "jpn": "ヱデンズボゥイ",
      "qro": "Eden's Bowy"
    },
    "modified_at": "2020-03-31T19:04:31.391Z",
    "name": "Eden's Bowy",
    "repository": "kara.moe",
    "tid": "2d3ab5ae-b566-4bee-b251-5a709f60e662",
    "types": [
      "series",
      "1"
    ]
  }
}