{
  "header": {
    "description": "Karaoke Mugen Tag File",
    "version": 1
  },
  "tag": {
    "i18n": {
      "eng": "EDEN"
    },
    "name": "EDEN",
    "repository": "kara.moe",
    "tid": "602c9ee6-2971-4bf3-a8a8-44eb7bbacf94",
    "types": [
      "songwriters",
      "8"
    ]
  }
}