{
  "header": {
    "description": "Karaoke Mugen Tag File",
    "version": 1
  },
  "tag": {
    "i18n": {
      "eng": "Edoga-Sullivan",
      "jpn": "エドガー・サリヴァン",
      "qro": "Edoga-Sullivan"
    },
    "name": "Edoga-Sullivan",
    "tid": "03c9110c-311c-4f26-9609-d80432e90590",
    "types": [
      "singers",
      "2"
    ],
    "repository": "kara.moe",
    "modified_at": "2020-03-31T19:04:34.229Z"
  }
}