{
  "header": {
    "description": "Karaoke Mugen Tag File",
    "version": 1
  },
  "tag": {
    "i18n": {
      "eng": "Édouard Khil"
    },
    "name": "Édouard Khil",
    "tid": "2990afac-1680-499a-b128-05e63891be51",
    "types": [
      "singers",
      "2"
    ],
    "repository": "kara.moe",
    "modified_at": "2020-03-31T19:04:34.230Z"
  }
}