{
  "header": {
    "description": "Karaoke Mugen Tag File",
    "version": 1
  },
  "tag": {
    "i18n": {
      "eng": "Edwin Birdsong"
    },
    "modified_at": "2021-02-22T20:29:41.309Z",
    "name": "Edwin Birdsong",
    "repository": "kara.moe",
    "tid": "af887f44-004e-416d-98c3-741d1661926a",
    "types": [
      "songwriters",
      "8"
    ]
  }
}