{
  "header": {
    "description": "Karaoke Mugen Tag File",
    "version": 1
  },
  "tag": {
    "aliases": [
      "エフ"
    ],
    "i18n": {
      "eng": "ef"
    },
    "name": "ef",
    "repository": "kara.moe",
    "tid": "96977ff6-71eb-433d-ae2f-69b0c927d085",
    "types": [
      "franchises",
      "18"
    ]
  }
}