{
  "header": {
    "description": "Karaoke Mugen Tag File",
    "version": 1
  },
  "tag": {
    "i18n": {
      "eng": "Eicca Toppinen"
    },
    "name": "Eicca Toppinen",
    "repository": "kara.moe",
    "tid": "f7c426d5-97fc-4322-bbcf-3942a992950b",
    "types": [
      "songwriters",
      "8"
    ]
  }
}