{
  "header": {
    "description": "Karaoke Mugen Tag File",
    "version": 1
  },
  "tag": {
    "external_database_ids": {
      "anilist": 21137,
      "kitsu": 10133,
      "myanimelist": 28511
    },
    "i18n": {
      "eng": "Eiga Precure All Stars: Haru no Carnival",
      "jpn": "映画プリキュアオールスターズ 春のカーニバル♪",
      "qro": "Eiga Precure All Stars: Haru no Carnival"
    },
    "name": "Eiga Precure All Stars: Haru no Carnival",
    "repository": "kara.moe",
    "tid": "3b38aef3-5f92-411d-94c5-1bf26c35210f",
    "types": [
      "series",
      "1"
    ]
  }
}