{
  "header": {
    "description": "Karaoke Mugen Tag File",
    "version": 1
  },
  "tag": {
    "aliases": [
      "K-On Movie",
      "eiga keion",
      "keion movie"
    ],
    "external_database_ids": {
      "anilist": 9617,
      "myanimelist": 9617,
      "kitsu": 5810
    },
    "i18n": {
      "eng": "K-On! The Movie",
      "fre": "K-On! Le film",
      "ger": "K-ON! - The Movie",
      "jpn": "映画 けいおん!",
      "kor": "더 무비 케이온",
      "qro": "Eiga K-On!"
    },
    "modified_at": "2020-04-29T20:28:58.950Z",
    "name": "Eiga K-On!",
    "repository": "kara.moe",
    "tid": "28212419-5983-4b5f-979c-fc93b9d8a145",
    "types": [
      "series",
      "1"
    ]
  }
}