{
  "header": {
    "description": "Karaoke Mugen Tag File",
    "version": 1
  },
  "tag": {
    "i18n": {
      "eng": "Eiga Futari wa Precure Splash★Star: Tick Tack Kiki Ippatsu!"
    },
    "name": "Eiga Futari wa Precure Splash★Star: Tick Tack Kiki Ippatsu!",
    "repository": "kara.moe",
    "tid": "5587f05b-d8f4-4376-a916-fee1170e7135",
    "types": [
      "series",
      "1"
    ]
  }
}