{
  "header": {
    "description": "Karaoke Mugen Tag File",
    "version": 1
  },
  "tag": {
    "aliases": [
      "Ichinichi"
    ],
    "external_database_ids": {
      "anilist": 112612,
      "kitsu": 43057,
      "myanimelist": 40587
    },
    "i18n": {
      "jpn": "映画プリキュアミラクルリープ みんなとの不思議な1日",
      "qro": "Precure Miracle Leap Movie: Minna to no Fushigi na 1-nichi"
    },
    "name": "Eiga Precure Miracle Leap: Minna to Fushigi na 1-nichi",
    "repository": "kara.moe",
    "tid": "31d88451-57ec-46de-bf59-f7034aad1c37",
    "types": [
      "series",
      "1"
    ]
  }
}