{
  "header": {
    "description": "Karaoke Mugen Tag File",
    "version": 1
  },
  "tag": {
    "aliases": [
      "precure17 movie"
    ],
    "external_database_ids": {
      "anilist": 121026,
      "kitsu": 44929,
      "myanimelist": 42422
    },
    "i18n": {
      "eng": "Eiga Healin' Good♡Precure: Yume no Machi de Kyun! tto GoGo! Dai Henshin!!",
      "jpn": "映画ヒーリングっど♥プリキュア ゆめのまちでキュン! っとGoGo! 大変身!!",
      "qro": "Eiga Healin' Good♡Precure: Yume no Machi de Kyun! tto GoGo! Dai Henshin!!"
    },
    "name": "Eiga Healin' Good♡Precure: Yume no Machi de Kyun! tto GoGo! Dai Henshin!!",
    "repository": "kara.moe",
    "tid": "27935237-0097-444e-be8b-405116e15ae6",
    "types": [
      "series",
      "1"
    ]
  }
}