{
  "header": {
    "description": "Karaoke Mugen Tag File",
    "version": 1
  },
  "tag": {
    "i18n": {
      "eng": "Eiga Precure All Stars F"
    },
    "name": "Eiga Precure All Stars F",
    "repository": "kara.moe",
    "tid": "eb056284-0e20-4ede-ad06-c66386456c11",
    "types": [
      "series",
      "1"
    ]
  }
}