{
  "header": {
    "description": "Karaoke Mugen Tag File",
    "version": 1
  },
  "tag": {
    "i18n": {
      "eng": "Eiji Nakayama"
    },
    "name": "Eiji Nakayama",
    "tid": "817a9cb7-27ad-4639-8050-e4d00e9c6a2e",
    "types": [
      "songwriters",
      "8"
    ],
    "repository": "kara.moe",
    "modified_at": "2020-03-31T19:04:34.241Z"
  }
}