{
  "header": {
    "description": "Karaoke Mugen Tag File",
    "version": 1
  },
  "tag": {
    "i18n": {
      "eng": "Eiji Momoki"
    },
    "modified_at": "2020-10-03T00:55:51.477Z",
    "name": "Eiji Momoki",
    "repository": "kara.moe",
    "tid": "8ed5eb65-eb93-4cd9-bf1a-0094967b6ba5",
    "types": [
      "songwriters",
      "8"
    ]
  }
}