{
  "header": {
    "description": "Karaoke Mugen Tag File",
    "version": 1
  },
  "tag": {
    "i18n": {
      "eng": "Eikichi Kawasaki"
    },
    "modified_at": "2020-08-23T16:06:38.894Z",
    "name": "Eikichi Kawasaki",
    "repository": "kara.moe",
    "tid": "57110718-9a78-4845-a21a-7e0f060e9fbd",
    "types": [
      "songwriters",
      "8"
    ]
  }
}