{
  "header": {
    "description": "Karaoke Mugen Tag File",
    "version": 1
  },
  "tag": {
    "i18n": {
      "qro": "Eiko",
      "jpn": "絵伊子"
    },
    "name": "Eiko",
    "repository": "kara.moe",
    "tid": "ba06dfc0-b5d1-4248-8e1a-d3111c9480c8",
    "types": [
      "songwriters",
      "8"
    ]
  }
}