{
  "header": {
    "description": "Karaoke Mugen Tag File",
    "version": 1
  },
  "tag": {
    "i18n": {
      "eng": "Eir Aoi"
    },
    "modified_at": "2020-07-26T15:06:28.686Z",
    "name": "Eir Aoi",
    "repository": "kara.moe",
    "tid": "7f76a2db-a80e-44af-9495-fdb584fa748c",
    "types": [
      "singers",
      "2",
      "songwriters",
      "8"
    ]
  }
}