{
  "header": {
    "description": "Karaoke Mugen Tag File",
    "version": 1
  },
  "tag": {
    "i18n": {
      "eng": "Eiri Ayano"
    },
    "name": "Eiri Ayano",
    "repository": "kara.moe",
    "tid": "2ae44a01-9c1d-4b71-9439-7d555a401ae4",
    "types": [
      "singers",
      "2"
    ]
  }
}