{
  "header": {
    "description": "Karaoke Mugen Tag File",
    "version": 1
  },
  "tag": {
    "aliases": [
      "Eiyuu Densetsu: Ao no Kiseki",
      "Path of Azure",
      "TLoH",
      "The Legend of Heroes: Trails of Azure",
      "eiyuu"
    ],
    "i18n": {
      "eng": "The Legend of Heroes: Ao no Kiseki",
      "jpn": "英雄伝説 碧の軌跡",
      "qro": "Eiyû Densetsu: Ao no Kiseki"
    },
    "modified_at": "2020-03-31T19:04:31.395Z",
    "name": "Eiyû Densetsu: Ao no Kiseki",
    "repository": "kara.moe",
    "tid": "b70f5cc9-e605-4a9e-9593-080ee380e0f7",
    "types": [
      "series",
      "1"
    ]
  }
}