{
  "header": {
    "description": "Karaoke Mugen Tag File",
    "version": 1
  },
  "tag": {
    "aliases": [
      "Eiyuu Densetsu Sora no Kiseki Second Chapter",
      "TLoH",
      "eiyuu"
    ],
    "i18n": {
      "eng": "The Legend of Heroes: Trails in the Sky Second Chapter",
      "jpn": "英雄伝説VI 空の軌跡SC",
      "qro": "Eiyû Densetsu: Sora no Kiseki Second Chapter"
    },
    "modified_at": "2020-03-31T19:04:31.397Z",
    "name": "Eiyû Densetsu: Sora no Kiseki Second Chapter",
    "repository": "kara.moe",
    "tid": "b644a616-9b77-4065-bb6e-97f20dcd0455",
    "types": [
      "series",
      "1"
    ]
  }
}