{
  "header": {
    "description": "Karaoke Mugen Tag File",
    "version": 1
  },
  "tag": {
    "i18n": {
      "eng": "el"
    },
    "modified_at": "2020-09-19T16:06:19.516Z",
    "name": "el",
    "repository": "kara.moe",
    "tid": "3140e4d0-c42f-49f7-968b-7da413a55ab7",
    "types": [
      "songwriters",
      "8"
    ]
  }
}