{
  "header": {
    "description": "Karaoke Mugen Tag File",
    "version": 1
  },
  "tag": {
    "aliases": [
      "Michael Shmuel Elboim",
      "מיכאל שמואל אלבוים"
    ],
    "i18n": {
      "eng": "Elboim Mimic"
    },
    "name": "Elboim Mimic",
    "repository": "kara.moe",
    "tid": "b6287817-febc-48ef-b8ed-b35306dd2c7a",
    "types": [
      "singers",
      "2",
      "creators",
      "4",
      "songwriters",
      "8"
    ]
  }
}