{
  "header": {
    "description": "Karaoke Mugen Tag File",
    "version": 1
  },
  "tag": {
    "external_database_ids": {
      "anilist": 21677,
      "myanimelist": 32878,
      "kitsu": 11894
    },
    "i18n": {
      "eng": "elDLIVE",
      "jpn": "エルドライブ 【ēlDLIVE】",
      "qro": "ēlDLIVE"
    },
    "modified_at": "2020-03-31T19:04:31.401Z",
    "name": "ēlDLIVE",
    "repository": "kara.moe",
    "tid": "ce5a11ff-1afe-4f2c-bd6d-36a10460c8c3",
    "types": [
      "series",
      "1"
    ]
  }
}