{
  "header": {
    "description": "Karaoke Mugen Tag File",
    "version": 1
  },
  "tag": {
    "i18n": {
      "eng": "Elea"
    },
    "name": "Elea",
    "tid": "13261a54-eb2b-4536-9cfd-d0ee073042d4",
    "types": [
      "singers",
      "2"
    ],
    "repository": "kara.moe",
    "modified_at": "2020-03-31T19:04:34.251Z"
  }
}