{
  "header": {
    "description": "Karaoke Mugen Tag File",
    "version": 1
  },
  "tag": {
    "aliases": [
      "Element Hunters",
      "صائدو العناصر",
      "元素獵人"
    ],
    "external_database_ids": {
      "anilist": 5945,
      "myanimelist": 5945,
      "kitsu": 4357
    },
    "i18n": {
      "eng": "Elementhunters",
      "jpn": "エレメントハンター",
      "kor": "엘리먼트 헌터",
      "qro": "Elementhunters"
    },
    "modified_at": "2020-03-31T19:04:31.401Z",
    "name": "Elementhunters",
    "repository": "kara.moe",
    "tid": "594542fe-e688-46ab-8e01-844e05627cd6",
    "types": [
      "series",
      "1"
    ]
  }
}