{
  "header": {
    "description": "Karaoke Mugen Tag File",
    "version": 1
  },
  "tag": {
    "aliases": [
      "Cazadores de Elfos",
      "I Cacciatori di Elfi",
      "TWHE",
      "TWHE1",
      "Те Кто Охотятся на Эльфов",
      "Тези които ловят елфи",
      "妖精狩猎者"
    ],
    "external_database_ids": {
      "anilist": 1045,
      "myanimelist": 1045,
      "kitsu": 935
    },
    "i18n": {
      "eng": "Those Who Hunt Elves",
      "fre": "Ceux qui chassent des elfes",
      "heb": "אלו הצדים שדונים",
      "jpn": "エルフを狩るモノたち",
      "por": "Caçadores de Elfas",
      "rus": "Ловцы эльфов",
      "spa": "Cazadores de Duendes",
      "qro": "Elf wo Karu Mono-tachi"
    },
    "modified_at": "2020-06-21T23:45:31.966Z",
    "name": "Elf wo Karu Mono-tachi",
    "repository": "kara.moe",
    "tid": "9314017b-a4ea-41b8-8549-4f81fd670a47",
    "types": [
      "series",
      "1"
    ]
  }
}