{
  "header": {
    "description": "Karaoke Mugen Tag File",
    "version": 1
  },
  "tag": {
    "i18n": {
      "eng": "Those Who Hunt Elves",
      "qro": "Elf wo Karu Mono-tachi",
      "fre": "Ceux qui chassent des elfes",
      "jpn": "エルフを狩るモノたち"
    },
    "name": "Elf wo Karu Mono-tachi",
    "repository": "kara.moe",
    "tid": "92628a64-1c1b-4d75-b4be-a107ac8a961d",
    "types": [
      "franchises",
      "18"
    ]
  }
}