{
  "header": {
    "description": "Karaoke Mugen Tag File",
    "version": 1
  },
  "tag": {
    "i18n": {
      "eng": "Elisa Villon"
    },
    "name": "Elisa Villon",
    "tid": "1cb3ba64-7130-493d-8756-1f632b3b29c7",
    "types": [
      "singers",
      "2"
    ],
    "repository": "kara.moe",
    "modified_at": "2020-03-31T19:04:34.257Z"
  }
}