{
  "header": {
    "description": "Karaoke Mugen Tag File",
    "version": 1
  },
  "tag": {
    "i18n": {
      "eng": "ELISA"
    },
    "name": "ELISA",
    "tid": "6dcad7f0-940b-4dbc-bd90-75ad3d82d662",
    "types": [
      "singers",
      "2",
      "songwriters",
      "8"
    ],
    "repository": "kara.moe",
    "modified_at": "2020-03-31T19:04:34.257Z"
  }
}