{
  "header": {
    "description": "Karaoke Mugen Tag File",
    "version": 1
  },
  "tag": {
    "i18n": {
      "eng": "Ellade Bandini"
    },
    "modified_at": "2021-09-18T22:05:47.238Z",
    "name": "Ellade Bandini",
    "repository": "kara.moe",
    "tid": "dc7ca923-cadd-49e1-a405-81aa2a0ebde2",
    "types": [
      "singers",
      "2"
    ]
  }
}