{
  "header": {
    "description": "Karaoke Mugen Tag File",
    "version": 1
  },
  "tag": {
    "i18n": {
      "eng": "Ellen McLain"
    },
    "name": "Ellen McLain",
    "tid": "48c64b08-3394-41c1-a804-a2f26824330e",
    "types": [
      "singers",
      "2"
    ],
    "repository": "kara.moe",
    "modified_at": "2020-03-31T19:04:34.258Z"
  }
}