{
  "header": {
    "description": "Karaoke Mugen Tag File",
    "version": 1
  },
  "tag": {
    "i18n": {
      "eng": "Ellen Berg"
    },
    "name": "Ellen Berg",
    "repository": "kara.moe",
    "tid": "915881b8-7c24-4e28-b2bd-e5337278e357",
    "types": [
      "songwriters",
      "8"
    ]
  }
}