{
  "header": {
    "description": "Karaoke Mugen Tag File",
    "version": 1
  },
  "tag": {
    "i18n": {
      "eng": "Ementi"
    },
    "name": "Ementi",
    "repository": "kara.moe",
    "tid": "f384f483-875a-4f20-9585-a0ed528675a1",
    "types": [
      "authors",
      "6"
    ]
  }
}