{
  "header": {
    "description": "Karaoke Mugen Tag File",
    "version": 1
  },
  "tag": {
    "i18n": {
      "eng": "Emi Evans"
    },
    "name": "Emi Evans",
    "repository": "kara.moe",
    "tid": "8a02fd8b-3b9c-45c4-9a98-511809c26969",
    "types": [
      "songwriters",
      "8",
      "singers",
      "2"
    ]
  }
}