{
  "header": {
    "description": "Karaoke Mugen Tag File",
    "version": 1
  },
  "tag": {
    "i18n": {
      "eng": "Emi Inaba"
    },
    "name": "Emi Inaba",
    "tid": "d0708b4f-3097-4826-a088-a7f2e603a06f",
    "types": [
      "songwriters",
      "8"
    ],
    "repository": "kara.moe",
    "modified_at": "2020-03-31T19:04:34.264Z"
  }
}