{
  "header": {
    "description": "Karaoke Mugen Tag File",
    "version": 1
  },
  "tag": {
    "i18n": {
      "qro": "Emiko Furukawa",
      "jpn": "古川恵実子"
    },
    "name": "Emiko Furukawa",
    "repository": "kara.moe",
    "tid": "7f1b9bff-1910-4485-9683-e6bf6cfe0e00",
    "types": [
      "singers",
      "2"
    ]
  }
}