{
  "header": {
    "description": "Karaoke Mugen Tag File",
    "version": 1
  },
  "tag": {
    "i18n": {
      "eng": "Emiko Maki"
    },
    "name": "Emiko Maki",
    "tid": "286344cd-e94e-4972-8f3b-1dcaa00119f1",
    "types": [
      "songwriters",
      "8"
    ],
    "repository": "kara.moe",
    "modified_at": "2020-03-31T19:04:34.270Z"
  }
}