{
  "header": {
    "description": "Karaoke Mugen Tag File",
    "version": 1
  },
  "tag": {
    "i18n": {
      "eng": "Emori Aya"
    },
    "name": "Emori Aya",
    "repository": "kara.moe",
    "tid": "a8ce4769-f4d8-4ac8-ad84-731f9895ad9f",
    "types": [
      "singers",
      "2"
    ]
  }
}