{
  "header": {
    "description": "Karaoke Mugen Tag File",
    "version": 1
  },
  "tag": {
    "i18n": {
      "eng": "emumelo"
    },
    "modified_at": "2020-05-04T18:13:44.638Z",
    "name": "emumelo",
    "repository": "kara.moe",
    "tid": "4558fdbf-15d4-4bd1-8a19-5ccb3f04f301",
    "types": [
      "creators",
      "4"
    ]
  }
}