{
  "header": {
    "description": "Karaoke Mugen Tag File",
    "version": 1
  },
  "tag": {
    "i18n": {
      "eng": "ena"
    },
    "name": "ena",
    "repository": "kara.moe",
    "tid": "3de506f0-c77f-458b-9506-863f0413ef2f",
    "types": [
      "songwriters",
      "8"
    ]
  }
}