{
  "header": {
    "description": "Karaoke Mugen Tag File",
    "version": 1
  },
  "tag": {
    "i18n": {
      "eng": "ENA☆"
    },
    "name": "ENA☆",
    "tid": "c98105f7-2b23-4ab2-82c8-5b00d16580cb",
    "types": [
      "songwriters",
      "8",
      "singers",
      "2"
    ],
    "repository": "kara.moe",
    "modified_at": "2020-03-31T19:04:34.281Z"
  }
}