{
  "header": {
    "description": "Karaoke Mugen Tag File",
    "version": 1
  },
  "tag": {
    "i18n": {
      "eng": "Enae"
    },
    "name": "Enae",
    "repository": "kara.moe",
    "tid": "0b872d04-94a7-4f11-b2ca-038cfaab3e7b",
    "types": [
      "singers",
      "2"
    ]
  }
}