{
  "header": {
    "description": "Karaoke Mugen Tag File",
    "version": 1
  },
  "tag": {
    "i18n": {
      "eng": "Endcape"
    },
    "modified_at": "2020-08-06T18:02:05.127Z",
    "name": "Endcape",
    "repository": "kara.moe",
    "tid": "17c6d377-9eb1-4630-b901-d2df55df9663",
    "types": [
      "songwriters",
      "8"
    ]
  }
}