{
  "header": {
    "description": "Karaoke Mugen Tag File",
    "version": 1
  },
  "tag": {
    "i18n": {
      "eng": "ENDO.(GEEKS)"
    },
    "name": "ENDO.(GEEKS)",
    "tid": "b8dbedb0-f820-47f7-abef-8fd70f7da334",
    "types": [
      "songwriters",
      "8"
    ],
    "repository": "kara.moe",
    "modified_at": "2020-03-31T19:04:34.283Z"
  }
}