{
  "header": {
    "description": "Karaoke Mugen Tag File",
    "version": 1
  },
  "tag": {
    "i18n": {
      "eng": "ENHYPEN"
    },
    "name": "ENHYPEN",
    "repository": "kara.moe",
    "tid": "21df3d00-70af-46f7-9d0e-01b857198e6b",
    "types": [
      "singergroups",
      "17"
    ]
  }
}