{
  "header": {
    "description": "Karaoke Mugen Tag File",
    "version": 1
  },
  "tag": {
    "i18n": {
      "eng": "Ennio Morricone"
    },
    "name": "Ennio Morricone",
    "tid": "71a1d339-9cf9-42a4-a3d7-152cf94f3afe",
    "types": [
      "songwriters",
      "8"
    ],
    "repository": "kara.moe",
    "modified_at": "2020-03-31T19:04:34.287Z"
  }
}