{
  "header": {
    "description": "Karaoke Mugen Tag File",
    "version": 1
  },
  "tag": {
    "i18n": {
      "eng": "Enon Kawatani"
    },
    "name": "Enon Kawatani",
    "tid": "070fb9bb-d2e5-4a3b-8422-71869515f773",
    "types": [
      "songwriters",
      "8"
    ],
    "repository": "kara.moe",
    "modified_at": "2020-03-31T19:04:34.288Z"
  }
}