{
  "header": {
    "description": "Karaoke Mugen Tag File",
    "version": 1
  },
  "tag": {
    "i18n": {
      "eng": "Enoshima Dentetsu"
    },
    "name": "Enoshima Dentetsu",
    "repository": "kara.moe",
    "tid": "c50fd318-02d4-4827-bd11-665cbeec989f",
    "types": [
      "series",
      "1"
    ]
  }
}