{
  "header": {
    "description": "Karaoke Mugen Tag File",
    "version": 1
  },
  "tag": {
    "i18n": {
      "eng": "Enriqué Fort"
    },
    "name": "Enriqué Fort",
    "tid": "3ad39864-fccb-4181-9ac3-bf2aa30fcaa5",
    "types": [
      "singers",
      "2"
    ],
    "repository": "kara.moe",
    "modified_at": "2020-03-31T19:04:34.290Z"
  }
}