{
  "header": {
    "description": "Karaoke Mugen Tag File",
    "version": 1
  },
  "tag": {
    "i18n": {
      "eng": "Entergram"
    },
    "name": "Entergram",
    "tid": "b2194b36-200d-42c9-a849-6a583d5d6c66",
    "types": [
      "creators",
      "4"
    ],
    "repository": "kara.moe",
    "modified_at": "2020-03-31T19:04:34.293Z"
  }
}