{
  "header": {
    "description": "Karaoke Mugen Tag File",
    "version": 1
  },
  "tag": {
    "i18n": {
      "eng": "Enterbrain!"
    },
    "name": "Enterbrain!",
    "repository": "kara.moe",
    "tid": "8693dfda-7cce-4a8d-9629-1f0f30722596",
    "types": [
      "creators",
      "4"
    ]
  }
}