{
  "header": {
    "description": "Karaoke Mugen Tag File",
    "version": 1
  },
  "tag": {
    "i18n": {
      "eng": "EPIC Records Japan"
    },
    "name": "EPIC Records Japan",
    "tid": "221d01d3-cf22-45d6-b187-5e7806dd6d1e",
    "types": [
      "creators",
      "4"
    ],
    "repository": "kara.moe",
    "modified_at": "2020-03-31T19:04:34.295Z"
  }
}