{
  "header": {
    "description": "Karaoke Mugen Tag File",
    "version": 1
  },
  "tag": {
    "i18n": {
      "eng": "Epithet Erased"
    },
    "modified_at": "2020-12-12T15:18:38.638Z",
    "name": "Epithet Erased",
    "repository": "kara.moe",
    "tid": "531e687a-6ded-49fd-90ad-adc901b9e361",
    "types": [
      "series",
      "1"
    ]
  }
}