{
  "header": {
    "description": "Karaoke Mugen Tag File",
    "version": 1
  },
  "tag": {
    "aliases": [
      "Elementar Gerad",
      "eg",
      "武器种族传说"
    ],
    "external_database_ids": {
      "anilist": 1250,
      "myanimelist": 1250,
      "kitsu": 1125
    },
    "i18n": {
      "eng": "Elemental Gelade",
      "fre": "Elemental Gerad",
      "jpn": "エレメンタル ジェレイド",
      "pol": "Erementar Gerad",
      "rus": "Воздушные пираты",
      "tha": "เอเรเมนทาร์ เจเร็ด",
      "qro": "Erementar Gerad"
    },
    "modified_at": "2020-03-31T19:04:31.407Z",
    "name": "Erementar Gerad",
    "repository": "kara.moe",
    "tid": "6bf6f53c-440e-4fed-a947-5c040c929d22",
    "types": [
      "series",
      "1"
    ]
  }
}