{
  "header": {
    "description": "Karaoke Mugen Tag File",
    "version": 1
  },
  "tag": {
    "aliases": [
      "EP",
      "Ergo Proksi",
      "Ergoproxy",
      "Ерго Прокси",
      "Ерго проксі",
      "Ерґо Проксі",
      "پروکسی مابعد",
      "死亡代理人"
    ],
    "external_database_ids": {
      "anilist": 790,
      "myanimelist": 790,
      "kitsu": 705
    },
    "i18n": {
      "cze": "Ergo Proxy",
      "eng": "Ergo Proxy",
      "fin": "Ergo Proxy",
      "fre": "Ergo Proxy",
      "ger": "Ergo Proxy",
      "ita": "Ergo Proxy",
      "jpn": "エルゴプラクシー",
      "per": "ارگو پروکسی",
      "pol": "Ergo Proxy",
      "por": "Ergo Proxy",
      "rus": "Эрго Прокси",
      "swe": "Ergo Proxy",
      "qro": "Ergo Proxy"
    },
    "modified_at": "2020-06-21T23:45:31.966Z",
    "name": "Ergo Proxy",
    "repository": "kara.moe",
    "tid": "56dfe213-7819-417f-8fe3-5ce615c7e2a8",
    "types": [
      "series",
      "1"
    ]
  }
}