{
  "header": {
    "description": "Karaoke Mugen Tag File",
    "version": 1
  },
  "tag": {
    "i18n": {
      "eng": "Eri Shingyoji"
    },
    "name": "Eri Shingyoji",
    "tid": "1f7d8c00-a93d-490d-96b7-e3154fb9a966",
    "types": [
      "singers",
      "2",
      "songwriters",
      "8"
    ],
    "repository": "kara.moe",
    "modified_at": "2020-03-31T19:04:34.305Z"
  }
}