{
  "header": {
    "description": "Karaoke Mugen Tag File",
    "version": 1
  },
  "tag": {
    "i18n": {
      "eng": "Eri Sugai"
    },
    "name": "Eri Sugai",
    "tid": "9b97f424-1b9f-412d-84be-b4501047d9bc",
    "types": [
      "singers",
      "2"
    ],
    "repository": "kara.moe",
    "modified_at": "2020-03-31T19:04:34.306Z"
  }
}