{
  "header": {
    "description": "Karaoke Mugen Tag File",
    "version": 1
  },
  "tag": {
    "aliases": [
      "STAR☆ANIS",
      "STAR ANIS"
    ],
    "i18n": {
      "eng": "Eri Aino"
    },
    "modified_at": "2020-11-22T16:59:58.407Z",
    "name": "Eri Aino",
    "repository": "kara.moe",
    "tid": "c6679b6d-ff15-4be0-8741-65376a1b4d55",
    "types": [
      "singers",
      "2"
    ]
  }
}