{
  "header": {
    "description": "Karaoke Mugen Tag File",
    "version": 1
  },
  "tag": {
    "i18n": {
      "eng": "Eri Takenashi"
    },
    "name": "Eri Takenashi",
    "tid": "3d2fd792-e486-48f5-8c8a-740eece03276",
    "types": [
      "songwriters",
      "8"
    ],
    "repository": "kara.moe",
    "modified_at": "2020-03-31T19:04:34.308Z"
  }
}