{
  "header": {
    "description": "Karaoke Mugen Tag File",
    "version": 1
  },
  "tag": {
    "i18n": {
      "eng": "Eri Kitamura"
    },
    "modified_at": "2020-08-19T20:37:37.969Z",
    "name": "Eri Kitamura",
    "repository": "kara.moe",
    "tid": "9fcbf4f4-a7aa-49eb-b5ec-4bda64c16c93",
    "types": [
      "singers",
      "2",
      "songwriters",
      "8"
    ]
  }
}