{
  "header": {
    "description": "Karaoke Mugen Tag File",
    "version": 1
  },
  "tag": {
    "i18n": {
      "eng": "Eri Ishikawa"
    },
    "name": "Eri Ishikawa",
    "tid": "fcac6dc1-1cfc-4483-99bb-9a35a7932c01",
    "types": [
      "songwriters",
      "8"
    ],
    "repository": "kara.moe",
    "modified_at": "2020-03-31T19:04:34.301Z"
  }
}