{
  "header": {
    "description": "Karaoke Mugen Tag File",
    "version": 1
  },
  "tag": {
    "i18n": {
      "eng": "Erica Masaki"
    },
    "name": "Erica Masaki",
    "tid": "ea1c607b-5c00-40a0-91c6-5b01b881b566",
    "types": [
      "songwriters",
      "8"
    ],
    "repository": "kara.moe",
    "modified_at": "2020-03-31T19:04:34.313Z"
  }
}