{
  "header": {
    "description": "Karaoke Mugen Tag File",
    "version": 1
  },
  "tag": {
    "i18n": {
      "eng": "Éric Bouad"
    },
    "name": "Éric Bouad",
    "tid": "e293a9a7-cc13-4fb3-bb58-ec2687d57832",
    "types": [
      "songwriters",
      "8"
    ],
    "repository": "kara.moe",
    "modified_at": "2020-03-31T19:04:34.310Z"
  }
}