{
  "header": {
    "description": "Karaoke Mugen Tag File",
    "version": 1
  },
  "tag": {
    "i18n": {
      "eng": "Éric Fettweiss"
    },
    "name": "Éric Fettweiss",
    "repository": "kara.moe",
    "tid": "b17881c4-6ffd-4c74-84eb-f127913ebedb",
    "types": [
      "songwriters",
      "8"
    ]
  }
}