{
  "header": {
    "description": "Karaoke Mugen Tag File",
    "version": 1
  },
  "tag": {
    "i18n": {
      "eng": "Erik van der Wurff"
    },
    "name": "Erik van der Wurff",
    "tid": "29fe3d47-8e0a-429e-a8e8-0c9363d3c0cb",
    "types": [
      "songwriters",
      "8"
    ],
    "repository": "kara.moe",
    "modified_at": "2020-03-31T19:04:34.315Z"
  }
}