{
  "header": {
    "description": "Karaoke Mugen Tag File",
    "version": 1
  },
  "tag": {
    "i18n": {
      "eng": "Eriko Nakamura"
    },
    "name": "Eriko Nakamura",
    "tid": "72c2ad44-cf43-4322-99aa-d71df5cbe8a6",
    "types": [
      "singers",
      "2"
    ],
    "repository": "kara.moe",
    "modified_at": "2020-03-31T19:04:34.319Z"
  }
}