{
  "header": {
    "description": "Karaoke Mugen Tag File",
    "version": 1
  },
  "tag": {
    "i18n": {
      "eng": "Erikson Jayanto"
    },
    "name": "Erikson Jayanto",
    "repository": "kara.moe",
    "tid": "2c2ce177-5fb0-4eaa-873f-273719e4a3bb",
    "types": [
      "songwriters",
      "8"
    ]
  }
}