{
  "header": {
    "description": "Karaoke Mugen Tag File",
    "version": 1
  },
  "tag": {
    "i18n": {
      "eng": "Erika de Casier"
    },
    "name": "Erika de Casier",
    "repository": "kara.moe",
    "tid": "afb7e7c6-005d-4f94-9198-6a55cba727e4",
    "types": [
      "songwriters",
      "8"
    ]
  }
}