{
  "header": {
    "description": "Karaoke Mugen Tag File",
    "version": 1
  },
  "tag": {
    "i18n": {
      "eng": "Erik"
    },
    "name": "Erik",
    "repository": "kara.moe",
    "tid": "5446ea4f-36bc-4597-860f-c375ac607b14",
    "types": [
      "singers",
      "2"
    ],
    "modified_at": "2020-03-31T19:04:34.315Z"
  }
}