{
  "header": {
    "description": "Karaoke Mugen Tag File",
    "version": 1
  },
  "tag": {
    "i18n": {
      "eng": "Erina Koga"
    },
    "name": "Erina Koga",
    "tid": "8ac97d0a-c12d-4a28-9c5c-b8c2a023baa2",
    "types": [
      "singers",
      "2"
    ],
    "repository": "kara.moe",
    "modified_at": "2020-03-31T19:04:34.320Z"
  }
}