{
  "header": {
    "description": "Karaoke Mugen Tag File",
    "version": 1
  },
  "tag": {
    "i18n": {
      "eng": "Erina Nakajima"
    },
    "name": "Erina Nakajima",
    "tid": "7e5dfd19-693e-4f34-b3aa-34135c2e7239",
    "types": [
      "singers",
      "2"
    ],
    "repository": "kara.moe",
    "modified_at": "2020-03-31T19:04:34.321Z"
  }
}