{
  "header": {
    "description": "Karaoke Mugen Tag File",
    "version": 1
  },
  "tag": {
    "aliases": [
      "Ermavilo",
      "Mirko Pontrelli"
    ],
    "i18n": {
      "eng": "Ernesto Brancucci"
    },
    "modified_at": "2021-09-19T14:38:35.326Z",
    "name": "Ernesto Brancucci",
    "repository": "kara.moe",
    "tid": "65968e18-d533-4a84-bf30-fbbd2fce3a5a",
    "types": [
      "songwriters",
      "8",
      "singers",
      "2"
    ]
  }
}