{
  "header": {
    "description": "Karaoke Mugen Tag File",
    "version": 1
  },
  "tag": {
    "external_database_ids": {
      "anilist": 97707,
      "kitsu": 12643,
      "myanimelist": 34208
    },
    "i18n": {
      "eng": "Escha Chron",
      "jpn": "エスカクロン"
    },
    "name": "Escha Chron",
    "repository": "kara.moe",
    "tid": "97f65032-d9ff-4983-9fc2-1937c474c7e6",
    "types": [
      "series",
      "1"
    ]
  }
}