{
  "header": {
    "description": "Karaoke Mugen Tag File",
    "version": 1
  },
  "tag": {
    "i18n": {
      "eng": "ESHIKARA."
    },
    "name": "ESHIKARA.",
    "repository": "kara.moe",
    "tid": "a461ebcc-d5ed-4a15-bf55-8f70bf57ef05",
    "types": [
      "creators",
      "4"
    ]
  }
}