{
  "header": {
    "description": "Karaoke Mugen Tag File",
    "version": 1
  },
  "tag": {
    "i18n": {
      "eng": "Estelle Micheau"
    },
    "name": "Estelle Micheau",
    "tid": "ab5c4e9a-9807-4ab9-8d74-773ac11638b7",
    "types": [
      "singers",
      "2"
    ],
    "repository": "kara.moe",
    "modified_at": "2020-03-31T19:04:34.326Z"
  }
}