{
  "header": {
    "description": "Karaoke Mugen Tag File",
    "version": 1
  },
  "tag": {
    "i18n": {
      "eng": "Ethan Torchio"
    },
    "name": "Ethan Torchio",
    "repository": "kara.moe",
    "tid": "09de3a6d-5f0b-4fe1-9c19-8c7400f01938",
    "types": [
      "songwriters",
      "8"
    ]
  }
}