{
  "header": {
    "description": "Karaoke Mugen Tag File",
    "version": 1
  },
  "tag": {
    "i18n": {
      "eng": "Ethan Mentzer"
    },
    "modified_at": "2021-03-08T18:27:44.147Z",
    "name": "Ethan Mentzer",
    "repository": "kara.moe",
    "tid": "8a9c2d63-c9b8-4b2b-abf7-d791365fd8f1",
    "types": [
      "songwriters",
      "8"
    ]
  }
}