{
  "header": {
    "description": "Karaoke Mugen Tag File",
    "version": 1
  },
  "tag": {
    "external_database_ids": {},
    "i18n": {
      "jpn": "えとたま",
      "qro": "Etotama"
    },
    "name": "Etotama",
    "repository": "kara.moe",
    "tid": "7492183b-aa4d-4b60-b7fd-06e01d1cde21",
    "types": [
      "franchises",
      "18"
    ]
  }
}