{
  "header": {
    "description": "Karaoke Mugen Tag File",
    "version": 1
  },
  "tag": {
    "external_database_ids": {
      "anilist": 20930,
      "myanimelist": 28221,
      "kitsu": 9976
    },
    "i18n": {
      "dut": "Chinese Sterrenbeeld",
      "eng": "Etotama",
      "fre": "Etotama",
      "jpn": "えとたま 干支魂",
      "qro": "Etotama: Eto Tamashii"
    },
    "modified_at": "2020-03-31T19:04:31.411Z",
    "name": "Etotama: Eto Tamashii",
    "repository": "kara.moe",
    "tid": "f11be940-4ad7-4800-a717-a64d166ca878",
    "types": [
      "series",
      "1"
    ]
  }
}