{
  "header": {
    "description": "Karaoke Mugen Tag File",
    "version": 1
  },
  "tag": {
    "i18n": {
      "eng": "Etrian Odyssey"
    },
    "name": "Etrian Odyssey",
    "repository": "kara.moe",
    "tid": "f52f996f-aeaf-4b99-aaa0-cca46113c4ef",
    "types": [
      "series",
      "1"
    ]
  }
}