{
  "header": {
    "description": "Karaoke Mugen Tag File",
    "version": 1
  },
  "tag": {
    "i18n": {
      "eng": "Etsuko Kozakura"
    },
    "name": "Etsuko Kozakura",
    "tid": "45d60c9a-d4a2-4fcc-b101-24005218f36e",
    "types": [
      "singers",
      "2"
    ],
    "repository": "kara.moe",
    "modified_at": "2020-03-31T19:04:34.330Z"
  }
}