{
  "header": {
    "description": "Karaoke Mugen Tag File",
    "version": 1
  },
  "tag": {
    "aliases": [
      "E7"
    ],
    "i18n": {
      "eng": "Eureka Seven vol.1: The New Wave",
      "jpn": "エウレカセブン TR1:NEW WAVE",
      "qro": "Eureka Seven New Wave"
    },
    "modified_at": "2020-03-31T19:04:31.412Z",
    "name": "Eureka Seven New Wave",
    "repository": "kara.moe",
    "tid": "b9330a51-153c-4856-9477-20d5b6c6acbe",
    "types": [
      "series",
      "1"
    ]
  }
}