{
  "header": {
    "description": "Karaoke Mugen Tag File",
    "version": 1
  },
  "tag": {
    "aliases": [
      "E7"
    ],
    "i18n": {
      "eng": "Eureka Seven vol.2: The New Vision",
      "jpn": "エウレカセブン TR2:NEW VISION",
      "qro": "Eureka Seven New Vision"
    },
    "modified_at": "2020-03-31T19:04:31.412Z",
    "name": "Eureka Seven New Vision",
    "repository": "kara.moe",
    "tid": "1bd4ea24-ab7b-42d5-9175-0d93fc4ffb6c",
    "types": [
      "series",
      "1"
    ]
  }
}