{
  "header": {
    "description": "Karaoke Mugen Tag File",
    "version": 1
  },
  "tag": {
    "i18n": {
      "eng": "Europe"
    },
    "modified_at": "2021-05-21T18:04:12.369Z",
    "name": "Europe",
    "repository": "kara.moe",
    "tid": "1788c511-117f-47a2-8b2b-5f53d7984f8b",
    "types": [
      "singers",
      "2"
    ]
  }
}