{
  "header": {
    "description": "Karaoke Mugen Tag File",
    "version": 1
  },
  "tag": {
    "i18n": {
      "eng": "Eushully"
    },
    "name": "Eushully",
    "tid": "26ed76ea-cd92-47aa-b2d8-a2d407fdb856",
    "types": [
      "creators",
      "4"
    ],
    "repository": "kara.moe",
    "modified_at": "2020-03-31T19:04:34.335Z"
  }
}