{
  "header": {
    "description": "Karaoke Mugen Tag File",
    "version": 1
  },
  "tag": {
    "i18n": {
      "eng": "Evan Rachel Wood"
    },
    "name": "Evan Rachel Wood",
    "repository": "kara.moe",
    "tid": "d2aee4cf-0c3b-4390-b8bc-e7b72d2a21e3",
    "types": [
      "singers",
      "2"
    ]
  }
}