{
  "header": {
    "description": "Karaoke Mugen Tag File",
    "version": 1
  },
  "tag": {
    "aliases": [
      "Eva:1.0",
      "Evangelion 1.0",
      "Evangelion 1.01",
      "Evangelion 1.11 You Are (Not) Alone",
      "Evangelion New Theatrical Version: The Beginning",
      "Evangelion Shin Gekijouban Jo",
      "Evangelion Shin Gekijouban: Rebuild of Evangelion",
      "Evangelion: 1.0 Tu (Ne) Vienišas",
      "Evangelion: 1.11 - You are (not) alone",
      "Rebuild of Evangelion",
      "Rebuild of Evangelion: 1.0",
      "RoE",
      "ヱヴァンゲリヲン 新劇場版 REBUILD OF EVANGELION",
      "gekijouban"
    ],
    "external_database_ids": {
      "anilist": 2759,
      "myanimelist": 2759,
      "kitsu": 2519
    },
    "i18n": {
      "cze": "Evangelion: 1.01 - You are (not) alone",
      "eng": "Evangelion: 1.0 ‒ You Are (Not) Alone",
      "est": "Evangelion 1.11: Você (Não) Está Só",
      "ger": "Evangelion 1.0: Sa oled/pole üksinda",
      "jpn": "ヱヴァンゲリヲン新劇場版:序",
      "lav": "Evangelion: 1.11 You Are (Not) Alone.",
      "pol": "Evangelion: 1.11 Monstrum - Nejste sami",
      "por": "Evangelion 1.0 : You Are (Not) Alone",
      "rus": "Evangelions: Tu neesi viens",
      "qro": "Evangelion Shin Gekijôban Jo"
    },
    "modified_at": "2020-03-31T19:04:31.414Z",
    "name": "Evangelion Shin Gekijôban Jo",
    "repository": "kara.moe",
    "tid": "7e084058-a43e-4b61-9ab8-6d53c0a8428e",
    "types": [
      "series",
      "1"
    ]
  }
}