{
  "header": {
    "description": "Karaoke Mugen Tag File",
    "version": 1
  },
  "tag": {
    "i18n": {
      "eng": "Evan Bogart"
    },
    "modified_at": "2020-04-02T23:47:15.637Z",
    "name": "Evan Bogart",
    "repository": "kara.moe",
    "tid": "89b77e47-af24-4fee-9ee0-6ca66b0317f0",
    "types": [
      "songwriters",
      "8"
    ]
  }
}