{
  "header": {
    "description": "Karaoke Mugen Tag File",
    "version": 1
  },
  "tag": {
    "aliases": [
      "NGE",
      "ROE",
      "EOE",
      "D&R",
      "ヱヴァンゲリヲン"
    ],
    "external_database_ids": {},
    "i18n": {
      "eng": "Evangelion",
      "jpn": "エヴァンゲリオン",
      "kor": "에반게리온",
      "rus": "Евангелион"
    },
    "name": "Evangelion",
    "repository": "kara.moe",
    "tid": "f5c46257-58e9-4eac-92ce-7d02fd528809",
    "types": [
      "franchises",
      "18"
    ]
  }
}