{
  "header": {
    "description": "Karaoke Mugen Tag File",
    "version": 1
  },
  "tag": {
    "i18n": {
      "eng": "Evan Gregory"
    },
    "name": "Evan Gregory",
    "repository": "kara.moe",
    "tid": "2d8ffc86-c2e0-44ad-b9ab-b6e511043313",
    "types": [
      "songwriters",
      "8"
    ],
    "modified_at": "2020-03-31T19:04:34.337Z"
  }
}