{
  "header": {
    "description": "Karaoke Mugen Tag File",
    "version": 1
  },
  "tag": {
    "aliases": [
      "Ebaa Sebuntiin",
      "Ever 17",
      "e17",
      "エバー・セブンティーン"
    ],
    "i18n": {
      "eng": "Ever17: The Out of Infinity",
      "jpn": "Ever17: The Out of Infinity",
      "qro": "Ever17: The Out of Infinity"
    },
    "modified_at": "2020-03-31T19:04:31.414Z",
    "name": "Ever17: The Out of Infinity",
    "repository": "kara.moe",
    "tid": "0894dd76-ec3f-441d-b34f-b7553a57c062",
    "types": [
      "series",
      "1"
    ]
  }
}