{
  "header": {
    "description": "Karaoke Mugen Tag File",
    "version": 1
  },
  "tag": {
    "aliases": [
      "Everying!"
    ],
    "i18n": {
      "eng": "every♥ing!"
    },
    "name": "Everying!",
    "repository": "kara.moe",
    "tid": "8b513d46-a155-4e07-8dac-687b885c34d2",
    "types": [
      "singergroups",
      "17"
    ]
  }
}