{
  "header": {
    "description": "Karaoke Mugen Tag File",
    "version": 1
  },
  "tag": {
    "i18n": {
      "eng": "EVIL LINE RECORDS"
    },
    "name": "EVIL LINE RECORDS",
    "tid": "57922aa1-eae2-4c1d-946c-bb320505b549",
    "types": [
      "creators",
      "4"
    ],
    "repository": "kara.moe",
    "modified_at": "2020-03-31T19:04:34.340Z"
  }
}