{
  "header": {
    "description": "Karaoke Mugen Tag File",
    "version": 1
  },
  "tag": {
    "external_database_ids": {
      "anilist": 100226,
      "myanimelist": 36245,
      "kitsu": 13824
    },
    "i18n": {
      "chi": "网瘾禁区",
      "eng": "Evil or Live",
      "jpn": "Evil or Live",
      "qro": "Evil or Live"
    },
    "modified_at": "2020-03-31T19:04:31.416Z",
    "name": "Evil or Live",
    "repository": "kara.moe",
    "tid": "d10aa1d7-63be-44ad-aea9-40f81868e6cb",
    "types": [
      "series",
      "1"
    ]
  }
}