{
  "header": {
    "description": "Karaoke Mugen Tag File",
    "version": 1
  },
  "tag": {
    "i18n": {
      "eng": "Ewald Pfleger"
    },
    "name": "Ewald Pfleger",
    "repository": "kara.moe",
    "tid": "6af23d74-8272-4850-bce4-59271c5456e4",
    "types": [
      "songwriters",
      "8"
    ]
  }
}