{
  "header": {
    "description": "Karaoke Mugen Tag File",
    "version": 1
  },
  "tag": {
    "aliases": [
      "エクスアーム"
    ],
    "external_database_ids": {
      "anilist": 106503,
      "myanimelist": 38853,
      "kitsu": 42085
    },
    "i18n": {
      "eng": "Ex-Arm",
      "jpn": "EX-ARM",
      "qro": "EX-ARM"
    },
    "modified_at": "2021-03-06T15:21:21.413Z",
    "name": "EX-ARM",
    "repository": "kara.moe",
    "tid": "d4f497b8-290d-4599-bbe2-5fa0d10a9481",
    "types": [
      "series",
      "1"
    ]
  }
}