{
  "header": {
    "description": "Karaoke Mugen Tag File",
    "version": 1
  },
  "tag": {
    "i18n": {
      "eng": "EXPO"
    },
    "name": "EXPO",
    "tid": "bf89fa0d-b060-40f9-bf26-7e08a710c873",
    "types": [
      "songwriters",
      "8"
    ],
    "repository": "kara.moe",
    "modified_at": "2020-03-31T19:04:34.343Z"
  }
}