{
  "header": {
    "description": "Karaoke Mugen Tag File",
    "version": 1
  },
  "tag": {
    "i18n": {
      "eng": "EZFG"
    },
    "name": "EZFG",
    "repository": "kara.moe",
    "tid": "84182097-1db6-476a-8bac-82312909545f",
    "types": [
      "songwriters",
      "8"
    ]
  }
}