{
  "header": {
    "description": "Karaoke Mugen Tag File",
    "version": 1
  },
  "tag": {
    "aliases": [
      "F-Zero: Legend of Falcon",
      "fzero"
    ],
    "external_database_ids": {
      "anilist": 3101,
      "myanimelist": 3101,
      "kitsu": 2795
    },
    "i18n": {
      "cze": "F-Zero",
      "eng": "F-Zero: GP Legend",
      "hun": "F-Zero",
      "jpn": "F-ZERO ファルコン伝説",
      "rum": "F-Zero",
      "qro": "F-Zero Falcon Densetsu"
    },
    "modified_at": "2020-03-31T19:04:31.417Z",
    "name": "F-Zero Falcon Densetsu",
    "repository": "kara.moe",
    "tid": "94d0b38b-5f51-42b7-9a6e-a0e608bbb5ef",
    "types": [
      "series",
      "1"
    ]
  }
}