{
  "header": {
    "description": "Karaoke Mugen Tag File",
    "version": 1
  },
  "tag": {
    "i18n": {
      "eng": "F. Giraud"
    },
    "name": "F. Giraud",
    "repository": "kara.moe",
    "tid": "d58d7979-cf3b-4b7a-8fe0-157518d92fc3",
    "types": [
      "songwriters",
      "8"
    ]
  }
}