{
  "header": {
    "description": "Karaoke Mugen Tag File",
    "version": 1
  },
  "tag": {
    "i18n": {
      "eng": "F.T.C.C."
    },
    "modified_at": "2021-05-23T23:32:02.595Z",
    "name": "F.T.C.C.",
    "repository": "kara.moe",
    "tid": "7fcce5a7-8006-4642-bc11-ad3eae8b4bb3",
    "types": [
      "songwriters",
      "8"
    ]
  }
}