{
  "header": {
    "description": "Karaoke Mugen Tag File",
    "version": 1
  },
  "tag": {
    "i18n": {
      "eng": "Fabio Concato"
    },
    "modified_at": "2021-09-18T22:05:47.045Z",
    "name": "Fabio Concato",
    "repository": "kara.moe",
    "tid": "cb3b6b34-4478-43bd-b225-c1352cc94769",
    "types": [
      "singers",
      "2"
    ]
  }
}