{
  "header": {
    "description": "Karaoke Mugen Tag File",
    "version": 1
  },
  "tag": {
    "i18n": {
      "eng": "FABULOUS NIGHT",
      "jpn": "ファビュラスナイト"
    },
    "name": "FABULOUS NIGHT",
    "repository": "kara.moe",
    "tid": "37ae882b-194a-4584-a933-3d7fc1616c16",
    "types": [
      "series",
      "1"
    ]
  }
}