{
  "header": {
    "description": "Karaoke Mugen Tag File",
    "version": 1
  },
  "tag": {
    "i18n": {
      "eng": "Failix"
    },
    "name": "Failix",
    "tid": "d2ea879a-5095-46c7-ad10-d6c2c0bc516b",
    "types": [
      "authors",
      "6"
    ],
    "repository": "kara.moe",
    "modified_at": "2020-03-31T19:04:34.351Z"
  }
}