{
  "header": {
    "description": "Karaoke Mugen Tag File",
    "version": 1
  },
  "tag": {
    "i18n": {
      "chi": "妖精劍士f",
      "eng": "Fairy Fencer F",
      "jpn": "フェアリーフェンサーエフ",
      "qro": "Fairy Fencer F"
    },
    "modified_at": "2020-03-31T19:04:31.417Z",
    "name": "Fairy Fencer F",
    "repository": "kara.moe",
    "tid": "a8b45430-aa06-4539-a792-e31bf20bfba2",
    "types": [
      "series",
      "1"
    ]
  }
}