{
  "header": {
    "description": "Karaoke Mugen Tag File",
    "version": 1
  },
  "tag": {
    "aliases": [
      "FT",
      "Fairy Tail TV",
      "Fairytail",
      "Pasaka",
      "Peri Kuyruğu",
      "Приказна история",
      "Сказка о хвосте феи",
      "Хвост феи",
      "פיירי טייל",
      "دم فرشته",
      "فيري تيل",
      "フェアリーテイル",
      "妖精的尾巴"
    ],
    "external_database_ids": {
      "anilist": 6702,
      "myanimelist": 6702,
      "kitsu": 4676
    },
    "i18n": {
      "eng": "Fairy Tail",
      "fre": "Fairy Tail",
      "jpn": "FAIRY TAIL",
      "per": "فيری تيل",
      "por": "Fairy Tail",
      "qro": "Fairy Tail"
    },
    "modified_at": "2020-03-31T19:04:31.420Z",
    "name": "Fairy Tail",
    "repository": "kara.moe",
    "tid": "6b849ba8-e1a6-4390-bcb5-1d795d536761",
    "types": [
      "series",
      "1",
      "franchises",
      "18"
    ]
  }
}