{
  "header": {
    "description": "Karaoke Mugen Tag File",
    "version": 1
  },
  "tag": {
    "aliases": [
      "FAIRY TAIL ZERØ",
      "Fairy Tail 2",
      "Fairy Tail S2",
      "Fairy Tail Zero",
      "ft2",
      "フェアリーテイル (2014)"
    ],
    "external_database_ids": {
      "anilist": 20626,
      "myanimelist": 22043,
      "kitsu": 8203
    },
    "i18n": {
      "eng": "Fairy Tail (2014)",
      "jpn": "FAIRY TAIL (2014)",
      "qro": "Fairy Tail (2014)"
    },
    "modified_at": "2020-03-31T19:04:31.420Z",
    "name": "Fairy Tail (2014)",
    "repository": "kara.moe",
    "tid": "f0379eb1-3360-47b1-870a-b2f23c6b83ba",
    "types": [
      "series",
      "1"
    ]
  }
}