{
  "header": {
    "description": "Karaoke Mugen Tag File",
    "version": 1
  },
  "tag": {
    "aliases": [
      "Фальшивка",
      "مزيف",
      "ふぇいく"
    ],
    "external_database_ids": {
      "anilist": 365,
      "myanimelist": 365,
      "kitsu": 332
    },
    "i18n": {
      "eng": "Fake",
      "ger": "Fake",
      "jpn": "Fake",
      "rus": "Подделка",
      "qro": "Fake"
    },
    "modified_at": "2020-03-31T19:04:31.422Z",
    "name": "Fake",
    "repository": "kara.moe",
    "tid": "0465b932-84bd-483d-9b98-ddb9fef6e80c",
    "types": [
      "series",
      "1"
    ]
  }
}