{
  "header": {
    "description": "Karaoke Mugen Tag File",
    "version": 1
  },
  "tag": {
    "description": {
      "eng": "FAKE TYPE."
    },
    "external_database_ids": {},
    "i18n": {
      "eng": ""
    },
    "name": "FAKE TYPE.",
    "repository": "kara.moe",
    "tid": "3a345111-c94a-4780-aae8-b5c3d121693b",
    "types": [
      "singers",
      "2",
      "songwriters",
      "8",
      "singergroups",
      "17"
    ]
  }
}