{
  "header": {
    "description": "Karaoke Mugen Tag File",
    "version": 1
  },
  "tag": {
    "aliases": [
      "ふぇいく ~unreality~",
      "Fake ~unforgiven~"
    ],
    "i18n": {
      "eng": "Fake ~unreality~",
      "jpn": "フェイク",
      "qro": "Fake ~unreality~"
    },
    "modified_at": "2020-12-30T12:25:44.090Z",
    "name": "Fake ~unreality~",
    "repository": "kara.moe",
    "tid": "b22b9465-9fe9-43ba-8aee-81955492d50a",
    "types": [
      "series",
      "1"
    ]
  }
}