{
  "header": {
    "description": "Karaoke Mugen Tag File",
    "version": 1
  },
  "tag": {
    "i18n": {
      "eng": "Falk Maria Schlegel"
    },
    "modified_at": "2020-10-25T18:20:35.879Z",
    "name": "Falk Maria Schlegel",
    "repository": "kara.moe",
    "tid": "74f89f9a-4b8f-46fd-8192-966805e795e7",
    "types": [
      "songwriters",
      "8"
    ]
  }
}