{
  "header": {
    "description": "Karaoke Mugen Tag File",
    "version": 1
  },
  "tag": {
    "i18n": {
      "eng": "Family Guy",
      "fre": "Les Griffin"
    },
    "name": "Family Guy",
    "repository": "kara.moe",
    "tid": "5dfd6127-f1c9-4c0b-90ba-ee4b44d834b2",
    "types": [
      "series",
      "1"
    ]
  }
}