{
  "header": {
    "description": "Karaoke Mugen Tag File",
    "version": 1
  },
  "tag": {
    "aliases": [
      "ファンタジーびしょうじょじゅにくおじさんと",
      "With a Fogie Reincarnated as a Pretty Fantasy Girl",
      "Fantasy Bishoujo Juniku Oji-san to"
    ],
    "external_database_ids": {
      "anilist": 134252,
      "myanimelist": 48997,
      "kitsu": 44580
    },
    "i18n": {
      "chi": "与变成了异世界美少女的好友一起冒险",
      "eng": "Life with an Ordinary Guy Who Reincarnated into a Total Fantasy Knockout",
      "jpn": "異世界美少女受肉おじさんと",
      "rus": "В другом мире с мужчиной, обратившимся красоткой"
    },
    "name": "Fantasy Bishôjo Juniku Oji-san to",
    "repository": "kara.moe",
    "tid": "76ef2117-dd8f-49bb-b254-adb037344a4c",
    "types": [
      "series",
      "1"
    ]
  }
}