{
  "header": {
    "description": "Karaoke Mugen Tag File",
    "version": 1
  },
  "tag": {
    "aliases": [
      "FC",
      "Fantastik Çocuklar",
      "Fチル"
    ],
    "external_database_ids": {
      "anilist": 455,
      "myanimelist": 455,
      "kitsu": 417
    },
    "i18n": {
      "ara": "أطفال عجيبون",
      "chi": "奇幻旅程",
      "eng": "Fantastic Children",
      "fre": "Fantastic Children",
      "jpn": "ファンタジックチルドレン",
      "qro": "Fantastic Children"
    },
    "modified_at": "2020-03-31T19:04:31.423Z",
    "name": "Fantastic Children",
    "repository": "kara.moe",
    "tid": "2b4b7c36-cfe9-4405-aa11-491d810b0c96",
    "types": [
      "series",
      "1"
    ]
  }
}