{
  "header": {
    "description": "Karaoke Mugen Tag File",
    "version": 1
  },
  "tag": {
    "i18n": {
      "eng": "Farhan Sarasin"
    },
    "modified_at": "2021-08-09T18:26:12.977Z",
    "name": "Farhan Sarasin",
    "repository": "kara.moe",
    "tid": "d35531fd-32b5-487c-a4ba-a417a9013db4",
    "types": [
      "songwriters",
      "8"
    ]
  }
}