{
  "header": {
    "description": "Karaoke Mugen Tag File",
    "version": 1
  },
  "tag": {
    "aliases": [
      "FGO",
      "Fate GO",
      "F/GO",
      "Fate/GO",
      "Fate Grand Order",
      "fate grand"
    ],
    "external_database_ids": {
      "anilist": 97815,
      "myanimelist": 34321,
      "kitsu": 12710
    },
    "i18n": {
      "eng": "Fate/Grand Order",
      "jpn": "フェイト/グランドオーダー",
      "qro": "Fate/Grand Order"
    },
    "modified_at": "2020-08-25T12:17:03.808Z",
    "name": "Fate/Grand Order",
    "repository": "kara.moe",
    "tid": "10b904fe-ddf9-4966-bedd-943b72f68c0c",
    "types": [
      "series",
      "1"
    ]
  }
}