{
  "header": {
    "description": "Karaoke Mugen Tag File",
    "version": 1
  },
  "tag": {
    "aliases": [
      "F/E",
      "F/Extra",
      "フェイト/エクストラ ラストアンコール",
      "Fate Extra Last Encore",
      "fate extra"
    ],
    "external_database_ids": {
      "anilist": 21717,
      "myanimelist": 33047,
      "kitsu": 12006
    },
    "i18n": {
      "eng": "Fate/EXTRA Last Encore",
      "jpn": "Fate/EXTRA Last Encore",
      "kor": "Fate/EXTRA Last Encore",
      "qro": "Fate/EXTRA: Last Encore"
    },
    "modified_at": "2020-09-16T21:48:45.742Z",
    "name": "Fate/EXTRA: Last Encore",
    "repository": "kara.moe",
    "tid": "8f4a9bd3-08c1-4168-9c3d-0b71e6ca4d21",
    "types": [
      "series",
      "1"
    ]
  }
}