{
  "header": {
    "description": "Karaoke Mugen Tag File",
    "version": 1
  },
  "tag": {
    "aliases": [
      "F0",
      "Fate 0",
      "Fate Zero",
      "FateZero",
      "f/z",
      "fz",
      "fz1",
      "Доля/Початок",
      "Нулева съдба",
      "Судьба/Начало",
      "Съдба/Началото",
      "Фатум 2011",
      "Фатум/Початок",
      "سرنوشت / صفر",
      "قسمت / صفر",
      "フェイト/ゼロ",
      "fate zero"
    ],
    "external_database_ids": {
      "anilist": 10087,
      "myanimelist": 10087,
      "kitsu": 6028
    },
    "i18n": {
      "chi": "Fate/zero",
      "eng": "Fate/zero",
      "fre": "Fate/zero",
      "ger": "Fate/zero",
      "jpn": "Fate/zero",
      "per": "فیت / زیرو",
      "rus": "Судьба/Зиро",
      "qro": "Fate/zero"
    },
    "modified_at": "2020-03-31T19:04:31.435Z",
    "name": "Fate/zero",
    "repository": "kara.moe",
    "tid": "67782a6d-4936-4796-b3a5-be466f77b033",
    "types": [
      "series",
      "1"
    ]
  }
}