{
  "header": {
    "description": "Karaoke Mugen Tag File",
    "version": 1
  },
  "tag": {
    "aliases": [
      "Fate/Grand Carnival: Dai-1 Tokuien Eirei Genkai Taisai Olympia",
      "Fate Grand Carnival",
      "fate grand"
    ],
    "external_database_ids": {
      "anilist": 127149,
      "myanimelist": 44248,
      "kitsu": 43857
    },
    "i18n": {
      "eng": "Fate/Grand Carnival",
      "jpn": "Fate/Grand Carnival 第一特異宴 英霊限界大祭オリンピア",
      "qro": "Fate/Grand Carnival"
    },
    "modified_at": "2021-11-22T00:38:23.159Z",
    "name": "Fate/Grand Carnival",
    "repository": "kara.moe",
    "tid": "b9a41e54-b709-4c59-ad84-bfd0df415e3a",
    "types": [
      "series",
      "1"
    ]
  }
}