{
  "header": {
    "description": "Karaoke Mugen Tag File",
    "version": 1
  },
  "tag": {
    "aliases": [
      "FSN",
      "f/sn",
      "フェイト／ステイナイト",
      "Fate stay Night",
      "fate stay",
      "realta"
    ],
    "i18n": {
      "eng": "Fate/stay night Réalta Nua",
      "jpn": "Fate/stay night Réalta Nua",
      "qro": "Fate/stay night Réalta Nua"
    },
    "modified_at": "2020-09-16T22:27:32.845Z",
    "name": "Fate/stay night Réalta Nua",
    "repository": "kara.moe",
    "tid": "4aa4b152-bc02-48b6-b61a-d5baa09f5855",
    "types": [
      "series",
      "1"
    ]
  }
}