{
  "header": {
    "description": "Karaoke Mugen Tag File",
    "version": 1
  },
  "tag": {
    "aliases": [
      "FGO7",
      "Fate/Grand Order: Zettai Majuu Sensen Babylonia",
      "Fate Grand Order",
      "F/GO",
      "fate grand",
      "majuu"
    ],
    "external_database_ids": {
      "anilist": 103275,
      "myanimelist": 38084,
      "kitsu": 42269
    },
    "i18n": {
      "eng": "Fate/Grand Order ‒ Absolute Demonic Front: Babylonia",
      "jpn": "Fate/Grand Order -絶対魔獣戦線バビロニア-",
      "qro": "Fate/Grand Order: Zettai Majû Sensen Babylonia"
    },
    "modified_at": "2021-11-22T01:47:56.968Z",
    "name": "Fate/Grand Order: Zettai Majû Sensen Babylonia",
    "repository": "kara.moe",
    "tid": "8f27d378-e899-447d-93df-296f5ed6b3ac",
    "types": [
      "series",
      "1"
    ]
  }
}