{
  "header": {
    "description": "Karaoke Mugen Tag File",
    "version": 1
  },
  "tag": {
    "i18n": {
      "eng": "Fauna Ceres"
    },
    "name": "Fauna Ceres",
    "repository": "kara.moe",
    "tid": "07348630-8056-450f-af29-41aae163688f",
    "types": [
      "singers",
      "2"
    ]
  }
}