{
  "header": {
    "description": "Karaoke Mugen Tag File",
    "version": 1
  },
  "tag": {
    "i18n": {
      "eng": "Faylan"
    },
    "name": "Faylan",
    "tid": "5a409393-06a2-4e1c-95bb-2f6598367099",
    "types": [
      "singers",
      "2",
      "songwriters",
      "8"
    ],
    "repository": "kara.moe",
    "modified_at": "2020-03-31T19:04:34.362Z"
  }
}