{
  "header": {
    "description": "Karaoke Mugen Tag File",
    "version": 1
  },
  "tag": {
    "i18n": {
      "eng": "Federico Rimonti"
    },
    "name": "Federico Rimonti",
    "tid": "a201a1f3-3e63-49a9-b554-c73fae72572f",
    "types": [
      "songwriters",
      "8"
    ],
    "repository": "kara.moe",
    "modified_at": "2020-03-31T19:04:34.364Z"
  }
}