{
  "header": {
    "description": "Karaoke Mugen Tag File",
    "version": 1
  },
  "tag": {
    "i18n": {
      "eng": "Felix Film"
    },
    "name": "Felix Film",
    "repository": "kara.moe",
    "tid": "7a0e730d-f44f-40b2-8588-71a425157ed0",
    "types": [
      "creators",
      "4"
    ],
    "modified_at": "2020-03-31T19:04:34.367Z"
  }
}