{
  "header": {
    "description": "Karaoke Mugen Tag File",
    "version": 1
  },
  "tag": {
    "i18n": {
      "eng": "FELT"
    },
    "name": "FELT",
    "repository": "kara.moe",
    "tid": "bc2ef6e5-4b1a-4066-ab1a-1a8385dc27d2",
    "types": [
      "singergroups",
      "17"
    ]
  }
}