{
  "header": {
    "description": "Karaoke Mugen Tag File",
    "version": 1
  },
  "tag": {
    "external_database_ids": {
      "anilist": 122052,
      "myanimelist": 42544,
      "kitsu": 43456
    },
    "i18n": {
      "eng": "Fena: Pirate Princess",
      "qro": "Kaizoku Oujo",
      "jpn": "海賊王女"
    },
    "modified_at": "2021-09-22T23:21:24.821Z",
    "name": "Fena: Pirate Princess",
    "repository": "kara.moe",
    "tid": "d89eb2f8-36d5-4431-9292-ed20d9f2859c",
    "types": [
      "series",
      "1"
    ]
  }
}