{
  "header": {
    "description": "Karaoke Mugen Tag File",
    "version": 1
  },
  "tag": {
    "i18n": {
      "chi": "冯硕",
      "qro": "Feng Shuo"
    },
    "name": "Feng Shuo",
    "repository": "kara.moe",
    "tid": "1388c5a6-1ec0-48f0-8927-3f4f0faf24c8",
    "types": [
      "songwriters",
      "8"
    ]
  }
}