{
  "header": {
    "description": "Karaoke Mugen Tag File",
    "version": 1
  },
  "tag": {
    "i18n": {
      "eng": "FERDY"
    },
    "name": "FERDY",
    "tid": "638d1a2f-578e-4d46-be77-6feac5f021c0",
    "types": [
      "songwriters",
      "8"
    ],
    "repository": "kara.moe",
    "modified_at": "2020-03-31T19:04:34.368Z"
  }
}