{
  "header": {
    "description": "Karaoke Mugen Tag File",
    "version": 1
  },
  "tag": {
    "i18n": {
      "eng": "fhána"
    },
    "name": "fhána",
    "tid": "d833d038-906a-4afb-90a3-597e67500b74",
    "types": [
      "singers",
      "2"
    ],
    "repository": "kara.moe",
    "modified_at": "2020-03-31T19:04:34.369Z"
  }
}