{
  "header": {
    "description": "Karaoke Mugen Tag File",
    "version": 1
  },
  "tag": {
    "i18n": {
      "eng": "FICE"
    },
    "name": "FICE",
    "repository": "kara.moe",
    "tid": "f5e0b658-666f-4124-b697-b22c87dc2391",
    "types": [
      "songwriters",
      "8"
    ]
  }
}