{
  "header": {
    "description": "Karaoke Mugen Tag File",
    "version": 1
  },
  "tag": {
    "i18n": {
      "eng": "FictionJunction KAORI"
    },
    "name": "FictionJunction KAORI",
    "tid": "62aa860f-3014-4005-b2b6-cdad2608895b",
    "types": [
      "singers",
      "2"
    ],
    "repository": "kara.moe",
    "modified_at": "2020-03-31T19:04:34.371Z"
  }
}