{
  "header": {
    "description": "Karaoke Mugen Tag File",
    "version": 1
  },
  "tag": {
    "i18n": {
      "eng": "Fiestar"
    },
    "name": "Fiestar",
    "repository": "kara.moe",
    "tid": "edb665b5-2fee-425a-bdb5-339b5788ace2",
    "types": [
      "singers",
      "2"
    ]
  }
}