{
  "header": {
    "description": "Karaoke Mugen Tag File",
    "version": 1
  },
  "tag": {
    "i18n": {
      "afr": "Fidjiaanse",
      "amh": "Fijian",
      "ara": "فيجي",
      "aze": "Фиджийские",
      "bak": "Финикий",
      "bel": "Фиджийские",
      "bul": "Фиджийские",
      "ben": "ফিজিও",
      "bos": "Bosanski",
      "cat": "Fiji",
      "cze": "Fidžijský",
      "wel": "Fore",
      "dan": "Fijis",
      "ger": "Fidschi",
      "gre": "Φίτζι",
      "eng": "Fijian",
      "epo": "Fiĝia",
      "spa": "Fiji",
      "est": "Fidži",
      "baq": "Estatuaren menpean dagoen uhartedi",
      "per": "فیجی",
      "fin": "Fidzi",
      "fre": "Le fidjien",
      "gle": "Fijian",
      "gla": "Fijian",
      "glg": "Filipino",
      "guj": "ફિજીયન",
      "heb": "פיג ' י",
      "hin": "फ़ीजी",
      "hrv": "Фиджийские",
      "hat": "Fidjyen",
      "hun": "Fidzsi",
      "arm": "Фиджийские",
      "ind": "Fiji",
      "ice": "Íslenska",
      "ita": "Figiano",
      "jpn": "フィジー",
      "jav": "Fijian",
      "geo": "ფიჯის",
      "kaz": "Фиджийские",
      "kan": "Fijian",
      "kor": "피지",
      "kir": "Фиджийские",
      "lat": "Fijian",
      "lit": "Fidžio",
      "lav": "Fidži",
      "mlg": "Anarana",
      "mao": "Fijian",
      "mac": "Fijian",
      "mal": "ഫിജിയിലെ",
      "mon": "Fijian",
      "mar": "फिज़ीname",
      "may": "Fiji",
      "mlt": "Fiġi",
      "nep": "फिजियनname",
      "dut": "Fiji",
      "nor": "Fijiansk",
      "pan": "Fijian",
      "pol": "Фиджийские",
      "por": "Fijiano",
      "rum": "Fiji",
      "rus": "Фиджийские",
      "sin": "Fijian",
      "slo": "Fijian",
      "slv": "Fijian",
      "alb": "Fijian",
      "srp": "Фиджийские",
      "sun": "Démonim",
      "swe": "Fijianska",
      "swa": "Fijian",
      "tam": "Fijian",
      "tel": "నమిబియన్",
      "tgk": "Фиджийские",
      "tha": "ภาษาฟิจิ name",
      "tgl": "Fijian",
      "tur": "Fiji",
      "tat": "Фиджийские",
      "ukr": "Фіджійські",
      "urd": "فجی",
      "uzb": "Fijian",
      "vie": "Fiji",
      "xho": "Fijianname",
      "yid": "פידזשיאַן",
      "chi": "斐济"
    },
    "name": "fij",
    "tid": "95216d7a-4b28-401f-be43-a0944001839c",
    "types": [
      "langs",
      "5"
    ],
    "repository": "kara.moe",
    "modified_at": "2020-03-31T19:04:34.375Z"
  }
}