{
  "header": {
    "description": "Karaoke Mugen Tag File",
    "version": 1
  },
  "tag": {
    "i18n": {
      "eng": "Final Fantasy XIII",
      "jpn": "ファイナルファンタジーXIII",
      "qro": "Final Fantasy XIII"
    },
    "modified_at": "2020-08-08T18:07:43.356Z",
    "name": "Final Fantasy XIII",
    "repository": "kara.moe",
    "tid": "8a3acc0c-66de-4813-b278-29defd687ea5",
    "types": [
      "series",
      "1"
    ]
  }
}