{
  "header": {
    "description": "Karaoke Mugen Tag File",
    "version": 1
  },
  "tag": {
    "aliases": [
      "FF 4",
      "FF IV",
      "FF4",
      "FFIV"
    ],
    "i18n": {
      "ara": "IV فاينل فانتَسي",
      "chi": "最終幻想IV",
      "eng": "Final Fantasy IV",
      "fre": "Final Fantasy IV",
      "jpn": "ファイナルファンタジーIV",
      "qro": "Final Fantasy IV"
    },
    "modified_at": "1982-04-06",
    "name": "Final Fantasy IV",
    "repository": "kara.moe",
    "tid": "29b3e3dd-1f1a-4e2f-9144-3a4ad4ea2275",
    "types": [
      "series",
      "1"
    ]
  }
}