{
  "header": {
    "description": "Karaoke Mugen Tag File",
    "version": 1
  },
  "tag": {
    "external_database_ids": {
      "anilist": 426,
      "myanimelist": 426,
      "kitsu": 390
    },
    "i18n": {
      "eng": "Final Fantasy",
      "jpn": "ファイナルファンタジー",
      "qro": "Final Fantasy"
    },
    "modified_at": "2020-03-31T19:04:31.446Z",
    "name": "Final Fantasy",
    "repository": "kara.moe",
    "tid": "595c5b14-54f8-4885-a689-02296506a704",
    "types": [
      "series",
      "1",
      "franchises",
      "18"
    ]
  }
}