{
  "header": {
    "description": "Karaoke Mugen Tag File",
    "version": 1
  },
  "tag": {
    "i18n": {
      "eng": "Final Fantasy Crystal Chronicles",
      "fre": "Final Fantasy Crystal Chronicles",
      "jpn": "ファイナルファンタジー・クリスタルクロニクル",
      "qro": "Final Fantasy Crystal Chronicles"
    },
    "modified_at": "2020-03-31T19:04:31.441Z",
    "name": "Final Fantasy Crystal Chronicles",
    "repository": "kara.moe",
    "tid": "ec8d02e1-aed8-42e0-a520-941f093d40e7",
    "types": [
      "series",
      "1"
    ]
  }
}