{
  "header": {
    "description": "Karaoke Mugen Tag File",
    "version": 1
  },
  "tag": {
    "aliases": [
      "ff16"
    ],
    "i18n": {
      "eng": "Final Fantasy XVI",
      "jpn": "ファイナルファンタジーXVI"
    },
    "name": "Final Fantasy XVI",
    "repository": "kara.moe",
    "tid": "d18a1816-8c71-4acb-b272-4d48d290cc90",
    "types": [
      "series",
      "1"
    ]
  }
}