{
  "header": {
    "description": "Karaoke Mugen Tag File",
    "version": 1
  },
  "tag": {
    "i18n": {
      "eng": "Final Fantasy XII",
      "jpn": "ファイナルファンタジーXII",
      "qro": "Final Fantasy XII"
    },
    "modified_at": "2020-08-08T18:48:36.874Z",
    "name": "Final Fantasy XII",
    "repository": "kara.moe",
    "tid": "44f3f3cb-dcc2-4f4b-8a7a-a03783298136",
    "types": [
      "series",
      "1"
    ]
  }
}