{
  "header": {
    "description": "Karaoke Mugen Tag File",
    "version": 1
  },
  "tag": {
    "i18n": {
      "eng": "Final Fantasy VI Pixel Remaster"
    },
    "name": "Final Fantasy VI Pixel Remaster",
    "repository": "kara.moe",
    "tid": "f7c43355-eff5-4468-b218-5bc71c7e7fbd",
    "types": [
      "series",
      "1"
    ]
  }
}