{
  "header": {
    "description": "Karaoke Mugen Tag File",
    "version": 1
  },
  "tag": {
    "i18n": {
      "eng": "Final"
    },
    "modified_at": "2021-02-14T16:41:54.286Z",
    "name": "Final",
    "priority": 2,
    "repository": "kara.moe",
    "tid": "51f29c2f-f0dd-4365-9867-46bcbd4dfb47",
    "types": [
      "versions",
      "14"
    ]
  }
}