{
  "header": {
    "description": "Karaoke Mugen Tag File",
    "version": 1
  },
  "tag": {
    "i18n": {
      "eng": "Fine Glindvad Jensen"
    },
    "name": "Fine Glindvad Jensen",
    "repository": "kara.moe",
    "tid": "55259451-82d4-4a68-8da2-6a7526f5f533",
    "types": [
      "songwriters",
      "8"
    ]
  }
}