{
  "header": {
    "description": "Karaoke Mugen Tag File",
    "version": 1
  },
  "tag": {
    "i18n": {
      "eng": "Fire Emblem: The Dark Dragon and the Sword of Light",
      "qro": "Fire Emblem: Ankoku Ryû to Hikari no Tsurugi",
      "jpn": "ファイアーエムブレム　暗黒竜と光の剣"
    },
    "modified_at": "2021-12-04T19:05:09.072Z",
    "name": "Fire Emblem: Ankoku Ryû to Hikari no Tsurugi",
    "repository": "kara.moe",
    "tid": "2e1c383a-0580-4748-8e42-ae066831117b",
    "types": [
      "series",
      "1"
    ]
  }
}