{
  "header": {
    "description": "Karaoke Mugen Tag File",
    "version": 1
  },
  "tag": {
    "i18n": {
      "eng": "Firii-san"
    },
    "name": "Firii-san",
    "repository": "kara.moe",
    "tid": "0fe700c1-ee6d-48f1-9121-9ef245f0e077",
    "types": [
      "creators",
      "4"
    ]
  }
}