{
  "header": {
    "description": "Karaoke Mugen Tag File",
    "version": 1
  },
  "tag": {
    "i18n": {
      "eng": "First Place"
    },
    "name": "First Place",
    "repository": "kara.moe",
    "tid": "79f2c1a7-59dc-4d66-9612-b4c7470a732e",
    "types": [
      "singergroups",
      "17"
    ]
  }
}