{
  "header": {
    "description": "Karaoke Mugen Tag File",
    "version": 1
  },
  "tag": {
    "i18n": {
      "eng": "flair"
    },
    "name": "flair",
    "tid": "d40425d5-0f22-4c45-8390-ca4eb667ad4e",
    "types": [
      "singers",
      "2"
    ],
    "repository": "kara.moe",
    "modified_at": "2020-03-31T19:04:34.379Z"
  }
}