{
  "header": {
    "description": "Karaoke Mugen Tag File",
    "version": 1
  },
  "tag": {
    "aliases": [
      "Fooly Cooly Alternative",
      "Fuli Culi Alternative",
      "Furi Kuri Alternative"
    ],
    "external_database_ids": {
      "anilist": 21748,
      "myanimelist": 35842,
      "kitsu": 11962
    },
    "i18n": {
      "eng": "FLCL Alternative",
      "jpn": "フリクリ オルタナ",
      "qro": "FLCL Alternative"
    },
    "modified_at": "2020-03-31T19:04:31.450Z",
    "name": "FLCL Alternative",
    "repository": "kara.moe",
    "tid": "c6afd750-2722-42ec-b321-5875dbad7c12",
    "types": [
      "series",
      "1"
    ]
  }
}