{
  "header": {
    "description": "Karaoke Mugen Tag File",
    "version": 1
  },
  "tag": {
    "aliases": [
      "FliFla",
      "Flipper Flappers",
      "Прыг Шлёп"
    ],
    "external_database_ids": {
      "anilist": 21714,
      "myanimelist": 32979,
      "kitsu": 11997
    },
    "i18n": {
      "eng": "Flip Flappers",
      "jpn": "フリップフラッパーズ",
      "qro": "Flip Flappers"
    },
    "modified_at": "2020-03-31T19:04:31.450Z",
    "name": "Flip Flappers",
    "repository": "kara.moe",
    "tid": "570558f8-e972-4f46-90b3-fbbda2f315f8",
    "types": [
      "series",
      "1"
    ]
  }
}