{
  "header": {
    "description": "Karaoke Mugen Tag File",
    "version": 1
  },
  "tag": {
    "i18n": {
      "eng": "Flore"
    },
    "name": "Flore",
    "tid": "076236f4-5755-495e-a827-e86edce43e20",
    "types": [
      "authors",
      "6"
    ],
    "repository": "kara.moe",
    "modified_at": "2020-03-31T19:04:34.382Z"
  }
}