{
  "header": {
    "description": "Karaoke Mugen Tag File",
    "version": 1
  },
  "tag": {
    "i18n": {
      "eng": "Florence Caillon"
    },
    "modified_at": "2020-10-11T00:03:22.194Z",
    "name": "Florence Caillon",
    "repository": "kara.moe",
    "tid": "a84e9fc0-1347-464a-a81c-0d41d9159fd1",
    "types": [
      "songwriters",
      "8",
      "singers",
      "2"
    ]
  }
}