{
  "header": {
    "description": "Karaoke Mugen Tag File",
    "version": 1
  },
  "tag": {
    "i18n": {
      "eng": "Floyd Huddleston"
    },
    "modified_at": "2021-06-05T20:46:28.290Z",
    "name": "Floyd Huddleston",
    "repository": "kara.moe",
    "tid": "04ea3a14-800b-4fad-ad91-9193a9cf10a2",
    "types": [
      "songwriters",
      "8"
    ]
  }
}