{
  "header": {
    "description": "Karaoke Mugen Tag File",
    "version": 1
  },
  "tag": {
    "i18n": {
      "eng": "Flsnow Mad Team"
    },
    "name": "Flsnow Mad Team",
    "tid": "6b5667c5-9d36-467d-8cf1-ab954a331bc1",
    "types": [
      "creators",
      "4"
    ],
    "repository": "kara.moe",
    "modified_at": "2020-03-31T19:04:34.385Z"
  }
}