{
  "header": {
    "description": "Karaoke Mugen Tag File",
    "version": 1
  },
  "tag": {
    "i18n": {
      "eng": "Fm.θ"
    },
    "name": "Fm.θ",
    "tid": "817d5f3a-7298-4c66-a631-4ac1a027b5d0",
    "types": [
      "singers",
      "2"
    ],
    "repository": "kara.moe",
    "modified_at": "2020-03-31T19:04:34.388Z"
  }
}