{
  "header": {
    "description": "Karaoke Mugen Tag File",
    "version": 1
  },
  "tag": {
    "i18n": {
      "eng": "Folder5"
    },
    "name": "Folder5",
    "tid": "53a4b3e1-151b-42af-ae87-d21eb8a684b8",
    "types": [
      "singers",
      "2"
    ],
    "repository": "kara.moe",
    "modified_at": "2020-03-31T19:04:34.390Z"
  }
}