{
  "header": {
    "description": "Karaoke Mugen Tag File",
    "version": 1
  },
  "tag": {
    "i18n": {
      "eng": "Foolen"
    },
    "name": "Foolen",
    "repository": "kara.moe",
    "tid": "77f72528-4c28-459c-b070-f8f4e76e3d03",
    "types": [
      "songwriters",
      "8",
      "singers",
      "2"
    ]
  }
}