{
  "header": {
    "description": "Karaoke Mugen Tag File",
    "version": 1
  },
  "tag": {
    "i18n": {
      "ara": "أبطال الكرة",
      "fre": "Foot 2 rue",
      "ger": "Street Football",
      "ita": "Street Football - La compagnia dei Celestini",
      "por": "Futebol de Rua",
      "rus": "Уличный футбол",
      "spa": "Fútbol callejero"
    },
    "modified_at": "2020-03-31T19:04:31.454Z",
    "name": "Foot 2 rue",
    "repository": "kara.moe",
    "tid": "2cf0eb28-49a9-42f9-a274-3cbc3380488e",
    "types": [
      "series",
      "1"
    ]
  }
}