{
  "header": {
    "description": "Karaoke Mugen Tag File",
    "version": 1
  },
  "tag": {
    "i18n": {
      "eng": "FOR LIFE MUSIC ENTERTAINMENT INC."
    },
    "name": "FOR LIFE MUSIC ENTERTAINMENT INC.",
    "repository": "kara.moe",
    "tid": "7a2001a8-733d-458d-8b73-c5de767d0985",
    "types": [
      "creators",
      "4"
    ]
  }
}