{
  "header": {
    "description": "Karaoke Mugen Tag File",
    "version": 1
  },
  "tag": {
    "i18n": {
      "eng": "forever ☆ saikyō umadacchi"
    },
    "name": "forever ☆ saikyō umadacchi",
    "repository": "kara.moe",
    "tid": "24386ccb-19aa-4263-b221-57c62d73f6f3",
    "types": [
      "singergroups",
      "17"
    ]
  }
}