{
  "header": {
    "description": "Karaoke Mugen Tag File",
    "version": 1
  },
  "tag": {
    "aliases": [
      "フォルテシモ アコルト：ビーサスフィーア",
      "fortissimo akkord bsusvier"
    ],
    "i18n": {
      "eng": "fortissimo//Akkord:Bsusvier",
      "jpn": "fortissimo//Akkord:Bsusvier",
      "qro": "Fortissimo//Akkord:Bsusvier"
    },
    "modified_at": "2020-03-31T19:04:31.454Z",
    "name": "Fortissimo//Akkord:Bsusvier",
    "repository": "kara.moe",
    "tid": "2947cbdb-0bb0-4448-856c-993d95dfe576",
    "types": [
      "series",
      "1"
    ]
  }
}