{
  "header": {
    "description": "Karaoke Mugen Tag File",
    "version": 1
  },
  "tag": {
    "i18n": {
      "eng": "fourfolium"
    },
    "name": "fourfolium",
    "tid": "37f03e6e-b183-4a91-80bb-2abb0f8ef8ab",
    "types": [
      "singers",
      "2"
    ],
    "repository": "kara.moe",
    "modified_at": "2020-03-31T19:04:34.395Z"
  }
}