{
  "header": {
    "description": "Karaoke Mugen Tag File",
    "version": 1
  },
  "tag": {
    "i18n": {
      "eng": "Fox"
    },
    "modified_at": "2020-07-12T13:06:49.850Z",
    "name": "Fox",
    "repository": "kara.moe",
    "tid": "ac5f4b76-3d0e-4e80-9583-d3ba1cafef0d",
    "types": [
      "creators",
      "4"
    ]
  }
}