{
  "header": {
    "description": "Karaoke Mugen Tag File",
    "version": 1
  },
  "tag": {
    "i18n": {
      "eng": "Fractions Terminus AMV"
    },
    "name": "Fractions Terminus AMV",
    "tid": "f5879794-47cd-495f-9711-3fda0e0cf184",
    "types": [
      "creators",
      "4"
    ],
    "repository": "kara.moe",
    "modified_at": "2020-03-31T19:04:34.396Z"
  }
}