{
  "header": {
    "description": "Karaoke Mugen Tag File",
    "version": 1
  },
  "tag": {
    "i18n": {
      "fre": "Fragilité LoLienne"
    },
    "modified_at": "2020-03-31T19:04:31.458Z",
    "name": "Fragilité LoLienne",
    "repository": "kara.moe",
    "tid": "0d9614e9-a080-4d88-bef8-7c2a2a542303",
    "types": [
      "series",
      "1"
    ]
  }
}