{
  "header": {
    "description": "Karaoke Mugen Tag File",
    "version": 1
  },
  "tag": {
    "i18n": {
      "eng": "Francis Lai"
    },
    "name": "Francis Lai",
    "repository": "kara.moe",
    "tid": "47d4ccb7-c04b-43ff-8613-bc64ae7b4438",
    "types": [
      "songwriters",
      "8"
    ]
  }
}