{
  "header": {
    "description": "Karaoke Mugen Tag File",
    "version": 1
  },
  "tag": {
    "i18n": {
      "eng": "Francesco Gazze"
    },
    "name": "Francesco Gazze",
    "repository": "kara.moe",
    "tid": "3f8222de-1b61-437b-b866-5baa22be8f6c",
    "types": [
      "songwriters",
      "8"
    ]
  }
}