{
  "header": {
    "description": "Karaoke Mugen Tag File",
    "version": 1
  },
  "tag": {
    "i18n": {
      "eng": "Frank Oliver Weißmann"
    },
    "name": "Frank Oliver Weißmann",
    "repository": "kara.moe",
    "tid": "42d870f9-db79-4397-ae33-667d42e29600",
    "types": [
      "singers",
      "2"
    ]
  }
}