{
  "header": {
    "description": "Karaoke Mugen Tag File",
    "version": 1
  },
  "tag": {
    "i18n": {
      "eng": "Frankie Scoca"
    },
    "name": "Frankie Scoca",
    "repository": "kara.moe",
    "tid": "e65a1fcd-5c2d-4eac-962d-e8a48857566b",
    "types": [
      "songwriters",
      "8"
    ]
  }
}