{
  "header": {
    "description": "Karaoke Mugen Tag File",
    "version": 1
  },
  "tag": {
    "i18n": {
      "eng": "Franz Ferdinand"
    },
    "name": "Franz Ferdinand",
    "repository": "kara.moe",
    "tid": "33d92b1e-ef0b-401e-b0c7-ed5f59b65a6a",
    "types": [
      "singers",
      "2"
    ]
  }
}