{
  "header": {
    "description": "Karaoke Mugen Tag File",
    "version": 1
  },
  "tag": {
    "i18n": {
      "eng": "Franck Keller"
    },
    "name": "Franck Keller",
    "tid": "46d96e12-636e-4ff0-b86b-aec07e93e531",
    "types": [
      "songwriters",
      "8"
    ],
    "repository": "kara.moe",
    "modified_at": "2020-03-31T19:04:34.401Z"
  }
}