{
  "header": {
    "description": "Karaoke Mugen Tag File",
    "version": 1
  },
  "tag": {
    "i18n": {
      "eng": "Francesco de Benedittis"
    },
    "name": "Francesco de Benedittis",
    "repository": "kara.moe",
    "tid": "a42294b4-479c-4c40-8da4-58e11856906c",
    "types": [
      "songwriters",
      "8"
    ]
  }
}