{
  "header": {
    "description": "Karaoke Mugen Tag File",
    "version": 1
  },
  "tag": {
    "i18n": {
      "eng": "Francis Cabrel"
    },
    "modified_at": "2021-05-23T14:25:38.539Z",
    "name": "Francis Cabrel",
    "repository": "kara.moe",
    "tid": "a85824d9-aa33-43b4-b41f-451848e41298",
    "types": [
      "songwriters",
      "8",
      "singers",
      "2"
    ]
  }
}