{
  "header": {
    "description": "Karaoke Mugen Tag File",
    "version": 1
  },
  "tag": {
    "i18n": {
      "eng": "frayref"
    },
    "name": "frayref",
    "repository": "kara.moe",
    "tid": "6d297263-b8e9-4d5f-acf5-097f200f88b1",
    "types": [
      "creators",
      "4"
    ]
  }
}