{
  "header": {
    "description": "Karaoke Mugen Tag File",
    "version": 1
  },
  "tag": {
    "i18n": {
      "eng": "Fred Gibson"
    },
    "name": "Fred Gibson",
    "repository": "kara.moe",
    "tid": "4428fbb9-d31b-4725-b3d0-d7b57e462b41",
    "types": [
      "songwriters",
      "8"
    ]
  }
}