{
  "header": {
    "description": "Karaoke Mugen Tag File",
    "version": 1
  },
  "tag": {
    "i18n": {
      "eng": "Frédéric Lerner"
    },
    "modified_at": "2021-01-15T22:20:24.410Z",
    "name": "Frédéric Lerner",
    "repository": "kara.moe",
    "tid": "0ce7c47b-6e68-46f0-b3bd-b97dd492799d",
    "types": [
      "songwriters",
      "8"
    ]
  }
}