{
  "header": {
    "description": "Karaoke Mugen Tag File",
    "version": 1
  },
  "tag": {
    "i18n": {
      "eng": "Frédéric Doll"
    },
    "name": "Frédéric Doll",
    "repository": "kara.moe",
    "tid": "f9192e09-0860-49ca-bcab-03c1ced2c661",
    "types": [
      "songwriters",
      "8"
    ]
  }
}