{
  "header": {
    "description": "Karaoke Mugen Tag File",
    "version": 1
  },
  "tag": {
    "i18n": {
      "eng": "Fred Jay"
    },
    "modified_at": "2020-10-21T19:00:14.057Z",
    "name": "Fred Jay",
    "repository": "kara.moe",
    "tid": "a81038a8-65f0-49f6-993f-837d6fd66fcb",
    "types": [
      "songwriters",
      "8"
    ]
  }
}