{
  "header": {
    "description": "Karaoke Mugen Tag File",
    "version": 1
  },
  "tag": {
    "i18n": {
      "eng": "Frederator Studios"
    },
    "name": "Frederator Studios",
    "tid": "89582b20-35ca-4faa-9447-110172a3aea8",
    "types": [
      "creators",
      "4"
    ],
    "repository": "kara.moe",
    "modified_at": "2020-03-31T19:04:34.407Z"
  }
}