{
  "header": {
    "description": "Karaoke Mugen Tag File",
    "version": 1
  },
  "tag": {
    "i18n": {
      "eng": "Freddie Perren"
    },
    "name": "Freddie Perren",
    "repository": "kara.moe",
    "tid": "4504e3fe-70e8-4597-bfb9-fbad2a98a95d",
    "types": [
      "songwriters",
      "8"
    ]
  }
}