{
  "header": {
    "description": "Karaoke Mugen Tag File",
    "version": 1
  },
  "tag": {
    "i18n": {
      "eng": "Freddie Elsom"
    },
    "modified_at": "2021-01-09T20:33:37.344Z",
    "name": "Freddie Elsom",
    "repository": "kara.moe",
    "tid": "9649ea93-1e8a-41c9-804c-2bb959fb2879",
    "types": [
      "creators",
      "4"
    ]
  }
}