{
  "header": {
    "description": "Karaoke Mugen Tag File",
    "version": 1
  },
  "tag": {
    "aliases": [
      "零度战姬",
      "프리징"
    ],
    "external_database_ids": {
      "anilist": 9367,
      "myanimelist": 9367,
      "kitsu": 5706
    },
    "i18n": {
      "chi": "结界女王",
      "eng": "Freezing",
      "jpn": "フリージング",
      "qro": "Freezing"
    },
    "modified_at": "2020-03-31T19:04:31.464Z",
    "name": "Freezing",
    "repository": "kara.moe",
    "tid": "d1ec78c4-cf3f-4f53-838d-60403a91d9cd",
    "types": [
      "series",
      "1",
      "franchises",
      "18"
    ]
  }
}