{
  "header": {
    "description": "Karaoke Mugen Tag File",
    "version": 1
  },
  "tag": {
    "i18n": {
      "eng": "Froggy Mix"
    },
    "name": "Froggy Mix",
    "tid": "01dd89e2-2bd0-4fb5-8d0c-44d6ae9ef7d7",
    "types": [
      "singers",
      "2"
    ],
    "repository": "kara.moe",
    "modified_at": "2020-03-31T19:04:34.414Z"
  }
}