{
  "header": {
    "description": "Karaoke Mugen Tag File",
    "version": 1
  },
  "tag": {
    "i18n": {
      "chi": "冰雪奇缘2",
      "eng": "Frozen II",
      "fre": "La reine des neiges II",
      "ger": "Die Eiskönigin 2",
      "hun": "Die Eiskönigin 2",
      "ita": "Frozen II - Il segreto di Arendelle",
      "jpn": "アナと雪の女王2",
      "por": "Frozen II - O Reino do Gelo",
      "rum": "Regatul de gheaţă II",
      "rus": "Холодное сердце 2",
      "slo": "Ľadové kráľovstvo 2",
      "slv": "Ledeno kraljestvo II",
      "srp": "Залеђено краљевство 2",
      "tur": "Karlar Ülkesi II",
      "ukr": "Крижане серце 2",
      "vie": "Nữ Hoàng Băng Giá II",
      "qro": "Frozen II"
    },
    "modified_at": "2020-03-31T19:04:31.466Z",
    "name": "Frozen II",
    "repository": "kara.moe",
    "tid": "07c8cc7e-9b9f-4e62-b971-1e1f2a55a6a5",
    "types": [
      "series",
      "1"
    ]
  }
}