{
  "header": {
    "description": "Karaoke Mugen Tag File",
    "version": 1
  },
  "tag": {
    "i18n": {
      "eng": "Fruits Basket"
    },
    "name": "Fruits Basket",
    "repository": "kara.moe",
    "tid": "151d5748-4fa4-4fcf-a2be-e22ba05bcebe",
    "types": [
      "franchises",
      "18"
    ]
  }
}