{
  "header": {
    "description": "Karaoke Mugen Tag File",
    "version": 1
  },
  "tag": {
    "i18n": {
      "eng": "Fu"
    },
    "modified_at": "2020-08-28T16:41:45.237Z",
    "name": "Fu",
    "repository": "kara.moe",
    "tid": "8a09f8b1-9e44-401c-a591-cc1d5bf80a21",
    "types": [
      "songwriters",
      "8"
    ]
  }
}