{
  "header": {
    "description": "Karaoke Mugen Tag File",
    "version": 1
  },
  "tag": {
    "aliases": [
      "Fumou"
    ],
    "i18n": {
      "eng": "fu_mou"
    },
    "modified_at": "2021-03-07T16:26:41.530Z",
    "name": "fu_mou",
    "repository": "kara.moe",
    "tid": "f91f0575-9ddf-4d2d-833d-5e2ed8c74f5f",
    "types": [
      "songwriters",
      "8"
    ]
  }
}