{
  "header": {
    "description": "Karaoke Mugen Tag File",
    "version": 1
  },
  "tag": {
    "i18n": {
      "eng": "Fubito Endô"
    },
    "name": "Fubito Endô",
    "tid": "1b116b7b-1d6d-404c-99f7-746f397eee47",
    "types": [
      "songwriters",
      "8"
    ],
    "repository": "kara.moe",
    "modified_at": "2020-03-31T19:04:34.419Z"
  }
}