{
  "header": {
    "description": "Karaoke Mugen Tag File",
    "version": 1
  },
  "tag": {
    "i18n": {
      "eng": "Fujimaru Jiji"
    },
    "name": "Fujimaru Jiji",
    "repository": "kara.moe",
    "tid": "3b26da12-2cca-4fbc-814d-d09da0123665",
    "types": [
      "creators",
      "4"
    ]
  }
}