{
  "header": {
    "description": "Karaoke Mugen Tag File",
    "version": 1
  },
  "tag": {
    "i18n": {
      "eng": "Fukase Marina"
    },
    "name": "Fukase Marina",
    "repository": "kara.moe",
    "tid": "9829651b-e821-461c-912b-87c319b03859",
    "types": [
      "singers",
      "2"
    ]
  }
}