{
  "header": {
    "description": "Karaoke Mugen Tag File",
    "version": 1
  },
  "tag": {
    "i18n": {
      "eng": "Fumihiko Kitsutaka"
    },
    "name": "Fumihiko Kitsutaka",
    "tid": "2f5de899-e0d0-4568-9777-20377da3c3b4",
    "types": [
      "singers",
      "2",
      "songwriters",
      "8"
    ],
    "repository": "kara.moe",
    "modified_at": "2020-03-31T19:04:34.436Z"
  }
}