{
  "header": {
    "description": "Karaoke Mugen Tag File",
    "version": 1
  },
  "tag": {
    "i18n": {
      "eng": "Funky Cops",
      "fre": "Funky Cops",
      "pol": "Zakręceni gliniarze",
      "tur": "Zıpırlar"
    },
    "modified_at": "2020-03-31T19:04:31.474Z",
    "name": "Funky Cops",
    "repository": "kara.moe",
    "tid": "48ac64e5-137d-4312-9a2a-f9660480066e",
    "types": [
      "series",
      "1"
    ]
  }
}