{
  "header": {
    "description": "Karaoke Mugen Tag File",
    "version": 1
  },
  "tag": {
    "i18n": {
      "eng": "Funmatsu"
    },
    "modified_at": "2021-11-20T02:07:18.871Z",
    "name": "Funmatsu",
    "repository": "kara.moe",
    "tid": "a3bb1d9c-a7bc-4d66-a3e5-722aea23a514",
    "types": [
      "creators",
      "4"
    ]
  }
}