{
  "header": {
    "description": "Karaoke Mugen Tag File",
    "version": 1
  },
  "tag": {
    "i18n": {
      "eng": "Funta7"
    },
    "name": "Funta7",
    "tid": "36a4860d-57a2-4254-8473-45367da94d31",
    "types": [
      "songwriters",
      "8"
    ],
    "repository": "kara.moe",
    "modified_at": "2020-03-31T19:04:34.445Z"
  }
}