{
  "header": {
    "description": "Karaoke Mugen Tag File",
    "version": 1
  },
  "tag": {
    "i18n": {
      "eng": "FURUTA"
    },
    "modified_at": "2020-08-18T12:21:02.543Z",
    "name": "FURUTA",
    "repository": "kara.moe",
    "tid": "727bc554-5403-4dc9-917e-fe646e92426d",
    "types": [
      "songwriters",
      "8"
    ]
  }
}