{
  "header": {
    "description": "Karaoke Mugen Tag File",
    "version": 1
  },
  "tag": {
    "aliases": [
      "Fushigi Yuugi OVA 3",
      "Fushigi Yuugi: Eikouden"
    ],
    "external_database_ids": {
      "anilist": 124,
      "kitsu": 103,
      "myanimelist": 124
    },
    "i18n": {
      "eng": "Fushigi Yugi: The Mysterious Play - Eikoden - The Legend of Eternal Light",
      "fre": "Fushigi Yûgi - Eikoden",
      "pol": "Tajemnica przeszłości OVA 3",
      "jpn": "ふしぎ遊戯 -永光伝",
      "qro": "Fushigi Yûgi - Eikoden"
    },
    "name": "Fushigi Yûgi: Eikôden",
    "repository": "kara.moe",
    "tid": "f9967400-6365-4e3c-83fb-376aefe70be6",
    "types": [
      "series",
      "1"
    ]
  }
}