{
  "header": {
    "description": "Karaoke Mugen Tag File",
    "version": 1
  },
  "tag": {
    "aliases": [
      "Fushigiboshi no Futagohime",
      "Twin Princesses of the Mysterious Star"
    ],
    "external_database_ids": {
      "anilist": 505,
      "myanimelist": 505,
      "kitsu": 7757
    },
    "i18n": {
      "eng": "Fushigi Boshi no Futago Hime",
      "ita": "Twin Princess - Principesse gemelle",
      "jpn": "ふしぎ星の☆ふたご姫",
      "por": "As Princesas Gémeas do Planeta Maravilha",
      "qro": "Fushigi Boshi no Futago Hime"
    },
    "modified_at": "2020-06-21T23:45:31.966Z",
    "name": "Fushigi Boshi no Futago Hime",
    "repository": "kara.moe",
    "tid": "57fd4594-92e4-49a0-9555-f145da2cd72c",
    "types": [
      "series",
      "1"
    ]
  }
}