{
  "header": {
    "description": "Karaoke Mugen Tag File",
    "version": 1
  },
  "tag": {
    "aliases": [
      "A Full Throttle",
      "Futari Daka"
    ],
    "external_database_ids": {
      "anilist": 3808,
      "myanimelist": 3808,
      "kitsu": 3264
    },
    "i18n": {
      "eng": "Twin Hawks",
      "fre": "À plein gaz",
      "jpn": "ふたり鷹",
      "qro": "Futaridaka"
    },
    "modified_at": "2020-03-31T19:04:31.481Z",
    "name": "Futaridaka",
    "repository": "kara.moe",
    "tid": "c5ce13fd-e8e4-4b0e-b148-44cbe20515a1",
    "types": [
      "series",
      "1"
    ]
  }
}