{
  "header": {
    "description": "Karaoke Mugen Tag File",
    "version": 1
  },
  "tag": {
    "aliases": [
      "2koi",
      "FK alt",
      "Futakoi 2",
      "Futakoi alt",
      "Twin Love Alternative",
      "Любовь близнецов 2",
      "雙戀2"
    ],
    "external_database_ids": {
      "anilist": 126,
      "myanimelist": 126,
      "kitsu": 105
    },
    "i18n": {
      "eng": "Twin Love 2",
      "fre": "Futakoi Alternative",
      "jpn": "フタコイ オルタナティブ",
      "qro": "Futakoi Alternative"
    },
    "modified_at": "2020-03-31T19:04:31.478Z",
    "name": "Futakoi Alternative",
    "repository": "kara.moe",
    "tid": "f098640d-591b-446d-b8bc-171aed282ad6",
    "types": [
      "series",
      "1"
    ]
  }
}