{
  "header": {
    "description": "Karaoke Mugen Tag File",
    "version": 1
  },
  "tag": {
    "i18n": {
      "eng": "Futa-bu!!",
      "jpn": "ふた部!!",
      "qro": "Futa-bu!!"
    },
    "name": "Futa-bu!!",
    "repository": "kara.moe",
    "tid": "02889b09-064a-4d6e-bb87-ea0227811437",
    "types": [
      "series",
      "1"
    ]
  }
}