{
  "header": {
    "description": "Karaoke Mugen Tag File",
    "version": 1
  },
  "tag": {
    "aliases": [
      "Futari wa Pretty Cure",
      "purikyaa",
      "Pretty Cure",
      "Хорошенькое лекарство",
      "두 사람은 프리큐어"
    ],
    "external_database_ids": {
      "anilist": 603,
      "myanimelist": 603,
      "kitsu": 558
    },
    "i18n": {
      "chi": "光之美少女",
      "eng": "Pretty Cure",
      "fre": "Futari wa PreCure",
      "ger": "Pretty Cure",
      "ita": "Pretty Cure",
      "jpn": "ふたりはプリキュア",
      "kor": "빛의 전사 프리큐어",
      "por": "Pretty Cure",
      "spa": "Pretty Cure",
      "tha": "มหัศจรรย์สาวน้อย พริตตี้เคียว",
      "qro": "Futari wa PreCure"
    },
    "modified_at": "2020-06-21T23:45:31.966Z",
    "name": "Futari wa PreCure",
    "repository": "kara.moe",
    "tid": "d7852ab1-c149-444a-b2a8-e47478a5cdaf",
    "types": [
      "series",
      "1"
    ]
  }
}