{
  "header": {
    "description": "Karaoke Mugen Tag File",
    "version": 1
  },
  "tag": {
    "external_database_ids": {
      "anilist": 21652,
      "myanimelist": 32785,
      "kitsu": 12021
    },
    "i18n": {
      "eng": "Future Card Buddyfight DDD",
      "jpn": "フューチャーカード バディファイトDDD",
      "qro": "Future Card Buddyfight DDD"
    },
    "modified_at": "2020-03-31T19:04:31.484Z",
    "name": "Future Card Buddyfight DDD",
    "repository": "kara.moe",
    "tid": "c8e45268-7440-497c-b4e6-8d11a4b8db24",
    "types": [
      "series",
      "1"
    ]
  }
}