{
  "header": {
    "description": "Karaoke Mugen Tag File",
    "version": 1
  },
  "tag": {
    "i18n": {
      "eng": "Future Planet"
    },
    "name": "Future Planet",
    "tid": "5700a974-9bc9-44af-8660-9e739da47976",
    "types": [
      "creators",
      "4"
    ],
    "repository": "kara.moe",
    "modified_at": "2020-03-31T19:04:34.448Z"
  }
}