{
  "header": {
    "description": "Karaoke Mugen Tag File",
    "version": 1
  },
  "tag": {
    "i18n": {
      "eng": "Future Boyz"
    },
    "name": "Future Boyz",
    "tid": "ee730cd4-e405-4d4f-9585-5a99b8a56816",
    "types": [
      "singers",
      "2"
    ],
    "repository": "kara.moe",
    "modified_at": "2020-03-31T19:04:34.447Z"
  }
}