{
  "header": {
    "description": "Karaoke Mugen Tag File",
    "version": 1
  },
  "tag": {
    "i18n": {
      "eng": "Fûga Hatori"
    },
    "name": "Fûga Hatori",
    "tid": "61e67138-8f04-48e6-97eb-888bb112dc7f",
    "types": [
      "songwriters",
      "8"
    ],
    "repository": "kara.moe",
    "modified_at": "2020-03-31T19:04:34.448Z"
  }
}