{
  "header": {
    "description": "Karaoke Mugen Tag File",
    "version": 1
  },
  "tag": {
    "external_database_ids": {
      "anilist": 21887,
      "myanimelist": 33743,
      "kitsu": 12460
    },
    "i18n": {
      "chi": "风夏",
      "eng": "Fuuka",
      "jpn": "風夏",
      "qro": "Fuuka"
    },
    "modified_at": "2020-03-31T19:04:31.487Z",
    "name": "Fuuka",
    "repository": "kara.moe",
    "tid": "dfc3769f-bce0-4452-9eb7-e2b644004d16",
    "types": [
      "series",
      "1"
    ]
  }
}