{
  "header": {
    "description": "Karaoke Mugen Tag File",
    "version": 1
  },
  "tag": {
    "aliases": [
      "Fuuma no Kojirou: Yasha Hen",
      "fuuma",
      "kojirou"
    ],
    "external_database_ids": {
      "anilist": 4854,
      "myanimelist": 4854,
      "kitsu": 3826
    },
    "i18n": {
      "eng": "Kojiro of the Fuma: Yasha Chapter",
      "fre": "Kojirô ! La légende des dix épées",
      "ita": "Kojiro: lo spirito del vento",
      "jpn": "風魔の小次郎 夜叉篇",
      "qro": "Fûma no Kojirô: Yasha Hen"
    },
    "modified_at": "2020-03-31T19:04:31.489Z",
    "name": "Fûma no Kojirô: Yasha Hen",
    "repository": "kara.moe",
    "tid": "f917bc3c-138f-4c53-bc6d-61dc1971f503",
    "types": [
      "series",
      "1"
    ]
  }
}