{
  "header": {
    "description": "Karaoke Mugen Tag File",
    "version": 1
  },
  "tag": {
    "i18n": {
      "eng": "Fûri Uebana"
    },
    "name": "Fûri Uebana",
    "tid": "4291ca73-aeb5-43db-91fc-ccb7b70018df",
    "types": [
      "singers",
      "2"
    ],
    "repository": "kara.moe",
    "modified_at": "2020-03-31T19:04:34.450Z"
  }
}