{
  "header": {
    "description": "Karaoke Mugen Tag File",
    "version": 1
  },
  "tag": {
    "i18n": {
      "eng": "Fuwari"
    },
    "name": "Fuwari",
    "repository": "kara.moe",
    "tid": "20ef9dfa-d124-4b66-9a25-0041e56ae79c",
    "types": [
      "songwriters",
      "8"
    ]
  }
}