{
  "header": {
    "description": "Karaoke Mugen Tag File",
    "version": 1
  },
  "tag": {
    "i18n": {
      "eng": "G&G Entertainment"
    },
    "name": "G&G Entertainment",
    "tid": "08cd1aae-1660-4ee7-a1b9-95523f4fc29c",
    "types": [
      "creators",
      "4"
    ],
    "repository": "kara.moe",
    "modified_at": "2020-03-31T19:04:34.452Z"
  }
}