{
  "header": {
    "description": "Karaoke Mugen Tag File",
    "version": 1
  },
  "tag": {
    "i18n": {
      "eng": "G-DRAGON"
    },
    "name": "G-DRAGON",
    "tid": "7d4df308-60e9-4e3e-894e-b173f1de0865",
    "types": [
      "songwriters",
      "8"
    ],
    "repository": "kara.moe",
    "modified_at": "2020-03-31T19:04:34.453Z"
  }
}