{
  "header": {
    "description": "Karaoke Mugen Tag File",
    "version": 1
  },
  "tag": {
    "aliases": [
      "G-onらいだーす♡"
    ],
    "external_database_ids": {
      "anilist": 1623,
      "myanimelist": 1623,
      "kitsu": 1458
    },
    "i18n": {
      "fre": "G-on Riders",
      "jpn": "G-on らいだーす",
      "qro": "G-on Riders"
    },
    "modified_at": "2020-03-31T19:04:31.489Z",
    "name": "G-on Riders",
    "repository": "kara.moe",
    "tid": "4b3326b5-f3d6-4035-bbed-c36ad5ef6e4e",
    "types": [
      "series",
      "1"
    ]
  }
}