{
  "header": {
    "description": "Karaoke Mugen Tag File",
    "version": 1
  },
  "tag": {
    "aliases": [
      "G-Senjou no Maou",
      "g-senjou",
      "maou"
    ],
    "i18n": {
      "eng": "The Devil on G-String",
      "jpn": "G線上の魔王",
      "qro": "G-Senjô no Maô"
    },
    "modified_at": "2020-03-31T19:04:31.490Z",
    "name": "G-Senjô no Maô",
    "repository": "kara.moe",
    "tid": "71c1a673-70c0-4242-844f-9dc64d1aa0e4",
    "types": [
      "series",
      "1"
    ]
  }
}