{
  "header": {
    "description": "Karaoke Mugen Tag File",
    "version": 1
  },
  "tag": {
    "i18n": {
      "eng": "Gabe Vanbenschoten"
    },
    "name": "Gabe Vanbenschoten",
    "tid": "bea5237f-4d6e-4f7f-8de6-af8355a90789",
    "types": [
      "songwriters",
      "8"
    ],
    "repository": "kara.moe",
    "modified_at": "2020-03-31T19:04:34.457Z"
  }
}