{
  "header": {
    "description": "Karaoke Mugen Tag File",
    "version": 1
  },
  "tag": {
    "i18n": {
      "eng": "Gabriel Mann"
    },
    "name": "Gabriel Mann",
    "tid": "41bd7d69-4141-4dbc-8b4c-96c894b108b7",
    "types": [
      "songwriters",
      "8"
    ],
    "repository": "kara.moe",
    "modified_at": "2020-03-31T19:04:34.458Z"
  }
}