{
  "header": {
    "description": "Karaoke Mugen Tag File",
    "version": 1
  },
  "tag": {
    "i18n": {
      "eng": "Gabriel El-Registan"
    },
    "modified_at": "2020-07-03T20:55:01.751Z",
    "name": "Gabriel El-Registan",
    "repository": "kara.moe",
    "tid": "c9bdce5e-2b7f-45ef-a339-76a99ce2fb40",
    "types": [
      "songwriters",
      "8"
    ]
  }
}