{
  "header": {
    "description": "Karaoke Mugen Tag File",
    "version": 1
  },
  "tag": {
    "i18n": {
      "eng": "Gaëtan Roussel"
    },
    "modified_at": "2020-07-03T20:50:38.450Z",
    "name": "Gaëtan Roussel",
    "repository": "kara.moe",
    "tid": "4468d5d5-d49b-4d08-9c19-2ebea565da05",
    "types": [
      "songwriters",
      "8"
    ]
  }
}