{
  "header": {
    "description": "Karaoke Mugen Tag File",
    "version": 1
  },
  "tag": {
    "i18n": {
      "eng": "gaet17"
    },
    "modified_at": "2021-06-05T20:12:28.995Z",
    "name": "gaet17",
    "repository": "kara.moe",
    "tid": "87b19767-b251-43d8-a873-f5f9b90813f8",
    "types": [
      "authors",
      "6"
    ]
  }
}