{
  "header": {
    "description": "Karaoke Mugen Tag File",
    "version": 1
  },
  "tag": {
    "aliases": [
      "Daiku Maryu Gaiking",
      "Gaiking: Legend of Daikuu-Maryuu",
      "Great Sky Demon Dragon Gaiking",
      "太空魔龙",
      "daikuu-maryuu"
    ],
    "external_database_ids": {
      "anilist": 1845,
      "myanimelist": 1845,
      "kitsu": 1662
    },
    "i18n": {
      "eng": "Gaiking: Legend of Daikû-Maryû",
      "jpn": "ガイキング LEGEND OF DAIKU-MARYU",
      "qro": "Gaiking: Legend of Daikû-Maryû"
    },
    "modified_at": "2020-03-31T19:04:31.495Z",
    "name": "Gaiking: Legend of Daikû-Maryû",
    "repository": "kara.moe",
    "tid": "e8cd03b0-8e6a-4e7b-9a7f-c9b3a9474794",
    "types": [
      "series",
      "1"
    ]
  }
}