{
  "header": {
    "description": "Karaoke Mugen Tag File",
    "version": 1
  },
  "tag": {
    "i18n": {
      "eng": "Gaim no Kaze"
    },
    "name": "Gaim no Kaze",
    "tid": "3f5ef596-7f9f-469a-9090-fa825b68fc68",
    "types": [
      "singers",
      "2"
    ],
    "repository": "kara.moe",
    "modified_at": "2020-03-31T19:04:34.462Z"
  }
}