{
  "header": {
    "description": "Karaoke Mugen Tag File",
    "version": 1
  },
  "tag": {
    "i18n": {
      "eng": "Gaina"
    },
    "name": "Gaina",
    "tid": "c759f20a-b567-42e4-868c-65cc1f88e5ec",
    "types": [
      "creators",
      "4"
    ],
    "repository": "kara.moe",
    "modified_at": "2020-03-31T19:04:34.463Z"
  }
}