{
  "header": {
    "description": "Karaoke Mugen Tag File",
    "version": 1
  },
  "tag": {
    "aliases": [
      "Ponyo - Das große Abenteuer am Meer",
      "Ponyo On A Cliff",
      "Ponyo das verzauberte Goldfischmädchen",
      "Ponyo na klifie",
      "Рыбка Поньо на утёсе"
    ],
    "external_database_ids": {
      "anilist": 2890,
      "myanimelist": 2890,
      "kitsu": 2624
    },
    "i18n": {
      "chi": "崖上的波妞",
      "cze": "Ponyo z útesu nad mořem",
      "dan": "Ponyo på klippen ved havet",
      "dut": "Ponyo on the Cliff by the Sea",
      "eng": "Ponyo on the Cliff by the Sea",
      "est": "Ponyo mäe otsas",
      "fin": "Ponyo rantakalliolla",
      "fre": "Ponyo sur la falaise",
      "ger": "Ponyo - Das grosse Abenteuer am Meer",
      "heb": "פוניו על הצוק ליד הים",
      "ita": "Ponyo sulla scogliera",
      "jpn": "崖の上のポニョ",
      "lit": "Ponyo ant uolos prie jūros",
      "pol": "Ponyo",
      "por": "Ponyo: Uma Amizade que Veio do Mar",
      "rus": "Рыбка Поньо на утесе",
      "spa": "Ponyo y el secreto de la Sirenita",
      "swe": "Ponyo på klippan vid havet",
      "tur": "Küçük Deniz Kızı Ponyo",
      "qro": "Gake no Ue no Ponyo"
    },
    "modified_at": "2020-03-31T19:04:31.496Z",
    "name": "Gake no Ue no Ponyo",
    "repository": "kara.moe",
    "tid": "59b2618b-5388-4b17-9754-ced6a7c63197",
    "types": [
      "series",
      "1"
    ]
  }
}