{
  "header": {
    "description": "Karaoke Mugen Tag File",
    "version": 1
  },
  "tag": {
    "i18n": {
      "eng": "GAKU"
    },
    "name": "GAKU",
    "repository": "kara.moe",
    "tid": "fab7eaa2-4ec2-478d-b018-f4ff4ed14da5",
    "types": [
      "songwriters",
      "8"
    ],
    "modified_at": "2020-03-31T19:04:34.465Z"
  }
}