{
  "header": {
    "description": "Karaoke Mugen Tag File",
    "version": 1
  },
  "tag": {
    "i18n": {
      "eng": "Gaku Kinoshita"
    },
    "name": "Gaku Kinoshita",
    "tid": "947376ec-0273-441c-9c80-719486db382c",
    "types": [
      "creators",
      "4"
    ],
    "repository": "kara.moe",
    "modified_at": "2020-03-31T19:04:34.464Z"
  }
}