{
  "header": {
    "description": "Karaoke Mugen Tag File",
    "version": 1
  },
  "tag": {
    "aliases": [
      "GA",
      "ga1",
      "银河天使队"
    ],
    "external_database_ids": {
      "anilist": 383,
      "myanimelist": 383,
      "kitsu": 350
    },
    "i18n": {
      "eng": "Galaxy Angel",
      "jpn": "ギャラクシーエンジェル",
      "por": "Galaxy Angel",
      "tha": "แองเจิ้ลสาว พิทักษ์จักรวาล",
      "qro": "Galaxy Angel"
    },
    "modified_at": "2020-03-31T19:04:31.505Z",
    "name": "Galaxy Angel",
    "repository": "kara.moe",
    "tid": "48184df6-1b11-4f11-8c9a-73ea8049eb85",
    "types": [
      "series",
      "1",
      "franchises",
      "18"
    ]
  }
}