{
  "header": {
    "description": "Karaoke Mugen Tag File",
    "version": 1
  },
  "tag": {
    "i18n": {
      "eng": "Gala Rizzatto"
    },
    "name": "Gala Rizzatto",
    "repository": "kara.moe",
    "tid": "c380e491-09c2-4200-9725-64122908158d",
    "types": [
      "songwriters",
      "8"
    ]
  }
}