{
  "header": {
    "description": "Karaoke Mugen Tag File",
    "version": 1
  },
  "tag": {
    "aliases": [
      "Ґалілей Донна"
    ],
    "external_database_ids": {
      "anilist": 19367,
      "myanimelist": 19367,
      "kitsu": 7836
    },
    "i18n": {
      "chi": "伽利略少女",
      "eng": "Galilei Donna",
      "fre": "Galilei Donna",
      "jpn": "ガリレイドンナ Storia di tre sorelle a caccia di un mistero",
      "qro": "Galilei Donna: Storia di Tre Sorelle a Caccia di un Mistero"
    },
    "modified_at": "2020-03-31T19:04:31.505Z",
    "name": "Galilei Donna: Storia di Tre Sorelle a Caccia di un Mistero",
    "repository": "kara.moe",
    "tid": "f198ce74-871f-4427-9b97-8276cea32ada",
    "types": [
      "series",
      "1"
    ]
  }
}