{
  "header": {
    "description": "Karaoke Mugen Tag File",
    "version": 1
  },
  "tag": {
    "i18n": {
      "eng": "Galo Sengen"
    },
    "name": "Galo Sengen",
    "tid": "a6932f57-b7f9-4904-99f8-582eddcf9152",
    "types": [
      "singers",
      "2"
    ],
    "repository": "kara.moe",
    "modified_at": "2020-03-31T19:04:34.470Z"
  }
}