{
  "header": {
    "description": "Karaoke Mugen Tag File",
    "version": 1
  },
  "tag": {
    "aliases": [
      "게이머즈!"
    ],
    "external_database_ids": {
      "anilist": 97766,
      "myanimelist": 34280,
      "kitsu": 12754
    },
    "i18n": {
      "eng": "Gamers!",
      "fre": "Gamers!",
      "jpn": "ゲーマーズ!",
      "qro": "Gamers!"
    },
    "modified_at": "2020-03-31T19:04:31.507Z",
    "name": "Gamers!",
    "repository": "kara.moe",
    "tid": "96609ad6-994a-4451-b255-6756b4cfa72a",
    "types": [
      "series",
      "1"
    ]
  }
}