{
  "header": {
    "description": "Karaoke Mugen Tag File",
    "version": 1
  },
  "tag": {
    "i18n": {
      "eng": "GANSIS"
    },
    "name": "GANSIS",
    "tid": "b282ede5-268f-4d05-9363-eb3ae1f1089e",
    "types": [
      "creators",
      "4"
    ],
    "repository": "kara.moe",
    "modified_at": "2020-03-31T19:04:34.474Z"
  }
}