{
  "header": {
    "description": "Karaoke Mugen Tag File",
    "version": 1
  },
  "tag": {
    "aliases": [
      "GANTZ ~the 2nd stage~",
      "GANTZ ~the first stage~",
      "Gantz - First Stage",
      "Gantz - Second Stage",
      "Gantz 1st stage",
      "Gantz 2nd stage",
      "Ганц",
      "Ґанц",
      "قانتز",
      "杀戮都市"
    ],
    "external_database_ids": {
      "anilist": 384,
      "myanimelist": 384,
      "kitsu": 351
    },
    "i18n": {
      "eng": "Gantz",
      "fre": "Gantz",
      "ger": "Gantz",
      "ita": "Gantz",
      "jpn": "ガンツ",
      "por": "Gantz",
      "qro": "GANTZ"
    },
    "modified_at": "2020-03-31T19:04:31.511Z",
    "name": "GANTZ",
    "repository": "kara.moe",
    "tid": "91aaf4d2-76ca-464b-9042-b66766085194",
    "types": [
      "series",
      "1",
      "franchises",
      "18"
    ]
  }
}