{
  "header": {
    "description": "Karaoke Mugen Tag File",
    "version": 1
  },
  "tag": {
    "external_database_ids": {
      "anilist": 21496,
      "myanimelist": 32071,
      "kitsu": 11498
    },
    "i18n": {
      "jpn": "GANTZ:O",
      "qro": "GANTZ:O"
    },
    "modified_at": "2020-03-31T19:04:31.511Z",
    "name": "GANTZ:O",
    "repository": "kara.moe",
    "tid": "da07057b-2dae-4f5e-83fb-ab810537012f",
    "types": [
      "series",
      "1"
    ]
  }
}