{
  "header": {
    "description": "Karaoke Mugen Tag File",
    "version": 1
  },
  "tag": {
    "i18n": {
      "eng": "GARDEN"
    },
    "name": "GARDEN",
    "tid": "6dcc98de-1126-4f0c-8d4c-2c94170d1531",
    "types": [
      "singers",
      "2",
      "songwriters",
      "8"
    ],
    "repository": "kara.moe",
    "modified_at": "2020-03-31T19:04:34.475Z"
  }
}