{
  "header": {
    "description": "Karaoke Mugen Tag File",
    "version": 1
  },
  "tag": {
    "aliases": [
      "がり子",
      "Garico"
    ],
    "i18n": {
      "eng": "Gariko"
    },
    "modified_at": "2020-12-16T20:21:00.755Z",
    "name": "Gariko",
    "repository": "kara.moe",
    "tid": "e480aa1c-5ea9-4647-8bed-23b8b85e7891",
    "types": [
      "creators",
      "4"
    ]
  }
}