{
  "header": {
    "description": "Karaoke Mugen Tag File",
    "version": 1
  },
  "tag": {
    "i18n": {
      "eng": "GARNET CROW"
    },
    "name": "GARNET CROW",
    "repository": "kara.moe",
    "tid": "d242b57b-f07a-4c61-83dc-4ff2be6d4e72",
    "types": [
      "singergroups",
      "17"
    ]
  }
}