{
  "header": {
    "description": "Karaoke Mugen Tag File",
    "version": 1
  },
  "tag": {
    "i18n": {
      "eng": "Garou"
    },
    "modified_at": "2020-07-13T11:46:09.759Z",
    "name": "Garou",
    "repository": "kara.moe",
    "tid": "0d0f1f17-7927-452b-af45-8965671f5620",
    "types": [
      "singers",
      "2"
    ]
  }
}