{
  "header": {
    "description": "Karaoke Mugen Tag File",
    "version": 1
  },
  "tag": {
    "aliases": [
      "Golden Knight Garo",
      "Ougon Kishi Garo"
    ],
    "i18n": {
      "eng": "Garo",
      "jpn": "黄金騎士ガロ",
      "qro": "GARO"
    },
    "modified_at": "2020-03-31T19:04:31.513Z",
    "name": "GARO",
    "repository": "kara.moe",
    "tid": "f6255c7e-7cdf-47e2-8a68-c0918f6b8bd1",
    "types": [
      "series",
      "1",
      "franchises",
      "18"
    ]
  }
}