{
  "header": {
    "description": "Karaoke Mugen Tag File",
    "version": 1
  },
  "tag": {
    "i18n": {
      "eng": "Gary Barlow"
    },
    "name": "Gary Barlow",
    "repository": "kara.moe",
    "tid": "020b495c-e79e-48f2-bf15-ad1011428735",
    "types": [
      "songwriters",
      "8"
    ]
  }
}