{
  "header": {
    "description": "Karaoke Mugen Tag File",
    "version": 1
  },
  "tag": {
    "i18n": {
      "eng": "Gary Schwartz"
    },
    "modified_at": "2021-01-01T18:46:40.697Z",
    "name": "Gary Schwartz",
    "repository": "kara.moe",
    "tid": "3a52c612-353b-45ef-b3de-9549da8763a0",
    "types": [
      "singers",
      "2"
    ]
  }
}