{
  "header": {
    "description": "Karaoke Mugen Tag File",
    "version": 1
  },
  "tag": {
    "i18n": {
      "eng": "Gaston Cassez"
    },
    "name": "Gaston Cassez",
    "tid": "f2de9007-0f67-41a0-bc3a-b3501bcd3006",
    "types": [
      "songwriters",
      "8"
    ],
    "repository": "kara.moe",
    "modified_at": "2020-03-31T19:04:34.477Z"
  }
}