{
  "header": {
    "description": "Karaoke Mugen Tag File",
    "version": 1
  },
  "tag": {
    "aliases": [
      "ガッチャマンクラウズ インサイト",
      "ガッチャマンクラウズ2"
    ],
    "external_database_ids": {
      "anilist": 20487,
      "myanimelist": 21039,
      "kitsu": 8180
    },
    "i18n": {
      "eng": "Gatchaman Crowds Insight",
      "fre": "Gatchaman Crowds Insight",
      "jpn": "GATCHAMAN CROWDS insight",
      "qro": "Gatchaman Crowds Insight"
    },
    "modified_at": "2020-03-31T19:04:31.516Z",
    "name": "Gatchaman Crowds Insight",
    "repository": "kara.moe",
    "tid": "77f1c8fc-ad12-4472-ab0b-f3320c885f10",
    "types": [
      "series",
      "1"
    ]
  }
}