{
  "header": {
    "description": "Karaoke Mugen Tag File",
    "version": 1
  },
  "tag": {
    "aliases": [
      "GEAR Senshi Dendoh",
      "GEAR Senshi Dendou",
      "Guard Earth and Advanced Reconnaissance Fighter Dendo"
    ],
    "external_database_ids": {
      "anilist": 2484,
      "myanimelist": 2484,
      "kitsu": 2254
    },
    "i18n": {
      "eng": "GEAR Fighter Dendoh",
      "jpn": "GEAR戦士 電童",
      "qro": "GEAR Fighter Dendoh"
    },
    "modified_at": "2020-06-21T23:45:31.966Z",
    "name": "GEAR Fighter Dendoh",
    "repository": "kara.moe",
    "tid": "8a5787c3-e1b4-4472-9306-b09eac019f65",
    "types": [
      "series",
      "1"
    ]
  }
}