{
  "header": {
    "description": "Karaoke Mugen Tag File",
    "version": 1
  },
  "tag": {
    "aliases": [
      "GeGeGe no Kitarou 3 (1985)",
      "kitarou"
    ],
    "external_database_ids": {
      "anilist": 7307,
      "myanimelist": 7307,
      "kitsu": 4936
    },
    "i18n": {
      "eng": "Spooky Kitaro 3 (1985)",
      "fre": "Kitaro le repoussant 3 (1985)",
      "jpn": "ゲゲゲの鬼太郎 (1985)",
      "qro": "GeGeGe no Kitarô 3 (1985)"
    },
    "modified_at": "2020-03-31T19:04:31.520Z",
    "name": "GeGeGe no Kitarô 3 (1985)",
    "repository": "kara.moe",
    "tid": "ad59bfce-9f4b-48b2-9d93-5e0e84409bae",
    "types": [
      "series",
      "1"
    ]
  }
}