{
  "header": {
    "description": "Karaoke Mugen Tag File",
    "version": 1
  },
  "tag": {
    "aliases": [
      "GeGeGe no Kitarou 2 (1971)",
      "New Cackling Kitarou",
      "Shin Gegege no Kitarou",
      "kitarou"
    ],
    "external_database_ids": {
      "anilist": 6971,
      "myanimelist": 6971,
      "kitsu": 4812
    },
    "i18n": {
      "eng": "Spooky Kitaro 2 (1971)",
      "fre": "Kitaro le repoussant 2 (1971)",
      "jpn": "ゲゲゲの鬼太郎 (1971)",
      "qro": "GeGeGe no Kitarô 2 (1971)"
    },
    "modified_at": "2020-03-31T19:04:31.519Z",
    "name": "GeGeGe no Kitarô 2 (1971)",
    "repository": "kara.moe",
    "tid": "f8b60039-2f28-4ed5-a764-f8163dc163d9",
    "types": [
      "series",
      "1"
    ]
  }
}