{
  "header": {
    "description": "Karaoke Mugen Tag File",
    "version": 1
  },
  "tag": {
    "aliases": [
      "MSMM",
      "Magical Girl Madoka Magica Movie 2",
      "Mahou Shoujo Madoka Magika Movie 2",
      "Mahô Shôjo Madoka Magika Movie 2",
      "PMMM",
      "gekijouban",
      "mahou",
      "shoujo",
      "madoka magica"
    ],
    "external_database_ids": {
      "anilist": 11979,
      "myanimelist": 11979,
      "kitsu": 6637
    },
    "i18n": {
      "chi": "剧场版 魔法少女小圆 Part 2: Eternal",
      "eng": "Puella Magi Madoka★Magica ‒ The Movie Part II: Eternal",
      "fre": "Puella Magi Madoka★Magica ‒ Film 2 : Une histoire infinie",
      "jpn": "劇場版 魔法少女まどか☆マギカ 永遠の物語",
      "qro": "Gekijôban Mahô Shôjo Madoka★Magica 2: Eien no Monogatari"
    },
    "modified_at": "2020-03-31T19:04:31.536Z",
    "name": "Gekijôban Mahô Shôjo Madoka★Magica 2: Eien no Monogatari",
    "repository": "kara.moe",
    "tid": "ca817c59-e9f5-4151-8e13-cf1942dee80d",
    "types": [
      "series",
      "1"
    ]
  }
}