{
  "header": {
    "description": "Karaoke Mugen Tag File",
    "version": 1
  },
  "tag": {
    "aliases": [
      "Gekisou Sentai Carranger",
      "gekisou"
    ],
    "i18n": {
      "eng": "Gekisô Sentai Carranger",
      "jpn": "激走戦隊カーレンジャー",
      "qro": "Gekisô Sentai Carranger"
    },
    "modified_at": "2020-03-31T19:04:31.544Z",
    "name": "Gekisô Sentai Carranger",
    "repository": "kara.moe",
    "tid": "ea69720c-24b9-4fd8-9653-1e9a02c5eaf4",
    "types": [
      "series",
      "1"
    ]
  }
}