{
  "header": {
    "description": "Karaoke Mugen Tag File",
    "version": 1
  },
  "tag": {
    "aliases": [
      "FSN HF",
      "Fate stay night",
      "Gekijouban Fate/stay Night",
      "F/ST",
      "gekijouban",
      "fate stay"
    ],
    "external_database_ids": {
      "anilist": 21719,
      "myanimelist": 33050,
      "kitsu": 12008
    },
    "i18n": {
      "eng": "Fate/stay night: Heaven's Feel - III. Spring Song",
      "jpn": "劇場版 Fate/stay night [Heaven's Feel] - III. Spring Song",
      "qro": "Gekijôban Fate/stay Night: Heaven's Feel - III. Spring Song"
    },
    "modified_at": "2021-02-13T23:25:16.571Z",
    "name": "Gekijôban Fate/stay Night: Heaven's Feel - III. Spring Song",
    "repository": "kara.moe",
    "tid": "b23bea45-c02d-4be9-b749-a54c41b3fb23",
    "types": [
      "series",
      "1"
    ]
  }
}