{
  "header": {
    "description": "Karaoke Mugen Tag File",
    "version": 1
  },
  "tag": {
    "aliases": [
      "Gekijouban Naruto: Dai Gekitotsu! Maboroshi no Chitei Iseki Datte ba yo!",
      "Naruto 2. Film : Gelel Taşı Efsanesi",
      "Naruto Movie 2",
      "Naruto the Movie Vol.2",
      "Наруто - Филм 2 - Легендата за камъка Гелел",
      "gekijouban"
    ],
    "external_database_ids": {
      "anilist": 936,
      "myanimelist": 936,
      "kitsu": 833
    },
    "i18n": {
      "cze": "Naruto Movie 2: Legenda o kameni Gelel",
      "eng": "Naruto the Movie 2: Legend of the Stone of Gelel",
      "fre": "Naruto le film 2 : La légende de la pierre de Guélel",
      "ger": "Naruto - The Movie 2: Die Legende des Steins von Gelel",
      "jpn": "劇場版 NARUTO 大激突! 幻の地底遺跡だってばよ",
      "tha": "นารูโตะ นินจาจอมคาถา เดอะมูฟวี่ ศึกครั้งใหญ่! ผจญนครปีศาจใต้พิภพ",
      "qro": "Gekijôban Naruto: Dai Gekitotsu! Maboroshi no Chitei Iseki Datte ba yo!"
    },
    "modified_at": "2020-05-06T16:07:45.628Z",
    "name": "Gekijôban Naruto: Dai Gekitotsu! Maboroshi no Chitei Iseki Datte ba yo!",
    "repository": "kara.moe",
    "tid": "ad470b7b-72e3-4771-9692-4c8e42e18e7c",
    "types": [
      "series",
      "1"
    ]
  }
}