{
  "header": {
    "description": "Karaoke Mugen Tag File",
    "version": 1
  },
  "tag": {
    "aliases": [
      "Gekijouban Mahouka Koukou no Rettousei: Hoshi o Yobu Shoujo",
      "gekijouban",
      "mahouka",
      "koukou",
      "rettousei",
      "shoujo"
    ],
    "i18n": {
      "eng": "The Irregular at Magic High School The Movie: The Girl Who Summons The Stars ",
      "jpn": "劇場版 魔法科高校の劣等生 星を呼ぶ少女",
      "chi": "魔法科高中的劣等生 呼喚繁星的少女",
      "qro": "Gekijôban Mahôka Kôkô no Rettôsei: Hoshi o Yobu Shôjo"
    },
    "modified_at": "2020-07-07T21:26:41.839Z",
    "name": "Gekijôban Mahôka Kôkô no Rettôsei: Hoshi o Yobu Shôjo",
    "repository": "kara.moe",
    "tid": "15f5b71d-e70b-4731-aba1-51a667ec4894",
    "types": [
      "series",
      "1"
    ]
  }
}