{
  "header": {
    "description": "Karaoke Mugen Tag File",
    "version": 1
  },
  "tag": {
    "aliases": [
      "Macross Frontier the MOVIE ~The False Diva~",
      "Macross Frontier: Itsuwari no Utahime",
      "Macross Frontier: The False Diva",
      "Macross Frontier: The Songstress of Lies",
      "gekijouban"
    ],
    "external_database_ids": {
      "anilist": 5310,
      "myanimelist": 5310,
      "kitsu": 4051
    },
    "i18n": {
      "eng": "Macross Frontier ‒ The Movie: The False Songstress",
      "jpn": "劇場版 マクロスF 虚空歌姫~イツワリノウタヒメ~",
      "qro": "Gekijôban Macross Frontier: Itsuwari wa Utahime"
    },
    "modified_at": "2020-03-31T19:04:31.535Z",
    "name": "Gekijôban Macross Frontier: Itsuwari wa Utahime",
    "repository": "kara.moe",
    "tid": "0bb02f0b-9016-4cbb-96ad-17d3ba9fffd2",
    "types": [
      "series",
      "1"
    ]
  }
}