{
  "header": {
    "description": "Karaoke Mugen Tag File",
    "version": 1
  },
  "tag": {
    "aliases": [
      "Gekijouban"
    ],
    "external_database_ids": {
      "anilist": 371,
      "kitsu": 338,
      "myanimelist": 371
    },
    "i18n": {
      "eng": "Cardcaptor Sakura: The Movie",
      "jpn": "劇場版 カードキャプターさくら",
      "fre": "Cardcaptor Sakura : Le voyage à Hong Kong",
      "fin": "Cardcaptor Sakura",
      "swe": "Cardcaptor Sakura - the movie",
      "ger": "Cardcaptor Sakura: The Movie - Die Reise nach Hongkong",
      "est": "Sakura võlukaart",
      "pol": "Zdobywczyni kart Sakura: Film pierwszy"
    },
    "name": "Gekijôban Cardcaptor Sakura",
    "repository": "kara.moe",
    "tid": "f3e76ae3-6fb0-491a-b8a3-140706dbc16e",
    "types": [
      "series",
      "1"
    ]
  }
}