{
  "header": {
    "description": "Karaoke Mugen Tag File",
    "version": 1
  },
  "tag": {
    "aliases": [
      "Boundary of Emptiness: The Garden of Sinners",
      "Garden of Sinner",
      "Günahkarlar Bahçesi",
      "Kara no Kyoukai",
      "KnK1",
      "Rakkyo1",
      "Tuštumos Riba: Nusidėjėlių Sodas",
      "knk",
      "rakkyo",
      "Граница пустоты: Сад грешников",
      "Границата на празнота",
      "Межа пустоти: Сад грішників",
      "حدود الفراغ : حديقة الآثمين",
      "らっきょ",
      "空の境界",
      "空之境界",
      "gekijouban",
      "kyoukai"
    ],
    "external_database_ids": {
      "anilist": 2593,
      "myanimelist": 2593,
      "kitsu": 2357
    },
    "i18n": {
      "chi": "剧场版 空之境界",
      "eng": "The Garden of Sinners",
      "fre": "Kara no Kyôkai ‒ The Garden of Sinners",
      "ger": "The Garden of Sinners",
      "jpn": "劇場版 空の境界 the Garden of sinners",
      "kor": "공의 경계",
      "qro": "Gekijôban Kara no Kyôkai: The Garden of Sinners"
    },
    "modified_at": "2020-03-31T19:04:31.534Z",
    "name": "Gekijôban Kara no Kyôkai: The Garden of Sinners",
    "repository": "kara.moe",
    "tid": "b987cd64-49f4-4460-9498-cc590630dd08",
    "types": [
      "series",
      "1",
      "franchises",
      "18"
    ]
  }
}