{
  "header": {
    "description": "Karaoke Mugen Tag File",
    "version": 1
  },
  "tag": {
    "aliases": [
      "Gekijouban Psycho-Pass",
      "Psychopath Movie",
      "劇場版 サイコパス",
      "gekijouban"
    ],
    "external_database_ids": {
      "anilist": 20514,
      "myanimelist": 21339,
      "kitsu": 7986
    },
    "i18n": {
      "chi": "PSYCHO-PASS心靈判官劇場版",
      "eng": "Psycho-Pass: The Movie",
      "ger": "Psycho-Pass: Der Film",
      "jpn": "劇場版 PSYCHO-PASS",
      "qro": "Gekijôban Psycho-Pass"
    },
    "modified_at": "2020-03-31T19:04:31.541Z",
    "name": "Gekijôban Psycho-Pass",
    "repository": "kara.moe",
    "tid": "4f2f330f-83b9-4447-a13f-026ad956056c",
    "types": [
      "series",
      "1"
    ]
  }
}