{
  "header": {
    "description": "Karaoke Mugen Tag File",
    "version": 1
  },
  "tag": {
    "aliases": [
      "Hayate the Combat Butler! Heaven is a Place on Earth",
      "hayate movie",
      "hng movie",
      "gekijouban"
    ],
    "external_database_ids": {
      "anilist": 9958,
      "myanimelist": 9958,
      "kitsu": 5965
    },
    "i18n": {
      "eng": "Hayate the Combat Butler ‒ The Movie: Heaven Is a Place on Earth",
      "jpn": "劇場版 ハヤテのごとく! HEAVEN IS A PLACE ON EARTH",
      "qro": "Gekijôban Hayate no Gotoku! Heaven Is a Place on Earth"
    },
    "modified_at": "2020-03-31T19:04:31.532Z",
    "name": "Gekijôban Hayate no Gotoku! Heaven Is a Place on Earth",
    "repository": "kara.moe",
    "tid": "9ec74b86-43e3-4255-8774-b5a665d41cc1",
    "types": [
      "series",
      "1"
    ]
  }
}