{
  "header": {
    "description": "Karaoke Mugen Tag File",
    "version": 1
  },
  "tag": {
    "aliases": [
      "Gekkou Kamen",
      "gekkou"
    ],
    "i18n": {
      "eng": "Moonlight Mask",
      "fre": "Gekkô Kamen",
      "jpn": "月光仮面",
      "qro": "Gekkô Kamen"
    },
    "modified_at": "2020-03-31T19:04:31.545Z",
    "name": "Gekkô Kamen",
    "repository": "kara.moe",
    "tid": "a257e22f-3566-482a-a734-0d2727b6b6ae",
    "types": [
      "series",
      "1",
      "franchises",
      "18"
    ]
  }
}