{
  "header": {
    "description": "Karaoke Mugen Tag File",
    "version": 1
  },
  "tag": {
    "i18n": {
      "eng": "GELMETTI"
    },
    "name": "GELMETTI",
    "tid": "7af24e14-3f6d-4209-bd2a-3d5ba2adc66d",
    "types": [
      "songwriters",
      "8"
    ],
    "repository": "kara.moe",
    "modified_at": "2020-03-31T19:04:34.482Z"
  }
}