{
  "header": {
    "description": "Karaoke Mugen Tag File",
    "version": 1
  },
  "tag": {
    "i18n": {
      "eng": "Gemie"
    },
    "name": "Gemie",
    "tid": "83daaea6-d7a6-4113-ba80-f007efb21a3f",
    "types": [
      "singers",
      "2"
    ],
    "repository": "kara.moe",
    "modified_at": "2020-03-31T19:04:34.483Z"
  }
}