{
  "header": {
    "description": "Karaoke Mugen Tag File",
    "version": 1
  },
  "tag": {
    "i18n": {
      "eng": "Geneviève Doang"
    },
    "modified_at": "2020-12-20T20:16:21.311Z",
    "name": "Geneviève Doang",
    "repository": "kara.moe",
    "tid": "d5bc706d-c0cc-4b6a-89a9-428fd7da3207",
    "types": [
      "singers",
      "2"
    ]
  }
}