{
  "header": {
    "description": "Karaoke Mugen Tag File",
    "version": 1
  },
  "tag": {
    "external_database_ids": {
      "anilist": 151513,
      "kitsu": 46213,
      "myanimelist": 52214
    },
    "i18n": {
      "jpn": "幻日のヨハネ -SUNSHINE in the MIRROR-",
      "qro": "Genjitsu no Yohane -SUNSHINE in the MIRROR-",
      "eng": "Yohane the Parhelion -SUNSHINE in the MIRROR-"
    },
    "name": "Genjitsu no Yohane -SUNSHINE in the MIRROR-",
    "repository": "kara.moe",
    "tid": "7088e690-114c-45fb-8044-1839b7151723",
    "types": [
      "series",
      "1"
    ]
  }
}