{
  "header": {
    "description": "Karaoke Mugen Tag File",
    "version": 1
  },
  "tag": {
    "i18n": {
      "eng": "Genki Rockets"
    },
    "name": "Genki Rockets",
    "tid": "8a256258-1b9c-40e6-ae66-48d9fa86f60c",
    "types": [
      "singers",
      "2",
      "songwriters",
      "8"
    ],
    "repository": "kara.moe",
    "modified_at": "2020-03-31T19:04:34.492Z"
  }
}