{
  "header": {
    "description": "Karaoke Mugen Tag File",
    "version": 1
  },
  "tag": {
    "i18n": {
      "eng": "Gensho Yasuda"
    },
    "modified_at": "2021-03-05T22:51:56.633Z",
    "name": "Gensho Yasuda",
    "repository": "kara.moe",
    "tid": "ca0d9805-4f3c-44f8-b963-b9dfc06a893a",
    "types": [
      "creators",
      "4"
    ]
  }
}