{
  "header": {
    "description": "Karaoke Mugen Tag File",
    "version": 1
  },
  "tag": {
    "aliases": [
      "Gensoumaden Saiyuuki",
      "Saiyuki - La légende du roi des singes",
      "Saiyuki - Légende du mal féérique",
      "Пътуване на Запад",
      "gensou",
      "saiyuuki"
    ],
    "external_database_ids": {
      "anilist": 129,
      "myanimelist": 129,
      "kitsu": 108
    },
    "i18n": {
      "eng": "Saiyuki",
      "fre": "Saiyuki",
      "ger": "Saiyuki",
      "jpn": "幻想魔伝 最遊記",
      "por": "Saiyuki",
      "tha": "ไซยูกิ 4 แสบซ่าส์ล่าอสูร",
      "qro": "Gensô Maden Saiyûki"
    },
    "modified_at": "2020-03-31T19:04:31.552Z",
    "name": "Gensô Maden Saiyûki",
    "repository": "kara.moe",
    "tid": "4984402b-ba02-4bd1-a847-59dd10b74ae3",
    "types": [
      "series",
      "1"
    ]
  }
}