{
  "header": {
    "description": "Karaoke Mugen Tag File",
    "version": 1
  },
  "tag": {
    "i18n": {
      "eng": "Geoffrey Derives"
    },
    "name": "Geoffrey Derives",
    "repository": "kara.moe",
    "tid": "5664a21a-31d7-4553-b309-4996a9159f4e",
    "types": [
      "singers",
      "2"
    ]
  }
}