{
  "header": {
    "description": "Karaoke Mugen Tag File",
    "version": 1
  },
  "tag": {
    "i18n": {
      "eng": "George Gabriel"
    },
    "name": "George Gabriel",
    "tid": "7d89fcfa-9313-4b9d-aafb-0b99b29acb93",
    "types": [
      "songwriters",
      "8"
    ],
    "repository": "kara.moe",
    "modified_at": "2020-03-31T19:04:34.497Z"
  }
}