{
  "header": {
    "description": "Karaoke Mugen Tag File",
    "version": 1
  },
  "tag": {
    "i18n": {
      "eng": "George Yanagi"
    },
    "name": "George Yanagi",
    "tid": "9d5044f7-a7dc-4d7e-888f-17f1c659a7a7",
    "types": [
      "singers",
      "2"
    ],
    "repository": "kara.moe",
    "modified_at": "2020-03-31T19:04:34.498Z"
  }
}