{
  "header": {
    "description": "Karaoke Mugen Tag File",
    "version": 1
  },
  "tag": {
    "i18n": {
      "eng": "Gérard Demaizière"
    },
    "modified_at": "2021-02-05T20:57:32.724Z",
    "name": "Gérard Demaizière",
    "repository": "kara.moe",
    "tid": "e53bd3d4-a7e0-490c-ba96-936866ec2d49",
    "types": [
      "songwriters",
      "8"
    ]
  }
}