{
  "header": {
    "description": "Karaoke Mugen Tag File",
    "version": 1
  },
  "tag": {
    "i18n": {
      "eng": "Géraldine Frippiat"
    },
    "modified_at": "2020-04-17T21:59:48.692Z",
    "name": "Géraldine Frippiat",
    "repository": "kara.moe",
    "tid": "3a3fb360-1573-4a5d-b462-c7aa62d4ee7f",
    "types": [
      "singers",
      "2"
    ]
  }
}