{
  "header": {
    "description": "Karaoke Mugen Tag File",
    "version": 1
  },
  "tag": {
    "i18n": {
      "eng": "Gesshoku Kaigi"
    },
    "name": "Gesshoku Kaigi",
    "tid": "2dab0546-285e-4152-8e42-ff70440e80aa",
    "types": [
      "songwriters",
      "8",
      "singers",
      "2"
    ],
    "repository": "kara.moe",
    "modified_at": "2020-03-31T19:04:34.503Z"
  }
}