{
  "header": {
    "description": "Karaoke Mugen Tag File",
    "version": 1
  },
  "tag": {
    "aliases": [
      "Tawawa on Monday Two"
    ],
    "external_database_ids": {
      "anilist": 139449,
      "myanimelist": 49854,
      "kitsu": 45228
    },
    "i18n": {
      "eng": "Tawawa on Monday 2",
      "chi": "周一的丰满 2",
      "jpn": "月曜日のたわわ2",
      "qro": "Getsuyoubi no Tawawa 2"
    },
    "name": "Getsuyôbi no Tawawa 2",
    "repository": "kara.moe",
    "tid": "14b23874-81f1-42fc-a083-24455e737b19",
    "types": [
      "series",
      "1"
    ]
  }
}