{
  "header": {
    "description": "Karaoke Mugen Tag File",
    "version": 1
  },
  "tag": {
    "i18n": {
      "eng": "GHOST DATA"
    },
    "name": "GHOST DATA",
    "repository": "kara.moe",
    "tid": "8fe80763-8195-4cd7-80f1-0eb847aa71ff",
    "types": [
      "songwriters",
      "8"
    ]
  }
}