{
  "header": {
    "description": "Karaoke Mugen Tag File",
    "version": 1
  },
  "tag": {
    "i18n": {
      "eng": "Giampi Daldello"
    },
    "modified_at": "2021-10-15T21:17:48.907Z",
    "name": "Giampi Daldello",
    "repository": "kara.moe",
    "tid": "0544510e-87f1-4127-8624-af6959631071",
    "types": [
      "singers",
      "2"
    ]
  }
}