{
  "header": {
    "description": "Karaoke Mugen Tag File",
    "version": 1
  },
  "tag": {
    "i18n": {
      "eng": "Gift-o’-Animation"
    },
    "name": "Gift-o’-Animation",
    "repository": "kara.moe",
    "tid": "47eee904-fe5a-4870-ae10-dbf28cdbc0b0",
    "types": [
      "creators",
      "4"
    ]
  }
}