{
  "header": {
    "description": "Karaoke Mugen Tag File",
    "version": 1
  },
  "tag": {
    "i18n": {
      "eng": "Gilles Péram"
    },
    "name": "Gilles Péram",
    "repository": "kara.moe",
    "tid": "61960e53-dea0-450b-9581-96f1ba41c3fe",
    "types": [
      "songwriters",
      "8"
    ]
  }
}