{
  "header": {
    "description": "Karaoke Mugen Tag File",
    "version": 1
  },
  "tag": {
    "i18n": {
      "eng": "Gin (BUSTED ROSE)"
    },
    "name": "Gin (BUSTED ROSE)",
    "repository": "kara.moe",
    "tid": "3484b543-438c-43fe-89c7-537885597f39",
    "types": [
      "songwriters",
      "8"
    ]
  }
}