{
  "header": {
    "description": "Karaoke Mugen Tag File",
    "version": 1
  },
  "tag": {
    "aliases": [
      "Galactic Gale Baxingar",
      "Ginga Reppuu Baxingar",
      "reppuu"
    ],
    "external_database_ids": {
      "anilist": 4242,
      "myanimelist": 4242,
      "kitsu": 3535
    },
    "i18n": {
      "eng": "Galactic Gale Baxinger",
      "jpn": "銀河烈風バクシンガー",
      "qro": "Ginga Reppû Baxinger"
    },
    "modified_at": "2020-03-31T19:04:31.564Z",
    "name": "Ginga Reppû Baxinger",
    "repository": "kara.moe",
    "tid": "1f00e73e-5fc6-4974-8a19-f411a659b2b2",
    "types": [
      "series",
      "1"
    ]
  }
}