{
  "header": {
    "description": "Karaoke Mugen Tag File",
    "version": 1
  },
  "tag": {
    "i18n": {
      "eng": "Ginny Redington"
    },
    "name": "Ginny Redington",
    "tid": "3c72c3af-0a66-4f6c-9c2c-3b6dd43f9840",
    "types": [
      "songwriters",
      "8"
    ],
    "repository": "kara.moe",
    "modified_at": "2020-03-31T19:04:34.515Z"
  }
}