{
  "header": {
    "description": "Karaoke Mugen Tag File",
    "version": 1
  },
  "tag": {
    "aliases": [
      "Gintama (2015)",
      "Gintama 4",
      "Gintama: Season 3",
      "Gintama° Saraba Shinsengumi Hen",
      "Gintama° Shougun Ansatsu Hen",
      "銀魂°",
      "銀魂° さらば真選組篇",
      "銀魂° 将軍暗殺篇",
      "gintama0"
    ],
    "external_database_ids": {
      "anilist": 20996,
      "myanimelist": 28977,
      "kitsu": 10083
    },
    "i18n": {
      "chi": "银魂°",
      "eng": "Gintama° (4th Season)",
      "jpn": "銀魂°",
      "qro": "Gintama°"
    },
    "modified_at": "2020-06-21T23:45:31.966Z",
    "name": "Gintama°",
    "repository": "kara.moe",
    "tid": "b8ed397b-b120-4cd1-9913-56f6c3255d88",
    "types": [
      "series",
      "1"
    ]
  }
}