{
  "header": {
    "description": "Karaoke Mugen Tag File",
    "version": 1
  },
  "tag": {
    "external_database_ids": {
      "anilist": 100784,
      "kitsu": 14095,
      "myanimelist": 36838
    },
    "i18n": {
      "eng": "Gintama.: Silver Soul Arc",
      "jpn": "銀魂. 銀ノ魂篇",
      "qro": "Gintama.: Shirogane no Tamashii-hen"
    },
    "name": "Gintama.: Shirogane no Tamashii-hen",
    "repository": "kara.moe",
    "tid": "835cb643-34f2-4a14-9b73-3b168b395334",
    "types": [
      "series",
      "1"
    ]
  }
}