{
  "header": {
    "description": "Karaoke Mugen Tag File",
    "version": 1
  },
  "tag": {
    "i18n": {
      "eng": "Giordano Bruno Martelli"
    },
    "name": "Giordano Bruno Martelli",
    "tid": "81d9a63a-3f25-4d9f-88f3-2589cdc4cd41",
    "types": [
      "songwriters",
      "8"
    ],
    "repository": "kara.moe",
    "modified_at": "2020-03-31T19:04:34.516Z"
  }
}