{
  "header": {
    "description": "Karaoke Mugen Tag File",
    "version": 1
  },
  "tag": {
    "aliases": [
      "Giorgio Cancemi"
    ],
    "i18n": {
      "eng": "Giorgio 13"
    },
    "name": "Giorgio 13",
    "tid": "76945196-5c1b-41d1-a48e-eba477e5d2cc",
    "types": [
      "songwriters",
      "8"
    ],
    "repository": "kara.moe",
    "modified_at": "2020-03-31T19:04:34.517Z"
  }
}