{
  "header": {
    "description": "Karaoke Mugen Tag File",
    "version": 1
  },
  "tag": {
    "i18n": {
      "eng": "giotto664"
    },
    "modified_at": "2020-08-16T14:57:29.358Z",
    "name": "giotto664",
    "repository": "kara.moe",
    "tid": "cfb0d374-1cfc-4ae2-bf3a-f851b2849483",
    "types": [
      "authors",
      "6"
    ]
  }
}