{
  "header": {
    "description": "Karaoke Mugen Tag File",
    "version": 1
  },
  "tag": {
    "i18n": {
      "eng": "Girlish Number"
    },
    "name": "Girlish Number",
    "tid": "8b93069d-e4e9-4a39-aff5-32a27dde0ead",
    "types": [
      "singers",
      "2"
    ],
    "repository": "kara.moe",
    "modified_at": "2020-03-31T19:04:34.520Z"
  }
}