{
  "header": {
    "description": "Karaoke Mugen Tag File",
    "version": 1
  },
  "tag": {
    "aliases": [
      "Girls Bravo (2005)",
      "Girls Bravo 2",
      "bravo2",
      "gb2",
      "gbs2",
      "Браво девушки! (второй сезон)",
      "女孩萬歲"
    ],
    "external_database_ids": {
      "anilist": 487,
      "myanimelist": 487,
      "kitsu": 448
    },
    "i18n": {
      "eng": "Girls Bravo: Second Season",
      "jpn": "GIRLSブラボー second season",
      "qro": "Girls Bravo: Second Season"
    },
    "modified_at": "2020-03-31T19:04:31.575Z",
    "name": "Girls Bravo: Second Season",
    "repository": "kara.moe",
    "tid": "762f45b7-6657-4750-94f3-998bfac60095",
    "types": [
      "series",
      "1"
    ]
  }
}