{
  "header": {
    "description": "Karaoke Mugen Tag File",
    "version": 1
  },
  "tag": {
    "aliases": [
      "Garupan",
      "Girls & Panzer",
      "Girls and Panzer",
      "Girls und Panzer: Saishuushou",
      "GuP",
      "Kızlar ve Panzerler",
      "Mädchen und Panzer",
      "garupan",
      "ガルパン",
      "ガールズ&パンツァー",
      "女子高生&重戰車",
      "少女与战车",
      "saishuushou"
    ],
    "external_database_ids": {
      "anilist": 99938,
      "myanimelist": 33970,
      "kitsu": 12628
    },
    "i18n": {
      "jpn": "ガールズ＆パンツァー 劇場版",
      "qro": "GIRLS und PANZER Saishûshô",
      "fre": "GIRLS und PANZER das FINALE",
      "eng": "GIRLS und PANZER das FINALE"
    },
    "modified_at": "2021-09-30T16:35:25.663Z",
    "name": "GIRLS und PANZER Saishûshô",
    "repository": "kara.moe",
    "tid": "286f9d84-0590-45a8-b556-6e71670fb07d",
    "types": [
      "series",
      "1"
    ]
  }
}