{
  "header": {
    "description": "Karaoke Mugen Tag File",
    "version": 1
  },
  "tag": {
    "i18n": {
      "eng": "Girls Dead Monster"
    },
    "name": "Girls Dead Monster",
    "tid": "2971bae2-00f5-4554-ab20-b85c94be4aff",
    "types": [
      "singers",
      "2"
    ],
    "repository": "kara.moe",
    "modified_at": "2020-03-31T19:04:34.521Z"
  }
}