{
  "header": {
    "description": "Karaoke Mugen Tag File",
    "version": 1
  },
  "tag": {
    "aliases": [
      "GF Beta",
      "GF Kari",
      "Girlfriend Beta"
    ],
    "external_database_ids": {
      "anilist": 20757,
      "myanimelist": 24855,
      "kitsu": 8632
    },
    "i18n": {
      "eng": "Girl Friend Beta",
      "jpn": "ガールフレンド(仮)",
      "qro": "Girl Friend (Kari)"
    },
    "modified_at": "2020-03-31T19:04:31.574Z",
    "name": "Girl Friend (Kari)",
    "repository": "kara.moe",
    "tid": "ff677d60-398c-4415-82ef-c85e0091f508",
    "types": [
      "series",
      "1"
    ]
  }
}