{
  "header": {
    "description": "Karaoke Mugen Tag File",
    "version": 1
  },
  "tag": {
    "i18n": {
      "eng": "GIRLFRIEND"
    },
    "name": "GIRLFRIEND",
    "tid": "8ad69789-4595-4e02-abc3-799be5224150",
    "types": [
      "singers",
      "2",
      "songwriters",
      "8"
    ],
    "repository": "kara.moe",
    "modified_at": "2020-03-31T19:04:34.519Z"
  }
}