{
  "header": {
    "description": "Karaoke Mugen Tag File",
    "version": 1
  },
  "tag": {
    "i18n": {
      "eng": "Giron DSGN"
    },
    "name": "Giron DSGN",
    "repository": "kara.moe",
    "tid": "963c0c97-f6da-4261-9acd-9aa6c62c3d0a",
    "types": [
      "creators",
      "4"
    ]
  }
}