{
  "header": {
    "description": "Karaoke Mugen Tag File",
    "version": 1
  },
  "tag": {
    "i18n": {
      "eng": "Gishi"
    },
    "modified_at": "2020-09-26T11:18:01.206Z",
    "name": "Gishi",
    "repository": "kara.moe",
    "tid": "6a7b5929-45da-4c16-bd82-7bb30a41f7b1",
    "types": [
      "creators",
      "4"
    ]
  }
}