{
  "header": {
    "description": "Karaoke Mugen Tag File",
    "version": 1
  },
  "tag": {
    "aliases": [
      "グラスハートプリンセス:プラチナム"
    ],
    "i18n": {
      "eng": "Glass Heart Princess: Platinum",
      "jpn": "グラスハートプリンセス:プラチナム",
      "qro": "Glass Heart Princess Platinum"
    },
    "modified_at": "2020-03-31T19:04:31.579Z",
    "name": "Glass Heart Princess Platinum",
    "repository": "kara.moe",
    "tid": "5df7cfd6-0085-43ae-8341-1c510f81058b",
    "types": [
      "series",
      "1"
    ]
  }
}