{
  "header": {
    "description": "Karaoke Mugen Tag File",
    "version": 1
  },
  "tag": {
    "aliases": [
      "Glass Mask",
      "Mask of Glass"
    ],
    "external_database_ids": {
      "anilist": 506,
      "myanimelist": 506,
      "kitsu": 465
    },
    "i18n": {
      "eng": "Glass Mask",
      "fre": "Laura ou la passion du théâtre",
      "ita": "Il grande sogno di Maya",
      "jpn": "ガラスの仮面",
      "qro": "Glass no Kamen"
    },
    "modified_at": "2020-03-31T19:04:31.580Z",
    "name": "Glass no Kamen",
    "repository": "kara.moe",
    "tid": "320600e3-92c2-4816-ba53-b1c5da98aafc",
    "types": [
      "series",
      "1",
      "franchises",
      "18"
    ]
  }
}