{
  "header": {
    "description": "Karaoke Mugen Tag File",
    "version": 1
  },
  "tag": {
    "aliases": [
      "GM",
      "Garasu no Kamen",
      "Szklana Maska",
      "Стеклянная маска",
      "قناع زجاجي",
      "玻璃假面"
    ],
    "external_database_ids": {
      "anilist": 1974,
      "myanimelist": 1974,
      "kitsu": 1777
    },
    "i18n": {
      "eng": "Glass Mask (2005)",
      "fre": "Laura ou la passion du théâtre (2005)",
      "jpn": "ガラスの仮面 (2005)",
      "tha": "หน้ากากแก้ว",
      "qro": "Glass no Kamen (2005)"
    },
    "modified_at": "2020-03-31T19:04:31.580Z",
    "name": "Glass no Kamen (2005)",
    "repository": "kara.moe",
    "tid": "30bb3d9d-a37a-44df-ab59-324dfa94b2cd",
    "types": [
      "series",
      "1"
    ]
  }
}