{
  "header": {
    "description": "Karaoke Mugen Tag File",
    "version": 1
  },
  "tag": {
    "i18n": {
      "afr": "Galisies",
      "amh": "ጋሊሺኛ",
      "ara": "الجاليكية",
      "aze": "Галичанин",
      "bak": "Ғәлиәнән",
      "bel": "Галичанин",
      "bul": "Галичанин",
      "ben": "গালিসিয়ান",
      "bos": "Hebrejski",
      "cat": "Gallec",
      "cze": "Galicijština",
      "wel": "Galiseg",
      "dan": "Galicisk",
      "ger": "Galizisch",
      "gre": "Γαλικιανά",
      "eng": "Galician",
      "epo": "Galega lingvo",
      "spa": "Gallego",
      "est": "Galeegi",
      "baq": "Galiziako",
      "per": "گالیسیایی",
      "fin": "Galician",
      "fre": "Galicien",
      "gle": "Gailísis",
      "gla": "Gailìsis",
      "glg": "Galego",
      "guj": "ગેલિશિયન",
      "heb": "גליציאנית",
      "hin": "गैलिशियन्",
      "hrv": "Галичанин",
      "hat": "Galisyen",
      "hun": "Galíciai",
      "arm": "Галичанин",
      "ind": "Bahasa galisia",
      "ice": "Gallegska",
      "ita": "Galiziano",
      "jpn": "ガリシア",
      "jav": "Galisia",
      "geo": "გალიციური",
      "kaz": "Галичанин",
      "kan": "ಗ್ಯಾಲಿಶಿಯನ್",
      "kor": "갈리시아어",
      "kir": "Галичанин",
      "lat": "Gallego",
      "lit": "Galicijos",
      "lav": "Galisiešu",
      "mlg": "Tsimihety",
      "mao": "Galician",
      "mac": "Галицијански",
      "mal": "ഗലീഷ്യൻ",
      "mon": "Галисян",
      "mar": "गॅलिशियन",
      "may": "Perkara yang perlu dilakukan",
      "mlt": "Il-galizjan",
      "nep": "गलिसियन्",
      "dut": "Galicisch",
      "nor": "Galisisk",
      "pan": "ਗਲੀਸੀ",
      "pol": "Galileusz",
      "por": "Galego",
      "rum": "Galiciană",
      "rus": "Галичанин",
      "sin": "Galician",
      "slo": "Galícijčina",
      "slv": "Galicijski",
      "alb": "Galician",
      "srp": "Галичанин",
      "sun": "Tempo ogé",
      "swe": "Galiciska",
      "swa": "Galician",
      "tam": "காலிஸியன்",
      "tel": "గెలిషియన్",
      "tgk": "Галичанин",
      "tha": "ภาษาแกลิเชียน name",
      "tgl": "Galician",
      "tur": "Galiçya",
      "tat": "Галичанин",
      "ukr": "Галичанин",
      "urd": "گالیشیائی",
      "uzb": "Turkcha",
      "vie": "Tiếng azerbaijan",
      "xho": "Galicianname",
      "yid": "גאליציאנער",
      "chi": "加利西亚"
    },
    "name": "glg",
    "tid": "85d35cb2-d3f5-49d1-8112-37cbd489d2d4",
    "types": [
      "langs",
      "5"
    ],
    "repository": "kara.moe",
    "modified_at": "2020-03-31T19:04:34.528Z"
  }
}