{
  "header": {
    "description": "Karaoke Mugen Tag File",
    "version": 1
  },
  "tag": {
    "i18n": {
      "eng": "globe"
    },
    "modified_at": "2020-08-20T14:02:14.078Z",
    "name": "globe",
    "repository": "kara.moe",
    "tid": "86676a3d-854d-4cbb-bfee-b94870ac4d36",
    "types": [
      "singers",
      "2"
    ]
  }
}