{
  "header": {
    "description": "Karaoke Mugen Tag File",
    "version": 1
  },
  "tag": {
    "i18n": {
      "eng": "Gloria Estefan"
    },
    "name": "Gloria Estefan",
    "repository": "kara.moe",
    "tid": "89b1896c-cac5-4848-abc0-aa712305b0ed",
    "types": [
      "songwriters",
      "8"
    ]
  }
}