{
  "header": {
    "description": "Karaoke Mugen Tag File",
    "version": 1
  },
  "tag": {
    "i18n": {
      "eng": "Glove on Fight",
      "jpn": "グローブオンファイト",
      "qro": "Glove on Fight"
    },
    "modified_at": "2020-03-31T19:04:31.581Z",
    "name": "Glove on Fight",
    "repository": "kara.moe",
    "tid": "d6b82d5f-2bcc-4552-8f2a-9cf7cd56b0fc",
    "types": [
      "series",
      "1"
    ]
  }
}