{
  "header": {
    "description": "Karaoke Mugen Tag File",
    "version": 1
  },
  "tag": {
    "i18n": {
      "eng": "Gneziio"
    },
    "name": "Gneziio",
    "repository": "kara.moe",
    "tid": "7d55c15a-6c39-45e8-9fcd-a009f6326678",
    "types": [
      "creators",
      "4"
    ]
  }
}