{
  "header": {
    "description": "Karaoke Mugen Tag File",
    "version": 1
  },
  "tag": {
    "i18n": {
      "eng": "Go Nagai Robot Family"
    },
    "modified_at": "2020-03-31T19:04:31.583Z",
    "name": "Go Nagai Robot Family",
    "repository": "kara.moe",
    "tid": "707f7e5b-e50d-450e-acbb-083faafb0fe9",
    "types": [
      "series",
      "1"
    ]
  }
}