{
  "header": {
    "description": "Karaoke Mugen Tag File",
    "version": 1
  },
  "tag": {
    "aliases": [
      "Go-Toubun no Hanayome ∬",
      "5-Toubun no Hanayome ∬",
      "5-Tobun no Hanayome ∬",
      "Gotobun no Hanayome ∬",
      "Gotoubun no Hanayome ∬",
      "The Five Wedded Brides",
      "Go-Tobun no Hanayome FF",
      "Go-Toubun no Hanayome Fortissimo",
      "go-toubun",
      "fortissimo"
    ],
    "external_database_ids": {
      "anilist": 109261,
      "myanimelist": 39783,
      "kitsu": 42324
    },
    "i18n": {
      "eng": "The Quintessential Quintuplets 2",
      "jpn": "五等分の花嫁∬",
      "qro": "Go-Tôbun no Hanayome ∬"
    },
    "modified_at": "2021-01-08T21:47:15.417Z",
    "name": "Go-Tôbun no Hanayome ∬",
    "repository": "kara.moe",
    "tid": "4aba5bdc-799c-4ffb-801f-4739816e1ae3",
    "types": [
      "series",
      "1"
    ]
  }
}