{
  "header": {
    "description": "Karaoke Mugen Tag File",
    "version": 1
  },
  "tag": {
    "i18n": {
      "eng": "GOATBED"
    },
    "name": "GOATBED",
    "tid": "27070511-6abe-4442-8a5e-312b6e973836",
    "types": [
      "singers",
      "2",
      "songwriters",
      "8"
    ],
    "repository": "kara.moe",
    "modified_at": "2020-03-31T19:04:34.531Z"
  }
}