{
  "header": {
    "description": "Karaoke Mugen Tag File",
    "version": 1
  },
  "tag": {
    "aliases": [
      "Gods Eater 2",
      "Богоядец 2",
      "ゴッドイーター2",
      "噬魂者2"
    ],
    "i18n": {
      "eng": "God Eater 2",
      "fre": "God Eater 2",
      "jpn": "GOD EATER 2",
      "qro": "God Eater 2"
    },
    "modified_at": "2020-03-31T19:04:31.586Z",
    "name": "God Eater 2",
    "repository": "kara.moe",
    "tid": "49756ec3-969e-4b03-847c-42c69137a507",
    "types": [
      "series",
      "1"
    ]
  }
}