{
  "header": {
    "description": "Karaoke Mugen Tag File",
    "version": 1
  },
  "tag": {
    "aliases": [
      "God of War: Ragnarok"
    ],
    "i18n": {
      "eng": "God of War: Ragnarök",
      "jpn": "ゴッド・オブ・ウォー ラグナロク"
    },
    "name": "God of War: Ragnarök",
    "repository": "kara.moe",
    "tid": "20897f6c-8222-49e0-a258-fc91697a6224",
    "types": [
      "series",
      "1"
    ]
  }
}