{
  "header": {
    "description": "Karaoke Mugen Tag File",
    "version": 1
  },
  "tag": {
    "aliases": [
      "ゴッドハンド"
    ],
    "i18n": {
      "eng": "God Hand",
      "jpn": "GOD HAND",
      "qro": "God Hand"
    },
    "modified_at": "2020-03-31T19:04:31.587Z",
    "name": "God Hand",
    "repository": "kara.moe",
    "tid": "fae7e7bd-0c97-4b97-bcac-37c8f114a757",
    "types": [
      "series",
      "1"
    ]
  }
}