{
  "header": {
    "description": "Karaoke Mugen Tag File",
    "version": 1
  },
  "tag": {
    "external_database_ids": {
      "anilist": 5250,
      "myanimelist": 5250,
      "kitsu": 4012
    },
    "i18n": {
      "eng": "God Mazinger",
      "jpn": "ゴッドマジンガー",
      "qro": "God Mazinger"
    },
    "modified_at": "2020-03-31T19:04:31.588Z",
    "name": "God Mazinger",
    "repository": "kara.moe",
    "tid": "95d18adb-0698-438c-9c4d-b957bedd9c35",
    "types": [
      "series",
      "1"
    ]
  }
}