{
  "header": {
    "description": "Karaoke Mugen Tag File",
    "version": 1
  },
  "tag": {
    "aliases": [
      "Gods Eater",
      "Богоядец",
      "ゴッドイーター",
      "噬魂者"
    ],
    "external_database_ids": {
      "anilist": 20849,
      "myanimelist": 27631,
      "kitsu": 9130
    },
    "i18n": {
      "eng": "God Eater",
      "fre": "God Eater",
      "jpn": "GOD EATER",
      "qro": "God Eater"
    },
    "modified_at": "2020-03-31T19:04:31.587Z",
    "name": "God Eater",
    "repository": "kara.moe",
    "tid": "76856aed-cd68-46aa-b9a8-bc9d7bd0b587",
    "types": [
      "series",
      "1",
      "franchises",
      "18"
    ]
  }
}