{
  "header": {
    "description": "Karaoke Mugen Tag File",
    "version": 1
  },
  "tag": {
    "i18n": {
      "eng": "Goddess Family Club"
    },
    "name": "Goddess Family Club",
    "tid": "c9ed79b5-768e-4193-9773-8b37e4b9c683",
    "types": [
      "singers",
      "2"
    ],
    "repository": "kara.moe",
    "modified_at": "2020-03-31T19:04:34.532Z"
  }
}