{
  "header": {
    "description": "Karaoke Mugen Tag File",
    "version": 1
  },
  "tag": {
    "i18n": {
      "eng": "GODIEGO"
    },
    "name": "GODIEGO",
    "tid": "d7bb6b21-3d4c-472a-a641-f561b754ac4b",
    "types": [
      "singers",
      "2"
    ],
    "repository": "kara.moe",
    "modified_at": "2020-03-31T19:04:34.532Z"
  }
}