{
  "header": {
    "description": "Karaoke Mugen Tag File",
    "version": 1
  },
  "tag": {
    "aliases": [
      "Gojira: Hoshi wo Kû Mono",
      "Godzilla Part 3: The Planet Eater",
      "kuu"
    ],
    "external_database_ids": {
      "anilist": 102353,
      "myanimelist": 37897,
      "kitsu": 13298
    },
    "i18n": {
      "eng": "Godzilla: The Planet Eater",
      "fre": "GODZILLA : Le dévoreur de planètes",
      "ita": "GODZILLA Mangiapianeti",
      "jpn": "GODZILLA 星を喰う者",
      "qro": "Godzilla: Hoshi wo Kû Mono"
    },
    "modified_at": "2021-12-05T21:39:29.467Z",
    "name": "Godzilla: Hoshi wo Kû Mono",
    "repository": "kara.moe",
    "tid": "66b7de53-d356-448d-992d-484d29e8f703",
    "types": [
      "series",
      "1"
    ]
  }
}