{
  "header": {
    "description": "Karaoke Mugen Tag File",
    "version": 1
  },
  "tag": {
    "aliases": [
      "Гокусэн"
    ],
    "external_database_ids": {
      "anilist": 242,
      "myanimelist": 242,
      "kitsu": 217
    },
    "i18n": {
      "eng": "The Gokusen",
      "fre": "Gokusen",
      "jpn": "ごくせん",
      "qro": "Gokusen"
    },
    "modified_at": "2020-03-31T19:04:31.595Z",
    "name": "Gokusen",
    "repository": "kara.moe",
    "tid": "f00940e3-41b5-4a3c-97f3-8510d10739e0",
    "types": [
      "series",
      "1"
    ]
  }
}