{
  "header": {
    "description": "Karaoke Mugen Tag File",
    "version": 1
  },
  "tag": {
    "external_database_ids": {
      "anilist": 20534,
      "myanimelist": 21431,
      "kitsu": 7996
    },
    "i18n": {
      "chi": "极黑的布伦希尔德",
      "eng": "Brynhildr in the Darkness",
      "fre": "Brynhildr in the Darkness",
      "jpn": "極黒のブリュンヒルデ",
      "spa": "Brynhildr in the Darkness",
      "qro": "Gokukoku no Brynhildr"
    },
    "modified_at": "2020-03-31T19:04:31.595Z",
    "name": "Gokukoku no Brynhildr",
    "repository": "kara.moe",
    "tid": "d05b67cb-bd56-4290-bc38-bed293346739",
    "types": [
      "series",
      "1"
    ]
  }
}