{
  "header": {
    "description": "Karaoke Mugen Tag File",
    "version": 1
  },
  "tag": {
    "i18n": {
      "eng": "Gold"
    },
    "name": "Gold",
    "repository": "kara.moe",
    "tid": "a92f873a-7ffd-4f6a-8835-c15ec3147ce6",
    "types": [
      "singers",
      "2"
    ]
  }
}