{
  "header": {
    "description": "Karaoke Mugen Tag File",
    "version": 1
  },
  "tag": {
    "i18n": {
      "eng": "Gom"
    },
    "name": "Gom",
    "tid": "49d38b66-5461-4e30-8167-b1e17c81e2a4",
    "types": [
      "singers",
      "2"
    ],
    "repository": "kara.moe",
    "modified_at": "2020-03-31T19:04:34.538Z"
  }
}