{
  "header": {
    "description": "Karaoke Mugen Tag File",
    "version": 1
  },
  "tag": {
    "i18n": {
      "eng": "Gopa-san"
    },
    "name": "Gopa-san",
    "repository": "kara.moe",
    "tid": "61865310-cb97-496c-a722-364b0a9ba90d",
    "types": [
      "authors",
      "6"
    ]
  }
}