{
  "header": {
    "description": "Karaoke Mugen Tag File",
    "version": 1
  },
  "tag": {
    "i18n": {
      "eng": "Gorillaz"
    },
    "modified_at": "2020-07-05T18:25:38.459Z",
    "name": "Gorillaz",
    "repository": "kara.moe",
    "tid": "2fe199dd-38cb-46d6-947b-cf09ebc7a56b",
    "types": [
      "singers",
      "2"
    ]
  }
}