{
  "header": {
    "description": "Karaoke Mugen Tag File",
    "version": 1
  },
  "tag": {
    "aliases": [
      "Goshuushou-sama Ninomiya-kun",
      "My Condolences Niniomiya-kun",
      "My Heartfelt Sympathy Ninomiya-kun",
      "Нашите съболезнования Ниномия",
      "Примите наши соболезнования Ниномия-кун",
      "忧伤大人二之宫",
      "憂傷大人二之宮",
      "請別憂愁了二之宮同學",
      "goshuushou-sama"
    ],
    "external_database_ids": {
      "anilist": 2494,
      "myanimelist": 2494,
      "kitsu": 2264
    },
    "i18n": {
      "chi": "節哀唷♥二之宮同學",
      "eng": "Good Luck! Ninomiya-kun",
      "fre": "Goshûshô-sama Ninomiya-kun",
      "jpn": "ご愁傷さま二ノ宮くん",
      "qro": "Goshûshô-sama Ninomiya-kun"
    },
    "modified_at": "2020-03-31T19:04:31.597Z",
    "name": "Goshûshô-sama Ninomiya-kun",
    "repository": "kara.moe",
    "tid": "0b364edc-0646-488c-841d-0e2d10f9b7d9",
    "types": [
      "series",
      "1"
    ]
  }
}