{
  "header": {
    "description": "Karaoke Mugen Tag File",
    "version": 1
  },
  "tag": {
    "i18n": {
      "eng": "Gota Nishidera"
    },
    "name": "Gota Nishidera",
    "tid": "1fed417a-db14-42ea-9725-21bd4e8e680e",
    "types": [
      "songwriters",
      "8"
    ],
    "repository": "kara.moe",
    "modified_at": "2020-03-31T19:04:34.547Z"
  }
}