{
  "header": {
    "description": "Karaoke Mugen Tag File",
    "version": 1
  },
  "tag": {
    "i18n": {
      "eng": "Gotye"
    },
    "name": "Gotye",
    "repository": "kara.moe",
    "tid": "27bb6861-ddae-4a67-8e71-101f96abb5e1",
    "types": [
      "singers",
      "2"
    ]
  }
}