{
  "header": {
    "description": "Karaoke Mugen Tag File",
    "version": 1
  },
  "tag": {
    "i18n": {
      "eng": "Gô Shiina"
    },
    "name": "Gô Shiina",
    "tid": "e8980c05-e7f3-4a02-96c6-50b2d74e187e",
    "types": [
      "songwriters",
      "8",
      "singers",
      "2"
    ],
    "repository": "kara.moe",
    "modified_at": "2020-03-31T19:04:34.551Z"
  }
}