{
  "header": {
    "description": "Karaoke Mugen Tag File",
    "version": 1
  },
  "tag": {
    "i18n": {
      "eng": "Gô Sakabe"
    },
    "name": "Gô Sakabe",
    "tid": "731c9f26-b072-4f14-b3b8-ae8b04835f03",
    "types": [
      "songwriters",
      "8"
    ],
    "repository": "kara.moe",
    "modified_at": "2020-03-31T19:04:34.550Z"
  }
}