{
  "header": {
    "description": "Karaoke Mugen Tag File",
    "version": 1
  },
  "tag": {
    "aliases": [
      "Gou Nagai"
    ],
    "i18n": {
      "eng": "Gô Nagai"
    },
    "modified_at": "2020-11-21T15:57:45.514Z",
    "name": "Gô Nagai",
    "repository": "kara.moe",
    "tid": "9d6c1d31-232f-4eb7-b891-9dfe8c894944",
    "types": [
      "songwriters",
      "8"
    ]
  }
}