{
  "header": {
    "description": "Karaoke Mugen Tag File",
    "version": 1
  },
  "tag": {
    "i18n": {
      "eng": "gouthamma"
    },
    "name": "gouthamma",
    "repository": "kara.moe",
    "tid": "9c120131-f3e2-4538-aee6-4acce47d856d",
    "types": [
      "authors",
      "6"
    ]
  }
}