{
  "header": {
    "description": "Karaoke Mugen Tag File",
    "version": 1
  },
  "tag": {
    "aliases": [
      "Go Wapper 5 Go Dam",
      "Goliath the Super Fighter",
      "Goliath the Warrior",
      "Gowappa 5 Gordam",
      "Gowapper-5 Gordam"
    ],
    "external_database_ids": {
      "anilist": 7551,
      "myanimelist": 7551,
      "kitsu": 5027
    },
    "i18n": {
      "eng": "Goliath the Super Fighter",
      "ita": "Godam",
      "jpn": "ゴワッパー5ゴーダム",
      "qro": "Gowapper 5 Godam"
    },
    "modified_at": "2020-06-21T23:45:31.966Z",
    "name": "Gowapper 5 Godam",
    "repository": "kara.moe",
    "tid": "76ab73bf-f4c4-4850-a828-0e628537d7bc",
    "types": [
      "series",
      "1"
    ]
  }
}