{
  "header": {
    "description": "Karaoke Mugen Tag File",
    "version": 1
  },
  "tag": {
    "aliases": [
      "グランブルーファンタジー The Animation Season 2"
    ],
    "external_database_ids": {
      "anilist": 107346,
      "myanimelist": 36587,
      "kitsu": 14132
    },
    "i18n": {
      "eng": "Granblue Fantasy: The Animation Season 2",
      "jpn": "GRANBLUE FANTASY The Animation Season 2",
      "qro": "GRANBLUE FANTASY The Animation Season 2"
    },
    "modified_at": "2020-03-31T19:04:31.600Z",
    "name": "GRANBLUE FANTASY The Animation Season 2",
    "repository": "kara.moe",
    "tid": "d0c06e5f-3f35-4664-a3f6-163a39326b30",
    "types": [
      "series",
      "1"
    ]
  }
}