{
  "header": {
    "description": "Karaoke Mugen Tag File",
    "version": 1
  },
  "tag": {
    "aliases": [
      "Grandia 3"
    ],
    "i18n": {
      "eng": "Grandia III",
      "jpn": "グランディアIII",
      "qro": "Grandia III"
    },
    "modified_at": "2020-03-31T19:04:31.603Z",
    "name": "Grandia III",
    "repository": "kara.moe",
    "tid": "7a4110fd-4ca9-4bc9-bbc0-e6c11a039fa7",
    "types": [
      "series",
      "1"
    ]
  }
}