{
  "header": {
    "description": "Karaoke Mugen Tag File",
    "version": 1
  },
  "tag": {
    "i18n": {
      "eng": "Gratia"
    },
    "name": "Gratia",
    "tid": "41d039bd-1a5a-4312-b75b-ed5bf994b8a4",
    "types": [
      "songwriters",
      "8"
    ],
    "repository": "kara.moe",
    "modified_at": "2020-03-31T19:04:34.560Z"
  }
}