{
  "header": {
    "description": "Karaoke Mugen Tag File",
    "version": 1
  },
  "tag": {
    "aliases": [
      "Gravitation: Lyrics of Love",
      "Гравитация, Притяжение OVA"
    ],
    "external_database_ids": {
      "anilist": 243,
      "myanimelist": 243,
      "kitsu": 218
    },
    "i18n": {
      "eng": "Gravitation OVA",
      "fre": "Gravitation - OAV",
      "ger": "Gravitation OVA",
      "jpn": "グラビテーション",
      "pol": "Gravitation OVA",
      "rus": "Gravitation: Парни со сцены",
      "qro": "Gravitation"
    },
    "modified_at": "2020-03-31T19:04:31.604Z",
    "name": "Gravitation",
    "repository": "kara.moe",
    "tid": "892620cd-2868-477d-b561-657b02231439",
    "types": [
      "series",
      "1"
    ]
  }
}