{
  "header": {
    "description": "Karaoke Mugen Tag File",
    "version": 1
  },
  "tag": {
    "i18n": {
      "eng": "Grease"
    },
    "name": "Grease",
    "repository": "kara.moe",
    "tid": "7e5d9abf-9cb7-4d4e-9d84-ce4fdcd49871",
    "types": [
      "series",
      "1"
    ]
  }
}