{
  "header": {
    "description": "Karaoke Mugen Tag File",
    "version": 1
  },
  "tag": {
    "i18n": {
      "eng": "Gregzilla"
    },
    "name": "Gregzilla",
    "tid": "be44da9b-2d62-4538-a6ec-8af6d16ab10a",
    "types": [
      "creators",
      "4"
    ],
    "repository": "kara.moe",
    "modified_at": "2020-03-31T19:04:34.566Z"
  }
}