{
  "header": {
    "description": "Karaoke Mugen Tag File",
    "version": 1
  },
  "tag": {
    "i18n": {
      "eng": "Greg Kurstin"
    },
    "name": "Greg Kurstin",
    "tid": "00e41a2f-e41a-457f-8b95-61d8b68f2a86",
    "types": [
      "songwriters",
      "8"
    ],
    "repository": "kara.moe",
    "modified_at": "2020-03-31T19:04:34.564Z"
  }
}