{
  "header": {
    "description": "Karaoke Mugen Tag File",
    "version": 1
  },
  "tag": {
    "i18n": {
      "eng": "Greg Collins"
    },
    "modified_at": "2021-10-19T15:20:50.296Z",
    "name": "Greg Collins",
    "repository": "kara.moe",
    "tid": "9ce2e4e3-99bf-454f-b3c7-30854fee5c50",
    "types": [
      "songwriters",
      "8"
    ]
  }
}