{
  "header": {
    "description": "Karaoke Mugen Tag File",
    "version": 1
  },
  "tag": {
    "i18n": {
      "eng": "Gregory Holgate"
    },
    "name": "Gregory Holgate",
    "repository": "kara.moe",
    "tid": "f54a7b3d-a854-4a02-9845-29d89b09e6d1",
    "types": [
      "songwriters",
      "8"
    ]
  }
}