{
  "header": {
    "description": "Karaoke Mugen Tag File",
    "version": 1
  },
  "tag": {
    "i18n": {
      "eng": "Greg Hawco"
    },
    "name": "Greg Hawco",
    "repository": "kara.moe",
    "tid": "5869f1f4-ec52-47b3-befb-5a4b619a2d9d",
    "types": [
      "songwriters",
      "8"
    ]
  }
}