{
  "header": {
    "description": "Karaoke Mugen Tag File",
    "version": 1
  },
  "tag": {
    "i18n": {
      "eng": "GregzillaGT"
    },
    "modified_at": "2021-01-03T23:47:33.520Z",
    "name": "GregzillaGT",
    "repository": "kara.moe",
    "tid": "8b2a2ffd-cacf-4a48-9ee9-535b3cd460b4",
    "types": [
      "creators",
      "4"
    ]
  }
}