{
  "header": {
    "description": "Karaoke Mugen Tag File",
    "version": 1
  },
  "tag": {
    "i18n": {
      "eng": "Grégoire Hellot"
    },
    "name": "Grégoire Hellot",
    "tid": "2a61bcfb-24f5-4bd4-ae0b-56baf2e1109a",
    "types": [
      "creators",
      "4",
      "songwriters",
      "8"
    ],
    "repository": "kara.moe",
    "modified_at": "2020-03-31T19:04:34.565Z"
  }
}