{
  "header": {
    "description": "Karaoke Mugen Tag File",
    "version": 1
  },
  "tag": {
    "i18n": {
      "eng": "Grimoire all star cast"
    },
    "name": "Grimoire all star cast",
    "repository": "kara.moe",
    "tid": "696cf5d7-558f-46b5-aef6-e053bb24dc23",
    "types": [
      "singergroups",
      "17"
    ]
  }
}