{
  "header": {
    "description": "Karaoke Mugen Tag File",
    "version": 1
  },
  "tag": {
    "i18n": {
      "eng": "Groland"
    },
    "name": "Groland",
    "repository": "kara.moe",
    "tid": "7c26d9bb-3fb1-4ff8-8f5d-005c06e0c047",
    "types": [
      "franchises",
      "18"
    ]
  }
}