{
  "header": {
    "description": "Karaoke Mugen Tag File",
    "version": 1
  },
  "tag": {
    "aliases": [
      "GAR",
      "RAVE мастер",
      "the groove adventure RAVE",
      "Пътешествието на Рейв",
      "Рэйв Мастер",
      "レイヴ"
    ],
    "external_database_ids": {
      "anilist": 246,
      "myanimelist": 246,
      "kitsu": 221
    },
    "i18n": {
      "eng": "Rave Master",
      "fre": "Rave",
      "jpn": "GROOVE ADVENTURE RAVE",
      "por": "Rave Master",
      "qro": "Groove Adventure Rave"
    },
    "modified_at": "2020-06-21T23:45:31.966Z",
    "name": "Groove Adventure Rave",
    "repository": "kara.moe",
    "tid": "9a8546bc-2d28-45c9-b77b-72ff23459a07",
    "types": [
      "series",
      "1"
    ]
  }
}