{
  "header": {
    "description": "Karaoke Mugen Tag File",
    "version": 1
  },
  "tag": {
    "i18n": {
      "eng": "GROUND-LINE"
    },
    "modified_at": "2021-05-08T15:09:50.302Z",
    "name": "GROUND-LINE",
    "repository": "kara.moe",
    "tid": "9041fd40-8800-4a5c-991e-ba66625a96e2",
    "types": [
      "songwriters",
      "8"
    ]
  }
}