{
  "header": {
    "description": "Karaoke Mugen Tag File",
    "version": 1
  },
  "tag": {
    "i18n": {
      "eng": "GROUPN"
    },
    "name": "GROUPN",
    "repository": "kara.moe",
    "tid": "0f811076-3bfe-4089-974d-2ffe36d46d10",
    "types": [
      "creators",
      "4"
    ]
  }
}