{
  "header": {
    "description": "Karaoke Mugen Tag File",
    "version": 1
  },
  "tag": {
    "i18n": {
      "eng": "gtlma"
    },
    "modified_at": "2020-07-05T19:31:00.769Z",
    "name": "gtlma",
    "repository": "kara.moe",
    "tid": "022512f1-ad6c-4ee3-af27-7981cbd99718",
    "types": [
      "authors",
      "6"
    ]
  }
}