{
  "header": {
    "description": "Karaoke Mugen Tag File",
    "version": 1
  },
  "tag": {
    "i18n": {
      "eng": "Guǎng Xī Bā Tuō Kè",
      "chi": "广西巴托克"
    },
    "modified_at": "2021-03-13T14:52:28.392Z",
    "name": "Guǎng Xī Bā Tuō Kè",
    "repository": "kara.moe",
    "tid": "cbf7c310-d6d3-4bd0-ba5f-b04437f8e235",
    "types": [
      "songwriters",
      "8"
    ]
  }
}