{
  "header": {
    "description": "Karaoke Mugen Tag File",
    "version": 1
  },
  "tag": {
    "i18n": {
      "eng": "Guardians of the Galaxy",
      "fre": "Les Gardiens de la Galaxie",
      "spa": "Guardianes de la Galaxia",
      "jpn": " ガーディアンズ・オブ・ザ・ギャラクシー",
      "qro": "Guardians of the Galaxy",
      "kor": " 가디언즈 오브 더 갤럭시",
      "ita": "Guardiani della galassia",
      "chi": "銀河守護隊"
    },
    "name": "Guardians of the Galaxy",
    "repository": "kara.moe",
    "tid": "6f33d408-6ead-4371-9484-907124cc04ac",
    "types": [
      "series",
      "1"
    ]
  }
}