{
  "header": {
    "description": "Karaoke Mugen Tag File",
    "version": 1
  },
  "tag": {
    "i18n": {
      "eng": "Gudaguda Fairies"
    },
    "name": "Gudaguda Fairies",
    "repository": "kara.moe",
    "tid": "63c4c331-1e7a-42a3-8064-0d2ad306fa74",
    "types": [
      "singergroups",
      "17"
    ]
  }
}