{
  "header": {
    "description": "Karaoke Mugen Tag File",
    "version": 1
  },
  "tag": {
    "i18n": {
      "eng": "Guido de Angelis"
    },
    "name": "Guido de Angelis",
    "tid": "67c2430a-fae0-4f51-aefd-7b08dd25e787",
    "types": [
      "songwriters",
      "8"
    ],
    "repository": "kara.moe",
    "modified_at": "2020-03-31T19:04:34.573Z"
  }
}