{
  "header": {
    "description": "Karaoke Mugen Tag File",
    "version": 1
  },
  "tag": {
    "aliases": [
      "Kaltės karūna",
      "gc",
      "Вінець Провини",
      "Короната на Грешника",
      "تاج مجرم"
    ],
    "external_database_ids": {
      "anilist": 10793,
      "myanimelist": 10793,
      "kitsu": 6349
    },
    "i18n": {
      "chi": "罪恶王冠",
      "eng": "Guilty Crown",
      "fre": "Guilty Crown",
      "ger": "Guilty Crown",
      "jpn": "ギルティクラウン",
      "rus": "Корона грешника",
      "qro": "Guilty Crown"
    },
    "modified_at": "2020-03-31T19:04:31.612Z",
    "name": "Guilty Crown",
    "repository": "kara.moe",
    "tid": "78a83238-9375-4fc6-835d-498c07d83ecf",
    "types": [
      "series",
      "1"
    ]
  }
}