{
  "header": {
    "description": "Karaoke Mugen Tag File",
    "version": 1
  },
  "tag": {
    "i18n": {
      "eng": "gun8"
    },
    "modified_at": "2020-07-09T19:21:52.972Z",
    "name": "gun8",
    "repository": "kara.moe",
    "tid": "840f29ae-0a78-42a1-a5b4-b7815cb15c94",
    "types": [
      "authors",
      "6"
    ]
  }
}