{
  "header": {
    "description": "Karaoke Mugen Tag File",
    "version": 1
  },
  "tag": {
    "aliases": [
      "Top wo Nerae",
      "Top o Nerae",
      "Aim for the Top"
    ],
    "i18n": {
      "eng": "Gunbuster"
    },
    "name": "Gunbuster",
    "repository": "kara.moe",
    "tid": "aa20a711-7c92-418b-a8f2-9157c27281d8",
    "types": [
      "franchises",
      "18"
    ]
  }
}