{
  "header": {
    "description": "Karaoke Mugen Tag File",
    "version": 1
  },
  "tag": {
    "aliases": [
      "Mộ Súng",
      "Silah Mezarlığı",
      "ggr",
      "ggrave",
      "Убийца с того света",
      "Ґанґрейв"
    ],
    "external_database_ids": {
      "anilist": 267,
      "myanimelist": 267,
      "kitsu": 242
    },
    "i18n": {
      "bul": "Оръжие до гроб",
      "eng": "Gungrave",
      "fre": "Gungrave",
      "ger": "Gungrave",
      "jpn": "ガングレイヴ",
      "por": "Gungrave",
      "rus": "Гангрейв",
      "qro": "Gungrave"
    },
    "modified_at": "2020-03-31T19:04:31.618Z",
    "name": "Gungrave",
    "repository": "kara.moe",
    "tid": "47742b63-761d-4ce4-ae77-e988726620a3",
    "types": [
      "series",
      "1"
    ]
  }
}