{
  "header": {
    "description": "Karaoke Mugen Tag File",
    "version": 1
  },
  "tag": {
    "i18n": {
      "eng": "Guru Studio"
    },
    "name": "Guru Studio",
    "repository": "kara.moe",
    "tid": "60e418e3-de84-4b0e-b294-a9ef347e5bbc",
    "types": [
      "creators",
      "4"
    ]
  }
}