{
  "header": {
    "description": "Karaoke Mugen Tag File",
    "version": 1
  },
  "tag": {
    "i18n": {
      "eng": "Gwilym Sainsbury"
    },
    "name": "Gwilym Sainsbury",
    "tid": "07e787cd-20df-4c31-972f-c0d42a7e2bb5",
    "types": [
      "songwriters",
      "8"
    ],
    "repository": "kara.moe",
    "modified_at": "2020-03-31T19:04:34.582Z"
  }
}