{
  "header": {
    "description": "Karaoke Mugen Tag File",
    "version": 1
  },
  "tag": {
    "i18n": {
      "eng": "H A Y K O"
    },
    "name": "H A Y K O",
    "repository": "kara.moe",
    "tid": "a604cdac-501a-4ded-a465-75642ae54648",
    "types": [
      "singers",
      "2"
    ]
  }
}