{
  "header": {
    "description": "Karaoke Mugen Tag File",
    "version": 1
  },
  "tag": {
    "aliases": [
      "Bal Ve Yonca 2",
      "H&C II",
      "H&C2",
      "Hachikuro II",
      "Hachimitsu to Kuroba II",
      "Honey & Clover 2",
      "Honey & Clover II",
      "Honey and Clover 2",
      "Miód i koniczyna II",
      "W poszukiwaniu czterolistnej koniczyny II",
      "hachikuro2",
      "Мед з конюшиною ІІ",
      "Мед і клевер",
      "Мёд и клевер II",
      "蜂蜜2",
      "蜂蜜与四叶草II"
    ],
    "external_database_ids": {
      "anilist": 1142,
      "myanimelist": 1142,
      "kitsu": 1023
    },
    "i18n": {
      "bul": "Мед и Детелина 2",
      "eng": "Honey & Clover II",
      "hun": "Méz és lóhere (2)",
      "jpn": "ハチミツとクローバー II",
      "qro": "Hachimitsu to Clover II"
    },
    "modified_at": "2020-03-31T19:04:31.625Z",
    "name": "Hachimitsu to Clover II",
    "repository": "kara.moe",
    "tid": "41f312c2-3283-418a-92b4-d2c410731131",
    "types": [
      "series",
      "1"
    ]
  }
}