{
  "header": {
    "description": "Karaoke Mugen Tag File",
    "version": 1
  },
  "tag": {
    "aliases": [
      "hackSIGN",
      "Хак",
      "Хак//Симбол",
      "hack sign"
    ],
    "external_database_ids": {
      "anilist": 48,
      "myanimelist": 48,
      "kitsu": 30
    },
    "i18n": {
      "eng": ".hack//SIGN",
      "fre": ".hack//SIGN",
      "ger": ".hack//SIGN",
      "jpn": ".hack//SIGN",
      "por": ".hack//SIGN",
      "qro": ".hack//SIGN"
    },
    "modified_at": "2020-06-21T23:45:31.966Z",
    "name": ".hack//SIGN",
    "repository": "kara.moe",
    "tid": "a96ed64b-ba5b-4f19-b159-efd12e9d26df",
    "types": [
      "series",
      "1"
    ]
  }
}