{
  "header": {
    "description": "Karaoke Mugen Tag File",
    "version": 1
  },
  "tag": {
    "i18n": {
      "eng": "Naked Butlers",
      "qro": "Hadaka Shitsuji"
    },
    "name": "Hadaka Shitsuji",
    "repository": "kara.moe",
    "tid": "68238d35-0080-469f-8299-f3bf5896b034",
    "types": [
      "series",
      "1"
    ]
  }
}