{
  "header": {
    "description": "Karaoke Mugen Tag File",
    "version": 1
  },
  "tag": {
    "i18n": {
      "eng": "Haddaway"
    },
    "modified_at": "2021-05-21T20:14:34.408Z",
    "name": "Haddaway",
    "repository": "kara.moe",
    "tid": "22a91b48-51b1-4169-842a-446f6e4ca38f",
    "types": [
      "singers",
      "2"
    ]
  }
}