{
  "header": {
    "description": "Karaoke Mugen Tag File",
    "version": 1
  },
  "tag": {
    "aliases": [
      "Alchimistul de Oţel",
      "El Alquimista de Acero",
      "FMA",
      "FMA1",
      "FMA2003",
      "Full Matal Alchemist/Stalowy Alchemik",
      "Full Metal Alchemist",
      "Fullmetal",
      "Giả Kim Thuật",
      "HagaRen",
      "HagaRen TV",
      "Haganeno",
      "HnR",
      "Metal Simyacı",
      "O Alquimista de Aço",
      "Ocelový alchymista",
      "Pełno-metalowy alchemik",
      "fma tv",
      "fmatv",
      "Железният Алхимик",
      "Металният Алхимик",
      "Напълно Металния Алхимист",
      "Сталевий алхімік",
      "Стоманеният алхимик",
      "Суцільнометалевий алхімік",
      "אלכימאי המתכת",
      "פמא",
      "الخيميائي المعدني",
      "ハガレン",
      "钢之炼金术士",
      "钢炼"
    ],
    "external_database_ids": {
      "anilist": 121,
      "myanimelist": 121,
      "kitsu": 100
    },
    "i18n": {
      "chi": "钢之炼金术师",
      "cze": "Fullmetal Alchemist - Hledání kamene mudrců",
      "eng": "Fullmetal Alchemist",
      "fin": "Fullmetal Alchemist",
      "fre": "Fullmetal Alchemist",
      "ger": "Fullmetal Alchemist",
      "gre": "Ο Μεταλλικός Αλχημιστής",
      "hun": "Fullmetal Alchemist - A Bölcsek kövének nyomában",
      "ita": "Fullmetal Alchemist",
      "jpn": "鋼の錬金術師",
      "kor": "강철의 연금술사",
      "lit": "Metalinis Alchemikas",
      "pol": "Fullmetal Alchemist",
      "por": "Fullmetal Alchemist",
      "rum": "Fullmetal Alchemist",
      "rus": "Стальной алхимик",
      "spa": "Fullmetal Alchemist",
      "srp": "Челични алхемичар/Čelični alhemičar",
      "swe": "Fullmetal Alchemist",
      "tha": "แขนกลคนแปรธาตุ",
      "tur": "Çelik Simyacı",
      "qro": "Hagane no Renkinjutsushi"
    },
    "modified_at": "2020-03-31T19:04:31.629Z",
    "name": "Hagane no Renkinjutsushi",
    "repository": "kara.moe",
    "tid": "3df1aaa7-e69a-4a6f-86cb-75544f0dd48a",
    "types": [
      "series",
      "1",
      "franchises",
      "18"
    ]
  }
}