{
  "header": {
    "description": "Karaoke Mugen Tag File",
    "version": 1
  },
  "tag": {
    "i18n": {
      "eng": "Hagimori Jia"
    },
    "name": "Hagimori Jia",
    "repository": "kara.moe",
    "tid": "fd4407aa-9733-45d1-bfab-0881572e86e3",
    "types": [
      "creators",
      "4"
    ]
  }
}