{
  "header": {
    "description": "Karaoke Mugen Tag File",
    "version": 1
  },
  "tag": {
    "i18n": {
      "eng": "Hagumi Nishizawa"
    },
    "name": "Hagumi Nishizawa",
    "tid": "37364de2-d01f-4a27-9bab-2ec1e937715f",
    "types": [
      "singers",
      "2"
    ],
    "repository": "kara.moe",
    "modified_at": "2020-03-31T19:04:34.592Z"
  }
}