{
  "header": {
    "description": "Karaoke Mugen Tag File",
    "version": 1
  },
  "tag": {
    "i18n": {
      "eng": "Haiko"
    },
    "modified_at": "1982-04-06",
    "name": "Haiko",
    "repository": "kara.moe",
    "tid": "684ce13c-fe6a-4010-8462-d6a1210fe1de",
    "types": [
      "authors",
      "6"
    ]
  }
}