{
  "header": {
    "description": "Karaoke Mugen Tag File",
    "version": 1
  },
  "tag": {
    "aliases": [
      "Haikara-san ga Toru",
      "Here Comes Ms. Modern"
    ],
    "external_database_ids": {
      "anilist": 3335,
      "myanimelist": 3335,
      "kitsu": 2944
    },
    "i18n": {
      "ara": "بينو",
      "eng": "Smart-san",
      "fre": "Marc et Marie",
      "ita": "Mademoiselle Anne",
      "jpn": "はいからさんが通る",
      "qro": "Haikara-san ga Tooru"
    },
    "modified_at": "2020-03-31T19:04:31.633Z",
    "name": "Haikara-san ga Tooru",
    "repository": "kara.moe",
    "tid": "b723d118-aae7-4f25-9c75-ae5960202e03",
    "types": [
      "series",
      "1"
    ]
  }
}