{
  "header": {
    "description": "Karaoke Mugen Tag File",
    "version": 1
  },
  "tag": {
    "aliases": [
      "Haiyore! Nyarlko-san",
      "Nyarlko",
      "Nyaruko: Crawling with Love!",
      "nyaruko"
    ],
    "external_database_ids": {
      "anilist": 11785,
      "myanimelist": 11785,
      "kitsu": 6599
    },
    "i18n": {
      "chi": "潜行吧! 奈亚子",
      "eng": "Nyarko-san: Another Crawling Chaos",
      "fre": "Haiyore! Nyaruko-san",
      "jpn": "這いよれ! ニャル子さん",
      "kor": "기어와라! 냐루코양",
      "qro": "Haiyore! Nyaruko-san"
    },
    "modified_at": "2020-03-31T19:04:31.637Z",
    "name": "Haiyore! Nyaruko-san",
    "repository": "kara.moe",
    "tid": "ebf006f9-8aa4-4d3f-8ea4-d800ea13d5ba",
    "types": [
      "series",
      "1",
      "franchises",
      "18"
    ]
  }
}