{
  "header": {
    "description": "Karaoke Mugen Tag File",
    "version": 1
  },
  "tag": {
    "aliases": [
      "Hajime Katou"
    ],
    "i18n": {
      "eng": "Hajime Katô"
    },
    "modified_at": "2020-11-15T17:12:33.337Z",
    "name": "Hajime Katô",
    "repository": "kara.moe",
    "tid": "c3b40c55-5438-48ee-8805-4183cea9b40a",
    "types": [
      "songwriters",
      "8"
    ]
  }
}