{
  "header": {
    "description": "Karaoke Mugen Tag File",
    "version": 1
  },
  "tag": {
    "aliases": [
      "HNI2",
      "Ippo2",
      "Боен дух: Нов претендент",
      "Боен дух: Нов противник",
      "神拳一步 New Challenger 第二季"
    ],
    "external_database_ids": {
      "anilist": 5258,
      "myanimelist": 5258,
      "kitsu": 4016
    },
    "i18n": {
      "eng": "Fighting Spirit: New Challenger",
      "fre": "Hajime no Ippo: New Challenger",
      "jpn": "はじめの一歩 The Fighting! New Challenger",
      "kor": "더 파이팅 New Challenger",
      "qro": "Hajime no Ippo: New Challenger"
    },
    "modified_at": "2020-03-31T19:04:31.639Z",
    "name": "Hajime no Ippo: New Challenger",
    "repository": "kara.moe",
    "tid": "0721a707-1f69-45fe-915a-7dfee3884f44",
    "types": [
      "series",
      "1"
    ]
  }
}