{
  "header": {
    "description": "Karaoke Mugen Tag File",
    "version": 1
  },
  "tag": {
    "i18n": {
      "eng": "Hakase",
      "jpn": "はかせ"
    },
    "name": "Hakase",
    "repository": "kara.moe",
    "tid": "c0f15485-c07b-4613-aadc-92ebb077178d",
    "types": [
      "songwriters",
      "8"
    ]
  }
}