{
  "header": {
    "description": "Karaoke Mugen Tag File",
    "version": 1
  },
  "tag": {
    "aliases": [
      "Hakaba Kitarou",
      "Mezar Kitarou",
      "墓场鬼太郎",
      "kitarou"
    ],
    "external_database_ids": {
      "anilist": 3710,
      "myanimelist": 3710,
      "kitsu": 3207
    },
    "i18n": {
      "eng": "Graveyard Kitaro",
      "fre": "Graveyard Kitarô",
      "jpn": "墓場鬼太郎",
      "qro": "Hakaba Kitarô"
    },
    "modified_at": "2020-03-31T19:04:31.641Z",
    "name": "Hakaba Kitarô",
    "repository": "kara.moe",
    "tid": "1144976b-d947-4221-b75d-3c7243cef1af",
    "types": [
      "series",
      "1"
    ]
  }
}