{
  "header": {
    "description": "Karaoke Mugen Tag File",
    "version": 1
  },
  "tag": {
    "i18n": {
      "eng": "Hakey"
    },
    "name": "Hakey",
    "tid": "739f00e0-2bf5-44c1-8c7f-cecf649cd813",
    "types": [
      "authors",
      "6"
    ],
    "repository": "kara.moe",
    "modified_at": "2020-03-31T19:04:34.598Z"
  }
}