{
  "header": {
    "description": "Karaoke Mugen Tag File",
    "version": 1
  },
  "tag": {
    "aliases": [
      "Hakkenden: Eight Dogs of the East (2013)",
      "Hakkenden: Touhou Hakken Ibun 2nd Season",
      "touhou"
    ],
    "external_database_ids": {
      "anilist": 18055,
      "myanimelist": 18055,
      "kitsu": 7679
    },
    "i18n": {
      "eng": "Hakkenden: Eight Dogs of the East ‒ 2nd Season",
      "jpn": "八犬伝 -東方八犬異聞- (2013)",
      "qro": "Hakkenden: Tôhô Hakken Ibun 2nd Season"
    },
    "modified_at": "2020-03-31T19:04:31.642Z",
    "name": "Hakkenden: Tôhô Hakken Ibun 2nd Season",
    "repository": "kara.moe",
    "tid": "ed689598-4668-49b7-8039-30c1a398be05",
    "types": [
      "series",
      "1"
    ]
  }
}