{
  "header": {
    "description": "Karaoke Mugen Tag File",
    "version": 1
  },
  "tag": {
    "i18n": {
      "eng": "HAKUEI"
    },
    "name": "HAKUEI",
    "tid": "bfc26c72-534f-4ad1-b6e3-a3b71b80c07f",
    "types": [
      "songwriters",
      "8"
    ],
    "repository": "kara.moe",
    "modified_at": "2020-03-31T19:04:34.598Z"
  }
}