{
  "header": {
    "description": "Karaoke Mugen Tag File",
    "version": 1
  },
  "tag": {
    "i18n": {
      "eng": "Hakusensha"
    },
    "name": "Hakusensha",
    "tid": "1c8b6467-5ce2-4990-9155-9d82e4bb0de4",
    "types": [
      "creators",
      "4"
    ],
    "repository": "kara.moe",
    "modified_at": "2020-03-31T19:04:34.600Z"
  }
}