{
  "header": {
    "description": "Karaoke Mugen Tag File",
    "version": 1
  },
  "tag": {
    "aliases": [
      "Hakuouki",
      "hakuouki"
    ],
    "i18n": {
      "eng": "Hakuôki",
      "jpn": "薄桜鬼",
      "qro": "Hakuôki"
    },
    "modified_at": "2020-03-31T19:04:31.645Z",
    "name": "Hakuôki",
    "repository": "kara.moe",
    "tid": "eaefd917-479f-4a3a-8351-c9cb3466ca8b",
    "types": [
      "series",
      "1",
      "franchises",
      "18"
    ]
  }
}