{
  "header": {
    "description": "Karaoke Mugen Tag File",
    "version": 1
  },
  "tag": {
    "i18n": {
      "eng": "Haku Suzushiro"
    },
    "name": "Haku Suzushiro",
    "repository": "kara.moe",
    "tid": "c80bd7b5-5a09-4ab1-b229-6ec11eb06bf0",
    "types": [
      "creators",
      "4"
    ]
  }
}