{
  "header": {
    "description": "Karaoke Mugen Tag File",
    "version": 1
  },
  "tag": {
    "i18n": {
      "eng": "halyosy"
    },
    "name": "halyosy",
    "tid": "1aef2d37-6507-4d61-ba7a-f308a3fb2b47",
    "types": [
      "songwriters",
      "8"
    ],
    "repository": "kara.moe",
    "modified_at": "2020-03-31T19:04:34.606Z"
  }
}