{
  "header": {
    "description": "Karaoke Mugen Tag File",
    "version": 1
  },
  "tag": {
    "i18n": {
      "eng": "Ham-chans"
    },
    "name": "Ham-chans",
    "tid": "893e3b14-d3dc-45b6-b788-5f9ee5572846",
    "types": [
      "singers",
      "2"
    ],
    "repository": "kara.moe",
    "modified_at": "2020-03-31T19:04:34.607Z"
  }
}