{
  "header": {
    "description": "Karaoke Mugen Tag File",
    "version": 1
  },
  "tag": {
    "i18n": {
      "eng": "hamadad"
    },
    "name": "hamadad",
    "repository": "kara.moe",
    "tid": "9f0472ab-9c2a-4c33-9a6a-094b0fd95895",
    "types": [
      "authors",
      "6"
    ]
  }
}