{
  "header": {
    "description": "Karaoke Mugen Tag File",
    "version": 1
  },
  "tag": {
    "aliases": [
      "Violinist of Hamelin",
      "Violinist of Hamelin - The Movie",
      "Violinist of Hameln",
      "voh movie",
      "voh the movie"
    ],
    "external_database_ids": {
      "anilist": 2207,
      "myanimelist": 2207,
      "kitsu": 1998
    },
    "i18n": {
      "eng": "Violinist of Hamelin",
      "jpn": "ハーメルンのバイオリン弾き",
      "qro": "Hamelin no Violin Hiki"
    },
    "modified_at": "2020-03-31T19:04:31.645Z",
    "name": "Hamelin no Violin Hiki",
    "repository": "kara.moe",
    "tid": "e2e396a0-92ff-44ad-87a7-c3652e8019d7",
    "types": [
      "series",
      "1"
    ]
  }
}