{
  "header": {
    "description": "Karaoke Mugen Tag File",
    "version": 1
  },
  "tag": {
    "external_database_ids": {},
    "i18n": {
      "jpn": "華ヤカ哉, 我ガ一族",
      "qro": "Hanayaka Nari, Waga Ichizoku"
    },
    "name": "Hanayaka Nari Waga Ichizoku",
    "repository": "kara.moe",
    "tid": "79e54a12-1559-4fb9-80b7-3945aa7a94d9",
    "types": [
      "franchises",
      "18"
    ]
  }
}