{
  "header": {
    "description": "Karaoke Mugen Tag File",
    "version": 1
  },
  "tag": {
    "i18n": {
      "jpn": "高橋花",
      "qro": "Hana Takahashi"
    },
    "name": "Hana Takahashi",
    "repository": "kara.moe",
    "tid": "8b435f9a-e367-432a-8143-79c64ce9ab6f",
    "types": [
      "songwriters",
      "8"
    ]
  }
}