{
  "header": {
    "description": "Karaoke Mugen Tag File",
    "version": 1
  },
  "tag": {
    "i18n": {
      "eng": "hanawaya"
    },
    "name": "hanawaya",
    "tid": "7920479f-0e78-4b31-925b-6d2f681392d4",
    "types": [
      "songwriters",
      "8"
    ],
    "repository": "kara.moe",
    "modified_at": "2020-03-31T19:04:34.618Z"
  }
}