{
  "header": {
    "description": "Karaoke Mugen Tag File",
    "version": 1
  },
  "tag": {
    "i18n": {
      "eng": "Hana Tamegai"
    },
    "name": "Hana Tamegai",
    "repository": "kara.moe",
    "tid": "c4834b22-ee4b-4e0f-9c1a-c8d9e6821f72",
    "types": [
      "singers",
      "2"
    ]
  }
}