{
  "header": {
    "description": "Karaoke Mugen Tag File",
    "version": 1
  },
  "tag": {
    "i18n": {
      "eng": "Hanawa"
    },
    "name": "Hanawa",
    "tid": "fe9cc96b-2e28-4a12-9d76-ade8949616da",
    "types": [
      "songwriters",
      "8"
    ],
    "repository": "kara.moe",
    "modified_at": "2020-03-31T19:04:34.617Z"
  }
}