{
  "header": {
    "description": "Karaoke Mugen Tag File",
    "version": 1
  },
  "tag": {
    "i18n": {
      "eng": "Hana Kikuchi"
    },
    "name": "Hana Kikuchi",
    "repository": "kara.moe",
    "tid": "86c8595e-db97-4546-8519-ece76100dd32",
    "types": [
      "songwriters",
      "8"
    ]
  }
}