{
  "header": {
    "description": "Karaoke Mugen Tag File",
    "version": 1
  },
  "tag": {
    "i18n": {
      "eng": "Hana Itoki"
    },
    "name": "Hana Itoki",
    "tid": "98a5862a-2463-49b1-892d-c2442493f8f1",
    "types": [
      "singers",
      "2"
    ],
    "repository": "kara.moe",
    "modified_at": "2020-03-31T19:04:34.612Z"
  }
}