{
  "header": {
    "description": "Karaoke Mugen Tag File",
    "version": 1
  },
  "tag": {
    "aliases": [
      "HM",
      "Hanaukyo Maids",
      "Hanaukyou Maid Tai",
      "Hanaukyou Maid Team",
      "Hanaukyou Maids",
      "Maid in Hanaukyo",
      "hanaukyou"
    ],
    "external_database_ids": {
      "anilist": 403,
      "myanimelist": 403,
      "kitsu": 370
    },
    "i18n": {
      "eng": "Hanaukyo Maid Team",
      "fre": "Monsieur est servi !",
      "jpn": "花右京メイド隊",
      "qro": "Hanaukyô Maid Tai"
    },
    "modified_at": "2020-03-31T19:04:31.651Z",
    "name": "Hanaukyô Maid Tai",
    "repository": "kara.moe",
    "tid": "922901f2-d30a-41c0-8403-8c0af6147d9a",
    "types": [
      "series",
      "1",
      "franchises",
      "18"
    ]
  }
}