{
  "header": {
    "description": "Karaoke Mugen Tag File",
    "version": 1
  },
  "tag": {
    "i18n": {
      "eng": "Hana-tan"
    },
    "name": "Hana-tan",
    "tid": "e7b366e3-347e-420b-98dc-5cc2009a05fd",
    "types": [
      "singers",
      "2"
    ],
    "repository": "kara.moe",
    "modified_at": "2020-03-31T19:04:34.613Z"
  }
}