{
  "header": {
    "description": "Karaoke Mugen Tag File",
    "version": 1
  },
  "tag": {
    "i18n": {
      "eng": "Hana Matsumoto"
    },
    "name": "Hana Matsumoto",
    "repository": "kara.moe",
    "tid": "d904892a-d074-416c-9ba6-efbe1672dd04",
    "types": [
      "creators",
      "4"
    ]
  }
}