{
  "header": {
    "description": "Karaoke Mugen Tag File",
    "version": 1
  },
  "tag": {
    "i18n": {
      "eng": "Hana Hope"
    },
    "name": "Hana Hope",
    "repository": "kara.moe",
    "tid": "72ad1cb7-0e8a-4293-b3a9-9e2024c5af71",
    "types": [
      "singers",
      "2"
    ]
  }
}