{
  "header": {
    "description": "Karaoke Mugen Tag File",
    "version": 1
  },
  "tag": {
    "aliases": [
      "A Flor das Sete Cores",
      "Angel Cloud",
      "Angel e a Flor de Sete Cores",
      "Der kleine Engel",
      "El Misterio de la Flor Mágica",
      "Flower Angel",
      "Hana no Ko Runrun",
      "La Flor Mágica de 7 Colores",
      "La fleur aux sept couleurs",
      "Lili a virágangyal",
      "Lulu le mystère de la fleur magique",
      "Lun Lun the Flower Child",
      "Lunlun Flower Angel",
      "Lunlun a Filha das Flores",
      "Lydie et la clef magique",
      "The Flower Angel",
      "Ángel: En Busca de la Flor del Arcoíris",
      "Çiçek Kız Lunlun",
      "Лулу ангел цветов"
    ],
    "external_database_ids": {
      "anilist": 2230,
      "myanimelist": 2230,
      "kitsu": 2021
    },
    "i18n": {
      "ara": "الزهرة الجميلة",
      "bul": "Ейнджъл - детето на цветята",
      "dut": "Angel",
      "eng": "Angel",
      "fre": "Le tour du monde de Lydie",
      "ger": "Angel das Blumenmädchen",
      "heb": "זהבית",
      "hun": "Lili, a virágangyal",
      "ita": "Lulù l'angelo tra i fiori",
      "jpn": "花の子ルンルン",
      "pol": "Lu Lu i Cudowny Kwiat",
      "por": "Angel, a Menina das Flores",
      "rum": "Lidia în jurul lumii",
      "spa": "Lulu, la Chica de las Flores",
      "qro": "Hana no Ko Lunlun"
    },
    "modified_at": "2020-03-31T19:04:31.645Z",
    "name": "Hana no Ko Lunlun",
    "repository": "kara.moe",
    "tid": "619846cb-688f-471d-8d6b-0db757b22f78",
    "types": [
      "series",
      "1"
    ]
  }
}