{
  "header": {
    "description": "Karaoke Mugen Tag File",
    "version": 1
  },
  "tag": {
    "i18n": {
      "eng": "Hanabushi"
    },
    "modified_at": "2020-09-03T23:24:50.796Z",
    "name": "Hanabushi",
    "repository": "kara.moe",
    "tid": "2d34976e-d3c0-4dc6-946d-374297f0a4ed",
    "types": [
      "creators",
      "4"
    ]
  }
}