{
  "header": {
    "description": "Karaoke Mugen Tag File",
    "version": 1
  },
  "tag": {
    "i18n": {
      "eng": "Hanachirasu",
      "jpn": "刃鳴散らす",
      "qro": "Hanachirasu"
    },
    "modified_at": "2020-08-23T16:26:45.346Z",
    "name": "Hanachirasu",
    "repository": "kara.moe",
    "tid": "005f8f0d-cb8b-4456-b960-4ff698827816",
    "types": [
      "series",
      "1"
    ]
  }
}