{
  "header": {
    "description": "Karaoke Mugen Tag File",
    "version": 1
  },
  "tag": {
    "external_database_ids": {
      "anilist": 14145,
      "myanimelist": 14145,
      "kitsu": 7088
    },
    "i18n": {
      "eng": "Hanayaka Nari, Waga Ichizoku: Kinetograph",
      "jpn": "華ヤカ哉, 我ガ一族 キネトグラフ",
      "qro": "Hanayaka Nari Waga Ichizoku: Kinetograph"
    },
    "modified_at": "2020-03-31T19:04:31.651Z",
    "name": "Hanayaka Nari Waga Ichizoku: Kinetograph",
    "repository": "kara.moe",
    "tid": "4d284619-3b8c-4c4f-9dd0-f0c69da0ef2a",
    "types": [
      "series",
      "1"
    ]
  }
}