{
  "header": {
    "description": "Karaoke Mugen Tag File",
    "version": 1
  },
  "tag": {
    "i18n": {
      "eng": "Haneda Narita"
    },
    "name": "Haneda Narita",
    "tid": "5b489ff9-a94b-43ec-9b47-f113c59d563e",
    "types": [
      "songwriters",
      "8"
    ],
    "repository": "kara.moe",
    "modified_at": "2020-03-31T19:04:34.619Z"
  }
}