{
  "header": {
    "description": "Karaoke Mugen Tag File",
    "version": 1
  },
  "tag": {
    "i18n": {
      "eng": "Hanjou"
    },
    "name": "Hanjou",
    "repository": "kara.moe",
    "tid": "b9498478-43d0-4c20-8f56-26fd940bd381",
    "types": [
      "songwriters",
      "8"
    ]
  }
}