{
  "header": {
    "description": "Karaoke Mugen Tag File",
    "version": 1
  },
  "tag": {
    "i18n": {
      "eng": "Hanni Pham",
      "kor": "하니 팜",
      "vie": "Phạm Ngọc Hân"
    },
    "name": "Hanni",
    "repository": "kara.moe",
    "tid": "3711e80a-a3c5-4354-be12-f53da16cf9a4",
    "types": [
      "singers",
      "2"
    ]
  }
}