{
  "header": {
    "description": "Karaoke Mugen Tag File",
    "version": 1
  },
  "tag": {
    "i18n": {
      "eng": "Hanon Yamaguchi"
    },
    "name": "Hanon Yamaguchi",
    "repository": "kara.moe",
    "tid": "c35fc271-abbe-4816-9e9f-370185c6f73f",
    "types": [
      "singers",
      "2"
    ]
  }
}