{
  "header": {
    "description": "Karaoke Mugen Tag File",
    "version": 1
  },
  "tag": {
    "i18n": {
      "eng": "Hans Zimmer"
    },
    "name": "Hans Zimmer",
    "repository": "kara.moe",
    "tid": "f22ea548-a84e-4d0b-8dd1-2b2959c65a6a",
    "types": [
      "songwriters",
      "8"
    ]
  }
}