{
  "header": {
    "description": "Karaoke Mugen Tag File",
    "version": 1
  },
  "tag": {
    "i18n": {
      "eng": "Hansa Records"
    },
    "name": "Hansa Records",
    "repository": "kara.moe",
    "tid": "4f14f747-746f-4dbf-985e-107d52261bb9",
    "types": [
      "creators",
      "4"
    ]
  }
}