{
  "header": {
    "description": "Karaoke Mugen Tag File",
    "version": 1
  },
  "tag": {
    "aliases": [
      "絵梦株式会社",
      "绘梦动画",
      "HAOLINERS絵梦"
    ],
    "i18n": {
      "eng": "Haoliners Animation League",
      "chi": "Haoliners 絵梦 Animation",
      "jpn": "絵梦",
      "qro": "Haoliners Huimeng Animation"
    },
    "modified_at": "2021-03-08T19:38:54.792Z",
    "name": "Haoliners Huimeng Animation",
    "repository": "kara.moe",
    "tid": "ff0b460a-e149-4003-bdb3-e25c48dded54",
    "types": [
      "creators",
      "4"
    ]
  }
}