{
  "header": {
    "description": "Karaoke Mugen Tag File",
    "version": 1
  },
  "tag": {
    "aliases": [
      "Happatai"
    ],
    "i18n": {
      "eng": "Happa-tai",
      "jpn": "はっぱ隊",
      "qro": "Happa-tai"
    },
    "modified_at": "2021-09-25T17:32:04.849Z",
    "name": "Happa-tai",
    "repository": "kara.moe",
    "tid": "da12f474-e517-4b9f-92cc-eaaf1f029202",
    "types": [
      "singers",
      "2",
      "songwriters",
      "8"
    ]
  }
}