{
  "header": {
    "description": "Karaoke Mugen Tag File",
    "version": 1
  },
  "tag": {
    "aliases": [
      "ت"
    ],
    "i18n": {
      "eng": "Happy"
    },
    "name": "Happy_44444444",
    "repository": "kara.moe",
    "short": "Happy",
    "tid": "73d26067-cb6a-4897-866c-6cba1b1f67df",
    "types": [
      "songwriters",
      "8"
    ]
  }
}