{
  "header": {
    "description": "Karaoke Mugen Tag File",
    "version": 1
  },
  "tag": {
    "i18n": {
      "eng": "Happy World!"
    },
    "name": "Happy World!",
    "tid": "bf3279f4-c3f8-442b-bd67-4f769ada9033",
    "types": [
      "singers",
      "2"
    ],
    "repository": "kara.moe",
    "modified_at": "2020-03-31T19:04:34.626Z"
  }
}