{
  "header": {
    "description": "Karaoke Mugen Tag File",
    "version": 1
  },
  "tag": {
    "aliases": [
      "HLA",
      "แฮปปี้ เลสซั่น แอดวานซ์"
    ],
    "external_database_ids": {
      "anilist": 261,
      "myanimelist": 261,
      "kitsu": 236
    },
    "i18n": {
      "eng": "Happy☆Lesson: Advance",
      "jpn": "HAPPY☆LESSON ADVANCE",
      "qro": "Happy Lesson Advance"
    },
    "modified_at": "2020-03-31T19:04:31.656Z",
    "name": "Happy Lesson Advance",
    "repository": "kara.moe",
    "tid": "f9f79d6e-da83-43db-94ea-006e58c62544",
    "types": [
      "series",
      "1"
    ]
  }
}