{
  "header": {
    "description": "Karaoke Mugen Tag File",
    "version": 1
  },
  "tag": {
    "i18n": {
      "eng": "HAPPY BIRTHDAY"
    },
    "name": "HAPPY BIRTHDAY",
    "tid": "9bcbf542-ff23-48bd-b78d-a64ac9845cda",
    "types": [
      "singers",
      "2"
    ],
    "repository": "kara.moe",
    "modified_at": "2020-03-31T19:04:34.624Z"
  }
}