{
  "header": {
    "description": "Karaoke Mugen Tag File",
    "version": 1
  },
  "tag": {
    "i18n": {
      "eng": "Happy Around!"
    },
    "name": "Happy Around!",
    "repository": "kara.moe",
    "tid": "ad7cef0c-3aa3-488b-a1e5-780a364fc4cd",
    "types": [
      "singergroups",
      "17"
    ]
  }
}