{
  "header": {
    "description": "Karaoke Mugen Tag File",
    "version": 1
  },
  "tag": {
    "aliases": [
      "Hapimea FD",
      "ハピメアFD",
      "ハピメアＦＤ"
    ],
    "i18n": {
      "eng": "Hapymaher Fragmentation Dream",
      "jpn": "ハピメア-Fragmentation Dream-",
      "qro": "Hapymaher Fragmentation Dream"
    },
    "modified_at": "2020-03-31T19:04:31.657Z",
    "name": "Hapymaher Fragmentation Dream",
    "repository": "kara.moe",
    "tid": "502c831d-af89-4e14-ad9a-3e51db38c018",
    "types": [
      "series",
      "1"
    ]
  }
}