{
  "header": {
    "description": "Karaoke Mugen Tag File",
    "version": 1
  },
  "tag": {
    "i18n": {
      "eng": "Hara"
    },
    "modified_at": "2021-07-19T16:08:22.297Z",
    "name": "Hara",
    "repository": "kara.moe",
    "tid": "6d1cbfda-edd8-41a2-b7bc-0251f512883d",
    "types": [
      "creators",
      "4"
    ]
  }
}