{
  "header": {
    "description": "Karaoke Mugen Tag File",
    "version": 1
  },
  "tag": {
    "i18n": {
      "eng": "Haraguchi Sasuke"
    },
    "name": "Haraguchi Sasuke",
    "repository": "kara.moe",
    "tid": "50efd88b-6343-44b2-8d60-1f0201187cdd",
    "types": [
      "songwriters",
      "8"
    ]
  }
}