{
  "header": {
    "description": "Karaoke Mugen Tag File",
    "version": 1
  },
  "tag": {
    "i18n": {
      "eng": "hard"
    },
    "name": "hard",
    "repository": "kara.moe",
    "tid": "176ae0bf-a15d-4a13-aab9-de77e59c8548",
    "types": [
      "creators",
      "4"
    ]
  }
}