{
  "header": {
    "description": "Karaoke Mugen Tag File",
    "version": 1
  },
  "tag": {
    "i18n": {
      "eng": "Harim"
    },
    "name": "Harim",
    "tid": "e718e7ff-7e35-4711-908f-bbfc5a314b0a",
    "types": [
      "singers",
      "2"
    ],
    "repository": "kara.moe",
    "modified_at": "2020-03-31T19:04:34.628Z"
  }
}