{
  "header": {
    "description": "Karaoke Mugen Tag File",
    "version": 1
  },
  "tag": {
    "i18n": {
      "eng": "Harmonix"
    },
    "modified_at": "2021-10-03T17:08:56.543Z",
    "name": "Harmonix",
    "repository": "kara.moe",
    "tid": "ac44584b-6dc0-4288-8f55-ca600efe9373",
    "types": [
      "creators",
      "4"
    ]
  }
}