{
  "header": {
    "description": "Karaoke Mugen Tag File",
    "version": 1
  },
  "tag": {
    "i18n": {
      "eng": "HARRY"
    },
    "name": "HARRY",
    "tid": "8cf77c56-7db2-4187-89f8-c7b59fbd272b",
    "types": [
      "singers",
      "2"
    ],
    "repository": "kara.moe",
    "modified_at": "2020-03-31T19:04:34.631Z"
  }
}