{
  "header": {
    "description": "Karaoke Mugen Tag File",
    "version": 1
  },
  "tag": {
    "aliases": [
      "Casal 20",
      "Los Hart"
    ],
    "i18n": {
      "dut": "Hart to Hart",
      "eng": "Hart to Hart",
      "fre": "Pour l'amour du risque",
      "ger": "Hart aber herzlich",
      "ita": "Cuore e batticuore",
      "por": "Hart to Hart",
      "rus": "Супруги Харт",
      "spa": "Hart y Hart"
    },
    "modified_at": "2020-07-15T11:31:31.157Z",
    "name": "Hart to Hart",
    "repository": "kara.moe",
    "tid": "b9db2d42-df30-47c8-a8a4-a11852f20b5d",
    "types": [
      "series",
      "1"
    ]
  }
}