{
  "header": {
    "description": "Karaoke Mugen Tag File",
    "version": 1
  },
  "tag": {
    "i18n": {
      "jpn": "小泉 遥香",
      "qro": "Haruka Koizumi"
    },
    "name": "Haruka Koizumi",
    "repository": "kara.moe",
    "tid": "9a31f9d4-ce61-4f78-8a46-4e46c7723508",
    "types": [
      "singers",
      "2"
    ]
  }
}