{
  "header": {
    "description": "Karaoke Mugen Tag File",
    "version": 1
  },
  "tag": {
    "i18n": {
      "eng": "Haruki Ishiya"
    },
    "name": "Haruki Ishiya",
    "repository": "kara.moe",
    "tid": "1a3f89aa-09c0-46e2-ab7d-87f8ff49d11d",
    "types": [
      "singers",
      "2"
    ],
    "modified_at": "2020-03-31T19:04:34.646Z"
  }
}