{
  "header": {
    "description": "Karaoke Mugen Tag File",
    "version": 1
  },
  "tag": {
    "i18n": {
      "eng": "Haruka Shimotsuki"
    },
    "name": "Haruka Shimotsuki",
    "tid": "062ef561-7717-4be5-9bee-60482f7bd3e5",
    "types": [
      "singers",
      "2",
      "songwriters",
      "8"
    ],
    "repository": "kara.moe",
    "modified_at": "2020-03-31T19:04:34.639Z"
  }
}