{
  "header": {
    "description": "Karaoke Mugen Tag File",
    "version": 1
  },
  "tag": {
    "i18n": {
      "eng": "Haruhi Terada"
    },
    "name": "Haruhi Terada",
    "tid": "e154e8e7-73c2-4218-bf8e-51200fc340f2",
    "types": [
      "singers",
      "2"
    ],
    "repository": "kara.moe",
    "modified_at": "2020-03-31T19:04:34.635Z"
  }
}