{
  "header": {
    "description": "Karaoke Mugen Tag File",
    "version": 1
  },
  "tag": {
    "i18n": {
      "eng": "Haruna Momono"
    },
    "name": "Haruna Momono",
    "tid": "99d0d6e9-abba-404c-9316-8aa6577762e7",
    "types": [
      "singers",
      "2"
    ],
    "repository": "kara.moe",
    "modified_at": "2020-03-31T19:04:34.651Z"
  }
}