{
  "header": {
    "description": "Karaoke Mugen Tag File",
    "version": 1
  },
  "tag": {
    "i18n": {
      "eng": "HARUCA"
    },
    "name": "HARUCA",
    "tid": "bfc4ee2f-d124-4c1f-a9fa-b5dde945c013",
    "types": [
      "singers",
      "2"
    ],
    "repository": "kara.moe",
    "modified_at": "2020-03-31T19:04:34.634Z"
  }
}