{
  "header": {
    "description": "Karaoke Mugen Tag File",
    "version": 1
  },
  "tag": {
    "i18n": {
      "jpn": "三村 遙佳",
      "qro": "Haruka Mimura"
    },
    "name": "Haruka Mimura",
    "repository": "kara.moe",
    "tid": "58af071a-5477-47a1-a319-09670a0900c8",
    "types": [
      "singers",
      "2"
    ]
  }
}