{
  "header": {
    "description": "Karaoke Mugen Tag File",
    "version": 1
  },
  "tag": {
    "i18n": {
      "eng": "Haru & Sayaka from UNIVERSE★LD"
    },
    "name": "Haru & Sayaka from UNIVERSE★LD",
    "tid": "64426c56-117a-4bb5-9198-36898e4c69a7",
    "types": [
      "singers",
      "2"
    ],
    "repository": "kara.moe",
    "modified_at": "2020-03-31T19:04:34.632Z"
  }
}