{
  "header": {
    "description": "Karaoke Mugen Tag File",
    "version": 1
  },
  "tag": {
    "external_database_ids": {
      "anilist": 21213,
      "myanimelist": 30895,
      "kitsu": 11020
    },
    "i18n": {
      "eng": "Haruchika: Haruta & Chika",
      "jpn": "ハルチカ ~ハルタとチカは青春する~",
      "qro": "HaruChika ~ Haruta to Chika wa Seishun Suru"
    },
    "modified_at": "2020-03-31T19:04:31.660Z",
    "name": "HaruChika ~ Haruta to Chika wa Seishun Suru",
    "repository": "kara.moe",
    "tid": "878b9ca1-b0e2-4376-93d3-d8dd84dee226",
    "types": [
      "series",
      "1"
    ]
  }
}