{
  "header": {
    "description": "Karaoke Mugen Tag File",
    "version": 1
  },
  "tag": {
    "i18n": {
      "eng": "Haruka Togawa"
    },
    "name": "Haruka Togawa",
    "tid": "fa1d3580-0f3c-4680-917b-6216e2703c2f",
    "types": [
      "songwriters",
      "8",
      "singers",
      "2"
    ],
    "repository": "kara.moe",
    "modified_at": "2020-03-31T19:04:34.642Z"
  }
}