{
  "header": {
    "description": "Karaoke Mugen Tag File",
    "version": 1
  },
  "tag": {
    "i18n": {
      "eng": "Haruka Nakamura"
    },
    "modified_at": "2021-03-31T21:42:53.378Z",
    "name": "Haruka Nakamura",
    "repository": "kara.moe",
    "tid": "6fb888b0-d767-4ff0-98fe-ff9078ee0c79",
    "types": [
      "singers",
      "2"
    ]
  }
}