{
  "header": {
    "description": "Karaoke Mugen Tag File",
    "version": 1
  },
  "tag": {
    "i18n": {
      "eng": "Hasbro Studios"
    },
    "name": "Hasbro Studios",
    "tid": "cb9d46f4-4e6c-451b-b1cd-bd1ded0eb0ad",
    "types": [
      "creators",
      "4"
    ],
    "repository": "kara.moe",
    "modified_at": "2020-03-31T19:04:34.655Z"
  }
}