{
  "header": {
    "description": "Karaoke Mugen Tag File",
    "version": 1
  },
  "tag": {
    "i18n": {
      "eng": "Hashiyan"
    },
    "modified_at": "2020-04-25T14:52:53.883Z",
    "name": "Hashiyan",
    "repository": "kara.moe",
    "tid": "95425d92-f546-49e4-8325-a44f350d80fc",
    "types": [
      "singers",
      "2"
    ]
  }
}