{
  "header": {
    "description": "Karaoke Mugen Tag File",
    "version": 1
  },
  "tag": {
    "i18n": {
      "afr": "Haities, Haities Creole",
      "amh": "Haitian, Haitian Creole",
      "ara": "هايتي ھايتي",
      "aze": "Haitidə, Hind",
      "bak": "Гаити, Һат Теле Теле Креолдар",
      "bel": "Гаіці, Гаіцянскі Крэольскага",
      "bul": "Хаити, Хаитянски Креолски",
      "ben": "হাইতিয়ান, হাইতিয়ান ক্রেওল",
      "bos": "Haićanski, Haićanski Kreolski",
      "cat": "Haití, Crioll D'Haití",
      "cze": "Haiti, Haitian Kreolský",
      "wel": "Haiti, Haitian Creole",
      "dan": "Haitis, Haitisk",
      "ger": "Haitianisch, Haitian Creole",
      "gre": "Αϊτής, Κρεόλ Αϊτής",
      "eng": "Haitian, Haitian Creole",
      "epo": "Haitia, Haitian Creole",
      "spa": "Haití, Criollo Haitiano",
      "est": "Haiti, Haiti Kreooli",
      "baq": "Haitiko, Haitiko Kreolera",
      "per": "هائیتی کریول هائیتی",
      "fin": "Haitin, Haitin Kreoli",
      "fre": "Haïtien, Le Créole Haïtien",
      "gle": "Haitian, Haitian Creole",
      "gla": "Haitian, Haitian Creole",
      "glg": "Haitiano, Crioulo Haitiano",
      "guj": "હૈતીયન હૈતીયન ક્રેઓલ",
      "heb": "האיטי, האיטי קריאולי",
      "hin": "हाईटियन, हाईटियन क्रियोल",
      "hrv": "Haiti, Haićanski-Kreolski",
      "hat": "Ayisyen, Kreyòl Ayisyen",
      "hun": "Haiti, Haiti Kreol",
      "arm": "Հաիթի, Հաիթիական Կրեոլերեն Креольский",
      "ind": "Haiti, Haitian Creole",
      "ice": "Haítí, Haítí Kreólsk",
      "ita": "Haiti, Creolo Haitiano",
      "jpn": "ハイチで、ハイチのクレオール",
      "jav": "Creole, Haitian Creole",
      "geo": "Haitian, Haitian Creole",
      "kaz": "Гаити, Гаитянский Креольский",
      "kan": "ಹೈತಿಯನ್, ಹೈತಿಯನ್ ಕ್ರೆಒಲೇ",
      "kor": "아이티,Haitian Creole",
      "kir": "Гаити, Гаитянский Креольский",
      "lat": "Haitian, Haitian Creole",
      "lit": "Haičio, Haičio Kreolų",
      "lav": "Haiti, Haiti Kreolu",
      "mlg": "Haitiana, Haitiana Kiriolona",
      "mao": "Haitian, Haitian Creole",
      "mac": "Хаити, Хаити Creole",
      "mal": "Haitian, ഇറ്റാലിയന്",
      "mon": "Гайтийн, Гайтийн Creole",
      "mar": "हैती, हैतीयन क्रेओल",
      "may": "Haiti, Haiti Creole",
      "mlt": "Haiti, Ħaitjan",
      "nep": "हैटियन, हैटियन क्रियोल",
      "dut": "Haitian, Haitian Creole",
      "nor": "Haiti, Haitisk Kreolsk",
      "pan": "ਹੈਤੀਆਈ, ਹੈਤੀਆਈ ਹੈਤੀਆਈ",
      "pol": "Haiti, Haiti Creole",
      "por": "Haitiano, O Crioulo Haitiano",
      "rum": "Haitian, Creolă Haitiană",
      "rus": "Гаити, Гаитянский Креольский",
      "sin": "හයිටි, හයිටි ක්රියෝල්",
      "slo": "Haitskej, Haitskej Kreolská",
      "slv": "Haitija, Haitija Etnologijo In",
      "alb": "Haitian, Bengalisht",
      "srp": "Хаити, Хаићански Креолски",
      "sun": "Haitian, Haitian Creole",
      "swe": "Haitiska, Haitisk Kreol",
      "swa": "Haitian, Haitian Creole",
      "tam": "ஹைத்தியன், - ஹெய்டியன் கிரியோல்",
      "tel": "Haitian, Haitian Creole",
      "tgk": "Гаити, Гаитянский Креольский",
      "tha": "เฮเตี้ยนชาวเฮติ Creole",
      "tgl": "Haitian, Haitian Creole",
      "tur": "Haiti, Haiti Creole",
      "tat": "Гаити, Һаити Теле Креоллары Теле",
      "ukr": "Гаїті, Гаїтянський Креольський",
      "urd": "ہیٹی, ہیٹی کریول",
      "uzb": "Haitian, Haitian Mavjud",
      "vie": "Haiti, Haiti",
      "xho": "Haitian, Haitian Creole",
      "yid": "האַיטיאַן, האַיטיאַן קרעאָלע",
      "chi": "海地，海地克里奥尔语"
    },
    "name": "hat",
    "tid": "4fdf6c39-f3b8-48a3-bd88-4b35231abcb2",
    "types": [
      "langs",
      "5"
    ],
    "repository": "kara.moe",
    "modified_at": "2020-03-31T19:04:34.657Z"
  }
}