{
  "header": {
    "description": "Karaoke Mugen Tag File",
    "version": 1
  },
  "tag": {
    "aliases": [
      "oniisan"
    ],
    "external_database_ids": {
      "anilist": 100873,
      "kitsu": 14161,
      "myanimelist": 36784
    },
    "i18n": {
      "eng": "Working Buddies!",
      "qro": "Hataraku Onii-san!",
      "jpn": "働くお兄さん!"
    },
    "name": "Hataraku Onii-san!",
    "repository": "kara.moe",
    "tid": "5f88abf8-b95b-46cf-9cff-e166ae58f65c",
    "types": [
      "series",
      "1"
    ]
  }
}