{
  "header": {
    "description": "Karaoke Mugen Tag File",
    "version": 1
  },
  "tag": {
    "i18n": {
      "eng": "Hatsune Miku 16th Anniversary Fan Film",
      "jpn": "初音ミク16周年記念アニメーション"
    },
    "name": "Hatsune Miku 16th Anniversary Fan Film",
    "repository": "kara.moe",
    "tid": "58f44400-f40e-4604-abf3-66f8d6ed788a",
    "types": [
      "series",
      "1"
    ]
  }
}