{
  "header": {
    "description": "Karaoke Mugen Tag File",
    "version": 1
  },
  "tag": {
    "i18n": {
      "eng": "Hatsune Miku and Future Stars: Project Mirai",
      "jpn": "初音ミク and Future Stars Project mirai",
      "qro": "Hatsune Miku and Future Stars Project mirai"
    },
    "name": "Hatsune Miku and Future Stars: Project Mirai",
    "repository": "kara.moe",
    "tid": "95b3e0af-b3b0-400f-9a57-6f311712c195",
    "types": [
      "series",
      "1"
    ]
  }
}