{
  "header": {
    "description": "Karaoke Mugen Tag File",
    "version": 1
  },
  "tag": {
    "i18n": {
      "eng": "Hatsune Miku: Project Mirai",
      "jpn": "初音ミク Project mirai",
      "qro": "Hatsune Miku Project mirai"
    },
    "name": "Hatsune Miku: Project Mirai",
    "repository": "kara.moe",
    "tid": "f6127619-b3a8-439e-a29e-e610b9d85d9e",
    "types": [
      "franchises",
      "18"
    ]
  }
}