{
  "header": {
    "description": "Karaoke Mugen Tag File",
    "version": 1
  },
  "tag": {
    "i18n": {
      "eng": "Hatsumi Takada"
    },
    "name": "Hatsumi Takada",
    "tid": "5dde3a11-a351-4be3-bd44-87c7a4e6acaa",
    "types": [
      "singers",
      "2"
    ],
    "repository": "kara.moe",
    "modified_at": "2020-03-31T19:04:34.659Z"
  }
}