{
  "header": {
    "description": "Karaoke Mugen Tag File",
    "version": 1
  },
  "tag": {
    "aliases": [
      "HM"
    ],
    "i18n": {
      "eng": "Hatsune Miku: Project DIVA",
      "jpn": "初音ミク Project DIVA"
    },
    "name": "Hatsune Miku ~ Project DIVA",
    "repository": "kara.moe",
    "tid": "c52a4935-9040-4bce-8d4b-9f23ebaa602c",
    "types": [
      "franchises",
      "18"
    ]
  }
}