{
  "header": {
    "description": "Karaoke Mugen Tag File",
    "version": 1
  },
  "tag": {
    "i18n": {
      "eng": "Hatsune Miku: Project DIVA X",
      "qro": "Hatsune Miku: Project DIVA X HD",
      "jpn": "初音ミク -Project DIVA- X HD"
    },
    "name": "Hatsune Miku: Project DIVA X HD",
    "repository": "kara.moe",
    "tid": "10b02228-184f-44b2-9807-5ee002c901f7",
    "types": [
      "series",
      "1"
    ]
  }
}