{
  "header": {
    "description": "Karaoke Mugen Tag File",
    "version": 1
  },
  "tag": {
    "i18n": {
      "eng": "Hatsune Miku: Project Mirai DX",
      "jpn": "初音ミク Project mirai Deluxe",
      "qro": "Hatsune Miku Project mirai Deluxe"
    },
    "name": "Hatsune Miku: Project Mirai DX",
    "repository": "kara.moe",
    "tid": "340d95dc-feaa-4ec3-aed7-1da743cfb3ca",
    "types": [
      "series",
      "1"
    ]
  }
}