{
  "header": {
    "description": "Karaoke Mugen Tag File",
    "version": 1
  },
  "tag": {
    "i18n": {
      "eng": "Hatto"
    },
    "name": "Hatto",
    "repository": "kara.moe",
    "tid": "964d5a62-a734-47d4-9729-724c26372cbc",
    "types": [
      "songwriters",
      "8"
    ],
    "modified_at": "2020-03-31T19:04:34.661Z"
  }
}