{
  "header": {
    "description": "Karaoke Mugen Tag File",
    "version": 1
  },
  "tag": {
    "i18n": {
      "eng": "Hattori"
    },
    "modified_at": "2020-10-10T21:27:19.353Z",
    "name": "Hattori",
    "repository": "kara.moe",
    "tid": "42b1edc5-5465-4c60-b52d-c511778cb719",
    "types": [
      "songwriters",
      "8"
    ]
  }
}