{
  "header": {
    "description": "Karaoke Mugen Tag File",
    "version": 1
  },
  "tag": {
    "i18n": {
      "afr": "Hausa",
      "amh": "ይገናኛሉ",
      "ara": "الهوسا",
      "aze": "Uels",
      "bak": "Һауһа теле",
      "bel": "Хаўса",
      "bul": "Хауса",
      "ben": "হাউসা",
      "bos": "Hausa",
      "cat": "Aquesta llengua",
      "cze": "Hauština",
      "wel": "Hausa",
      "dan": "Hausa",
      "ger": "Hausa",
      "gre": "Χάουσα",
      "eng": "Hausa",
      "epo": "Haŭsa",
      "spa": "Hausa",
      "est": "Hausa",
      "baq": "Hausa",
      "per": "Hausa",
      "fin": "Hausa",
      "fre": "Haoussa",
      "gle": "Hausa",
      "gla": "Hausa",
      "glg": "Hausa",
      "guj": "હૌસા",
      "heb": "האוסה",
      "hin": "होउसा",
      "hrv": "Hausa",
      "hat": "Aousa",
      "hun": "Hausza",
      "arm": "Հաուսա",
      "ind": "Hausa",
      "ice": "Hausa",
      "ita": "Hausa",
      "jpn": "Hausa",
      "jav": "Hausa",
      "geo": "Hausa",
      "kaz": "Хаусача",
      "kan": "ಹೌಸಾ",
      "kor": "Hausa",
      "kir": "Хауса",
      "lat": "Hausa",
      "lit": "Hausa",
      "lav": "Hausu",
      "mlg": "Haosà",
      "mao": "Hausa",
      "mac": "Хауса",
      "mal": "ഹൗസ",
      "mon": "Malayalam",
      "mar": "हौसा",
      "may": "Moldova",
      "mlt": "}",
      "nep": "होउसा",
      "dut": "Hausa",
      "nor": "Hausa",
      "pan": "ਹਾਊਜ਼ਾ",
      "pol": "House ' a",
      "por": "Hausa",
      "rum": "Hausa",
      "rus": "Хауса",
      "sin": "හවුසා",
      "slo": "Hausa",
      "slv": "V maltiščino",
      "alb": "Hausa",
      "srp": "Хауса",
      "sun": "Hausa",
      "swe": "Hausa",
      "swa": "Hausa",
      "tam": "ஹௌஸா",
      "tel": "హౌసా",
      "tgk": "Хауса",
      "tha": "ภาษาเฮาซา name",
      "tgl": "Hausa",
      "tur": "Hausa",
      "tat": "Һауса теле",
      "ukr": "Хауса",
      "urd": "ہؤسا",
      "uzb": "Hausa",
      "vie": "Tiếng",
      "xho": "Hausa",
      "yid": "האַוסאַ",
      "chi": "豪萨语"
    },
    "name": "hau",
    "tid": "42c6fe4e-3cf5-47cb-898c-87d2df4d0ef4",
    "types": [
      "langs",
      "5"
    ],
    "repository": "kara.moe",
    "modified_at": "2020-03-31T19:04:34.661Z"
  }
}