{
  "header": {
    "description": "Karaoke Mugen Tag File",
    "version": 1
  },
  "tag": {
    "i18n": {
      "eng": "HayashiP",
      "jpn": "林P",
      "qro": "HayashiP"
    },
    "name": "HayashiP",
    "repository": "kara.moe",
    "tid": "f8913c6a-272c-48e0-955e-1d34c769b27d",
    "types": [
      "creators",
      "4"
    ]
  }
}