{
  "header": {
    "description": "Karaoke Mugen Tag File",
    "version": 1
  },
  "tag": {
    "i18n": {
      "eng": "Hayashi Yuuki"
    },
    "modified_at": "2020-07-22T16:50:26.064Z",
    "name": "Hayashi Yuuki",
    "repository": "kara.moe",
    "tid": "7abd8926-6f04-44b6-8eaa-c3b2a12ba3b3",
    "types": [
      "songwriters",
      "8"
    ]
  }
}