{
  "header": {
    "description": "Karaoke Mugen Tag File",
    "version": 1
  },
  "tag": {
    "i18n": {
      "eng": "Hayato Iguchi"
    },
    "name": "Hayato Iguchi",
    "tid": "bcc511ef-dad0-4533-a2da-df560a42d59d",
    "types": [
      "songwriters",
      "8"
    ],
    "repository": "kara.moe",
    "modified_at": "2020-03-31T19:04:34.664Z"
  }
}