{
  "header": {
    "description": "Karaoke Mugen Tag File",
    "version": 1
  },
  "tag": {
    "i18n": {
      "eng": "Hayato Asano"
    },
    "name": "Hayato Asano",
    "tid": "ef27239c-711e-4699-adaf-74d723f9d75b",
    "types": [
      "songwriters",
      "8"
    ],
    "repository": "kara.moe",
    "modified_at": "2020-03-31T19:04:34.664Z"
  }
}