{
  "header": {
    "description": "Karaoke Mugen Tag File",
    "version": 1
  },
  "tag": {
    "i18n": {
      "eng": "Hayato"
    },
    "name": "Hayato",
    "repository": "kara.moe",
    "tid": "89f95cf9-9ba7-4ea2-9816-27dd0ae5fced",
    "types": [
      "songwriters",
      "8"
    ],
    "modified_at": "2020-03-31T19:04:34.666Z"
  }
}