{
  "header": {
    "description": "Karaoke Mugen Tag File",
    "version": 1
  },
  "tag": {
    "i18n": {
      "eng": "headphone-Bulldog"
    },
    "name": "headphone-Bulldog",
    "tid": "b029a1e1-3832-4e1b-87dd-fb5d2312844b",
    "types": [
      "songwriters",
      "8"
    ],
    "repository": "kara.moe",
    "modified_at": "2020-03-31T19:04:34.667Z"
  }
}