{
  "header": {
    "description": "Karaoke Mugen Tag File",
    "version": 1
  },
  "tag": {
    "external_database_ids": {
      "anilist": 133412,
      "myanimelist": 48857,
      "kitsu": 44494
    },
    "i18n": {
      "eng": "Healer Girl",
      "jpn": "ヒーラー・ガール"
    },
    "name": "Healer Girl",
    "repository": "kara.moe",
    "tid": "fbaf0463-3b18-47d6-96dc-2a611ee56122",
    "types": [
      "series",
      "1"
    ]
  }
}