{
  "header": {
    "description": "Karaoke Mugen Tag File",
    "version": 1
  },
  "tag": {
    "i18n": {
      "eng": "Heart's Cry"
    },
    "name": "Heart's Cry",
    "tid": "6a1a93ae-324b-470c-b0f1-ca8d5650eb96",
    "types": [
      "songwriters",
      "8"
    ],
    "repository": "kara.moe",
    "modified_at": "2020-03-31T19:04:34.670Z"
  }
}