{
  "header": {
    "description": "Karaoke Mugen Tag File",
    "version": 1
  },
  "tag": {
    "aliases": [
      "HCPC",
      "Heartcatch Pretty Cure",
      "precure7"
    ],
    "external_database_ids": {
      "anilist": 7645,
      "myanimelist": 7645,
      "kitsu": 5065
    },
    "i18n": {
      "eng": "Heartcatch PreCure!",
      "jpn": "ハートキャッチプリキュア!",
      "qro": "Heartcatch PreCure!"
    },
    "modified_at": "2020-06-21T23:45:31.966Z",
    "name": "Heartcatch PreCure!",
    "repository": "kara.moe",
    "tid": "5ec0ba0b-665a-439b-b220-2e599c866422",
    "types": [
      "series",
      "1"
    ]
  }
}