{
  "header": {
    "description": "Karaoke Mugen Tag File",
    "version": 1
  },
  "tag": {
    "i18n": {
      "eng": "Heathcliff & the Catillac Cats",
      "fre": "Les Entrechats"
    },
    "modified_at": "2020-03-31T19:04:31.675Z",
    "name": "Heathcliff & the Catillac Cats",
    "repository": "kara.moe",
    "tid": "df9b9dfe-b201-4f3a-a0d8-bc5e1bab0e55",
    "types": [
      "series",
      "1"
    ]
  }
}