{
  "header": {
    "description": "Karaoke Mugen Tag File",
    "version": 1
  },
  "tag": {
    "i18n": {
      "eng": "Heathers"
    },
    "name": "Heathers",
    "repository": "kara.moe",
    "tid": "1a4f59d5-93a4-444e-8642-1e22126035b4",
    "types": [
      "series",
      "1"
    ]
  }
}