{
  "header": {
    "description": "Karaoke Mugen Tag File",
    "version": 1
  },
  "tag": {
    "aliases": [
      "H.G.J -Habitat Ground Jewdo-",
      "HGJ",
      "Habitat Ground Jewdo",
      "Heat Guy Jay",
      "HeatGuy-J"
    ],
    "external_database_ids": {
      "anilist": 958,
      "myanimelist": 958,
      "kitsu": 848
    },
    "i18n": {
      "eng": "Heat Guy J",
      "fre": "Heat Guy J",
      "ger": "Heat Guy J",
      "jpn": "ヒートガイジェイ",
      "rus": "Горячий парень Джей",
      "qro": "Heat Guy J"
    },
    "modified_at": "2020-03-31T19:04:31.675Z",
    "name": "Heat Guy J",
    "repository": "kara.moe",
    "tid": "02f1c8cf-cddf-450b-b8d4-2c98f1713d33",
    "types": [
      "series",
      "1"
    ]
  }
}