{
  "header": {
    "description": "Karaoke Mugen Tag File",
    "version": 1
  },
  "tag": {
    "i18n": {
      "eng": "Hector Arthur"
    },
    "name": "Hector Arthur",
    "repository": "kara.moe",
    "tid": "decbcdc8-74e3-4c11-81fd-153d9d16beb2",
    "types": [
      "singers",
      "2",
      "songwriters",
      "8"
    ]
  }
}