{
  "header": {
    "description": "Karaoke Mugen Tag File",
    "version": 1
  },
  "tag": {
    "i18n": {
      "eng": "hectorcito0"
    },
    "name": "hectorcito0",
    "repository": "kara.moe",
    "tid": "d2b83afd-9d18-46d1-a7dc-ac3969620cc4",
    "types": [
      "authors",
      "6"
    ]
  }
}