{
  "header": {
    "description": "Karaoke Mugen Tag File",
    "version": 1
  },
  "tag": {
    "i18n": {
      "eng": "Heewon Entertainment"
    },
    "name": "Heewon Entertainment",
    "tid": "2d3b7771-5abd-4ff4-90be-88e4f176c025",
    "types": [
      "creators",
      "4"
    ],
    "repository": "kara.moe",
    "modified_at": "2020-03-31T19:04:34.673Z"
  }
}