{
  "header": {
    "description": "Karaoke Mugen Tag File",
    "version": 1
  },
  "tag": {
    "i18n": {
      "eng": "Hei Jing Yu"
    },
    "name": "Hei Jing Yu",
    "repository": "kara.moe",
    "tid": "105bacde-93f1-41f2-9c7b-881fb8a02043",
    "types": [
      "songwriters",
      "8"
    ]
  }
}