{
  "header": {
    "description": "Karaoke Mugen Tag File",
    "version": 1
  },
  "tag": {
    "external_database_ids": {
      "anilist": 122434,
      "myanimelist": 42625,
      "kitsu": 43734
    },
    "i18n": {
      "eng": "The Idaten Deities Know Only Peace",
      "jpn": "平穏世代の韋駄天達",
      "qro": "Heion Sedai no Idaten-tachi"
    },
    "modified_at": "2021-09-02T22:04:41.626Z",
    "name": "Heion Sedai no Idaten-tachi",
    "repository": "kara.moe",
    "tid": "08c0af28-441d-49a8-9e21-e153e4878510",
    "types": [
      "series",
      "1"
    ]
  }
}