{
  "header": {
    "description": "Karaoke Mugen Tag File",
    "version": 1
  },
  "tag": {
    "i18n": {
      "eng": "Hekiru Shiina"
    },
    "name": "Hekiru Shiina",
    "tid": "800374fb-c1c3-4c61-902f-d483ed735ce4",
    "types": [
      "singers",
      "2",
      "songwriters",
      "8"
    ],
    "repository": "kara.moe",
    "modified_at": "2020-03-31T19:04:34.675Z"
  }
}