{
  "header": {
    "description": "Karaoke Mugen Tag File",
    "version": 1
  },
  "tag": {
    "i18n": {
      "eng": "Hélène et les Garçons"
    },
    "name": "Hélène et les Garçons",
    "repository": "kara.moe",
    "tid": "4ff2936d-29bf-4a2f-8c3f-c24ef299438b",
    "types": [
      "series",
      "1"
    ]
  }
}