{
  "header": {
    "description": "Karaoke Mugen Tag File",
    "version": 1
  },
  "tag": {
    "aliases": [
      "HGB",
      "ハローグッバイ"
    ],
    "i18n": {
      "eng": "Hello good-bye",
      "jpn": "ハローグッドバイ",
      "qro": "Hello good-bye"
    },
    "modified_at": "2020-03-31T19:04:31.676Z",
    "name": "Hello good-bye",
    "repository": "kara.moe",
    "tid": "303b6f0b-cecd-4991-9848-5b998d139e35",
    "types": [
      "series",
      "1"
    ]
  }
}