{
  "header": {
    "description": "Karaoke Mugen Tag File",
    "version": 1
  },
  "tag": {
    "aliases": [
      "Deny your destiny should fly to fly"
    ],
    "i18n": {
      "eng": "Hello Lady!",
      "jpn": "ハロー・レディ！",
      "qro": "Hello Lady!"
    },
    "modified_at": "2020-03-31T19:04:31.677Z",
    "name": "Hello Lady!",
    "repository": "kara.moe",
    "tid": "f2d921ad-3faa-4705-ac7d-00da6a9d89eb",
    "types": [
      "series",
      "1"
    ]
  }
}