{
  "header": {
    "description": "Karaoke Mugen Tag File",
    "version": 1
  },
  "tag": {
    "i18n": {
      "eng": "Helmut Fritz"
    },
    "modified_at": "2020-05-07T11:39:45.903Z",
    "name": "Helmut Fritz",
    "repository": "kara.moe",
    "tid": "acbede73-bede-4c2d-8826-dbacb3d1d1ac",
    "types": [
      "songwriters",
      "8",
      "singers",
      "2"
    ]
  }
}