{
  "header": {
    "description": "Karaoke Mugen Tag File",
    "version": 1
  },
  "tag": {
    "i18n": {
      "eng": "Hemenway"
    },
    "modified_at": "2020-08-17T19:40:56.831Z",
    "name": "Hemenway",
    "repository": "kara.moe",
    "tid": "3cdedaa4-a0cd-4c07-88b3-e1047b593724",
    "types": [
      "singers",
      "2"
    ]
  }
}