{
  "header": {
    "description": "Karaoke Mugen Tag File",
    "version": 1
  },
  "tag": {
    "i18n": {
      "eng": "Henk Flemming"
    },
    "name": "Henk Flemming",
    "tid": "bcef7e39-c6d0-4ceb-9c9e-79bde3efc1f5",
    "types": [
      "songwriters",
      "8"
    ],
    "repository": "kara.moe",
    "modified_at": "2020-03-31T19:04:34.680Z"
  }
}