{
  "header": {
    "description": "Karaoke Mugen Tag File",
    "version": 1
  },
  "tag": {
    "i18n": {
      "eng": "Henri Virlogeux"
    },
    "name": "Henri Virlogeux",
    "tid": "dbdc9fd0-a984-4bd0-8865-bbb390bc609c",
    "types": [
      "singers",
      "2"
    ],
    "repository": "kara.moe",
    "modified_at": "2020-03-31T19:04:34.681Z"
  }
}