{
  "header": {
    "description": "Karaoke Mugen Tag File",
    "version": 1
  },
  "tag": {
    "i18n": {
      "eng": "Henri Salvador"
    },
    "name": "Henri Salvador",
    "tid": "33e0dc72-b4b7-4807-ac26-0e53d4467052",
    "types": [
      "singers",
      "2"
    ],
    "repository": "kara.moe",
    "modified_at": "2020-03-31T19:04:34.680Z"
  }
}