{
  "header": {
    "description": "Karaoke Mugen Tag File",
    "version": 1
  },
  "tag": {
    "i18n": {
      "eng": "Henry"
    },
    "name": "Henry",
    "tid": "88219328-78e2-4347-aec7-2d188627e9e5",
    "types": [
      "singers",
      "2"
    ],
    "repository": "kara.moe",
    "modified_at": "2020-03-31T19:04:34.682Z"
  }
}