{
  "header": {
    "description": "Karaoke Mugen Tag File",
    "version": 1
  },
  "tag": {
    "i18n": {
      "eng": "Hentai Kamen",
      "jpn": "HK変態仮面",
      "qro": "Hentai Kamen"
    },
    "modified_at": "2020-03-31T19:04:31.679Z",
    "name": "Hentai Kamen",
    "repository": "kara.moe",
    "tid": "ab1840a3-7218-484e-98fb-312eb6903ae0",
    "types": [
      "series",
      "1"
    ]
  }
}