{
  "header": {
    "description": "Karaoke Mugen Tag File",
    "version": 1
  },
  "tag": {
    "i18n": {
      "afr": "Herero",
      "amh": "Herero",
      "ara": "هيريرو",
      "aze": "Гереро",
      "bak": "Герреро",
      "bel": "Herero",
      "bul": "Гереро",
      "ben": "Herero",
      "bos": "Herero",
      "cat": "Hereros",
      "cze": "Herero",
      "wel": "Herero",
      "dan": "Herero",
      "ger": "Herero",
      "gre": "Herero",
      "eng": "Herero",
      "epo": "Hereraname",
      "spa": "Herero",
      "est": "Herero",
      "baq": "Herero",
      "per": "Herero",
      "fin": "Herero",
      "fre": "Herero",
      "gle": "Herero",
      "gla": "Herero",
      "glg": "Herero",
      "guj": "હેરેરો",
      "heb": "הררוname",
      "hin": "Herero",
      "hrv": "Гереро",
      "hat": "Herero",
      "hun": "Herero",
      "arm": "Гереро",
      "ind": "Bahasa Herero",
      "ice": "Herero",
      "ita": "Herero",
      "jpn": "ヘレロ語動詞",
      "jav": "Herero",
      "geo": "Herero",
      "kaz": "Гереро",
      "kan": "ಹೆರೆರೊ",
      "kor": "헤",
      "kir": "Гереро",
      "lat": "Herero",
      "lit": "Herero",
      "lav": "Herero",
      "mlg": "Herero",
      "mao": "Herero",
      "mac": "Herero",
      "mal": "ഹിരീരോname",
      "mon": "Herero",
      "mar": "हेरेरोname",
      "may": "Herero",
      "mlt": "Herero",
      "nep": "हेरेरोname",
      "dut": "Herero",
      "nor": "Herero",
      "pan": "Herero",
      "pol": "Гереро",
      "por": "Herero",
      "rum": "Herero",
      "rus": "Гереро",
      "sin": "Herero",
      "slo": "Herero",
      "slv": "Herero",
      "alb": "Herero",
      "srp": "Гереро",
      "sun": "Herero",
      "swe": "Herero",
      "swa": "Herero",
      "tam": "ஹெரேரோ",
      "tel": "హెరెరోname",
      "tgk": "Гереро",
      "tha": "ภาษาเฮอเรโร name",
      "tgl": "Herero",
      "tur": "Herero",
      "tat": "Гереро",
      "ukr": "Гереро",
      "urd": "Herero",
      "uzb": "Herero",
      "vie": "Herero",
      "xho": "Hereroname",
      "yid": "Herero",
      "chi": "赫雷罗"
    },
    "name": "her",
    "tid": "1d80a2ae-87cf-4590-902c-246e249b3fda",
    "types": [
      "langs",
      "5"
    ],
    "repository": "kara.moe",
    "modified_at": "2020-03-31T19:04:34.683Z"
  }
}