{
  "header": {
    "description": "Karaoke Mugen Tag File",
    "version": 1
  },
  "tag": {
    "i18n": {
      "eng": "Herman Rarebell"
    },
    "name": "Herman Rarebell",
    "repository": "kara.moe",
    "tid": "d3e3ca1e-0513-4181-86ec-177b1a74b7f0",
    "types": [
      "songwriters",
      "8"
    ]
  }
}