{
  "header": {
    "description": "Karaoke Mugen Tag File",
    "version": 1
  },
  "tag": {
    "i18n": {
      "eng": "Herms Niel"
    },
    "name": "Herms Niel",
    "tid": "11b71b3f-c965-4e34-9419-59293a30daad",
    "types": [
      "creators",
      "4",
      "songwriters",
      "8"
    ],
    "repository": "kara.moe",
    "modified_at": "2020-03-31T19:04:34.685Z"
  }
}