{
  "header": {
    "description": "Karaoke Mugen Tag File",
    "version": 1
  },
  "tag": {
    "i18n": {
      "eng": "HERO MUSIC ENTERTAINMENT"
    },
    "name": "HERO MUSIC ENTERTAINMENT",
    "tid": "ad758c5e-f56c-4d6d-a301-f20ffdb57676",
    "types": [
      "creators",
      "4"
    ],
    "repository": "kara.moe",
    "modified_at": "2020-03-31T19:04:34.686Z"
  }
}