{
  "header": {
    "description": "Karaoke Mugen Tag File",
    "version": 1
  },
  "tag": {
    "external_database_ids": {
      "anilist": 11203,
      "myanimelist": 11203,
      "kitsu": 6473
    },
    "i18n": {
      "eng": "Hero Hero-kun",
      "jpn": "へろへろくん",
      "qro": "Hero Hero-kun"
    },
    "modified_at": "2020-03-31T19:04:31.682Z",
    "name": "Hero Hero-kun",
    "repository": "kara.moe",
    "tid": "45068444-92b8-426b-98a1-ad22eebce2ee",
    "types": [
      "series",
      "1"
    ]
  }
}