{
  "header": {
    "description": "Karaoke Mugen Tag File",
    "version": 1
  },
  "tag": {
    "aliases": [
      "Военизирана Хеталия",
      "Хеталия и страны Оси",
      "黑塔利亚 Axis Powers"
    ],
    "external_database_ids": {
      "anilist": 5060,
      "myanimelist": 5060,
      "kitsu": 3910
    },
    "i18n": {
      "eng": "Hetalia: Axis Powers",
      "jpn": "ヘタリア Axis Powers",
      "qro": "Hetalia Axis Powers"
    },
    "modified_at": "2020-06-21T23:45:31.966Z",
    "name": "Hetalia Axis Powers",
    "repository": "kara.moe",
    "tid": "8e27389f-c0e5-45d0-bcca-47fd7838f005",
    "types": [
      "series",
      "1"
    ]
  }
}