{
  "header": {
    "description": "Karaoke Mugen Tag File",
    "version": 1
  },
  "tag": {
    "i18n": {
      "eng": "Hey!Say!7"
    },
    "name": "Hey!Say!7",
    "tid": "27c91548-6c09-4d74-afa3-fc54cbac11a3",
    "types": [
      "singers",
      "2"
    ],
    "repository": "kara.moe",
    "modified_at": "2020-03-31T19:04:34.692Z"
  }
}