{
  "header": {
    "description": "Karaoke Mugen Tag File",
    "version": 1
  },
  "tag": {
    "aliases": [
      "Hi-sCoool! SeHa Girl",
      "Sega Hard Girls",
      "hi scoool"
    ],
    "external_database_ids": {
      "anilist": 20830,
      "myanimelist": 23787,
      "kitsu": 8428
    },
    "i18n": {
      "eng": "Hi☆sCool! SeHa Girls",
      "jpn": "Hi☆sCoool! セハガール",
      "spa": "Hi-sCool! Seha Girls",
      "qro": "Hi☆sCoool! SeHa Girls"
    },
    "modified_at": "2020-03-31T19:04:31.687Z",
    "name": "Hi☆sCoool! SeHa Girls",
    "repository": "kara.moe",
    "tid": "149b4a90-b450-430f-b7b4-e4b4e643b70a",
    "types": [
      "series",
      "1"
    ]
  }
}