{
  "header": {
    "description": "Karaoke Mugen Tag File",
    "version": 1
  },
  "tag": {
    "i18n": {
      "eng": "Hiashi Koyama"
    },
    "name": "Hiashi Koyama",
    "tid": "491f0910-d091-4323-b505-a0d46fe5705f",
    "types": [
      "songwriters",
      "8"
    ],
    "repository": "kara.moe",
    "modified_at": "2020-03-31T19:04:34.695Z"
  }
}