{
  "header": {
    "description": "Karaoke Mugen Tag File",
    "version": 1
  },
  "tag": {
    "aliases": [
      "Hi Atari Ryohko",
      "Hi Atari Ryoukou",
      "Hiatari Ryoko!",
      "Hiatari Ryoukou",
      "ryoukou"
    ],
    "external_database_ids": {
      "anilist": 729,
      "myanimelist": 729,
      "kitsu": 656
    },
    "i18n": {
      "eng": "Sunny Ryoko",
      "fin": "Koulussa",
      "fre": "Une vie nouvelle",
      "ita": "Questa allegra gioventù",
      "jpn": "陽あたり良好!",
      "spa": "Alegre Juventud",
      "qro": "Hiatari Ryôkô!"
    },
    "modified_at": "2020-03-31T19:04:31.688Z",
    "name": "Hiatari Ryôkô!",
    "repository": "kara.moe",
    "tid": "edf8ec8c-99f6-4dfb-a365-9382a8eb8d3f",
    "types": [
      "series",
      "1"
    ]
  }
}