{
  "header": {
    "description": "Karaoke Mugen Tag File",
    "version": 1
  },
  "tag": {
    "i18n": {
      "eng": "hibiku"
    },
    "name": "hibiku",
    "tid": "254c3486-c287-470e-ba45-1afb8644e334",
    "types": [
      "singers",
      "2"
    ],
    "repository": "kara.moe",
    "modified_at": "2020-03-31T19:04:34.696Z"
  }
}