{
  "header": {
    "description": "Karaoke Mugen Tag File",
    "version": 1
  },
  "tag": {
    "aliases": [
      "HidaSketch",
      "Sunshine Sketch",
      "hidasketch",
      "Наброски Хидамари",
      "向阳素描"
    ],
    "external_database_ids": {
      "anilist": 1852,
      "myanimelist": 1852,
      "kitsu": 1669
    },
    "i18n": {
      "eng": "Hidamari Sketch",
      "jpn": "ひだまりスケッチ",
      "kor": "히다마리 스케치",
      "qro": "Hidamari Sketch"
    },
    "modified_at": "2020-03-31T19:04:31.694Z",
    "name": "Hidamari Sketch",
    "repository": "kara.moe",
    "tid": "9157161f-e8db-41cc-bffe-b9cca11c9121",
    "types": [
      "series",
      "1",
      "franchises",
      "18"
    ]
  }
}