{
  "header": {
    "description": "Karaoke Mugen Tag File",
    "version": 1
  },
  "tag": {
    "aliases": [
      "HidaSketch 365",
      "向阳素描×365"
    ],
    "external_database_ids": {
      "anilist": 3604,
      "myanimelist": 3604,
      "kitsu": 3137
    },
    "i18n": {
      "eng": "Hidamari Sketch x 365",
      "jpn": "ひだまりスケッチ×365",
      "kor": "히다마리 스케치 X 365",
      "qro": "Hidamari Sketch x 365"
    },
    "modified_at": "2020-03-31T19:04:31.691Z",
    "name": "Hidamari Sketch x 365",
    "repository": "kara.moe",
    "tid": "f0bd0eae-6838-4c7b-99e5-2d87fed9b846",
    "types": [
      "series",
      "1"
    ]
  }
}