{
  "header": {
    "description": "Karaoke Mugen Tag File",
    "version": 1
  },
  "tag": {
    "aliases": [
      "ひだまりスケッチ 沙英・ヒロ 卒業編"
    ],
    "external_database_ids": {
      "anilist": 17739,
      "myanimelist": 17739,
      "kitsu": 8021
    },
    "i18n": {
      "eng": "Hidamari Sketch: Sae Hiro Sotsugyo Hen",
      "fre": "Hidamari Sketch: Sae Hiro Sotsugyô Hen",
      "jpn": "ひだまりスケッチ 沙英ヒロ 卒業編",
      "qro": "Hidamari Sketch ~ Sae Hiro Sotsugyou Hen"
    },
    "modified_at": "2020-03-31T19:04:31.693Z",
    "name": "Hidamari Sketch ~ Sae Hiro Sotsugyou Hen",
    "repository": "kara.moe",
    "tid": "b4028d1a-9ca3-4bab-813d-ab5de4b85385",
    "types": [
      "series",
      "1"
    ]
  }
}