{
  "header": {
    "description": "Karaoke Mugen Tag File",
    "version": 1
  },
  "tag": {
    "i18n": {
      "eng": "Hideo Nekota"
    },
    "name": "Hideo Nekota",
    "tid": "93805b35-627f-4209-aef5-9ed9a7218295",
    "types": [
      "songwriters",
      "8"
    ],
    "repository": "kara.moe",
    "modified_at": "2020-03-31T19:04:34.718Z"
  }
}