{
  "header": {
    "description": "Karaoke Mugen Tag File",
    "version": 1
  },
  "tag": {
    "i18n": {
      "eng": "Hideki Taniuchi"
    },
    "name": "Hideki Taniuchi",
    "tid": "ef305931-84ee-4aa2-ade2-08ebdb2e1d9f",
    "types": [
      "songwriters",
      "8"
    ],
    "repository": "kara.moe",
    "modified_at": "2020-03-31T19:04:34.708Z"
  }
}