{
  "header": {
    "description": "Karaoke Mugen Tag File",
    "version": 1
  },
  "tag": {
    "i18n": {
      "eng": "Hidemi Yamamoto"
    },
    "name": "Hidemi Yamamoto",
    "tid": "685aa9f6-7b19-449f-89bc-1e433532b825",
    "types": [
      "songwriters",
      "8"
    ],
    "repository": "kara.moe",
    "modified_at": "2020-03-31T19:04:34.711Z"
  }
}