{
  "header": {
    "description": "Karaoke Mugen Tag File",
    "version": 1
  },
  "tag": {
    "i18n": {
      "eng": "Hidenori Inoue"
    },
    "name": "Hidenori Inoue",
    "tid": "5a9c38de-1384-45f0-80a2-707af624cca7",
    "types": [
      "songwriters",
      "8"
    ],
    "repository": "kara.moe",
    "modified_at": "2020-03-31T19:04:34.714Z"
  }
}