{
  "header": {
    "description": "Karaoke Mugen Tag File",
    "version": 1
  },
  "tag": {
    "i18n": {
      "eng": "Hideki Oowada"
    },
    "modified_at": "2020-07-17T09:59:18.520Z",
    "name": "Hideki Oowada",
    "repository": "kara.moe",
    "tid": "ab074050-3c96-4b63-9327-1f4c952388ee",
    "types": [
      "songwriters",
      "8"
    ]
  }
}