{
  "header": {
    "description": "Karaoke Mugen Tag File",
    "version": 1
  },
  "tag": {
    "i18n": {
      "eng": "Hideki Ataka"
    },
    "name": "Hideki Ataka",
    "repository": "kara.moe",
    "tid": "5465e6b7-6c7a-4ded-acc2-f8d120dd8980",
    "types": [
      "songwriters",
      "8"
    ]
  }
}