{
  "header": {
    "description": "Karaoke Mugen Tag File",
    "version": 1
  },
  "tag": {
    "i18n": {
      "eng": "Hideo Ishikawa"
    },
    "name": "Hideo Ishikawa",
    "repository": "kara.moe",
    "tid": "96429185-f612-4d6f-8fc5-5284e46616c6",
    "types": [
      "singers",
      "2"
    ]
  }
}