{
  "header": {
    "description": "Karaoke Mugen Tag File",
    "version": 1
  },
  "tag": {
    "i18n": {
      "eng": "Hideki Okugawa",
      "jpn": "奥河英樹"
    },
    "name": "Hideki Okugawa",
    "repository": "kara.moe",
    "tid": "92600954-ae12-45f8-88ce-77c501d21f50",
    "types": [
      "songwriters",
      "8"
    ]
  }
}