{
  "header": {
    "description": "Karaoke Mugen Tag File",
    "version": 1
  },
  "tag": {
    "i18n": {
      "eng": "Hideki Kaji"
    },
    "name": "Hideki Kaji",
    "tid": "cedda818-6f1f-4263-912c-940d4e4fc497",
    "types": [
      "songwriters",
      "8",
      "singers",
      "2"
    ],
    "repository": "kara.moe",
    "modified_at": "2020-03-31T19:04:34.706Z"
  }
}