{
  "header": {
    "description": "Karaoke Mugen Tag File",
    "version": 1
  },
  "tag": {
    "i18n": {
      "eng": "Hideaki Hamada"
    },
    "name": "Hideaki Hamada",
    "tid": "c4df057c-e187-4485-bfe5-739088df85d4",
    "types": [
      "songwriters",
      "8"
    ],
    "repository": "kara.moe",
    "modified_at": "2020-03-31T19:04:34.699Z"
  }
}