{
  "header": {
    "description": "Karaoke Mugen Tag File",
    "version": 1
  },
  "tag": {
    "i18n": {
      "eng": "Hidemi Kaneta"
    },
    "name": "Hidemi Kaneta",
    "repository": "kara.moe",
    "tid": "97689143-2991-45d5-bc6b-dd7d952f3d31",
    "types": [
      "creators",
      "4"
    ]
  }
}