{
  "header": {
    "description": "Karaoke Mugen Tag File",
    "version": 1
  },
  "tag": {
    "i18n": {
      "eng": "Hideaki Kabumoto"
    },
    "name": "Hideaki Kabumoto",
    "tid": "a4be5094-68e3-4064-a4ea-4a68a3d7c6d8",
    "types": [
      "singers",
      "2"
    ],
    "repository": "kara.moe",
    "modified_at": "2020-03-31T19:04:34.699Z"
  }
}