{
  "header": {
    "description": "Karaoke Mugen Tag File",
    "version": 1
  },
  "tag": {
    "i18n": {
      "eng": "Hideyuki Obata"
    },
    "name": "Hideyuki Obata",
    "tid": "010edbd3-10ed-490e-84cb-7c21c5dc91e4",
    "types": [
      "songwriters",
      "8"
    ],
    "repository": "kara.moe",
    "modified_at": "2020-03-31T19:04:34.723Z"
  }
}