{
  "header": {
    "description": "Karaoke Mugen Tag File",
    "version": 1
  },
  "tag": {
    "i18n": {
      "eng": "HIDEKI"
    },
    "name": "HIDEKI",
    "tid": "a2615ebd-e589-48e0-82d5-aa02354bd0b1",
    "types": [
      "singers",
      "2"
    ],
    "repository": "kara.moe",
    "modified_at": "2020-03-31T19:04:34.709Z"
  }
}