{
  "header": {
    "description": "Karaoke Mugen Tag File",
    "version": 1
  },
  "tag": {
    "i18n": {
      "eng": "Hideaki Takatori"
    },
    "name": "Hideaki Takatori",
    "tid": "8d57f381-7300-4980-94d5-6cf8b4f6912b",
    "types": [
      "singers",
      "2",
      "songwriters",
      "8"
    ],
    "repository": "kara.moe",
    "modified_at": "2020-03-31T19:04:34.700Z"
  }
}