{
  "header": {
    "description": "Karaoke Mugen Tag File",
    "version": 1
  },
  "tag": {
    "i18n": {
      "eng": "Hideyuki"
    },
    "name": "Hideyuki",
    "tid": "03a0e37d-4820-478d-b8b4-92a2264f0422",
    "types": [
      "singers",
      "2"
    ],
    "repository": "kara.moe",
    "modified_at": "2020-03-31T19:04:34.724Z"
  }
}