{
  "header": {
    "description": "Karaoke Mugen Tag File",
    "version": 1
  },
  "tag": {
    "i18n": {
      "eng": "Hideaki Miyake"
    },
    "name": "Hideaki Miyake",
    "repository": "kara.moe",
    "tid": "223891c6-47a5-428f-97cf-da2ae52d5998",
    "types": [
      "songwriters",
      "8",
      "singers",
      "2"
    ]
  }
}