{
  "header": {
    "description": "Karaoke Mugen Tag File",
    "version": 1
  },
  "tag": {
    "i18n": {
      "eng": "Hidehiko Hoshino"
    },
    "name": "Hidehiko Hoshino",
    "tid": "a434e158-cf32-41b7-8d0e-db4caa264a9e",
    "types": [
      "songwriters",
      "8"
    ],
    "repository": "kara.moe",
    "modified_at": "2020-03-31T19:04:34.702Z"
  }
}