{
  "header": {
    "description": "Karaoke Mugen Tag File",
    "version": 1
  },
  "tag": {
    "i18n": {
      "eng": "Higanbana no Saku Yoru ni"
    },
    "modified_at": "2021-04-18T13:29:25.371Z",
    "name": "Higanbana no Saku Yoru ni",
    "repository": "kara.moe",
    "tid": "35376a0d-16d0-4171-ad6f-49a969caacce",
    "types": [
      "series",
      "1"
    ]
  }
}