{
  "header": {
    "description": "Karaoke Mugen Tag File",
    "version": 1
  },
  "tag": {
    "aliases": [
      "genkyou",
      "saikyou",
      "joou",
      "Lastame"
    ],
    "external_database_ids": {
      "anilist": 156040,
      "kitsu": 46689,
      "myanimelist": 53438
    },
    "i18n": {
      "eng": "The Most Heretical Last Boss Queen: From Villainess to Savior",
      "jpn": "悲劇の元凶となる最強外道ラスボス女王は民の為に尽くします。",
      "qro": "Higeki no Genkyô to Naru Saikyô Gedou Last Boss Joô wa Tami no Tame ni Tsukushimasu."
    },
    "name": "Higeki no Genkyô to Naru Saikyô Gedou Last Boss Joô wa Tami no Tame ni Tsukushimasu.",
    "repository": "kara.moe",
    "tid": "b472dadd-f987-4dda-8c53-c4e3d2c6599a",
    "types": [
      "series",
      "1"
    ]
  }
}