{
  "header": {
    "description": "Karaoke Mugen Tag File",
    "version": 1
  },
  "tag": {
    "aliases": [
      "HSM"
    ],
    "i18n": {
      "eng": "High School Musical 3"
    },
    "modified_at": "2020-07-14T16:17:14.609Z",
    "name": "High School Musical 3",
    "repository": "kara.moe",
    "tid": "26cb36f1-22f2-4419-b5c7-9758f7bfcc10",
    "types": [
      "series",
      "1"
    ]
  }
}