{
  "header": {
    "description": "Karaoke Mugen Tag File",
    "version": 1
  },
  "tag": {
    "aliases": [
      "ハイカード"
    ],
    "external_database_ids": {
      "anilist": 135778,
      "kitsu": 44706,
      "myanimelist": 49154
    },
    "i18n": {
      "eng": "High Card",
      "ukr": "Старша карта",
      "chi": "至高之牌"
    },
    "name": "High Card",
    "repository": "kara.moe",
    "tid": "8b397f59-d692-4ceb-8d95-1611abfa6c23",
    "types": [
      "series",
      "1"
    ]
  }
}