{
  "header": {
    "description": "Karaoke Mugen Tag File",
    "version": 1
  },
  "tag": {
    "i18n": {
      "eng": "High×Joker"
    },
    "name": "High×Joker",
    "tid": "1318da81-a98e-4172-8c64-145913095d35",
    "types": [
      "singers",
      "2"
    ],
    "repository": "kara.moe",
    "modified_at": "2020-03-31T19:04:34.727Z"
  }
}