{
  "header": {
    "description": "Karaoke Mugen Tag File",
    "version": 1
  },
  "tag": {
    "aliases": [
      "Cand plang cicadele",
      "Då Sångstritaren Gråter",
      "Higurashi no Naku Koroni",
      "Hinamizawa",
      "HnNKn",
      "Kiedy płaczą cykady",
      "Quando as Cigarras Choram",
      "Quando piansero le cicale",
      "The Moment the Cicadas Cry",
      "When The Cicadas Cry",
      "When They Cry",
      "higu1",
      "le sanglot des cigales",
      "В час коли плачуть цикади: загадки",
      "Когато плачат цикадите",
      "Когда плачут цикады",
      "Коли плачуть цикади",
      "寒蝉鸣泣之时",
      "蝉鸣"
    ],
    "external_database_ids": {
      "anilist": 934,
      "myanimelist": 934,
      "kitsu": 831
    },
    "i18n": {
      "chi": "寒蟬鳴泣之時",
      "eng": "Higurashi: When They Cry",
      "fre": "Hinamizawa, le village maudit ‒ Arc des Questions",
      "jpn": "ひぐらしのなく頃に",
      "qro": "Higurashi no Naku Koro ni"
    },
    "modified_at": "2020-10-08T20:03:13.473Z",
    "name": "Higurashi no Naku Koro ni",
    "repository": "kara.moe",
    "tid": "8a181299-0e1a-4678-9ca3-c7f01023a78f",
    "types": [
      "series",
      "1"
    ]
  }
}