{
  "header": {
    "description": "Karaoke Mugen Tag File",
    "version": 1
  },
  "tag": {
    "aliases": [
      "The Moment the Cicadas Cry",
      "le sanglot des cigales"
    ],
    "i18n": {
      "eng": "Higurashi Daybreak",
      "jpn": "ひぐらしデイブレイク",
      "qro": "Higurashi Daybreak"
    },
    "modified_at": "2020-03-31T19:04:31.701Z",
    "name": "Higurashi Daybreak",
    "repository": "kara.moe",
    "tid": "d002935e-c6f5-4eac-bc68-e02fec297418",
    "types": [
      "series",
      "1"
    ]
  }
}