{
  "header": {
    "description": "Karaoke Mugen Tag File",
    "version": 1
  },
  "tag": {
    "i18n": {
      "eng": "Hiiragi Nao"
    },
    "name": "Hiiragi Nao",
    "tid": "59da4dc6-9a03-42e5-8340-3f087dcc45a7",
    "types": [
      "singers",
      "2",
      "songwriters",
      "8"
    ],
    "repository": "kara.moe",
    "modified_at": "2020-03-31T19:04:34.729Z"
  }
}