{
  "header": {
    "description": "Karaoke Mugen Tag File",
    "version": 1
  },
  "tag": {
    "i18n": {
      "eng": "Hijiri Anze"
    },
    "name": "Hijiri Anze",
    "tid": "b07cf772-2b54-4943-b7ff-a5cd3605f9c6",
    "types": [
      "songwriters",
      "8"
    ],
    "repository": "kara.moe",
    "modified_at": "2020-03-31T19:04:34.731Z"
  }
}