{
  "header": {
    "description": "Karaoke Mugen Tag File",
    "version": 1
  },
  "tag": {
    "i18n": {
      "eng": "Hikaru Sakurazawa"
    },
    "modified_at": "2020-10-24T23:19:56.031Z",
    "name": "Hikaru Sakurazawa",
    "repository": "kara.moe",
    "tid": "daef4072-9862-417d-bad1-faba62c7cb9d",
    "types": [
      "songwriters",
      "8"
    ]
  }
}