{
  "header": {
    "description": "Karaoke Mugen Tag File",
    "version": 1
  },
  "tag": {
    "aliases": [
      "宇多田 光"
    ],
    "i18n": {
      "eng": "Hikaru Utada",
      "jpn": "宇多田 ヒカル"
    },
    "name": "Hikaru Utada",
    "repository": "kara.moe",
    "tid": "41a9b640-40e6-4019-a55b-9bb0e858e0fc",
    "types": [
      "singers",
      "2",
      "songwriters",
      "8"
    ]
  }
}