{
  "header": {
    "description": "Karaoke Mugen Tag File",
    "version": 1
  },
  "tag": {
    "aliases": [
      "HikaGo",
      "HnG",
      "Хикару и Го",
      "棋魂"
    ],
    "external_database_ids": {
      "anilist": 135,
      "myanimelist": 135,
      "kitsu": 114
    },
    "i18n": {
      "eng": "Hikaru no Go",
      "fre": "Hikaru no Go",
      "ger": "Hikaru no Go",
      "heb": "היקארו נו גו",
      "jpn": "ヒカルの碁",
      "tha": "ฮิคารุ เซียนโกะ",
      "qro": "Hikaru no Go"
    },
    "modified_at": "2020-03-31T19:04:31.707Z",
    "name": "Hikaru no Go",
    "repository": "kara.moe",
    "tid": "d8e3d7d1-ffda-43a7-bf8a-1091512ee43e",
    "types": [
      "series",
      "1"
    ]
  }
}