{
  "header": {
    "description": "Karaoke Mugen Tag File",
    "version": 1
  },
  "tag": {
    "i18n": {
      "eng": "Hikaru Hikawa"
    },
    "name": "Hikaru Hikawa",
    "repository": "kara.moe",
    "tid": "076c96ad-3fb0-4e25-8a43-27326c76f31f",
    "types": [
      "creators",
      "4"
    ]
  }
}