{
  "header": {
    "description": "Karaoke Mugen Tag File",
    "version": 1
  },
  "tag": {
    "aliases": [
      "Bao"
    ],
    "i18n": {
      "eng": "Hikaru Station"
    },
    "modified_at": "2020-12-16T20:21:25.748Z",
    "name": "Hikaru Station",
    "repository": "kara.moe",
    "tid": "073a1dbb-044e-4695-953f-8d60a5822794",
    "types": [
      "singers",
      "2"
    ]
  }
}