{
  "header": {
    "description": "Karaoke Mugen Tag File",
    "version": 1
  },
  "tag": {
    "i18n": {
      "eng": "Hikari Okamoto"
    },
    "name": "Hikari Okamoto",
    "tid": "ebf282fe-af65-443d-8c25-776d097e8e33",
    "types": [
      "singers",
      "2"
    ],
    "repository": "kara.moe",
    "modified_at": "2020-03-31T19:04:34.733Z"
  }
}