{
  "header": {
    "description": "Karaoke Mugen Tag File",
    "version": 1
  },
  "tag": {
    "i18n": {
      "eng": "HIKARI"
    },
    "name": "HIKARI",
    "tid": "3641f5e9-efcf-4a67-8945-be33c9e5f313",
    "types": [
      "songwriters",
      "8"
    ],
    "repository": "kara.moe",
    "modified_at": "2020-03-31T19:04:34.734Z"
  }
}