{
  "header": {
    "description": "Karaoke Mugen Tag File",
    "version": 1
  },
  "tag": {
    "i18n": {
      "eng": "Hikaru Hayashi"
    },
    "name": "Hikaru Hayashi",
    "tid": "cea94e40-5474-433b-8588-e35a98cd7e13",
    "types": [
      "songwriters",
      "8"
    ],
    "repository": "kara.moe",
    "modified_at": "2020-03-31T19:04:34.735Z"
  }
}