{
  "header": {
    "description": "Karaoke Mugen Tag File",
    "version": 1
  },
  "tag": {
    "i18n": {
      "eng": "Hikonin Sentai Akibaranger",
      "fre": "Hikônin Sentai Akibaranger",
      "jpn": "非公認戦隊アキバレンジャ",
      "qro": "Hikounin Sentai Akibaranger"
    },
    "modified_at": "2020-03-31T19:04:31.709Z",
    "name": "Hikounin Sentai Akibaranger",
    "repository": "kara.moe",
    "tid": "6d793cc7-2837-4e7c-8fc9-4c3203dc2ca3",
    "types": [
      "series",
      "1"
    ]
  }
}