{
  "header": {
    "description": "Karaoke Mugen Tag File",
    "version": 1
  },
  "tag": {
    "i18n": {
      "eng": "HIM"
    },
    "modified_at": "2020-08-20T23:21:07.095Z",
    "name": "HIM",
    "repository": "kara.moe",
    "tid": "1cd97ea4-f636-4b41-93da-448db5b7ca86",
    "types": [
      "singers",
      "2"
    ]
  }
}