{
  "header": {
    "description": "Karaoke Mugen Tag File",
    "version": 1
  },
  "tag": {
    "i18n": {
      "eng": "Himari Michikawa"
    },
    "name": "Himari Michikawa",
    "tid": "d84ae8a2-5fe1-41eb-81ce-6e21b6e7977b",
    "types": [
      "songwriters",
      "8"
    ],
    "repository": "kara.moe",
    "modified_at": "2020-03-31T19:04:34.743Z"
  }
}