{
  "header": {
    "description": "Karaoke Mugen Tag File",
    "version": 1
  },
  "tag": {
    "i18n": {
      "eng": "Hime Tanaka"
    },
    "name": "Hime Tanaka",
    "tid": "c4a83afd-cc9e-4062-81dd-f0af373e8547",
    "types": [
      "singers",
      "2"
    ],
    "repository": "kara.moe",
    "modified_at": "2020-03-31T19:04:34.744Z"
  }
}