{
  "header": {
    "description": "Karaoke Mugen Tag File",
    "version": 1
  },
  "tag": {
    "aliases": [
      "Five Rangers",
      "Himitsu Sentai Gorenger"
    ],
    "i18n": {
      "eng": "Himitsu Sentai Goranger",
      "jpn": "秘密戦隊ゴレンジャ",
      "qro": "Himitsu Sentai Goranger"
    },
    "modified_at": "2020-03-31T19:04:31.711Z",
    "name": "Himitsu Sentai Goranger",
    "repository": "kara.moe",
    "tid": "cd00768c-6b33-4cdf-981a-52b1b615e510",
    "types": [
      "series",
      "1"
    ]
  }
}