{
  "header": {
    "description": "Karaoke Mugen Tag File",
    "version": 1
  },
  "tag": {
    "i18n": {
      "eng": "Secret Society holoX",
      "jpn": "秘密結社holoX",
      "qro": "Himitsu kessha holoX"
    },
    "name": "Himitsu kessha holoX",
    "repository": "kara.moe",
    "tid": "f231e7ef-2b2b-4069-9606-799943e468fe",
    "types": [
      "singergroups",
      "17"
    ]
  }
}