{
  "header": {
    "description": "Karaoke Mugen Tag File",
    "version": 1
  },
  "tag": {
    "i18n": {
      "eng": "Himitsu Gakudan Maboroshi"
    },
    "name": "Himitsu Gakudan Maboroshi",
    "tid": "2388ed00-20a2-4d42-b061-c63d97c32dbf",
    "types": [
      "singers",
      "2"
    ],
    "repository": "kara.moe",
    "modified_at": "2020-03-31T19:04:34.747Z"
  }
}