{
  "header": {
    "description": "Karaoke Mugen Tag File",
    "version": 1
  },
  "tag": {
    "aliases": [
      "Himouto! Umaru-chan R",
      "himouto"
    ],
    "external_database_ids": {
      "anilist": 98572,
      "myanimelist": 35376,
      "kitsu": 13489
    },
    "i18n": {
      "chi": "我家有個魚乾妹 R",
      "eng": "Himoto! Umaru-chan R",
      "fre": "Himôto! Umaru-chan R",
      "jpn": "干物妹! うまるちゃんR",
      "kor": "건어물 여동생! 우마루짱 R",
      "qro": "Himôto! Umaru-chan R"
    },
    "modified_at": "2020-03-31T19:04:31.712Z",
    "name": "Himôto! Umaru-chan R",
    "repository": "kara.moe",
    "tid": "1707ee5e-4a1b-4da3-abc6-0f0c256970e8",
    "types": [
      "series",
      "1"
    ]
  }
}