{
  "header": {
    "description": "Karaoke Mugen Tag File",
    "version": 1
  },
  "tag": {
    "i18n": {
      "eng": "Hinako Ogawa"
    },
    "name": "Hinako Ogawa",
    "tid": "65207b22-6a2e-47d6-9e62-e9148d44322a",
    "types": [
      "songwriters",
      "8"
    ],
    "repository": "kara.moe",
    "modified_at": "2020-03-31T19:04:34.750Z"
  }
}