{
  "header": {
    "description": "Karaoke Mugen Tag File",
    "version": 1
  },
  "tag": {
    "i18n": {
      "eng": "Hina Kino"
    },
    "name": "Hina Kino",
    "tid": "1a2a3b83-6635-4b06-8574-4154df44feac",
    "types": [
      "singers",
      "2"
    ],
    "repository": "kara.moe",
    "modified_at": "2020-03-31T19:04:34.748Z"
  }
}