{
  "header": {
    "description": "Karaoke Mugen Tag File",
    "version": 1
  },
  "tag": {
    "i18n": {
      "eng": "Hinata Tadokoro"
    },
    "name": "Hinata Tadokoro",
    "repository": "kara.moe",
    "tid": "e99de984-9499-4406-a69c-000747718550",
    "types": [
      "singers",
      "2"
    ]
  }
}