{
  "header": {
    "description": "Karaoke Mugen Tag File",
    "version": 1
  },
  "tag": {
    "i18n": {
      "eng": "Hinaki Kudo"
    },
    "name": "Hinaki Kudo",
    "repository": "kara.moe",
    "tid": "d5c09815-65ac-4cf5-b450-fd1601d48718",
    "types": [
      "singers",
      "2"
    ]
  }
}