{
  "header": {
    "description": "Karaoke Mugen Tag File",
    "version": 1
  },
  "tag": {
    "i18n": {
      "eng": "Hina Tachibana"
    },
    "name": "Hina Tachibana",
    "repository": "kara.moe",
    "tid": "b3f52999-8fd2-46d3-94fd-833450bc1a2c",
    "types": [
      "singers",
      "2"
    ]
  }
}