{
  "header": {
    "description": "Karaoke Mugen Tag File",
    "version": 1
  },
  "tag": {
    "aliases": [
      "hina logi"
    ],
    "external_database_ids": {
      "anilist": 21738,
      "myanimelist": 34834,
      "kitsu": 13545
    },
    "i18n": {
      "eng": "Hina Logic: From Luck & Logic",
      "fre": "Hina Logic: From Luck & Logic",
      "jpn": "ひなろじ~from Luck & Logic~",
      "kor": "히나 로지: From 럭 & 로직",
      "qro": "Hina Logi: From Luck & Logic"
    },
    "modified_at": "2020-03-31T19:04:31.713Z",
    "name": "Hina Logi: From Luck & Logic",
    "repository": "kara.moe",
    "tid": "82a3a8be-4aa7-441c-8376-7902a9f48ab2",
    "types": [
      "series",
      "1"
    ]
  }
}