{
  "header": {
    "description": "Karaoke Mugen Tag File",
    "version": 1
  },
  "tag": {
    "i18n": {
      "eng": "HinamiYami"
    },
    "name": "HinamiYami",
    "repository": "kara.moe",
    "tid": "cc329a5a-10a0-4e38-ac8d-d4f939d37f10",
    "types": [
      "authors",
      "6"
    ]
  }
}