{
  "header": {
    "description": "Karaoke Mugen Tag File",
    "version": 1
  },
  "tag": {
    "i18n": {
      "eng": "Hiratake"
    },
    "name": "Hiratake",
    "repository": "kara.moe",
    "tid": "ae5309bf-8917-474d-8dd8-76f92df9c2f5",
    "types": [
      "songwriters",
      "8"
    ]
  }
}