{
  "header": {
    "description": "Karaoke Mugen Tag File",
    "version": 1
  },
  "tag": {
    "i18n": {
      "eng": "Hiroto Ishikawa"
    },
    "name": "Hiroto Ishikawa",
    "tid": "3554a5ed-d5f9-4ced-9dea-e0d7ea1ab99c",
    "types": [
      "songwriters",
      "8"
    ],
    "repository": "kara.moe",
    "modified_at": "2020-03-31T19:04:34.821Z"
  }
}