{
  "header": {
    "description": "Karaoke Mugen Tag File",
    "version": 1
  },
  "tag": {
    "i18n": {
      "eng": "Hiro Tazunoki"
    },
    "name": "Hiro Tazunoki",
    "tid": "36b87cbb-4637-444e-b3cb-556a9274af4f",
    "types": [
      "songwriters",
      "8"
    ],
    "repository": "kara.moe",
    "modified_at": "2020-03-31T19:04:34.759Z"
  }
}