{
  "header": {
    "description": "Karaoke Mugen Tag File",
    "version": 1
  },
  "tag": {
    "i18n": {
      "eng": "Hirofumi Miyake"
    },
    "name": "Hirofumi Miyake",
    "repository": "kara.moe",
    "tid": "e415dc9b-abf8-49d6-ab44-a69781ee212b",
    "types": [
      "songwriters",
      "8"
    ],
    "modified_at": "2020-03-31T19:04:34.771Z"
  }
}