{
  "header": {
    "description": "Karaoke Mugen Tag File",
    "version": 1
  },
  "tag": {
    "i18n": {
      "eng": "Hiromu Itô"
    },
    "modified_at": "2020-11-09T20:41:40.341Z",
    "name": "Hiromu Itô",
    "repository": "kara.moe",
    "tid": "12f0ddd1-0c14-41b8-bc5c-8dbfb20d253a",
    "types": [
      "songwriters",
      "8"
    ]
  }
}