{
  "header": {
    "description": "Karaoke Mugen Tag File",
    "version": 1
  },
  "tag": {
    "i18n": {
      "eng": "Hiroyuki Ogawa"
    },
    "name": "Hiroyuki Ogawa",
    "tid": "9cf53fa6-61c8-434b-bbe5-c4e0cf66951d",
    "types": [
      "songwriters",
      "8"
    ],
    "repository": "kara.moe",
    "modified_at": "2020-03-31T19:04:34.841Z"
  }
}