{
  "header": {
    "description": "Karaoke Mugen Tag File",
    "version": 1
  },
  "tag": {
    "i18n": {
      "eng": "Hiroki Morishita"
    },
    "name": "Hiroki Morishita",
    "tid": "f6de5cb1-fce6-4ba7-9b46-27c9d53a00ae",
    "types": [
      "songwriters",
      "8"
    ],
    "repository": "kara.moe",
    "modified_at": "2020-03-31T19:04:34.777Z"
  }
}