{
  "header": {
    "description": "Karaoke Mugen Tag File",
    "version": 1
  },
  "tag": {
    "i18n": {
      "eng": "Hiroki Horiko"
    },
    "name": "Hiroki Horiko",
    "tid": "3b3c9c3a-673d-4457-a61f-89cec00594c0",
    "types": [
      "songwriters",
      "8"
    ],
    "repository": "kara.moe",
    "modified_at": "2020-03-31T19:04:34.775Z"
  }
}