{
  "header": {
    "description": "Karaoke Mugen Tag File",
    "version": 1
  },
  "tag": {
    "i18n": {
      "eng": "Hiroaki TOMMY Tominaga"
    },
    "name": "Hiroaki TOMMY Tominaga",
    "tid": "08be1cbf-a4c5-47d7-a512-3b38c20fade8",
    "types": [
      "singers",
      "2"
    ],
    "repository": "kara.moe",
    "modified_at": "2020-03-31T19:04:34.767Z"
  }
}