{
  "header": {
    "description": "Karaoke Mugen Tag File",
    "version": 1
  },
  "tag": {
    "i18n": {
      "eng": "Hiroshi Nishikiori"
    },
    "name": "Hiroshi Nishikiori",
    "tid": "61bd48e5-1626-4390-8388-b72f7397c065",
    "types": [
      "songwriters",
      "8"
    ],
    "repository": "kara.moe",
    "modified_at": "2020-03-31T19:04:34.813Z"
  }
}