{
  "header": {
    "description": "Karaoke Mugen Tag File",
    "version": 1
  },
  "tag": {
    "i18n": {
      "eng": "Hiroshi Koitabashi"
    },
    "name": "Hiroshi Koitabashi",
    "tid": "5fd8bf9e-fdbd-4473-8f7c-2633d40920e2",
    "types": [
      "singers",
      "2"
    ],
    "repository": "kara.moe",
    "modified_at": "2020-03-31T19:04:34.810Z"
  }
}