{
  "header": {
    "description": "Karaoke Mugen Tag File",
    "version": 1
  },
  "tag": {
    "i18n": {
      "eng": "Hiroyuki Kagura"
    },
    "name": "Hiroyuki Kagura",
    "repository": "kara.moe",
    "tid": "b523d05b-9fb3-4275-ba15-1ea0544cd2ba",
    "types": [
      "singers",
      "2"
    ]
  }
}