{
  "header": {
    "description": "Karaoke Mugen Tag File",
    "version": 1
  },
  "tag": {
    "i18n": {
      "eng": "Hiroki Nanami",
      "jpn": "七海ひろき"
    },
    "name": "Hiroki Nanami",
    "repository": "kara.moe",
    "tid": "ae6730b3-6852-4df1-a2ba-0474ff65ebfc",
    "types": [
      "singers",
      "2"
    ]
  }
}