{
  "header": {
    "description": "Karaoke Mugen Tag File",
    "version": 1
  },
  "tag": {
    "i18n": {
      "eng": "Hiroki Nagase"
    },
    "name": "Hiroki Nagase",
    "tid": "4e760529-1482-450a-a8fb-b39572e61c8e",
    "types": [
      "songwriters",
      "8"
    ],
    "repository": "kara.moe",
    "modified_at": "2020-03-31T19:04:34.778Z"
  }
}