{
  "header": {
    "description": "Karaoke Mugen Tag File",
    "version": 1
  },
  "tag": {
    "i18n": {
      "eng": "Hiroaki Sano"
    },
    "name": "Hiroaki Sano",
    "repository": "kara.moe",
    "tid": "fca370b6-94b4-4d5c-9ecd-ba4cca7af1bc",
    "types": [
      "songwriters",
      "8"
    ]
  }
}