{
  "header": {
    "description": "Karaoke Mugen Tag File",
    "version": 1
  },
  "tag": {
    "i18n": {
      "eng": "Hiroto Suzuki"
    },
    "name": "Hiroto Suzuki",
    "tid": "f669916e-4d02-4325-9c0e-7223ec79c4f1",
    "types": [
      "songwriters",
      "8"
    ],
    "repository": "kara.moe",
    "modified_at": "2020-03-31T19:04:34.823Z"
  }
}