{
  "header": {
    "description": "Karaoke Mugen Tag File",
    "version": 1
  },
  "tag": {
    "i18n": {
      "eng": "Hiromu Mineta"
    },
    "name": "Hiromu Mineta",
    "repository": "kara.moe",
    "tid": "e9c59004-d15a-49ef-99c6-c62aab99c57e",
    "types": [
      "singers",
      "2"
    ]
  }
}