{
  "header": {
    "description": "Karaoke Mugen Tag File",
    "version": 1
  },
  "tag": {
    "i18n": {
      "eng": "Hiroshi Ichikura"
    },
    "name": "Hiroshi Ichikura",
    "tid": "dcd93b70-da72-4863-95dc-2f0037c63d6e",
    "types": [
      "songwriters",
      "8"
    ],
    "repository": "kara.moe",
    "modified_at": "2020-03-31T19:04:34.805Z"
  }
}