{
  "header": {
    "description": "Karaoke Mugen Tag File",
    "version": 1
  },
  "tag": {
    "i18n": {
      "eng": "Hiroko Yah"
    },
    "name": "Hiroko Yah",
    "tid": "9fb12252-ecf0-4474-a9f4-bacfbb0bbe0a",
    "types": [
      "songwriters",
      "8"
    ],
    "repository": "kara.moe",
    "modified_at": "2020-03-31T19:04:34.785Z"
  }
}