{
  "header": {
    "description": "Karaoke Mugen Tag File",
    "version": 1
  },
  "tag": {
    "i18n": {
      "eng": "Hiromitsu Kawashima"
    },
    "name": "Hiromitsu Kawashima",
    "tid": "21d4f5c0-5957-4624-8a55-d99ec62a9693",
    "types": [
      "songwriters",
      "8"
    ],
    "repository": "kara.moe",
    "modified_at": "2020-03-31T19:04:34.796Z"
  }
}