{
  "header": {
    "description": "Karaoke Mugen Tag File",
    "version": 1
  },
  "tag": {
    "i18n": {
      "eng": "Hiroshi Shibasaki"
    },
    "name": "Hiroshi Shibasaki",
    "tid": "8afb7356-e7ab-4581-9891-5fd8abd49a7f",
    "types": [
      "songwriters",
      "8"
    ],
    "repository": "kara.moe",
    "modified_at": "2020-03-31T19:04:34.815Z"
  }
}