{
  "header": {
    "description": "Karaoke Mugen Tag File",
    "version": 1
  },
  "tag": {
    "i18n": {
      "eng": "Hiro Nitta"
    },
    "name": "Hiro Nitta",
    "tid": "988af2dc-8ad2-427e-adf3-148701f3bf7c",
    "types": [
      "singers",
      "2"
    ],
    "repository": "kara.moe",
    "modified_at": "2020-03-31T19:04:34.756Z"
  }
}