{
  "header": {
    "description": "Karaoke Mugen Tag File",
    "version": 1
  },
  "tag": {
    "i18n": {
      "eng": "Hiromi Iwasaki"
    },
    "name": "Hiromi Iwasaki",
    "tid": "89f82ed5-fe0e-4b1d-bdb5-f73544e38c52",
    "types": [
      "singers",
      "2"
    ],
    "repository": "kara.moe",
    "modified_at": "2020-03-31T19:04:34.791Z"
  }
}