{
  "header": {
    "description": "Karaoke Mugen Tag File",
    "version": 1
  },
  "tag": {
    "i18n": {
      "eng": "Hiroyuki Azuma"
    },
    "name": "Hiroyuki Azuma",
    "tid": "4e452fd0-7f01-42a5-a6d3-45d70c8cb42d",
    "types": [
      "songwriters",
      "8"
    ],
    "repository": "kara.moe",
    "modified_at": "2020-03-31T19:04:34.837Z"
  }
}