{
  "header": {
    "description": "Karaoke Mugen Tag File",
    "version": 1
  },
  "tag": {
    "i18n": {
      "eng": "Hirokazu Tanaka"
    },
    "name": "Hirokazu Tanaka",
    "tid": "959ddffc-27b2-401f-a8d2-c5f971c8b666",
    "types": [
      "songwriters",
      "8"
    ],
    "repository": "kara.moe",
    "modified_at": "2020-03-31T19:04:34.774Z"
  }
}