{
  "header": {
    "description": "Karaoke Mugen Tag File",
    "version": 1
  },
  "tag": {
    "i18n": {
      "eng": "Hiroshi Inaba"
    },
    "name": "Hiroshi Inaba",
    "tid": "ba8423b0-f85c-46a7-a57a-e7c6c389f240",
    "types": [
      "songwriters",
      "8"
    ],
    "repository": "kara.moe",
    "modified_at": "2020-03-31T19:04:34.807Z"
  }
}