{
  "header": {
    "description": "Karaoke Mugen Tag File",
    "version": 1
  },
  "tag": {
    "i18n": {
      "eng": "Hiromitsu Aoki"
    },
    "name": "Hiromitsu Aoki",
    "tid": "e918ac90-ebc2-4826-82e1-706389d9f70b",
    "types": [
      "songwriters",
      "8"
    ],
    "repository": "kara.moe",
    "modified_at": "2020-03-31T19:04:34.795Z"
  }
}