{
  "header": {
    "description": "Karaoke Mugen Tag File",
    "version": 1
  },
  "tag": {
    "i18n": {
      "eng": "Hiroyuki Suzuki"
    },
    "name": "Hiroyuki Suzuki",
    "tid": "f311cb30-5c8a-47a5-a435-241df009e375",
    "types": [
      "songwriters",
      "8"
    ],
    "repository": "kara.moe",
    "modified_at": "2020-03-31T19:04:34.844Z"
  }
}