{
  "header": {
    "description": "Karaoke Mugen Tag File",
    "version": 1
  },
  "tag": {
    "i18n": {
      "eng": "Hiroyuki Onoda"
    },
    "name": "Hiroyuki Onoda",
    "tid": "6d110ebd-d397-4635-8bea-2dcf7eb8464c",
    "types": [
      "songwriters",
      "8"
    ],
    "repository": "kara.moe",
    "modified_at": "2020-03-31T19:04:34.842Z"
  }
}