{
  "header": {
    "description": "Karaoke Mugen Tag File",
    "version": 1
  },
  "tag": {
    "i18n": {
      "eng": "Hiroko Yamawaki"
    },
    "name": "Hiroko Yamawaki",
    "tid": "b41a45a9-c2f9-42fd-9146-b63b30c02510",
    "types": [
      "singers",
      "2"
    ],
    "repository": "kara.moe",
    "modified_at": "2020-03-31T19:04:34.786Z"
  }
}