{
  "header": {
    "description": "Karaoke Mugen Tag File",
    "version": 1
  },
  "tag": {
    "i18n": {
      "eng": "Hiroaki Tsutsumi"
    },
    "name": "Hiroaki Tsutsumi",
    "tid": "5d7c5fac-c794-4d2d-b239-94113a2e0de1",
    "types": [
      "songwriters",
      "8"
    ],
    "repository": "kara.moe",
    "modified_at": "2020-03-31T19:04:34.768Z"
  }
}