{
  "header": {
    "description": "Karaoke Mugen Tag File",
    "version": 1
  },
  "tag": {
    "i18n": {
      "eng": "Hiroki Maekawa"
    },
    "name": "Hiroki Maekawa",
    "tid": "7489d5b1-41dc-4a5d-a09a-38c7abd7f65c",
    "types": [
      "singers",
      "2"
    ],
    "repository": "kara.moe",
    "modified_at": "2020-03-31T19:04:34.776Z"
  }
}