{
  "header": {
    "description": "Karaoke Mugen Tag File",
    "version": 1
  },
  "tag": {
    "i18n": {
      "eng": "Hirooki Ogawa"
    },
    "name": "Hirooki Ogawa",
    "tid": "2b74958e-5fea-4f99-8919-b32afa8e468f",
    "types": [
      "songwriters",
      "8"
    ],
    "repository": "kara.moe",
    "modified_at": "2020-03-31T19:04:34.803Z"
  }
}