{
  "header": {
    "description": "Karaoke Mugen Tag File",
    "version": 1
  },
  "tag": {
    "i18n": {
      "eng": "Hiroaki Sei"
    },
    "name": "Hiroaki Sei",
    "tid": "a6178a49-bb56-442a-956a-4c6e571db9de",
    "types": [
      "songwriters",
      "8"
    ],
    "repository": "kara.moe",
    "modified_at": "2020-03-31T19:04:34.764Z"
  }
}