{
  "header": {
    "description": "Karaoke Mugen Tag File",
    "version": 1
  },
  "tag": {
    "i18n": {
      "eng": "Hiroshi Sasaki"
    },
    "name": "Hiroshi Sasaki",
    "tid": "38872736-79f3-4d50-a95a-f6b851097d76",
    "types": [
      "songwriters",
      "8"
    ],
    "repository": "kara.moe",
    "modified_at": "2020-03-31T19:04:34.814Z"
  }
}