{
  "header": {
    "description": "Karaoke Mugen Tag File",
    "version": 1
  },
  "tag": {
    "i18n": {
      "eng": "Hiroaki Matsuzawa"
    },
    "name": "Hiroaki Matsuzawa",
    "tid": "5934d2c0-f351-4a49-a1eb-0368a4594485",
    "types": [
      "songwriters",
      "8"
    ],
    "repository": "kara.moe",
    "modified_at": "2020-03-31T19:04:34.762Z"
  }
}