{
  "header": {
    "description": "Karaoke Mugen Tag File",
    "version": 1
  },
  "tag": {
    "i18n": {
      "eng": "Hirofumi Hibino"
    },
    "name": "Hirofumi Hibino",
    "tid": "3ec2cc01-e011-481f-93d2-cde2b2ae3d3f",
    "types": [
      "songwriters",
      "8"
    ],
    "repository": "kara.moe",
    "modified_at": "2020-03-31T19:04:34.770Z"
  }
}