{
  "header": {
    "description": "Karaoke Mugen Tag File",
    "version": 1
  },
  "tag": {
    "i18n": {
      "eng": "Hiroyuki Takami"
    },
    "name": "Hiroyuki Takami",
    "tid": "73a7f18d-e510-4073-bd64-81f203c8b2f7",
    "types": [
      "singers",
      "2"
    ],
    "repository": "kara.moe",
    "modified_at": "2020-03-31T19:04:34.844Z"
  }
}