{
  "header": {
    "description": "Karaoke Mugen Tag File",
    "version": 1
  },
  "tag": {
    "i18n": {
      "eng": "Hiro Oyagi"
    },
    "name": "Hiro Oyagi",
    "tid": "6a4b6a2c-8ab3-4ea7-af38-967b215ea54b",
    "types": [
      "songwriters",
      "8"
    ],
    "repository": "kara.moe",
    "modified_at": "2020-03-31T19:04:34.757Z"
  }
}