{
  "header": {
    "description": "Karaoke Mugen Tag File",
    "version": 1
  },
  "tag": {
    "i18n": {
      "eng": "Hisashi Kondô"
    },
    "name": "Hisashi Kondô",
    "tid": "899f912c-47c8-45ed-bc64-d7afcd15e6a5",
    "types": [
      "songwriters",
      "8"
    ],
    "repository": "kara.moe",
    "modified_at": "2020-03-31T19:04:34.850Z"
  }
}