{
  "header": {
    "description": "Karaoke Mugen Tag File",
    "version": 1
  },
  "tag": {
    "aliases": [
      "hisomaso"
    ],
    "external_database_ids": {
      "anilist": 100673,
      "myanimelist": 36884,
      "kitsu": 14042
    },
    "i18n": {
      "eng": "Dragon Pilot: Hisone & Masotan",
      "fre": "Pilote Dragon -Hisone et Masotan-",
      "jpn": "ひそねとまそたん",
      "kor": "히소네와 마소땅",
      "qro": "Hisone to Masotan"
    },
    "modified_at": "2020-05-26T19:20:27.449Z",
    "name": "Hisone to Masotan",
    "repository": "kara.moe",
    "tid": "0ddc2aa5-72b5-4193-b976-6296802fe951",
    "types": [
      "series",
      "1"
    ]
  }
}