{
  "header": {
    "description": "Karaoke Mugen Tag File",
    "version": 1
  },
  "tag": {
    "i18n": {
      "eng": "Hitomi Nakahashi"
    },
    "name": "Hitomi Nakahashi",
    "tid": "bd3e9b2a-3a10-4272-a833-d0e14d599f58",
    "types": [
      "singers",
      "2"
    ],
    "repository": "kara.moe",
    "modified_at": "2020-03-31T19:04:34.859Z"
  }
}