{
  "header": {
    "description": "Karaoke Mugen Tag File",
    "version": 1
  },
  "tag": {
    "i18n": {
      "eng": "Hitomi Yoshizawa",
      "jpn": "吉澤 ひとみ",
      "qro": "Hitomi Yoshizawa"
    },
    "name": "Hitomi Yoshizawa",
    "repository": "kara.moe",
    "tid": "7e883a23-e310-4c10-8d4d-35bfd2e1ac6e",
    "types": [
      "singers",
      "2"
    ]
  }
}