{
  "header": {
    "description": "Karaoke Mugen Tag File",
    "version": 1
  },
  "tag": {
    "i18n": {
      "eng": "Hitomi Shimatani"
    },
    "name": "Hitomi Shimatani",
    "tid": "fbeecba5-3f2b-4c14-b6d3-60d2add2c1d5",
    "types": [
      "singers",
      "2"
    ],
    "repository": "kara.moe",
    "modified_at": "2020-03-31T19:04:34.860Z"
  }
}