{
  "header": {
    "description": "Karaoke Mugen Tag File",
    "version": 1
  },
  "tag": {
    "i18n": {
      "eng": "Hitoshi Fujima"
    },
    "name": "Hitoshi Fujima",
    "tid": "18a5b3b4-9796-4d50-869f-1a1ebb96b1c4",
    "types": [
      "songwriters",
      "8"
    ],
    "repository": "kara.moe",
    "modified_at": "2020-03-31T19:04:34.865Z"
  }
}