{
  "header": {
    "description": "Karaoke Mugen Tag File",
    "version": 1
  },
  "tag": {
    "i18n": {
      "eng": "Hitomi Kuroishi"
    },
    "name": "Hitomi Kuroishi",
    "tid": "b0adbd32-87b9-4fe9-afcb-7dfb8c2b4f2e",
    "types": [
      "songwriters",
      "8"
    ],
    "repository": "kara.moe",
    "modified_at": "2020-03-31T19:04:34.858Z"
  }
}