{
  "header": {
    "description": "Karaoke Mugen Tag File",
    "version": 1
  },
  "tag": {
    "i18n": {
      "eng": "Hitomi Natsu"
    },
    "name": "Hitomi Natsu",
    "tid": "dfdb57ff-c973-4fe7-9ed0-c607ac5451b9",
    "types": [
      "songwriters",
      "8"
    ],
    "repository": "kara.moe",
    "modified_at": "2020-03-31T19:04:34.860Z"
  }
}