{
  "header": {
    "description": "Karaoke Mugen Tag File",
    "version": 1
  },
  "tag": {
    "i18n": {
      "eng": "Hitomi Sasaki"
    },
    "name": "Hitomi Sasaki",
    "repository": "kara.moe",
    "tid": "6604ef30-8652-432e-9137-96db77477fd3",
    "types": [
      "singers",
      "2"
    ]
  }
}