{
  "header": {
    "description": "Karaoke Mugen Tag File",
    "version": 1
  },
  "tag": {
    "i18n": {
      "eng": "Hitomi Oowada"
    },
    "modified_at": "2021-03-18T17:50:17.055Z",
    "name": "Hitomi Oowada",
    "repository": "kara.moe",
    "tid": "e9bd74fe-4292-4fee-8099-7bd376938734",
    "types": [
      "singers",
      "2"
    ]
  }
}