{
  "header": {
    "description": "Karaoke Mugen Tag File",
    "version": 1
  },
  "tag": {
    "i18n": {
      "eng": "Hiwamari"
    },
    "name": "Hiwamari",
    "repository": "kara.moe",
    "tid": "fce27d34-903c-4727-b1e2-8c4dee052ce4",
    "types": [
      "singers",
      "2"
    ]
  }
}