{
  "header": {
    "description": "Karaoke Mugen Tag File",
    "version": 1
  },
  "tag": {
    "i18n": {
      "jpn": "宮本 ひより",
      "qro": "Hiyori Miyamoto"
    },
    "name": "Hiyori Miyamoto",
    "repository": "kara.moe",
    "tid": "ae6c8fa0-d2f8-4c2c-8bd5-af8149ba7d80",
    "types": [
      "singers",
      "2"
    ]
  }
}