{
  "header": {
    "description": "Karaoke Mugen Tag File",
    "version": 1
  },
  "tag": {
    "external_database_ids": {},
    "i18n": {
      "jpn": "比翼は愛薊の彼方へ",
      "qro": "Hiyoku wa Azami no Kanata e"
    },
    "name": "Hiyoku wa Azami no Kanata e",
    "repository": "kara.moe",
    "tid": "3888d728-7ca0-4836-80d7-d7073762df0b",
    "types": [
      "franchises",
      "18"
    ]
  }
}