{
  "header": {
    "description": "Karaoke Mugen Tag File",
    "version": 1
  },
  "tag": {
    "i18n": {
      "eng": "Hizumi"
    },
    "name": "Hizumi",
    "repository": "kara.moe",
    "tid": "c9ec1701-b362-4a53-ba97-d68fc3129594",
    "types": [
      "songwriters",
      "8"
    ]
  }
}