{
  "header": {
    "description": "Karaoke Mugen Tag File",
    "version": 1
  },
  "tag": {
    "i18n": {
      "eng": "hkz"
    },
    "name": "hkz",
    "repository": "kara.moe",
    "tid": "e1129ba3-ebf5-43e5-abc5-a49a3615ecbb",
    "types": [
      "creators",
      "4"
    ]
  }
}