{
  "header": {
    "description": "Karaoke Mugen Tag File",
    "version": 1
  },
  "tag": {
    "i18n": {
      "eng": "Hoehoe-P"
    },
    "name": "Hoehoe-P",
    "tid": "727ba1db-35b5-42aa-b5de-1e4ab8651a82",
    "types": [
      "songwriters",
      "8"
    ],
    "repository": "kara.moe",
    "modified_at": "2020-03-31T19:04:34.872Z"
  }
}