{
  "header": {
    "description": "Karaoke Mugen Tag File",
    "version": 1
  },
  "tag": {
    "i18n": {
      "eng": "Hoffnung"
    },
    "name": "Hoffnung",
    "repository": "kara.moe",
    "tid": "7a4350a8-edaa-4d8a-841d-0d9d424d5435",
    "types": [
      "songwriters",
      "8"
    ]
  }
}