{
  "header": {
    "description": "Karaoke Mugen Tag File",
    "version": 1
  },
  "tag": {
    "aliases": [
      "hololive ID"
    ],
    "i18n": {
      "eng": "Hololive Indonesia Generation 1"
    },
    "name": "Hololive Indonesia Generation 1",
    "repository": "kara.moe",
    "tid": "eec0879b-a201-45bb-ad3c-a9eec6392971",
    "types": [
      "singergroups",
      "17"
    ]
  }
}