{
  "header": {
    "description": "Karaoke Mugen Tag File",
    "version": 1
  },
  "tag": {
    "i18n": {
      "eng": "Homura Kawamoto"
    },
    "modified_at": "2020-12-16T20:25:06.295Z",
    "name": "Homura Kawamoto",
    "repository": "kara.moe",
    "tid": "8762ba8b-8e0d-4905-981d-902eb117be57",
    "types": [
      "songwriters",
      "8"
    ]
  }
}