{
  "header": {
    "description": "Karaoke Mugen Tag File",
    "version": 1
  },
  "tag": {
    "i18n": {
      "eng": "HoneyStrap"
    },
    "modified_at": "2021-06-26T11:03:18.511Z",
    "name": "HoneyStrap",
    "repository": "kara.moe",
    "tid": "a5c8f498-afec-4a45-b839-0f382fa98d8b",
    "types": [
      "creators",
      "4"
    ]
  }
}