{
  "header": {
    "description": "Karaoke Mugen Tag File",
    "version": 1
  },
  "tag": {
    "i18n": {
      "eng": "Honekaruta"
    },
    "name": "Honekaruta",
    "repository": "kara.moe",
    "tid": "529b4303-5f2a-4022-bee1-476ca16ede5b",
    "types": [
      "singers",
      "2"
    ]
  }
}