{
  "header": {
    "description": "Karaoke Mugen Tag File",
    "version": 1
  },
  "tag": {
    "aliases": [
      "Hong Eun-chae"
    ],
    "i18n": {
      "kor": "홍은채",
      "qro": "Hong Eunchae"
    },
    "name": "Hong Eunchae",
    "repository": "kara.moe",
    "tid": "a866f372-6487-4209-b094-9140ba713c93",
    "types": [
      "singers",
      "2"
    ]
  }
}