{
  "header": {
    "description": "Karaoke Mugen Tag File",
    "version": 1
  },
  "tag": {
    "i18n": {
      "eng": "Honkai"
    },
    "name": "Honkai",
    "repository": "kara.moe",
    "tid": "9be5ebfe-b8a5-487a-8c36-26fda6b42fb4",
    "types": [
      "franchises",
      "18"
    ]
  }
}