{
  "header": {
    "description": "Karaoke Mugen Tag File",
    "version": 1
  },
  "tag": {
    "i18n": {
      "eng": "Honkai Gakuen EX"
    },
    "modified_at": "2021-03-19T22:27:34.472Z",
    "name": "Honkai Gakuen EX",
    "repository": "kara.moe",
    "tid": "aba388e5-9fa6-4d7e-941a-84d57b99ceb2",
    "types": [
      "series",
      "1"
    ]
  }
}