{
  "header": {
    "description": "Karaoke Mugen Tag File",
    "version": 1
  },
  "tag": {
    "i18n": {
      "jpn": "たかはし ほのか",
      "qro": "Honoka Takahashi"
    },
    "name": "Honoka Takahashi",
    "repository": "kara.moe",
    "tid": "304b6bd5-85d1-4697-b0c1-afd023dbeeaa",
    "types": [
      "songwriters",
      "8",
      "singers",
      "2"
    ]
  }
}