{
  "header": {
    "description": "Karaoke Mugen Tag File",
    "version": 1
  },
  "tag": {
    "aliases": [
      "Honoo no Tenkousei",
      "honoten",
      "炎転",
      "honou",
      "tenkousei"
    ],
    "external_database_ids": {
      "anilist": 2050,
      "myanimelist": 2050,
      "kitsu": 1849
    },
    "i18n": {
      "eng": "Blazing Transfer Student",
      "fre": "Honô no Tenkôsei",
      "jpn": "炎の転校生",
      "qro": "Honô no Tenkôsei"
    },
    "modified_at": "2020-03-31T19:04:31.723Z",
    "name": "Honô no Tenkôsei",
    "repository": "kara.moe",
    "tid": "fa1a3d92-c451-48be-b5b6-8441a2aa6cda",
    "types": [
      "series",
      "1"
    ]
  }
}