{
  "header": {
    "description": "Karaoke Mugen Tag File",
    "version": 1
  },
  "tag": {
    "aliases": [
      "Horimiya"
    ],
    "external_database_ids": {
      "anilist": 14753,
      "kitsu": 7164,
      "myanimelist": 14753
    },
    "i18n": {
      "jpn": "堀さんと宮村くん",
      "qro": "Hori-san to Miyamura-kun"
    },
    "name": "Hori-san to Miyamura-kun",
    "repository": "kara.moe",
    "tid": "9034df17-2f98-4a9b-90df-a7af7d821c41",
    "types": [
      "series",
      "1",
      "franchises",
      "18"
    ]
  }
}