{
  "header": {
    "description": "Karaoke Mugen Tag File",
    "version": 1
  },
  "tag": {
    "i18n": {
      "eng": "Horita Daisuke"
    },
    "name": "Horita Daisuke",
    "repository": "kara.moe",
    "tid": "786dd058-4fce-401f-9199-a76efe5ea13d",
    "types": [
      "songwriters",
      "8"
    ]
  }
}