{
  "header": {
    "description": "Karaoke Mugen Tag File",
    "version": 1
  },
  "tag": {
    "i18n": {
      "eng": "Hoshi Grandmarnier"
    },
    "name": "Hoshi Grandmarnier",
    "tid": "0250038c-c34d-45b3-ae75-d1a5c5b3adc9",
    "types": [
      "songwriters",
      "8"
    ],
    "repository": "kara.moe",
    "modified_at": "2020-03-31T19:04:34.883Z"
  }
}