{
  "header": {
    "description": "Karaoke Mugen Tag File",
    "version": 1
  },
  "tag": {
    "aliases": [
      "Star-Crossing Skies"
    ],
    "external_database_ids": {
      "anilist": 104052,
      "myanimelist": 37972,
      "kitsu": 42094
    },
    "i18n": {
      "eng": "Stars Align",
      "jpn": "星合の空",
      "qro": "Hoshiai no Sora"
    },
    "modified_at": "2020-03-31T19:04:31.727Z",
    "name": "Hoshiai no Sora",
    "repository": "kara.moe",
    "tid": "d365c119-8287-4b18-b8ef-bcf1134f1f7f",
    "types": [
      "series",
      "1"
    ]
  }
}