{
  "header": {
    "description": "Karaoke Mugen Tag File",
    "version": 1
  },
  "tag": {
    "aliases": [
      "Houkago",
      "Hou-kago"
    ],
    "i18n": {
      "eng": "Hô-kago Tea Time"
    },
    "name": "Hô-kago Tea Time",
    "repository": "kara.moe",
    "tid": "2bda7a16-d557-4b96-9741-9f6e5e85ff12",
    "types": [
      "singergroups",
      "17"
    ]
  }
}