{
  "header": {
    "description": "Karaoke Mugen Tag File",
    "version": 1
  },
  "tag": {
    "i18n": {
      "eng": "Hôkago Rakuen Bu"
    },
    "name": "Hôkago Rakuen Bu",
    "repository": "kara.moe",
    "tid": "421cbee2-ff5c-4a2a-b291-5440973a051d",
    "types": [
      "singers",
      "2"
    ],
    "modified_at": "2020-03-31T19:04:34.887Z"
  }
}