{
  "header": {
    "description": "Karaoke Mugen Tag File",
    "version": 1
  },
  "tag": {
    "i18n": {
      "eng": "Hôko Kawashima"
    },
    "name": "Hôko Kawashima",
    "tid": "7a5bc5a8-6418-47fa-9b08-e1664042f12f",
    "types": [
      "singers",
      "2"
    ],
    "repository": "kara.moe",
    "modified_at": "2020-03-31T19:04:34.887Z"
  }
}