{
  "header": {
    "description": "Karaoke Mugen Tag File",
    "version": 1
  },
  "tag": {
    "aliases": [
      "Houkago Teibou Nisshi",
      "houkago",
      "teibou"
    ],
    "external_database_ids": {
      "anilist": 109019,
      "myanimelist": 39730,
      "kitsu": 42296
    },
    "i18n": {
      "eng": "Diary of Our Days at the Breakwater",
      "jpn": "放課後ていぼう日誌",
      "chi": "放学后海堤日记",
      "qro": "Hôkago Teibô Nisshi"
    },
    "modified_at": "2020-07-16T16:54:51.340Z",
    "name": "Hôkago Teibô Nisshi",
    "repository": "kara.moe",
    "tid": "9e1f8e46-61fa-47e4-b6b1-49fb087ea429",
    "types": [
      "series",
      "1"
    ]
  }
}