{
  "header": {
    "description": "Karaoke Mugen Tag File",
    "version": 1
  },
  "tag": {
    "i18n": {
      "eng": "House Foods"
    },
    "name": "House Foods",
    "repository": "kara.moe",
    "tid": "75a97798-2d9d-49d7-8b0d-59a80d11f5d6",
    "types": [
      "creators",
      "4"
    ]
  }
}