{
  "header": {
    "description": "Karaoke Mugen Tag File",
    "version": 1
  },
  "tag": {
    "i18n": {
      "eng": "How I Met Your Mother"
    },
    "modified_at": "2021-01-15T21:14:56.885Z",
    "name": "How I Met Your Mother",
    "repository": "kara.moe",
    "tid": "cb0b1a30-0a33-430e-817f-09eaecf4f9e3",
    "types": [
      "series",
      "1"
    ]
  }
}