{
  "header": {
    "description": "Karaoke Mugen Tag File",
    "version": 1
  },
  "tag": {
    "external_database_ids": {
      "anilist": 117448,
      "myanimelist": 41623,
      "kitsu": 43118
    },
    "i18n": {
      "eng": "How Not to Summon a Demon Lord Ω",
      "jpn": "異世界魔王と召喚少女の奴隷魔術Ω",
      "qro": "How Not to Summon a Demon Lord Ω"
    },
    "modified_at": "2021-05-11T12:03:17.977Z",
    "name": "How Not to Summon a Demon Lord Ω",
    "repository": "kara.moe",
    "tid": "42d76740-ede0-4c34-8b41-f172eefbc8f7",
    "types": [
      "series",
      "1"
    ]
  }
}