{
  "header": {
    "description": "Karaoke Mugen Tag File",
    "version": 1
  },
  "tag": {
    "i18n": {
      "eng": "Hsin-i Chen"
    },
    "name": "Hsin-i Chen",
    "repository": "kara.moe",
    "tid": "b6c631b6-66d2-4504-8d5a-175d7b54504f",
    "types": [
      "songwriters",
      "8"
    ]
  }
}