{
  "header": {
    "description": "Karaoke Mugen Tag File",
    "version": 1
  },
  "tag": {
    "i18n": {
      "eng": "huke"
    },
    "name": "huke",
    "tid": "8b667b1f-6330-4579-8df3-72e485709bd2",
    "types": [
      "creators",
      "4"
    ],
    "repository": "kara.moe",
    "modified_at": "2020-03-31T19:04:34.894Z"
  }
}