{
  "header": {
    "description": "Karaoke Mugen Tag File",
    "version": 1
  },
  "tag": {
    "i18n": {
      "eng": "HUMMING BIRD"
    },
    "name": "HUMMING BIRD",
    "tid": "54587860-2f08-40d1-9bf2-4ac45420c665",
    "types": [
      "singers",
      "2"
    ],
    "repository": "kara.moe",
    "modified_at": "2020-03-31T19:04:34.895Z"
  }
}