{
  "header": {
    "description": "Karaoke Mugen Tag File",
    "version": 1
  },
  "tag": {
    "i18n": {
      "eng": "HuneX"
    },
    "name": "HuneX",
    "tid": "9521d142-a4e7-4cce-b101-7e7ed7e560bd",
    "types": [
      "creators",
      "4"
    ],
    "repository": "kara.moe",
    "modified_at": "2020-03-31T19:04:34.897Z"
  }
}