{
  "header": {
    "description": "Karaoke Mugen Tag File",
    "version": 1
  },
  "tag": {
    "aliases": [
      "Hunter x Hunter: Phantom Troupe Arc",
      "Hunter x Hunter: Yorknew City Arc",
      "Hunter x Hunter: Yorkshin City",
      "HunterxHunter (1999)",
      "HxH",
      "HxH TV",
      "HxHTV",
      "hunterxhunter",
      "hxh99",
      "Охотник х Охотник",
      "ハンター×ハンター"
    ],
    "external_database_ids": {
      "anilist": 136,
      "myanimelist": 136,
      "kitsu": 115
    },
    "i18n": {
      "ara": "القناص",
      "eng": "Hunter × Hunter (1999)",
      "fre": "Hunter × Hunter (1999)",
      "ita": "Hunter × Hunter (1999)",
      "jpn": "HUNTER×HUNTER (1999)",
      "por": "Hunter × Hunter (1999)",
      "tha": "ฮันเตอร์ x ฮันเตอร์",
      "qro": "Hunter x Hunter (1999)"
    },
    "modified_at": "2020-06-21T23:45:31.966Z",
    "name": "Hunter x Hunter (1999)",
    "repository": "kara.moe",
    "tid": "8b10418d-ba53-4496-9480-e684819e3c52",
    "types": [
      "series",
      "1"
    ]
  }
}