{
  "header": {
    "description": "Karaoke Mugen Tag File",
    "version": 1
  },
  "tag": {
    "i18n": {
      "eng": "HUSSY_R"
    },
    "name": "HUSSY_R",
    "tid": "647074ce-f4ed-4f0f-8e1b-35e8f146900d",
    "types": [
      "songwriters",
      "8"
    ],
    "repository": "kara.moe",
    "modified_at": "2020-03-31T19:04:34.898Z"
  }
}