{
  "header": {
    "description": "Karaoke Mugen Tag File",
    "version": 1
  },
  "tag": {
    "i18n": {
      "eng": "Huwie Ishizaki"
    },
    "modified_at": "2020-08-17T20:59:36.362Z",
    "name": "Huwie Ishizaki",
    "repository": "kara.moe",
    "tid": "e39db0cb-18e8-4387-9c2a-86d32d4e0ebf",
    "types": [
      "songwriters",
      "8",
      "singers",
      "2"
    ]
  }
}