{
  "header": {
    "description": "Karaoke Mugen Tag File",
    "version": 1
  },
  "tag": {
    "i18n": {
      "eng": "Hyaden"
    },
    "name": "Hyaden",
    "tid": "7ea82f67-54ae-46bd-9f91-930e2d67741e",
    "types": [
      "singers",
      "2"
    ],
    "repository": "kara.moe",
    "modified_at": "2020-03-31T19:04:34.900Z"
  }
}