{
  "header": {
    "description": "Karaoke Mugen Tag File",
    "version": 1
  },
  "tag": {
    "aliases": [
      "Хякко",
      "虎子",
      "햑코"
    ],
    "external_database_ids": {
      "anilist": 4550,
      "myanimelist": 4550,
      "kitsu": 3677
    },
    "i18n": {
      "eng": "Hyakko",
      "jpn": "ヒャッコ",
      "qro": "Hyakko"
    },
    "modified_at": "2020-03-31T19:04:31.741Z",
    "name": "Hyakko",
    "repository": "kara.moe",
    "tid": "0a619337-d188-4480-8e92-bed77dd3cd66",
    "types": [
      "series",
      "1"
    ]
  }
}