{
  "header": {
    "description": "Karaoke Mugen Tag File",
    "version": 1
  },
  "tag": {
    "aliases": [
      "Glacier Warrior Gaislugger",
      "Guyslagger",
      "Guyslugger",
      "Hyouga Senshi Gaislugger",
      "hyouga"
    ],
    "external_database_ids": {
      "anilist": 9781,
      "myanimelist": 9781,
      "kitsu": 5864
    },
    "i18n": {
      "eng": "Glacier Warrior Gaislugger",
      "jpn": "氷河戦士ガイスラッガー",
      "qro": "Hyôga Senshi Gaislugger"
    },
    "modified_at": "2020-03-31T19:04:31.745Z",
    "name": "Hyôga Senshi Gaislugger",
    "repository": "kara.moe",
    "tid": "7910021d-a233-4847-95dc-3109ef9e06d1",
    "types": [
      "series",
      "1"
    ]
  }
}