{
  "header": {
    "description": "Karaoke Mugen Tag File",
    "version": 1
  },
  "tag": {
    "aliases": [
      "hp",
      "hyperpolice",
      "Гиперполиция"
    ],
    "external_database_ids": {
      "anilist": 1180,
      "myanimelist": 1180,
      "kitsu": 1060
    },
    "i18n": {
      "eng": "Hyper Police",
      "jpn": "はいぱーぽりす",
      "qro": "Hyper Police"
    },
    "modified_at": "2020-03-31T19:04:31.747Z",
    "name": "Hyper Police",
    "repository": "kara.moe",
    "tid": "a203c877-1ac4-4d3e-b047-111932062fae",
    "types": [
      "series",
      "1"
    ]
  }
}