{
  "header": {
    "description": "Karaoke Mugen Tag File",
    "version": 1
  },
  "tag": {
    "aliases": [
      "催眠麥克風",
      "Гипнотический микрофон: Рэп-баттл дивизионов",
      "HypMic",
      "Hypnosismic"
    ],
    "external_database_ids": {
      "anilist": 113652,
      "kitsu": 42826,
      "myanimelist": 40803
    },
    "i18n": {
      "chi": "催眠麦克风",
      "jpn": "ヒプノシスマイク -Division Rap Battle- Rhyme Anima",
      "qro": "Hypnosismic: Division Rap Battle - Rhyme Anima",
      "rus": "Гипнотический микрофон: рэп-баттл дивизионов, Райм-Анима"
    },
    "name": "Hypnosis Mic: Division Rap Battle - Rhyme Anima",
    "repository": "kara.moe",
    "tid": "647e4e21-c000-4178-bb2c-569f534d3bbd",
    "types": [
      "series",
      "1"
    ]
  }
}