{
  "header": {
    "description": "Karaoke Mugen Tag File",
    "version": 1
  },
  "tag": {
    "i18n": {
      "eng": "Hysteric Blue"
    },
    "name": "Hysteric Blue",
    "tid": "6d12b96d-929e-4bee-83cc-a4ba4b9b0677",
    "types": [
      "singers",
      "2"
    ],
    "repository": "kara.moe",
    "modified_at": "2020-03-31T19:04:34.903Z"
  }
}