{
  "header": {
    "description": "Karaoke Mugen Tag File",
    "version": 1
  },
  "tag": {
    "i18n": {
      "eng": "I Cavalieri del Re"
    },
    "modified_at": "2021-09-18T21:54:10.236Z",
    "name": "I Cavalieri del Re",
    "repository": "kara.moe",
    "tid": "5ecaa80c-b618-4f81-8631-0ba77a6e5a23",
    "types": [
      "singers",
      "2",
      "songwriters",
      "8"
    ]
  }
}