{
  "header": {
    "description": "Karaoke Mugen Tag File",
    "version": 1
  },
  "tag": {
    "i18n": {
      "eng": "I Condors"
    },
    "name": "I Condors",
    "tid": "afa831ec-9bcb-4c8d-8fd6-a2d6edc6bd0e",
    "types": [
      "singers",
      "2"
    ],
    "repository": "kara.moe",
    "modified_at": "2020-03-31T19:04:34.906Z"
  }
}