{
  "header": {
    "description": "Karaoke Mugen Tag File",
    "version": 1
  },
  "tag": {
    "i18n": {
      "eng": "Ian Stanley"
    },
    "name": "Ian Stanley",
    "repository": "kara.moe",
    "tid": "8cff5970-1c19-4542-88d4-a28d1f79aa3b",
    "types": [
      "songwriters",
      "8"
    ]
  }
}