{
  "header": {
    "description": "Karaoke Mugen Tag File",
    "version": 1
  },
  "tag": {
    "i18n": {
      "eng": "icasumi"
    },
    "name": "icasumi",
    "repository": "kara.moe",
    "tid": "2b0cced5-67ed-41e9-b1fa-d63cddb676e8",
    "types": [
      "creators",
      "4"
    ]
  }
}