{
  "header": {
    "description": "Karaoke Mugen Tag File",
    "version": 1
  },
  "tag": {
    "i18n": {
      "afr": "Yslands",
      "amh": "አይስላንድኛ",
      "ara": "الآيسلندية",
      "aze": "Island",
      "bak": "Исланд теле",
      "bel": "Ісландская",
      "bul": "Исландски",
      "ben": "আইসল্যান্ডীয়",
      "bos": "Islandski",
      "cat": "Islandesa",
      "cze": "Islandské",
      "wel": "Islandeg",
      "dan": "Islandske",
      "ger": "Isländisch",
      "gre": "Ισλανδικά",
      "eng": "Icelandic",
      "epo": "Islanda",
      "spa": "Islandés",
      "est": "Islandi",
      "baq": "Islandiera",
      "per": "ایسلندی",
      "fin": "Islannin",
      "fre": "Islandais",
      "gle": "Íoslainnis",
      "gla": "Tìlis",
      "glg": "Islandés",
      "guj": "આઇસલેન્ડિક",
      "heb": "איסלנדית",
      "hin": "आईस्लैंडिक्",
      "hrv": "Islandski",
      "hat": "Icelandic",
      "hun": "Izlandi",
      "arm": "Իսլանդերեն",
      "ind": "Islandia",
      "ice": "Íslensk",
      "ita": "Islandese",
      "jpn": "アイスランド",
      "jav": "Islandia",
      "geo": "ისლანდიური",
      "kaz": "Исландиялық",
      "kan": "ಐಸ್ಲಾಂಡಿಕ್",
      "kor": "아이슬란드",
      "kir": "Исландский",
      "lat": "Estland",
      "lit": "Islandų",
      "lav": "Īslandiešu",
      "mlg": "Zavatra",
      "mao": "Icelandic",
      "mac": "Исланд",
      "mal": "ഐസ്ലാൻഡിക്",
      "mon": "Исландын",
      "mar": "आईसलँडिक",
      "may": "Iceland",
      "mlt": "Islanda",
      "nep": "आइसलैंडिक",
      "dut": "Ijslands",
      "nor": "Islandsk",
      "pan": "ਆਈਸਲੈਂਡੀ",
      "pol": "Islandzki",
      "por": "Islandês",
      "rum": "Islandeză",
      "rus": "Исландский",
      "sin": "අයිස්ලන්ත අරාබි",
      "slo": "Islandská",
      "slv": "Islandski",
      "alb": "Islandez",
      "srp": "Исландски",
      "sun": "Islandia",
      "swe": "Isländska",
      "swa": "Kiaislandi",
      "tam": "ஐஸ்லாந்து",
      "tel": "ఐస్లాండిక్",
      "tgk": "Исландский",
      "tha": "ภาษาไอซ์แลนด์ name",
      "tgl": "Icelandic",
      "tur": "İzlandaca",
      "tat": "Исланд теле",
      "ukr": "Ісландська",
      "urd": "آئس لینڈ کا باشندہ",
      "uzb": "Islandiya",
      "vie": "Iceland",
      "xho": "Icelandic",
      "yid": "איסלענדיש",
      "chi": "冰岛"
    },
    "name": "ice",
    "tid": "b87074c9-b455-422f-b34c-635663e39f65",
    "types": [
      "langs",
      "5"
    ],
    "repository": "kara.moe",
    "modified_at": "2020-03-31T19:04:34.911Z"
  }
}