{
  "header": {
    "description": "Karaoke Mugen Tag File",
    "version": 1
  },
  "tag": {
    "i18n": {
      "eng": "Ichiro Yamaguchi"
    },
    "modified_at": "2020-04-10T07:49:02.843Z",
    "name": "Ichiro Yamaguchi",
    "repository": "kara.moe",
    "tid": "7e7d1006-8cf1-454a-9744-fea47952f2c7",
    "types": [
      "songwriters",
      "8",
      "singers",
      "2"
    ]
  }
}