{
  "header": {
    "description": "Karaoke Mugen Tag File",
    "version": 1
  },
  "tag": {
    "aliases": [
      "Color Wars",
      "Daimao",
      "En Arka Sıradaki Şeytan Kral",
      "Ichiban Ushiro no Daimaou",
      "Князь темряви з останньої парти",
      "Князь тьмы с задней парты",
      "Най-силният демоничен крал",
      "最後大魔王",
      "daimaou"
    ],
    "external_database_ids": {
      "anilist": 7088,
      "myanimelist": 7088,
      "kitsu": 4863
    },
    "i18n": {
      "eng": "Demon King Daimao",
      "ger": "Demon King Daimao",
      "jpn": "いちばんうしろの大魔王",
      "qro": "Ichiban Ushiro no Daimaô"
    },
    "modified_at": "2020-06-21T23:45:31.966Z",
    "name": "Ichiban Ushiro no Daimaô",
    "repository": "kara.moe",
    "tid": "9e949053-4224-404b-8596-3b8e7f83fc76",
    "types": [
      "series",
      "1"
    ]
  }
}