{
  "header": {
    "description": "Karaoke Mugen Tag File",
    "version": 1
  },
  "tag": {
    "i18n": {
      "eng": "Ichika"
    },
    "name": "Ichika",
    "tid": "9fae8414-d235-4dd1-8e57-146a0942f7a7",
    "types": [
      "creators",
      "4"
    ],
    "repository": "kara.moe",
    "modified_at": "2020-03-31T19:04:34.915Z"
  }
}