{
  "header": {
    "description": "Karaoke Mugen Tag File",
    "version": 1
  },
  "tag": {
    "i18n": {
      "eng": "Ichiyô Higuchi"
    },
    "name": "Ichiyô Higuchi",
    "tid": "fa87fd44-319f-4405-b7d3-eb0445099d0c",
    "types": [
      "singers",
      "2"
    ],
    "repository": "kara.moe",
    "modified_at": "2020-03-31T19:04:34.928Z"
  }
}