{
  "header": {
    "description": "Karaoke Mugen Tag File",
    "version": 1
  },
  "tag": {
    "i18n": {
      "eng": "Ichirô Aoki"
    },
    "name": "Ichirô Aoki",
    "tid": "93cb995d-8658-4c58-acb0-4fe483c3b7d7",
    "types": [
      "songwriters",
      "8"
    ],
    "repository": "kara.moe",
    "modified_at": "2020-03-31T19:04:34.920Z"
  }
}