{
  "header": {
    "description": "Karaoke Mugen Tag File",
    "version": 1
  },
  "tag": {
    "i18n": {
      "eng": "Idol"
    },
    "name": "Idol",
    "repository": "kara.moe",
    "short": "IDOL",
    "tid": "caa86df2-0d59-474b-885c-f240a9e891b0",
    "types": [
      "genres",
      "12"
    ]
  }
}