{
  "header": {
    "description": "Karaoke Mugen Tag File",
    "version": 1
  },
  "tag": {
    "i18n": {
      "eng": "IDOLiSH7"
    },
    "name": "IDOLiSH7",
    "repository": "kara.moe",
    "tid": "c11f7d40-8d08-405e-8041-f56200c02f25",
    "types": [
      "franchises",
      "18"
    ]
  }
}