{
  "header": {
    "description": "Karaoke Mugen Tag File",
    "version": 1
  },
  "tag": {
    "i18n": {
      "eng": "Idoling!!!"
    },
    "name": "Idoling!!!",
    "tid": "32747640-4db8-4266-8114-b1760fbaf090",
    "types": [
      "singers",
      "2"
    ],
    "repository": "kara.moe",
    "modified_at": "2020-03-31T19:04:34.934Z"
  }
}