{
  "header": {
    "description": "Karaoke Mugen Tag File",
    "version": 1
  },
  "tag": {
    "i18n": {
      "eng": "Idumin"
    },
    "name": "Idumin",
    "tid": "4f46a843-78e2-4433-9d60-f87b2dc38034",
    "types": [
      "songwriters",
      "8"
    ],
    "repository": "kara.moe",
    "modified_at": "2020-03-31T19:04:34.935Z"
  }
}