{
  "header": {
    "description": "Karaoke Mugen Tag File",
    "version": 1
  },
  "tag": {
    "i18n": {
      "eng": "Iggy Pop"
    },
    "name": "Iggy Pop",
    "repository": "kara.moe",
    "tid": "76c3af82-73d3-4109-8ea3-fa461decaf2e",
    "types": [
      "songwriters",
      "8",
      "singers",
      "2"
    ]
  }
}