{
  "header": {
    "description": "Karaoke Mugen Tag File",
    "version": 1
  },
  "tag": {
    "i18n": {
      "eng": "IGN"
    },
    "name": "IGN",
    "tid": "8013867a-669e-4a9b-abf0-893cbaba92f2",
    "types": [
      "creators",
      "4"
    ],
    "repository": "kara.moe",
    "modified_at": "2020-03-31T19:04:34.937Z"
  }
}