{
  "header": {
    "description": "Karaoke Mugen Tag File",
    "version": 1
  },
  "tag": {
    "external_database_ids": {
      "anilist": 140596,
      "kitsu": 45355,
      "myanimelist": 50197
    },
    "i18n": {
      "eng": "Don't Toy with Me, Miss Nagatoro 2nd Attack",
      "qro": "Ijiranaide, Nagatoro-san 2nd Attack",
      "fre": "Arrête de me chauffer, Nagatoro Saison 2",
      "jpn": "イジらないで, 長瀞さん 2nd Attack",
      "chi": "不要欺负我，长瀞同学 第二季"
    },
    "name": "Ijiranaide, Nagatoro-san 2nd Attack",
    "repository": "kara.moe",
    "tid": "33cd4996-f2bd-402f-9a9c-d07d1f048e7c",
    "types": [
      "series",
      "1"
    ]
  }
}