{
  "header": {
    "description": "Karaoke Mugen Tag File",
    "version": 1
  },
  "tag": {
    "i18n": {
      "eng": "Ikanaide"
    },
    "name": "Ikanaide",
    "repository": "kara.moe",
    "tid": "579246ed-f600-42f3-b3ec-3b69fc35906d",
    "types": [
      "songwriters",
      "8"
    ]
  }
}