{
  "header": {
    "description": "Karaoke Mugen Tag File",
    "version": 1
  },
  "tag": {
    "i18n": {
      "eng": "Ikazuchi"
    },
    "name": "Ikazuchi",
    "repository": "kara.moe",
    "tid": "8a899f70-3125-40df-9ed8-c006865fb7c6",
    "types": [
      "creators",
      "4"
    ]
  }
}