{
  "header": {
    "description": "Karaoke Mugen Tag File",
    "version": 1
  },
  "tag": {
    "aliases": [
      "Ike! Ina-chuu Takkyuubu",
      "Вперед! Школьная секция пинг-понга, Пинг-понг клуб",
      "ina-chuu",
      "takkyuubu"
    ],
    "external_database_ids": {
      "anilist": 914,
      "myanimelist": 914,
      "kitsu": 814
    },
    "i18n": {
      "eng": "Ping Pong Club",
      "jpn": "行け! 稲中卓球部",
      "qro": "Ike! Ina-chû Takkyûbu"
    },
    "modified_at": "2020-04-26T15:18:29.722Z",
    "name": "Ike! Ina-chû Takkyûbu",
    "repository": "kara.moe",
    "tid": "7a058542-2ced-4ba2-b7b6-93090bf02abd",
    "types": [
      "series",
      "1"
    ]
  }
}