{
  "header": {
    "description": "Karaoke Mugen Tag File",
    "version": 1
  },
  "tag": {
    "i18n": {
      "eng": "Ikeda Mitsunori"
    },
    "name": "Ikeda Mitsunori",
    "repository": "kara.moe",
    "tid": "ac83e5f2-f1e5-4892-88e3-3e1b0c687356",
    "types": [
      "songwriters",
      "8",
      "singers",
      "2"
    ],
    "modified_at": "2020-03-31T19:04:34.940Z"
  }
}