{
  "header": {
    "description": "Karaoke Mugen Tag File",
    "version": 1
  },
  "tag": {
    "i18n": {
      "eng": "Ikepy"
    },
    "name": "Ikepy",
    "tid": "99d76f78-c7ba-4f2c-ae48-b15aef603004",
    "types": [
      "singers",
      "2"
    ],
    "repository": "kara.moe",
    "modified_at": "2020-03-31T19:04:34.941Z"
  }
}