{
  "header": {
    "description": "Karaoke Mugen Tag File",
    "version": 1
  },
  "tag": {
    "aliases": [
      "Cool Couple",
      "IF",
      "Клевая пара"
    ],
    "external_database_ids": {
      "anilist": 637,
      "myanimelist": 637,
      "kitsu": 591
    },
    "i18n": {
      "eng": "Cool Couple",
      "fre": "Iketeru Futari",
      "jpn": "イケてる2人",
      "qro": "Iketeru Futari"
    },
    "modified_at": "2020-03-31T19:04:31.761Z",
    "name": "Iketeru Futari",
    "repository": "kara.moe",
    "tid": "4af125f2-35d2-411e-b2ba-d6770fcd5df5",
    "types": [
      "series",
      "1"
    ]
  }
}