{
  "header": {
    "description": "Karaoke Mugen Tag File",
    "version": 1
  },
  "tag": {
    "aliases": [
      "IDD",
      "Ikkitousen 2",
      "Ikkitousen: Dragon Destiny",
      "ikki2",
      "一骑当千2",
      "ikkitousen"
    ],
    "external_database_ids": {
      "anilist": 1956,
      "myanimelist": 1956,
      "kitsu": 1762
    },
    "i18n": {
      "eng": "Ikki Tosen: Dragon Destiny",
      "fre": "Ikki Tôsen: Dragon Destiny",
      "ger": "Ikki Tousen: Dragon Destiny",
      "jpn": "一騎当千 Dragon Destiny",
      "kor": "일기당천 Dragon Destiny",
      "pol": "Ikki Tousen: Dragon Destiny",
      "qro": "Ikkitôsen: Dragon Destiny"
    },
    "modified_at": "2020-03-31T19:04:31.762Z",
    "name": "Ikkitôsen: Dragon Destiny",
    "repository": "kara.moe",
    "tid": "aa9f8e95-584e-4487-97c8-c0d8ce42666c",
    "types": [
      "series",
      "1"
    ]
  }
}