{
  "header": {
    "description": "Karaoke Mugen Tag File",
    "version": 1
  },
  "tag": {
    "aliases": [
      "La Croisée dans un Labyrinthe Étranger",
      "croisee"
    ],
    "external_database_ids": {
      "anilist": 9938,
      "myanimelist": 9938,
      "kitsu": 5950
    },
    "i18n": {
      "eng": "Croisée in a Foreign Labyrinth",
      "fre": "Ikoku Meiro No Croisée",
      "jpn": "異国迷路のクロワーゼ The Animation",
      "qro": "Ikoku Meiro No Croisée"
    },
    "modified_at": "2020-03-31T19:04:31.766Z",
    "name": "Ikoku Meiro No Croisée",
    "repository": "kara.moe",
    "tid": "5785857a-35cf-4ccb-b2ad-dd91b19d6ee3",
    "types": [
      "series",
      "1"
    ]
  }
}