{
  "header": {
    "description": "Karaoke Mugen Tag File",
    "version": 1
  },
  "tag": {
    "i18n": {
      "eng": "Ikoto Isaka"
    },
    "modified_at": "2021-01-29T01:02:28.657Z",
    "name": "Ikoto Isaka",
    "repository": "kara.moe",
    "tid": "e771eeb6-049c-401d-a028-dc4ef12058ca",
    "types": [
      "singers",
      "2"
    ]
  }
}