{
  "header": {
    "description": "Karaoke Mugen Tag File",
    "version": 1
  },
  "tag": {
    "i18n": {
      "eng": "Ikuo Shibutani"
    },
    "name": "Ikuo Shibutani",
    "tid": "f260c783-629f-41d4-9990-94c3e7370b37",
    "types": [
      "songwriters",
      "8"
    ],
    "repository": "kara.moe",
    "modified_at": "2020-03-31T19:04:34.949Z"
  }
}