{
  "header": {
    "description": "Karaoke Mugen Tag File",
    "version": 1
  },
  "tag": {
    "i18n": {
      "eng": "Ikuo"
    },
    "name": "Ikuo",
    "tid": "d0d1afec-8b07-4252-90a1-b02e346936ae",
    "types": [
      "songwriters",
      "8"
    ],
    "repository": "kara.moe",
    "modified_at": "2020-03-31T19:04:34.950Z"
  }
}