{
  "header": {
    "description": "Karaoke Mugen Tag File",
    "version": 1
  },
  "tag": {
    "i18n": {
      "eng": "Ikura"
    },
    "name": "Ikura",
    "repository": "kara.moe",
    "tid": "92d1e6ad-8f3c-4ace-a028-d78798510043",
    "types": [
      "singers",
      "2"
    ]
  }
}