{
  "header": {
    "description": "Karaoke Mugen Tag File",
    "version": 1
  },
  "tag": {
    "i18n": {
      "eng": "IkuY"
    },
    "name": "IkuY",
    "repository": "kara.moe",
    "tid": "da677ad5-b5dd-4ab9-a1fe-5461e36338a2",
    "types": [
      "authors",
      "6"
    ]
  }
}