{
  "header": {
    "description": "Karaoke Mugen Tag File",
    "version": 1
  },
  "tag": {
    "i18n": {
      "eng": "IKZO"
    },
    "name": "IKZO",
    "tid": "7c82abe4-7a44-485e-bfcf-59bb3d2ac8a4",
    "types": [
      "singers",
      "2"
    ],
    "repository": "kara.moe",
    "modified_at": "2020-03-31T19:04:34.951Z"
  }
}