{
  "header": {
    "description": "Karaoke Mugen Tag File",
    "version": 1
  },
  "tag": {
    "i18n": {
      "afr": "Interlingue",
      "amh": "Interlingue",
      "ara": "الإنترلينج",
      "aze": "Интерлингве",
      "bak": "Интерлингва",
      "bel": "Інтэрлінгве",
      "bul": "Интерлингве",
      "ben": "ইন্টারলিঙ্গ",
      "bos": "Bosanski",
      "cat": "Interlingue",
      "cze": "Interlingue",
      "wel": "Interlingue",
      "dan": "Interlingue",
      "ger": "Interlingue",
      "gre": "Ιντερλίνγκουε",
      "eng": "Interlingue",
      "epo": "Interlingue",
      "spa": "Interlingue",
      "est": "Interlingue",
      "baq": "Interlingue",
      "per": "اکسیدنتال",
      "fin": "Interlingue",
      "fre": "Interlingue",
      "gle": "Interlingue",
      "gla": "Italiano",
      "glg": "Interlingue",
      "guj": "ઇંટરલિંગ",
      "heb": "אינטרלינגואהname",
      "hin": "Interlingue",
      "hrv": "Интерлингве",
      "hat": "Interlingue",
      "hun": "Interlingue",
      "arm": "Interlingue",
      "ind": "Interlingue",
      "ice": "Enska",
      "ita": "Interlingue",
      "jpn": "Interlingue",
      "jav": "Interlingue",
      "geo": "ინტერლინგი",
      "kaz": "Интерлингве",
      "kan": "ಇಂಟರ್ಲಿಂಗ್",
      "kor": "인테르링구에",
      "kir": "Интерлингве",
      "lat": "Interlingue",
      "lit": "Interlingue",
      "lav": "Interlingue",
      "mlg": "Interlingue",
      "mao": "Interlingue",
      "mac": "Interlingue",
      "mal": "എല്ലാ ഭാഷയിലുംname",
      "mon": "Interlingue",
      "mar": "लाडिनो",
      "may": "Interlingue",
      "mlt": "Interlingue",
      "nep": "इन्टरलिङ्गुवाname",
      "dut": "Interlingue",
      "nor": "Interlingue",
      "pan": "Interlingue",
      "pol": "Interlingue",
      "por": "Interlingue",
      "rum": "Interlingue",
      "rus": "Интерлингве",
      "sin": "Interlingue",
      "slo": "Interlingue",
      "slv": "Interlingue",
      "alb": "Interlingue",
      "srp": "Интерлингве",
      "sun": "Igbo",
      "swe": "Interlingue",
      "swa": "Interlingue",
      "tam": "இன்டர்லிங்",
      "tel": "నౌరు",
      "tgk": "Интерлингве",
      "tha": "ภาษาอินเทอร์ลิงก์ name",
      "tgl": "Interlingue",
      "tur": "İnterlingue",
      "tat": "Интерлингве",
      "ukr": "Інтерлінгвою",
      "urd": "Interlingue",
      "uzb": "Interlingue",
      "vie": "Tiếng armenia",
      "xho": "Interlingue",
      "yid": "Interlingue",
      "chi": "国际文字（e）"
    },
    "name": "ile",
    "tid": "d94b0afd-62da-4ca4-a0b6-11edcc16a0b6",
    "types": [
      "langs",
      "5"
    ],
    "repository": "kara.moe",
    "modified_at": "2020-03-31T19:04:34.952Z"
  }
}