{
  "header": {
    "description": "Karaoke Mugen Tag File",
    "version": 1
  },
  "tag": {
    "i18n": {
      "eng": "Ileia"
    },
    "name": "Ileia",
    "tid": "8d04eb23-8ccc-451b-8083-51d8a2aac04f",
    "types": [
      "creators",
      "4"
    ],
    "repository": "kara.moe",
    "modified_at": "2020-03-31T19:04:34.953Z"
  }
}