{
  "header": {
    "description": "Karaoke Mugen Tag File",
    "version": 1
  },
  "tag": {
    "i18n": {
      "eng": "Illumination Entertainment"
    },
    "name": "Illumination Entertainment",
    "repository": "kara.moe",
    "tid": "3b53e00c-6b84-4d9b-891c-c21cd7c42c77",
    "types": [
      "creators",
      "4"
    ]
  }
}