{
  "header": {
    "description": "Karaoke Mugen Tag File",
    "version": 1
  },
  "tag": {
    "aliases": [
      "Acum si atunci aici si acolo",
      "Here and There",
      "ISIB",
      "Ima Sokoni Iru Boku",
      "NTHT",
      "NaTHaT",
      "imaboku",
      "isnib",
      "Здесь и сейчас тут и там",
      "Сейчас и потом здесь и там",
      "Тепер і там",
      "الآن وبعدئذ، هنا وهناك",
      "此时此刻的我"
    ],
    "external_database_ids": {
      "anilist": 160,
      "myanimelist": 160,
      "kitsu": 138
    },
    "i18n": {
      "bul": "Тук и сега",
      "eng": "Now and Then, Here and There",
      "fre": "L'Autre Monde",
      "ger": "Now and Then, Here and There",
      "jpn": "今, そこにいる僕",
      "tur": "Şimdi ve Sonra, Burada ve Orada",
      "qro": "Ima Soko ni Iru Boku"
    },
    "modified_at": "2020-03-31T19:04:31.768Z",
    "name": "Ima Soko ni Iru Boku",
    "repository": "kara.moe",
    "tid": "ec22d378-bb4b-4e16-a89d-44c1ecf940de",
    "types": [
      "series",
      "1"
    ]
  }
}