{
  "header": {
    "description": "Karaoke Mugen Tag File",
    "version": 1
  },
  "tag": {
    "i18n": {
      "eng": "Imagine Dragons"
    },
    "name": "Imagine Dragons",
    "tid": "28049ad2-e20c-466c-950c-537552c00858",
    "types": [
      "singers",
      "2",
      "songwriters",
      "8"
    ],
    "repository": "kara.moe",
    "modified_at": "2020-03-31T19:04:34.956Z"
  }
}