{
  "header": {
    "description": "Karaoke Mugen Tag File",
    "version": 1
  },
  "tag": {
    "i18n": {
      "eng": "Imagineer"
    },
    "modified_at": "2021-03-11T18:00:45.018Z",
    "name": "Imagineer",
    "repository": "kara.moe",
    "tid": "8a88278e-9736-4b63-ac33-42cd9c380cf1",
    "types": [
      "creators",
      "4"
    ]
  }
}