{
  "header": {
    "description": "Karaoke Mugen Tag File",
    "version": 1
  },
  "tag": {
    "i18n": {
      "eng": "Imagica Lab."
    },
    "name": "Imagica Lab.",
    "tid": "c637cea9-e0db-47f8-be2d-bfa0ea4b87b8",
    "types": [
      "creators",
      "4"
    ],
    "repository": "kara.moe",
    "modified_at": "2020-03-31T19:04:34.955Z"
  }
}