{
  "header": {
    "description": "Karaoke Mugen Tag File",
    "version": 1
  },
  "tag": {
    "i18n": {
      "eng": "Imageepoch"
    },
    "name": "Imageepoch",
    "tid": "f2135722-dc64-49da-9e67-8a2d6262ca98",
    "types": [
      "creators",
      "4"
    ],
    "repository": "kara.moe",
    "modified_at": "2020-03-31T19:04:34.954Z"
  }
}