{
  "header": {
    "description": "Karaoke Mugen Tag File",
    "version": 1
  },
  "tag": {
    "i18n": {
      "eng": "Imajo"
    },
    "name": "Imajo",
    "tid": "a42a6ead-3ac9-4b7c-923b-bba3957cb36a",
    "types": [
      "songwriters",
      "8"
    ],
    "repository": "kara.moe",
    "modified_at": "2020-03-31T19:04:34.956Z"
  }
}