{
  "header": {
    "description": "Karaoke Mugen Tag File",
    "version": 1
  },
  "tag": {
    "aliases": [
      "Imopara",
      "Imouto Paradise! Onii-chan to Go nin no Imouto no Ecchi Shimakuri na Mainichi",
      "imouto"
    ],
    "i18n": {
      "eng": "Imoto Paradise! Onii-chan to 5nin no Imoto no Ecchi Shimakuri na Mainichi",
      "fre": "Imôto Paradise! Onii-chan to 5nin no Imôto no Ecchi Shimakuri na Mainichi",
      "jpn": "妹ぱらだいす！～お兄ちゃんと5人の妹のエッチしまくりな毎日～",
      "qro": "Imôto Paradise! Onii-chan to 5nin no Imôto no Ecchi Shimakuri na Mainichi"
    },
    "modified_at": "2020-03-31T19:04:31.770Z",
    "name": "Imôto Paradise! Onii-chan to 5nin no Imôto no Ecchi Shimakuri na Mainichi",
    "repository": "kara.moe",
    "tid": "a66910ca-a50a-41b5-9d4a-642e32ccc361",
    "types": [
      "series",
      "1"
    ]
  }
}