{
  "header": {
    "description": "Karaoke Mugen Tag File",
    "version": 1
  },
  "tag": {
    "aliases": [
      "Inazuma 11 GO",
      "Inazuma Eleven GO!",
      "イナズマイレブン GO!",
      "イナズマイレブンGO"
    ],
    "external_database_ids": {
      "anilist": 10507,
      "myanimelist": 10507,
      "kitsu": 6213
    },
    "i18n": {
      "eng": "Inazuma Eleven GO!",
      "jpn": "イナズマイレブン GO",
      "por": "Inazuma Eleven GO!",
      "qro": "Inazuma Eleven Go"
    },
    "modified_at": "2020-03-31T19:04:31.773Z",
    "name": "Inazuma Eleven Go",
    "repository": "kara.moe",
    "tid": "552f85a2-d080-4c49-87d7-a149611d9156",
    "types": [
      "series",
      "1"
    ]
  }
}