{
  "header": {
    "description": "Karaoke Mugen Tag File",
    "version": 1
  },
  "tag": {
    "i18n": {
      "eng": "inewa"
    },
    "name": "inewa",
    "repository": "kara.moe",
    "tid": "30f42eba-737b-4472-b500-3b89bbc09967",
    "types": [
      "singers",
      "2"
    ]
  }
}