{
  "header": {
    "description": "Karaoke Mugen Tag File",
    "version": 1
  },
  "tag": {
    "external_database_ids": {
      "anilist": 16774,
      "myanimelist": 16774,
      "kitsu": 7511
    },
    "i18n": {
      "eng": "Inferno Cop",
      "jpn": "インフェルノコップ",
      "qro": "Inferno Cop"
    },
    "modified_at": "2020-03-31T19:04:31.777Z",
    "name": "Inferno Cop",
    "repository": "kara.moe",
    "tid": "590ac559-572d-4b3b-b878-4f8bcfc9b6ab",
    "types": [
      "series",
      "1"
    ]
  }
}