{
  "header": {
    "description": "Karaoke Mugen Tag File",
    "version": 1
  },
  "tag": {
    "i18n": {
      "eng": "Inio Asano"
    },
    "name": "Inio Asano",
    "tid": "f1e0cdf0-394b-4bd7-945e-5932ffb8c928",
    "types": [
      "songwriters",
      "8"
    ],
    "repository": "kara.moe",
    "modified_at": "2020-03-31T19:04:34.965Z"
  }
}