{
  "header": {
    "description": "Karaoke Mugen Tag File",
    "version": 1
  },
  "tag": {
    "i18n": {
      "eng": "INN"
    },
    "modified_at": "2021-03-07T12:02:59.165Z",
    "name": "INN",
    "repository": "kara.moe",
    "tid": "6baa3f63-eef4-4fff-854a-33835b38d8e5",
    "types": [
      "songwriters",
      "8"
    ]
  }
}