{
  "header": {
    "description": "Karaoke Mugen Tag File",
    "version": 1
  },
  "tag": {
    "i18n": {
      "eng": "INTERSECTION"
    },
    "name": "INTERSECTION",
    "tid": "c860b6fe-1d74-48f1-9086-9888c6f29a68",
    "types": [
      "singers",
      "2",
      "songwriters",
      "8"
    ],
    "repository": "kara.moe",
    "modified_at": "2020-03-31T19:04:34.972Z"
  }
}