{
  "header": {
    "description": "Karaoke Mugen Tag File",
    "version": 1
  },
  "tag": {
    "i18n": {
      "jpn": "Internet Explorer",
      "qro": "Internet Explorer"
    },
    "modified_at": "2020-04-26T00:13:17.976Z",
    "name": "Internet Explorer",
    "repository": "kara.moe",
    "tid": "71acdf86-6bef-4e04-8a1e-94eb09909f77",
    "types": [
      "series",
      "1"
    ]
  }
}