{
  "header": {
    "description": "Karaoke Mugen Tag File",
    "version": 1
  },
  "tag": {
    "i18n": {
      "eng": "Interscope Records"
    },
    "modified_at": "2020-07-03T22:43:29.912Z",
    "name": "Interscope Records",
    "repository": "kara.moe",
    "tid": "5ccd3d6d-03de-448a-9bb8-fadb30db6be1",
    "types": [
      "creators",
      "4"
    ]
  }
}