{
  "header": {
    "description": "Karaoke Mugen Tag File",
    "version": 1
  },
  "tag": {
    "i18n": {
      "eng": "Integral Clover (agehasprings)"
    },
    "name": "Integral Clover (agehasprings)",
    "tid": "53f3109c-e6cf-4085-bb69-d89dfe9446f4",
    "types": [
      "songwriters",
      "8"
    ],
    "repository": "kara.moe",
    "modified_at": "2020-03-31T19:04:34.969Z"
  }
}