{
  "header": {
    "description": "Karaoke Mugen Tag File",
    "version": 1
  },
  "tag": {
    "i18n": {
      "eng": "Iori Nomizu"
    },
    "name": "Iori Nomizu",
    "tid": "deb40ff7-71c6-453b-a1ac-3c092433bfef",
    "types": [
      "singers",
      "2"
    ],
    "repository": "kara.moe",
    "modified_at": "2020-03-31T19:04:34.975Z"
  }
}