{
  "header": {
    "description": "Karaoke Mugen Tag File",
    "version": 1
  },
  "tag": {
    "i18n": {
      "eng": "Iori Sakagami"
    },
    "modified_at": "2020-07-19T15:14:34.442Z",
    "name": "Iori Sakagami",
    "repository": "kara.moe",
    "tid": "d3f96c0d-68fc-47ec-8e6e-4bc021962fdf",
    "types": [
      "singers",
      "2"
    ]
  }
}