{
  "header": {
    "description": "Karaoke Mugen Tag File",
    "version": 1
  },
  "tag": {
    "i18n": {
      "eng": "IOSYS"
    },
    "name": "IOSYS",
    "repository": "kara.moe",
    "tid": "25fc251a-0514-4bf5-a818-dd0547723f4a",
    "types": [
      "creators",
      "4"
    ]
  }
}