{
  "header": {
    "description": "Karaoke Mugen Tag File",
    "version": 1
  },
  "tag": {
    "i18n": {
      "eng": "Ippo Hiura"
    },
    "name": "Ippo Hiura",
    "tid": "2418a042-a5d6-4dd9-ac23-aaa646c8102a",
    "types": [
      "singers",
      "2"
    ],
    "repository": "kara.moe",
    "modified_at": "2020-03-31T19:04:34.981Z"
  }
}