{
  "header": {
    "description": "Karaoke Mugen Tag File",
    "version": 1
  },
  "tag": {
    "i18n": {
      "eng": "Atelier Iris: Eternal Mana",
      "jpn": "イリスのアトリエ エターナルマナ",
      "qro": "Iris no Atelier: Eternal Mana"
    },
    "modified_at": "2020-11-15T20:47:56.132Z",
    "name": "Iris no Atelier: Eternal Mana",
    "repository": "kara.moe",
    "tid": "b48056ce-2e6d-4dbc-9932-0f7a1283d0bc",
    "types": [
      "series",
      "1"
    ]
  }
}