{
  "header": {
    "description": "Karaoke Mugen Tag File",
    "version": 1
  },
  "tag": {
    "i18n": {
      "eng": "irodori"
    },
    "name": "irodori",
    "tid": "d603782e-c4ea-4f02-bace-06ed259723cf",
    "types": [
      "creators",
      "4"
    ],
    "repository": "kara.moe",
    "modified_at": "2020-03-31T19:04:34.982Z"
  }
}