{
  "header": {
    "description": "Karaoke Mugen Tag File",
    "version": 1
  },
  "tag": {
    "i18n": {
      "eng": "iroha(sasaki)"
    },
    "modified_at": "2020-07-12T17:42:35.387Z",
    "name": "iroha(sasaki)",
    "repository": "kara.moe",
    "tid": "be7fd53f-b912-4026-b329-462f8bdd28f0",
    "types": [
      "songwriters",
      "8"
    ]
  }
}