{
  "header": {
    "description": "Karaoke Mugen Tag File",
    "version": 1
  },
  "tag": {
    "external_database_ids": {
      "anilist": 18247,
      "myanimelist": 18247,
      "kitsu": 7733
    },
    "i18n": {
      "eng": "IS: Infinite Stratos 2",
      "jpn": "IS<インフィニット・ストラトス> 2",
      "chi": "IS〈无限斯特拉托斯〉第二季",
      "kor": "IS: 인피니트 스트라토스 2",
      "qro": "IS: Infinite Stratos 2"
    },
    "modified_at": "2020-08-17T14:11:48.712Z",
    "name": "IS: Infinite Stratos 2",
    "repository": "kara.moe",
    "tid": "8ce3deb6-dc7c-41c5-9482-da110193e528",
    "types": [
      "series",
      "1"
    ]
  }
}