{
  "header": {
    "description": "Karaoke Mugen Tag File",
    "version": 1
  },
  "tag": {
    "aliases": [
      "IS",
      "IS: Безкрайни небеса",
      "IS: آسمان بی انتها",
      "Infinite Stratos IS",
      "Необъятные небеса"
    ],
    "external_database_ids": {
      "anilist": 9041,
      "myanimelist": 9041,
      "kitsu": 5583
    },
    "i18n": {
      "eng": "IS: Infinite Stratos",
      "jpn": "IS 〈インフィニット・ストラトス〉",
      "tha": "ปฏิบัติการรักจักรกลทะยานฟ้า",
      "qro": "IS: Infinite Stratos"
    },
    "modified_at": "2020-03-31T19:04:31.789Z",
    "name": "IS: Infinite Stratos",
    "repository": "kara.moe",
    "tid": "b903a05a-37e6-471b-85d3-2394ad503f65",
    "types": [
      "series",
      "1",
      "franchises",
      "18"
    ]
  }
}