{
  "header": {
    "description": "Karaoke Mugen Tag File",
    "version": 1
  },
  "tag": {
    "i18n": {
      "eng": "Isabelle Germain"
    },
    "name": "Isabelle Germain",
    "tid": "958234be-360d-4f53-838f-c8024a7bfaf5",
    "types": [
      "singers",
      "2"
    ],
    "repository": "kara.moe",
    "modified_at": "2020-03-31T19:04:34.984Z"
  }
}