{
  "header": {
    "description": "Karaoke Mugen Tag File",
    "version": 1
  },
  "tag": {
    "i18n": {
      "eng": "Isabeau Merle"
    },
    "modified_at": "2020-04-30T23:21:31.860Z",
    "name": "Isabeau Merle",
    "repository": "kara.moe",
    "tid": "bbd105b8-15c9-4d46-93c9-17fb58972770",
    "types": [
      "songwriters",
      "8"
    ]
  }
}