{
  "header": {
    "description": "Karaoke Mugen Tag File",
    "version": 1
  },
  "tag": {
    "i18n": {
      "eng": "Isabella Summers"
    },
    "name": "Isabella Summers",
    "repository": "kara.moe",
    "tid": "8e2f3cff-30d4-4b1e-ad18-070bf8bd1a12",
    "types": [
      "songwriters",
      "8"
    ]
  }
}