{
  "header": {
    "description": "Karaoke Mugen Tag File",
    "version": 1
  },
  "tag": {
    "i18n": {
      "eng": "Isabella Lovestory"
    },
    "name": "Isabella Lovestory",
    "repository": "kara.moe",
    "tid": "239be756-5709-47bb-b8e1-c445d4a3a35f",
    "types": [
      "songwriters",
      "8"
    ]
  }
}