{
  "header": {
    "description": "Karaoke Mugen Tag File",
    "version": 1
  },
  "tag": {
    "i18n": {
      "eng": "Isao Tomita"
    },
    "name": "Isao Tomita",
    "tid": "0f768a5a-fa9b-47e8-87b5-0e1b86ce63ae",
    "types": [
      "songwriters",
      "8"
    ],
    "repository": "kara.moe",
    "modified_at": "2020-03-31T19:04:34.989Z"
  }
}