{
  "header": {
    "description": "Karaoke Mugen Tag File",
    "version": 1
  },
  "tag": {
    "i18n": {
      "eng": "Isao Sasaki"
    },
    "name": "Isao Sasaki",
    "tid": "00805b84-10d0-43b3-9e91-34698e85201e",
    "types": [
      "singers",
      "2"
    ],
    "repository": "kara.moe",
    "modified_at": "2020-03-31T19:04:34.987Z"
  }
}