{
  "header": {
    "description": "Karaoke Mugen Tag File",
    "version": 1
  },
  "tag": {
    "i18n": {
      "eng": "Isao Bitô"
    },
    "name": "Isao Bitô",
    "tid": "b0312ae3-3843-4aed-8c17-30d37a425e7e",
    "types": [
      "singers",
      "2"
    ],
    "repository": "kara.moe",
    "modified_at": "2020-03-31T19:04:34.986Z"
  }
}