{
  "header": {
    "description": "Karaoke Mugen Tag File",
    "version": 1
  },
  "tag": {
    "i18n": {
      "eng": "isaxkii"
    },
    "name": "isaxkii",
    "repository": "kara.moe",
    "tid": "05771b3e-b8e0-477a-9713-85c5b7e0215c",
    "types": [
      "creators",
      "4"
    ]
  }
}