{
  "header": {
    "description": "Karaoke Mugen Tag File",
    "version": 1
  },
  "tag": {
    "i18n": {
      "eng": "Ise Daiki"
    },
    "name": "Ise Daiki",
    "tid": "9420b9df-addc-4b9d-b12e-f231c30b3598",
    "types": [
      "singers",
      "2"
    ],
    "repository": "kara.moe",
    "modified_at": "2020-03-31T19:04:34.990Z"
  }
}