{
  "header": {
    "description": "Karaoke Mugen Tag File",
    "version": 1
  },
  "tag": {
    "aliases": [
      "Isekai Meikyuu de Harem o",
      "A Harem in the Fantasy World Dungeon",
      "Slave Harem in the Labyrinth of the Other World"
    ],
    "external_database_ids": {
      "anilist": 127090,
      "kitsu": 43911
    },
    "i18n": {
      "eng": "Isekai Meikyû de Harem wo",
      "qro": "Harem in the Labyrinth of Another World",
      "jpn": "異世界迷宮でハーレムを",
      "chi": "异世界迷宫里的后宫生活"
    },
    "name": "Isekai Meikyû de Harem wo",
    "repository": "kara.moe",
    "tid": "c7093a5f-78c7-474f-8c5d-b15a17a84b02",
    "types": [
      "series",
      "1"
    ]
  }
}