{
  "header": {
    "description": "Karaoke Mugen Tag File",
    "version": 1
  },
  "tag": {
    "i18n": {
      "eng": "Ishio Yasutaka"
    },
    "name": "Ishio Yasutaka",
    "repository": "kara.moe",
    "tid": "af780346-6e8d-4c9f-8261-dbe7ed519309",
    "types": [
      "songwriters",
      "8"
    ]
  }
}