{
  "header": {
    "description": "Karaoke Mugen Tag File",
    "version": 1
  },
  "tag": {
    "i18n": {
      "eng": "Ishigata"
    },
    "name": "Ishigata",
    "tid": "aac01d0b-ec4d-468d-8425-a0e95602399b",
    "types": [
      "singers",
      "2"
    ],
    "repository": "kara.moe",
    "modified_at": "2020-03-31T19:04:34.992Z"
  }
}