{
  "header": {
    "description": "Karaoke Mugen Tag File",
    "version": 1
  },
  "tag": {
    "i18n": {
      "eng": "iSHi"
    },
    "name": "iSHi",
    "repository": "kara.moe",
    "tid": "41bdc9a3-5e0b-45ff-860d-04abf2c39b12",
    "types": [
      "songwriters",
      "8"
    ]
  }
}