{
  "header": {
    "description": "Karaoke Mugen Tag File",
    "version": 1
  },
  "tag": {
    "i18n": {
      "eng": "ISSA"
    },
    "name": "ISSA",
    "tid": "c214d7d5-4458-4509-bf74-00754f5f66d5",
    "types": [
      "singers",
      "2"
    ],
    "repository": "kara.moe",
    "modified_at": "2020-03-31T19:04:34.994Z"
  }
}