{
  "header": {
    "description": "Karaoke Mugen Tag File",
    "version": 1
  },
  "tag": {
    "i18n": {
      "eng": "Issey Eguchi"
    },
    "modified_at": "2021-03-09T20:52:05.949Z",
    "name": "Issey Eguchi",
    "repository": "kara.moe",
    "tid": "7e5fdf1f-7278-49d0-866c-e9aa3b8729c0",
    "types": [
      "singers",
      "2"
    ]
  }
}