{
  "header": {
    "description": "Karaoke Mugen Tag File",
    "version": 1
  },
  "tag": {
    "i18n": {
      "eng": "Issia Lorrain"
    },
    "name": "Issia Lorrain",
    "tid": "b3018baa-e6d5-4416-a109-048a5b9ce5fc",
    "types": [
      "singers",
      "2"
    ],
    "repository": "kara.moe",
    "modified_at": "2020-03-31T19:04:34.998Z"
  }
}