{
  "header": {
    "description": "Karaoke Mugen Tag File",
    "version": 1
  },
  "tag": {
    "aliases": [
      "Itai no wa Iya nano de Bougyoryoku ni Kyokufuri Shitai to Omoimasu.",
      "bougyoryoku"
    ],
    "external_database_ids": {
      "anilist": 106479,
      "myanimelist": 38790,
      "kitsu": 42043
    },
    "i18n": {
      "ara": "لا أريد أن أتأذى، لذلك سأصقل دفاعي",
      "chi": "因为太怕痛就全点防御力了",
      "eng": "BOFURI: I Don't Want to Get Hurt, so I'll Max Out My Defense.",
      "fre": "BOFURI : Je suis pas venue ici pour souffrir alors j'ai tout mis en défense.",
      "jpn": "痛いのは嫌なので防御力に極振りしたいと思います.",
      "kor": "아픈 건 싫으니까 방어력에 올인하려고 합니다.",
      "qro": "Itai no wa Iya nano de Bôgyoryoku ni Kyokufuri Shitai to Omoimasu."
    },
    "modified_at": "2020-06-21T23:45:31.966Z",
    "name": "Itai no wa Iya nano de Bôgyoryoku ni Kyokufuri Shitai to Omoimasu.",
    "repository": "kara.moe",
    "tid": "f72d2039-b98a-42e5-8624-22f438dbb717",
    "types": [
      "series",
      "1"
    ]
  }
}