{
  "header": {
    "description": "Karaoke Mugen Tag File",
    "version": 1
  },
  "tag": {
    "i18n": {
      "eng": "Itowokashi"
    },
    "name": "Itowokashi",
    "tid": "65008da4-240f-460a-b035-ddefb1995459",
    "types": [
      "singers",
      "2",
      "songwriters",
      "8"
    ],
    "repository": "kara.moe",
    "modified_at": "2020-03-31T19:04:35.000Z"
  }
}