{
  "header": {
    "description": "Karaoke Mugen Tag File",
    "version": 1
  },
  "tag": {
    "i18n": {
      "eng": "Ittomaru"
    },
    "name": "Ittomaru",
    "tid": "12111ebf-6481-4c2c-8963-069a2d596468",
    "types": [
      "creators",
      "4"
    ],
    "repository": "kara.moe",
    "modified_at": "2020-03-31T19:04:35.001Z"
  }
}