{
  "header": {
    "description": "Karaoke Mugen Tag File",
    "version": 1
  },
  "tag": {
    "i18n": {
      "eng": "IVE"
    },
    "name": "IVE",
    "repository": "kara.moe",
    "tid": "779ad044-8778-43eb-9e83-bb6bfad5bba9",
    "types": [
      "singergroups",
      "17"
    ]
  }
}