{
  "header": {
    "description": "Karaoke Mugen Tag File",
    "version": 1
  },
  "tag": {
    "description": {
      "jpn": "いゔどっと"
    },
    "i18n": {
      "eng": "ivudot"
    },
    "name": "ivudot",
    "repository": "kara.moe",
    "tid": "4e9532ca-9d42-4ad6-b07c-72674311ba3b",
    "types": [
      "singers",
      "2"
    ]
  }
}