{
  "header": {
    "description": "Karaoke Mugen Tag File",
    "version": 1
  },
  "tag": {
    "i18n": {
      "eng": "Iwa K"
    },
    "name": "Iwa K",
    "repository": "kara.moe",
    "tid": "01c567d7-0585-42cc-ad73-ea7655e20fe1",
    "types": [
      "songwriters",
      "8"
    ]
  }
}