{
  "header": {
    "description": "Karaoke Mugen Tag File",
    "version": 1
  },
  "tag": {
    "aliases": [
      "Hang On! Climbing Girls"
    ],
    "description": {
      "jpn": ""
    },
    "external_database_ids": {
      "anilist": 117757,
      "myanimelist": 41783,
      "kitsu": 43535
    },
    "i18n": {
      "jpn": "いわかける！ -Sport Climbing Girls- ",
      "qro": "Iwa Kakeru!: Sport Climbing Girls"
    },
    "name": "Iwa Kakeru!: Sport Climbing Girls",
    "repository": "kara.moe",
    "tid": "ace77fb3-5757-4da8-a018-e3a1a78be1b0",
    "types": [
      "series",
      "1"
    ]
  }
}