{
  "header": {
    "description": "Karaoke Mugen Tag File",
    "version": 1
  },
  "tag": {
    "i18n": {
      "eng": "Izumi Sakai"
    },
    "name": "Izumi Sakai",
    "tid": "5af07e7b-09ae-4ffa-a290-43fbc28c7a68",
    "types": [
      "songwriters",
      "8"
    ],
    "repository": "kara.moe",
    "modified_at": "2020-03-31T19:04:35.007Z"
  }
}