{
  "header": {
    "description": "Karaoke Mugen Tag File",
    "version": 1
  },
  "tag": {
    "i18n": {
      "eng": "Izumi Soratani"
    },
    "name": "Izumi Soratani",
    "tid": "766f32cd-092f-4e03-bae1-c204cca0d267",
    "types": [
      "songwriters",
      "8"
    ],
    "repository": "kara.moe",
    "modified_at": "2020-03-31T19:04:35.008Z"
  }
}