{
  "header": {
    "description": "Karaoke Mugen Tag File",
    "version": 1
  },
  "tag": {
    "i18n": {
      "eng": "Izumi Igarashi"
    },
    "name": "Izumi Igarashi",
    "tid": "0a25b0c4-b86e-49a9-b4df-ddc75fcfdbaa",
    "types": [
      "singers",
      "2"
    ],
    "repository": "kara.moe",
    "modified_at": "2020-03-31T19:04:35.005Z"
  }
}