{
  "header": {
    "description": "Karaoke Mugen Tag File",
    "version": 1
  },
  "tag": {
    "i18n": {
      "eng": "Izumo Itô"
    },
    "modified_at": "2021-06-14T20:21:31.401Z",
    "name": "Izumo Itô",
    "repository": "kara.moe",
    "tid": "3683aefa-0d56-4b1c-b63f-8f8dad0be645",
    "types": [
      "songwriters",
      "8"
    ]
  }
}