{
  "header": {
    "description": "Karaoke Mugen Tag File",
    "version": 1
  },
  "tag": {
    "i18n": {
      "eng": "J R Price"
    },
    "name": "J R Price",
    "tid": "b9669e8f-2600-4643-ad68-1c088b1c5ff7",
    "types": [
      "singers",
      "2"
    ],
    "repository": "kara.moe",
    "modified_at": "2020-03-31T19:04:35.009Z"
  }
}