{
  "header": {
    "description": "Karaoke Mugen Tag File",
    "version": 1
  },
  "tag": {
    "i18n": {
      "eng": "J&Star Company"
    },
    "name": "J&Star Company",
    "repository": "kara.moe",
    "tid": "612cf8d2-1b49-4036-bf55-d280fd8687b1",
    "types": [
      "creators",
      "4"
    ]
  }
}