{
  "header": {
    "description": "Karaoke Mugen Tag File",
    "version": 1
  },
  "tag": {
    "i18n": {
      "eng": "J. Tsujino"
    },
    "name": "J. Tsujino",
    "tid": "0e6ac828-db53-4537-bcc1-bbec98d573bd",
    "types": [
      "songwriters",
      "8"
    ],
    "repository": "kara.moe",
    "modified_at": "2020-03-31T19:04:35.011Z"
  }
}