{
  "header": {
    "description": "Karaoke Mugen Tag File",
    "version": 1
  },
  "tag": {
    "aliases": [
      "JAKQ Dengekitai",
      "The Jackers"
    ],
    "i18n": {
      "eng": "J.A.K.Q. Dengekitai",
      "jpn": "ジャッカー電撃隊",
      "qro": "J.A.K.Q. Dengekitai"
    },
    "modified_at": "2020-03-31T19:04:31.803Z",
    "name": "J.A.K.Q. Dengekitai",
    "repository": "kara.moe",
    "tid": "b6aacac5-5fcf-4870-956f-e3f2b0dc2612",
    "types": [
      "series",
      "1"
    ]
  }
}