{
  "header": {
    "description": "Karaoke Mugen Tag File",
    "version": 1
  },
  "tag": {
    "i18n": {
      "eng": "JA-JA"
    },
    "name": "JA-JA",
    "tid": "1be58e18-c5f4-4b92-b2c6-2dd1a5a018bd",
    "types": [
      "singers",
      "2"
    ],
    "repository": "kara.moe",
    "modified_at": "2020-03-31T19:04:35.016Z"
  }
}