{
  "header": {
    "description": "Karaoke Mugen Tag File",
    "version": 1
  },
  "tag": {
    "i18n": {
      "eng": "Jack Jeanne"
    },
    "name": "Jack Jeanne",
    "repository": "kara.moe",
    "tid": "d59ddcb9-5433-491a-babd-79dc22e7ef8d",
    "types": [
      "series",
      "1"
    ]
  }
}