{
  "header": {
    "description": "Karaoke Mugen Tag File",
    "version": 1
  },
  "tag": {
    "i18n": {
      "eng": "Jackman Harlow"
    },
    "name": "Jackman Harlow",
    "repository": "kara.moe",
    "tid": "1b19f305-4b56-4d0e-b5c8-7f29b965b8a4",
    "types": [
      "songwriters",
      "8"
    ]
  }
}