{
  "header": {
    "description": "Karaoke Mugen Tag File",
    "version": 1
  },
  "tag": {
    "i18n": {
      "eng": "Jack Daniel"
    },
    "name": "Jack Daniel",
    "tid": "fe280303-3a94-4832-9663-00a6872ac5ec",
    "types": [
      "songwriters",
      "8"
    ],
    "repository": "kara.moe",
    "modified_at": "2020-03-31T19:04:35.017Z"
  }
}