{
  "header": {
    "description": "Karaoke Mugen Tag File",
    "version": 1
  },
  "tag": {
    "i18n": {
      "eng": "Jacques Plante"
    },
    "name": "Jacques Plante",
    "repository": "kara.moe",
    "tid": "2fb632ec-fdbf-4500-8e92-78996312d601",
    "types": [
      "songwriters",
      "8"
    ]
  }
}