{
  "header": {
    "description": "Karaoke Mugen Tag File",
    "version": 1
  },
  "tag": {
    "i18n": {
      "eng": "Jade Animation"
    },
    "modified_at": "2020-10-10T22:07:42.014Z",
    "name": "Jade Animation",
    "repository": "kara.moe",
    "tid": "1e0d180c-5ab1-47f1-a42d-9a5ace71eabb",
    "types": [
      "creators",
      "4"
    ]
  }
}