{
  "header": {
    "description": "Karaoke Mugen Tag File",
    "version": 1
  },
  "tag": {
    "external_database_ids": {
      "anilist": 132456,
      "myanimelist": 48753,
      "kitsu": 44392
    },
    "i18n": {
      "eng": "The Great Jahy Will Not Be Defeated!",
      "jpn": "ジャヒー様はくじけない！",
      "qro": "Jahy-sama wa Kujikenai!"
    },
    "modified_at": "2021-09-05T12:37:42.396Z",
    "name": "Jahy-sama wa Kujikenai!",
    "repository": "kara.moe",
    "tid": "86dcabd9-7a62-4eae-98ef-e9e1d0640ed4",
    "types": [
      "series",
      "1"
    ]
  }
}