{
  "header": {
    "description": "Karaoke Mugen Tag File",
    "version": 1
  },
  "tag": {
    "i18n": {
      "eng": "Jaiden Animations"
    },
    "name": "Jaiden Animations",
    "repository": "kara.moe",
    "tid": "50676ae8-86c1-442c-98a2-656521415ee8",
    "types": [
      "creators",
      "4"
    ]
  }
}