{
  "header": {
    "description": "Karaoke Mugen Tag File",
    "version": 1
  },
  "tag": {
    "i18n": {
      "eng": "Jake Torrey"
    },
    "name": "Jake Torrey",
    "repository": "kara.moe",
    "tid": "583f7685-767e-4655-9f6d-015ae75a42f5",
    "types": [
      "songwriters",
      "8"
    ]
  }
}