{
  "header": {
    "description": "Karaoke Mugen Tag File",
    "version": 1
  },
  "tag": {
    "i18n": {
      "eng": "James Monroe Iglehart"
    },
    "name": "James Monroe Iglehart",
    "repository": "kara.moe",
    "tid": "48326cd4-5fd2-47c9-8937-3b6f8925115a",
    "types": [
      "singers",
      "2"
    ]
  }
}