{
  "header": {
    "description": "Karaoke Mugen Tag File",
    "version": 1
  },
  "tag": {
    "i18n": {
      "eng": "James Hetfield"
    },
    "name": "James Hetfield",
    "repository": "kara.moe",
    "tid": "f2ab9a36-6bca-45e5-b3b1-1b385175a8ed",
    "types": [
      "songwriters",
      "8"
    ]
  }
}