{
  "header": {
    "description": "Karaoke Mugen Tag File",
    "version": 1
  },
  "tag": {
    "i18n": {
      "eng": "James \"D Train\" Williams"
    },
    "name": "James \"D Train\" Williams",
    "tid": "0c657a0b-227d-47e9-9d19-1f04933cd904",
    "types": [
      "singers",
      "2"
    ],
    "repository": "kara.moe",
    "modified_at": "2020-03-31T19:04:35.028Z"
  }
}