{
  "header": {
    "description": "Karaoke Mugen Tag File",
    "version": 1
  },
  "tag": {
    "i18n": {
      "eng": "James Miki"
    },
    "name": "James Miki",
    "tid": "4b6bc5e5-6739-4087-b0b6-c2743f4c8def",
    "types": [
      "songwriters",
      "8"
    ],
    "repository": "kara.moe",
    "modified_at": "2020-03-31T19:04:35.029Z"
  }
}