{
  "header": {
    "description": "Karaoke Mugen Tag File",
    "version": 1
  },
  "tag": {
    "i18n": {
      "eng": "James Pierpont"
    },
    "modified_at": "2020-10-30T00:11:51.504Z",
    "name": "James Pierpont",
    "repository": "kara.moe",
    "tid": "e00d59c4-ffe3-4835-818a-17a56965739a",
    "types": [
      "songwriters",
      "8"
    ]
  }
}