{
  "header": {
    "description": "Karaoke Mugen Tag File",
    "version": 1
  },
  "tag": {
    "i18n": {
      "eng": "James Horner"
    },
    "name": "James Horner",
    "repository": "kara.moe",
    "tid": "df9d1874-07f7-4909-a3ad-521ad152bb08",
    "types": [
      "songwriters",
      "8"
    ]
  }
}