{
  "header": {
    "description": "Karaoke Mugen Tag File",
    "version": 1
  },
  "tag": {
    "i18n": {
      "eng": "James Euringer"
    },
    "name": "James Euringer",
    "repository": "kara.moe",
    "tid": "ab58c323-7332-4cbf-94bf-fdb13c927bf6",
    "types": [
      "songwriters",
      "8"
    ]
  }
}