{
  "header": {
    "description": "Karaoke Mugen Tag File",
    "version": 1
  },
  "tag": {
    "i18n": {
      "eng": "Jamiroquai"
    },
    "name": "Jamiroquai",
    "repository": "kara.moe",
    "tid": "6b988157-8b53-4147-a69b-5d5c077dfba4",
    "types": [
      "singergroups",
      "17"
    ]
  }
}