{
  "header": {
    "description": "Karaoke Mugen Tag File",
    "version": 1
  },
  "tag": {
    "i18n": {
      "eng": "Janelle Monáe"
    },
    "name": "Janelle Monáe",
    "repository": "kara.moe",
    "tid": "4aba18e8-ae42-4cb6-902f-967a5c2ca863",
    "types": [
      "songwriters",
      "8"
    ]
  }
}