{
  "header": {
    "description": "Karaoke Mugen Tag File",
    "version": 1
  },
  "tag": {
    "i18n": {
      "eng": "Jang Geun-Seok"
    },
    "name": "Jang Geun-Seok",
    "tid": "75cafb9b-1018-40c9-999c-781c21c62655",
    "types": [
      "singers",
      "2"
    ],
    "repository": "kara.moe",
    "modified_at": "2020-03-31T19:04:35.032Z"
  }
}