{
  "header": {
    "description": "Karaoke Mugen Tag File",
    "version": 1
  },
  "tag": {
    "i18n": {
      "eng": "Jared Leto"
    },
    "name": "Jared Leto",
    "repository": "kara.moe",
    "tid": "004eda2e-90cf-49da-a3d0-5f48a06c6e5f",
    "types": [
      "songwriters",
      "8"
    ]
  }
}