{
  "header": {
    "description": "Karaoke Mugen Tag File",
    "version": 1
  },
  "tag": {
    "i18n": {
      "eng": "JARO"
    },
    "name": "JARO",
    "repository": "kara.moe",
    "tid": "7f3cc3c2-c658-43aa-863c-a370a1d80f36",
    "types": [
      "songwriters",
      "8"
    ]
  }
}