{
  "header": {
    "description": "Karaoke Mugen Tag File",
    "version": 1
  },
  "tag": {
    "i18n": {
      "eng": "Jasmine Rodgers"
    },
    "name": "Jasmine Rodgers",
    "tid": "abc55d74-5572-4c87-b359-afb429a9367b",
    "types": [
      "songwriters",
      "8"
    ],
    "repository": "kara.moe",
    "modified_at": "2020-03-31T19:04:35.037Z"
  }
}