{
  "header": {
    "description": "Karaoke Mugen Tag File",
    "version": 1
  },
  "tag": {
    "i18n": {
      "eng": "Jason Weaver"
    },
    "name": "Jason Weaver",
    "repository": "kara.moe",
    "tid": "f39ef8c6-4f8f-45b1-a5d2-06a528a57817",
    "types": [
      "singers",
      "2"
    ]
  }
}