{
  "header": {
    "description": "Karaoke Mugen Tag File",
    "version": 1
  },
  "tag": {
    "i18n": {
      "eng": "Javier Yupanki"
    },
    "name": "Javier Yupanki",
    "repository": "kara.moe",
    "tid": "6e34a500-a829-4457-932f-bb1e6f2397c5",
    "types": [
      "songwriters",
      "8"
    ]
  }
}