{
  "header": {
    "description": "Karaoke Mugen Tag File",
    "version": 1
  },
  "tag": {
    "i18n": {
      "eng": "Jay Kay"
    },
    "name": "Jay Kay",
    "repository": "kara.moe",
    "tid": "5de6cfd6-ca47-44b3-a60b-25df5a517389",
    "types": [
      "singers",
      "2"
    ]
  }
}