{
  "header": {
    "description": "Karaoke Mugen Tag File",
    "version": 1
  },
  "tag": {
    "i18n": {
      "eng": "JazzsVids"
    },
    "name": "JazzsVids",
    "tid": "346096e4-1b7d-40a4-9cbd-b69e899563b5",
    "types": [
      "creators",
      "4"
    ],
    "repository": "kara.moe",
    "modified_at": "2020-03-31T19:04:35.043Z"
  }
}