{
  "header": {
    "description": "Karaoke Mugen Tag File",
    "version": 1
  },
  "tag": {
    "i18n": {
      "eng": "Jean-Baptiste Clement"
    },
    "name": "Jean-Baptiste Clement",
    "tid": "ad3ca1b7-b917-4cfa-b25b-898756aeacb4",
    "types": [
      "songwriters",
      "8"
    ],
    "repository": "kara.moe",
    "modified_at": "2020-03-31T19:04:35.049Z"
  }
}