{
  "header": {
    "description": "Karaoke Mugen Tag File",
    "version": 1
  },
  "tag": {
    "i18n": {
      "eng": "Jean-Claude Corbel"
    },
    "name": "Jean-Claude Corbel",
    "tid": "c62918de-0d8c-4b1d-a6b7-6b96d1b1f127",
    "types": [
      "singers",
      "2"
    ],
    "repository": "kara.moe",
    "modified_at": "2020-03-31T19:04:35.050Z"
  }
}