{
  "header": {
    "description": "Karaoke Mugen Tag File",
    "version": 1
  },
  "tag": {
    "i18n": {
      "eng": "Jean-Jacques Burnel"
    },
    "name": "Jean-Jacques Burnel",
    "tid": "49fad881-7060-4c2b-b97e-157ead27a9c5",
    "types": [
      "singers",
      "2",
      "songwriters",
      "8"
    ],
    "repository": "kara.moe",
    "modified_at": "2020-03-31T19:04:35.053Z"
  }
}