{
  "header": {
    "description": "Karaoke Mugen Tag File",
    "version": 1
  },
  "tag": {
    "i18n": {
      "eng": "Jean-Pierre Mader"
    },
    "name": "Jean-Pierre Mader",
    "repository": "kara.moe",
    "tid": "facafab2-e698-4eaa-ac2c-4c1906d0a449",
    "types": [
      "singers",
      "2",
      "songwriters",
      "8"
    ]
  }
}