{
  "header": {
    "description": "Karaoke Mugen Tag File",
    "version": 1
  },
  "tag": {
    "i18n": {
      "eng": "Jean-Paul Césari"
    },
    "name": "Jean-Paul Césari",
    "tid": "bf781545-8d23-40b3-ad46-40800e472853",
    "types": [
      "singers",
      "2"
    ],
    "repository": "kara.moe",
    "modified_at": "2020-03-31T19:04:35.057Z"
  }
}