{
  "header": {
    "description": "Karaoke Mugen Tag File",
    "version": 1
  },
  "tag": {
    "i18n": {
      "eng": "Jean Humenry"
    },
    "name": "Jean Humenry",
    "tid": "e8b9df2f-6cdd-4c03-af77-0a1034af7d7a",
    "types": [
      "songwriters",
      "8"
    ],
    "repository": "kara.moe",
    "modified_at": "2020-03-31T19:04:35.046Z"
  }
}