{
  "header": {
    "description": "Karaoke Mugen Tag File",
    "version": 1
  },
  "tag": {
    "i18n": {
      "eng": "Jean-Pierre Janiaud"
    },
    "name": "Jean-Pierre Janiaud",
    "repository": "kara.moe",
    "tid": "e0d3bf0a-520f-400b-ae55-6f8bdaf49783",
    "types": [
      "songwriters",
      "8"
    ]
  }
}