{
  "header": {
    "description": "Karaoke Mugen Tag File",
    "version": 1
  },
  "tag": {
    "i18n": {
      "eng": "Jean Dujardin"
    },
    "name": "Jean Dujardin",
    "repository": "kara.moe",
    "tid": "9c5b8bb4-1260-4391-bf4d-803cafa72de1",
    "types": [
      "creators",
      "4",
      "singers",
      "2"
    ]
  }
}