{
  "header": {
    "description": "Karaoke Mugen Tag File",
    "version": 1
  },
  "tag": {
    "i18n": {
      "eng": "Jean-Pierre Calvet"
    },
    "name": "Jean-Pierre Calvet",
    "tid": "82a02b5d-eae2-4f88-8aa3-070bb78b9715",
    "types": [
      "songwriters",
      "8"
    ],
    "repository": "kara.moe",
    "modified_at": "2020-03-31T19:04:35.060Z"
  }
}