{
  "header": {
    "description": "Karaoke Mugen Tag File",
    "version": 1
  },
  "tag": {
    "i18n": {
      "eng": "Jean-Jacques Goldman"
    },
    "modified_at": "2021-05-16T16:20:10.035Z",
    "name": "Jean-Jacques Goldman",
    "repository": "kara.moe",
    "tid": "1ff5e11c-787d-4618-9878-5e6b4fdef247",
    "types": [
      "songwriters",
      "8",
      "singers",
      "2"
    ]
  }
}