{
  "header": {
    "description": "Karaoke Mugen Tag File",
    "version": 1
  },
  "tag": {
    "i18n": {
      "eng": "Jean-Ken Johnny"
    },
    "name": "Jean-Ken Johnny",
    "repository": "kara.moe",
    "tid": "6cb0e364-b9d2-4fa9-8dfb-98b095c7ac47",
    "types": [
      "songwriters",
      "8",
      "singers",
      "2"
    ],
    "modified_at": "2020-03-31T19:04:35.054Z"
  }
}