{
  "header": {
    "description": "Karaoke Mugen Tag File",
    "version": 1
  },
  "tag": {
    "i18n": {
      "eng": "Jean-Charles Finck"
    },
    "name": "Jean-Charles Finck",
    "repository": "kara.moe",
    "tid": "76378195-901b-44b0-b4a9-7fa14bf78305",
    "types": [
      "creators",
      "4"
    ]
  }
}