{
  "header": {
    "description": "Karaoke Mugen Tag File",
    "version": 1
  },
  "tag": {
    "i18n": {
      "eng": "Jeanne Chartier"
    },
    "name": "Jeanne Chartier",
    "tid": "597b9e3e-6684-4a13-944c-aa9e1fdd5f1a",
    "types": [
      "singers",
      "2"
    ],
    "repository": "kara.moe",
    "modified_at": "2020-03-31T19:04:35.062Z"
  }
}