{
  "header": {
    "description": "Karaoke Mugen Tag File",
    "version": 1
  },
  "tag": {
    "i18n": {
      "eng": "Jean-Pierre Boutayre"
    },
    "name": "Jean-Pierre Boutayre",
    "tid": "2270ac37-7788-401a-8c46-eeaa66717cd6",
    "types": [
      "songwriters",
      "8"
    ],
    "repository": "kara.moe",
    "modified_at": "2020-03-31T19:04:35.059Z"
  }
}