{
  "header": {
    "description": "Karaoke Mugen Tag File",
    "version": 1
  },
  "tag": {
    "i18n": {
      "eng": "Jean-Sébastien Bach"
    },
    "name": "Jean-Sébastien Bach",
    "tid": "9ecc5a5d-9347-48f2-bafb-b807605cef37",
    "types": [
      "songwriters",
      "8"
    ],
    "repository": "kara.moe",
    "modified_at": "2020-03-31T19:04:35.062Z"
  }
}