{
  "header": {
    "description": "Karaoke Mugen Tag File",
    "version": 1
  },
  "tag": {
    "i18n": {
      "eng": "Jeff Pescetto"
    },
    "name": "Jeff Pescetto",
    "tid": "f75f31de-761d-4870-830c-0a1294878aa0",
    "types": [
      "singers",
      "2"
    ],
    "repository": "kara.moe",
    "modified_at": "2020-03-31T19:04:35.065Z"
  }
}