{
  "header": {
    "description": "Karaoke Mugen Tag File",
    "version": 1
  },
  "tag": {
    "i18n": {
      "eng": "Jeff Bass"
    },
    "name": "Jeff Bass",
    "repository": "kara.moe",
    "tid": "868b84f1-808f-4be5-b2b1-d243d79a89f4",
    "types": [
      "songwriters",
      "8"
    ]
  }
}