{
  "header": {
    "description": "Karaoke Mugen Tag File",
    "version": 1
  },
  "tag": {
    "i18n": {
      "eng": "Jenna Andrews"
    },
    "name": "Jenna Andrews",
    "repository": "kara.moe",
    "tid": "645f3b63-12a4-450f-a6d5-2686fe502ed4",
    "types": [
      "songwriters",
      "8"
    ]
  }
}