{
  "header": {
    "description": "Karaoke Mugen Tag File",
    "version": 1
  },
  "tag": {
    "i18n": {
      "eng": "Jenny Rom"
    },
    "name": "Jenny Rom",
    "tid": "96a0b710-8a8c-4bef-ae45-d3adaceb6cda",
    "types": [
      "singers",
      "2"
    ],
    "repository": "kara.moe",
    "modified_at": "2020-03-31T19:04:35.068Z"
  }
}