{
  "header": {
    "description": "Karaoke Mugen Tag File",
    "version": 1
  },
  "tag": {
    "i18n": {
      "eng": "Jenny Meitzer"
    },
    "name": "Jenny Meitzer",
    "tid": "3aaf9667-1d2f-42d8-ad7c-726a1f5b7fc2",
    "types": [
      "singers",
      "2"
    ],
    "repository": "kara.moe",
    "modified_at": "2020-03-31T19:04:35.068Z"
  }
}