{
  "header": {
    "description": "Karaoke Mugen Tag File",
    "version": 1
  },
  "tag": {
    "aliases": [
      "Soyeon"
    ],
    "i18n": {
      "kor": "전소연",
      "qro": "Jeon So-yeon"
    },
    "name": "Jeon So-yeon",
    "repository": "kara.moe",
    "tid": "b66a51fb-3061-4123-a2c9-a0e097664adc",
    "types": [
      "songwriters",
      "8",
      "singers",
      "2"
    ]
  }
}