{
  "header": {
    "description": "Karaoke Mugen Tag File",
    "version": 1
  },
  "tag": {
    "i18n": {
      "eng": "Jérémie Covillault"
    },
    "name": "Jérémie Covillault",
    "repository": "kara.moe",
    "tid": "7b4d5342-fe4c-42b4-96be-ae8f38a7bcfc",
    "types": [
      "singers",
      "2"
    ]
  }
}