{
  "header": {
    "description": "Karaoke Mugen Tag File",
    "version": 1
  },
  "tag": {
    "i18n": {
      "eng": "Jeremy David Skaller"
    },
    "name": "Jeremy David Skaller",
    "repository": "kara.moe",
    "tid": "1d4b3402-a0d5-440d-a189-9b18d569e3cf",
    "types": [
      "songwriters",
      "8"
    ]
  }
}