{
  "header": {
    "description": "Karaoke Mugen Tag File",
    "version": 1
  },
  "tag": {
    "aliases": [
      "The8BitDrummer"
    ],
    "i18n": {
      "eng": "Jerod Collins"
    },
    "modified_at": "2021-01-09T21:46:51.990Z",
    "name": "Jerod Collins",
    "repository": "kara.moe",
    "tid": "2c9bdf5b-04d6-4178-82c8-0718150c616e",
    "types": [
      "singers",
      "2",
      "songwriters",
      "8",
      "creators",
      "4"
    ]
  }
}