{
  "header": {
    "description": "Karaoke Mugen Tag File",
    "version": 1
  },
  "tag": {
    "i18n": {
      "eng": "Jerry Livingston"
    },
    "name": "Jerry Livingston",
    "tid": "10568b23-6cd8-4d5f-be8c-024176be5887",
    "types": [
      "songwriters",
      "8"
    ],
    "repository": "kara.moe",
    "modified_at": "2020-03-31T19:04:35.074Z"
  }
}