{
  "header": {
    "description": "Karaoke Mugen Tag File",
    "version": 1
  },
  "tag": {
    "i18n": {
      "eng": "Jesse McFaddin"
    },
    "name": "Jesse McFaddin",
    "repository": "kara.moe",
    "tid": "2086e27e-dcd3-4206-b63a-a518248fef64",
    "types": [
      "singers",
      "2",
      "songwriters",
      "8"
    ]
  }
}