{
  "header": {
    "description": "Karaoke Mugen Tag File",
    "version": 1
  },
  "tag": {
    "i18n": {
      "eng": "Jessica Boone"
    },
    "modified_at": "2020-09-22T13:50:28.396Z",
    "name": "Jessica Boone",
    "repository": "kara.moe",
    "tid": "74df8923-413c-40b4-ba25-a327ccbf05c5",
    "types": [
      "singers",
      "2"
    ]
  }
}