{
  "header": {
    "description": "Karaoke Mugen Tag File",
    "version": 1
  },
  "tag": {
    "i18n": {
      "eng": "Jesse Shatkin"
    },
    "modified_at": "2020-07-11T20:46:18.982Z",
    "name": "Jesse Shatkin",
    "repository": "kara.moe",
    "tid": "ca2d9a0e-072a-46ea-b596-66e4b4b2ef55",
    "types": [
      "songwriters",
      "8"
    ]
  }
}