{
  "header": {
    "description": "Karaoke Mugen Tag File",
    "version": 1
  },
  "tag": {
    "i18n": {
      "eng": "Jessica Darrow"
    },
    "name": "Jessica Darrow",
    "repository": "kara.moe",
    "tid": "2ba27e2e-0e8b-4694-a13e-269174b89bb5",
    "types": [
      "singers",
      "2"
    ]
  }
}