{
  "header": {
    "description": "Karaoke Mugen Tag File",
    "version": 1
  },
  "tag": {
    "i18n": {
      "eng": "Jess Glynne"
    },
    "name": "Jess Glynne",
    "repository": "kara.moe",
    "tid": "c9b66525-aa64-40f6-88ba-b42641ad1571",
    "types": [
      "singers",
      "2"
    ]
  }
}