{
  "header": {
    "description": "Karaoke Mugen Tag File",
    "version": 1
  },
  "tag": {
    "i18n": {
      "eng": "Jiang Yi Li"
    },
    "name": "Jiang Yi Li",
    "tid": "0253601b-7a84-450f-a4c5-40634e2899e1",
    "types": [
      "songwriters",
      "8"
    ],
    "repository": "kara.moe",
    "modified_at": "2020-03-31T19:04:35.080Z"
  }
}