{
  "header": {
    "description": "Karaoke Mugen Tag File",
    "version": 1
  },
  "tag": {
    "i18n": {
      "eng": "Jibaku Shounen Band"
    },
    "name": "Jibaku Shounen Band",
    "repository": "kara.moe",
    "tid": "e1e4633e-ccc1-465b-b624-0df0fcb95ad7",
    "types": [
      "singers",
      "2"
    ]
  }
}