{
  "header": {
    "description": "Karaoke Mugen Tag File",
    "version": 1
  },
  "tag": {
    "external_database_ids": {
      "anilist": 2330,
      "myanimelist": 2330,
      "kitsu": 2110
    },
    "i18n": {
      "eng": "Bucky: The Incredible Kid",
      "jpn": "ジバクくん TWELVE WORLD STORY",
      "por": "Bucky",
      "qro": "Jibaku-kun: Twelve World Story"
    },
    "modified_at": "2020-03-31T19:04:31.807Z",
    "name": "Jibaku-kun: Twelve World Story",
    "repository": "kara.moe",
    "tid": "59650d5b-eec1-455a-a183-987d03d52a66",
    "types": [
      "series",
      "1"
    ]
  }
}