{
  "header": {
    "description": "Karaoke Mugen Tag File",
    "version": 1
  },
  "tag": {
    "aliases": [
      "Cehennem Kızı",
      "Fata Iadului",
      "Garota do Inferno",
      "Jigoku Shoujo",
      "La chica infernal",
      "Menina do Inferno",
      "Piekielna dziewczyna",
      "hg1",
      "js",
      "Адская девочка",
      "Момичето от ада",
      "Пекельна дівчина",
      "فتاة الجحيم",
      "地狱少女",
      "shoujo"
    ],
    "external_database_ids": {
      "anilist": 228,
      "myanimelist": 228,
      "kitsu": 203
    },
    "i18n": {
      "chi": "地獄少女",
      "cze": "Dívka z Pekla",
      "eng": "Hell Girl",
      "fre": "La fille des enfers",
      "hun": "Pokoli Lány",
      "jpn": "地獄少女",
      "por": "Hell Girl",
      "rum": "Jigoku Shoujo",
      "tha": "สัญญามรณะ ธิดาอเวจี",
      "qro": "Jigoku Shôjo"
    },
    "modified_at": "2020-03-31T19:04:31.810Z",
    "name": "Jigoku Shôjo",
    "repository": "kara.moe",
    "tid": "f3f44273-49a2-45d1-a4f1-71e5b5fdef72",
    "types": [
      "series",
      "1",
      "franchises",
      "18"
    ]
  }
}