{
  "header": {
    "description": "Karaoke Mugen Tag File",
    "version": 1
  },
  "tag": {
    "aliases": [
      "Cehennem Kızı: İkinci Kafes",
      "Hell Girl 2",
      "Hell Girl Futakomori",
      "Hell Girl Second Cage",
      "Hell Girl- The Two Prisoners",
      "JSF",
      "Jigoku Shoujo -Futagomori-",
      "Jigoku Shoujo 2",
      "Jigoku Shoujo Futakomori",
      "La fille des enfers - Saison 2",
      "hg2",
      "js2",
      "Адовая Девочка дубль 2",
      "Пекельна дівчинка - двоє полонених",
      "فتاة الجحيم : مرآتان",
      "地狱少女 二笼",
      "shoujo"
    ],
    "external_database_ids": {
      "anilist": 1594,
      "myanimelist": 1594,
      "kitsu": 1434
    },
    "i18n": {
      "chi": "地獄少女 二籠",
      "cze": "Dívka z Pekla 2",
      "eng": "Hell Girl: Two Mirrors",
      "fre": "La fille des enfers (saison 2)",
      "jpn": "地獄少女二籠",
      "pol": "Piekielna Dziewczyna 2",
      "qro": "Jigoku Shôjo Futakomori"
    },
    "modified_at": "2020-03-31T19:04:31.809Z",
    "name": "Jigoku Shôjo Futakomori",
    "repository": "kara.moe",
    "tid": "1789e641-12c7-4d34-bd1b-28a381ff1782",
    "types": [
      "series",
      "1"
    ]
  }
}