{
  "header": {
    "description": "Karaoke Mugen Tag File",
    "version": 1
  },
  "tag": {
    "aliases": [
      "Jikuu Senshi Spielban",
      "jikuu"
    ],
    "i18n": {
      "eng": "Jiku Senshi Spielban",
      "fre": "Spielvan",
      "jpn": "時空戦士スピルバン",
      "qro": "Jikû Senshi Spielban"
    },
    "modified_at": "2020-03-31T19:04:31.811Z",
    "name": "Jikû Senshi Spielban",
    "repository": "kara.moe",
    "tid": "0c54b40b-9add-4a22-bbb4-3aeafd77fea2",
    "types": [
      "series",
      "1"
    ]
  }
}