{
  "header": {
    "description": "Karaoke Mugen Tag File",
    "version": 1
  },
  "tag": {
    "i18n": {
      "eng": "Jim Roach"
    },
    "modified_at": "2020-11-30T22:14:20.137Z",
    "name": "Jim Roach",
    "repository": "kara.moe",
    "tid": "3e61d16b-937b-45c9-aecf-6e79f3f98d52",
    "types": [
      "songwriters",
      "8"
    ]
  }
}