{
  "header": {
    "description": "Karaoke Mugen Tag File",
    "version": 1
  },
  "tag": {
    "aliases": [
      "Jimin"
    ],
    "i18n": {
      "eng": "Ji Min Park",
      "qro": "Park Ji Min",
      "kor": "박지민"
    },
    "name": "Jimin",
    "repository": "kara.moe",
    "tid": "817671df-895f-46fe-9d5a-e16267c379b4",
    "types": [
      "singers",
      "2"
    ]
  }
}