{
  "header": {
    "description": "Karaoke Mugen Tag File",
    "version": 1
  },
  "tag": {
    "i18n": {
      "eng": "JimmyThumbP"
    },
    "name": "JimmyThumbP",
    "tid": "12cfcb23-ca7d-49c7-983c-7a6ca5a666ac",
    "types": [
      "songwriters",
      "8"
    ],
    "repository": "kara.moe",
    "modified_at": "2020-03-31T19:04:35.085Z"
  }
}