{
  "header": {
    "description": "Karaoke Mugen Tag File",
    "version": 1
  },
  "tag": {
    "i18n": {
      "eng": "Jimmy Jam"
    },
    "modified_at": "2021-11-20T16:57:25.620Z",
    "name": "Jimmy Jam",
    "repository": "kara.moe",
    "tid": "48e6f583-b4a4-40a4-a322-7df849bf1577",
    "types": [
      "songwriters",
      "8"
    ]
  }
}