{
  "header": {
    "description": "Karaoke Mugen Tag File",
    "version": 1
  },
  "tag": {
    "i18n": {
      "eng": "Jimmy Thornfelt"
    },
    "modified_at": "2020-08-18T10:14:52.744Z",
    "name": "Jimmy Thornfelt",
    "repository": "kara.moe",
    "tid": "adc6db40-288a-4452-a56a-2bf81065ac9f",
    "types": [
      "songwriters",
      "8",
      "creators",
      "4"
    ]
  }
}