{
  "header": {
    "description": "Karaoke Mugen Tag File",
    "version": 1
  },
  "tag": {
    "i18n": {
      "eng": "Jin Productions"
    },
    "name": "Jin Productions",
    "tid": "1c583c1e-2454-48a3-8ae7-dfd68ce10707",
    "types": [
      "creators",
      "4"
    ],
    "repository": "kara.moe",
    "modified_at": "2020-03-31T19:04:35.089Z"
  }
}