{
  "header": {
    "description": "Karaoke Mugen Tag File",
    "version": 1
  },
  "tag": {
    "i18n": {
      "eng": "Jin"
    },
    "name": "Jin",
    "tid": "e47047f1-9428-41db-9eb2-a32ba03c5ac1",
    "types": [
      "songwriters",
      "8",
      "singers",
      "2"
    ],
    "repository": "kara.moe",
    "modified_at": "2020-03-31T19:04:35.090Z"
  }
}