{
  "header": {
    "description": "Karaoke Mugen Tag File",
    "version": 1
  },
  "tag": {
    "i18n": {
      "eng": "JINDOU"
    },
    "name": "JINDOU",
    "tid": "3a198e39-f82c-4a3c-94ea-fe9d5b50f95b",
    "types": [
      "singers",
      "2"
    ],
    "repository": "kara.moe",
    "modified_at": "2020-03-31T19:04:35.090Z"
  }
}