{
  "header": {
    "description": "Karaoke Mugen Tag File",
    "version": 1
  },
  "tag": {
    "aliases": [
      "J:E",
      "Jinki",
      "Jinki Extend",
      "Jinki_Extend",
      "je",
      "jinki extend"
    ],
    "external_database_ids": {
      "anilist": 141,
      "myanimelist": 141,
      "kitsu": 7781
    },
    "i18n": {
      "eng": "Jinki: Extend",
      "jpn": "ジンキ・エクステンド",
      "rus": "Боевые роботы Дзинки",
      "qro": "Jinki:Extend"
    },
    "modified_at": "2020-03-31T19:04:31.815Z",
    "name": "Jinki:Extend",
    "repository": "kara.moe",
    "tid": "56996c87-50df-4650-ae2b-34c941b11cb4",
    "types": [
      "series",
      "1"
    ]
  }
}