{
  "header": {
    "description": "Karaoke Mugen Tag File",
    "version": 1
  },
  "tag": {
    "aliases": [
      "El declive de la humanidad",
      "Jintai",
      "L'humanité a déclinée",
      "Mankind Has Fallen",
      "Човечеството запада",
      "人退"
    ],
    "external_database_ids": {
      "anilist": 10357,
      "myanimelist": 10357,
      "kitsu": 6146
    },
    "i18n": {
      "chi": "人类衰退之后",
      "eng": "Humanity Has Declined",
      "fre": "Jinrui wa Suitai Shimashita",
      "jpn": "人類は衰退しました",
      "qro": "Jinrui wa Suitai Shimashita"
    },
    "modified_at": "2020-03-31T19:04:31.815Z",
    "name": "Jinrui wa Suitai Shimashita",
    "repository": "kara.moe",
    "tid": "6ab5a4d2-ec8b-4557-8b48-5fbb85735b0d",
    "types": [
      "series",
      "1"
    ]
  }
}