{
  "header": {
    "description": "Karaoke Mugen Tag File",
    "version": 1
  },
  "tag": {
    "i18n": {
      "eng": "Jirard Khalil"
    },
    "name": "Jirard Khalil",
    "tid": "d95a2c48-b98a-49c1-afa9-e22bf4c986b7",
    "types": [
      "singers",
      "2"
    ],
    "repository": "kara.moe",
    "modified_at": "2020-03-31T19:04:35.095Z"
  }
}