{
  "header": {
    "description": "Karaoke Mugen Tag File",
    "version": 1
  },
  "tag": {
    "i18n": {
      "eng": "Jirô Tsunoda"
    },
    "name": "Jirô Tsunoda",
    "tid": "3ee9c3b0-49e4-4348-890f-4b16c627217e",
    "types": [
      "songwriters",
      "8"
    ],
    "repository": "kara.moe",
    "modified_at": "2020-03-31T19:04:35.098Z"
  }
}