{
  "header": {
    "description": "Karaoke Mugen Tag File",
    "version": 1
  },
  "tag": {
    "i18n": {
      "eng": "JK"
    },
    "name": "JK",
    "repository": "kara.moe",
    "tid": "b1bf0c1f-8352-4fd6-ab9d-537fa88cc19f",
    "types": [
      "singers",
      "2"
    ]
  }
}