{
  "header": {
    "description": "Karaoke Mugen Tag File",
    "version": 1
  },
  "tag": {
    "i18n": {
      "eng": "¡JKA!"
    },
    "name": "¡JKA!",
    "repository": "kara.moe",
    "tid": "c621a8d7-4f75-4453-aebb-941ea0c2be90",
    "types": [
      "authors",
      "6"
    ]
  }
}