{
  "header": {
    "description": "Karaoke Mugen Tag File",
    "version": 1
  },
  "tag": {
    "i18n": {
      "eng": "jmfb"
    },
    "modified_at": "2021-11-13T12:57:59.435Z",
    "name": "jmfb",
    "repository": "kara.moe",
    "tid": "b6721ec8-5f6a-46f8-aaba-ce56b822723b",
    "types": [
      "authors",
      "6"
    ]
  }
}