{
  "header": {
    "description": "Karaoke Mugen Tag File",
    "version": 1
  },
  "tag": {
    "i18n": {
      "eng": "Jo Hill"
    },
    "name": "Jo Hill",
    "repository": "kara.moe",
    "tid": "7a33c32e-6e0f-4a1e-8130-75ad03a58546",
    "types": [
      "songwriters",
      "8"
    ]
  }
}