{
  "header": {
    "description": "Karaoke Mugen Tag File",
    "version": 1
  },
  "tag": {
    "i18n": {
      "eng": "Joan Baez"
    },
    "name": "Joan Baez",
    "tid": "c555fecf-f705-4818-bb5c-60f4c6958f8e",
    "types": [
      "songwriters",
      "8",
      "singers",
      "2"
    ],
    "repository": "kara.moe",
    "modified_at": "2020-03-31T19:04:35.101Z"
  }
}