{
  "header": {
    "description": "Karaoke Mugen Tag File",
    "version": 1
  },
  "tag": {
    "i18n": {
      "eng": "Joanna Koike"
    },
    "name": "Joanna Koike",
    "tid": "01c31e45-dac1-4f50-aebe-dc51516a4d70",
    "types": [
      "singers",
      "2",
      "songwriters",
      "8"
    ],
    "repository": "kara.moe",
    "modified_at": "2020-03-31T19:04:35.101Z"
  }
}