{
  "header": {
    "description": "Karaoke Mugen Tag File",
    "version": 1
  },
  "tag": {
    "i18n": {
      "eng": "JOE ALCOHOL"
    },
    "name": "JOE ALCOHOL",
    "tid": "1520aa2f-6a41-4b94-970f-7aca489c4c74",
    "types": [
      "songwriters",
      "8"
    ],
    "repository": "kara.moe",
    "modified_at": "2020-03-31T19:04:35.103Z"
  }
}