{
  "header": {
    "description": "Karaoke Mugen Tag File",
    "version": 1
  },
  "tag": {
    "i18n": {
      "eng": "Joe Mischo"
    },
    "name": "Joe Mischo",
    "repository": "kara.moe",
    "tid": "ec889781-75e1-42ae-b307-24a78929e930",
    "types": [
      "creators",
      "4"
    ]
  }
}