{
  "header": {
    "description": "Karaoke Mugen Tag File",
    "version": 1
  },
  "tag": {
    "i18n": {
      "eng": "JOE"
    },
    "modified_at": "2020-10-20T16:24:33.401Z",
    "name": "JOE",
    "repository": "kara.moe",
    "tid": "853009ea-2245-4a2d-a114-bb4317aa2887",
    "types": [
      "songwriters",
      "8"
    ]
  }
}