{
  "header": {
    "description": "Karaoke Mugen Tag File",
    "version": 1
  },
  "tag": {
    "i18n": {
      "eng": "Joël Prévost"
    },
    "name": "Joël Prévost",
    "repository": "kara.moe",
    "tid": "356d1dc3-9425-41ad-892d-83ba5376c4e6",
    "types": [
      "singers",
      "2"
    ]
  }
}