{
  "header": {
    "description": "Karaoke Mugen Tag File",
    "version": 1
  },
  "tag": {
    "i18n": {
      "eng": "Joelle"
    },
    "name": "Joelle",
    "repository": "kara.moe",
    "tid": "45bcff88-e813-47ba-aee9-d23bf9053a70",
    "types": [
      "songwriters",
      "8"
    ]
  }
}