{
  "header": {
    "description": "Karaoke Mugen Tag File",
    "version": 1
  },
  "tag": {
    "i18n": {
      "eng": "Johan"
    },
    "name": "Johan",
    "repository": "kara.moe",
    "tid": "c9ca24e4-eaff-41e3-bd31-ae8e26ec573a",
    "types": [
      "songwriters",
      "8"
    ]
  }
}