{
  "header": {
    "description": "Karaoke Mugen Tag File",
    "version": 1
  },
  "tag": {
    "i18n": {
      "eng": "John Denver"
    },
    "name": "John Denver",
    "repository": "kara.moe",
    "tid": "5421e2ba-274e-4345-820d-33599e9cd468",
    "types": [
      "songwriters",
      "8",
      "singers",
      "2"
    ]
  }
}