{
  "header": {
    "description": "Karaoke Mugen Tag File",
    "version": 1
  },
  "tag": {
    "i18n": {
      "eng": "Johnny R"
    },
    "name": "Johnny R",
    "repository": "kara.moe",
    "tid": "65cd44f8-752c-49f7-a842-918071f6a951",
    "types": [
      "songwriters",
      "8"
    ]
  }
}