{
  "header": {
    "description": "Karaoke Mugen Tag File",
    "version": 1
  },
  "tag": {
    "i18n": {
      "eng": "Johnny & Associates"
    },
    "name": "Johnny & Associates",
    "repository": "kara.moe",
    "tid": "069b482a-3ce3-41ab-991b-536055b5a8ca",
    "types": [
      "creators",
      "4"
    ]
  }
}