{
  "header": {
    "description": "Karaoke Mugen Tag File",
    "version": 1
  },
  "tag": {
    "i18n": {
      "eng": "John Cooper"
    },
    "name": "John Cooper",
    "repository": "kara.moe",
    "tid": "89a4e125-87b4-4815-8406-a55ab70eb2cb",
    "types": [
      "songwriters",
      "8"
    ]
  }
}