{
  "header": {
    "description": "Karaoke Mugen Tag File",
    "version": 1
  },
  "tag": {
    "i18n": {
      "eng": "John Hill"
    },
    "name": "John Hill",
    "repository": "kara.moe",
    "tid": "995e0fa1-7db1-410d-8fd7-ef7be9868049",
    "types": [
      "songwriters",
      "8"
    ]
  }
}