{
  "header": {
    "description": "Karaoke Mugen Tag File",
    "version": 1
  },
  "tag": {
    "i18n": {
      "eng": "Johnny Lee Andrews"
    },
    "name": "Johnny Lee Andrews",
    "repository": "kara.moe",
    "tid": "f1328331-9cc0-4428-af68-4705fd7a6af2",
    "types": [
      "songwriters",
      "8"
    ]
  }
}