{
  "header": {
    "description": "Karaoke Mugen Tag File",
    "version": 1
  },
  "tag": {
    "i18n": {
      "eng": "John Cleese"
    },
    "name": "John Cleese",
    "tid": "956e1fa2-4d93-4daf-90dd-859124ea206c",
    "types": [
      "songwriters",
      "8"
    ],
    "repository": "kara.moe",
    "modified_at": "2020-03-31T19:04:35.109Z"
  }
}