{
  "header": {
    "description": "Karaoke Mugen Tag File",
    "version": 1
  },
  "tag": {
    "i18n": {
      "eng": "John Feldmann"
    },
    "name": "John Feldmann",
    "tid": "937f2a9f-b1c1-46c6-bb6d-779833a58f6b",
    "types": [
      "songwriters",
      "8"
    ],
    "repository": "kara.moe",
    "modified_at": "2020-03-31T19:04:35.110Z"
  }
}