{
  "header": {
    "description": "Karaoke Mugen Tag File",
    "version": 1
  },
  "tag": {
    "i18n": {
      "eng": "Johngarabushi"
    },
    "name": "Johngarabushi",
    "repository": "kara.moe",
    "tid": "5b2dca39-e02a-4a0f-9f06-bb11deb9027c",
    "types": [
      "songwriters",
      "8"
    ]
  }
}