{
  "header": {
    "description": "Karaoke Mugen Tag File",
    "version": 1
  },
  "tag": {
    "aliases": [
      "JoJo no Kimyou na Bouken",
      "JJBA"
    ],
    "external_database_ids": {},
    "i18n": {
      "jpn": "ジョジョの奇妙な冒険",
      "qro": "JoJo no Kimyô na Bôken",
      "eng": "JoJo's Bizarre Adventure",
      "kor": "죠죠의 기묘한 모험"
    },
    "name": "JoJo no Kimyô na Bôken",
    "repository": "kara.moe",
    "tid": "bcabadee-eb31-43cf-a3b9-568a2266c6e7",
    "types": [
      "franchises",
      "18"
    ]
  }
}