{
  "header": {
    "description": "Karaoke Mugen Tag File",
    "version": 1
  },
  "tag": {
    "i18n": {
      "eng": "Jon Bon Jovi"
    },
    "modified_at": "2021-05-23T23:39:37.965Z",
    "name": "Jon Bon Jovi",
    "repository": "kara.moe",
    "tid": "69c609dd-6461-41aa-9239-f56f56644975",
    "types": [
      "songwriters",
      "8"
    ]
  }
}