{
  "header": {
    "description": "Karaoke Mugen Tag File",
    "version": 1
  },
  "tag": {
    "i18n": {
      "eng": "jon-YAKITORY"
    },
    "name": "jon-YAKITORY",
    "repository": "kara.moe",
    "tid": "81884c68-e8af-4a2b-b49a-dd2bc7ccf541",
    "types": [
      "songwriters",
      "8",
      "creators",
      "4"
    ]
  }
}