{
  "header": {
    "description": "Karaoke Mugen Tag File",
    "version": 1
  },
  "tag": {
    "i18n": {
      "eng": "Jonas Hermansson"
    },
    "name": "Jonas Hermansson",
    "tid": "8ac7a639-e897-4a1f-ad51-9df1194c915a",
    "types": [
      "songwriters",
      "8"
    ],
    "repository": "kara.moe",
    "modified_at": "2020-03-31T19:04:35.118Z"
  }
}