{
  "header": {
    "description": "Karaoke Mugen Tag File",
    "version": 1
  },
  "tag": {
    "i18n": {
      "eng": "Jonathan Young"
    },
    "name": "Jonathan Young",
    "repository": "kara.moe",
    "tid": "d871a2b5-b065-4371-a33f-ef526357ca18",
    "types": [
      "songwriters",
      "8",
      "creators",
      "4",
      "singers",
      "2"
    ]
  }
}