{
  "header": {
    "description": "Karaoke Mugen Tag File",
    "version": 1
  },
  "tag": {
    "i18n": {
      "eng": "Jonathan Steingard"
    },
    "name": "Jonathan Steingard",
    "repository": "kara.moe",
    "tid": "63f54f99-57d7-4098-a281-af706743b804",
    "types": [
      "singers",
      "2"
    ]
  }
}