{
  "header": {
    "description": "Karaoke Mugen Tag File",
    "version": 1
  },
  "tag": {
    "i18n": {
      "eng": "Jonathan Groff"
    },
    "name": "Jonathan Groff",
    "repository": "kara.moe",
    "tid": "c7b56ea2-427b-4212-b065-12ba1da3fdf5",
    "types": [
      "singers",
      "2"
    ],
    "modified_at": "2020-03-31T19:04:35.121Z"
  }
}