{
  "header": {
    "description": "Karaoke Mugen Tag File",
    "version": 1
  },
  "tag": {
    "i18n": {
      "eng": "Jonas Myrin"
    },
    "name": "Jonas Myrin",
    "tid": "d36440c2-4c6b-42dc-9213-7c98630e7c05",
    "types": [
      "songwriters",
      "8"
    ],
    "repository": "kara.moe",
    "modified_at": "2020-03-31T19:04:35.119Z"
  }
}