{
  "header": {
    "description": "Karaoke Mugen Tag File",
    "version": 1
  },
  "tag": {
    "i18n": {
      "eng": "Jonny Jakobsen"
    },
    "name": "Jonny Jakobsen",
    "tid": "b2653434-d9c4-4a38-a2ac-d1c33271628e",
    "types": [
      "singers",
      "2",
      "songwriters",
      "8"
    ],
    "repository": "kara.moe",
    "modified_at": "2020-03-31T19:04:35.122Z"
  }
}