{
  "header": {
    "description": "Karaoke Mugen Tag File",
    "version": 1
  },
  "tag": {
    "i18n": {
      "eng": "Jonsi"
    },
    "name": "Jonsi",
    "tid": "e4d462e4-c07e-4657-9094-e05219e1c62a",
    "types": [
      "singers",
      "2",
      "songwriters",
      "8"
    ],
    "repository": "kara.moe",
    "modified_at": "2020-03-31T19:04:35.123Z"
  }
}