{
  "header": {
    "description": "Karaoke Mugen Tag File",
    "version": 1
  },
  "tag": {
    "i18n": {
      "eng": "Jordan Yaeger"
    },
    "name": "Jordan Yaeger",
    "tid": "2830cf68-8949-46d6-a024-f60e6252f51c",
    "types": [
      "songwriters",
      "8"
    ],
    "repository": "kara.moe",
    "modified_at": "2020-03-31T19:04:35.125Z"
  }
}