{
  "header": {
    "description": "Karaoke Mugen Tag File",
    "version": 1
  },
  "tag": {
    "i18n": {
      "eng": "Jorge Vasconcelo"
    },
    "modified_at": "2020-04-27T00:21:19.458Z",
    "name": "Jorge Vasconcelo",
    "repository": "kara.moe",
    "tid": "19223b05-1b90-4ff0-9b39-1e0b42cbe160",
    "types": [
      "songwriters",
      "8"
    ]
  }
}