{
  "header": {
    "description": "Karaoke Mugen Tag File",
    "version": 1
  },
  "tag": {
    "i18n": {
      "eng": "Jorge Manrique"
    },
    "name": "Jorge Manrique",
    "repository": "kara.moe",
    "tid": "4f6fd094-456a-4085-ab70-bc2b4c476e44",
    "types": [
      "songwriters",
      "8"
    ]
  }
}