{
  "header": {
    "description": "Karaoke Mugen Tag File",
    "version": 1
  },
  "tag": {
    "aliases": [
      "Joze to Tora to Sakana-tachi",
      "Joze, the Tiger and the Fish",
      "Jozé, le tigre et les poissons"
    ],
    "external_database_ids": {
      "anilist": 113596,
      "myanimelist": 40787,
      "kitsu": 42825
    },
    "i18n": {
      "eng": "Josee, the Tiger and the Fish",
      "ukr": "Жозе, тигр і риба",
      "jpn": "ジョゼと虎と魚たち",
      "fre": "Josée, le tigre et les poissons",
      "qro": "Josee to Tora to Sakana-tachi"
    },
    "modified_at": "2020-12-29T21:33:46.617Z",
    "name": "Josee to Tora to Sakana-tachi",
    "repository": "kara.moe",
    "tid": "e4231fe8-6c6d-416e-b348-f163ab2bc325",
    "types": [
      "series",
      "1"
    ]
  }
}