{
  "header": {
    "description": "Karaoke Mugen Tag File",
    "version": 1
  },
  "tag": {
    "i18n": {
      "eng": "Joseph Trapanese"
    },
    "name": "Joseph Trapanese",
    "repository": "kara.moe",
    "tid": "a80543fc-67b6-40c3-b267-04ceade18849",
    "types": [
      "songwriters",
      "8"
    ]
  }
}