{
  "header": {
    "description": "Karaoke Mugen Tag File",
    "version": 1
  },
  "tag": {
    "i18n": {
      "eng": "José María Cano"
    },
    "modified_at": "2021-12-04T20:29:22.136Z",
    "name": "José María Cano",
    "repository": "kara.moe",
    "tid": "cdf7bd14-a581-49c5-ad2e-ee3acf7a3baa",
    "types": [
      "songwriters",
      "8"
    ]
  }
}