{
  "header": {
    "description": "Karaoke Mugen Tag File",
    "version": 1
  },
  "tag": {
    "i18n": {
      "eng": "Joshiryoku Takame na Shishihara-kun"
    },
    "name": "Joshiryoku Takame na Shishihara-kun",
    "repository": "kara.moe",
    "tid": "9c424439-758e-409e-860f-2e8c23a4f7ff",
    "types": [
      "series",
      "1"
    ]
  }
}