{
  "header": {
    "description": "Karaoke Mugen Tag File",
    "version": 1
  },
  "tag": {
    "i18n": {
      "eng": "Josh Mosser"
    },
    "modified_at": "2021-06-06T12:30:34.033Z",
    "name": "Josh Mosser",
    "repository": "kara.moe",
    "tid": "a9faf278-20fc-40e9-9489-091525184293",
    "types": [
      "songwriters",
      "8"
    ]
  }
}