{
  "header": {
    "description": "Karaoke Mugen Tag File",
    "version": 1
  },
  "tag": {
    "i18n": {
      "eng": "Joshua K Kirisame"
    },
    "name": "Joshua K Kirisame",
    "tid": "f92c5c0a-66bf-420f-b05a-ed55602257ad",
    "types": [
      "songwriters",
      "8"
    ],
    "repository": "kara.moe",
    "modified_at": "2020-03-31T19:04:35.127Z"
  }
}