{
  "header": {
    "description": "Karaoke Mugen Tag File",
    "version": 1
  },
  "tag": {
    "i18n": {
      "eng": "Joshua Leung"
    },
    "name": "Joshua Leung",
    "repository": "kara.moe",
    "tid": "5d885941-4a86-4afb-8c8c-35ea889f007f",
    "types": [
      "songwriters",
      "8"
    ]
  }
}