{
  "header": {
    "description": "Karaoke Mugen Tag File",
    "version": 1
  },
  "tag": {
    "i18n": {
      "eng": "Jossvit Jiang Han"
    },
    "name": "Jossvit Jiang Han",
    "repository": "kara.moe",
    "tid": "b196c24d-8619-48f2-83f7-7a175695298e",
    "types": [
      "singers",
      "2"
    ]
  }
}