{
  "header": {
    "description": "Karaoke Mugen Tag File",
    "version": 1
  },
  "tag": {
    "aliases": [
      "jdg"
    ],
    "i18n": {
      "eng": "The Attic Gamer",
      "fre": "Joueur du Grenier"
    },
    "modified_at": "2020-03-31T19:04:31.824Z",
    "name": "Joueur du Grenier",
    "repository": "kara.moe",
    "tid": "d5e9ace6-d6d8-448a-a0d6-106879575f20",
    "types": [
      "series",
      "1"
    ]
  }
}