{
  "header": {
    "description": "Karaoke Mugen Tag File",
    "version": 1
  },
  "tag": {
    "i18n": {
      "eng": "Joy"
    },
    "name": "Joy",
    "tid": "356cea6e-e44f-445f-86f0-be5a54fb594a",
    "types": [
      "singers",
      "2"
    ],
    "repository": "kara.moe",
    "modified_at": "2020-03-31T19:04:35.128Z"
  }
}