{
  "header": {
    "description": "Karaoke Mugen Tag File",
    "version": 1
  },
  "tag": {
    "i18n": {
      "eng": "JP"
    },
    "name": "JP",
    "tid": "7d7acd2d-b0a8-47b0-8982-6625a6f47e3e",
    "types": [
      "singers",
      "2",
      "songwriters",
      "8"
    ],
    "repository": "kara.moe",
    "modified_at": "2020-03-31T19:04:35.130Z"
  }
}