{
  "header": {
    "description": "Karaoke Mugen Tag File",
    "version": 1
  },
  "tag": {
    "i18n": {
      "eng": "Juan Venegas"
    },
    "name": "Juan Venegas",
    "repository": "kara.moe",
    "tid": "9f08edf3-f689-4575-ad79-818b6e2dc406",
    "types": [
      "songwriters",
      "8"
    ]
  }
}