{
  "header": {
    "description": "Karaoke Mugen Tag File",
    "version": 1
  },
  "tag": {
    "i18n": {
      "eng": "Judy Parker"
    },
    "name": "Judy Parker",
    "tid": "a561325a-2f2b-4aec-ba86-7b0768edfcc1",
    "types": [
      "songwriters",
      "8"
    ],
    "repository": "kara.moe",
    "modified_at": "2020-03-31T19:04:35.134Z"
  }
}