{
  "header": {
    "description": "Karaoke Mugen Tag File",
    "version": 1
  },
  "tag": {
    "i18n": {
      "eng": "Juli Shôno"
    },
    "name": "Juli Shôno",
    "tid": "923e03e3-9cd5-49fb-8189-6b9474e8bfc9",
    "types": [
      "songwriters",
      "8"
    ],
    "repository": "kara.moe",
    "modified_at": "2020-03-31T19:04:35.136Z"
  }
}