{
  "header": {
    "description": "Karaoke Mugen Tag File",
    "version": 1
  },
  "tag": {
    "i18n": {
      "eng": "Julian Lewis"
    },
    "name": "Julian Lewis",
    "tid": "72e8bb7b-40b9-4f01-a4e7-7dffdb4f215d",
    "types": [
      "songwriters",
      "8"
    ],
    "repository": "kara.moe",
    "modified_at": "2020-03-31T19:04:35.138Z"
  }
}