{
  "header": {
    "description": "Karaoke Mugen Tag File",
    "version": 1
  },
  "tag": {
    "i18n": {
      "eng": "Julien St-Pierre"
    },
    "name": "Julien St-Pierre",
    "repository": "kara.moe",
    "tid": "cf720fcd-f280-4d69-b5d1-7d0aba812a88",
    "types": [
      "singers",
      "2"
    ]
  }
}