{
  "header": {
    "description": "Karaoke Mugen Tag File",
    "version": 1
  },
  "tag": {
    "i18n": {
      "eng": "Julie Bernstein"
    },
    "name": "Julie Bernstein",
    "tid": "183bea05-e90d-478d-9eec-b387fa2f516b",
    "types": [
      "songwriters",
      "8"
    ],
    "repository": "kara.moe",
    "modified_at": "2020-03-31T19:04:35.139Z"
  }
}