{
  "header": {
    "description": "Karaoke Mugen Tag File",
    "version": 1
  },
  "tag": {
    "i18n": {
      "eng": "Jun Suyama"
    },
    "name": "Jun Suyama",
    "tid": "6684f754-f99b-4010-b609-c2313b60d766",
    "types": [
      "songwriters",
      "8"
    ],
    "repository": "kara.moe",
    "modified_at": "2020-03-31T19:04:35.170Z"
  }
}