{
  "header": {
    "description": "Karaoke Mugen Tag File",
    "version": 1
  },
  "tag": {
    "i18n": {
      "eng": "Jun Senoue"
    },
    "name": "Jun Senoue",
    "tid": "0a29a6e2-0986-4b24-b3c6-909fad9b5371",
    "types": [
      "songwriters",
      "8"
    ],
    "repository": "kara.moe",
    "modified_at": "2020-03-31T19:04:35.169Z"
  }
}