{
  "header": {
    "description": "Karaoke Mugen Tag File",
    "version": 1
  },
  "tag": {
    "i18n": {
      "eng": "Jun Kasama"
    },
    "name": "Jun Kasama",
    "repository": "kara.moe",
    "tid": "cb34f48b-dcf0-4095-ac7f-c614f1b7578d",
    "types": [
      "songwriters",
      "8"
    ]
  }
}