{
  "header": {
    "description": "Karaoke Mugen Tag File",
    "version": 1
  },
  "tag": {
    "i18n": {
      "eng": "Jun Hiroe"
    },
    "name": "Jun Hiroe",
    "tid": "07a77c43-2cca-4ca6-b204-ae97aaca4ce1",
    "types": [
      "singers",
      "2"
    ],
    "repository": "kara.moe",
    "modified_at": "2020-03-31T19:04:35.153Z"
  }
}