{
  "header": {
    "description": "Karaoke Mugen Tag File",
    "version": 1
  },
  "tag": {
    "i18n": {
      "eng": "Jun Yamazaki"
    },
    "name": "Jun Yamazaki",
    "tid": "306784ad-9ffc-4794-8214-aab0862dd672",
    "types": [
      "songwriters",
      "8"
    ],
    "repository": "kara.moe",
    "modified_at": "2020-03-31T19:04:35.173Z"
  }
}