{
  "header": {
    "description": "Karaoke Mugen Tag File",
    "version": 1
  },
  "tag": {
    "i18n": {
      "eng": "Jun Tatsutano"
    },
    "name": "Jun Tatsutano",
    "tid": "0b5ab23b-cbcc-478e-8ba4-ff665990d011",
    "types": [
      "songwriters",
      "8"
    ],
    "repository": "kara.moe",
    "modified_at": "2020-03-31T19:04:35.172Z"
  }
}