{
  "header": {
    "description": "Karaoke Mugen Tag File",
    "version": 1
  },
  "tag": {
    "i18n": {
      "eng": "Jun Ooshio"
    },
    "name": "Jun Ooshio",
    "tid": "4f19a1ba-6b16-4ae3-8e84-efce3597d1e8",
    "types": [
      "songwriters",
      "8"
    ],
    "repository": "kara.moe",
    "modified_at": "2020-03-31T19:04:35.167Z"
  }
}