{
  "header": {
    "description": "Karaoke Mugen Tag File",
    "version": 1
  },
  "tag": {
    "i18n": {
      "eng": "Jun Irie"
    },
    "name": "Jun Irie",
    "tid": "779c234c-f93d-4711-aa2f-936181ab6a9b",
    "types": [
      "songwriters",
      "8"
    ],
    "repository": "kara.moe",
    "modified_at": "2020-03-31T19:04:35.155Z"
  }
}