{
  "header": {
    "description": "Karaoke Mugen Tag File",
    "version": 1
  },
  "tag": {
    "i18n": {
      "eng": "Jun'ichi Igarashi"
    },
    "name": "Jun'ichi Igarashi",
    "tid": "1ec84f4e-db71-435c-a250-b9fc587d0960",
    "types": [
      "songwriters",
      "8"
    ],
    "repository": "kara.moe",
    "modified_at": "2020-03-31T19:04:35.174Z"
  }
}