{
  "header": {
    "description": "Karaoke Mugen Tag File",
    "version": 1
  },
  "tag": {
    "i18n": {
      "eng": "Jun'ya Enoki"
    },
    "name": "Jun'ya Enoki",
    "tid": "a80c4ddc-4b7a-4978-8fbc-745db636c4d1",
    "types": [
      "singers",
      "2"
    ],
    "repository": "kara.moe",
    "modified_at": "2020-03-31T19:04:35.180Z"
  }
}