{
  "header": {
    "description": "Karaoke Mugen Tag File",
    "version": 1
  },
  "tag": {
    "i18n": {
      "eng": "Jun'ichi Kawauchi"
    },
    "name": "Jun'ichi Kawauchi",
    "tid": "f4d17203-598d-46a4-9e52-e404e32fea29",
    "types": [
      "songwriters",
      "8"
    ],
    "repository": "kara.moe",
    "modified_at": "2020-03-31T19:04:35.176Z"
  }
}