{
  "header": {
    "description": "Karaoke Mugen Tag File",
    "version": 1
  },
  "tag": {
    "i18n": {
      "eng": "Jung Eunji"
    },
    "name": "Jung Eunji",
    "tid": "8beebde4-9d0b-4e6d-80b6-89a07677793f",
    "types": [
      "songwriters",
      "8",
      "singers",
      "2"
    ],
    "repository": "kara.moe",
    "modified_at": "2020-03-31T19:04:35.183Z"
  }
}