{
  "header": {
    "description": "Karaoke Mugen Tag File",
    "version": 1
  },
  "tag": {
    "aliases": [
      "Junjou Romantica 2",
      "Чиста Романтика 2",
      "Чистая романтика 2",
      "纯情罗曼史2",
      "junjou"
    ],
    "external_database_ids": {
      "anilist": 4814,
      "myanimelist": 4814,
      "kitsu": 3802
    },
    "i18n": {
      "eng": "Junjo Romantica 2",
      "fre": "Junjô Romantica 2",
      "jpn": "純情ロマンチカ2",
      "qro": "Junjô Romantica 2"
    },
    "modified_at": "2020-03-31T19:04:31.828Z",
    "name": "Junjô Romantica 2",
    "repository": "kara.moe",
    "tid": "a4418a41-42c1-4351-9cb3-f9957f5d66b3",
    "types": [
      "series",
      "1"
    ]
  }
}