{
  "header": {
    "description": "Karaoke Mugen Tag File",
    "version": 1
  },
  "tag": {
    "i18n": {
      "eng": "Junji Ishiwatari"
    },
    "name": "Junji Ishiwatari",
    "tid": "07bd9080-ba81-4884-81d5-f44b82d78634",
    "types": [
      "songwriters",
      "8",
      "singers",
      "2"
    ],
    "repository": "kara.moe",
    "modified_at": "2020-03-31T19:04:35.185Z"
  }
}