{
  "header": {
    "description": "Karaoke Mugen Tag File",
    "version": 1
  },
  "tag": {
    "aliases": [
      "Junjou Romantica 1",
      "Чиста Романтика",
      "Чистая романтика",
      "纯情罗曼史",
      "junjou"
    ],
    "external_database_ids": {
      "anilist": 3092,
      "myanimelist": 3092,
      "kitsu": 2788
    },
    "i18n": {
      "eng": "Junjo Romantica",
      "fre": "Junjô Romantica",
      "jpn": "純情ロマンチカ",
      "qro": "Junjô Romantica"
    },
    "modified_at": "2020-03-31T19:04:31.830Z",
    "name": "Junjô Romantica",
    "repository": "kara.moe",
    "tid": "c7034772-c19c-4c28-9d72-23bdf4228071",
    "types": [
      "series",
      "1",
      "franchises",
      "18"
    ]
  }
}