{
  "header": {
    "description": "Karaoke Mugen Tag File",
    "version": 1
  },
  "tag": {
    "i18n": {
      "eng": "Junko Minagawa"
    },
    "name": "Junko Minagawa",
    "tid": "080dd908-77c2-4f9e-b77c-1f79643bf255",
    "types": [
      "singers",
      "2"
    ],
    "repository": "kara.moe",
    "modified_at": "2020-03-31T19:04:35.191Z"
  }
}