{
  "header": {
    "description": "Karaoke Mugen Tag File",
    "version": 1
  },
  "tag": {
    "i18n": {
      "eng": "Junko Tsuji"
    },
    "name": "Junko Tsuji",
    "tid": "65510396-b0c9-4903-a824-b617ab217532",
    "types": [
      "songwriters",
      "8"
    ],
    "repository": "kara.moe",
    "modified_at": "2020-03-31T19:04:35.195Z"
  }
}