{
  "header": {
    "description": "Karaoke Mugen Tag File",
    "version": 1
  },
  "tag": {
    "i18n": {
      "eng": "Junko Zushi"
    },
    "name": "Junko Zushi",
    "tid": "5635c943-c7ad-4a36-9c8c-52c47dd08ce0",
    "types": [
      "songwriters",
      "8"
    ],
    "repository": "kara.moe",
    "modified_at": "2020-03-31T19:04:35.196Z"
  }
}