{
  "header": {
    "description": "Karaoke Mugen Tag File",
    "version": 1
  },
  "tag": {
    "i18n": {
      "eng": "Junko Uchida"
    },
    "name": "Junko Uchida",
    "tid": "b7e1e772-395d-4dce-916d-46213f00f6be",
    "types": [
      "singers",
      "2"
    ],
    "repository": "kara.moe",
    "modified_at": "2020-03-31T19:04:35.195Z"
  }
}