{
  "header": {
    "description": "Karaoke Mugen Tag File",
    "version": 1
  },
  "tag": {
    "i18n": {
      "eng": "Junko Noda"
    },
    "name": "Junko Noda",
    "tid": "0025be6b-1319-484c-85d9-b4056452c1fb",
    "types": [
      "singers",
      "2"
    ],
    "repository": "kara.moe",
    "modified_at": "2020-03-31T19:04:35.193Z"
  }
}