{
  "header": {
    "description": "Karaoke Mugen Tag File",
    "version": 1
  },
  "tag": {
    "i18n": {
      "eng": "Junko Higa"
    },
    "name": "Junko Higa",
    "repository": "kara.moe",
    "tid": "7fc50448-c59f-4436-a178-611919e9850f",
    "types": [
      "songwriters",
      "8"
    ]
  }
}