{
  "header": {
    "description": "Karaoke Mugen Tag File",
    "version": 1
  },
  "tag": {
    "i18n": {
      "eng": "Junko"
    },
    "name": "Junko",
    "repository": "kara.moe",
    "tid": "7faae9f0-571e-4de9-a5cb-c43d8b8a16ec",
    "types": [
      "songwriters",
      "8"
    ],
    "modified_at": "2020-03-31T19:04:35.197Z"
  }
}