{
  "header": {
    "description": "Karaoke Mugen Tag File",
    "version": 1
  },
  "tag": {
    "i18n": {
      "eng": "JUNNA"
    },
    "name": "JUNNA",
    "tid": "1e35cd02-4df9-4b52-aa9a-ae493f8a7aa6",
    "types": [
      "singers",
      "2"
    ],
    "repository": "kara.moe",
    "modified_at": "2020-03-31T19:04:35.198Z"
  }
}