{
  "header": {
    "description": "Karaoke Mugen Tag File",
    "version": 1
  },
  "tag": {
    "aliases": [
      "JxSxK"
    ],
    "i18n": {
      "eng": "Junnosuke Watanabe"
    },
    "name": "Junnosuke Watanabe",
    "repository": "kara.moe",
    "tid": "fa66e82a-a909-4b5b-8119-8cf990a30910",
    "types": [
      "songwriters",
      "8"
    ],
    "modified_at": "2020-03-31T19:04:35.199Z"
  }
}