{
  "header": {
    "description": "Karaoke Mugen Tag File",
    "version": 1
  },
  "tag": {
    "i18n": {
      "eng": "Junxix."
    },
    "name": "Junxix.",
    "repository": "kara.moe",
    "tid": "2e722b27-6d06-4e30-ac00-57ab1a8893d9",
    "types": [
      "songwriters",
      "8"
    ]
  }
}