{
  "header": {
    "description": "Karaoke Mugen Tag File",
    "version": 1
  },
  "tag": {
    "i18n": {
      "eng": "Junya Matsuoka"
    },
    "name": "Junya Matsuoka",
    "tid": "01d00c60-dc5a-4a3d-815b-2394910418a1",
    "types": [
      "songwriters",
      "8"
    ],
    "repository": "kara.moe",
    "modified_at": "2020-03-31T19:04:35.203Z"
  }
}