{
  "header": {
    "description": "Karaoke Mugen Tag File",
    "version": 1
  },
  "tag": {
    "i18n": {
      "eng": "Junya Motomura"
    },
    "name": "Junya Motomura",
    "repository": "kara.moe",
    "tid": "64fe6e1e-b125-426e-a358-0120a68ac148",
    "types": [
      "songwriters",
      "8"
    ]
  }
}