{
  "header": {
    "description": "Karaoke Mugen Tag File",
    "version": 1
  },
  "tag": {
    "i18n": {
      "eng": "Junzô Ishida"
    },
    "name": "Junzô Ishida",
    "tid": "bb13d5ed-f4dc-46fd-b2f8-1da6c138a2b7",
    "types": [
      "songwriters",
      "8"
    ],
    "repository": "kara.moe",
    "modified_at": "2020-03-31T19:04:35.203Z"
  }
}