{
  "header": {
    "description": "Karaoke Mugen Tag File",
    "version": 1
  },
  "tag": {
    "i18n": {
      "eng": "Juriano Hagiwara"
    },
    "name": "Juriano Hagiwara",
    "tid": "e71718e6-3d88-444d-9ca9-d08ec338be11",
    "types": [
      "singers",
      "2"
    ],
    "repository": "kara.moe",
    "modified_at": "2020-03-31T19:04:35.207Z"
  }
}