{
  "header": {
    "description": "Karaoke Mugen Tag File",
    "version": 1
  },
  "tag": {
    "aliases": [
      "ジャストビコーズ!"
    ],
    "external_database_ids": {
      "anilist": 98820,
      "myanimelist": 35639,
      "kitsu": 13530
    },
    "i18n": {
      "eng": "Just Because!",
      "fre": "Just Because!",
      "jpn": "Just Because!",
      "qro": "Just Because!"
    },
    "modified_at": "2020-03-31T19:04:31.832Z",
    "name": "Just Because!",
    "repository": "kara.moe",
    "tid": "67269540-2674-4ab0-8e9b-91ed30784ea5",
    "types": [
      "series",
      "1"
    ]
  }
}