{
  "header": {
    "description": "Karaoke Mugen Tag File",
    "version": 1
  },
  "tag": {
    "i18n": {
      "eng": "Justin Roiland"
    },
    "name": "Justin Roiland",
    "repository": "kara.moe",
    "tid": "be68202b-9e89-484a-a497-08c409cd45dc",
    "types": [
      "creators",
      "4"
    ]
  }
}