{
  "header": {
    "description": "Karaoke Mugen Tag File",
    "version": 1
  },
  "tag": {
    "i18n": {
      "eng": "Justin Cordle"
    },
    "name": "Justin Cordle",
    "repository": "kara.moe",
    "tid": "67d5d1f2-68e9-4698-ae35-1a7dfa278204",
    "types": [
      "songwriters",
      "8"
    ]
  }
}