{
  "header": {
    "description": "Karaoke Mugen Tag File",
    "version": 1
  },
  "tag": {
    "i18n": {
      "eng": "Justin Hayward-Young"
    },
    "modified_at": "2020-09-26T18:03:21.674Z",
    "name": "Justin Hayward-Young",
    "repository": "kara.moe",
    "tid": "048a4aa3-d41b-446e-9ef3-62e0fbb5a725",
    "types": [
      "singers",
      "2"
    ]
  }
}