{
  "header": {
    "description": "Karaoke Mugen Tag File",
    "version": 1
  },
  "tag": {
    "i18n": {
      "eng": "Justin Paul"
    },
    "name": "Justin Paul",
    "tid": "efa5bcde-0d33-4efa-8c7f-635e28df9bfa",
    "types": [
      "songwriters",
      "8"
    ],
    "repository": "kara.moe",
    "modified_at": "2020-03-31T19:04:35.210Z"
  }
}