{
  "header": {
    "description": "Karaoke Mugen Tag File",
    "version": 1
  },
  "tag": {
    "i18n": {
      "eng": "Jûichi Sase"
    },
    "name": "Jûichi Sase",
    "tid": "9655d76c-2273-43db-8f74-8ec3416c029d",
    "types": [
      "songwriters",
      "8"
    ],
    "repository": "kara.moe",
    "modified_at": "2020-03-31T19:04:35.212Z"
  }
}