{
  "header": {
    "description": "Karaoke Mugen Tag File",
    "version": 1
  },
  "tag": {
    "aliases": [
      "Juuken Sentai Gekiranger",
      "juuken"
    ],
    "i18n": {
      "eng": "Jûken Sentai Gekiranger",
      "jpn": "獣拳戦隊ゲキレンジャ",
      "qro": "Jûken Sentai Gekiranger"
    },
    "modified_at": "2020-03-31T19:04:31.833Z",
    "name": "Jûken Sentai Gekiranger",
    "repository": "kara.moe",
    "tid": "bd12a2fa-bb12-44b1-8807-ac074e6a55e9",
    "types": [
      "series",
      "1"
    ]
  }
}