{
  "header": {
    "description": "Karaoke Mugen Tag File",
    "version": 1
  },
  "tag": {
    "i18n": {
      "eng": "JYP Entertainment"
    },
    "name": "JYP Entertainment",
    "repository": "kara.moe",
    "tid": "e1a9a889-9e39-49c9-8ff7-7d7d16331ee5",
    "types": [
      "creators",
      "4"
    ]
  }
}