{
  "header": {
    "description": "Karaoke Mugen Tag File",
    "version": 1
  },
  "tag": {
    "i18n": {
      "eng": "K-Maro"
    },
    "name": "K-Maro",
    "repository": "kara.moe",
    "tid": "4b4c71ae-8574-4448-8cef-55ecfffedd15",
    "types": [
      "songwriters",
      "8"
    ]
  }
}