{
  "header": {
    "description": "Karaoke Mugen Tag File",
    "version": 1
  },
  "tag": {
    "i18n": {
      "eng": "K. Maro"
    },
    "modified_at": "2020-07-09T18:15:57.845Z",
    "name": "K. Maro",
    "repository": "kara.moe",
    "tid": "d8ffcec7-9d09-44aa-8d78-6f1601096be5",
    "types": [
      "songwriters",
      "8",
      "singers",
      "2"
    ]
  }
}