{
  "header": {
    "description": "Karaoke Mugen Tag File",
    "version": 1
  },
  "tag": {
    "i18n": {
      "eng": "K.Baggio"
    },
    "name": "K.Baggio",
    "tid": "4ea5c898-fbbc-409e-9fb8-767c3fb17b08",
    "types": [
      "songwriters",
      "8"
    ],
    "repository": "kara.moe",
    "modified_at": "2020-03-31T19:04:35.217Z"
  }
}