{
  "header": {
    "description": "Karaoke Mugen Tag File",
    "version": 1
  },
  "tag": {
    "i18n": {
      "eng": "K.JUNO"
    },
    "name": "K.JUNO",
    "tid": "e43f99b4-4698-4825-8878-a1b8830368f1",
    "types": [
      "songwriters",
      "8"
    ],
    "repository": "kara.moe",
    "modified_at": "2020-03-31T19:04:35.218Z"
  }
}