{
  "header": {
    "description": "Karaoke Mugen Tag File",
    "version": 1
  },
  "tag": {
    "i18n": {
      "eng": "K2E†Cradle"
    },
    "name": "K2E†Cradle",
    "repository": "kara.moe",
    "tid": "f0b33099-165a-4e59-b16c-455ee8dd47ed",
    "types": [
      "creators",
      "4"
    ]
  }
}