{
  "header": {
    "description": "Karaoke Mugen Tag File",
    "version": 1
  },
  "tag": {
    "i18n": {
      "eng": "Kabocha Gunsô"
    },
    "name": "Kabocha Gunsô",
    "tid": "08453702-ebfc-4bd3-8ea9-d53b0fcc4d47",
    "types": [
      "songwriters",
      "8"
    ],
    "repository": "kara.moe",
    "modified_at": "2020-03-31T19:04:35.220Z"
  }
}