{
  "header": {
    "description": "Karaoke Mugen Tag File",
    "version": 1
  },
  "tag": {
    "aliases": [
      "青春歌舞伎"
    ],
    "external_database_ids": {
      "anilist": 87500,
      "myanimelist": 33840,
      "kitsu": 12487
    },
    "i18n": {
      "eng": "Kabukibu!",
      "jpn": "カブキブ!",
      "kor": "카부키부!",
      "qro": "Kabuki-bu!"
    },
    "modified_at": "2020-03-31T19:04:31.841Z",
    "name": "Kabuki-bu!",
    "repository": "kara.moe",
    "tid": "3c5f6f82-324b-422d-a2ba-30a2731e9348",
    "types": [
      "series",
      "1"
    ]
  }
}