{
  "header": {
    "description": "Karaoke Mugen Tag File",
    "version": 1
  },
  "tag": {
    "i18n": {
      "eng": "Kadokawa"
    },
    "name": "Kadokawa",
    "tid": "cc52425c-a381-4a81-a4b9-ac0d5ccba5ab",
    "types": [
      "creators",
      "4"
    ],
    "repository": "kara.moe",
    "modified_at": "2020-03-31T19:04:35.224Z"
  }
}