{
  "header": {
    "description": "Karaoke Mugen Tag File",
    "version": 1
  },
  "tag": {
    "i18n": {
      "eng": "Kaede Yuasa"
    },
    "modified_at": "2021-04-05T15:08:00.111Z",
    "name": "Kaede Yuasa",
    "repository": "kara.moe",
    "tid": "307db90e-9db3-4fa5-94eb-5fb20e4c83f6",
    "types": [
      "singers",
      "2"
    ]
  }
}