{
  "header": {
    "description": "Karaoke Mugen Tag File",
    "version": 1
  },
  "tag": {
    "i18n": {
      "eng": "Kaede Higuchi"
    },
    "modified_at": "2021-01-29T01:02:29.722Z",
    "name": "Kaede Higuchi",
    "repository": "kara.moe",
    "tid": "29a95d87-f0b7-4637-b892-0fb8c183127e",
    "types": [
      "singers",
      "2"
    ]
  }
}