{
  "header": {
    "description": "Karaoke Mugen Tag File",
    "version": 1
  },
  "tag": {
    "i18n": {
      "eng": "Kaela Kovalskia"
    },
    "name": "Kaela Kovalskia",
    "repository": "kara.moe",
    "tid": "59a93c9e-fbce-4740-8d14-0cab95578db2",
    "types": [
      "singers",
      "2"
    ]
  }
}