{
  "header": {
    "description": "Karaoke Mugen Tag File",
    "version": 1
  },
  "tag": {
    "aliases": [
      "Kojou",
      "Lonely Castle in the Mirror",
      "The Solitary Castle in the Mirror"
    ],
    "external_database_ids": {
      "anilist": 145739,
      "kitsu": 45947,
      "myanimelist": 51116
    },
    "i18n": {
      "eng": "Kagami no Kojô",
      "jpn": "かがみの孤城",
      "qro": "Kagami no Kojô",
      "chi": "镜之孤城"
    },
    "name": "Kagami no Kojô",
    "repository": "kara.moe",
    "tid": "9d011007-6090-4c1a-be74-37b506e7f143",
    "types": [
      "series",
      "1"
    ]
  }
}