{
  "header": {
    "description": "Karaoke Mugen Tag File",
    "version": 1
  },
  "tag": {
    "i18n": {
      "eng": "Kahoru Kohiruimaki"
    },
    "name": "Kahoru Kohiruimaki",
    "tid": "9f2012e0-c8ab-4e0c-97e3-7fbbbabe15af",
    "types": [
      "singers",
      "2"
    ],
    "repository": "kara.moe",
    "modified_at": "2020-03-31T19:04:35.229Z"
  }
}