{
  "header": {
    "description": "Karaoke Mugen Tag File",
    "version": 1
  },
  "tag": {
    "aliases": [
      "Кайба",
      "Каіба"
    ],
    "external_database_ids": {
      "anilist": 3701,
      "myanimelist": 3701,
      "kitsu": 3201
    },
    "i18n": {
      "eng": "Kaiba",
      "jpn": "カイバ",
      "per": "کایبا",
      "qro": "Kaiba"
    },
    "modified_at": "2020-03-31T19:04:31.847Z",
    "name": "Kaiba",
    "repository": "kara.moe",
    "tid": "cd49b742-4b07-49bb-b118-86ad012787bb",
    "types": [
      "series",
      "1"
    ]
  }
}