{
  "header": {
    "description": "Karaoke Mugen Tag File",
    "version": 1
  },
  "tag": {
    "i18n": {
      "eng": "kaim21"
    },
    "name": "kaim21",
    "repository": "kara.moe",
    "tid": "3b3b812d-35a1-4c97-95c1-a87005e9face",
    "types": [
      "authors",
      "6"
    ]
  }
}