{
  "header": {
    "description": "Karaoke Mugen Tag File",
    "version": 1
  },
  "tag": {
    "i18n": {
      "eng": "kain"
    },
    "name": "kain",
    "repository": "kara.moe",
    "tid": "51dc6072-7782-4c78-b1dd-2b22bdadc180",
    "types": [
      "songwriters",
      "8"
    ]
  }
}