{
  "header": {
    "description": "Karaoke Mugen Tag File",
    "version": 1
  },
  "tag": {
    "i18n": {
      "eng": "Kairiki bear"
    },
    "modified_at": "2021-08-17T18:48:17.508Z",
    "name": "Kairiki bear",
    "repository": "kara.moe",
    "tid": "ce4a49a7-38bb-4620-bc81-5074a6a49747",
    "types": [
      "songwriters",
      "8"
    ]
  }
}