{
  "header": {
    "description": "Karaoke Mugen Tag File",
    "version": 1
  },
  "tag": {
    "i18n": {
      "eng": "Kaiser Erina"
    },
    "name": "Kaiser Erina",
    "tid": "33077022-28e5-4d99-b160-a5e8fd196ea2",
    "types": [
      "songwriters",
      "8"
    ],
    "repository": "kara.moe",
    "modified_at": "2020-03-31T19:04:35.232Z"
  }
}