{
  "header": {
    "description": "Karaoke Mugen Tag File",
    "version": 1
  },
  "tag": {
    "i18n": {
      "eng": "Kaito Makusu"
    },
    "name": "Kaito Makusu",
    "repository": "kara.moe",
    "tid": "030a94be-2b4c-490d-87fc-847106cea825",
    "types": [
      "songwriters",
      "8"
    ]
  }
}