{
  "header": {
    "description": "Karaoke Mugen Tag File",
    "version": 1
  },
  "tag": {
    "i18n": {
      "eng": "Kakegurui 2 Zettai Zetsumei Russian Roulette"
    },
    "name": "Kakegurui 2 Zettai Zetsumei Russian Roulette",
    "repository": "kara.moe",
    "tid": "886c40a6-10cb-4f6b-b7ae-80aebd38b144",
    "types": [
      "series",
      "1"
    ]
  }
}