{
  "header": {
    "description": "Karaoke Mugen Tag File",
    "version": 1
  },
  "tag": {
    "i18n": {
      "eng": "Kakome"
    },
    "modified_at": "2020-04-14T17:23:05.783Z",
    "name": "Kakome",
    "repository": "kara.moe",
    "tid": "6e4bdde7-afd1-487c-8b05-44e004eaf01f",
    "types": [
      "creators",
      "4"
    ]
  }
}