{
  "header": {
    "description": "Karaoke Mugen Tag File",
    "version": 1
  },
  "tag": {
    "external_database_ids": {
      "anilist": 18295,
      "myanimelist": 18295,
      "kitsu": 7698
    },
    "i18n": {
      "eng": "Valvrave the Liberator 2nd Season",
      "jpn": "革命機ヴァルヴレイヴ　2ndシーズン",
      "qro": "Kakumeiki Valvrave 2nd Season"
    },
    "modified_at": "2020-03-31T19:04:31.858Z",
    "name": "Kakumeiki Valvrave 2nd Season",
    "repository": "kara.moe",
    "tid": "f09fedcc-9bfd-4dc8-be59-ed0168b2fe14",
    "types": [
      "series",
      "1"
    ]
  }
}