{
  "header": {
    "description": "Karaoke Mugen Tag File",
    "version": 1
  },
  "tag": {
    "i18n": {
      "eng": "Kallaider"
    },
    "modified_at": "2021-04-27T22:38:27.069Z",
    "name": "Kallaider",
    "repository": "kara.moe",
    "tid": "59404c67-12d4-4c2b-b355-0ea666bda833",
    "types": [
      "songwriters",
      "8"
    ]
  }
}