{
  "header": {
    "description": "Karaoke Mugen Tag File",
    "version": 1
  },
  "tag": {
    "i18n": {
      "eng": "Kamen Rider Zero-One",
      "jpn": "仮面ライダーゼロワン",
      "qro": "Kamen Rider Zero-One"
    },
    "modified_at": "2020-03-31T19:04:31.880Z",
    "name": "Kamen Rider Zero-One",
    "repository": "kara.moe",
    "tid": "1d7b5b0b-d541-4058-a7aa-c1a3b53bf7d0",
    "types": [
      "series",
      "1"
    ]
  }
}