{
  "header": {
    "description": "Karaoke Mugen Tag File",
    "version": 1
  },
  "tag": {
    "i18n": {
      "eng": "Kamen Rider Kuga",
      "fre": "Kamen Rider Kûga",
      "jpn": "仮面ライダークウガ",
      "qro": "Kamen Rider Kûga"
    },
    "modified_at": "2020-03-31T19:04:31.873Z",
    "name": "Kamen Rider Kûga",
    "repository": "kara.moe",
    "tid": "c782c01a-e27d-4532-b515-862c7f5d1190",
    "types": [
      "series",
      "1"
    ]
  }
}