{
  "header": {
    "description": "Karaoke Mugen Tag File",
    "version": 1
  },
  "tag": {
    "i18n": {
      "eng": "Kamen Rider X",
      "jpn": "仮面ライダーX",
      "qro": "Kamen Rider X"
    },
    "modified_at": "2020-03-31T19:04:31.879Z",
    "name": "Kamen Rider X",
    "repository": "kara.moe",
    "tid": "93d2ba7a-5ad9-44d0-b509-5d16b8fe3a62",
    "types": [
      "series",
      "1"
    ]
  }
}