{
  "header": {
    "description": "Karaoke Mugen Tag File",
    "version": 1
  },
  "tag": {
    "aliases": [
      "Maskeli Hizmetkâr",
      "The Masked Maid Guy",
      "knmg",
      "Маскираният Прислужник",
      "假面女仆"
    ],
    "external_database_ids": {
      "anilist": 3616,
      "myanimelist": 3616,
      "kitsu": 3143
    },
    "i18n": {
      "eng": "Kamen no Maid Guy",
      "jpn": "仮面のメイドガイ",
      "qro": "Kamen no Maid Guy"
    },
    "modified_at": "2020-04-19T20:15:50.258Z",
    "name": "Kamen no Maid Guy",
    "repository": "kara.moe",
    "tid": "b7791e77-d695-4046-b21a-a0dd2d9b643a",
    "types": [
      "series",
      "1"
    ]
  }
}