{
  "header": {
    "description": "Karaoke Mugen Tag File",
    "version": 1
  },
  "tag": {
    "i18n": {
      "eng": "Kamen Rider Decade",
      "jpn": "仮面ライダーディケイド",
      "qro": "Kamen Rider Decade"
    },
    "modified_at": "2020-03-31T19:04:31.867Z",
    "name": "Kamen Rider Decade",
    "repository": "kara.moe",
    "tid": "5b3e0527-6f05-4109-ae81-e5d352b9b16f",
    "types": [
      "series",
      "1"
    ]
  }
}