{
  "header": {
    "description": "Karaoke Mugen Tag File",
    "version": 1
  },
  "tag": {
    "aliases": [
      "Kaminomi 3",
      "Kaminomi III",
      "The World God Only Knows - Goddesses Arc",
      "twgok 3",
      "Одному лишь Богу ведомый мир III"
    ],
    "external_database_ids": {
      "anilist": 16706,
      "myanimelist": 16706,
      "kitsu": 7496
    },
    "i18n": {
      "eng": "The World God Only Knows: Goddesses",
      "fre": "Que sa volonté soit faite (saison 3)",
      "jpn": "神のみぞ知るセカイ 女神篇",
      "qro": "Kami Nomi zo Shiru Sekai: Megami-hen"
    },
    "modified_at": "2020-03-31T19:04:31.884Z",
    "name": "Kami Nomi zo Shiru Sekai: Megami-hen",
    "repository": "kara.moe",
    "tid": "ca88e390-410e-4e53-8451-ac120bf51bea",
    "types": [
      "series",
      "1"
    ]
  }
}