{
  "header": {
    "description": "Karaoke Mugen Tag File",
    "version": 1
  },
  "tag": {
    "aliases": [
      "Chibi Goddess Karin",
      "Маленькая богиня Карин",
      "Kami-chama Karin",
      "小女神花铃"
    ],
    "external_database_ids": {
      "anilist": 1808,
      "myanimelist": 1808,
      "kitsu": 1627
    },
    "i18n": {
      "eng": "Kamichama Karin",
      "jpn": "かみちゃまかりん",
      "qro": "Kamichama Karin"
    },
    "modified_at": "2020-08-19T11:55:03.142Z",
    "name": "Kamichama Karin",
    "repository": "kara.moe",
    "tid": "f492838b-3817-4a9e-9dda-442fa23b8566",
    "types": [
      "series",
      "1"
    ]
  }
}