{
  "header": {
    "description": "Karaoke Mugen Tag File",
    "version": 1
  },
  "tag": {
    "aliases": [
      "ToG"
    ],
    "external_database_ids": {
      "anilist": 115230,
      "myanimelist": 40221,
      "kitsu": 43004
    },
    "i18n": {
      "eng": "Tower of God",
      "jpn": "神之塔",
      "rus": "Башня Бога",
      "kor": "신의 탑",
      "qro": "Kami no Tou"
    },
    "modified_at": "2020-06-01T16:57:55.938Z",
    "name": "Kami no Tou",
    "repository": "kara.moe",
    "tid": "efd885d2-a77a-4496-b813-de323d890b48",
    "types": [
      "series",
      "1"
    ]
  }
}