{
  "header": {
    "description": "Karaoke Mugen Tag File",
    "version": 1
  },
  "tag": {
    "aliases": [
      "What God Does in a World Without Gods",
      "無神世界的神明活動"
    ],
    "external_database_ids": {
      "anilist": 148048,
      "kitsu": 46089,
      "myanimelist": 51693
    },
    "i18n": {
      "eng": "KamiKatsu: Working for God in a Godless World",
      "qro": "Kaminaki Sekai no Kamisama Katsudou",
      "jpn": "神無き世界のカミサマ活動",
      "por": "KamiKatsu: Atividades Divinas em um Mundo sem Deuses",
      "ger": "KamiKatsu: Meine Arbeit als Missionar in einer gottlosen Welt",
      "rus": "KamiKatsu: Как быть богу в мире без богов?",
      "fre": "Kamisama : Opération Divine",
      "chi": "无神世界的神明活动"
    },
    "name": "Kaminaki Sekai no Kamisama Katsudou",
    "repository": "kara.moe",
    "tid": "dd9869cb-d353-4e4f-99d6-08f4c191fd80",
    "types": [
      "series",
      "1"
    ]
  }
}