{
  "header": {
    "description": "Karaoke Mugen Tag File",
    "version": 1
  },
  "tag": {
    "aliases": [
      "Очень приятно Бог [ТВ-2]"
    ],
    "external_database_ids": {
      "anilist": 20801,
      "myanimelist": 25681,
      "kitsu": 8716
    },
    "i18n": {
      "chi": "元氣少女緣結神◎",
      "eng": "Kamisama Kiss 2",
      "jpn": "神様はじめました◎",
      "fre": "Divine Nanami 2",
      "qro": "Kamisama Hajimemashita 2"
    },
    "modified_at": "2020-09-01T21:49:23.319Z",
    "name": "Kamisama Hajimemashita 2",
    "repository": "kara.moe",
    "tid": "6ed0dd07-d1eb-4e7c-af1b-a62fb9e5d423",
    "types": [
      "series",
      "1"
    ]
  }
}