{
  "header": {
    "description": "Karaoke Mugen Tag File",
    "version": 1
  },
  "tag": {
    "i18n": {
      "afr": "Kannada",
      "amh": "ካናዳኛ",
      "ara": "الكانادا",
      "aze": "Kannada",
      "bak": "Канада",
      "bel": "Каннада",
      "bul": "Каннада",
      "ben": "কান্নাড়ী",
      "bos": "Kanada",
      "cat": "Kannada",
      "cze": "Kannada",
      "wel": "Kannada",
      "dan": "Kannada",
      "ger": "Kannada",
      "gre": "Κανάντα",
      "eng": "Kannada",
      "epo": "Kannada",
      "spa": "Kannada",
      "est": "Kannada",
      "baq": "Kannada",
      "per": "کانادا",
      "fin": "Kannada",
      "fre": "Kannada",
      "gle": "Cannadais",
      "gla": "Japanese",
      "glg": "Kannada",
      "guj": "કન્નડા",
      "heb": "קנאדה",
      "hin": "कन्नड़",
      "hrv": "Kannada",
      "hat": "Kannada",
      "hun": "Kannada",
      "arm": "Կաննադա",
      "ind": "Kannada",
      "ice": "Enska",
      "ita": "Kannada",
      "jpn": "Kannada",
      "jav": "Kannada",
      "geo": "Kannada",
      "kaz": "Каннада",
      "kan": "ಕನ್ನಡ",
      "kor": "칸나다어",
      "kir": "Каннада",
      "lat": "Kannada",
      "lit": "Kanadų",
      "lav": "Kannada",
      "mlg": "Kannada",
      "mao": "Kannada",
      "mac": "Kannada",
      "mal": "കന്നഡ",
      "mon": "Kannada",
      "mar": "कन्नड",
      "may": "Hindi",
      "mlt": "}",
      "nep": "कन्नड",
      "dut": "Canadees",
      "nor": "Kannada",
      "pan": "ਕੰਨੜ",
      "pol": "Kannada",
      "por": "Kannada",
      "rum": "Kannada",
      "rus": "Каннада",
      "sin": "කන්නඩ",
      "slo": "Kannada",
      "slv": "V tamilščino",
      "alb": "Kannada",
      "srp": "Канада",
      "sun": "Kannada",
      "swe": "Kannada",
      "swa": "Kannada",
      "tam": "கன்னடம்",
      "tel": "కన్నడ",
      "tgk": "Каннада",
      "tha": "ภาษากัณณาท name",
      "tgl": "Kannada",
      "tur": "Boş",
      "tat": "Каннада",
      "ukr": "Каннада",
      "urd": "کنّاڈا",
      "uzb": "Kannada",
      "vie": "Kannada",
      "xho": "I-kannada",
      "yid": "קאַנאַדאַ",
      "chi": "卡纳达语"
    },
    "name": "kan",
    "tid": "109996b5-4d4d-4c17-abf3-0cedfec6be15",
    "types": [
      "langs",
      "5"
    ],
    "repository": "kara.moe",
    "modified_at": "2020-03-31T19:04:35.248Z"
  }
}