{
  "header": {
    "description": "Karaoke Mugen Tag File",
    "version": 1
  },
  "tag": {
    "i18n": {
      "eng": "KΛNΛg"
    },
    "name": "KΛNΛg",
    "tid": "82730bb8-ddb9-44da-9e24-46f088f72bd9",
    "types": [
      "singers",
      "2"
    ],
    "repository": "kara.moe",
    "modified_at": "2020-03-31T19:04:35.262Z"
  }
}