{
  "header": {
    "description": "Karaoke Mugen Tag File",
    "version": 1
  },
  "tag": {
    "i18n": {
      "eng": "Kanaderiya Hashiguchi"
    },
    "name": "Kanaderiya Hashiguchi",
    "tid": "86498ec3-1d2f-4ad3-8fdf-1c94d782a1db",
    "types": [
      "songwriters",
      "8",
      "singers",
      "2"
    ],
    "repository": "kara.moe",
    "modified_at": "2020-03-31T19:04:35.258Z"
  }
}