{
  "header": {
    "description": "Karaoke Mugen Tag File",
    "version": 1
  },
  "tag": {
    "i18n": {
      "eng": "Kaname Oota"
    },
    "name": "Kaname Oota",
    "tid": "d8b88e94-e491-4fbc-b299-5bec452be471",
    "types": [
      "songwriters",
      "8"
    ],
    "repository": "kara.moe",
    "modified_at": "2020-03-31T19:04:35.269Z"
  }
}