{
  "header": {
    "description": "Karaoke Mugen Tag File",
    "version": 1
  },
  "tag": {
    "i18n": {
      "eng": "Kana Hoshizaki"
    },
    "name": "Kana Hoshizaki",
    "tid": "75a705e1-b889-45fd-a23b-4036434865d8",
    "types": [
      "singers",
      "2"
    ],
    "repository": "kara.moe",
    "modified_at": "2020-03-31T19:04:35.251Z"
  }
}