{
  "header": {
    "description": "Karaoke Mugen Tag File",
    "version": 1
  },
  "tag": {
    "i18n": {
      "eng": "Kanata Okajima"
    },
    "name": "Kanata Okajima",
    "tid": "70fe407b-f62f-4f2d-afdc-201cd297c05f",
    "types": [
      "songwriters",
      "8"
    ],
    "repository": "kara.moe",
    "modified_at": "2020-03-31T19:04:35.272Z"
  }
}