{
  "header": {
    "description": "Karaoke Mugen Tag File",
    "version": 1
  },
  "tag": {
    "i18n": {
      "eng": "Kana Nishino"
    },
    "name": "Kana Nishino",
    "tid": "781bcb6a-33de-4ef6-a8b3-5b61ca269ee0",
    "types": [
      "songwriters",
      "8",
      "singers",
      "2"
    ],
    "repository": "kara.moe",
    "modified_at": "2020-03-31T19:04:35.253Z"
  }
}