{
  "header": {
    "description": "Karaoke Mugen Tag File",
    "version": 1
  },
  "tag": {
    "i18n": {
      "eng": "Kana Yamazaki "
    },
    "name": "Kana Yamazaki ",
    "repository": "kara.moe",
    "tid": "addaacb7-de68-4314-81ed-9c7a989bafe9",
    "types": [
      "singers",
      "2"
    ]
  }
}