{
  "header": {
    "description": "Karaoke Mugen Tag File",
    "version": 1
  },
  "tag": {
    "i18n": {
      "eng": "Kanako Nakayama"
    },
    "modified_at": "2020-08-20T22:42:44.851Z",
    "name": "Kanako Nakayama",
    "repository": "kara.moe",
    "tid": "4c12b744-8340-44c8-ad7c-d297d7d6a377",
    "types": [
      "songwriters",
      "8"
    ]
  }
}