{
  "header": {
    "description": "Karaoke Mugen Tag File",
    "version": 1
  },
  "tag": {
    "i18n": {
      "eng": "KΛNΛ"
    },
    "name": "KΛNΛ",
    "tid": "84c6dac9-45d5-4043-be30-32ac6c6d8cb4",
    "types": [
      "singers",
      "2"
    ],
    "repository": "kara.moe",
    "modified_at": "2020-03-31T19:04:35.257Z"
  }
}