{
  "header": {
    "description": "Karaoke Mugen Tag File",
    "version": 1
  },
  "tag": {
    "i18n": {
      "eng": "Kanae Koyama"
    },
    "name": "Kanae Koyama",
    "tid": "72691741-9993-4a2c-a30b-4346a674ddd9",
    "types": [
      "songwriters",
      "8"
    ],
    "repository": "kara.moe",
    "modified_at": "2020-03-31T19:04:35.260Z"
  }
}