{
  "header": {
    "description": "Karaoke Mugen Tag File",
    "version": 1
  },
  "tag": {
    "i18n": {
      "eng": "Kanako Kotera"
    },
    "name": "Kanako Kotera",
    "tid": "d3cb28ab-30bc-4e5e-b442-b58a1701eade",
    "types": [
      "singers",
      "2"
    ],
    "repository": "kara.moe",
    "modified_at": "2020-03-31T19:04:35.265Z"
  }
}