{
  "header": {
    "description": "Karaoke Mugen Tag File",
    "version": 1
  },
  "tag": {
    "i18n": {
      "eng": "Kanako Nomura"
    },
    "modified_at": "2020-05-16T19:26:57.284Z",
    "name": "Kanako Nomura",
    "repository": "kara.moe",
    "tid": "6c546ba0-6c5a-4177-b169-d83a021453a0",
    "types": [
      "singers",
      "2"
    ]
  }
}