{
  "header": {
    "description": "Karaoke Mugen Tag File",
    "version": 1
  },
  "tag": {
    "i18n": {
      "eng": "Kanaria"
    },
    "name": "Kanaria",
    "repository": "kara.moe",
    "tid": "13b026cd-6c17-4bd1-93ab-f49335c91799",
    "types": [
      "creators",
      "4",
      "songwriters",
      "8",
      "singers",
      "2"
    ]
  }
}