{
  "header": {
    "description": "Karaoke Mugen Tag File",
    "version": 1
  },
  "tag": {
    "i18n": {
      "eng": "KANA-BOON"
    },
    "name": "KANA-BOON",
    "tid": "f643201d-124a-46e7-9599-7d9d31b668d5",
    "types": [
      "singers",
      "2",
      "songwriters",
      "8"
    ],
    "repository": "kara.moe",
    "modified_at": "2020-03-31T19:04:35.256Z"
  }
}