{
  "header": {
    "description": "Karaoke Mugen Tag File",
    "version": 1
  },
  "tag": {
    "description": {
      "eng": "Japanese songs with kana karaoke",
      "fre": "Chansons japonaises avec paroles en kana"
    },
    "i18n": {
      "eng": "Kana"
    },
    "name": "Kana",
    "repository": "kara.moe",
    "tid": "f2462778-f986-4844-a4b8-e1d3ccdb861b",
    "types": [
      "collections",
      "16"
    ]
  }
}