{
  "header": {
    "description": "Karaoke Mugen Tag File",
    "version": 1
  },
  "tag": {
    "i18n": {
      "eng": "Kane Bryant"
    },
    "name": "Kane Bryant",
    "repository": "kara.moe",
    "tid": "260d7eab-5e1c-4db2-9252-f19856603350",
    "types": [
      "songwriters",
      "8"
    ]
  }
}