{
  "header": {
    "description": "Karaoke Mugen Tag File",
    "version": 1
  },
  "tag": {
    "aliases": [
      "Kangokutou Mary Skelter",
      "kangokutou"
    ],
    "i18n": {
      "eng": "Mary Skelter: Nightmares",
      "jpn": "神獄塔 メアリスケルター",
      "qro": "Kangokutô Mary Skelter"
    },
    "modified_at": "2020-03-31T19:04:31.896Z",
    "name": "Kangokutô Mary Skelter",
    "repository": "kara.moe",
    "tid": "cd5b1265-e666-4b81-879b-d3d556dcaf17",
    "types": [
      "series",
      "1"
    ]
  }
}