{
  "header": {
    "description": "Karaoke Mugen Tag File",
    "version": 1
  },
  "tag": {
    "i18n": {
      "eng": "Kang Hye-won"
    },
    "name": "Kang Hye-won",
    "repository": "kara.moe",
    "tid": "942a282e-db55-441c-8c63-a8086a3a8d14",
    "types": [
      "singers",
      "2"
    ]
  }
}