{
  "header": {
    "description": "Karaoke Mugen Tag File",
    "version": 1
  },
  "tag": {
    "i18n": {
      "eng": "Kankuro Kudo"
    },
    "name": "Kankuro Kudo",
    "tid": "bf80e18d-e131-4c35-9b64-3ac9c8f59d3d",
    "types": [
      "songwriters",
      "8"
    ],
    "repository": "kara.moe",
    "modified_at": "2020-03-31T19:04:35.278Z"
  }
}