{
  "header": {
    "description": "Karaoke Mugen Tag File",
    "version": 1
  },
  "tag": {
    "i18n": {
      "eng": "Kanna Hashimoto"
    },
    "name": "Kanna Hashimoto",
    "tid": "435044cc-4ea8-4cf1-9542-d1427c8f7ae9",
    "types": [
      "singers",
      "2",
      "songwriters",
      "8"
    ],
    "repository": "kara.moe",
    "modified_at": "2020-03-31T19:04:35.279Z"
  }
}