{
  "header": {
    "description": "Karaoke Mugen Tag File",
    "version": 1
  },
  "tag": {
    "i18n": {
      "eng": "Birds of Kannagi",
      "jpn": "神無ノ鳥",
      "qro": "Kannagi no Tori"
    },
    "modified_at": "2020-03-31T19:04:31.897Z",
    "name": "Kannagi no Tori",
    "repository": "kara.moe",
    "tid": "6afd2d8f-c3e3-401e-ab74-b32ac505c2e6",
    "types": [
      "series",
      "1"
    ]
  }
}