{
  "header": {
    "description": "Karaoke Mugen Tag File",
    "version": 1
  },
  "tag": {
    "external_database_ids": {
      "anilist": 154745,
      "kitsu": 46489,
      "myanimelist": 53050
    },
    "i18n": {
      "eng": "Rent-a-Girlfriend Season 3",
      "qro": "Kanojo, Okarishimasu 3rd Season",
      "jpn": "彼女、お借りします"
    },
    "name": "Kanojo, Okarishimasu 3rd Season",
    "repository": "kara.moe",
    "tid": "f488bcd6-9619-46a2-9e45-508e57d92415",
    "types": [
      "series",
      "1"
    ]
  }
}