{
  "header": {
    "description": "Karaoke Mugen Tag File",
    "version": 1
  },
  "tag": {
    "aliases": [
      "Flag Story",
      "Gaworare",
      "gaworare",
      "がをられ"
    ],
    "external_database_ids": {
      "anilist": 19685,
      "myanimelist": 19685,
      "kitsu": 8011
    },
    "i18n": {
      "eng": "If Her Flag Breaks",
      "fre": "Kanojo ga Flag wo Oraretara",
      "jpn": "彼女がフラグをおられたら",
      "qro": "Kanojo ga Flag wo Oraretara"
    },
    "modified_at": "2020-06-21T23:45:31.966Z",
    "name": "Kanojo ga Flag wo Oraretara",
    "repository": "kara.moe",
    "tid": "61310442-fea0-4a1a-a051-8a6c05d69d95",
    "types": [
      "series",
      "1"
    ]
  }
}