{
  "header": {
    "description": "Karaoke Mugen Tag File",
    "version": 1
  },
  "tag": {
    "aliases": [
      "Kano Inoue"
    ],
    "i18n": {
      "eng": "Kano Inôe"
    },
    "modified_at": "2020-08-20T16:24:39.892Z",
    "name": "Kano Inôe",
    "repository": "kara.moe",
    "tid": "ab280bda-dbaa-43ba-b285-68a0ebde7ced",
    "types": [
      "songwriters",
      "8"
    ]
  }
}