{
  "header": {
    "description": "Karaoke Mugen Tag File",
    "version": 1
  },
  "tag": {
    "i18n": {
      "eng": "Kanon Wakeshima"
    },
    "name": "Kanon Wakeshima",
    "tid": "05f19984-0588-43e4-b0da-b8e145b95c91",
    "types": [
      "songwriters",
      "8",
      "singers",
      "2"
    ],
    "repository": "kara.moe",
    "modified_at": "2020-03-31T19:04:35.282Z"
  }
}