{
  "header": {
    "description": "Karaoke Mugen Tag File",
    "version": 1
  },
  "tag": {
    "i18n": {
      "eng": "Kanon Shizaki"
    },
    "modified_at": "2021-02-12T18:05:11.839Z",
    "name": "Kanon Shizaki",
    "repository": "kara.moe",
    "tid": "d66f3d52-e062-4e01-9964-30f70a8cfe0d",
    "types": [
      "singers",
      "2"
    ]
  }
}