{
  "header": {
    "description": "Karaoke Mugen Tag File",
    "version": 1
  },
  "tag": {
    "i18n": {
      "eng": "Kanon Fukuda"
    },
    "name": "Kanon Fukuda",
    "tid": "80910c8d-493d-479a-8242-3fdefa9cfa60",
    "types": [
      "singers",
      "2"
    ],
    "repository": "kara.moe",
    "modified_at": "2020-03-31T19:04:35.281Z"
  }
}