{
  "header": {
    "description": "Karaoke Mugen Tag File",
    "version": 1
  },
  "tag": {
    "i18n": {
      "eng": "Kanon"
    },
    "name": "Kanon",
    "tid": "765e2203-09a3-47a0-b017-54b06bf9d3ab",
    "types": [
      "singers",
      "2",
      "songwriters",
      "8"
    ],
    "repository": "kara.moe",
    "modified_at": "2020-03-31T19:04:35.283Z"
  }
}