{
  "header": {
    "description": "Karaoke Mugen Tag File",
    "version": 1
  },
  "tag": {
    "aliases": [
      "KanoeRana"
    ],
    "i18n": {
      "eng": "Kanoe Rana",
      "jpn": "カノエラナ",
      "qro": "Kanoe Rana"
    },
    "modified_at": "2021-05-21T13:28:52.528Z",
    "name": "Kanoe Rana",
    "repository": "kara.moe",
    "tid": "284b3b30-5040-40c7-87b7-8586a08c68e1",
    "types": [
      "singers",
      "2"
    ]
  }
}