{
  "header": {
    "description": "Karaoke Mugen Tag File",
    "version": 1
  },
  "tag": {
    "i18n": {
      "eng": "Kanye West"
    },
    "name": "Kanye West",
    "repository": "kara.moe",
    "tid": "52334e1e-c9e7-4e92-bc4c-dc6ccf3e67eb",
    "types": [
      "songwriters",
      "8"
    ]
  }
}