{
  "header": {
    "description": "Karaoke Mugen Tag File",
    "version": 1
  },
  "tag": {
    "i18n": {
      "eng": "kaoru"
    },
    "name": "kaoru",
    "tid": "004dee04-d54d-4c2a-885c-bbd1dd4cc756",
    "types": [
      "singers",
      "2"
    ],
    "repository": "kara.moe",
    "modified_at": "2020-03-31T19:04:35.302Z"
  }
}