{
  "header": {
    "description": "Karaoke Mugen Tag File",
    "version": 1
  },
  "tag": {
    "i18n": {
      "eng": "Kaoru Kondô"
    },
    "name": "Kaoru Kondô",
    "tid": "fa9eb2b5-8e14-42ec-a7bc-f140861ceead",
    "types": [
      "songwriters",
      "8"
    ],
    "repository": "kara.moe",
    "modified_at": "2020-03-31T19:04:35.299Z"
  }
}