{
  "header": {
    "description": "Karaoke Mugen Tag File",
    "version": 1
  },
  "tag": {
    "i18n": {
      "eng": "Kaoru Wada"
    },
    "modified_at": "2020-07-12T17:54:43.366Z",
    "name": "Kaoru Wada",
    "repository": "kara.moe",
    "tid": "225a9922-b081-420a-af32-f0b2bfea8534",
    "types": [
      "songwriters",
      "8"
    ]
  }
}