{
  "header": {
    "description": "Karaoke Mugen Tag File",
    "version": 1
  },
  "tag": {
    "i18n": {
      "eng": "Kaori Nazuka"
    },
    "name": "Kaori Nazuka",
    "tid": "a13dc15a-20e4-48ad-b6f2-d9df01438347",
    "types": [
      "singers",
      "2"
    ],
    "repository": "kara.moe",
    "modified_at": "2020-03-31T19:04:35.294Z"
  }
}