{
  "header": {
    "description": "Karaoke Mugen Tag File",
    "version": 1
  },
  "tag": {
    "i18n": {
      "eng": "Kaori Mochida"
    },
    "name": "Kaori Mochida",
    "tid": "ef176665-71f0-4965-9768-7dbd3fcd1cf1",
    "types": [
      "songwriters",
      "8"
    ],
    "repository": "kara.moe",
    "modified_at": "2020-03-31T19:04:35.292Z"
  }
}