{
  "header": {
    "description": "Karaoke Mugen Tag File",
    "version": 1
  },
  "tag": {
    "i18n": {
      "eng": "Kaori Miura"
    },
    "name": "Kaori Miura",
    "repository": "kara.moe",
    "tid": "02e8443a-4e3f-4e9b-a6d5-22e387400878",
    "types": [
      "songwriters",
      "8"
    ]
  }
}