{
  "header": {
    "description": "Karaoke Mugen Tag File",
    "version": 1
  },
  "tag": {
    "aliases": [
      "Kara no Shoujo: The Second Episode",
      "shoujo"
    ],
    "i18n": {
      "eng": "Kara no Shôjo: The Second Episode",
      "fre": "Kara no Shôjo: The Second Episode",
      "jpn": "虚ノ少女 2",
      "qro": "Kara no Shôjo: The Second Episode"
    },
    "modified_at": "2020-03-31T19:04:31.903Z",
    "name": "Kara no Shôjo: The Second Episode",
    "repository": "kara.moe",
    "tid": "68e66d7a-8ab8-44b0-b07c-5ab0502ecd53",
    "types": [
      "series",
      "1"
    ]
  }
}