{
  "header": {
    "description": "Karaoke Mugen Tag File",
    "version": 1
  },
  "tag": {
    "i18n": {
      "eng": "Karaage Sisters"
    },
    "modified_at": "2021-04-18T00:00:09.702Z",
    "name": "Karaage Sisters",
    "repository": "kara.moe",
    "tid": "c4f1d1ca-4355-4eb9-aaff-b495fdff5df1",
    "types": [
      "singers",
      "2"
    ]
  }
}