{
  "header": {
    "description": "Karaoke Mugen Tag File",
    "version": 1
  },
  "tag": {
    "aliases": [
      "Ningyou Zoushi Ayatsuri Sakon",
      "Puppet Master Sakon",
      "aysk",
      "Кукловодът Сакон",
      "傀儡师左近",
      "karakurizoushi"
    ],
    "external_database_ids": {
      "anilist": 2204,
      "myanimelist": 2204,
      "kitsu": 1995
    },
    "i18n": {
      "eng": "Karakurizoshi Ayatsuri Sakon",
      "fre": "Sakon le ventriloque",
      "jpn": "人形草紙あやつり左近",
      "qro": "Karakurizôshi Ayatsuri Sakon"
    },
    "modified_at": "2020-06-21T23:45:31.966Z",
    "name": "Karakurizôshi Ayatsuri Sakon",
    "repository": "kara.moe",
    "tid": "a6ae1bf9-8cea-4c95-96aa-c642f0154b1a",
    "types": [
      "series",
      "1"
    ]
  }
}