{
  "header": {
    "description": "Karaoke Mugen Tag File",
    "version": 1
  },
  "tag": {
    "i18n": {
      "eng": "Karaoke Mugen"
    },
    "name": "Karaoke Mugen",
    "tid": "5bdaba57-27f8-4568-8806-76a807728766",
    "types": [
      "authors",
      "6"
    ],
    "repository": "kara.moe",
    "modified_at": "2020-03-31T19:04:35.305Z"
  }
}