{
  "header": {
    "description": "Karaoke Mugen Tag File",
    "version": 1
  },
  "tag": {
    "i18n": {
      "eng": "Karen"
    },
    "modified_at": "2020-08-21T11:16:34.797Z",
    "name": "Karen",
    "repository": "kara.moe",
    "tid": "bbc5bff9-4328-42a9-a9a0-3f5d6e884a67",
    "types": [
      "songwriters",
      "8"
    ]
  }
}