{
  "header": {
    "description": "Karaoke Mugen Tag File",
    "version": 1
  },
  "tag": {
    "external_database_ids": {
      "anilist": 98745,
      "myanimelist": 27503,
      "kitsu": 9100
    },
    "i18n": {
      "eng": "Karen Senki",
      "jpn": "夏恋戦機",
      "qro": "Karen Senki"
    },
    "modified_at": "2020-03-31T19:04:31.907Z",
    "name": "Karen Senki",
    "repository": "kara.moe",
    "tid": "21cfb673-2f3f-4786-9dc2-535e81db2bee",
    "types": [
      "series",
      "1"
    ]
  }
}