{
  "header": {
    "description": "Karaoke Mugen Tag File",
    "version": 1
  },
  "tag": {
    "aliases": [
      "The Borrower Arrietty"
    ],
    "external_database_ids": {
      "anilist": 7711,
      "myanimelist": 7711,
      "kitsu": 5090
    },
    "i18n": {
      "eng": "The Secret World of Arrietty",
      "fre": "Arrietty, le petit monde des chapardeurs",
      "jpn": "借りぐらしのアリエッティ",
      "qro": "Karigurashi no Arietti"
    },
    "modified_at": "2020-03-31T19:04:31.909Z",
    "name": "Karigurashi no Arietti",
    "repository": "kara.moe",
    "tid": "62404b6a-d402-40ad-9ef2-35a2d1ba0505",
    "types": [
      "series",
      "1"
    ]
  }
}