{
  "header": {
    "description": "Karaoke Mugen Tag File",
    "version": 1
  },
  "tag": {
    "i18n": {
      "qro": "Karin Kagami",
      "jpn": "各務 華梨"
    },
    "name": "Karin Kagami",
    "repository": "kara.moe",
    "tid": "083195ec-0090-465d-8f6a-71369fdf468f",
    "types": [
      "songwriters",
      "8",
      "singers",
      "2"
    ]
  }
}