{
  "header": {
    "description": "Karaoke Mugen Tag File",
    "version": 1
  },
  "tag": {
    "i18n": {
      "eng": "Kase"
    },
    "name": "Kase",
    "repository": "kara.moe",
    "tid": "1b7713d1-1059-411d-a259-05c0f353615d",
    "types": [
      "singers",
      "2"
    ]
  }
}