{
  "header": {
    "description": "Karaoke Mugen Tag File",
    "version": 1
  },
  "tag": {
    "i18n": {
      "eng": "kashiwa"
    },
    "name": "kashiwa",
    "repository": "kara.moe",
    "tid": "53b7d772-045f-4ec1-a3ef-247d9462cefb",
    "types": [
      "creators",
      "4"
    ]
  }
}