{
  "header": {
    "description": "Karaoke Mugen Tag File",
    "version": 1
  },
  "tag": {
    "i18n": {
      "eng": "Kasumi Matsumura"
    },
    "name": "Kasumi Matsumura",
    "tid": "d0e17cfe-6602-4d6c-a687-30c27da348ff",
    "types": [
      "singers",
      "2"
    ],
    "repository": "kara.moe",
    "modified_at": "2020-03-31T19:04:35.315Z"
  }
}