{
  "header": {
    "description": "Karaoke Mugen Tag File",
    "version": 1
  },
  "tag": {
    "i18n": {
      "eng": "Katakoi Contrast -Way of Parting-",
      "jpn": "片恋いコントラスト ―way of parting―",
      "qro": "Katakoi Contrast -Way of Parting-"
    },
    "modified_at": "2020-03-31T19:04:31.911Z",
    "name": "Katakoi Contrast -Way of Parting-",
    "repository": "kara.moe",
    "tid": "89bef3af-66d7-4db0-8509-5545ca844f56",
    "types": [
      "series",
      "1"
    ]
  }
}