{
  "header": {
    "description": "Karaoke Mugen Tag File",
    "version": 1
  },
  "tag": {
    "aliases": [
      "Sword Stories",
      "Истории мечей",
      "Катанагатари",
      "Катанасказы",
      "قصص السيوف",
      "カタナガタリ",
      "刀语"
    ],
    "external_database_ids": {
      "anilist": 6594,
      "myanimelist": 6594,
      "kitsu": 4630
    },
    "i18n": {
      "eng": "Katanagatari",
      "jpn": "刀語",
      "qro": "Katanagatari"
    },
    "modified_at": "2020-03-31T19:04:31.912Z",
    "name": "Katanagatari",
    "repository": "kara.moe",
    "tid": "4fbf69ef-45f0-42d0-a096-74cc5be72ed1",
    "types": [
      "series",
      "1",
      "franchises",
      "18"
    ]
  }
}