{
  "header": {
    "description": "Karaoke Mugen Tag File",
    "version": 1
  },
  "tag": {
    "i18n": {
      "jpn": "塊",
      "qro": "Katamari"
    },
    "name": "Katamari",
    "repository": "kara.moe",
    "tid": "7ba21ae9-2a52-4da7-87b7-e8762e9f27b9",
    "types": [
      "franchises",
      "18"
    ]
  }
}