{
  "header": {
    "description": "Karaoke Mugen Tag File",
    "version": 1
  },
  "tag": {
    "i18n": {
      "eng": "Kate Shindle"
    },
    "name": "Kate Shindle",
    "tid": "d052cff0-5a0d-4d61-8dc1-a1b4a3b57669",
    "types": [
      "singers",
      "2"
    ],
    "repository": "kara.moe",
    "modified_at": "2020-03-31T19:04:35.318Z"
  }
}