{
  "header": {
    "description": "Karaoke Mugen Tag File",
    "version": 1
  },
  "tag": {
    "i18n": {
      "eng": "Kate Ryan"
    },
    "modified_at": "2021-06-05T19:20:54.849Z",
    "name": "Kate Ryan",
    "repository": "kara.moe",
    "tid": "56791dc3-5580-4629-9324-8d7f3a5d082e",
    "types": [
      "singers",
      "2"
    ]
  }
}