{
  "header": {
    "description": "Karaoke Mugen Tag File",
    "version": 1
  },
  "tag": {
    "i18n": {
      "eng": "Katkat_Mountain"
    },
    "modified_at": "2021-09-29T20:53:40.155Z",
    "name": "Katkat_Mountain",
    "repository": "kara.moe",
    "tid": "b8fdacc0-3529-4760-83c8-3eb8cfccfcce",
    "types": [
      "authors",
      "6"
    ]
  }
}