{
  "header": {
    "description": "Karaoke Mugen Tag File",
    "version": 1
  },
  "tag": {
    "i18n": {
      "eng": "katms"
    },
    "name": "katms",
    "repository": "kara.moe",
    "tid": "4a380826-aee5-4128-9761-e598156c6480",
    "types": [
      "songwriters",
      "8"
    ]
  }
}