{
  "header": {
    "description": "Karaoke Mugen Tag File",
    "version": 1
  },
  "tag": {
    "i18n": {
      "eng": "Katsue Miwa"
    },
    "name": "Katsue Miwa",
    "repository": "kara.moe",
    "tid": "fd11e6b7-dae0-4607-8cd4-0a8d095b3649",
    "types": [
      "singers",
      "2"
    ],
    "modified_at": "2020-03-31T19:04:35.320Z"
  }
}