{
  "header": {
    "description": "Karaoke Mugen Tag File",
    "version": 1
  },
  "tag": {
    "i18n": {
      "eng": "Katsuyuki Nakanishi"
    },
    "name": "Katsuyuki Nakanishi",
    "tid": "a071b2fd-11b3-4c86-a7c6-5fa4952da0a3",
    "types": [
      "singers",
      "2"
    ],
    "repository": "kara.moe",
    "modified_at": "2020-03-31T19:04:35.333Z"
  }
}