{
  "header": {
    "description": "Karaoke Mugen Tag File",
    "version": 1
  },
  "tag": {
    "i18n": {
      "eng": "Katsuya (UVERworld)"
    },
    "name": "Katsuya (UVERworld)",
    "tid": "02982ac7-e563-4c4d-aba2-fcb56ac2952d",
    "types": [
      "songwriters",
      "8"
    ],
    "repository": "kara.moe",
    "modified_at": "2020-03-31T19:04:35.330Z"
  }
}