{
  "header": {
    "description": "Karaoke Mugen Tag File",
    "version": 1
  },
  "tag": {
    "i18n": {
      "jpn": "高橋 克行",
      "qro": "Katsuyuki Takahashi"
    },
    "name": "Katsuyuki Takahashi",
    "repository": "kara.moe",
    "tid": "503f35cc-e8f0-49cc-9b50-67cc7fe25be3",
    "types": [
      "songwriters",
      "8"
    ]
  }
}