{
  "header": {
    "description": "Karaoke Mugen Tag File",
    "version": 1
  },
  "tag": {
    "i18n": {
      "eng": "Kattu"
    },
    "name": "Kattu",
    "repository": "kara.moe",
    "tid": "78554100-236b-4cff-9088-2093cfedcf00",
    "types": [
      "singers",
      "2",
      "creators",
      "4"
    ]
  }
}