{
  "header": {
    "description": "Karaoke Mugen Tag File",
    "version": 1
  },
  "tag": {
    "i18n": {
      "eng": "Kavinsky"
    },
    "name": "Kavinsky",
    "repository": "kara.moe",
    "tid": "e5b9b283-d6b0-4559-867e-46eb4fc055d8",
    "types": [
      "singers",
      "2",
      "songwriters",
      "8"
    ]
  }
}