{
  "header": {
    "description": "Karaoke Mugen Tag File",
    "version": 1
  },
  "tag": {
    "i18n": {
      "eng": "Kâya Date"
    },
    "modified_at": "2021-10-06T23:09:33.221Z",
    "name": "Kâya Date",
    "repository": "kara.moe",
    "tid": "dca77f2b-011d-419d-bf3e-1b79fce3bd1c",
    "types": [
      "singers",
      "2"
    ]
  }
}