{
  "header": {
    "description": "Karaoke Mugen Tag File",
    "version": 1
  },
  "tag": {
    "i18n": {
      "eng": "Kaya Okuno"
    },
    "name": "Kaya Okuno",
    "tid": "1b92667f-9860-4539-8ef7-12d5a0a118c8",
    "types": [
      "singers",
      "2"
    ],
    "repository": "kara.moe",
    "modified_at": "2020-03-31T19:04:35.338Z"
  }
}