{
  "header": {
    "description": "Karaoke Mugen Tag File",
    "version": 1
  },
  "tag": {
    "i18n": {
      "eng": "Kaya Matsutani"
    },
    "name": "Kaya Matsutani",
    "tid": "916814ee-17d5-4f28-a31f-e8a02503781d",
    "types": [
      "singers",
      "2"
    ],
    "repository": "kara.moe",
    "modified_at": "2020-03-31T19:04:35.337Z"
  }
}