{
  "header": {
    "description": "Karaoke Mugen Tag File",
    "version": 1
  },
  "tag": {
    "i18n": {
      "eng": "Kayo Sakata"
    },
    "name": "Kayo Sakata",
    "tid": "7f2d4466-7e3b-42e2-afcd-974ef3b5472e",
    "types": [
      "singers",
      "2"
    ],
    "repository": "kara.moe",
    "modified_at": "2020-03-31T19:04:35.338Z"
  }
}