{
  "header": {
    "description": "Karaoke Mugen Tag File",
    "version": 1
  },
  "tag": {
    "i18n": {
      "eng": "Kayoko"
    },
    "name": "Kayoko",
    "tid": "bdd16538-894b-400f-b85d-45b591b29d3c",
    "types": [
      "songwriters",
      "8"
    ],
    "repository": "kara.moe",
    "modified_at": "2020-03-31T19:04:35.343Z"
  }
}