{
  "header": {
    "description": "Karaoke Mugen Tag File",
    "version": 1
  },
  "tag": {
    "i18n": {
      "eng": "Kaz Kawamura"
    },
    "name": "Kaz Kawamura",
    "repository": "kara.moe",
    "tid": "fe86ccbd-5939-4b25-8d12-62c1440d6a10",
    "types": [
      "songwriters",
      "8"
    ],
    "modified_at": "2020-03-31T19:04:35.344Z"
  }
}