{
  "header": {
    "description": "Karaoke Mugen Tag File",
    "version": 1
  },
  "tag": {
    "i18n": {
      "eng": "KAZAMI"
    },
    "name": "KAZAMI",
    "tid": "5fb8df91-c9fe-474d-997a-81c0e7a65b44",
    "types": [
      "songwriters",
      "8"
    ],
    "repository": "kara.moe",
    "modified_at": "2020-03-31T19:04:35.346Z"
  }
}