{
  "header": {
    "description": "Karaoke Mugen Tag File",
    "version": 1
  },
  "tag": {
    "aliases": [
      "Die schweizer Familie Robinson",
      "Robinson Family Lost at Sea: Flone of the Marvelous Island",
      "hyouryuuki"
    ],
    "external_database_ids": {
      "anilist": 2544,
      "myanimelist": 2544,
      "kitsu": 2309
    },
    "i18n": {
      "ara": "فلونة",
      "dut": "De Familie Robinson",
      "eng": "Swiss Family Robinson",
      "fre": "Flo et les Robinson suisses",
      "ger": "Familie Robinson",
      "glg": "A Familia Robinson",
      "ita": "Flo, la piccola Robinson",
      "jpn": "家族ロビンソン漂流記ふしぎな島のフローネ",
      "per": "خانواده دکتر اِرنِست",
      "por": "A Família Robinson",
      "rus": "Флона на чудесном острове",
      "spa": "La familia Robinson",
      "qro": "Kazoku Robinson Hyôryûki: Fushigi na Shima no Flone"
    },
    "modified_at": "2020-06-21T23:45:31.966Z",
    "name": "Kazoku Robinson Hyôryûki: Fushigi na Shima no Flone",
    "repository": "kara.moe",
    "tid": "843bf2a8-bc27-4dc1-9bc1-22e5f5d6831d",
    "types": [
      "series",
      "1"
    ]
  }
}