{
  "header": {
    "description": "Karaoke Mugen Tag File",
    "version": 1
  },
  "tag": {
    "i18n": {
      "eng": "kaztora"
    },
    "name": "kaztora",
    "repository": "kara.moe",
    "tid": "9677e10e-aa5b-4d1d-9861-df3a624bb8d9",
    "types": [
      "songwriters",
      "8"
    ]
  }
}