{
  "header": {
    "description": "Karaoke Mugen Tag File",
    "version": 1
  },
  "tag": {
    "i18n": {
      "eng": "Kazuto Satô"
    },
    "name": "Kazuto Satô",
    "tid": "f0c9b7ae-e4e8-47c1-a100-8edd97b2c562",
    "types": [
      "songwriters",
      "8"
    ],
    "repository": "kara.moe",
    "modified_at": "2020-03-31T19:04:35.380Z"
  }
}