{
  "header": {
    "description": "Karaoke Mugen Tag File",
    "version": 1
  },
  "tag": {
    "i18n": {
      "eng": "Kazuhiro Yamahara"
    },
    "name": "Kazuhiro Yamahara",
    "tid": "0de0a59b-c1dd-401f-aaf5-23c6ac649783",
    "types": [
      "songwriters",
      "8"
    ],
    "repository": "kara.moe",
    "modified_at": "2020-03-31T19:04:35.357Z"
  }
}