{
  "header": {
    "description": "Karaoke Mugen Tag File",
    "version": 1
  },
  "tag": {
    "i18n": {
      "eng": "Kazusa Aranami"
    },
    "name": "Kazusa Aranami",
    "tid": "043e0862-458d-4803-8c55-41c378ab4877",
    "types": [
      "singers",
      "2"
    ],
    "repository": "kara.moe",
    "modified_at": "2020-03-31T19:04:35.376Z"
  }
}