{
  "header": {
    "description": "Karaoke Mugen Tag File",
    "version": 1
  },
  "tag": {
    "i18n": {
      "eng": "Kazuhiko Maeda"
    },
    "name": "Kazuhiko Maeda",
    "tid": "85a9aad9-a19b-4f69-9c26-13ce1c099329",
    "types": [
      "songwriters",
      "8"
    ],
    "repository": "kara.moe",
    "modified_at": "2020-03-31T19:04:35.352Z"
  }
}