{
  "header": {
    "description": "Karaoke Mugen Tag File",
    "version": 1
  },
  "tag": {
    "i18n": {
      "eng": "Kazuhito Kikuchi"
    },
    "name": "Kazuhito Kikuchi",
    "tid": "37c9b852-b244-440e-a9e6-06bc95ef297e",
    "types": [
      "songwriters",
      "8"
    ],
    "repository": "kara.moe",
    "modified_at": "2020-03-31T19:04:35.357Z"
  }
}