{
  "header": {
    "description": "Karaoke Mugen Tag File",
    "version": 1
  },
  "tag": {
    "aliases": [
      "Satou"
    ],
    "i18n": {
      "eng": "Kazuki Satô",
      "jpn": "佐藤カズキ",
      "qro": "Kazuki Satô"
    },
    "name": "Kazuki Satô",
    "repository": "kara.moe",
    "tid": "8b7616d8-50c6-43cb-864f-82cd1e2c747d",
    "types": [
      "songwriters",
      "8"
    ]
  }
}