{
  "header": {
    "description": "Karaoke Mugen Tag File",
    "version": 1
  },
  "tag": {
    "i18n": {
      "eng": "Kazuya Yoshii"
    },
    "name": "Kazuya Yoshii",
    "tid": "d95e4236-5009-414e-a1b5-5165d2e6a7b5",
    "types": [
      "singers",
      "2",
      "songwriters",
      "8"
    ],
    "repository": "kara.moe",
    "modified_at": "2020-03-31T19:04:35.388Z"
  }
}