{
  "header": {
    "description": "Karaoke Mugen Tag File",
    "version": 1
  },
  "tag": {
    "i18n": {
      "eng": "Kazushi Suzuki"
    },
    "name": "Kazushi Suzuki",
    "tid": "2808c0e2-5a92-4a59-ad47-da59e9e407ca",
    "types": [
      "songwriters",
      "8"
    ],
    "repository": "kara.moe",
    "modified_at": "2020-03-31T19:04:35.377Z"
  }
}