{
  "header": {
    "description": "Karaoke Mugen Tag File",
    "version": 1
  },
  "tag": {
    "aliases": [
      "Kazu Boy"
    ],
    "i18n": {
      "jpn": "かずぼーい",
      "qro": "kazuboy"
    },
    "name": "kazuboy",
    "repository": "kara.moe",
    "tid": "b4b7ec69-0f8f-4d22-ae25-7ea3de2137c4",
    "types": [
      "songwriters",
      "8"
    ]
  }
}