{
  "header": {
    "description": "Karaoke Mugen Tag File",
    "version": 1
  },
  "tag": {
    "i18n": {
      "eng": "Kazuya Ôhashi",
      "qro": "Kazuya Ôhashi",
      "jpn": "大橋和也"
    },
    "name": "Kazuya Ôhashi",
    "repository": "kara.moe",
    "tid": "60a2af83-7be9-4366-896e-ee07b5bbc6d7",
    "types": [
      "singers",
      "2"
    ]
  }
}