{
  "header": {
    "description": "Karaoke Mugen Tag File",
    "version": 1
  },
  "tag": {
    "i18n": {
      "eng": "Kazuma Itô"
    },
    "name": "Kazuma Itô",
    "tid": "cad149e8-4b88-488f-98ae-3fcf44ffc570",
    "types": [
      "songwriters",
      "8"
    ],
    "repository": "kara.moe",
    "modified_at": "2020-03-31T19:04:35.361Z"
  }
}