{
  "header": {
    "description": "Karaoke Mugen Tag File",
    "version": 1
  },
  "tag": {
    "i18n": {
      "eng": "KAZUO"
    },
    "name": "KAZUO",
    "repository": "kara.moe",
    "tid": "fb07003e-22fc-4b9a-a35e-cc384c1df358",
    "types": [
      "songwriters",
      "8"
    ]
  }
}