{
  "header": {
    "description": "Karaoke Mugen Tag File",
    "version": 1
  },
  "tag": {
    "i18n": {
      "eng": "Kazunori Fujimoto"
    },
    "name": "Kazunori Fujimoto",
    "tid": "57fc06e1-e3e2-47cd-a4a4-59c54ac3100b",
    "types": [
      "songwriters",
      "8"
    ],
    "repository": "kara.moe",
    "modified_at": "2020-03-31T19:04:35.370Z"
  }
}