{
  "header": {
    "description": "Karaoke Mugen Tag File",
    "version": 1
  },
  "tag": {
    "i18n": {
      "eng": "Kazuyoshi Saitô"
    },
    "name": "Kazuyoshi Saitô",
    "tid": "a11ea980-8f50-4b51-9208-e5d580d138b6",
    "types": [
      "singers",
      "2",
      "songwriters",
      "8"
    ],
    "repository": "kara.moe",
    "modified_at": "2020-03-31T19:04:35.389Z"
  }
}