{
  "header": {
    "description": "Karaoke Mugen Tag File",
    "version": 1
  },
  "tag": {
    "i18n": {
      "qro": "Kazuma Moroishi",
      "jpn": "諸石 和馬"
    },
    "name": "Kazuma Moroishi",
    "repository": "kara.moe",
    "tid": "f38453e6-44d4-497e-903d-eb46133c9010",
    "types": [
      "songwriters",
      "8"
    ]
  }
}