{
  "header": {
    "description": "Karaoke Mugen Tag File",
    "version": 1
  },
  "tag": {
    "i18n": {
      "eng": "Kazue Ikura"
    },
    "name": "Kazue Ikura",
    "tid": "72237cd4-914e-4b13-b61f-74ea06f41f01",
    "types": [
      "singers",
      "2"
    ],
    "repository": "kara.moe",
    "modified_at": "2020-03-31T19:04:35.349Z"
  }
}