{
  "header": {
    "description": "Karaoke Mugen Tag File",
    "version": 1
  },
  "tag": {
    "i18n": {
      "eng": "Kazuhiro Hara"
    },
    "name": "Kazuhiro Hara",
    "tid": "a96154d0-c6e0-494b-b8e6-bb26228b595b",
    "types": [
      "songwriters",
      "8"
    ],
    "repository": "kara.moe",
    "modified_at": "2020-03-31T19:04:35.353Z"
  }
}