{
  "header": {
    "description": "Karaoke Mugen Tag File",
    "version": 1
  },
  "tag": {
    "i18n": {
      "eng": "Kazuo Yoda"
    },
    "name": "Kazuo Yoda",
    "tid": "08475c85-a515-4521-8072-b950baeff11a",
    "types": [
      "songwriters",
      "8"
    ],
    "repository": "kara.moe",
    "modified_at": "2020-03-31T19:04:35.375Z"
  }
}