{
  "header": {
    "description": "Karaoke Mugen Tag File",
    "version": 1
  },
  "tag": {
    "i18n": {
      "eng": "Kazuma Nagasawa"
    },
    "name": "Kazuma Nagasawa",
    "repository": "kara.moe",
    "tid": "2e19d29c-b48c-47c6-9039-a29931e4fe68",
    "types": [
      "songwriters",
      "8"
    ]
  }
}