{
  "header": {
    "description": "Karaoke Mugen Tag File",
    "version": 1
  },
  "tag": {
    "i18n": {
      "jpn": "坂田 和子",
      "qro": "Kazuko Sakata"
    },
    "name": "Kazuko Sakata",
    "repository": "kara.moe",
    "tid": "28c01dab-3cb3-4a75-9ec7-cdbf52613ea7",
    "types": [
      "songwriters",
      "8"
    ]
  }
}