{
  "header": {
    "description": "Karaoke Mugen Tag File",
    "version": 1
  },
  "tag": {
    "i18n": {
      "eng": "Kazutomi Yamamoto"
    },
    "name": "Kazutomi Yamamoto",
    "tid": "0eb56601-d89d-472e-9f93-69486c1552a7",
    "types": [
      "singers",
      "2"
    ],
    "repository": "kara.moe",
    "modified_at": "2020-03-31T19:04:35.381Z"
  }
}