{
  "header": {
    "description": "Karaoke Mugen Tag File",
    "version": 1
  },
  "tag": {
    "i18n": {
      "eng": "Kazuhiro Ochi"
    },
    "name": "Kazuhiro Ochi",
    "tid": "9b8c95b4-fdde-498a-8a5d-f7b436904d48",
    "types": [
      "songwriters",
      "8"
    ],
    "repository": "kara.moe",
    "modified_at": "2020-03-31T19:04:35.355Z"
  }
}