{
  "header": {
    "description": "Karaoke Mugen Tag File",
    "version": 1
  },
  "tag": {
    "i18n": {
      "eng": "Kazuya Takase"
    },
    "name": "Kazuya Takase",
    "tid": "03e272ce-1c50-4706-a431-d49f48a5dd62",
    "types": [
      "songwriters",
      "8"
    ],
    "repository": "kara.moe",
    "modified_at": "2020-03-31T19:04:35.387Z"
  }
}