{
  "header": {
    "description": "Karaoke Mugen Tag File",
    "version": 1
  },
  "tag": {
    "i18n": {
      "eng": "Kazuma Nanbu"
    },
    "name": "Kazuma Nanbu",
    "repository": "kara.moe",
    "tid": "41467aa4-f694-481f-9865-1c201f4696d4",
    "types": [
      "songwriters",
      "8"
    ],
    "modified_at": "2020-03-31T19:04:35.363Z"
  }
}