{
  "header": {
    "description": "Karaoke Mugen Tag File",
    "version": 1
  },
  "tag": {
    "i18n": {
      "eng": "Kazuko Matsumura"
    },
    "name": "Kazuko Matsumura",
    "repository": "kara.moe",
    "tid": "9397c0c9-5199-4943-8ba6-918b3b705884",
    "types": [
      "singers",
      "2"
    ]
  }
}