{
  "header": {
    "description": "Karaoke Mugen Tag File",
    "version": 1
  },
  "tag": {
    "i18n": {
      "eng": "Kazuki Sakai"
    },
    "name": "Kazuki Sakai",
    "tid": "e2b90d87-7794-4901-9d14-5ef61fc14a10",
    "types": [
      "songwriters",
      "8"
    ],
    "repository": "kara.moe",
    "modified_at": "2020-03-31T19:04:35.359Z"
  }
}