{
  "header": {
    "description": "Karaoke Mugen Tag File",
    "version": 1
  },
  "tag": {
    "i18n": {
      "eng": "Kazuya Saka"
    },
    "name": "Kazuya Saka",
    "repository": "kara.moe",
    "tid": "789541a3-dd4f-44f3-a8df-bcbc41a57064",
    "types": [
      "songwriters",
      "8"
    ]
  }
}