{
  "header": {
    "description": "Karaoke Mugen Tag File",
    "version": 1
  },
  "tag": {
    "i18n": {
      "eng": "Kazuya Daimon"
    },
    "name": "Kazuya Daimon",
    "tid": "d4c8fd6e-dc99-4757-93f9-de70f2d21936",
    "types": [
      "songwriters",
      "8"
    ],
    "repository": "kara.moe",
    "modified_at": "2020-03-31T19:04:35.384Z"
  }
}