{
  "header": {
    "description": "Karaoke Mugen Tag File",
    "version": 1
  },
  "tag": {
    "i18n": {
      "eng": "Kazumi Evans"
    },
    "name": "Kazumi Evans",
    "tid": "8510884d-7af0-483f-8f31-26f39780fbe9",
    "types": [
      "singers",
      "2"
    ],
    "repository": "kara.moe",
    "modified_at": "2020-03-31T19:04:35.364Z"
  }
}