{
  "header": {
    "description": "Karaoke Mugen Tag File",
    "version": 1
  },
  "tag": {
    "i18n": {
      "eng": "Kazuki Yao"
    },
    "name": "Kazuki Yao",
    "tid": "3997c037-c080-46c0-9233-4049d1fe97df",
    "types": [
      "singers",
      "2"
    ],
    "repository": "kara.moe",
    "modified_at": "2020-03-31T19:04:35.360Z"
  }
}