{
  "header": {
    "description": "Karaoke Mugen Tag File",
    "version": 1
  },
  "tag": {
    "aliases": [
      "Kazuo Satou"
    ],
    "i18n": {
      "eng": "Kazuo Satô"
    },
    "modified_at": "2020-08-18T21:40:13.512Z",
    "name": "Kazuo Satô",
    "repository": "kara.moe",
    "tid": "9ce1c6a5-5d75-4118-8ef1-0fc2285abf29",
    "types": [
      "songwriters",
      "8"
    ]
  }
}