{
  "header": {
    "description": "Karaoke Mugen Tag File",
    "version": 1
  },
  "tag": {
    "i18n": {
      "eng": "Kazuo Kumakura"
    },
    "name": "Kazuo Kumakura",
    "tid": "18b7e0fb-3382-4884-8aff-133caf9fdfca",
    "types": [
      "singers",
      "2"
    ],
    "repository": "kara.moe",
    "modified_at": "2020-03-31T19:04:35.374Z"
  }
}