{
  "header": {
    "description": "Karaoke Mugen Tag File",
    "version": 1
  },
  "tag": {
    "i18n": {
      "eng": "Kebin Smith"
    },
    "name": "Kebin Smith",
    "tid": "adeb45ba-e611-452d-8c93-e32eb200685e",
    "types": [
      "singers",
      "2"
    ],
    "repository": "kara.moe",
    "modified_at": "2020-03-31T19:04:35.392Z"
  }
}