{
  "header": {
    "description": "Karaoke Mugen Tag File",
    "version": 1
  },
  "tag": {
    "i18n": {
      "eng": "keeno"
    },
    "name": "keeno",
    "tid": "0f4e62a4-ed30-45cf-b7eb-f1e4ceb597aa",
    "types": [
      "songwriters",
      "8"
    ],
    "repository": "kara.moe",
    "modified_at": "2020-03-31T19:04:35.393Z"
  }
}