{
  "header": {
    "description": "Karaoke Mugen Tag File",
    "version": 1
  },
  "tag": {
    "i18n": {
      "eng": "KefkaProduction"
    },
    "name": "KefkaProduction",
    "tid": "facb4775-42ae-4bbf-b384-4c93c92c0ac3",
    "types": [
      "creators",
      "4"
    ],
    "repository": "kara.moe",
    "modified_at": "2020-03-31T19:04:35.394Z"
  }
}