{
  "header": {
    "description": "Karaoke Mugen Tag File",
    "version": 1
  },
  "tag": {
    "i18n": {
      "eng": "Kegani"
    },
    "name": "Kegani",
    "tid": "23529873-be25-4282-84fd-080a6477c428",
    "types": [
      "songwriters",
      "8"
    ],
    "repository": "kara.moe",
    "modified_at": "2020-03-31T19:04:35.394Z"
  }
}