{
  "header": {
    "description": "Karaoke Mugen Tag File",
    "version": 1
  },
  "tag": {
    "i18n": {
      "eng": "Kei Nagao"
    },
    "name": "Kei Nagao",
    "repository": "kara.moe",
    "tid": "fe625831-3e91-4287-97fc-c827f3082520",
    "types": [
      "singers",
      "2"
    ]
  }
}