{
  "header": {
    "description": "Karaoke Mugen Tag File",
    "version": 1
  },
  "tag": {
    "i18n": {
      "eng": "Kei Tomoe"
    },
    "name": "Kei Tomoe",
    "repository": "kara.moe",
    "tid": "0f10c676-7681-4a2c-a34a-23b72e55ec58",
    "types": [
      "singers",
      "2"
    ]
  }
}