{
  "header": {
    "description": "Karaoke Mugen Tag File",
    "version": 1
  },
  "tag": {
    "i18n": {
      "eng": "Kei Isojima"
    },
    "modified_at": "2020-11-04T16:56:53.793Z",
    "name": "Kei Isojima",
    "repository": "kara.moe",
    "tid": "c0cbf87b-4434-40d4-b3ec-e6545187e07a",
    "types": [
      "creators",
      "4"
    ]
  }
}