{
  "header": {
    "description": "Karaoke Mugen Tag File",
    "version": 1
  },
  "tag": {
    "i18n": {
      "eng": "Kei Haneoka",
      "jpn": "羽岡 佳",
      "qro": "Kei Haneoka"
    },
    "name": "Kei Haneoka",
    "repository": "kara.moe",
    "tid": "537891f7-5f83-46ae-94fd-937e92f818c2",
    "types": [
      "songwriters",
      "8"
    ]
  }
}