{
  "header": {
    "description": "Karaoke Mugen Tag File",
    "version": 1
  },
  "tag": {
    "i18n": {
      "eng": "Kei Takahara"
    },
    "name": "Kei Takahara",
    "tid": "1e128d00-5cdb-4d4d-af33-caed75d231b8",
    "types": [
      "songwriters",
      "8"
    ],
    "repository": "kara.moe",
    "modified_at": "2020-03-31T19:04:35.397Z"
  }
}