{
  "header": {
    "description": "Karaoke Mugen Tag File",
    "version": 1
  },
  "tag": {
    "i18n": {
      "eng": "KEIGO"
    },
    "name": "KEIGO",
    "tid": "6a88984a-ec66-4027-b53c-66fb74ea3ab9",
    "types": [
      "songwriters",
      "8"
    ],
    "repository": "kara.moe",
    "modified_at": "2020-03-31T19:04:35.401Z"
  }
}