{
  "header": {
    "description": "Karaoke Mugen Tag File",
    "version": 1
  },
  "tag": {
    "i18n": {
      "eng": "Keigo Iwase"
    },
    "name": "Keigo Iwase",
    "tid": "941d089a-3e7e-4ffc-8a93-4c3c0746c9fc",
    "types": [
      "singers",
      "2",
      "songwriters",
      "8"
    ],
    "repository": "kara.moe",
    "modified_at": "2020-03-31T19:04:35.400Z"
  }
}