{
  "header": {
    "description": "Karaoke Mugen Tag File",
    "version": 1
  },
  "tag": {
    "i18n": {
      "eng": "Keiichi Kudou"
    },
    "name": "Keiichi Kudou",
    "tid": "46b3da58-c2e6-4cc4-8d60-948b03aa6fbe",
    "types": [
      "songwriters",
      "8"
    ],
    "repository": "kara.moe",
    "modified_at": "2020-03-31T19:04:35.403Z"
  }
}