{
  "header": {
    "description": "Karaoke Mugen Tag File",
    "version": 1
  },
  "tag": {
    "i18n": {
      "eng": "Keiichi Hirokawa"
    },
    "name": "Keiichi Hirokawa",
    "tid": "fa5642c5-e986-4ef6-92ca-e100df0e615f",
    "types": [
      "songwriters",
      "8"
    ],
    "repository": "kara.moe",
    "modified_at": "2020-03-31T19:04:35.402Z"
  }
}