{
  "header": {
    "description": "Karaoke Mugen Tag File",
    "version": 1
  },
  "tag": {
    "i18n": {
      "eng": "Keiichi Kondô"
    },
    "name": "Keiichi Kondô",
    "tid": "eea5c8be-6240-48c2-aa7a-49acc6b4ebbc",
    "types": [
      "songwriters",
      "8"
    ],
    "repository": "kara.moe",
    "modified_at": "2020-03-31T19:04:35.403Z"
  }
}