{
  "header": {
    "description": "Karaoke Mugen Tag File",
    "version": 1
  },
  "tag": {
    "i18n": {
      "eng": "Keiichi Ogawa"
    },
    "name": "Keiichi Ogawa",
    "tid": "c0b3e771-d0c9-4ef1-94ca-6d6d072d8318",
    "types": [
      "songwriters",
      "8"
    ],
    "repository": "kara.moe",
    "modified_at": "2020-03-31T19:04:35.404Z"
  }
}