{
  "header": {
    "description": "Karaoke Mugen Tag File",
    "version": 1
  },
  "tag": {
    "i18n": {
      "eng": "Keiji"
    },
    "name": "Keiji",
    "tid": "ea3bdc24-3517-4fd7-90c1-0206e5a90c33",
    "types": [
      "songwriters",
      "8"
    ],
    "repository": "kara.moe",
    "modified_at": "2020-03-31T19:04:35.412Z"
  }
}