{
  "header": {
    "description": "Karaoke Mugen Tag File",
    "version": 1
  },
  "tag": {
    "i18n": {
      "eng": "Keiji Ayahara"
    },
    "name": "Keiji Ayahara",
    "tid": "ced9dff5-beb0-46ce-8bdd-650f4cc07443",
    "types": [
      "songwriters",
      "8"
    ],
    "repository": "kara.moe",
    "modified_at": "2020-03-31T19:04:35.409Z"
  }
}