{
  "header": {
    "description": "Karaoke Mugen Tag File",
    "version": 1
  },
  "tag": {
    "i18n": {
      "eng": "Keiji Katayama"
    },
    "name": "Keiji Katayama",
    "tid": "5484da8f-eb0c-4032-a338-d41339f616d5",
    "types": [
      "songwriters",
      "8"
    ],
    "repository": "kara.moe",
    "modified_at": "2020-03-31T19:04:35.411Z"
  }
}