{
  "header": {
    "description": "Karaoke Mugen Tag File",
    "version": 1
  },
  "tag": {
    "i18n": {
      "eng": "Keiji Muranaka"
    },
    "name": "Keiji Muranaka",
    "repository": "kara.moe",
    "tid": "3fb4dabd-1b3f-4c70-a4f7-2f8e445f4ead",
    "types": [
      "songwriters",
      "8"
    ]
  }
}