{
  "header": {
    "description": "Karaoke Mugen Tag File",
    "version": 1
  },
  "tag": {
    "i18n": {
      "eng": "Keiju Ishikawa"
    },
    "name": "Keiju Ishikawa",
    "tid": "7548c4a6-5ba3-4ebe-88e9-af656ecb6458",
    "types": [
      "songwriters",
      "8"
    ],
    "repository": "kara.moe",
    "modified_at": "2020-03-31T19:04:35.413Z"
  }
}