{
  "header": {
    "description": "Karaoke Mugen Tag File",
    "version": 1
  },
  "tag": {
    "i18n": {
      "eng": "Keiji Anazawa"
    },
    "name": "Keiji Anazawa",
    "tid": "b3a995b3-6627-44cb-8096-33f6ba9fbc74",
    "types": [
      "songwriters",
      "8"
    ],
    "repository": "kara.moe",
    "modified_at": "2020-03-31T19:04:35.409Z"
  }
}