{
  "header": {
    "description": "Karaoke Mugen Tag File",
    "version": 1
  },
  "tag": {
    "i18n": {
      "eng": "Keiko Toda"
    },
    "name": "Keiko Toda",
    "tid": "298b1124-b7de-498e-986f-95bfff057e6d",
    "types": [
      "singers",
      "2"
    ],
    "repository": "kara.moe",
    "modified_at": "2020-03-31T19:04:35.418Z"
  }
}