{
  "header": {
    "description": "Karaoke Mugen Tag File",
    "version": 1
  },
  "tag": {
    "i18n": {
      "eng": "Keiko Utoko"
    },
    "name": "Keiko Utoko",
    "tid": "b12fdfae-5edf-42aa-b04b-f6a4480f8aa9",
    "types": [
      "singers",
      "2",
      "songwriters",
      "8"
    ],
    "repository": "kara.moe",
    "modified_at": "2020-03-31T19:04:35.420Z"
  }
}