{
  "header": {
    "description": "Karaoke Mugen Tag File",
    "version": 1
  },
  "tag": {
    "i18n": {
      "eng": "Keiki Nishida",
      "jpn": "西田圭稀",
      "qro": "Keiki Nishida"
    },
    "name": "Keiki Nishida",
    "repository": "kara.moe",
    "tid": "3d0f8e1a-dfe6-424a-af36-85f2fc0a4850",
    "types": [
      "songwriters",
      "8"
    ]
  }
}