{
  "header": {
    "description": "Karaoke Mugen Tag File",
    "version": 1
  },
  "tag": {
    "i18n": {
      "eng": "Keiko Shiga"
    },
    "name": "Keiko Shiga",
    "tid": "15a864f9-a250-4af2-8b5f-86fb875ddc69",
    "types": [
      "songwriters",
      "8"
    ],
    "repository": "kara.moe",
    "modified_at": "2020-03-31T19:04:35.417Z"
  }
}