{
  "header": {
    "description": "Karaoke Mugen Tag File",
    "version": 1
  },
  "tag": {
    "i18n": {
      "eng": "Keiko Ueno"
    },
    "name": "Keiko Ueno",
    "tid": "03020a1b-a3ac-4650-ae5f-d854af1144b0",
    "types": [
      "songwriters",
      "8"
    ],
    "repository": "kara.moe",
    "modified_at": "2020-03-31T19:04:35.419Z"
  }
}