{
  "header": {
    "description": "Karaoke Mugen Tag File",
    "version": 1
  },
  "tag": {
    "i18n": {
      "eng": "Keina Suda",
      "jpn": "須田景凪",
      "qro": "Keina Suda"
    },
    "name": "Keina Suda",
    "repository": "kara.moe",
    "tid": "c8b196d3-923c-48f9-b56a-5b7d7af42049",
    "types": [
      "songwriters",
      "8",
      "singers",
      "2"
    ]
  }
}