{
  "header": {
    "description": "Karaoke Mugen Tag File",
    "version": 1
  },
  "tag": {
    "i18n": {
      "eng": "Keisuke Matsumoto"
    },
    "modified_at": "2021-06-13T12:56:08.240Z",
    "name": "Keisuke Matsumoto",
    "repository": "kara.moe",
    "tid": "b431a1bb-be2e-4aef-8770-a7cc5c2128cb",
    "types": [
      "songwriters",
      "8"
    ]
  }
}