{
  "header": {
    "description": "Karaoke Mugen Tag File",
    "version": 1
  },
  "tag": {
    "i18n": {
      "eng": "Keisuke Fujikawa"
    },
    "name": "Keisuke Fujikawa",
    "tid": "86b1fb0c-d9cb-47c2-8fad-5812b0402180",
    "types": [
      "songwriters",
      "8"
    ],
    "repository": "kara.moe",
    "modified_at": "2020-03-31T19:04:35.422Z"
  }
}