{
  "header": {
    "description": "Karaoke Mugen Tag File",
    "version": 1
  },
  "tag": {
    "i18n": {
      "eng": "Keishi Yonao"
    },
    "name": "Keishi Yonao",
    "tid": "bb97f4a8-5942-4ab1-97e0-62c46384aa4e",
    "types": [
      "songwriters",
      "8"
    ],
    "repository": "kara.moe",
    "modified_at": "2020-03-31T19:04:35.422Z"
  }
}