{
  "header": {
    "description": "Karaoke Mugen Tag File",
    "version": 1
  },
  "tag": {
    "aliases": [
      "Keitarou Takanami"
    ],
    "i18n": {
      "eng": "Keitarô Takanami"
    },
    "name": "Keitarô Takanami",
    "repository": "kara.moe",
    "tid": "3a086dd7-ba07-4350-8a9a-5518435e4058",
    "types": [
      "songwriters",
      "8"
    ],
    "modified_at": "2020-03-31T19:04:35.430Z"
  }
}