{
  "header": {
    "description": "Karaoke Mugen Tag File",
    "version": 1
  },
  "tag": {
    "i18n": {
      "eng": "Keitarô Yamamoto"
    },
    "name": "Keitarô Yamamoto",
    "repository": "kara.moe",
    "tid": "94a16c81-6cf8-4bb4-b989-5ff2cda6dea2",
    "types": [
      "songwriters",
      "8"
    ]
  }
}