{
  "header": {
    "description": "Karaoke Mugen Tag File",
    "version": 1
  },
  "tag": {
    "i18n": {
      "eng": "Keita Haga"
    },
    "name": "Keita Haga",
    "tid": "44f5dbf4-9866-4217-9d3c-256d93d229c8",
    "types": [
      "songwriters",
      "8"
    ],
    "repository": "kara.moe",
    "modified_at": "2020-03-31T19:04:35.428Z"
  }
}