{
  "header": {
    "description": "Karaoke Mugen Tag File",
    "version": 1
  },
  "tag": {
    "i18n": {
      "eng": "Keity.pop"
    },
    "name": "Keity.pop",
    "tid": "12f3e221-c864-47cf-99a8-1ad5d702817b",
    "types": [
      "singers",
      "2"
    ],
    "repository": "kara.moe",
    "modified_at": "2020-03-31T19:04:35.430Z"
  }
}