{
  "header": {
    "description": "Karaoke Mugen Tag File",
    "version": 1
  },
  "tag": {
    "i18n": {
      "eng": "Kelly Marot"
    },
    "name": "Kelly Marot",
    "tid": "a4403aaf-6efc-4fbe-a130-903b09925fc2",
    "types": [
      "singers",
      "2"
    ],
    "repository": "kara.moe",
    "modified_at": "2020-03-31T19:04:35.434Z"
  }
}