{
  "header": {
    "description": "Karaoke Mugen Tag File",
    "version": 1
  },
  "tag": {
    "i18n": {
      "eng": "KELUN"
    },
    "name": "KELUN",
    "tid": "de0eb2de-9bb1-45a3-8479-66df8a1a4fbc",
    "types": [
      "singers",
      "2",
      "songwriters",
      "8"
    ],
    "repository": "kara.moe",
    "modified_at": "2020-03-31T19:04:35.436Z"
  }
}