{
  "header": {
    "description": "Karaoke Mugen Tag File",
    "version": 1
  },
  "tag": {
    "aliases": [
      "Erin: piastunka Bestii",
      "Kemono no Souja Erin",
      "The Beast Player Erin",
      "Заклинательница зверей Эрин",
      "Эрин: Исполнитель песен зверей",
      "獸之奏者艾琳",
      "Elin la Charmeuse de Bêtes",
      "souja"
    ],
    "external_database_ids": {
      "anilist": 5420,
      "myanimelist": 5420,
      "kitsu": 4095
    },
    "i18n": {
      "eng": "Erin",
      "jpn": "獣の奏者 エリン",
      "qro": "Kemono no Sôja Erin"
    },
    "modified_at": "2020-08-22T19:37:51.008Z",
    "name": "Kemono no Sôja Erin",
    "repository": "kara.moe",
    "tid": "28c6d3fe-423f-4ebb-9ee6-c484ab2c6caa",
    "types": [
      "series",
      "1"
    ]
  }
}