{
  "header": {
    "description": "Karaoke Mugen Tag File",
    "version": 1
  },
  "tag": {
    "aliases": [
      "KemoFriends",
      "Kemofure",
      "케모노 프렌즈"
    ],
    "external_database_ids": {
      "anilist": 87496,
      "myanimelist": 33089,
      "kitsu": 12707
    },
    "i18n": {
      "eng": "Kemono Friends",
      "fre": "Kemono Friends",
      "jpn": "けものフレンズ",
      "rus": "Дикие друзья",
      "qro": "Kemono Friends"
    },
    "modified_at": "2020-03-31T19:04:31.921Z",
    "name": "Kemono Friends",
    "repository": "kara.moe",
    "tid": "501b5b23-d377-444d-9d73-8a937825eba1",
    "types": [
      "series",
      "1",
      "franchises",
      "18"
    ]
  }
}