{
  "header": {
    "description": "Karaoke Mugen Tag File",
    "version": 1
  },
  "tag": {
    "external_database_ids": {
      "anilist": 114085,
      "myanimelist": 40908,
      "kitsu": 42922
    },
    "i18n": {
      "eng": "Kemono Jihen"
    },
    "modified_at": "2021-02-05T16:50:16.416Z",
    "name": "Kemono Jihen",
    "repository": "kara.moe",
    "tid": "4246eac0-d053-4440-9bfb-22d19bad40b6",
    "types": [
      "series",
      "1"
    ]
  }
}