{
  "header": {
    "description": "Karaoke Mugen Tag File",
    "version": 1
  },
  "tag": {
    "i18n": {
      "eng": "kemu"
    },
    "name": "kemu",
    "tid": "3c1b2603-282d-423b-b828-9a7cf4fb09b6",
    "types": [
      "songwriters",
      "8"
    ],
    "repository": "kara.moe",
    "modified_at": "2020-03-31T19:04:35.439Z"
  }
}