{
  "header": {
    "description": "Karaoke Mugen Tag File",
    "version": 1
  },
  "tag": {
    "external_database_ids": {
      "anilist": 104156,
      "myanimelist": 37311,
      "kitsu": 41774
    },
    "i18n": {
      "eng": "Kemurikusa",
      "jpn": "ケムリクサ",
      "qro": "Kemurikusa"
    },
    "modified_at": "2020-03-31T19:04:31.923Z",
    "name": "Kemurikusa",
    "repository": "kara.moe",
    "tid": "68cec489-9734-4c1e-b60d-21f6e31837ac",
    "types": [
      "series",
      "1"
    ]
  }
}