{
  "header": {
    "description": "Karaoke Mugen Tag File",
    "version": 1
  },
  "tag": {
    "i18n": {
      "eng": "Kemu Horie"
    },
    "name": "Kemu Horie",
    "repository": "kara.moe",
    "tid": "85fb7525-79ea-436b-95d1-8472436ba96b",
    "types": [
      "songwriters",
      "8"
    ]
  }
}