{
  "header": {
    "description": "Karaoke Mugen Tag File",
    "version": 1
  },
  "tag": {
    "i18n": {
      "eng": "Ken ga Kimi",
      "jpn": "剣が君",
      "qro": "Ken ga Kimi"
    },
    "modified_at": "2020-03-31T19:04:31.924Z",
    "name": "Ken ga Kimi",
    "repository": "kara.moe",
    "tid": "8ba8e0a6-0637-4261-887e-7fd6172e0de7",
    "types": [
      "series",
      "1"
    ]
  }
}