{
  "header": {
    "description": "Karaoke Mugen Tag File",
    "version": 1
  },
  "tag": {
    "i18n": {
      "eng": "Ken Yasuda"
    },
    "modified_at": "2020-11-12T15:21:05.849Z",
    "name": "Ken Yasuda",
    "repository": "kara.moe",
    "tid": "e82dcb29-ed9b-48e5-b416-994976f79fb2",
    "types": [
      "singers",
      "2"
    ]
  }
}