{
  "header": {
    "description": "Karaoke Mugen Tag File",
    "version": 1
  },
  "tag": {
    "i18n": {
      "eng": "Ken Takeuchi"
    },
    "name": "Ken Takeuchi",
    "tid": "45b533d7-8ae8-4c8e-9b86-43d299040478",
    "types": [
      "singers",
      "2"
    ],
    "repository": "kara.moe",
    "modified_at": "2020-03-31T19:04:35.448Z"
  }
}