{
  "header": {
    "description": "Karaoke Mugen Tag File",
    "version": 1
  },
  "tag": {
    "i18n": {
      "eng": "Ken Blast"
    },
    "modified_at": "2021-08-05T22:37:02.423Z",
    "name": "Ken Blast",
    "repository": "kara.moe",
    "tid": "047b8683-50d9-4ebe-a25c-dc5278b5b9aa",
    "types": [
      "singers",
      "2"
    ]
  }
}