{
  "header": {
    "description": "Karaoke Mugen Tag File",
    "version": 1
  },
  "tag": {
    "i18n": {
      "eng": "Ken Harada"
    },
    "name": "Ken Harada",
    "tid": "f0d8664f-a0e4-419f-87a9-5638f9967190",
    "types": [
      "songwriters",
      "8"
    ],
    "repository": "kara.moe",
    "modified_at": "2020-03-31T19:04:35.442Z"
  }
}