{
  "header": {
    "description": "Karaoke Mugen Tag File",
    "version": 1
  },
  "tag": {
    "i18n": {
      "eng": "Ken Matsubara"
    },
    "name": "Ken Matsubara",
    "repository": "kara.moe",
    "tid": "ac40da77-5280-45ef-8bb0-c981b1cd1acb",
    "types": [
      "songwriters",
      "8"
    ]
  }
}