{
  "header": {
    "description": "Karaoke Mugen Tag File",
    "version": 1
  },
  "tag": {
    "i18n": {
      "eng": "KEN for 2SOUL MUSIC Inc."
    },
    "name": "KEN for 2SOUL MUSIC Inc.",
    "tid": "203f879d-f1ac-47e0-97f8-e3389ca7fc09",
    "types": [
      "songwriters",
      "8"
    ],
    "repository": "kara.moe",
    "modified_at": "2020-03-31T19:04:35.440Z"
  }
}