{
  "header": {
    "description": "Karaoke Mugen Tag File",
    "version": 1
  },
  "tag": {
    "i18n": {
      "eng": "Ken'ichi \"Sammy\" Asami"
    },
    "name": "Ken'ichi \"Sammy\" Asami",
    "tid": "a9f8f137-2a2f-4188-b31c-8d3f84d6bf15",
    "types": [
      "songwriters",
      "8"
    ],
    "repository": "kara.moe",
    "modified_at": "2020-03-31T19:04:35.453Z"
  }
}