{
  "header": {
    "description": "Karaoke Mugen Tag File",
    "version": 1
  },
  "tag": {
    "i18n": {
      "eng": "Ken'ichi Sudô"
    },
    "name": "Ken'ichi Sudô",
    "tid": "8324657f-0ecc-4ca1-80e5-3e0ef6c05467",
    "types": [
      "songwriters",
      "8"
    ],
    "repository": "kara.moe",
    "modified_at": "2020-03-31T19:04:35.453Z"
  }
}