{
  "header": {
    "description": "Karaoke Mugen Tag File",
    "version": 1
  },
  "tag": {
    "i18n": {
      "eng": "Ken'ichi Sakô"
    },
    "name": "Ken'ichi Sakô",
    "tid": "2513c22b-07bf-4bee-a6b2-533da6d6c230",
    "types": [
      "songwriters",
      "8"
    ],
    "repository": "kara.moe",
    "modified_at": "2020-03-31T19:04:35.452Z"
  }
}