{
  "header": {
    "description": "Karaoke Mugen Tag File",
    "version": 1
  },
  "tag": {
    "i18n": {
      "eng": "Ken'ichi Suzumura"
    },
    "name": "Ken'ichi Suzumura",
    "tid": "25b5b099-190e-4322-b0a8-04f4048d4ac8",
    "types": [
      "singers",
      "2",
      "songwriters",
      "8"
    ],
    "repository": "kara.moe",
    "modified_at": "2020-03-31T19:04:35.454Z"
  }
}