{
  "header": {
    "description": "Karaoke Mugen Tag File",
    "version": 1
  },
  "tag": {
    "i18n": {
      "eng": "Ken'ichi Nagira"
    },
    "name": "Ken'ichi Nagira",
    "tid": "0a3ac78b-6a8d-41f6-9ab7-1d12f68ab50f",
    "types": [
      "singers",
      "2"
    ],
    "repository": "kara.moe",
    "modified_at": "2020-03-31T19:04:35.451Z"
  }
}