{
  "header": {
    "description": "Karaoke Mugen Tag File",
    "version": 1
  },
  "tag": {
    "i18n": {
      "eng": "ken"
    },
    "name": "ken",
    "tid": "ecb111d5-9912-4cad-825b-523e104f6785",
    "types": [
      "songwriters",
      "8"
    ],
    "repository": "kara.moe",
    "modified_at": "2020-03-31T19:04:35.456Z"
  }
}