{
  "header": {
    "description": "Karaoke Mugen Tag File",
    "version": 1
  },
  "tag": {
    "external_database_ids": {
      "anilist": 100891,
      "myanimelist": 36903,
      "kitsu": 11031
    },
    "i18n": {
      "eng": "Kengan Ashura"
    },
    "modified_at": "2021-05-01T13:28:57.136Z",
    "name": "Kengan Ashura",
    "repository": "kara.moe",
    "tid": "1e063a5c-7220-4a69-b0bb-69f42b9c7cac",
    "types": [
      "series",
      "1"
    ]
  }
}