{
  "header": {
    "description": "Karaoke Mugen Tag File",
    "version": 1
  },
  "tag": {
    "i18n": {
      "eng": "Kengo Takatani"
    },
    "name": "Kengo Takatani",
    "repository": "kara.moe",
    "tid": "596b9cb5-9c9c-42e6-8654-fe1c17f51c40",
    "types": [
      "songwriters",
      "8"
    ]
  }
}