{
  "header": {
    "description": "Karaoke Mugen Tag File",
    "version": 1
  },
  "tag": {
    "i18n": {
      "eng": "Kenichirô Takaki"
    },
    "name": "Kenichirô Takaki",
    "tid": "256fa4c2-2aa0-4d50-88cb-ba89e5728e5a",
    "types": [
      "songwriters",
      "8"
    ],
    "repository": "kara.moe",
    "modified_at": "2020-03-31T19:04:35.463Z"
  }
}