{
  "header": {
    "description": "Karaoke Mugen Tag File",
    "version": 1
  },
  "tag": {
    "i18n": {
      "eng": "Kenichi Maeyamada"
    },
    "name": "Kenichi Maeyamada",
    "repository": "kara.moe",
    "tid": "18dd3031-c9cb-4f4e-b44c-3cfb17559aea",
    "types": [
      "songwriters",
      "8"
    ]
  }
}