{
  "header": {
    "description": "Karaoke Mugen Tag File",
    "version": 1
  },
  "tag": {
    "i18n": {
      "eng": "Kenji Sawada"
    },
    "name": "Kenji Sawada",
    "tid": "faffe59a-e501-41a6-ab76-7d67c0c5a59e",
    "types": [
      "singers",
      "2"
    ],
    "repository": "kara.moe",
    "modified_at": "2020-03-31T19:04:35.472Z"
  }
}