{
  "header": {
    "description": "Karaoke Mugen Tag File",
    "version": 1
  },
  "tag": {
    "i18n": {
      "eng": "Kenji Kawai"
    },
    "name": "Kenji Kawai",
    "tid": "1f362c4f-974f-4dfa-aaca-091365293fea",
    "types": [
      "songwriters",
      "8"
    ],
    "repository": "kara.moe",
    "modified_at": "2020-03-31T19:04:35.468Z"
  }
}