{
  "header": {
    "description": "Karaoke Mugen Tag File",
    "version": 1
  },
  "tag": {
    "i18n": {
      "eng": "Kenji Urakawa"
    },
    "name": "Kenji Urakawa",
    "tid": "ea972461-77b4-4a1d-afee-1d1b3342c2c9",
    "types": [
      "songwriters",
      "8"
    ],
    "repository": "kara.moe",
    "modified_at": "2020-03-31T19:04:35.476Z"
  }
}