{
  "header": {
    "description": "Karaoke Mugen Tag File",
    "version": 1
  },
  "tag": {
    "i18n": {
      "eng": "Kenjirô Hata"
    },
    "name": "Kenjirô Hata",
    "tid": "308b7f65-12af-4797-9d1b-a87df1e6a1db",
    "types": [
      "songwriters",
      "8"
    ],
    "repository": "kara.moe",
    "modified_at": "2020-03-31T19:04:35.478Z"
  }
}