{
  "header": {
    "description": "Karaoke Mugen Tag File",
    "version": 1
  },
  "tag": {
    "i18n": {
      "eng": "Kenji Kondô"
    },
    "name": "Kenji Kondô",
    "tid": "749cff02-1c77-4d26-ad26-29c58c97342a",
    "types": [
      "songwriters",
      "8"
    ],
    "repository": "kara.moe",
    "modified_at": "2020-03-31T19:04:35.469Z"
  }
}