{
  "header": {
    "description": "Karaoke Mugen Tag File",
    "version": 1
  },
  "tag": {
    "i18n": {
      "eng": "Kenjirô Hirose"
    },
    "name": "Kenjirô Hirose",
    "tid": "abf11aa5-6a12-43f3-871e-db434dc09916",
    "types": [
      "songwriters",
      "8"
    ],
    "repository": "kara.moe",
    "modified_at": "2020-03-31T19:04:35.479Z"
  }
}