{
  "header": {
    "description": "Karaoke Mugen Tag File",
    "version": 1
  },
  "tag": {
    "i18n": {
      "eng": "Kenji Furuya"
    },
    "name": "Kenji Furuya",
    "tid": "3fc5be14-c0ec-4c2a-b197-b21172dd291d",
    "types": [
      "songwriters",
      "8"
    ],
    "repository": "kara.moe",
    "modified_at": "2020-03-31T19:04:35.465Z"
  }
}