{
  "header": {
    "description": "Karaoke Mugen Tag File",
    "version": 1
  },
  "tag": {
    "i18n": {
      "eng": "Kenji Fujisawa"
    },
    "name": "Kenji Fujisawa",
    "tid": "a19a2194-8cd5-47ea-93be-b1f608646eed",
    "types": [
      "songwriters",
      "8"
    ],
    "repository": "kara.moe",
    "modified_at": "2020-03-31T19:04:35.465Z"
  }
}