{
  "header": {
    "description": "Karaoke Mugen Tag File",
    "version": 1
  },
  "tag": {
    "aliases": [
      "Kenka Banchou Otome",
      "banchou"
    ],
    "i18n": {
      "eng": "Kenka Banchô Otome",
      "jpn": "喧嘩番長乙女",
      "qro": "Kenka Banchô Otome"
    },
    "modified_at": "2020-03-31T19:04:31.928Z",
    "name": "Kenka Banchô Otome",
    "repository": "kara.moe",
    "tid": "9e367fa2-fb35-49fd-8d52-05b847f20373",
    "types": [
      "series",
      "1",
      "franchises",
      "18"
    ]
  }
}