{
  "header": {
    "description": "Karaoke Mugen Tag File",
    "version": 1
  },
  "tag": {
    "external_database_ids": {
      "anilist": 97909,
      "myanimelist": 34501,
      "kitsu": 12821
    },
    "i18n": {
      "eng": "Kenka Bancho Otome: Girl Beats Boys",
      "fre": "Kenka Banchô Otome: Girl Beats Boys",
      "jpn": "喧嘩番長 乙女 -GIRL BEATS BOYS-",
      "qro": "Kenka Banchô Otome -Girl Beats Boys-"
    },
    "modified_at": "2020-03-31T19:04:31.926Z",
    "name": "Kenka Banchô Otome -Girl Beats Boys-",
    "repository": "kara.moe",
    "tid": "0b348bf5-65a5-4bff-aee0-26292a28f30a",
    "types": [
      "series",
      "1"
    ]
  }
}