{
  "header": {
    "description": "Karaoke Mugen Tag File",
    "version": 1
  },
  "tag": {
    "i18n": {
      "eng": "Kensuke Kyô"
    },
    "name": "Kensuke Kyô",
    "tid": "cebce0c7-4f21-4943-a3a5-1a5825b63761",
    "types": [
      "songwriters",
      "8"
    ],
    "repository": "kara.moe",
    "modified_at": "2020-03-31T19:04:35.486Z"
  }
}