{
  "header": {
    "description": "Karaoke Mugen Tag File",
    "version": 1
  },
  "tag": {
    "i18n": {
      "eng": "Kensuke Okamoto"
    },
    "name": "Kensuke Okamoto",
    "tid": "1fcf9255-5943-4935-9024-3fa3ad57062a",
    "types": [
      "songwriters",
      "8"
    ],
    "repository": "kara.moe",
    "modified_at": "2020-03-31T19:04:35.487Z"
  }
}