{
  "header": {
    "description": "Karaoke Mugen Tag File",
    "version": 1
  },
  "tag": {
    "aliases": [
      "Kenshou"
    ],
    "i18n": {
      "eng": "Kenshô Ono"
    },
    "name": "Kenshô Ono",
    "repository": "kara.moe",
    "tid": "b43af946-5787-4527-9c8f-5a3a3e5137f1",
    "types": [
      "singers",
      "2"
    ]
  }
}