{
  "header": {
    "description": "Karaoke Mugen Tag File",
    "version": 1
  },
  "tag": {
    "aliases": [
      "Itou"
    ],
    "i18n": {
      "eng": "Kento Itô"
    },
    "name": "Kento Itô",
    "repository": "kara.moe",
    "tid": "9a9da3af-c891-42ae-bd3e-f0696a361c04",
    "types": [
      "singers",
      "2"
    ]
  }
}