{
  "header": {
    "description": "Karaoke Mugen Tag File",
    "version": 1
  },
  "tag": {
    "i18n": {
      "eng": "Kentarô Hayami"
    },
    "name": "Kentarô Hayami",
    "tid": "69f7e190-d9bb-4333-a43a-622ab7f10d49",
    "types": [
      "singers",
      "2"
    ],
    "repository": "kara.moe",
    "modified_at": "2020-03-31T19:04:35.494Z"
  }
}