{
  "header": {
    "description": "Karaoke Mugen Tag File",
    "version": 1
  },
  "tag": {
    "i18n": {
      "eng": "Kentarô Komatsu"
    },
    "name": "Kentarô Komatsu",
    "tid": "852599fc-e416-4224-a5aa-540996039bc8",
    "types": [
      "songwriters",
      "8"
    ],
    "repository": "kara.moe",
    "modified_at": "2020-03-31T19:04:35.496Z"
  }
}