{
  "header": {
    "description": "Karaoke Mugen Tag File",
    "version": 1
  },
  "tag": {
    "i18n": {
      "eng": "Kento Oogiya"
    },
    "name": "Kento Oogiya",
    "repository": "kara.moe",
    "tid": "025099df-aa4b-46d0-9486-e332da341c12",
    "types": [
      "songwriters",
      "8"
    ],
    "modified_at": "2020-03-31T19:04:35.502Z"
  }
}