{
  "header": {
    "description": "Karaoke Mugen Tag File",
    "version": 1
  },
  "tag": {
    "i18n": {
      "eng": "Kenta Sasaki"
    },
    "name": "Kenta Sasaki",
    "tid": "4435b3c9-8938-4c70-b5c8-e63226c02764",
    "types": [
      "songwriters",
      "8"
    ],
    "repository": "kara.moe",
    "modified_at": "2020-03-31T19:04:35.491Z"
  }
}