{
  "header": {
    "description": "Karaoke Mugen Tag File",
    "version": 1
  },
  "tag": {
    "i18n": {
      "eng": "Kenta Satô"
    },
    "name": "Kenta Satô",
    "tid": "02b17cfc-5b8a-4bdd-aedc-8327e2d70ea4",
    "types": [
      "singers",
      "2"
    ],
    "repository": "kara.moe",
    "modified_at": "2020-03-31T19:04:35.492Z"
  }
}