{
  "header": {
    "description": "Karaoke Mugen Tag File",
    "version": 1
  },
  "tag": {
    "i18n": {
      "eng": "Kentarô Sekiya"
    },
    "name": "Kentarô Sekiya",
    "tid": "a9b09ff8-9034-4b3d-9fc3-d0400940bd99",
    "types": [
      "songwriters",
      "8"
    ],
    "repository": "kara.moe",
    "modified_at": "2020-03-31T19:04:35.497Z"
  }
}