{
  "header": {
    "description": "Karaoke Mugen Tag File",
    "version": 1
  },
  "tag": {
    "i18n": {
      "eng": "Kenta Urashima"
    },
    "name": "Kenta Urashima",
    "tid": "72c4064a-540f-4cb0-805a-170ab2ebdfb8",
    "types": [
      "songwriters",
      "8"
    ],
    "repository": "kara.moe",
    "modified_at": "2020-03-31T19:04:35.492Z"
  }
}