{
  "header": {
    "description": "Karaoke Mugen Tag File",
    "version": 1
  },
  "tag": {
    "i18n": {
      "eng": "Kenta Matsukuma"
    },
    "name": "Kenta Matsukuma",
    "tid": "2ac9c56b-150e-4266-ae41-d2b635b34691",
    "types": [
      "songwriters",
      "8"
    ],
    "repository": "kara.moe",
    "modified_at": "2020-03-31T19:04:35.491Z"
  }
}