{
  "header": {
    "description": "Karaoke Mugen Tag File",
    "version": 1
  },
  "tag": {
    "i18n": {
      "eng": "Kentarô Fukushi"
    },
    "name": "Kentarô Fukushi",
    "repository": "kara.moe",
    "tid": "1973486a-6cf7-4bd6-8487-3525ece84710",
    "types": [
      "songwriters",
      "8"
    ]
  }
}