{
  "header": {
    "description": "Karaoke Mugen Tag File",
    "version": 1
  },
  "tag": {
    "i18n": {
      "eng": "Keri"
    },
    "name": "Keri",
    "tid": "bc52d5dc-fabf-431a-b4f4-eccf949567c9",
    "types": [
      "songwriters",
      "8"
    ],
    "repository": "kara.moe",
    "modified_at": "2020-03-31T19:04:35.505Z"
  }
}