{
  "header": {
    "description": "Karaoke Mugen Tag File",
    "version": 1
  },
  "tag": {
    "i18n": {
      "eng": "KeroQ"
    },
    "name": "KeroQ",
    "tid": "6bb21fee-0cf0-401d-bb9f-852920b0b86b",
    "types": [
      "creators",
      "4"
    ],
    "repository": "kara.moe",
    "modified_at": "2020-03-31T19:04:35.506Z"
  }
}