{
  "header": {
    "description": "Karaoke Mugen Tag File",
    "version": 1
  },
  "tag": {
    "i18n": {
      "eng": "Kevin Murphy"
    },
    "name": "Kevin Murphy",
    "repository": "kara.moe",
    "tid": "9cea47e9-826f-406b-8ede-564ed6b01df8",
    "types": [
      "songwriters",
      "8",
      "creators",
      "4"
    ]
  }
}