{
  "header": {
    "description": "Karaoke Mugen Tag File",
    "version": 1
  },
  "tag": {
    "aliases": [
      "KTMI"
    ],
    "external_database_ids": {
      "anilist": 1457,
      "myanimelist": 1457,
      "kitsu": 1307
    },
    "i18n": {
      "eng": "Key the Metal Idol",
      "fre": "Key the Metal Idol",
      "ger": "Key - The Metal Idol",
      "jpn": "KEY THE METAL IDOL",
      "por": "Key - O Ídolo Metálico",
      "qro": "Key the Metal Idol"
    },
    "modified_at": "2020-03-31T19:04:31.931Z",
    "name": "Key the Metal Idol",
    "repository": "kara.moe",
    "tid": "7dc55382-ef20-4700-a07e-68843915bb73",
    "types": [
      "series",
      "1"
    ]
  }
}