{
  "header": {
    "description": "Karaoke Mugen Tag File",
    "version": 1
  },
  "tag": {
    "i18n": {
      "eng": "Keyakizaka46"
    },
    "name": "Keyakizaka46",
    "repository": "kara.moe",
    "tid": "937f5e6f-fe45-4aab-9df6-276625999118",
    "types": [
      "singers",
      "2"
    ]
  }
}