{
  "header": {
    "description": "Karaoke Mugen Tag File",
    "version": 1
  },
  "tag": {
    "i18n": {
      "eng": "KEYTALK"
    },
    "name": "KEYTALK",
    "tid": "ac3c8455-883e-4dbf-a6dd-2154397e7aba",
    "types": [
      "singers",
      "2"
    ],
    "repository": "kara.moe",
    "modified_at": "2020-03-31T19:04:35.509Z"
  }
}