{
  "header": {
    "description": "Karaoke Mugen Tag File",
    "version": 1
  },
  "tag": {
    "i18n": {
      "eng": "KEYTARO"
    },
    "modified_at": "2020-11-21T23:01:52.699Z",
    "name": "KEYTARO",
    "repository": "kara.moe",
    "tid": "07f668aa-7bf1-43ac-96f4-9c185bb964dd",
    "types": [
      "songwriters",
      "8"
    ]
  }
}