{
  "header": {
    "description": "Karaoke Mugen Tag File",
    "version": 1
  },
  "tag": {
    "i18n": {
      "eng": "KG-K9shot"
    },
    "name": "KG-K9shot",
    "tid": "154d7c15-a00f-4ee2-acdb-006008c30b95",
    "types": [
      "songwriters",
      "8"
    ],
    "repository": "kara.moe",
    "modified_at": "2020-03-31T19:04:35.510Z"
  }
}