{
  "header": {
    "description": "Karaoke Mugen Tag File",
    "version": 1
  },
  "tag": {
    "aliases": [
      "Kibou",
      "Pretty Cure"
    ],
    "external_database_ids": {
      "anilist": 162720,
      "kitsu": 47184,
      "myanimelist": 54716
    },
    "i18n": {
      "jpn": "キボウノチカラ~オトナプリキュア ‘23~",
      "qro": "Kibô no Chikara: Otona Precure '23"
    },
    "name": "Kibô no Chikara: Otona Precure '23",
    "repository": "kara.moe",
    "tid": "166bae99-44eb-4efa-becd-8095f7d4ccd9",
    "types": [
      "series",
      "1"
    ]
  }
}