{
  "header": {
    "description": "Karaoke Mugen Tag File",
    "version": 1
  },
  "tag": {
    "i18n": {
      "eng": "Kibolist"
    },
    "name": "Kibolist",
    "tid": "93693dd6-1e64-41a7-bd70-9090250f425d",
    "types": [
      "songwriters",
      "8"
    ],
    "repository": "kara.moe",
    "modified_at": "2020-03-31T19:04:35.514Z"
  }
}