{
  "header": {
    "description": "Karaoke Mugen Tag File",
    "version": 1
  },
  "tag": {
    "i18n": {
      "eng": "Kibotori"
    },
    "modified_at": "1982-04-06",
    "name": "Kibotori",
    "repository": "kara.moe",
    "tid": "f5fd83aa-5022-41ab-82ec-4b9dc38ea653",
    "types": [
      "authors",
      "6"
    ]
  }
}