{
  "header": {
    "description": "Karaoke Mugen Tag File",
    "version": 1
  },
  "tag": {
    "i18n": {
      "eng": "Kichiku Megane",
      "jpn": "鬼畜眼鏡",
      "qro": "Kichiku Megane"
    },
    "modified_at": "2020-03-31T19:04:31.933Z",
    "name": "Kichiku Megane",
    "repository": "kara.moe",
    "tid": "2e95adb3-fc50-4ca5-80cf-5732af7e433a",
    "types": [
      "series",
      "1",
      "franchises",
      "18"
    ]
  }
}