{
  "header": {
    "description": "Karaoke Mugen Tag File",
    "version": 1
  },
  "tag": {
    "i18n": {
      "eng": "kidlit"
    },
    "name": "kidlit",
    "repository": "kara.moe",
    "tid": "8b35a940-ae36-41dd-8127-93356ea8de8c",
    "types": [
      "songwriters",
      "8"
    ]
  }
}