{
  "header": {
    "description": "Karaoke Mugen Tag File",
    "version": 1
  },
  "tag": {
    "aliases": [
      "Kidou Senshi Gundam UC RE:0096",
      "Kidou Senshi Gundam Unicorn RE:0096",
      "Kidô Senshi Gundam Unicorn RE:0096",
      "Mobile Suit Gundam UC Re:0096",
      "機動戦士ガンダムユニコーン RE:0096",
      "機動戰士GUNDAM UC RE:0096",
      "機動戰士高達UC RE:0096",
      "kidou",
      "re 0096"
    ],
    "external_database_ids": {
      "anilist": 21658,
      "myanimelist": 32792,
      "kitsu": 11850
    },
    "i18n": {
      "eng": "Mobile Suit Gundam Unicorn Re:0096",
      "jpn": "機動戦士ガンダムUC RE:0096",
      "qro": "Kidô Senshi Gundam UC RE:0096"
    },
    "modified_at": "2020-03-31T19:04:31.957Z",
    "name": "Kidô Senshi Gundam UC RE:0096",
    "repository": "kara.moe",
    "tid": "4dcaf41b-30d6-44c8-9861-8b2f8562b4d9",
    "types": [
      "series",
      "1"
    ]
  }
}