{
  "header": {
    "description": "Karaoke Mugen Tag File",
    "version": 1
  },
  "tag": {
    "aliases": [
      "8th Team",
      "Gundam 08th MS Team",
      "Kidou Senshi Gundam: Dai 08 MS Shoutai",
      "Mobile Suit Gundam: L'ottavo plotone",
      "机动战士高达第08MS小队",
      "kidou",
      "shoutai"
    ],
    "external_database_ids": {
      "anilist": 81,
      "myanimelist": 81,
      "kitsu": 60
    },
    "i18n": {
      "eng": "Mobile Suit Gundam: The 08th MS Team",
      "jpn": "機動戦士ガンダム 第08MS小隊",
      "kor": "기동전사 건담: 제 08소대",
      "tha": "โมบิลสูทกันดั้ม 08th ทีม",
      "qro": "Kidô Senshi Gundam: Dai 08 MS Shôtai"
    },
    "modified_at": "2020-03-31T19:04:31.946Z",
    "name": "Kidô Senshi Gundam: Dai 08 MS Shôtai",
    "repository": "kara.moe",
    "tid": "03eee955-7d2e-4cca-99ad-69b3aff90b91",
    "types": [
      "series",
      "1"
    ]
  }
}