{
  "header": {
    "description": "Karaoke Mugen Tag File",
    "version": 1
  },
  "tag": {
    "aliases": [
      "Kidou Senshi Gundam Thunderbolt",
      "MSG",
      "kidou"
    ],
    "external_database_ids": {
      "anilist": 21458,
      "myanimelist": 31973,
      "kitsu": 11476
    },
    "i18n": {
      "eng": "Mobile Suit Gundam Thunderbolt",
      "jpn": "機動戦士ガンダム サンダーボルト",
      "kor": "기동전사 건담 썬더볼트",
      "qro": "Kidô Senshi Gundam Thunderbolt"
    },
    "modified_at": "2020-11-12T15:01:55.290Z",
    "name": "Kidô Senshi Gundam Thunderbolt",
    "repository": "kara.moe",
    "tid": "273b04fb-f03f-40fa-9d14-73db83496016",
    "types": [
      "series",
      "1"
    ]
  }
}