{
  "header": {
    "description": "Karaoke Mugen Tag File",
    "version": 1
  },
  "tag": {
    "aliases": [
      "GSD",
      "Gundam Seed 2",
      "Kidou Senshi Gundam SEED Destiny",
      "SEED2",
      "gs2",
      "Мобилен Костюм Гъндам Сийд: Съдба",
      "Мобильный воин ГАНДАМ: Судьба поколения",
      "جندام سيد دستني",
      "種死",
      "kidou"
    ],
    "external_database_ids": {
      "anilist": 94,
      "myanimelist": 94,
      "kitsu": 73
    },
    "i18n": {
      "chi": "机动战士高达SEED Destiny",
      "eng": "Mobile Suit Gundam SEED Destiny",
      "fre": "Mobile Suit Gundam SEED Destiny",
      "jpn": "機動戦士ガンダムSEED DESTINY",
      "kor": "기동전사 건담 씨드 데스티니",
      "tha": "โมบิลสูท กันดั้มซี้ด เดสทินี่",
      "qro": "Kidô Senshi Gundam SEED Destiny"
    },
    "modified_at": "2020-06-21T23:45:31.966Z",
    "name": "Kidô Senshi Gundam SEED Destiny",
    "repository": "kara.moe",
    "tid": "2e3ef498-e3f2-4609-8e34-916fbbf16ecf",
    "types": [
      "series",
      "1"
    ]
  }
}