{
  "header": {
    "description": "Karaoke Mugen Tag File",
    "version": 1
  },
  "tag": {
    "aliases": [
      "Gundam 0080: War in the Pocket",
      "Kidou Senshi Gundam 0080: Pocket no Naka no Sensou",
      "MSG 0080",
      "Mobile Suit Gundam 0080: La Guerra in Tasca",
      "Mobile Suit Gundam 0080: War in the Pocket",
      "kidou",
      "sensou"
    ],
    "external_database_ids": {
      "anilist": 82,
      "myanimelist": 82,
      "kitsu": 61
    },
    "i18n": {
      "chi": "機動戰士高達0080 口袋中的戰爭",
      "eng": "Mobile Suit Gundam 0080: War in the Pocket",
      "jpn": "機動戦士ガンダム 0080 ポケットの中の戦争",
      "tha": "โมบิลสูทกันดั้ม 0080 วอร์ส อินเดอะ พ็อคเก็ต",
      "qro": "Kidô Senshi Gundam 0080: Pocket no Naka no Sensô"
    },
    "modified_at": "2020-03-31T19:04:31.944Z",
    "name": "Kidô Senshi Gundam 0080: Pocket no Naka no Sensô",
    "repository": "kara.moe",
    "tid": "f7390bd7-5d68-4bd6-9c6d-7af327bec6bc",
    "types": [
      "series",
      "1"
    ]
  }
}