{
  "header": {
    "description": "Karaoke Mugen Tag File",
    "version": 1
  },
  "tag": {
    "aliases": [
      "Kidou Senkan Nadesico: Nadesico the Mission",
      "kidou"
    ],
    "i18n": {
      "eng": "Martian Successor Nadesico: The Mission",
      "jpn": "機動戦艦ナデシコ NADESICO THE MISSION",
      "qro": "Kidô Senkan Nadesico: Nadesico the Mission"
    },
    "modified_at": "2020-03-31T19:04:31.939Z",
    "name": "Kidô Senkan Nadesico: Nadesico the Mission",
    "repository": "kara.moe",
    "tid": "481a7a99-b08a-49f5-9476-15f92bda67ae",
    "types": [
      "series",
      "1"
    ]
  }
}