{
  "header": {
    "description": "Karaoke Mugen Tag File",
    "version": 1
  },
  "tag": {
    "aliases": [
      "Kidou Senshi Gundam 00 2nd Season",
      "kidou"
    ],
    "external_database_ids": {
      "anilist": 3927,
      "myanimelist": 3927,
      "kitsu": 3355
    },
    "i18n": {
      "eng": "Mobile Suit Gundam 00 2nd Season",
      "jpn": "機動戦士ガンダム00 セカンドシーズン",
      "qro": "Kidô Senshi Gundam 00 2nd Season"
    },
    "modified_at": "2020-03-31T19:04:31.943Z",
    "name": "Kidô Senshi Gundam 00 2nd Season",
    "repository": "kara.moe",
    "tid": "ec6d3306-9270-4eb5-8128-19e729299317",
    "types": [
      "series",
      "1"
    ]
  }
}