{
  "header": {
    "description": "Karaoke Mugen Tag File",
    "version": 1
  },
  "tag": {
    "aliases": [
      "Kidou Senshi Gundam SEED Destiny Final Plus",
      "kidou"
    ],
    "external_database_ids": {
      "anilist": 1241,
      "myanimelist": 1241,
      "kitsu": 1117
    },
    "i18n": {
      "eng": "Mobile Suit Gundam SEED Destiny Final Plus: The Chosen Future",
      "jpn": "機動戦士ガンダムSEED DESTINY FINAL PLUS 『選ばれた未来』",
      "qro": "Kidô Senshi Gundam SEED Destiny Final Plus: Erabareta Mirai"
    },
    "modified_at": "2020-03-31T19:04:31.951Z",
    "name": "Kidô Senshi Gundam SEED Destiny Final Plus: Erabareta Mirai",
    "repository": "kara.moe",
    "tid": "2eee65c4-76bb-4980-b1e4-959e6528da08",
    "types": [
      "series",
      "1"
    ]
  }
}