{
  "header": {
    "description": "Karaoke Mugen Tag File",
    "version": 1
  },
  "tag": {
    "aliases": [
      "G Witch"
    ],
    "external_database_ids": {
      "anilist": 139274,
      "myanimelist": 49828
    },
    "i18n": {
      "eng": "Mobile Suit Gundam: The Witch from Mercury",
      "jpn": "機動戦士ガンダム 水星の魔女",
      "qro": "Kidou Senshi Gundam Suisei no Majou"
    },
    "name": "Kidou Senshi Gundam Suisei no Majou",
    "repository": "kara.moe",
    "tid": "c3dcdf09-7713-4ecd-9b41-8f219af82055",
    "types": [
      "series",
      "1"
    ]
  }
}