{
  "header": {
    "description": "Karaoke Mugen Tag File",
    "version": 1
  },
  "tag": {
    "i18n": {
      "eng": "Kigumi"
    },
    "name": "Kigumi",
    "repository": "kara.moe",
    "tid": "48911c67-7ad0-491d-b3ee-7cd312ee01cc",
    "types": [
      "creators",
      "4"
    ]
  }
}