{
  "header": {
    "description": "Karaoke Mugen Tag File",
    "version": 1
  },
  "tag": {
    "i18n": {
      "eng": "kijibato"
    },
    "modified_at": "2020-12-22T23:55:50.732Z",
    "name": "kijibato",
    "repository": "kara.moe",
    "tid": "f342fec5-f79e-4b4c-9c06-76220c3e943e",
    "types": [
      "songwriters",
      "8"
    ]
  }
}