{
  "header": {
    "description": "Karaoke Mugen Tag File",
    "version": 1
  },
  "tag": {
    "i18n": {
      "afr": "Kikuyu, Gikuyu",
      "amh": "Kikuyu, Gikuyu",
      "ara": "الكيكويو ، Gikuyu",
      "aze": "Кикуйю, Bizim",
      "bak": "Киуй, Етәксе Һ. Б.",
      "bel": "Кикуйю, Нашай",
      "bul": "Кикую, На Нашата",
      "ben": "Kikuyu, Gikuyu",
      "bos": "Kikuyu, Gikuyu",
      "cat": "Kikuyu, Gikuyu",
      "cze": "Kikuyu, Gikuyu",
      "wel": "Kikuyu, Gikuyu",
      "dan": "Kikuyu, Gikuyu",
      "ger": "Kikuyu, Gikuyu",
      "gre": "Κικούγιου, Gikuyu",
      "eng": "Kikuyu, Gikuyu",
      "epo": "Kikuyu Town, Gikuyu",
      "spa": "Kikuyu, Gikuyu",
      "est": "Kikuyu, Gikuyu",
      "baq": "Kikuyu, Gikuyu",
      "per": "کیکویویی های Gikuyu",
      "fin": "Kikuyu, Gikuyu",
      "fre": "Le Kikuyu, Le Gikuyu",
      "gle": "Kikuyu, Gikuyu",
      "gla": "Kikuyu, Gikuyu",
      "glg": "Kikuyu, Gikuyu",
      "guj": "Kikuyu, Gikuyu",
      "heb": "קיקויו, Gikuyu",
      "hin": "Kikuyu, Gikuyu",
      "hrv": "Kikuyu, Naše",
      "hat": "Kikuyu La, Gikuyu",
      "hun": "Kikuyu, Gikuyu",
      "arm": "Էվե, Մեր",
      "ind": "Bahasa Kikuyu, Kikuyu",
      "ice": "Kikuyu, Gikuyu",
      "ita": "I Kikuyu, Gikuyu",
      "jpn": "Kikuyuは、Gikuyu",
      "jav": "Kikuyu, Gikuyu",
      "geo": "Kikuyu, Gikuyu",
      "kaz": "Кикуйю, Біздің",
      "kan": "Kikuyu, Gikuyu",
      "kor": "키쿠유,키쿠유어",
      "kir": "Кикуйю, Биздин",
      "lat": "Kikuyu, Gikuyu",
      "lit": "Kikuyu, Gikuyu",
      "lav": "Kikuyu, Gikuyu",
      "mlg": "Amin'ireo Kikuyu, Gikuyu",
      "mao": "Kikuyu, Gikuyu",
      "mac": "Kikuyu, Gikuyu",
      "mal": "കികുയുname, Gikuyu",
      "mon": "Kikuyu, Gikuyu",
      "mar": "किकूयूname, Gikuyu",
      "may": "Yang Digelar, Gikuyu",
      "mlt": "Kikuyu, Gikuyu",
      "nep": "किकुयुname, Gikuyu",
      "dut": "Gikuyu",
      "nor": "Kikuyu, Gikuyu",
      "pan": "Kikuyu, Gikuyu",
      "pol": "Kikuju, Naszej",
      "por": "Kikuyu, Gikuyu",
      "rum": "Kikuyu, Gikuyu",
      "rus": "Кикуйю, Нашей",
      "sin": "Kikuyu, Gikuyu",
      "slo": "Kikuyu, Gikuyu",
      "slv": "Kikuyu, Gikuyu",
      "alb": "Kikuyu, Gikuyu",
      "srp": "Кикују, Наше",
      "sun": "Kikuyu, Gikuyu",
      "swe": "Kikuyu, Gikuyu",
      "swa": "Kikuyu, California",
      "tam": "Kikuyu, Gikuyu",
      "tel": "కికుయుname, Gikuyu",
      "tgk": "Кикуйю, Мо",
      "tha": "ภาษาคิคุยุ Name,Gikuyu",
      "tgl": "Kikuyu, Gikuyu",
      "tur": "Kikuyu, Gikuyu",
      "tat": "Кикуйю, Безнең",
      "ukr": "Кікуйю, Нашої",
      "urd": "Kikuyu, Gikuyu",
      "uzb": "Kikuyu, Gikuyu",
      "vie": "Kikuyu, Gikuyu",
      "xho": "Kikuyuname, Gikuyu",
      "yid": "קיקויו, Gikuyu",
      "chi": "吉库尤、Gikuyu"
    },
    "name": "kik",
    "tid": "5adb5d0b-a2f7-4464-aaa3-dbfc32bbc66a",
    "types": [
      "langs",
      "5"
    ],
    "repository": "kara.moe",
    "modified_at": "2020-03-31T19:04:35.517Z"
  }
}