{
  "header": {
    "description": "Karaoke Mugen Tag File",
    "version": 1
  },
  "tag": {
    "aliases": [
      "Armored Squadron Dairugger XV",
      "Kikou Kantai Dairugger XV",
      "Vehicle Force Voltron",
      "Vehicle Voltron",
      "Voltron (2)",
      "kikou"
    ],
    "external_database_ids": {
      "anilist": 3609,
      "myanimelist": 3609,
      "kitsu": 3139
    },
    "i18n": {
      "eng": "Armored Fleet Dairugger XV",
      "ger": "Voltron (2)",
      "jpn": "機甲艦隊ダイラガーXV",
      "spa": "Voltron",
      "qro": "Kikô Kantai Dairugger XV"
    },
    "modified_at": "2020-03-31T19:04:31.963Z",
    "name": "Kikô Kantai Dairugger XV",
    "repository": "kara.moe",
    "tid": "49973e76-fdbe-4fe1-9860-97bb0705ad8f",
    "types": [
      "series",
      "1"
    ]
  }
}