{
  "header": {
    "description": "Karaoke Mugen Tag File",
    "version": 1
  },
  "tag": {
    "i18n": {
      "qro": "Kiko Imai",
      "jpn": "今井希子"
    },
    "name": "Kiko Imai",
    "repository": "kara.moe",
    "tid": "a9e56346-7a0f-484a-9d71-ae91f586ee19",
    "types": [
      "songwriters",
      "8"
    ]
  }
}