{
  "header": {
    "description": "Karaoke Mugen Tag File",
    "version": 1
  },
  "tag": {
    "i18n": {
      "eng": "Kikuo",
      "jpn": "きくお"
    },
    "modified_at": "2021-10-12T09:23:06.981Z",
    "name": "Kikuo",
    "repository": "kara.moe",
    "tid": "4b151a25-f7d7-453b-9ace-6f990b699590",
    "types": [
      "songwriters",
      "8"
    ]
  }
}