{
  "header": {
    "description": "Karaoke Mugen Tag File",
    "version": 1
  },
  "tag": {
    "i18n": {
      "eng": "KiLLER KiNG"
    },
    "name": "KiLLER KiNG",
    "repository": "kara.moe",
    "tid": "057d038f-b2bf-41b4-a53b-fb43ca57df54",
    "types": [
      "singergroups",
      "17"
    ]
  }
}