{
  "header": {
    "description": "Karaoke Mugen Tag File",
    "version": 1
  },
  "tag": {
    "aliases": [
      "Seungmin"
    ],
    "i18n": {
      "eng": "Kim Seung-min",
      "kor": "김승민"
    },
    "name": "Kim Seung-min",
    "repository": "kara.moe",
    "tid": "3536c5e8-32d7-43e8-b41e-683a629d0140",
    "types": [
      "singers",
      "2"
    ]
  }
}