{
  "header": {
    "description": "Karaoke Mugen Tag File",
    "version": 1
  },
  "tag": {
    "i18n": {
      "eng": "Kim Yu Gyeong"
    },
    "name": "Kim Yu Gyeong",
    "tid": "10b2be95-bb20-4001-963d-f017751bfa05",
    "types": [
      "songwriters",
      "8"
    ],
    "repository": "kara.moe",
    "modified_at": "2020-03-31T19:04:35.527Z"
  }
}