{
  "header": {
    "description": "Karaoke Mugen Tag File",
    "version": 1
  },
  "tag": {
    "i18n": {
      "eng": "Kim Eana"
    },
    "name": "Kim Eana",
    "tid": "1352907c-eef7-4314-b75a-da056e9a7c62",
    "types": [
      "songwriters",
      "8"
    ],
    "repository": "kara.moe",
    "modified_at": "2020-03-31T19:04:35.522Z"
  }
}