{
  "header": {
    "description": "Karaoke Mugen Tag File",
    "version": 1
  },
  "tag": {
    "i18n": {
      "qro": "Kim Ri-won",
      "kor": "김리원"
    },
    "name": "Kim Ri-won",
    "repository": "kara.moe",
    "tid": "7d654063-84cc-4f0f-90d1-b340f3510e2c",
    "types": [
      "singers",
      "2"
    ]
  }
}