{
  "header": {
    "description": "Karaoke Mugen Tag File",
    "version": 1
  },
  "tag": {
    "i18n": {
      "eng": "Kim Inhyung"
    },
    "name": "Kim Inhyung",
    "repository": "kara.moe",
    "tid": "57503404-7063-4a2e-be04-2c7de7c01b03",
    "types": [
      "songwriters",
      "8"
    ]
  }
}