{
  "header": {
    "description": "Karaoke Mugen Tag File",
    "version": 1
  },
  "tag": {
    "i18n": {
      "eng": "Kim Jun-won (Glen Check)"
    },
    "name": "Kim Jun-won (Glen Check)",
    "repository": "kara.moe",
    "tid": "de56d277-8b9e-465b-a818-4df3eadb188f",
    "types": [
      "songwriters",
      "8"
    ]
  }
}