{
  "header": {
    "description": "Karaoke Mugen Tag File",
    "version": 1
  },
  "tag": {
    "i18n": {
      "eng": "Kim Ji-won"
    },
    "name": "Kim Ji-won",
    "repository": "kara.moe",
    "tid": "1bedf3c3-5f52-4828-83df-00a12b0955b5",
    "types": [
      "singers",
      "2"
    ]
  }
}