{
  "header": {
    "description": "Karaoke Mugen Tag File",
    "version": 1
  },
  "tag": {
    "i18n": {
      "eng": "Kim Yoo-hyeon"
    },
    "name": "Kim Yoo-hyeon",
    "repository": "kara.moe",
    "tid": "5b6be5fa-5f0a-4aa6-af51-00ec20141247",
    "types": [
      "singers",
      "2"
    ]
  }
}