{
  "header": {
    "description": "Karaoke Mugen Tag File",
    "version": 1
  },
  "tag": {
    "i18n": {
      "kor": "김가람",
      "qro": "Kim Ga-ram"
    },
    "name": "Kim Ga-ram",
    "repository": "kara.moe",
    "tid": "2d7d252d-f371-42bd-a398-457648a13c63",
    "types": [
      "singers",
      "2"
    ]
  }
}