{
  "header": {
    "description": "Karaoke Mugen Tag File",
    "version": 1
  },
  "tag": {
    "i18n": {
      "eng": "Kim Petras"
    },
    "modified_at": "2021-10-24T16:36:42.573Z",
    "name": "Kim Petras",
    "repository": "kara.moe",
    "tid": "6d5f45d4-9978-49b1-a223-d22588e288a0",
    "types": [
      "singers",
      "2"
    ]
  }
}