{
  "header": {
    "description": "Karaoke Mugen Tag File",
    "version": 1
  },
  "tag": {
    "i18n": {
      "eng": "Kim Seon-woo"
    },
    "name": "Kim Seon-woo",
    "repository": "kara.moe",
    "tid": "3c78bd2a-d09f-4efd-9916-cb8ced504a7a",
    "types": [
      "singers",
      "2"
    ]
  }
}