{
  "header": {
    "description": "Karaoke Mugen Tag File",
    "version": 1
  },
  "tag": {
    "i18n": {
      "eng": "Kim Hyun Ah"
    },
    "name": "Kim Hyun Ah",
    "repository": "kara.moe",
    "tid": "3631cd9b-fafd-4bae-88a4-b22593b7b546",
    "types": [
      "singers",
      "2"
    ]
  }
}