{
  "header": {
    "description": "Karaoke Mugen Tag File",
    "version": 1
  },
  "tag": {
    "aliases": [
      "Capricciosa Orange Road",
      "Capricious Orange Road",
      "KOR",
      "Kimagure Orange Road TV",
      "Max & compagnie",
      "kor tv",
      "Капризы Апельсиновой улицы [ТВ]",
      "橙路",
      "오렌지로드",
      "orange road"
    ],
    "external_database_ids": {
      "anilist": 1087,
      "myanimelist": 1087,
      "kitsu": 972
    },
    "i18n": {
      "fin": "Superperhe",
      "fre": "Max et compagnie",
      "ita": "È quasi magia Johnny",
      "jpn": "きまぐれオレンジ☆ロード",
      "spa": "Johnny y sus amigos",
      "swe": "Orange Road - Superfamiljen",
      "tur": "Portakal Yolu",
      "qro": "Kimagure Orange☆Road"
    },
    "modified_at": "2020-03-31T19:04:31.969Z",
    "name": "Kimagure Orange☆Road",
    "repository": "kara.moe",
    "tid": "79375c02-44fc-44be-ac29-ac3d02e0b625",
    "types": [
      "series",
      "1"
    ]
  }
}