{
  "header": {
    "description": "Karaoke Mugen Tag File",
    "version": 1
  },
  "tag": {
    "i18n": {
      "eng": "Kimberly Brooks"
    },
    "modified_at": "2020-05-08T13:29:40.754Z",
    "name": "Kimberly Brooks",
    "repository": "kara.moe",
    "tid": "daa092be-26e4-4b1d-8272-206a45de328c",
    "types": [
      "singers",
      "2"
    ]
  }
}