{
  "header": {
    "description": "Karaoke Mugen Tag File",
    "version": 1
  },
  "tag": {
    "aliases": [
      "KnY",
      "Les rôdeurs de la nuit"
    ],
    "external_database_ids": {
      "anilist": 145139,
      "kitsu": 45866,
      "myanimelist": 51019
    },
    "i18n": {
      "eng": "Demon Slayer: Kimetsu no Yaiba - Swordsmith Village Arc",
      "fre": "Demon Slayer : Kimetsu no Yaiba - Le village des forgerons",
      "jpn": "鬼滅の刃 刀鍛冶の里編",
      "qro": "Kimetsu no Yaiba: Katanakaji no Sato-hen"
    },
    "name": "Kimetsu no Yaiba: Katanakaji no Sato-hen",
    "repository": "kara.moe",
    "tid": "92044a32-7637-4a26-9e21-819d96dc063a",
    "types": [
      "series",
      "1"
    ]
  }
}