{
  "header": {
    "description": "Karaoke Mugen Tag File",
    "version": 1
  },
  "tag": {
    "aliases": [
      "Blade of Demon Destruction",
      "Les rôdeurs de la nuit"
    ],
    "external_database_ids": {
      "anilist": 101922,
      "myanimelist": 38000,
      "kitsu": 41370
    },
    "i18n": {
      "eng": "Demon Slayer",
      "fre": "Demon Slayer: Kimetsu no Yaiba",
      "jpn": "鬼滅の刃",
      "qro": "Kimetsu no Yaiba",
      "spa": "Guardianes de la noche"
    },
    "modified_at": "2021-12-06T17:47:30.764Z",
    "name": "Kimetsu no Yaiba",
    "repository": "kara.moe",
    "tid": "fedb7dc4-978d-425b-85ab-4cec99cee4f8",
    "types": [
      "series",
      "1",
      "franchises",
      "18"
    ]
  }
}