{
  "header": {
    "description": "Karaoke Mugen Tag File",
    "version": 1
  },
  "tag": {
    "i18n": {
      "eng": "Kimio Mizutani",
      "jpn": "水谷公生",
      "qro": "Kimio Mizutani"
    },
    "name": "Kimio Mizutani",
    "repository": "kara.moe",
    "tid": "fdeaf6e8-0826-41b0-b72f-457f8fac44c0",
    "types": [
      "songwriters",
      "8"
    ]
  }
}