{
  "header": {
    "description": "Karaoke Mugen Tag File",
    "version": 1
  },
  "tag": {
    "aliases": [
      "KimiNozo",
      "The Eternity You Desire Gaiden"
    ],
    "external_database_ids": {
      "anilist": 281,
      "myanimelist": 281,
      "kitsu": 256
    },
    "i18n": {
      "eng": "Rumbling Hearts: Akane Maniax",
      "jpn": "アカネマニアックス",
      "qro": "Kimi ga Nozomu Eien: Akane Maniax"
    },
    "modified_at": "2020-03-31T19:04:31.970Z",
    "name": "Kimi ga Nozomu Eien: Akane Maniax",
    "repository": "kara.moe",
    "tid": "931921ba-e0cb-49eb-a922-68a985ff6871",
    "types": [
      "series",
      "1"
    ]
  }
}