{
  "header": {
    "description": "Karaoke Mugen Tag File",
    "version": 1
  },
  "tag": {
    "aliases": [
      "有你的小镇"
    ],
    "external_database_ids": {
      "anilist": 17741,
      "myanimelist": 17741,
      "kitsu": 7672
    },
    "i18n": {
      "eng": "A Town Where You Live",
      "jpn": "君のいる町",
      "qro": "Kimi no Iru Machi"
    },
    "modified_at": "2020-03-31T19:04:31.974Z",
    "name": "Kimi no Iru Machi",
    "repository": "kara.moe",
    "tid": "834abb26-0b4c-46b1-a001-f9fbe63f5c4d",
    "types": [
      "series",
      "1"
    ]
  }
}