{
  "header": {
    "description": "Karaoke Mugen Tag File",
    "version": 1
  },
  "tag": {
    "i18n": {
      "eng": "Kiminori Wakasugi"
    },
    "name": "Kiminori Wakasugi",
    "tid": "05b548a2-6efa-43b8-8170-79be87986d96",
    "types": [
      "songwriters",
      "8"
    ],
    "repository": "kara.moe",
    "modified_at": "2020-03-31T19:04:35.532Z"
  }
}