{
  "header": {
    "description": "Karaoke Mugen Tag File",
    "version": 1
  },
  "tag": {
    "aliases": [
      "Kau dan Aku",
      "KtB",
      "kimiboku",
      "أنت و أنا, تو و من",
      "君僕"
    ],
    "external_database_ids": {
      "anilist": 10460,
      "myanimelist": 10460,
      "kitsu": 6191
    },
    "i18n": {
      "eng": "You and Me",
      "jpn": "君と僕.",
      "per": "کیمی تو بوکو",
      "qro": "Kimi to Boku."
    },
    "modified_at": "2020-03-31T19:04:31.977Z",
    "name": "Kimi to Boku.",
    "repository": "kara.moe",
    "tid": "59847696-a8b3-4d87-915a-349a08cebf33",
    "types": [
      "series",
      "1",
      "franchises",
      "18"
    ]
  }
}