{
  "header": {
    "description": "Karaoke Mugen Tag File",
    "version": 1
  },
  "tag": {
    "i18n": {
      "eng": "Kimihiro Abe"
    },
    "name": "Kimihiro Abe",
    "tid": "7a7184cb-ee15-4270-8063-dc97ea7f752f",
    "types": [
      "songwriters",
      "8"
    ],
    "repository": "kara.moe",
    "modified_at": "2020-03-31T19:04:35.530Z"
  }
}