{
  "header": {
    "description": "Karaoke Mugen Tag File",
    "version": 1
  },
  "tag": {
    "aliases": [
      "Kiniro Mosaic: Pretty Days"
    ],
    "external_database_ids": {
      "anilist": 21753,
      "myanimelist": 33034,
      "kitsu": 12140
    },
    "i18n": {
      "eng": "Kinmoza! Pretty Days",
      "fre": "Kin'iro Mosaic: Pretty Days",
      "jpn": "きんいろモザイク Pretty Days",
      "qro": "Kin'iro Mosaic: Pretty Days"
    },
    "modified_at": "2020-03-31T19:04:31.978Z",
    "name": "Kin'iro Mosaic: Pretty Days",
    "repository": "kara.moe",
    "tid": "2cd61905-6a87-4ec2-8405-e73d68480039",
    "types": [
      "series",
      "1"
    ]
  }
}