{
  "header": {
    "description": "Karaoke Mugen Tag File",
    "version": 1
  },
  "tag": {
    "aliases": [
      "Kindaichi Shounen no Jikenbo",
      "The Case Files of Young Kindaichi Movie",
      "Young Kindaichi's Casebook",
      "shounen"
    ],
    "external_database_ids": {
      "anilist": 2077,
      "myanimelist": 2077,
      "kitsu": 1876
    },
    "i18n": {
      "eng": "The Case File of Young Kindaichi",
      "fre": "Les Enquêtes de Kindaichi",
      "jpn": "金田一少年の事件簿",
      "qro": "Kindaichi Shônen no Jikenbo"
    },
    "modified_at": "2020-03-31T19:04:31.981Z",
    "name": "Kindaichi Shônen no Jikenbo",
    "repository": "kara.moe",
    "tid": "b817107a-1f1c-4e0c-82b0-c48d1df2d58b",
    "types": [
      "series",
      "1",
      "franchises",
      "18"
    ]
  }
}