{
  "header": {
    "description": "Karaoke Mugen Tag File",
    "version": 1
  },
  "tag": {
    "aliases": [
      "Kindaichi Case Files R",
      "Kindaichi R",
      "Kindaichi Shounen no Jikenbo Returns",
      "shounen"
    ],
    "external_database_ids": {
      "anilist": 20642,
      "myanimelist": 22817,
      "kitsu": 8310
    },
    "i18n": {
      "eng": "The Case File of Young Kindaichi Returns",
      "fre": "Les Enquêtes de Kindaichi: Le Retour",
      "jpn": "金田一少年の事件簿R[リターンズ]",
      "spa": "The File of Young Kindaichi Returns",
      "qro": "Kindaichi Shônen no Jikenbo Returns"
    },
    "modified_at": "2020-03-31T19:04:31.980Z",
    "name": "Kindaichi Shônen no Jikenbo Returns",
    "repository": "kara.moe",
    "tid": "0f27b7b1-5393-4ac0-85ec-65e181b35942",
    "types": [
      "series",
      "1"
    ]
  }
}