{
  "header": {
    "description": "Karaoke Mugen Tag File",
    "version": 1
  },
  "tag": {
    "i18n": {
      "eng": "Kinect Star Wars"
    },
    "modified_at": "2020-10-29T23:21:35.388Z",
    "name": "Kinect Star Wars",
    "repository": "kara.moe",
    "tid": "82cf7df5-379c-42e6-a0d5-d7ba6e051acf",
    "types": [
      "series",
      "1"
    ]
  }
}