{
  "header": {
    "description": "Karaoke Mugen Tag File",
    "version": 1
  },
  "tag": {
    "i18n": {
      "eng": "KINEMA106"
    },
    "name": "KINEMA106",
    "repository": "kara.moe",
    "tid": "fb5d6d09-7c73-4b44-8d83-80225d404d12",
    "types": [
      "creators",
      "4"
    ]
  }
}