{
  "header": {
    "description": "Karaoke Mugen Tag File",
    "version": 1
  },
  "tag": {
    "i18n": {
      "eng": "Kinema citrus"
    },
    "name": "Kinema citrus",
    "tid": "08df259d-c4ec-458e-a066-af38a9f7ccc5",
    "types": [
      "creators",
      "4"
    ],
    "repository": "kara.moe",
    "modified_at": "2020-03-31T19:04:35.535Z"
  }
}