{
  "header": {
    "description": "Karaoke Mugen Tag File",
    "version": 1
  },
  "tag": {
    "aliases": [
      "KH Coded"
    ],
    "i18n": {
      "eng": "Kingdom Hearts: Re: Coded",
      "jpn": "キングダム ハーツ コーデッド",
      "qro": "Kingdom Hearts: Re: Coded"
    },
    "modified_at": "2020-03-31T19:04:31.984Z",
    "name": "Kingdom Hearts: Re: Coded",
    "repository": "kara.moe",
    "tid": "5c9dd5b3-a362-426e-a9c9-179b023d5a89",
    "types": [
      "series",
      "1"
    ]
  }
}