{
  "header": {
    "description": "Karaoke Mugen Tag File",
    "version": 1
  },
  "tag": {
    "i18n": {
      "eng": "KING RECORDS"
    },
    "name": "KING RECORDS",
    "tid": "d2a29c19-019f-4a3d-86ad-2dae9e41a4b1",
    "types": [
      "creators",
      "4"
    ],
    "repository": "kara.moe",
    "modified_at": "2020-03-31T19:04:35.536Z"
  }
}