{
  "header": {
    "description": "Karaoke Mugen Tag File",
    "version": 1
  },
  "tag": {
    "external_database_ids": {
      "anilist": 113108,
      "myanimelist": 40682,
      "kitsu": 43037
    },
    "i18n": {
      "eng": "Kingdom 3",
      "fre": "Kingdom Saison 3",
      "qro": "Kingdom 3",
      "jpn": "キングダム3"
    },
    "name": "Kingdom 3",
    "repository": "kara.moe",
    "tid": "00557aef-6611-46e1-9717-ba1a597ed0fd",
    "types": [
      "series",
      "1"
    ]
  }
}