{
  "header": {
    "description": "Karaoke Mugen Tag File",
    "version": 1
  },
  "tag": {
    "i18n": {
      "eng": "KING REGUYTH"
    },
    "name": "KING REGUYTH",
    "tid": "68b47f52-ea9d-4f4e-b488-065a9632c669",
    "types": [
      "songwriters",
      "8"
    ],
    "repository": "kara.moe",
    "modified_at": "2020-03-31T19:04:35.537Z"
  }
}