{
  "header": {
    "description": "Karaoke Mugen Tag File",
    "version": 1
  },
  "tag": {
    "i18n": {
      "eng": "Kinpeibai"
    },
    "name": "Kinpeibai",
    "repository": "kara.moe",
    "tid": "2051231e-5c37-4b18-ac25-8fcb2be6e43e",
    "types": [
      "singers",
      "2"
    ]
  }
}