{
  "header": {
    "description": "Karaoke Mugen Tag File",
    "version": 1
  },
  "tag": {
    "i18n": {
      "eng": "Kinya Kotani"
    },
    "name": "Kinya Kotani",
    "tid": "41ff6888-618e-4b4d-b79e-a7b8ef48cad4",
    "types": [
      "singers",
      "2"
    ],
    "repository": "kara.moe",
    "modified_at": "2020-03-31T19:04:35.544Z"
  }
}