{
  "header": {
    "description": "Karaoke Mugen Tag File",
    "version": 1
  },
  "tag": {
    "i18n": {
      "eng": "Kira☆Kira",
      "jpn": "キラ☆キラ",
      "qro": "Kira Kira"
    },
    "modified_at": "2020-06-21T23:45:31.966Z",
    "name": "Kira Kira",
    "repository": "kara.moe",
    "tid": "62404f0b-1281-45ae-87d5-1eb0dd0feac7",
    "types": [
      "series",
      "1"
    ]
  }
}