{
  "header": {
    "description": "Karaoke Mugen Tag File",
    "version": 1
  },
  "tag": {
    "aliases": [
      "PriChan"
    ],
    "external_database_ids": {
      "anilist": 113990,
      "kitsu": 43369,
      "myanimelist": 40880
    },
    "i18n": {
      "eng": "Kiratto Pri☆Chan (3rd season)",
      "jpn": "キラッとプリ☆チャン シーズン3",
      "qro": "Kiratto Pri☆Chan season 3",
      "fre": "Kiratto Pri☆Chan (Saison 3)"
    },
    "name": "Kiratto Pri☆Chan season 3",
    "repository": "kara.moe",
    "tid": "8d9088f1-37e3-4d45-b2f1-3991591fb7f3",
    "types": [
      "series",
      "1"
    ]
  }
}