{
  "header": {
    "description": "Karaoke Mugen Tag File",
    "version": 1
  },
  "tag": {
    "aliases": [
      "Pretty Cure",
      "kirakira precure"
    ],
    "external_database_ids": {
      "anilist": 98059,
      "myanimelist": 34290,
      "kitsu": 12927
    },
    "i18n": {
      "eng": "Kirakira☆PreCure A la Mode",
      "jpn": "キラキラ☆プリキュアアラモード",
      "qro": "Kirakira☆PreCure A la Mode"
    },
    "modified_at": "2021-02-28T02:35:52.518Z",
    "name": "Kirakira☆PreCure A la Mode",
    "repository": "kara.moe",
    "tid": "9b0f6aff-9477-4259-8326-942785613fa5",
    "types": [
      "series",
      "1"
    ]
  }
}