{
  "header": {
    "description": "Karaoke Mugen Tag File",
    "version": 1
  },
  "tag": {
    "i18n": {
      "eng": "KIRA"
    },
    "name": "KIRA",
    "repository": "kara.moe",
    "tid": "ad7ea241-f3eb-4919-a182-166d52fc72c5",
    "types": [
      "songwriters",
      "8",
      "creators",
      "4",
      "singers",
      "2"
    ]
  }
}