{
  "header": {
    "description": "Karaoke Mugen Tag File",
    "version": 1
  },
  "tag": {
    "i18n": {
      "eng": "Kirbopher"
    },
    "name": "Kirbopher",
    "repository": "kara.moe",
    "tid": "202019f1-f3f6-4afc-bd8e-0e8f193e385a",
    "types": [
      "singers",
      "2"
    ]
  }
}