{
  "header": {
    "description": "Karaoke Mugen Tag File",
    "version": 1
  },
  "tag": {
    "i18n": {
      "eng": "Kirito"
    },
    "name": "Kirito",
    "tid": "7cdef762-91c5-4391-91ed-54ad79735950",
    "types": [
      "songwriters",
      "8"
    ],
    "repository": "kara.moe",
    "modified_at": "2020-03-31T19:04:35.548Z"
  }
}