{
  "header": {
    "description": "Karaoke Mugen Tag File",
    "version": 1
  },
  "tag": {
    "i18n": {
      "eng": "Kiritani Kenta"
    },
    "name": "Kiritani Kenta",
    "tid": "0c5ce87b-a135-4406-892b-89f44d61be63",
    "types": [
      "singers",
      "2"
    ],
    "repository": "kara.moe",
    "modified_at": "2020-03-31T19:04:35.547Z"
  }
}