{
  "header": {
    "description": "Karaoke Mugen Tag File",
    "version": 1
  },
  "tag": {
    "i18n": {
      "eng": "Kiroro"
    },
    "name": "Kiroro",
    "tid": "3b9ec804-7fdd-440e-a1c1-d0d969bb24af",
    "types": [
      "singers",
      "2"
    ],
    "repository": "kara.moe",
    "modified_at": "2020-03-31T19:04:35.549Z"
  }
}