{
  "header": {
    "description": "Karaoke Mugen Tag File",
    "version": 1
  },
  "tag": {
    "i18n": {
      "eng": "Kishida [Kishida Kyoudan & THE Akeboshi Rockets]"
    },
    "name": "Kishida [Kishida Kyoudan & THE Akeboshi Rockets]",
    "repository": "kara.moe",
    "tid": "16904e05-8ad0-4a30-b9df-a94aa0244a1f",
    "types": [
      "songwriters",
      "8"
    ]
  }
}