{
  "header": {
    "description": "Karaoke Mugen Tag File",
    "version": 1
  },
  "tag": {
    "i18n": {
      "eng": "Kishida Kyoudan & The Akeboshi Rockets",
      "jpn": "岸田教団&The明星ロケッツ"
    },
    "name": "Kishida Kyoudan & The Akeboshi Rockets",
    "repository": "kara.moe",
    "tid": "e1ee7c73-a565-4e83-b1b3-d7789a512415",
    "types": [
      "songwriters",
      "8",
      "singers",
      "2"
    ]
  }
}