{
  "header": {
    "description": "Karaoke Mugen Tag File",
    "version": 1
  },
  "tag": {
    "aliases": [
      "DemonBane OVA",
      "houkou"
    ],
    "external_database_ids": {
      "anilist": 766,
      "myanimelist": 766,
      "kitsu": 688
    },
    "i18n": {
      "eng": "Roar of the Machine God Demonbane",
      "jpn": "機神咆吼デモンベイン",
      "qro": "Kishin Hôkô Demonbane"
    },
    "modified_at": "2020-03-31T19:04:31.996Z",
    "name": "Kishin Hôkô Demonbane",
    "repository": "kara.moe",
    "tid": "35d4dbb0-e124-401a-b34f-5afccdef7495",
    "types": [
      "series",
      "1"
    ]
  }
}