{
  "header": {
    "description": "Karaoke Mugen Tag File",
    "version": 1
  },
  "tag": {
    "i18n": {
      "eng": "KISS"
    },
    "modified_at": "2021-10-19T15:20:50.156Z",
    "name": "KISS",
    "repository": "kara.moe",
    "tid": "27812131-b63a-4e63-a06c-4a6505b6decd",
    "types": [
      "singers",
      "2"
    ]
  }
}