{
  "header": {
    "description": "Karaoke Mugen Tag File",
    "version": 1
  },
  "tag": {
    "aliases": [
      "KSX"
    ],
    "external_database_ids": {
      "anilist": 7593,
      "myanimelist": 7593,
      "kitsu": 5045
    },
    "i18n": {
      "eng": "Kiss x Sis TV",
      "jpn": "キス×シス (2010)",
      "qro": "KissXSis (2010)"
    },
    "modified_at": "2020-03-31T19:04:31.999Z",
    "name": "KissXSis (2010)",
    "repository": "kara.moe",
    "tid": "fcd718c1-144e-4825-b7e4-d067da54304f",
    "types": [
      "series",
      "1"
    ]
  }
}