{
  "header": {
    "description": "Karaoke Mugen Tag File",
    "version": 1
  },
  "tag": {
    "i18n": {
      "eng": "KITA."
    },
    "name": "KITA.",
    "repository": "kara.moe",
    "tid": "51be2211-4282-4a7d-bfbf-e586dda19cc5",
    "types": [
      "songwriters",
      "8"
    ]
  }
}