{
  "header": {
    "description": "Karaoke Mugen Tag File",
    "version": 1
  },
  "tag": {
    "aliases": [
      "Kita e",
      "Kita-he",
      "To the North: Diamond Dust Drops",
      "khddd",
      "kita he"
    ],
    "external_database_ids": {
      "anilist": 148,
      "myanimelist": 148,
      "kitsu": 126
    },
    "i18n": {
      "eng": "Diamond Daydreams",
      "jpn": "北へ. ~Diamond Dust Drops~",
      "qro": "Kita e: Diamond Dust Drops"
    },
    "modified_at": "2020-03-31T19:04:32.001Z",
    "name": "Kita e: Diamond Dust Drops",
    "repository": "kara.moe",
    "tid": "dbd1ccaa-1bb8-4e67-9184-9188ec8dfed3",
    "types": [
      "series",
      "1"
    ]
  }
}