{
  "header": {
    "description": "Karaoke Mugen Tag File",
    "version": 1
  },
  "tag": {
    "i18n": {
      "eng": "Kitakore"
    },
    "modified_at": "2020-08-21T16:41:38.920Z",
    "name": "Kitakore",
    "repository": "kara.moe",
    "tid": "29d78ddd-9d0e-4a52-b53a-87cae80777c9",
    "types": [
      "singers",
      "2"
    ]
  }
}