{
  "header": {
    "description": "Karaoke Mugen Tag File",
    "version": 1
  },
  "tag": {
    "i18n": {
      "eng": "Kitomu Miyaza"
    },
    "modified_at": "2020-05-10T13:27:40.114Z",
    "name": "Kitomu Miyaza",
    "repository": "kara.moe",
    "tid": "dc54e368-e5c7-4479-9fd7-474f8aa04e19",
    "types": [
      "singers",
      "2"
    ]
  }
}