{
  "header": {
    "description": "Karaoke Mugen Tag File",
    "version": 1
  },
  "tag": {
    "i18n": {
      "eng": "Kitri"
    },
    "name": "Kitri",
    "repository": "kara.moe",
    "tid": "85bf88cf-5822-41e5-bb7b-93fd7ef5786d",
    "types": [
      "singers",
      "2"
    ]
  }
}