{
  "header": {
    "description": "Karaoke Mugen Tag File",
    "version": 1
  },
  "tag": {
    "i18n": {
      "eng": "KiWi"
    },
    "name": "KiWi",
    "repository": "kara.moe",
    "tid": "46cc842f-275d-4607-9884-827cfb0bea5f",
    "types": [
      "songwriters",
      "8"
    ]
  }
}