{
  "header": {
    "description": "Karaoke Mugen Tag File",
    "version": 1
  },
  "tag": {
    "i18n": {
      "eng": "Kiyono Yasuno"
    },
    "name": "Kiyono Yasuno",
    "tid": "853ada81-3791-4761-9d7e-8b08ddeabf10",
    "types": [
      "singers",
      "2"
    ],
    "repository": "kara.moe",
    "modified_at": "2020-03-31T19:04:35.564Z"
  }
}