{
  "header": {
    "description": "Karaoke Mugen Tag File",
    "version": 1
  },
  "tag": {
    "i18n": {
      "eng": "Kiyonori Matsuo"
    },
    "name": "Kiyonori Matsuo",
    "tid": "c42d3f64-9302-4472-8c70-e59d6bd24819",
    "types": [
      "singers",
      "2",
      "songwriters",
      "8"
    ],
    "repository": "kara.moe",
    "modified_at": "2020-03-31T19:04:35.564Z"
  }
}