{
  "header": {
    "description": "Karaoke Mugen Tag File",
    "version": 1
  },
  "tag": {
    "i18n": {
      "eng": "Kiyomi Kumano"
    },
    "name": "Kiyomi Kumano",
    "tid": "d5906158-9609-4e75-9f72-f66be9d592e0",
    "types": [
      "songwriters",
      "8",
      "singers",
      "2"
    ],
    "repository": "kara.moe",
    "modified_at": "2020-03-31T19:04:35.563Z"
  }
}