{
  "header": {
    "description": "Karaoke Mugen Tag File",
    "version": 1
  },
  "tag": {
    "i18n": {
      "eng": "Kiyoe Yoshioka"
    },
    "name": "Kiyoe Yoshioka",
    "repository": "kara.moe",
    "tid": "78aa4050-57b7-45d2-9575-57056ff8d9d9",
    "types": [
      "singers",
      "2"
    ]
  }
}