{
  "header": {
    "description": "Karaoke Mugen Tag File",
    "version": 1
  },
  "tag": {
    "i18n": {
      "eng": "Kiyosaku Uezu"
    },
    "name": "Kiyosaku Uezu",
    "tid": "c90ba668-3198-49df-ace2-32d42a90b3ec",
    "types": [
      "songwriters",
      "8"
    ],
    "repository": "kara.moe",
    "modified_at": "2020-03-31T19:04:35.565Z"
  }
}