{
  "header": {
    "description": "Karaoke Mugen Tag File",
    "version": 1
  },
  "tag": {
    "i18n": {
      "eng": "Kiyoyuki Arita"
    },
    "name": "Kiyoyuki Arita",
    "tid": "d40dab2d-1229-45d1-b77f-961ce00efffb",
    "types": [
      "songwriters",
      "8"
    ],
    "repository": "kara.moe",
    "modified_at": "2020-03-31T19:04:35.568Z"
  }
}