{
  "header": {
    "description": "Karaoke Mugen Tag File",
    "version": 1
  },
  "tag": {
    "i18n": {
      "eng": "Kiyû Funaki"
    },
    "name": "Kiyû Funaki",
    "tid": "e9048e3b-5651-448b-a502-05dbd54c80c5",
    "types": [
      "songwriters",
      "8"
    ],
    "repository": "kara.moe",
    "modified_at": "2020-03-31T19:04:35.569Z"
  }
}