{
  "header": {
    "description": "Karaoke Mugen Tag File",
    "version": 1
  },
  "tag": {
    "aliases": [
      "Monogatari Series"
    ],
    "external_database_ids": {
      "anilist": 21400,
      "myanimelist": 31758,
      "kitsu": 11407
    },
    "i18n": {
      "eng": "Kizumonogatari Part 3: Reiketsu",
      "fre": "Kizumonogatari III: Sang Cœur",
      "jpn": "傷物語〈Ⅲ冷血篇〉",
      "qro": "Kizumonogatari III: Reiketsu-hen"
    },
    "modified_at": "2020-03-31T19:04:32.004Z",
    "name": "Kizumonogatari III: Reiketsu-hen",
    "repository": "kara.moe",
    "tid": "f051df9d-473f-4288-b3d8-38b5af0600f5",
    "types": [
      "series",
      "1"
    ]
  }
}