{
  "header": {
    "description": "Karaoke Mugen Tag File",
    "version": 1
  },
  "tag": {
    "i18n": {
      "eng": "Kj"
    },
    "modified_at": "1982-04-06",
    "name": "Kj",
    "repository": "kara.moe",
    "tid": "804bd2d2-297f-41fa-b330-e295fa74a3ed",
    "types": [
      "songwriters",
      "8"
    ]
  }
}