{
  "header": {
    "description": "Karaoke Mugen Tag File",
    "version": 1
  },
  "tag": {
    "i18n": {
      "eng": "KLab"
    },
    "name": "KLab",
    "tid": "f3178845-e59b-4feb-9a45-de5f4e044b11",
    "types": [
      "creators",
      "4"
    ],
    "repository": "kara.moe",
    "modified_at": "2020-03-31T19:04:35.571Z"
  }
}