{
  "header": {
    "description": "Karaoke Mugen Tag File",
    "version": 1
  },
  "tag": {
    "i18n": {
      "eng": "KM-MARKIT"
    },
    "modified_at": "2020-06-01T16:52:28.954Z",
    "name": "KM-MARKIT",
    "repository": "kara.moe",
    "tid": "e5386204-b20a-4bfe-8c88-16a27db9e6b9",
    "types": [
      "songwriters",
      "8"
    ]
  }
}