{
  "header": {
    "description": "Karaoke Mugen Tag File",
    "version": 1
  },
  "tag": {
    "i18n": {
      "eng": "Knack Kikakubu"
    },
    "name": "Knack Kikakubu",
    "repository": "kara.moe",
    "tid": "d105b76d-7cbc-48ad-912c-96debbfb8d4a",
    "types": [
      "songwriters",
      "8"
    ]
  }
}