{
  "header": {
    "description": "Karaoke Mugen Tag File",
    "version": 1
  },
  "tag": {
    "i18n": {
      "eng": "Knar"
    },
    "name": "Knar",
    "repository": "kara.moe",
    "tid": "e02bd5e7-15cc-4504-b3b5-bf74723ae351",
    "types": [
      "authors",
      "6"
    ]
  }
}