{
  "header": {
    "description": "Karaoke Mugen Tag File",
    "version": 1
  },
  "tag": {
    "i18n": {
      "eng": "Kneesocks"
    },
    "modified_at": "2021-10-15T22:56:38.893Z",
    "name": "Kneesocks",
    "repository": "kara.moe",
    "tid": "17e19fd1-b0e0-4aa2-b6e0-55c74f669116",
    "types": [
      "singers",
      "2"
    ]
  }
}