{
  "header": {
    "description": "Karaoke Mugen Tag File",
    "version": 1
  },
  "tag": {
    "i18n": {
      "eng": "KNoCC"
    },
    "name": "KNoCC",
    "repository": "kara.moe",
    "tid": "0b61cf40-b4f5-4f55-82fa-63319ca66c2c",
    "types": [
      "singergroups",
      "17"
    ]
  }
}