{
  "header": {
    "description": "Karaoke Mugen Tag File",
    "version": 1
  },
  "tag": {
    "i18n": {
      "eng": "knotlamp"
    },
    "name": "knotlamp",
    "tid": "ad18fa8d-a756-4f92-948e-3899a95f424c",
    "types": [
      "singers",
      "2"
    ],
    "repository": "kara.moe",
    "modified_at": "2020-03-31T19:04:35.575Z"
  }
}