{
  "header": {
    "description": "Karaoke Mugen Tag File",
    "version": 1
  },
  "tag": {
    "i18n": {},
    "name": "Ko-jin Naoki",
    "repository": "kara.moe",
    "tid": "47b2c1c2-1d49-42fa-8bbf-e4baae68de68",
    "types": [
      "songwriters",
      "8"
    ]
  }
}