{
  "header": {
    "description": "Karaoke Mugen Tag File",
    "version": 1
  },
  "tag": {
    "aliases": [
      "Maidragon",
      "The Maid Dragon of Kobayashi-san",
      "maidragon",
      "Дракон-горничная Кобаяши-сан"
    ],
    "external_database_ids": {
      "anilist": 21776,
      "myanimelist": 33206,
      "kitsu": 12243
    },
    "i18n": {
      "chi": "小林家的龙女仆",
      "eng": "Miss Kobayashi's Dragon Maid",
      "fre": "Miss Kobayashi's Dragon Maid",
      "ita": "Miss Kobayashi's Dragon Name",
      "jpn": "小林さんちのメイドラゴン",
      "kor": "코바야시네 메이드래곤",
      "qro": "Kobayashi-san Chi no Maid Dragon"
    },
    "modified_at": "2020-06-21T23:45:31.966Z",
    "name": "Kobayashi-san Chi no Maid Dragon",
    "repository": "kara.moe",
    "tid": "9e0ac297-6165-4361-aa36-1e1d5e8294eb",
    "types": [
      "series",
      "1",
      "franchises",
      "18"
    ]
  }
}