{
  "header": {
    "description": "Karaoke Mugen Tag File",
    "version": 1
  },
  "tag": {
    "i18n": {
      "eng": "Koba Hayashi"
    },
    "name": "Koba Hayashi",
    "tid": "ba1cc8eb-f69e-4310-b004-c696ffe9507e",
    "types": [
      "songwriters",
      "8"
    ],
    "repository": "kara.moe",
    "modified_at": "2020-03-31T19:04:35.577Z"
  }
}