{
  "header": {
    "description": "Karaoke Mugen Tag File",
    "version": 1
  },
  "tag": {
    "i18n": {
      "eng": "kocho"
    },
    "name": "kocho",
    "tid": "74aac235-0a87-4128-8bee-d51216f39e93",
    "types": [
      "songwriters",
      "8"
    ],
    "repository": "kara.moe",
    "modified_at": "2020-03-31T19:04:35.580Z"
  }
}