{
  "header": {
    "description": "Karaoke Mugen Tag File",
    "version": 1
  },
  "tag": {
    "i18n": {
      "eng": "Kodan Kuuki"
    },
    "name": "Kodan Kuuki",
    "tid": "88528041-d3ba-4d73-acad-560ee50a28e2",
    "types": [
      "singers",
      "2"
    ],
    "repository": "kara.moe",
    "modified_at": "2020-03-31T19:04:35.581Z"
  }
}