{
  "header": {
    "description": "Karaoke Mugen Tag File",
    "version": 1
  },
  "tag": {
    "i18n": {
      "eng": "Kodai Yamada"
    },
    "name": "Kodai Yamada",
    "repository": "kara.moe",
    "tid": "dd718d99-396e-4a9c-a4d9-77dbcaa06f3c",
    "types": [
      "singers",
      "2"
    ]
  }
}