{
  "header": {
    "description": "Karaoke Mugen Tag File",
    "version": 1
  },
  "tag": {
    "aliases": [
      "KnJ2",
      "Kodomo no Jikan: Drugi Semestr",
      "Kojika",
      "kojikan 2",
      "kojikan ova",
      "小萝莉的时间2学期OVA"
    ],
    "external_database_ids": {
      "anilist": 4195,
      "myanimelist": 4195,
      "kitsu": 3515
    },
    "i18n": {
      "eng": "Kodomo no Jikan: Ni Gakki",
      "jpn": "こどものじかん 2学期",
      "qro": "Kodomo no Jikan: Ni Gakki"
    },
    "modified_at": "2020-03-31T19:04:32.007Z",
    "name": "Kodomo no Jikan: Ni Gakki",
    "repository": "kara.moe",
    "tid": "0d46b53a-fad7-4899-b3de-8f654489245e",
    "types": [
      "series",
      "1"
    ]
  }
}