{
  "header": {
    "description": "Karaoke Mugen Tag File",
    "version": 1
  },
  "tag": {
    "i18n": {
      "eng": "Kohaku Hashimoto"
    },
    "name": "Kohaku Hashimoto",
    "repository": "kara.moe",
    "tid": "f22b655f-2fae-48dc-b27f-db8b746d80b3",
    "types": [
      "authors",
      "6"
    ]
  }
}