{
  "header": {
    "description": "Karaoke Mugen Tag File",
    "version": 1
  },
  "tag": {
    "i18n": {
      "eng": "KOHEY"
    },
    "name": "KOHEY",
    "repository": "kara.moe",
    "tid": "72cadbc4-8ccc-4bbc-89bb-7c9e271fa00e",
    "types": [
      "singers",
      "2"
    ]
  }
}