{
  "header": {
    "description": "Karaoke Mugen Tag File",
    "version": 1
  },
  "tag": {
    "aliases": [
      "사랑과 거짓말"
    ],
    "external_database_ids": {
      "anilist": 98320,
      "myanimelist": 34934,
      "kitsu": 13257
    },
    "i18n": {
      "eng": "Love and Lies",
      "jpn": "恋と嘘",
      "qro": "Koi to Uso"
    },
    "modified_at": "2020-03-31T19:04:32.012Z",
    "name": "Koi to Uso",
    "repository": "kara.moe",
    "tid": "df1ab533-bf9e-45d0-a0a7-88f4717e6f31",
    "types": [
      "series",
      "1"
    ]
  }
}