{
  "header": {
    "description": "Karaoke Mugen Tag File",
    "version": 1
  },
  "tag": {
    "i18n": {
      "eng": "Koichi Domoto"
    },
    "name": "Koichi Domoto",
    "tid": "8af92811-3ef7-4833-ba4c-b7263e55399e",
    "types": [
      "singers",
      "2",
      "songwriters",
      "8"
    ],
    "repository": "kara.moe",
    "modified_at": "2020-03-31T19:04:35.591Z"
  }
}