{
  "header": {
    "description": "Karaoke Mugen Tag File",
    "version": 1
  },
  "tag": {
    "i18n": {
      "eng": "Koike Asao"
    },
    "name": "Koike Asao",
    "repository": "kara.moe",
    "tid": "1dbeb4d3-7f24-421c-8b4b-d70b66d6591f",
    "types": [
      "singers",
      "2"
    ]
  }
}