{
  "header": {
    "description": "Karaoke Mugen Tag File",
    "version": 1
  },
  "tag": {
    "i18n": {
      "eng": "KOJI"
    },
    "name": "KOJI",
    "tid": "455f2ca9-9817-4797-aa9e-65f52f8501b3",
    "types": [
      "songwriters",
      "8"
    ],
    "repository": "kara.moe",
    "modified_at": "2020-03-31T19:04:35.596Z"
  }
}