{
  "header": {
    "description": "Karaoke Mugen Tag File",
    "version": 1
  },
  "tag": {
    "i18n": {
      "eng": "Koji Miyashita"
    },
    "name": "Koji Miyashita",
    "tid": "ccce4faa-74d1-46e7-a783-e0970752f166",
    "types": [
      "songwriters",
      "8"
    ],
    "repository": "kara.moe",
    "modified_at": "2020-03-31T19:04:35.595Z"
  }
}