{
  "header": {
    "description": "Karaoke Mugen Tag File",
    "version": 1
  },
  "tag": {
    "i18n": {
      "eng": "Koji Shirasugi"
    },
    "name": "Koji Shirasugi",
    "repository": "kara.moe",
    "tid": "9b4d7fe9-7b22-44f4-aa6f-c43d1f613186",
    "types": [
      "singers",
      "2"
    ]
  }
}