{
  "header": {
    "description": "Karaoke Mugen Tag File",
    "version": 1
  },
  "tag": {
    "i18n": {
      "eng": "KOJIMA PRODUCTIONS"
    },
    "name": "KOJIMA PRODUCTIONS",
    "tid": "00f32bb5-4a82-4619-a35b-7efbac8aa99d",
    "types": [
      "creators",
      "4"
    ],
    "repository": "kara.moe",
    "modified_at": "2020-03-31T19:04:35.596Z"
  }
}