{
  "header": {
    "description": "Karaoke Mugen Tag File",
    "version": 1
  },
  "tag": {
    "i18n": {
      "eng": "Koji Nagai"
    },
    "name": "Koji Nagai",
    "repository": "kara.moe",
    "tid": "08a3b7c7-ae6e-4b3d-b976-f4151d1d64a7",
    "types": [
      "songwriters",
      "8"
    ]
  }
}