{
  "header": {
    "description": "Karaoke Mugen Tag File",
    "version": 1
  },
  "tag": {
    "i18n": {
      "eng": "Koji Kikkawa"
    },
    "modified_at": "2021-07-20T20:52:14.156Z",
    "name": "Koji Kikkawa",
    "repository": "kara.moe",
    "tid": "7858257a-52f0-46ec-9ba5-02019adcd989",
    "types": [
      "singers",
      "2"
    ]
  }
}