{
  "header": {
    "description": "Karaoke Mugen Tag File",
    "version": 1
  },
  "tag": {
    "external_database_ids": {
      "anilist": 100332,
      "myanimelist": 36548,
      "kitsu": 13958
    },
    "i18n": {
      "eng": "Kokkoku",
      "jpn": "刻刻",
      "kor": "째깍째깍",
      "qro": "Kokkoku"
    },
    "modified_at": "2020-03-31T19:04:32.014Z",
    "name": "Kokkoku",
    "repository": "kara.moe",
    "tid": "6cf0f176-65ef-4624-ad95-52e02a825374",
    "types": [
      "series",
      "1"
    ]
  }
}