{
  "header": {
    "description": "Karaoke Mugen Tag File",
    "version": 1
  },
  "tag": {
    "aliases": [
      "Kokoroco",
      "kokoco"
    ],
    "external_database_ids": {
      "anilist": 11887,
      "myanimelist": 11887,
      "kitsu": 6626
    },
    "i18n": {
      "eng": "Kokoro Connect",
      "jpn": "ココロコネクト",
      "qro": "Kokoro Connect"
    },
    "modified_at": "2020-03-31T19:04:32.014Z",
    "name": "Kokoro Connect",
    "repository": "kara.moe",
    "tid": "e10cbe47-b801-4ebb-8d3d-2e0157d54b57",
    "types": [
      "series",
      "1"
    ]
  }
}