{
  "header": {
    "description": "Karaoke Mugen Tag File",
    "version": 1
  },
  "tag": {
    "i18n": {
      "eng": "KOKOMI"
    },
    "name": "KOKOMI",
    "tid": "81b7c7e3-e6f2-4c3c-822a-3aefc00d29fd",
    "types": [
      "songwriters",
      "8",
      "singers",
      "2"
    ],
    "repository": "kara.moe",
    "modified_at": "2020-03-31T19:04:35.599Z"
  }
}