{
  "header": {
    "description": "Karaoke Mugen Tag File",
    "version": 1
  },
  "tag": {
    "aliases": [
      "K’s/Coro",
      "Coro"
    ],
    "i18n": {
      "eng": "kokorobeats"
    },
    "modified_at": "2021-10-07T21:39:37.232Z",
    "name": "kokorobeats",
    "repository": "kara.moe",
    "tid": "f50a7fd8-209f-4165-9ca9-b62a877da134",
    "types": [
      "songwriters",
      "8",
      "singers",
      "2"
    ]
  }
}