{
  "header": {
    "description": "Karaoke Mugen Tag File",
    "version": 1
  },
  "tag": {
    "i18n": {
      "eng": "koma2 kaz"
    },
    "name": "koma2 kaz",
    "tid": "a6ecc1f2-842a-4982-ae20-0bb77ced62a0",
    "types": [
      "songwriters",
      "8"
    ],
    "repository": "kara.moe",
    "modified_at": "2020-03-31T19:04:35.603Z"
  }
}