{
  "header": {
    "description": "Karaoke Mugen Tag File",
    "version": 1
  },
  "tag": {
    "i18n": {
      "eng": "Komine"
    },
    "name": "Komine",
    "tid": "98e6756b-fa61-4f34-beff-ef00fc992979",
    "types": [
      "creators",
      "4"
    ],
    "repository": "kara.moe",
    "modified_at": "2020-03-31T19:04:35.604Z"
  }
}