{
  "header": {
    "description": "Karaoke Mugen Tag File",
    "version": 1
  },
  "tag": {
    "aliases": [
      "Komusôya",
      "Komusoya"
    ],
    "i18n": {
      "eng": "Komsoya",
      "jpn": "狐夢想屋"
    },
    "modified_at": "2021-10-13T13:01:59.549Z",
    "name": "Komsoya",
    "repository": "kara.moe",
    "tid": "6a47ce13-3ffa-4c21-97d2-6863ce84483b",
    "types": [
      "singers",
      "2",
      "songwriters",
      "8"
    ]
  }
}