{
  "header": {
    "description": "Karaoke Mugen Tag File",
    "version": 1
  },
  "tag": {
    "aliases": [
      "CONACO"
    ],
    "i18n": {
      "eng": "Kona Shiomachi",
      "jpn": "汐街コナ"
    },
    "name": "Kona Shiomachi",
    "repository": "kara.moe",
    "tid": "ae6f95d2-6246-481b-bc53-95561d108d88",
    "types": [
      "creators",
      "4"
    ]
  }
}