{
  "header": {
    "description": "Karaoke Mugen Tag File",
    "version": 1
  },
  "tag": {
    "i18n": {
      "eng": "Konaka Kana"
    },
    "name": "Konaka Kana",
    "repository": "kara.moe",
    "tid": "b5cd22a6-b76f-476a-8dd8-4dd62478a05f",
    "types": [
      "singers",
      "2"
    ]
  }
}