{
  "header": {
    "description": "Karaoke Mugen Tag File",
    "version": 1
  },
  "tag": {
    "i18n": {
      "eng": "KONAMI"
    },
    "name": "KONAMI",
    "tid": "22092200-b324-4277-8269-b8b0929f42c1",
    "types": [
      "creators",
      "4"
    ],
    "repository": "kara.moe",
    "modified_at": "2020-03-31T19:04:35.607Z"
  }
}