{
  "header": {
    "description": "Karaoke Mugen Tag File",
    "version": 1
  },
  "tag": {
    "i18n": {
      "eng": "Konami Yoshida"
    },
    "modified_at": "2021-04-07T12:17:01.400Z",
    "name": "Konami Yoshida",
    "repository": "kara.moe",
    "tid": "51cf4859-cf9d-48ab-b35c-6b394da04f50",
    "types": [
      "singers",
      "2"
    ]
  }
}