{
  "header": {
    "description": "Karaoke Mugen Tag File",
    "version": 1
  },
  "tag": {
    "i18n": {
      "eng": "Konata"
    },
    "name": "Konata",
    "tid": "7f07c369-7e12-40e3-acd7-e7918a9b7600",
    "types": [
      "authors",
      "6"
    ],
    "repository": "kara.moe",
    "modified_at": "2020-03-31T19:04:35.608Z"
  }
}