{
  "header": {
    "description": "Karaoke Mugen Tag File",
    "version": 1
  },
  "tag": {
    "i18n": {
      "eng": "Koncorde"
    },
    "name": "Koncorde",
    "repository": "kara.moe",
    "tid": "24022e21-d806-4eb3-814c-f1950689e6ea",
    "types": [
      "songwriters",
      "8"
    ]
  }
}