{
  "header": {
    "description": "Karaoke Mugen Tag File",
    "version": 1
  },
  "tag": {
    "i18n": {
      "eng": "Kǒng Yáng",
      "chi": "孔陽"
    },
    "modified_at": "2021-03-13T16:01:50.814Z",
    "name": "Kǒng Yáng",
    "repository": "kara.moe",
    "tid": "4b2dbf4c-25f7-439a-a676-ac4f0f9ef096",
    "types": [
      "singers",
      "2"
    ]
  }
}