{
  "header": {
    "description": "Karaoke Mugen Tag File",
    "version": 1
  },
  "tag": {
    "i18n": {
      "eng": "KONISHIKI"
    },
    "name": "KONISHIKI",
    "tid": "2683796d-814e-47e7-8851-b67651cf025e",
    "types": [
      "singers",
      "2"
    ],
    "repository": "kara.moe",
    "modified_at": "2020-03-31T19:04:35.608Z"
  }
}