{
  "header": {
    "description": "Karaoke Mugen Tag File",
    "version": 1
  },
  "tag": {
    "aliases": [
      "To All the Corners of the World"
    ],
    "external_database_ids": {
      "anilist": 15227,
      "myanimelist": 15227,
      "kitsu": 7234
    },
    "i18n": {
      "eng": "In This Corner of the World",
      "fre": "Dans un recoin de ce monde",
      "ita": "In questo angolo di mondo",
      "jpn": "この世界の片隅に",
      "spa": "En este rincón del mundo",
      "qro": "Kono Sekai no Katasumi ni"
    },
    "modified_at": "2020-03-31T19:04:32.020Z",
    "name": "Kono Sekai no Katasumi ni",
    "repository": "kara.moe",
    "tid": "6e162548-007d-44c7-bf66-6cef4a58cb6b",
    "types": [
      "series",
      "1",
      "franchises",
      "18"
    ]
  }
}