{
  "header": {
    "description": "Karaoke Mugen Tag File",
    "version": 1
  },
  "tag": {
    "i18n": {
      "eng": "Konoco"
    },
    "name": "Konoco",
    "repository": "kara.moe",
    "tid": "dfaa8545-457d-4148-bbe5-9acee9749f4f",
    "types": [
      "singers",
      "2"
    ]
  }
}