{
  "header": {
    "description": "Karaoke Mugen Tag File",
    "version": 1
  },
  "tag": {
    "i18n": {
      "eng": "Konuko"
    },
    "modified_at": "2020-08-08T21:49:35.373Z",
    "name": "Konuko",
    "repository": "kara.moe",
    "tid": "293d0bbb-10e7-4bfc-b05b-f60ef0126ebf",
    "types": [
      "singers",
      "2"
    ]
  }
}