{
  "header": {
    "description": "Karaoke Mugen Tag File",
    "version": 1
  },
  "tag": {
    "i18n": {
      "eng": "Koopiskeva"
    },
    "name": "Koopiskeva",
    "repository": "kara.moe",
    "tid": "cba99a33-9a5f-4ab5-9ea7-95b3bf8e26b8",
    "types": [
      "creators",
      "4"
    ],
    "modified_at": "2020-03-31T19:04:35.612Z"
  }
}