{
  "header": {
    "description": "Karaoke Mugen Tag File",
    "version": 1
  },
  "tag": {
    "external_database_ids": {
      "anilist": 109728,
      "kitsu": 46192,
      "myanimelist": 52173
    },
    "i18n": {
      "eng": "The Ice Guy and His Cool Female Colleague",
      "jpn": "氷属性男子とクールな同僚女子",
      "qro": "Koori Zokusei Danshi to Cool na Douryo Joshi",
      "fre": "The Ice Guy & The Cool Girl"
    },
    "name": "Koori Zokusei Danshi to Cool na Douryo Joshi",
    "repository": "kara.moe",
    "tid": "b27a8c3d-9882-48d6-8a0d-7664943f80b6",
    "types": [
      "series",
      "1"
    ]
  }
}