{
  "header": {
    "description": "Karaoke Mugen Tag File",
    "version": 1
  },
  "tag": {
    "i18n": {
      "afr": "Koreaanse",
      "alb": "Korean",
      "amh": "የኮሪያ",
      "ara": "الكورية",
      "arm": "Կորեերեն",
      "aze": "Koreya",
      "bak": "Корея теле",
      "baq": "Korean",
      "bel": "Карэйская",
      "ben": "কোরিয়ান",
      "bos": "Korejski",
      "bul": "Корейски",
      "cat": "Coreà",
      "chi": "韩国",
      "cze": "Korejský",
      "dan": "Koreansk",
      "dut": "Koreaans",
      "eng": "Korean",
      "epo": "Korea",
      "est": "Korea",
      "fin": "Korean",
      "fre": "Coréen",
      "geo": "კორეელი",
      "ger": "Koreanisch",
      "gla": "Coirèanais",
      "gle": "Cóiréis",
      "glg": "Coreano",
      "gre": "Κορέας",
      "guj": "કોરિયન",
      "hat": "Koreyen",
      "heb": "קוריאני",
      "hin": "कोरियाई",
      "hrv": "Korejski",
      "hun": "Koreai",
      "ice": "Kóreu",
      "ind": "Korea",
      "ita": "Coreano",
      "jav": "Korea",
      "jpn": "韓国語",
      "kan": "ಕೊರಿಯಾದ",
      "kaz": "Корей",
      "kir": "Корейский",
      "kor": "한국어",
      "lat": "Coreanica",
      "lav": "Korejiešu",
      "lit": "Korėjiečių",
      "mac": "Корејската",
      "mal": "കൊറിയൻ",
      "mao": "Koreana",
      "mar": "कोरियन",
      "may": "Korea",
      "mlg": "Koreana",
      "mlt": "Korean",
      "mon": "Бнсу-ын",
      "nep": "कोरियाली",
      "nor": "Koreansk",
      "pan": "ਕੋਰੀਆਈ",
      "per": "کره ای",
      "pol": "Koreański",
      "por": "Coreano",
      "rum": "Coreeană",
      "rus": "Корейский",
      "sin": "කොරියානු",
      "slo": "Kórejský",
      "slv": "Korejski",
      "spa": "Coreano",
      "srp": "Корејски",
      "sun": "Korean",
      "swa": "Kikorea",
      "swe": "Koreanska",
      "tam": "கொரிய",
      "tat": "Корея теле",
      "tel": "కొరియన్",
      "tgk": "Korean",
      "tgl": "Koreano",
      "tha": "เกาหลี",
      "tur": "Kore",
      "ukr": "Корейська",
      "urd": "کوریا",
      "uzb": "Koreya",
      "vie": "Hàn quốc",
      "wel": "Corea",
      "xho": "Isikorean",
      "yid": "קאָרעיִש"
    },
    "modified_at": "2020-08-18T10:14:52.736Z",
    "name": "kor",
    "repository": "kara.moe",
    "tid": "3b9e2749-27d0-4a78-873d-ea91a9ee9a25",
    "types": [
      "langs",
      "5"
    ]
  }
}