{
  "header": {
    "description": "Karaoke Mugen Tag File",
    "version": 1
  },
  "tag": {
    "aliases": [
      "Mr. Hitman"
    ],
    "external_database_ids": {
      "anilist": 20329,
      "myanimelist": 20329,
      "kitsu": 8025
    },
    "i18n": {
      "eng": "Mr. Hitman",
      "jpn": "殺し屋さん The hired gun",
      "qro": "Koroshiya-san: The Hired Gun"
    },
    "modified_at": "2020-03-31T19:04:32.027Z",
    "name": "Koroshiya-san: The Hired Gun",
    "repository": "kara.moe",
    "tid": "4d9f06bb-3274-487d-bd81-7d16693dfefe",
    "types": [
      "series",
      "1"
    ]
  }
}