{
  "header": {
    "description": "Karaoke Mugen Tag File",
    "version": 1
  },
  "tag": {
    "i18n": {
      "eng": "Koronba"
    },
    "name": "Koronba",
    "repository": "kara.moe",
    "tid": "58971bd7-43ed-4041-b153-58093062a9cb",
    "types": [
      "songwriters",
      "8"
    ]
  }
}