{
  "header": {
    "description": "Karaoke Mugen Tag File",
    "version": 1
  },
  "tag": {
    "i18n": {
      "eng": "Korone Inugami",
      "jpn": "戌神ころね",
      "qro": "Korone Inugami"
    },
    "modified_at": "2021-09-06T20:43:38.673Z",
    "name": "Korone Inugami",
    "repository": "kara.moe",
    "tid": "2f6106ce-1a0e-42e8-a593-b9e04341cbeb",
    "types": [
      "singers",
      "2",
      "songwriters",
      "8"
    ]
  }
}