{
  "header": {
    "description": "Karaoke Mugen Tag File",
    "version": 1
  },
  "tag": {
    "i18n": {
      "eng": "Koronba 4-gou"
    },
    "name": "Koronba 4-gou",
    "repository": "kara.moe",
    "tid": "8b791f11-6c76-45bf-bd71-8ff5418d92dc",
    "types": [
      "singers",
      "2"
    ]
  }
}