{
  "header": {
    "description": "Karaoke Mugen Tag File",
    "version": 1
  },
  "tag": {
    "i18n": {
      "eng": "koshin"
    },
    "name": "koshin",
    "repository": "kara.moe",
    "tid": "17361aa0-e79b-402b-a9db-95900bb7139f",
    "types": [
      "songwriters",
      "8"
    ]
  }
}