{
  "header": {
    "description": "Karaoke Mugen Tag File",
    "version": 1
  },
  "tag": {
    "i18n": {
      "eng": "KoTa"
    },
    "name": "KoTa",
    "repository": "kara.moe",
    "tid": "eb9b25fa-13a5-47e5-b7bb-af996291b4f4",
    "types": [
      "songwriters",
      "8"
    ],
    "modified_at": "2020-03-31T19:04:35.617Z"
  }
}