{
  "header": {
    "description": "Karaoke Mugen Tag File",
    "version": 1
  },
  "tag": {
    "i18n": {
      "eng": "Kota Morita"
    },
    "name": "Kota Morita",
    "repository": "kara.moe",
    "tid": "97ee1551-59fd-4496-8288-58e1014f4057",
    "types": [
      "songwriters",
      "8"
    ]
  }
}