{
  "header": {
    "description": "Karaoke Mugen Tag File",
    "version": 1
  },
  "tag": {
    "i18n": {
      "eng": "Kotoha Minoru"
    },
    "name": "Kotoha Minoru",
    "tid": "26804160-a5b6-4910-af08-93fb8d3f7e63",
    "types": [
      "singers",
      "2"
    ],
    "repository": "kara.moe",
    "modified_at": "2020-03-31T19:04:35.620Z"
  }
}