{
  "header": {
    "description": "Karaoke Mugen Tag File",
    "version": 1
  },
  "tag": {
    "i18n": {
      "eng": "Kotonoha Akane"
    },
    "name": "Kotonoha Akane",
    "tid": "c36aec25-89d3-424b-b7a0-7810bf2c553d",
    "types": [
      "singers",
      "2"
    ],
    "repository": "kara.moe",
    "modified_at": "2020-03-31T19:04:35.623Z"
  }
}