{
  "header": {
    "description": "Karaoke Mugen Tag File",
    "version": 1
  },
  "tag": {
    "aliases": [
      "Kotoura-san",
      "내 마음의 비밀",
      "코토우라 양",
      "kotoura-san"
    ],
    "external_database_ids": {
      "anilist": 15379,
      "myanimelist": 15379,
      "kitsu": 7245
    },
    "i18n": {
      "eng": "The Troubled Life of Miss Koto-ura",
      "fre": "Kotoura-san",
      "jpn": "琴浦さん",
      "qro": "Kotôra-san"
    },
    "modified_at": "2020-03-31T19:04:32.029Z",
    "name": "Kotôra-san",
    "repository": "kara.moe",
    "tid": "bfff70b9-07c5-439f-9b8d-db3804e7558a",
    "types": [
      "series",
      "1"
    ]
  }
}