{
  "header": {
    "description": "Karaoke Mugen Tag File",
    "version": 1
  },
  "tag": {
    "i18n": {},
    "name": "kotokI",
    "repository": "kara.moe",
    "tid": "a547dda3-7128-44c0-ba10-559ec1975c36",
    "types": [
      "songwriters",
      "8"
    ]
  }
}