{
  "header": {
    "description": "Karaoke Mugen Tag File",
    "version": 1
  },
  "tag": {
    "i18n": {
      "eng": "kotose"
    },
    "name": "kotose",
    "repository": "kara.moe",
    "tid": "ce9ff7bf-34ab-4fc3-8785-13aa0ac0afbf",
    "types": [
      "creators",
      "4"
    ]
  }
}