{
  "header": {
    "description": "Karaoke Mugen Tag File",
    "version": 1
  },
  "tag": {
    "i18n": {
      "eng": "Kô Shibusawa"
    },
    "name": "Kô Shibusawa",
    "repository": "kara.moe",
    "tid": "162e97f4-06f6-45b9-af94-6727d7dcafcf",
    "types": [
      "creators",
      "4"
    ]
  }
}