{
  "header": {
    "description": "Karaoke Mugen Tag File",
    "version": 1
  },
  "tag": {
    "i18n": {
      "eng": "Kô Ootani"
    },
    "name": "Kô Ootani",
    "tid": "dcd8e1b8-2533-4446-9929-98780636c4e3",
    "types": [
      "songwriters",
      "8"
    ],
    "repository": "kara.moe",
    "modified_at": "2020-03-31T19:04:35.627Z"
  }
}