{
  "header": {
    "description": "Karaoke Mugen Tag File",
    "version": 1
  },
  "tag": {
    "i18n": {
      "eng": "Kôdai Sakai"
    },
    "name": "Kôdai Sakai",
    "tid": "cf0e8acf-f0b0-4c02-a74e-ad96671fa39a",
    "types": [
      "singers",
      "2"
    ],
    "repository": "kara.moe",
    "modified_at": "2020-03-31T19:04:35.629Z"
  }
}