{
  "header": {
    "description": "Karaoke Mugen Tag File",
    "version": 1
  },
  "tag": {
    "i18n": {
      "eng": "Kôdai Akiba",
      "jpn": "秋葉広大",
      "qro": "Kôdai Akiba"
    },
    "name": "Kôdai Akiba",
    "tid": "d20b0fbd-0a22-48f6-bca5-4b90ee72d2ed",
    "types": [
      "songwriters",
      "8"
    ],
    "repository": "kara.moe",
    "modified_at": "2020-03-31T19:04:35.628Z"
  }
}