{
  "header": {
    "description": "Karaoke Mugen Tag File",
    "version": 1
  },
  "tag": {
    "aliases": [
      "Kouhan Kawauchi"
    ],
    "i18n": {
      "eng": "Kôhan Kawauchi"
    },
    "modified_at": "2020-08-20T16:01:13.062Z",
    "name": "Kôhan Kawauchi",
    "repository": "kara.moe",
    "tid": "9727133e-50c5-4ab3-b3aa-791b2dc08424",
    "types": [
      "songwriters",
      "8"
    ]
  }
}