{
  "header": {
    "description": "Karaoke Mugen Tag File",
    "version": 1
  },
  "tag": {
    "i18n": {
      "eng": "Kôhei Miyahara"
    },
    "name": "Kôhei Miyahara",
    "tid": "c95bc106-6492-4b69-be45-0cfb8d222b37",
    "types": [
      "songwriters",
      "8"
    ],
    "repository": "kara.moe",
    "modified_at": "2020-03-31T19:04:35.634Z"
  }
}