{
  "header": {
    "description": "Karaoke Mugen Tag File",
    "version": 1
  },
  "tag": {
    "i18n": {
      "eng": "Kôichi Sugiyama"
    },
    "name": "Kôichi Sugiyama",
    "tid": "edb3c675-645d-476c-b15e-a4fc45e3704b",
    "types": [
      "songwriters",
      "8",
      "singers",
      "2"
    ],
    "repository": "kara.moe",
    "modified_at": "2020-03-31T19:04:35.645Z"
  }
}