{
  "header": {
    "description": "Karaoke Mugen Tag File",
    "version": 1
  },
  "tag": {
    "i18n": {
      "eng": "Kôichi Glielmo"
    },
    "name": "Kôichi Glielmo",
    "tid": "4ae6ce35-0a2c-43be-8b98-6fb48adc95a4",
    "types": [
      "songwriters",
      "8"
    ],
    "repository": "kara.moe",
    "modified_at": "2020-03-31T19:04:35.639Z"
  }
}