{
  "header": {
    "description": "Karaoke Mugen Tag File",
    "version": 1
  },
  "tag": {
    "i18n": {
      "eng": "Kôji Takahashi"
    },
    "name": "Kôji Takahashi",
    "tid": "7cf7b9c4-746e-45b1-a2a0-01a51b959094",
    "types": [
      "singers",
      "2"
    ],
    "repository": "kara.moe",
    "modified_at": "2020-03-31T19:04:35.660Z"
  }
}