{
  "header": {
    "description": "Karaoke Mugen Tag File",
    "version": 1
  },
  "tag": {
    "i18n": {
      "eng": "Kôji Ueda"
    },
    "name": "Kôji Ueda",
    "tid": "877d3cc4-2891-4a8b-bd34-9404fb1c39c1",
    "types": [
      "songwriters",
      "8"
    ],
    "repository": "kara.moe",
    "modified_at": "2020-03-31T19:04:35.662Z"
  }
}