{
  "header": {
    "description": "Karaoke Mugen Tag File",
    "version": 1
  },
  "tag": {
    "i18n": {
      "eng": "Kôji Seo"
    },
    "name": "Kôji Seo",
    "tid": "e7577622-1bb1-4e8f-bc86-caf588001143",
    "types": [
      "songwriters",
      "8"
    ],
    "repository": "kara.moe",
    "modified_at": "2020-03-31T19:04:35.659Z"
  }
}