{
  "header": {
    "description": "Karaoke Mugen Tag File",
    "version": 1
  },
  "tag": {
    "i18n": {
      "eng": "Kôji Matsuo"
    },
    "name": "Kôji Matsuo",
    "tid": "26819f39-07cd-4202-aa97-db26e104437d",
    "types": [
      "songwriters",
      "8"
    ],
    "repository": "kara.moe",
    "modified_at": "2020-03-31T19:04:35.655Z"
  }
}