{
  "header": {
    "description": "Karaoke Mugen Tag File",
    "version": 1
  },
  "tag": {
    "i18n": {
      "eng": "Kôji Yusa"
    },
    "name": "Kôji Yusa",
    "tid": "8b4a9472-1572-4635-82e0-a3af5083c418",
    "types": [
      "singers",
      "2"
    ],
    "repository": "kara.moe",
    "modified_at": "2020-03-31T19:04:35.663Z"
  }
}