{
  "header": {
    "description": "Karaoke Mugen Tag File",
    "version": 1
  },
  "tag": {
    "i18n": {
      "eng": "Kôji Tsujitani"
    },
    "name": "Kôji Tsujitani",
    "tid": "259ce504-38df-44ea-8508-713e13d48520",
    "types": [
      "singers",
      "2"
    ],
    "repository": "kara.moe",
    "modified_at": "2020-03-31T19:04:35.661Z"
  }
}