{
  "header": {
    "description": "Karaoke Mugen Tag File",
    "version": 1
  },
  "tag": {
    "i18n": {
      "eng": "Kôji Tamaki"
    },
    "name": "Kôji Tamaki",
    "tid": "d5945653-fb1c-4775-b31b-977fc6e06ae4",
    "types": [
      "songwriters",
      "8"
    ],
    "repository": "kara.moe",
    "modified_at": "2020-03-31T19:04:35.660Z"
  }
}