{
  "header": {
    "description": "Karaoke Mugen Tag File",
    "version": 1
  },
  "tag": {
    "i18n": {
      "eng": "Kôji Gotô"
    },
    "name": "Kôji Gotô",
    "repository": "kara.moe",
    "tid": "82b77f4e-619c-4c79-bafe-0aad6e267210",
    "types": [
      "songwriters",
      "8"
    ],
    "modified_at": "2020-03-31T19:04:35.651Z"
  }
}