{
  "header": {
    "description": "Karaoke Mugen Tag File",
    "version": 1
  },
  "tag": {
    "aliases": [
      "Koukyoushihen Eureka Seven: Hi-Evolution Anemone",
      "koukyoushihen"
    ],
    "external_database_ids": {
      "anilist": 98470,
      "myanimelist": 35135,
      "kitsu": 13239
    },
    "i18n": {
      "eng": "Eureka Seven Hi-Evolution 2: Anemone",
      "jpn": "ANEMONE／交響詩篇エウレカセブン ハイエボリューション",
      "qro": "Kôkyôshihen Eureka Seven: Hi-Evolution Anemone"
    },
    "modified_at": "2020-03-31T19:04:32.035Z",
    "name": "Kôkyôshihen Eureka Seven: Hi-Evolution Anemone",
    "repository": "kara.moe",
    "tid": "7101bfa6-96e6-473a-a903-06ce47a09fd6",
    "types": [
      "series",
      "1"
    ]
  }
}