{
  "header": {
    "description": "Karaoke Mugen Tag File",
    "version": 1
  },
  "tag": {
    "aliases": [
      "KnR",
      "Koukaku no Regios",
      "Regios - miestas po kiautu",
      "Бронираните Региос",
      "Хромированный Региос",
      "钢壳之雷吉奥斯",
      "koukaku"
    ],
    "external_database_ids": {
      "anilist": 4186,
      "myanimelist": 4186,
      "kitsu": 3508
    },
    "i18n": {
      "eng": "Chrome Shelled Regios",
      "fre": "Kôkaku no Regios",
      "jpn": "鋼殻のレギオス",
      "qro": "Kôkaku no Regios"
    },
    "modified_at": "2020-06-21T23:45:31.966Z",
    "name": "Kôkaku no Regios",
    "repository": "kara.moe",
    "tid": "2740c24b-ae16-4dd1-8b3b-7ff1e18f6403",
    "types": [
      "series",
      "1"
    ]
  }
}