{
  "header": {
    "description": "Karaoke Mugen Tag File",
    "version": 1
  },
  "tag": {
    "aliases": [
      "GITS SAC",
      "Ghost in the Shell SAC",
      "Ghost in the Shell TV",
      "GitS SAC",
      "GitS TV",
      "GitS: SAC",
      "GitS:SAC",
      "GitSSAC",
      "GitSSAC1",
      "GitSTV",
      "Koukaku Kidoutai: Stand Alone Complex",
      "Mobile Armoured Riot Police Stand Alone Complex",
      "SAC",
      "SAC1",
      "Дух в оболонці: комплекс окремості",
      "Призрак в доспехах: Автономный комплекс",
      "攻壳",
      "koukaku",
      "kidoutai"
    ],
    "external_database_ids": {
      "anilist": 467,
      "myanimelist": 467,
      "kitsu": 429
    },
    "i18n": {
      "chi": "攻壳机动队",
      "cze": "Ghost in the Shell: Stand Alone Complex",
      "dan": "Ghost in the Shell: Stand Alone Complex",
      "eng": "Ghost in the Shell: Stand Alone Complex",
      "fin": "Ghost in the Shell: Stand Alone Complex",
      "fre": "Ghost in the Shell: Stand Alone Complex",
      "ger": "Ghost in the Shell: Stand Alone Complex",
      "hun": "Ghost in the Shell: Stand Alone Complex",
      "ita": "Ghost in the Shell: Stand Alone Complex",
      "jpn": "攻殻機動隊 STAND ALONE COMPLEX",
      "kor": "공각기동대 STAND ALONE COMPLEX",
      "pol": "Ghost in the Shell: Stand Alone Complex",
      "por": "Ghost in the Shell: Stand Alone Complex - Cidade Assombrada",
      "rum": "Ghost in the Shell: Stand Alone Complex",
      "rus": "Призрак в доспехах: Синдром одиночки",
      "swe": "Ghost in the Shell: Stand Alone Complex",
      "qro": "Kôkaku Kidôtai: Stand Alone Complex"
    },
    "modified_at": "2020-03-31T19:04:32.031Z",
    "name": "Kôkaku Kidôtai: Stand Alone Complex",
    "repository": "kara.moe",
    "tid": "d062e647-94cf-44e9-aa67-527934ff58d2",
    "types": [
      "series",
      "1"
    ]
  }
}