{
  "header": {
    "description": "Karaoke Mugen Tag File",
    "version": 1
  },
  "tag": {
    "aliases": [
      "Koukyuu",
      "A Raven in the Harem",
      "後宮之烏"
    ],
    "i18n": {
      "eng": "Raven of the Inner Palace",
      "jpn": "後宮の烏",
      "qro": "Koukyû no Karasu",
      "chi": "后宫之乌"
    },
    "name": "Koukyû no Karasu",
    "repository": "kara.moe",
    "tid": "bf938ff7-a4d7-4d7b-bd63-d8da947fcbc5",
    "types": [
      "series",
      "1"
    ]
  }
}