{
  "header": {
    "description": "Karaoke Mugen Tag File",
    "version": 1
  },
  "tag": {
    "aliases": [
      "GITS",
      "Stand Alone Complex 2045",
      "Koukaku Kidoutai",
      "koukaku",
      "kidoutai"
    ],
    "external_database_ids": {
      "anilist": 106154,
      "myanimelist": 38799,
      "kitsu": 42036
    },
    "i18n": {
      "eng": "Ghost in the Shell: SAC_2045",
      "jpn": "攻殻機動隊 SAC_2045",
      "qro": "Kôkaku Kidôtai: SAC_2045"
    },
    "modified_at": "2021-01-29T13:10:03.033Z",
    "name": "Kôkaku Kidôtai: SAC_2045",
    "repository": "kara.moe",
    "tid": "c70cb31c-50cc-4a34-90e1-5416855a0eb0",
    "types": [
      "series",
      "1"
    ]
  }
}