{
  "header": {
    "description": "Karaoke Mugen Tag File",
    "version": 1
  },
  "tag": {
    "i18n": {
      "eng": "Kôsuke Tsuruta"
    },
    "name": "Kôsuke Tsuruta",
    "repository": "kara.moe",
    "tid": "02bc9662-9b71-4304-9469-ad93201acb2d",
    "types": [
      "songwriters",
      "8"
    ]
  }
}