{
  "header": {
    "description": "Karaoke Mugen Tag File",
    "version": 1
  },
  "tag": {
    "i18n": {
      "eng": "Kôsetsu Minami"
    },
    "name": "Kôsetsu Minami",
    "tid": "370082f0-2edb-4d77-b580-9603dfdd715c",
    "types": [
      "singers",
      "2",
      "songwriters",
      "8"
    ],
    "repository": "kara.moe",
    "modified_at": "2020-03-31T19:04:35.670Z"
  }
}