{
  "header": {
    "description": "Karaoke Mugen Tag File",
    "version": 1
  },
  "tag": {
    "i18n": {
      "eng": "Kôsuke Ooki"
    },
    "name": "Kôsuke Ooki",
    "repository": "kara.moe",
    "tid": "c75cf6ed-6ae1-4fa5-9ce0-db9b22c00fcb",
    "types": [
      "songwriters",
      "8",
      "singers",
      "2"
    ]
  }
}