{
  "header": {
    "description": "Karaoke Mugen Tag File",
    "version": 1
  },
  "tag": {
    "i18n": {
      "eng": "Koushirou Honda"
    },
    "name": "Koushirou Honda",
    "repository": "kara.moe",
    "tid": "bdddae64-0871-4239-992a-662297c15756",
    "types": [
      "songwriters",
      "8"
    ]
  }
}