{
  "header": {
    "description": "Karaoke Mugen Tag File",
    "version": 1
  },
  "tag": {
    "aliases": [
      "Kousei Asami"
    ],
    "i18n": {
      "eng": "Kôsei Asami"
    },
    "modified_at": "2020-08-19T15:58:44.237Z",
    "name": "Kôsei Asami",
    "repository": "kara.moe",
    "tid": "91214dc7-7662-4f8c-aef3-609a1b2b9c1c",
    "types": [
      "songwriters",
      "8"
    ]
  }
}