{
  "header": {
    "description": "Karaoke Mugen Tag File",
    "version": 1
  },
  "tag": {
    "i18n": {
      "eng": "Kousuke Kanai"
    },
    "modified_at": "2021-06-09T21:08:17.466Z",
    "name": "Kousuke Kanai",
    "repository": "kara.moe",
    "tid": "12a7230b-c061-4db8-a625-a5ad2ecce8b9",
    "types": [
      "songwriters",
      "8"
    ]
  }
}