{
  "header": {
    "description": "Karaoke Mugen Tag File",
    "version": 1
  },
  "tag": {
    "i18n": {
      "eng": "Kôsuke Kuwano"
    },
    "name": "Kôsuke Kuwano",
    "tid": "e87e701e-c2b3-4641-91c6-d969aef8b888",
    "types": [
      "singers",
      "2"
    ],
    "repository": "kara.moe",
    "modified_at": "2020-03-31T19:04:35.676Z"
  }
}