{
  "header": {
    "description": "Karaoke Mugen Tag File",
    "version": 1
  },
  "tag": {
    "i18n": {
      "eng": "Kôshi Miura"
    },
    "name": "Kôshi Miura",
    "tid": "799f220e-e32c-4b1c-8f6a-78fff3cccdaa",
    "types": [
      "songwriters",
      "8"
    ],
    "repository": "kara.moe",
    "modified_at": "2020-03-31T19:04:35.672Z"
  }
}