{
  "header": {
    "description": "Karaoke Mugen Tag File",
    "version": 1
  },
  "tag": {
    "i18n": {
      "eng": "Kôshi Asagawa"
    },
    "name": "Kôshi Asagawa",
    "repository": "kara.moe",
    "tid": "ab29c273-6791-4c42-be35-c36a639bfd4a",
    "types": [
      "singers",
      "2"
    ]
  }
}