{
  "header": {
    "description": "Karaoke Mugen Tag File",
    "version": 1
  },
  "tag": {
    "aliases": [
      "Kousoku Sentai Turboranger",
      "kousoku"
    ],
    "i18n": {
      "eng": "High Speed Squadron Turboranger",
      "fre": "Turbo Rangers",
      "jpn": "高速戦隊ターボレンジャ",
      "qro": "Kôsoku Sentai Turboranger"
    },
    "modified_at": "2020-03-31T19:04:32.037Z",
    "name": "Kôsoku Sentai Turboranger",
    "repository": "kara.moe",
    "tid": "3028c398-e37c-4015-85a7-681a84eb8526",
    "types": [
      "series",
      "1"
    ]
  }
}