{
  "header": {
    "description": "Karaoke Mugen Tag File",
    "version": 1
  },
  "tag": {
    "i18n": {
      "eng": "Kôsuke Kanai"
    },
    "name": "Kôsuke Kanai",
    "tid": "0998ccc3-44f5-4f33-a983-fb3a418261cf",
    "types": [
      "songwriters",
      "8"
    ],
    "repository": "kara.moe",
    "modified_at": "2020-03-31T19:04:35.675Z"
  }
}