{
  "header": {
    "description": "Karaoke Mugen Tag File",
    "version": 1
  },
  "tag": {
    "aliases": [
      "Kouta Hanazawa"
    ],
    "i18n": {
      "eng": "Kôta Hanazawa"
    },
    "modified_at": "2020-08-19T17:31:15.267Z",
    "name": "Kôta Hanazawa",
    "repository": "kara.moe",
    "tid": "5cd11612-f781-4496-a41c-dd14c1efe483",
    "types": [
      "songwriters",
      "8"
    ]
  }
}