{
  "header": {
    "description": "Karaoke Mugen Tag File",
    "version": 1
  },
  "tag": {
    "i18n": {
      "eng": "Kôtaro Hashimoto"
    },
    "name": "Kôtaro Hashimoto",
    "repository": "kara.moe",
    "tid": "db1a0f4d-22c1-425b-9f0d-1b3713983547",
    "types": [
      "singers",
      "2"
    ]
  }
}