{
  "header": {
    "description": "Karaoke Mugen Tag File",
    "version": 1
  },
  "tag": {
    "aliases": [
      "Kabaneri of the Iron Fortress -Revolt- Beginning Tracks",
      "Koutetsujou no Kabaneri",
      "Желязната крепост на мъртвите",
      "Заклеймённые из «Стальной крепости»",
      "Кабанери от Желязната крепост",
      "koutetsujou"
    ],
    "i18n": {
      "eng": "Kabaneri of the Iron Fortress ~Revolt~ Beginning Tracks",
      "jpn": "甲鉄城のカバネリ -乱- 始まる軌跡",
      "qro": "Kôtetsujô no Kabaneri -Ran- Hajimaru Michiato"
    },
    "modified_at": "2020-06-21T23:45:31.966Z",
    "name": "Kôtetsujô no Kabaneri -Ran- Hajimaru Michiato",
    "repository": "kara.moe",
    "tid": "66fb3c85-96b7-4cfe-8c0d-dae374757723",
    "types": [
      "series",
      "1"
    ]
  }
}