{
  "header": {
    "description": "Karaoke Mugen Tag File",
    "version": 1
  },
  "tag": {
    "i18n": {
      "eng": "Kôtarô Egami"
    },
    "name": "Kôtarô Egami",
    "tid": "81844a73-2646-40e4-9cb5-4da114164898",
    "types": [
      "songwriters",
      "8"
    ],
    "repository": "kara.moe",
    "modified_at": "2020-03-31T19:04:35.686Z"
  }
}