{
  "header": {
    "description": "Karaoke Mugen Tag File",
    "version": 1
  },
  "tag": {
    "i18n": {
      "eng": "Kôtarô Odaka"
    },
    "name": "Kôtarô Odaka",
    "tid": "638043e4-fee4-42c2-9843-3bcf0974c490",
    "types": [
      "songwriters",
      "8"
    ],
    "repository": "kara.moe",
    "modified_at": "2020-03-31T19:04:35.688Z"
  }
}