{
  "header": {
    "description": "Karaoke Mugen Tag File",
    "version": 1
  },
  "tag": {
    "i18n": {
      "eng": "Kôtarô Gotô"
    },
    "name": "Kôtarô Gotô",
    "tid": "1dfed801-b94c-447d-8fb8-7d0c80828d90",
    "types": [
      "songwriters",
      "8"
    ],
    "repository": "kara.moe",
    "modified_at": "2020-03-31T19:04:35.686Z"
  }
}