{
  "header": {
    "description": "Karaoke Mugen Tag File",
    "version": 1
  },
  "tag": {
    "aliases": [
      "Isamu the Wilderness Boy",
      "Kouya no Shounen Isamu",
      "The Rough and Ready Cowboy",
      "Willy Boy",
      "kouya",
      "shounen"
    ],
    "external_database_ids": {
      "anilist": 4597,
      "myanimelist": 4597,
      "kitsu": 3701
    },
    "i18n": {
      "eng": "Koya no Shonen Isamu",
      "fre": "Willie Boy",
      "ita": "Sam, il ragazzo del West",
      "jpn": "荒野の少年イサム",
      "qro": "Kôya no Shônen Isamu"
    },
    "modified_at": "2020-03-31T19:04:32.042Z",
    "name": "Kôya no Shônen Isamu",
    "repository": "kara.moe",
    "tid": "0bf00178-27d7-4309-ad82-94f35addfc32",
    "types": [
      "series",
      "1"
    ]
  }
}