{
  "header": {
    "description": "Karaoke Mugen Tag File",
    "version": 1
  },
  "tag": {
    "i18n": {
      "eng": "Kôzô Murashita"
    },
    "name": "Kôzô Murashita",
    "tid": "972ee5d2-6735-4bfc-b618-b9cd2f87aa60",
    "types": [
      "singers",
      "2",
      "songwriters",
      "8"
    ],
    "repository": "kara.moe",
    "modified_at": "2020-03-31T19:04:35.689Z"
  }
}