{
  "header": {
    "description": "Karaoke Mugen Tag File",
    "version": 1
  },
  "tag": {
    "i18n": {
      "eng": "Koyori Kisaragi"
    },
    "modified_at": "2021-01-29T01:02:28.789Z",
    "name": "Koyori Kisaragi",
    "repository": "kara.moe",
    "tid": "57041713-a2a9-4b02-8fb9-6028cc437468",
    "types": [
      "singers",
      "2"
    ]
  }
}