{
  "header": {
    "description": "Karaoke Mugen Tag File",
    "version": 1
  },
  "tag": {
    "i18n": {
      "eng": "Kozue Ayuse"
    },
    "modified_at": "2021-03-08T19:04:00.546Z",
    "name": "Kozue Ayuse",
    "repository": "kara.moe",
    "tid": "4207eea6-1e8d-4808-9e37-28ca04d6addb",
    "types": [
      "songwriters",
      "8",
      "singers",
      "2"
    ]
  }
}