{
  "header": {
    "description": "Karaoke Mugen Tag File",
    "version": 1
  },
  "tag": {
    "i18n": {
      "eng": "Kozue Takada"
    },
    "name": "Kozue Takada",
    "tid": "c9b27687-89e5-4b3e-943f-e7d0f7ccb380",
    "types": [
      "singers",
      "2",
      "songwriters",
      "8"
    ],
    "repository": "kara.moe",
    "modified_at": "2020-03-31T19:04:35.692Z"
  }
}