{
  "header": {
    "description": "Karaoke Mugen Tag File",
    "version": 1
  },
  "tag": {
    "i18n": {
      "eng": "Kozue Satô"
    },
    "name": "Kozue Satô",
    "tid": "a618878a-b37b-46a6-84b0-4422ebe2bc2f",
    "types": [
      "songwriters",
      "8"
    ],
    "repository": "kara.moe",
    "modified_at": "2020-03-31T19:04:35.691Z"
  }
}