{
  "header": {
    "description": "Karaoke Mugen Tag File",
    "version": 1
  },
  "tag": {
    "i18n": {
      "eng": "Kozue Ishikawa"
    },
    "name": "Kozue Ishikawa",
    "tid": "3942b000-15b7-4327-8e4e-8b4631b50aad",
    "types": [
      "songwriters",
      "8"
    ],
    "repository": "kara.moe",
    "modified_at": "2020-03-31T19:04:35.691Z"
  }
}