{
  "header": {
    "description": "Karaoke Mugen Tag File",
    "version": 1
  },
  "tag": {
    "i18n": {
      "eng": "KQ Entertainment"
    },
    "name": "KQ Entertainment",
    "repository": "kara.moe",
    "tid": "a0a906fa-1c34-47a5-a9dd-1bc3f269ae01",
    "types": [
      "creators",
      "4"
    ]
  }
}