{
  "header": {
    "description": "Karaoke Mugen Tag File",
    "version": 1
  },
  "tag": {
    "i18n": {
      "eng": "kradness"
    },
    "name": "kradness",
    "tid": "8d5bcbe4-f9e1-41b0-9fdf-75c6b8c2ebed",
    "types": [
      "singers",
      "2"
    ],
    "repository": "kara.moe",
    "modified_at": "2020-03-31T19:04:35.693Z"
  }
}