{
  "header": {
    "description": "Karaoke Mugen Tag File",
    "version": 1
  },
  "tag": {
    "i18n": {
      "eng": "krea"
    },
    "name": "krea",
    "tid": "7282b070-9143-417a-8aa2-4cd07aa03354",
    "types": [
      "authors",
      "6"
    ],
    "repository": "kara.moe",
    "modified_at": "2020-03-31T19:04:35.695Z"
  }
}