{
  "header": {
    "description": "Karaoke Mugen Tag File",
    "version": 1
  },
  "tag": {
    "i18n": {
      "eng": "Kristine Bogan"
    },
    "name": "Kristine Bogan",
    "repository": "kara.moe",
    "tid": "b1bbd35e-4279-42b2-87af-960179ef4537",
    "types": [
      "songwriters",
      "8"
    ]
  }
}