{
  "header": {
    "description": "Karaoke Mugen Tag File",
    "version": 1
  },
  "tag": {
    "i18n": {
      "eng": "KRNFX"
    },
    "name": "KRNFX",
    "repository": "kara.moe",
    "tid": "668850ea-0caa-4d58-b61e-8504ff6b59fe",
    "types": [
      "singers",
      "2",
      "songwriters",
      "8"
    ]
  }
}