{
  "header": {
    "description": "Karaoke Mugen Tag File",
    "version": 1
  },
  "tag": {
    "i18n": {
      "eng": "Krocoh"
    },
    "name": "Krocoh",
    "tid": "ad713171-dcf0-4076-911c-6764037096a1",
    "types": [
      "authors",
      "6"
    ],
    "repository": "kara.moe",
    "modified_at": "2020-03-31T19:04:35.696Z"
  }
}