{
  "header": {
    "description": "Karaoke Mugen Tag File",
    "version": 1
  },
  "tag": {
    "i18n": {
      "eng": "Krow"
    },
    "name": "Krow",
    "tid": "0081300d-c0f9-4cff-a4f7-e726a293a76b",
    "types": [
      "authors",
      "6"
    ],
    "repository": "kara.moe",
    "modified_at": "2020-03-31T19:04:35.697Z"
  }
}