{
  "header": {
    "description": "Karaoke Mugen Tag File",
    "version": 1
  },
  "tag": {
    "i18n": {
      "eng": "Kubat"
    },
    "modified_at": "2020-12-10T00:39:52.592Z",
    "name": "Kubat",
    "repository": "kara.moe",
    "tid": "56b54c89-86ae-4635-992f-ddc1234b8015",
    "types": [
      "authors",
      "6",
      "creators",
      "4"
    ]
  }
}