{
  "header": {
    "description": "Karaoke Mugen Tag File",
    "version": 1
  },
  "tag": {
    "external_database_ids": {
      "anilist": 148969,
      "kitsu": 55445,
      "myanimelist": 51815
    },
    "i18n": {
      "eng": "Kubo won't let me be invisible",
      "jpn": "久保さんは僕を許さない",
      "qro": "Kubo-san wa boku wo yurusanai"
    },
    "name": "Kubo-san wa Mob wo Yurusanai",
    "repository": "kara.moe",
    "tid": "e5c698d1-ee6a-4bd4-8509-5f9729dcbbdb",
    "types": [
      "series",
      "1"
    ]
  }
}