{
  "header": {
    "description": "Karaoke Mugen Tag File",
    "version": 1
  },
  "tag": {
    "external_database_ids": {
      "anilist": 104749,
      "myanimelist": 35960,
      "kitsu": 13889
    },
    "i18n": {
      "eng": "Kud Wafter",
      "jpn": "クドわふたー",
      "qro": "Kud Wafter"
    },
    "modified_at": "2020-03-31T19:04:32.044Z",
    "name": "Kud Wafter",
    "repository": "kara.moe",
    "tid": "cdbe419e-f8a7-4de1-a794-4110dedac540",
    "types": [
      "series",
      "1"
    ]
  }
}