{
  "header": {
    "description": "Karaoke Mugen Tag File",
    "version": 1
  },
  "tag": {
    "i18n": {
      "eng": "Kuk Harrell"
    },
    "name": "Kuk Harrell",
    "repository": "kara.moe",
    "tid": "79bc7b43-ac56-403d-abeb-4bb69ad533a6",
    "types": [
      "songwriters",
      "8"
    ]
  }
}