{
  "header": {
    "description": "Karaoke Mugen Tag File",
    "version": 1
  },
  "tag": {
    "i18n": {
      "eng": "Kumaki Anri"
    },
    "name": "Kumaki Anri",
    "repository": "kara.moe",
    "tid": "ac62c571-0de8-4a18-8fea-cb448689d12e",
    "types": [
      "songwriters",
      "8",
      "singers",
      "2"
    ]
  }
}