{
  "header": {
    "description": "Karaoke Mugen Tag File",
    "version": 1
  },
  "tag": {
    "aliases": [
      "The Bears Bear a Bare Kuma",
      "Ми-ми-ми-мишка"
    ],
    "external_database_ids": {
      "anilist": 114340,
      "myanimelist": 40974,
      "kitsu": 43214
    },
    "i18n": {
      "eng": "Kuma Kuma Kuma Bear",
      "jpn": "くま クマ 熊 ベアー",
      "chi": "熊熊勇闖異世界",
      "qro": "Kuma Kuma Kuma Bear"
    },
    "modified_at": "2021-03-08T13:05:49.959Z",
    "name": "Kuma Kuma Kuma Bear",
    "repository": "kara.moe",
    "tid": "14cbf2a8-a3d4-45fc-856e-20a41309e7c1",
    "types": [
      "series",
      "1"
    ]
  }
}