{
  "header": {
    "description": "Karaoke Mugen Tag File",
    "version": 1
  },
  "tag": {
    "i18n": {
      "eng": "Kumi Sakuma"
    },
    "name": "Kumi Sakuma",
    "tid": "187b2be5-27ec-43b1-96b2-2a5d8c66c92c",
    "types": [
      "singers",
      "2"
    ],
    "repository": "kara.moe",
    "modified_at": "2020-03-31T19:04:35.704Z"
  }
}