{
  "header": {
    "description": "Karaoke Mugen Tag File",
    "version": 1
  },
  "tag": {
    "i18n": {
      "eng": "Kumi Kôda"
    },
    "name": "Kumi Kôda",
    "tid": "4165f7e1-db10-4a73-b26d-33deb2e21b90",
    "types": [
      "singers",
      "2",
      "songwriters",
      "8"
    ],
    "repository": "kara.moe",
    "modified_at": "2020-03-31T19:04:35.703Z"
  }
}