{
  "header": {
    "description": "Karaoke Mugen Tag File",
    "version": 1
  },
  "tag": {
    "i18n": {
      "eng": "Kumi Miyasato"
    },
    "name": "Kumi Miyasato",
    "tid": "a226fb19-835a-4df6-b568-3b09beb03f8b",
    "types": [
      "singers",
      "2"
    ],
    "repository": "kara.moe",
    "modified_at": "2020-03-31T19:04:35.703Z"
  }
}