{
  "header": {
    "description": "Karaoke Mugen Tag File",
    "version": 1
  },
  "tag": {
    "i18n": {
      "eng": "Kumi Tanioka"
    },
    "name": "Kumi Tanioka",
    "tid": "b445c609-a480-4fb0-9814-b13c407561c1",
    "types": [
      "songwriters",
      "8"
    ],
    "repository": "kara.moe",
    "modified_at": "2020-03-31T19:04:35.705Z"
  }
}