{
  "header": {
    "description": "Karaoke Mugen Tag File",
    "version": 1
  },
  "tag": {
    "i18n": {
      "eng": "Kumiko Aoki"
    },
    "name": "Kumiko Aoki",
    "tid": "b929fec7-a44a-473e-bc10-439574dea27e",
    "types": [
      "songwriters",
      "8"
    ],
    "repository": "kara.moe",
    "modified_at": "2020-03-31T19:04:35.706Z"
  }
}