{
  "header": {
    "description": "Karaoke Mugen Tag File",
    "version": 1
  },
  "tag": {
    "i18n": {
      "eng": "Kumiko Sono"
    },
    "name": "Kumiko Sono",
    "tid": "f71cf036-67aa-4818-861e-ff9c850f4d46",
    "types": [
      "singers",
      "2"
    ],
    "repository": "kara.moe",
    "modified_at": "2020-03-31T19:04:35.708Z"
  }
}