{
  "header": {
    "description": "Karaoke Mugen Tag File",
    "version": 1
  },
  "tag": {
    "aliases": [
      "Beyond The Clouds The Promised Place",
      "Bên kia đám mây nơi ta hẹn ước",
      "Kulenin Gizemi",
      "Kumo no Mukou Yakusoku no Basho",
      "Za oblaky země zaslíbená",
      "Ziemia kiedyś nam obiecana",
      "btc",
      "knmynb",
      "За хмарами земля обітована",
      "За хмарами обіцяне місце",
      "Земля обітована",
      "Мястото което си обещахме някога отдавна",
      "מעבר לעננים המקום המובטח",
      "云之彼端 约定的地方",
      "구름 너머 약속의 장소",
      "구름 저편의 약속",
      "mukou"
    ],
    "external_database_ids": {
      "anilist": 433,
      "myanimelist": 433,
      "kitsu": 397
    },
    "i18n": {
      "cze": "Za mraky země zaslíbená",
      "eng": "The Place Promised in Our Early Days",
      "est": "Pilvede taga",
      "fre": "La tour au-delà des nuages",
      "ger": "The Place Promised in Our Early Days",
      "jpn": "雲のむこう, 約束の場所",
      "kor": "구름의 저편, 약속의 장소",
      "rus": "За облаками",
      "spa": "El lugar que nos prometimos",
      "tha": "เหนือเมฆา ที่แห่งสัญญาของเรา",
      "qro": "Kumo no Mukô Yakusoku no Basho"
    },
    "modified_at": "2020-03-31T19:04:32.046Z",
    "name": "Kumo no Mukô Yakusoku no Basho",
    "repository": "kara.moe",
    "tid": "bdee267a-4f38-4198-946c-fab2886c9a34",
    "types": [
      "series",
      "1"
    ]
  }
}