{
  "header": {
    "description": "Karaoke Mugen Tag File",
    "version": 1
  },
  "tag": {
    "external_database_ids": {
      "anilist": 103632,
      "myanimelist": 37984,
      "kitsu": 41463
    },
    "i18n": {
      "eng": "So I'm a Spider, So What?",
      "jpn": "蜘蛛ですが, なにか?",
      "chi": "轉生成蜘蛛又怎樣",
      "qro": "Kumo Desu ga, Nani ka?"
    },
    "modified_at": "2021-01-29T12:56:54.410Z",
    "name": "Kumo Desu ga, Nani ka?",
    "repository": "kara.moe",
    "tid": "4d3ba50e-3f84-4859-9803-b763ce4f441c",
    "types": [
      "series",
      "1"
    ]
  }
}