{
  "header": {
    "description": "Karaoke Mugen Tag File",
    "version": 1
  },
  "tag": {
    "i18n": {
      "eng": "Kunio Miyauchi"
    },
    "name": "Kunio Miyauchi",
    "tid": "bc2e7dd7-3554-47b9-a8a8-bf144207e439",
    "types": [
      "songwriters",
      "8"
    ],
    "repository": "kara.moe",
    "modified_at": "2020-03-31T19:04:35.716Z"
  }
}