{
  "header": {
    "description": "Karaoke Mugen Tag File",
    "version": 1
  },
  "tag": {
    "i18n": {
      "eng": "Kunihiko Kase"
    },
    "name": "Kunihiko Kase",
    "tid": "79bd65b0-a1f1-4f96-b6bb-5d5078c02414",
    "types": [
      "songwriters",
      "8"
    ],
    "repository": "kara.moe",
    "modified_at": "2020-03-31T19:04:35.712Z"
  }
}