{
  "header": {
    "description": "Karaoke Mugen Tag File",
    "version": 1
  },
  "tag": {
    "aliases": [
      "Jellyfish Princess",
      "Принцесса-медуза",
      "海月姬"
    ],
    "external_database_ids": {
      "anilist": 8129,
      "myanimelist": 8129,
      "kitsu": 5204
    },
    "i18n": {
      "cze": "Princezna Medúza",
      "eng": "Princess Jellyfish",
      "jpn": "海月姫",
      "qro": "Kuragehime"
    },
    "modified_at": "2020-03-31T19:04:32.048Z",
    "name": "Kuragehime",
    "repository": "kara.moe",
    "tid": "022d459e-99b6-4667-aee9-39f8cf86e8c6",
    "types": [
      "series",
      "1"
    ]
  }
}