{
  "header": {
    "description": "Karaoke Mugen Tag File",
    "version": 1
  },
  "tag": {
    "i18n": {
      "eng": "Kurenai no Tsuki",
      "jpn": "クレナイノツキ",
      "qro": "Kurenai no tsuki"
    },
    "modified_at": "2020-03-31T19:04:32.050Z",
    "name": "Kurenai no tsuki",
    "repository": "kara.moe",
    "tid": "d757c989-e05f-4ccc-8321-5aee4125696e",
    "types": [
      "series",
      "1"
    ]
  }
}