{
  "header": {
    "description": "Karaoke Mugen Tag File",
    "version": 1
  },
  "tag": {
    "i18n": {
      "eng": "KUROMI"
    },
    "name": "KUROMI",
    "repository": "kara.moe",
    "tid": "44087f50-ff51-4d8b-b082-518201025c73",
    "types": [
      "singers",
      "2"
    ]
  }
}