{
  "header": {
    "description": "Karaoke Mugen Tag File",
    "version": 1
  },
  "tag": {
    "aliases": [
      "Black Relic"
    ],
    "external_database_ids": {
      "anilist": 21516,
      "myanimelist": 32245,
      "kitsu": 11605
    },
    "i18n": {
      "jpn": "クロムクロ",
      "kor": "쿠로무쿠로",
      "qro": "Kuromukuro"
    },
    "modified_at": "2020-03-31T19:04:32.058Z",
    "name": "Kuromukuro",
    "repository": "kara.moe",
    "tid": "dd7e471e-2ef6-4693-bb89-75acf5f0171b",
    "types": [
      "series",
      "1"
    ]
  }
}