{
  "header": {
    "description": "Karaoke Mugen Tag File",
    "version": 1
  },
  "tag": {
    "i18n": {
      "eng": "KURO"
    },
    "name": "KURO",
    "tid": "8ffba14b-3e74-404a-bb00-29bef9e286ee",
    "types": [
      "songwriters",
      "8"
    ],
    "repository": "kara.moe",
    "modified_at": "2020-03-31T19:04:35.720Z"
  }
}