{
  "header": {
    "description": "Karaoke Mugen Tag File",
    "version": 1
  },
  "tag": {
    "external_database_ids": {
      "anilist": 145260,
      "kitsu": 45884,
      "myanimelist": 51064
    },
    "i18n": {
      "eng": "Black Summoner",
      "qro": "Kuro no Shoukanshi",
      "jpn": "黒の召喚士"
    },
    "name": "Kuro no Shoukanshi",
    "repository": "kara.moe",
    "tid": "a3dc634e-6f55-4167-b9e5-3e19acb2c97f",
    "types": [
      "series",
      "1"
    ]
  }
}