{
  "header": {
    "description": "Karaoke Mugen Tag File",
    "version": 1
  },
  "tag": {
    "i18n": {
      "eng": "Kurt Deutsch"
    },
    "name": "Kurt Deutsch",
    "tid": "3c33a885-730a-45ef-8bf5-768170f651e5",
    "types": [
      "songwriters",
      "8"
    ],
    "repository": "kara.moe",
    "modified_at": "2020-03-31T19:04:35.723Z"
  }
}