{
  "header": {
    "description": "Karaoke Mugen Tag File",
    "version": 1
  },
  "tag": {
    "i18n": {
      "eng": "Kurumi Takase"
    },
    "name": "Kurumi Takase",
    "repository": "kara.moe",
    "tid": "104489b4-a9a9-46ef-a369-bb05352366e1",
    "types": [
      "singers",
      "2"
    ]
  }
}