{
  "header": {
    "description": "Karaoke Mugen Tag File",
    "version": 1
  },
  "tag": {
    "i18n": {
      "eng": "Kusuriya"
    },
    "name": "Kusuriya",
    "repository": "kara.moe",
    "tid": "22fa9e1b-5373-4b3a-8e91-356579e7635e",
    "types": [
      "creators",
      "4"
    ]
  }
}