{
  "header": {
    "description": "Karaoke Mugen Tag File",
    "version": 1
  },
  "tag": {
    "i18n": {
      "eng": "Kusuma Sanshimai"
    },
    "name": "Kusuma Sanshimai",
    "tid": "79b8eacf-3f01-496c-b306-c4d0333df500",
    "types": [
      "singers",
      "2"
    ],
    "repository": "kara.moe",
    "modified_at": "2020-03-31T19:04:35.728Z"
  }
}