{
  "header": {
    "description": "Karaoke Mugen Tag File",
    "version": 1
  },
  "tag": {
    "i18n": {
      "eng": "KUSU KUSU"
    },
    "name": "KUSU KUSU",
    "tid": "3a6061ce-e95c-4eec-9682-beca6e8d79b2",
    "types": [
      "singers",
      "2"
    ],
    "repository": "kara.moe",
    "modified_at": "2020-03-31T19:04:35.727Z"
  }
}