{
  "header": {
    "description": "Karaoke Mugen Tag File",
    "version": 1
  },
  "tag": {
    "i18n": {
      "eng": "Kuun Umi"
    },
    "name": "Kuun Umi",
    "tid": "60bd6199-9ad2-47e5-a32e-82f787ca99f1",
    "types": [
      "singers",
      "2",
      "songwriters",
      "8"
    ],
    "repository": "kara.moe",
    "modified_at": "2020-03-31T19:04:35.728Z"
  }
}