{
  "header": {
    "description": "Karaoke Mugen Tag File",
    "version": 1
  },
  "tag": {
    "i18n": {
      "eng": "Kuwamura Kaz"
    },
    "name": "Kuwamura Kaz",
    "repository": "kara.moe",
    "tid": "994835da-619a-4aac-99b4-08fd808bcf23",
    "types": [
      "songwriters",
      "8"
    ]
  }
}