{
  "header": {
    "description": "Karaoke Mugen Tag File",
    "version": 1
  },
  "tag": {
    "i18n": {
      "eng": "Kuyuri"
    },
    "name": "Kuyuri",
    "repository": "kara.moe",
    "tid": "c67e2ded-271c-466b-9139-ec15e1e9ff04",
    "types": [
      "singers",
      "2"
    ]
  }
}