{
  "header": {
    "description": "Karaoke Mugen Tag File",
    "version": 1
  },
  "tag": {
    "i18n": {
      "eng": "KUZUKI"
    },
    "name": "KUZUKI",
    "repository": "kara.moe",
    "tid": "b612527f-ca5b-456f-9ee2-a560efc24a88",
    "types": [
      "songwriters",
      "8"
    ]
  }
}