{
  "header": {
    "description": "Karaoke Mugen Tag File",
    "version": 1
  },
  "tag": {
    "i18n": {
      "eng": "Kyasu Morizuki"
    },
    "name": "Kyasu Morizuki",
    "tid": "4998caf7-15dd-4f12-9024-4946b7a08d16",
    "types": [
      "songwriters",
      "8"
    ],
    "repository": "kara.moe",
    "modified_at": "2020-03-31T19:04:35.730Z"
  }
}