{
  "header": {
    "description": "Karaoke Mugen Tag File",
    "version": 1
  },
  "tag": {
    "i18n": {
      "eng": "Kyle Gass"
    },
    "modified_at": "2020-10-29T23:38:37.494Z",
    "name": "Kyle Gass",
    "repository": "kara.moe",
    "tid": "f6abec86-dd42-4592-935a-52210ef3016e",
    "types": [
      "songwriters",
      "8"
    ]
  }
}