{
  "header": {
    "description": "Karaoke Mugen Tag File",
    "version": 1
  },
  "tag": {
    "aliases": [
      "Зірка гігантів"
    ],
    "external_database_ids": {
      "anilist": 5834,
      "myanimelist": 5834,
      "kitsu": 4296
    },
    "i18n": {
      "eng": "Star of The Giants",
      "jpn": "巨人の星",
      "qro": "Kyojin no Hoshi"
    },
    "modified_at": "2020-03-31T19:04:32.062Z",
    "name": "Kyojin no Hoshi",
    "repository": "kara.moe",
    "tid": "47f0125e-806b-4894-8f88-8263903795d2",
    "types": [
      "series",
      "1"
    ]
  }
}