{
  "header": {
    "description": "Karaoke Mugen Tag File",
    "version": 1
  },
  "tag": {
    "aliases": [
      "KyoAni"
    ],
    "i18n": {
      "eng": "Kyoto Animation"
    },
    "modified_at": "2021-06-14T15:39:06.804Z",
    "name": "Kyoto Animation",
    "repository": "kara.moe",
    "tid": "d93786af-5098-49b2-9928-37edfb3d0322",
    "types": [
      "creators",
      "4"
    ]
  }
}