{
  "header": {
    "description": "Karaoke Mugen Tag File",
    "version": 1
  },
  "tag": {
    "i18n": {
      "eng": "Kyouka"
    },
    "name": "Kyouka",
    "tid": "e73da8db-a257-4b2b-b254-fa280d3de441",
    "types": [
      "songwriters",
      "8"
    ],
    "repository": "kara.moe",
    "modified_at": "2020-03-31T19:04:35.741Z"
  }
}