{
  "header": {
    "description": "Karaoke Mugen Tag File",
    "version": 1
  },
  "tag": {
    "i18n": {
      "eng": "Kyôko Tomita"
    },
    "name": "Kyôko Tomita",
    "tid": "df6a954d-131f-4d89-88c4-e1d9e30718bf",
    "types": [
      "songwriters",
      "8"
    ],
    "repository": "kara.moe",
    "modified_at": "2020-03-31T19:04:35.749Z"
  }
}