{
  "header": {
    "description": "Karaoke Mugen Tag File",
    "version": 1
  },
  "tag": {
    "aliases": [
      "ジャムおじさんP",
      "Jamu OjisanP"
    ],
    "i18n": {
      "eng": "Kyouken",
      "jpn": "今日犬"
    },
    "name": "Kyouken",
    "repository": "kara.moe",
    "tid": "f53e75ca-6499-4226-99a9-42041ff9cd24",
    "types": [
      "songwriters",
      "8"
    ]
  }
}