{
  "header": {
    "description": "Karaoke Mugen Tag File",
    "version": 1
  },
  "tag": {
    "i18n": {
      "eng": "Kyôko Asakura"
    },
    "name": "Kyôko Asakura",
    "tid": "677956bc-63a1-4111-b16a-dc3e9e5b31c0",
    "types": [
      "songwriters",
      "8"
    ],
    "repository": "kara.moe",
    "modified_at": "2020-03-31T19:04:35.742Z"
  }
}