{
  "header": {
    "description": "Karaoke Mugen Tag File",
    "version": 1
  },
  "tag": {
    "i18n": {
      "eng": "Kyô Hanabasami"
    },
    "modified_at": "2021-03-06T15:43:20.664Z",
    "name": "Kyô Hanabasami",
    "repository": "kara.moe",
    "tid": "5073c58c-b0ac-4e5f-9db5-bc51313cc328",
    "types": [
      "singers",
      "2"
    ]
  }
}