{
  "header": {
    "description": "Karaoke Mugen Tag File",
    "version": 1
  },
  "tag": {
    "i18n": {
      "eng": "Kyôichi Azuma"
    },
    "name": "Kyôichi Azuma",
    "tid": "4148c233-e924-489c-875e-25facc91b4c5",
    "types": [
      "songwriters",
      "8"
    ],
    "repository": "kara.moe",
    "modified_at": "2020-03-31T19:04:35.738Z"
  }
}