{
  "header": {
    "description": "Karaoke Mugen Tag File",
    "version": 1
  },
  "tag": {
    "aliases": [
      "Kyou kara Maou!",
      "Kyô Kara Maoh!",
      "kyou",
      "maou"
    ],
    "external_database_ids": {
      "anilist": 251,
      "myanimelist": 251,
      "kitsu": 226
    },
    "i18n": {
      "eng": "Kyo Kara Maoh! - God (?) Save Our King!",
      "fre": "Kyô Kara Maoh!",
      "jpn": "今日からマ王!",
      "qro": "Kyô Kara Maô!"
    },
    "modified_at": "2020-03-31T19:04:32.064Z",
    "name": "Kyô Kara Maô!",
    "repository": "kara.moe",
    "tid": "63a8290e-b3cb-49b3-8692-77bd04d22ef7",
    "types": [
      "series",
      "1"
    ]
  }
}