{
  "header": {
    "description": "Karaoke Mugen Tag File",
    "version": 1
  },
  "tag": {
    "aliases": [
      "Circle Of Reincarnation",
      "Kyoukai no Rinne",
      "kyoukai"
    ],
    "external_database_ids": {
      "anilist": 20953,
      "myanimelist": 28423,
      "kitsu": 10018
    },
    "i18n": {
      "dut": "De Grens van Rinne",
      "eng": "Rin-ne",
      "fre": "Rinne",
      "jpn": "境界のRINNE",
      "qro": "Kyôkai no Rinne"
    },
    "modified_at": "2020-03-31T19:04:32.067Z",
    "name": "Kyôkai no Rinne",
    "repository": "kara.moe",
    "tid": "a89db341-e70a-4bdb-a3d8-4200150fd00b",
    "types": [
      "series",
      "1"
    ]
  }
}