{
  "header": {
    "description": "Karaoke Mugen Tag File",
    "version": 1
  },
  "tag": {
    "i18n": {
      "eng": "kyte"
    },
    "name": "kyte",
    "tid": "a9337543-a081-4129-9e48-4e56f61e0ce6",
    "types": [
      "songwriters",
      "8"
    ],
    "repository": "kara.moe",
    "modified_at": "2020-03-31T19:04:35.751Z"
  }
}