{
  "header": {
    "description": "Karaoke Mugen Tag File",
    "version": 1
  },
  "tag": {
    "i18n": {
      "eng": "Kyū Sakamoto"
    },
    "name": "Kyū Sakamoto",
    "repository": "kara.moe",
    "tid": "d4890bed-00ea-49dc-b0b2-f870dd36d4e9",
    "types": [
      "singers",
      "2"
    ]
  }
}