{
  "header": {
    "description": "Karaoke Mugen Tag File",
    "version": 1
  },
  "tag": {
    "i18n": {
      "qro": "Kyuukyoku Shinka shita Full Dive RPG ga Genjitsu yori mo Kusoge Dattara",
      "jpn": "究極進化したフルダイブRPGが現実よりもクソゲーだったら ",
      "eng": "Full Dive: The Ultimate Next-Gen Full Dive RPG Is Even Shittier than Real Life! ",
      "fre": " L'ultime RPG est encore plus foireux que la réalité !"
    },
    "name": "Kyuukyoku Shinka shita Full Dive RPG ga Genjitsu yori mo Kusoge Dattara",
    "repository": "kara.moe",
    "tid": "e32c5bfa-a6b9-42ab-88bd-99a2d179f0d3",
    "types": [
      "series",
      "1"
    ]
  }
}