{
  "header": {
    "description": "Karaoke Mugen Tag File",
    "version": 1
  },
  "tag": {
    "i18n": {
      "eng": "L"
    },
    "name": "L",
    "repository": "kara.moe",
    "tid": "ab3b24c7-16de-4151-99dd-1a11dd2cf8d6",
    "types": [
      "singers",
      "2"
    ]
  }
}