{
  "header": {
    "description": "Karaoke Mugen Tag File",
    "version": 1
  },
  "tag": {
    "i18n": {
      "eng": "la la larks"
    },
    "name": "la la larks",
    "tid": "4f4ce48d-6126-4f86-ba66-6fdb176748ec",
    "types": [
      "songwriters",
      "8"
    ],
    "repository": "kara.moe",
    "modified_at": "2020-03-31T19:04:35.756Z"
  }
}