{
  "header": {
    "description": "Karaoke Mugen Tag File",
    "version": 1
  },
  "tag": {
    "i18n": {
      "fre": "La personne aux deux personnes"
    },
    "modified_at": "2020-03-31T19:04:32.073Z",
    "name": "La personne aux deux personnes",
    "repository": "kara.moe",
    "tid": "468bd3dc-b5ee-4d7d-b643-f09bb948aba1",
    "types": [
      "series",
      "1"
    ]
  }
}