{
  "header": {
    "description": "Karaoke Mugen Tag File",
    "version": 1
  },
  "tag": {
    "i18n": {
      "fre": "La Tribu"
    },
    "name": "La Tribu",
    "repository": "kara.moe",
    "tid": "34dd64ed-5e21-4f22-9795-266b529cb58d",
    "types": [
      "creators",
      "4"
    ]
  }
}