{
  "header": {
    "description": "Karaoke Mugen Tag File",
    "version": 1
  },
  "tag": {
    "i18n": {
      "eng": "Lacey Johnson"
    },
    "name": "Lacey Johnson",
    "repository": "kara.moe",
    "tid": "694db594-bf00-429d-ad25-8476dcebecbc",
    "types": [
      "singers",
      "2"
    ]
  }
}