{
  "header": {
    "description": "Karaoke Mugen Tag File",
    "version": 1
  },
  "tag": {
    "i18n": {
      "eng": "ladronesdemanzanas"
    },
    "name": "ladronesdemanzanas",
    "repository": "kara.moe",
    "tid": "9b4c41c3-518d-435b-a96a-a266f6d4c714",
    "types": [
      "creators",
      "4"
    ]
  }
}