{
  "header": {
    "description": "Karaoke Mugen Tag File",
    "version": 1
  },
  "tag": {
    "external_database_ids": {
      "anilist": 20784,
      "myanimelist": 22693,
      "kitsu": 8354
    },
    "i18n": {
      "eng": "Lady Jewelpet",
      "jpn": "レディ ジュエルペット",
      "chi": "Lady 宝石宠物",
      "qro": "Lady Jewelpet"
    },
    "modified_at": "2021-03-08T18:29:48.333Z",
    "name": "Lady Jewelpet",
    "repository": "kara.moe",
    "tid": "0f4783a8-1ad4-4fde-a743-c9d888d3d715",
    "types": [
      "series",
      "1"
    ]
  }
}