{
  "header": {
    "description": "Karaoke Mugen Tag File",
    "version": 1
  },
  "tag": {
    "i18n": {
      "eng": "Laraine Newman"
    },
    "name": "Laraine Newman",
    "repository": "kara.moe",
    "tid": "8358109c-b0cf-4455-8978-233ffe4b7a36",
    "types": [
      "singers",
      "2"
    ]
  }
}