{
  "header": {
    "description": "Karaoke Mugen Tag File",
    "version": 1
  },
  "tag": {
    "i18n": {
      "eng": "Larry Price"
    },
    "name": "Larry Price",
    "repository": "kara.moe",
    "tid": "3d3d66d4-d532-46a8-b544-5cb16636b578",
    "types": [
      "songwriters",
      "8"
    ]
  }
}