{
  "header": {
    "description": "Karaoke Mugen Tag File",
    "version": 1
  },
  "tag": {
    "i18n": {
      "eng": "Larse"
    },
    "name": "Larse",
    "repository": "kara.moe",
    "tid": "05d91f3d-d677-44a0-b7d2-42b5c259f798",
    "types": [
      "songwriters",
      "8"
    ]
  }
}