{
  "header": {
    "description": "Karaoke Mugen Tag File",
    "version": 1
  },
  "tag": {
    "i18n": {
      "eng": "Lass"
    },
    "name": "Lass",
    "tid": "d43ae6aa-adfe-4f2f-bad9-ce50dd7c27c5",
    "types": [
      "creators",
      "4"
    ],
    "repository": "kara.moe",
    "modified_at": "2020-03-31T19:04:35.768Z"
  }
}