{
  "header": {
    "description": "Karaoke Mugen Tag File",
    "version": 1
  },
  "tag": {
    "i18n": {
      "eng": "Last Note."
    },
    "name": "Last Note.",
    "tid": "3f7f5b87-60c7-4cfb-aedc-796f7597326e",
    "types": [
      "songwriters",
      "8"
    ],
    "repository": "kara.moe",
    "modified_at": "2020-03-31T19:04:35.769Z"
  }
}