{
  "header": {
    "description": "Karaoke Mugen Tag File",
    "version": 1
  },
  "tag": {
    "aliases": [
      "LastEXILE",
      "O Último Exílio",
      "Son Sürgün",
      "Ultimul Exil",
      "le",
      "Último Exilio",
      "Останній вигнанець",
      "Последният изгнанник",
      "ラストエグザイル",
      "最后流亡"
    ],
    "external_database_ids": {
      "anilist": 97,
      "myanimelist": 97,
      "kitsu": 76
    },
    "i18n": {
      "ara": "الملاذ الأخير",
      "dan": "Last Exile",
      "eng": "Last Exile",
      "fin": "Last Exile",
      "fre": "Last Exile",
      "ger": "Last Exile",
      "ita": "Last Exile",
      "jpn": "LASTEXILE",
      "pol": "Last Exile",
      "por": "Last Exile",
      "rus": "Изгнанник",
      "spa": "Last Exile",
      "swe": "Last Exile",
      "qro": "Last Exile"
    },
    "modified_at": "2020-03-31T19:04:32.077Z",
    "name": "Last Exile",
    "repository": "kara.moe",
    "tid": "2125512a-2f21-4cfd-bc48-151b163c53d3",
    "types": [
      "series",
      "1",
      "franchises",
      "18"
    ]
  }
}