{
  "header": {
    "description": "Karaoke Mugen Tag File",
    "version": 1
  },
  "tag": {
    "i18n": {
      "eng": "Lauren Faust"
    },
    "name": "Lauren Faust",
    "tid": "65f37b64-b408-443c-a25b-c5248186cce1",
    "types": [
      "songwriters",
      "8"
    ],
    "repository": "kara.moe",
    "modified_at": "2020-03-31T19:04:35.776Z"
  }
}