{
  "header": {
    "description": "Karaoke Mugen Tag File",
    "version": 1
  },
  "tag": {
    "i18n": {
      "eng": "Laura Mayne"
    },
    "name": "Laura Mayne",
    "tid": "fe5eba32-540c-4db6-86d4-4a1e185f2fe8",
    "types": [
      "singers",
      "2"
    ],
    "repository": "kara.moe",
    "modified_at": "2020-03-31T19:04:35.773Z"
  }
}