{
  "header": {
    "description": "Karaoke Mugen Tag File",
    "version": 1
  },
  "tag": {
    "i18n": {
      "eng": "Laura Williams"
    },
    "name": "Laura Williams",
    "repository": "kara.moe",
    "tid": "b49ea7c2-d697-47c8-8779-99ac928098ad",
    "types": [
      "singers",
      "2"
    ]
  }
}