{
  "header": {
    "description": "Karaoke Mugen Tag File",
    "version": 1
  },
  "tag": {
    "i18n": {
      "eng": "Lauritz Christiansen"
    },
    "name": "Lauritz Christiansen",
    "repository": "kara.moe",
    "tid": "18a39d4a-804b-454c-8930-e421393420f0",
    "types": [
      "songwriters",
      "8"
    ]
  }
}