{
  "header": {
    "description": "Karaoke Mugen Tag File",
    "version": 1
  },
  "tag": {
    "i18n": {
      "eng": "Laurie Destal"
    },
    "name": "Laurie Destal",
    "tid": "93458e3d-9f47-4be0-9cee-a648a4361b6c",
    "types": [
      "singers",
      "2"
    ],
    "repository": "kara.moe",
    "modified_at": "2020-03-31T19:04:35.778Z"
  }
}