{
  "header": {
    "description": "Karaoke Mugen Tag File",
    "version": 1
  },
  "tag": {
    "i18n": {
      "eng": "Laurent Marquis"
    },
    "modified_at": "2021-02-19T00:16:18.933Z",
    "name": "Laurent Marquis",
    "repository": "kara.moe",
    "tid": "415d5c62-aa86-4d1d-8784-173c4122fd22",
    "types": [
      "songwriters",
      "8"
    ]
  }
}