{
  "header": {
    "description": "Karaoke Mugen Tag File",
    "version": 1
  },
  "tag": {
    "i18n": {
      "eng": "Laurence O'Keefe"
    },
    "name": "Laurence O'Keefe",
    "repository": "kara.moe",
    "tid": "4c33e32a-97b5-4db6-9eb9-2a2854a01605",
    "types": [
      "songwriters",
      "8",
      "creators",
      "4"
    ]
  }
}