{
  "header": {
    "description": "Karaoke Mugen Tag File",
    "version": 1
  },
  "tag": {
    "i18n": {
      "eng": "Laura Morano"
    },
    "name": "Laura Morano",
    "repository": "kara.moe",
    "tid": "eb23bedf-da62-484c-b25f-24340c094741",
    "types": [
      "singers",
      "2"
    ]
  }
}