{
  "header": {
    "description": "Karaoke Mugen Tag File",
    "version": 1
  },
  "tag": {
    "i18n": {
      "eng": "Laura Bell Bundy"
    },
    "name": "Laura Bell Bundy",
    "tid": "e086c9d7-bfe7-49da-ad4c-2df037f2e601",
    "types": [
      "singers",
      "2"
    ],
    "repository": "kara.moe",
    "modified_at": "2020-03-31T19:04:35.772Z"
  }
}