{
  "header": {
    "description": "Karaoke Mugen Tag File",
    "version": 1
  },
  "tag": {
    "aliases": [
      "LazyTown",
      "Lazy Town"
    ],
    "i18n": {
      "eng": "LazyTown",
      "ice": "Latibær"
    },
    "name": "LazyTown",
    "repository": "kara.moe",
    "tid": "7a904eaa-e945-491f-9bea-d2435e4d46f7",
    "types": [
      "series",
      "1"
    ]
  }
}