{
  "header": {
    "description": "Karaoke Mugen Tag File",
    "version": 1
  },
  "tag": {
    "i18n": {
      "eng": "Le Terre Lontane"
    },
    "name": "Le Terre Lontane",
    "repository": "kara.moe",
    "tid": "c9ab49d8-c9cb-40dc-8884-111d82556f9b",
    "types": [
      "creators",
      "4"
    ]
  }
}