{
  "header": {
    "description": "Karaoke Mugen Tag File",
    "version": 1
  },
  "tag": {
    "i18n": {
      "eng": "Leah"
    },
    "name": "Leah",
    "repository": "kara.moe",
    "tid": "cb2eec80-bbc9-44a3-9627-ae42a916f92d",
    "types": [
      "singers",
      "2"
    ]
  }
}