{
  "header": {
    "description": "Karaoke Mugen Tag File",
    "version": 1
  },
  "tag": {
    "i18n": {
      "eng": "Lee Jae-hyeong"
    },
    "name": "Lee Jae-hyeong",
    "repository": "kara.moe",
    "tid": "064378de-1e4f-493b-ac70-50027027cc41",
    "types": [
      "songwriters",
      "8",
      "singers",
      "2"
    ]
  }
}