{
  "header": {
    "description": "Karaoke Mugen Tag File",
    "version": 1
  },
  "tag": {
    "i18n": {
      "eng": "Lee Hyeon Seung"
    },
    "name": "Lee Hyeon Seung",
    "tid": "ce2deb2e-05c3-4358-8bba-f4f44ebf1b59",
    "types": [
      "songwriters",
      "8"
    ],
    "repository": "kara.moe",
    "modified_at": "2020-03-31T19:04:35.785Z"
  }
}