{
  "header": {
    "description": "Karaoke Mugen Tag File",
    "version": 1
  },
  "tag": {
    "i18n": {
      "eng": "Lee nai Kong"
    },
    "name": "Lee nai Kong",
    "tid": "d9a16e17-49f0-4465-8214-76c10546633d",
    "types": [
      "singers",
      "2"
    ],
    "repository": "kara.moe",
    "modified_at": "2020-03-31T19:04:35.787Z"
  }
}