{
  "header": {
    "description": "Karaoke Mugen Tag File",
    "version": 1
  },
  "tag": {
    "aliases": [
      "Lee Know",
      "리노"
    ],
    "i18n": {
      "eng": "Lee Min-ho",
      "kor": "이민호"
    },
    "name": "Lee Min-ho",
    "repository": "kara.moe",
    "tid": "6fd6c8c3-9f0e-4d6a-aa3b-040d32708ae6",
    "types": [
      "singers",
      "2"
    ]
  }
}