{
  "header": {
    "description": "Karaoke Mugen Tag File",
    "version": 1
  },
  "tag": {
    "i18n": {
      "eng": "Lee Sanhwa"
    },
    "modified_at": "2020-10-15T17:41:50.372Z",
    "name": "Lee Sanhwa",
    "repository": "kara.moe",
    "tid": "8f689a53-4717-4fa5-acfc-e5ec66b37de3",
    "types": [
      "singers",
      "2"
    ]
  }
}