{
  "header": {
    "description": "Karaoke Mugen Tag File",
    "version": 1
  },
  "tag": {
    "i18n": {
      "eng": "Lefty Hand Cream"
    },
    "name": "Lefty Hand Cream",
    "tid": "f49f5972-3ea4-46dd-94e9-8d8fcf8bc86f",
    "types": [
      "singers",
      "2"
    ],
    "repository": "kara.moe",
    "modified_at": "2020-03-31T19:04:35.790Z"
  }
}