{
  "header": {
    "description": "Karaoke Mugen Tag File",
    "version": 1
  },
  "tag": {
    "i18n": {
      "eng": "Legally Blonde"
    },
    "name": "Legally Blonde",
    "tid": "c83e3bb5-fdfd-4dc6-ad7a-316296c76f50",
    "types": [
      "singers",
      "2"
    ],
    "repository": "kara.moe",
    "modified_at": "2020-03-31T19:04:35.791Z"
  }
}