{
  "header": {
    "description": "Karaoke Mugen Tag File",
    "version": 1
  },
  "tag": {
    "i18n": {
      "eng": "Lego Big Morl"
    },
    "name": "Lego Big Morl",
    "tid": "97d8ddba-90dc-42e0-bbb7-2e413b79a197",
    "types": [
      "singers",
      "2",
      "songwriters",
      "8"
    ],
    "repository": "kara.moe",
    "modified_at": "2020-03-31T19:04:35.791Z"
  }
}