{
  "header": {
    "description": "Karaoke Mugen Tag File",
    "version": 1
  },
  "tag": {
    "i18n": {
      "eng": "Lemony Fresh"
    },
    "modified_at": "2021-01-03T23:47:33.889Z",
    "name": "Lemony Fresh",
    "repository": "kara.moe",
    "tid": "ba32740b-fbe8-41e1-a448-d0a010bdd8d5",
    "types": [
      "creators",
      "4"
    ]
  }
}