{
  "header": {
    "description": "Karaoke Mugen Tag File",
    "version": 1
  },
  "tag": {
    "i18n": {
      "eng": "Lena Ruiz"
    },
    "name": "Lena Ruiz",
    "tid": "72b07022-9e4f-4bcb-b7ab-22b74db74373",
    "types": [
      "singers",
      "2"
    ],
    "repository": "kara.moe",
    "modified_at": "2020-03-31T19:04:35.795Z"
  }
}