{
  "header": {
    "description": "Karaoke Mugen Tag File",
    "version": 1
  },
  "tag": {
    "i18n": {
      "eng": "LENA"
    },
    "modified_at": "2020-06-13T19:22:39.167Z",
    "name": "LENA",
    "repository": "kara.moe",
    "tid": "cdf72f9e-aa1f-4d76-8505-febf05000076",
    "types": [
      "singers",
      "2"
    ]
  }
}