{
  "header": {
    "description": "Karaoke Mugen Tag File",
    "version": 1
  },
  "tag": {
    "i18n": {
      "eng": "Leo Ieiri"
    },
    "modified_at": "2020-04-14T10:46:42.932Z",
    "name": "Leo Ieiri",
    "repository": "kara.moe",
    "tid": "a6c91ff3-1dd2-4088-ac74-3cfb94ec1ecf",
    "types": [
      "songwriters",
      "8",
      "singers",
      "2"
    ]
  }
}