{
  "header": {
    "description": "Karaoke Mugen Tag File",
    "version": 1
  },
  "tag": {
    "i18n": {
      "eng": "Leola"
    },
    "name": "Leola",
    "tid": "90c256b7-258e-419a-a8af-3cc567865f46",
    "types": [
      "singers",
      "2",
      "songwriters",
      "8"
    ],
    "repository": "kara.moe",
    "modified_at": "2020-03-31T19:04:35.802Z"
  }
}