{
  "header": {
    "description": "Karaoke Mugen Tag File",
    "version": 1
  },
  "tag": {
    "i18n": {
      "ara": "غدا تشرق الشمس",
      "eng": "Spartakus and the Sun Beneath the Sea",
      "fre": "Les Mondes Engloutis",
      "gre": "Σάγκμα",
      "hun": "Az elsüllyedt világok",
      "ita": "I mondi sommersi",
      "kor": "잠겨진 세계들",
      "nor": "Arkadia – reisen til jordas indre",
      "pol": "Szagma albo zaginione światy",
      "spa": "Espartaco y el sol bajo el mar"
    },
    "modified_at": "2020-03-31T19:04:32.085Z",
    "name": "Les Mondes Engloutis",
    "repository": "kara.moe",
    "tid": "4ffc8616-b9a6-495b-8c8e-be2f95ee8cf9",
    "types": [
      "series",
      "1"
    ]
  }
}