{
  "header": {
    "description": "Karaoke Mugen Tag File",
    "version": 1
  },
  "tag": {
    "i18n": {
      "fre": "Les Musclés"
    },
    "modified_at": "2020-03-31T19:04:32.085Z",
    "name": "Les Musclés",
    "repository": "kara.moe",
    "tid": "5e3e65de-8972-4ed0-bfe3-1c264b35febc",
    "types": [
      "series",
      "1"
    ]
  }
}