{
  "header": {
    "description": "Karaoke Mugen Tag File",
    "version": 1
  },
  "tag": {
    "i18n": {
      "eng": "Les Fleurirs"
    },
    "name": "Les Fleurirs",
    "tid": "d049d3ba-14d6-4c8c-9a5f-5cc999699892",
    "types": [
      "singers",
      "2"
    ],
    "repository": "kara.moe",
    "modified_at": "2020-03-31T19:04:35.805Z"
  }
}