{
  "header": {
    "description": "Karaoke Mugen Tag File",
    "version": 1
  },
  "tag": {
    "i18n": {
      "eng": "les 5-4-3-2-1"
    },
    "name": "les 5-4-3-2-1",
    "tid": "415c6707-a793-4529-99e1-12ed03743931",
    "types": [
      "singers",
      "2"
    ],
    "repository": "kara.moe",
    "modified_at": "2020-03-31T19:04:35.805Z"
  }
}