{
  "header": {
    "description": "Karaoke Mugen Tag File",
    "version": 1
  },
  "tag": {
    "i18n": {
      "eng": "Les Brigades du Tigre"
    },
    "name": "Les Brigades du Tigre",
    "repository": "kara.moe",
    "tid": "78a734a0-d420-4246-8048-27686ef8ead2",
    "types": [
      "series",
      "1"
    ]
  }
}