{
  "header": {
    "description": "Karaoke Mugen Tag File",
    "version": 1
  },
  "tag": {
    "i18n": {
      "eng": "Les Histoires du Père Castor"
    },
    "modified_at": "2020-10-11T00:03:22.071Z",
    "name": "Les Histoires du Père Castor",
    "repository": "kara.moe",
    "tid": "854d2216-fbd7-40b3-bf9a-ba9cc93e3c13",
    "types": [
      "series",
      "1"
    ]
  }
}