{
  "header": {
    "description": "Karaoke Mugen Tag File",
    "version": 1
  },
  "tag": {
    "i18n": {
      "eng": "Les Jeunes de l'UMP"
    },
    "name": "Les Jeunes de l'UMP",
    "repository": "kara.moe",
    "tid": "43a34149-5736-4272-b573-95d5f52aa3ce",
    "types": [
      "creators",
      "4"
    ]
  }
}