{
  "header": {
    "description": "Karaoke Mugen Tag File",
    "version": 1
  },
  "tag": {
    "i18n": {
      "eng": "Les Jeunes Démocrates de l'UDF"
    },
    "name": "Les Jeunes Démocrates de l'UDF",
    "repository": "kara.moe",
    "tid": "c8dd2460-0643-44c2-b7b1-e2f23bb1fb84",
    "types": [
      "singergroups",
      "17",
      "creators",
      "4"
    ]
  }
}