{
  "header": {
    "description": "Karaoke Mugen Tag File",
    "version": 1
  },
  "tag": {
    "i18n": {
      "eng": "Leslie Parrish"
    },
    "name": "Leslie Parrish",
    "tid": "f59427d8-db22-431e-a093-2db0e27c67e1",
    "types": [
      "singers",
      "2"
    ],
    "repository": "kara.moe",
    "modified_at": "2020-03-31T19:04:35.812Z"
  }
}