{
  "header": {
    "description": "Karaoke Mugen Tag File",
    "version": 1
  },
  "tag": {
    "i18n": {
      "eng": "Levi Elipha"
    },
    "modified_at": "2021-01-29T01:02:29.209Z",
    "name": "Levi Elipha",
    "repository": "kara.moe",
    "tid": "e524eba9-b49f-40b7-9d78-45c6a42ec5fb",
    "types": [
      "singers",
      "2"
    ]
  }
}