{
  "header": {
    "description": "Karaoke Mugen Tag File",
    "version": 1
  },
  "tag": {
    "i18n": {
      "eng": "Levi"
    },
    "name": "Levi",
    "repository": "kara.moe",
    "tid": "1d97aca3-5e20-4af3-a472-a6a07935ceed",
    "types": [
      "songwriters",
      "8"
    ]
  }
}