{
  "header": {
    "description": "Karaoke Mugen Tag File",
    "version": 1
  },
  "tag": {
    "i18n": {
      "eng": "Liáng Shā",
      "chi": "梁莎"
    },
    "modified_at": "2021-03-13T16:57:39.389Z",
    "name": "Liáng Shā",
    "repository": "kara.moe",
    "tid": "9f183944-5cb5-422f-b156-45daf9b4ddf0",
    "types": [
      "songwriters",
      "8"
    ]
  }
}