{
  "header": {
    "description": "Karaoke Mugen Tag File",
    "version": 1
  },
  "tag": {
    "i18n": {
      "eng": "Liar-soft"
    },
    "name": "Liar-soft",
    "tid": "1125a91e-5184-484f-8d6e-80ab419fe20e",
    "types": [
      "creators",
      "4"
    ],
    "repository": "kara.moe",
    "modified_at": "2020-03-31T19:04:35.816Z"
  }
}