{
  "header": {
    "description": "Karaoke Mugen Tag File",
    "version": 1
  },
  "tag": {
    "i18n": {
      "eng": "Library of Ruina"
    },
    "name": "Library of Ruina",
    "repository": "kara.moe",
    "tid": "ba19b66b-cbf4-4c86-9299-292f8c35e9ed",
    "types": [
      "series",
      "1"
    ]
  }
}