{
  "header": {
    "description": "Karaoke Mugen Tag File",
    "version": 1
  },
  "tag": {
    "aliases": [
      "Licence 4"
    ],
    "i18n": {
      "eng": "Licence IV"
    },
    "name": "Licence IV",
    "repository": "kara.moe",
    "tid": "c63bc634-347f-4359-bb05-1635f2c4fdfe",
    "types": [
      "singers",
      "2"
    ]
  }
}