{
  "header": {
    "description": "Karaoke Mugen Tag File",
    "version": 1
  },
  "tag": {
    "i18n": {
      "eng": "LiCu"
    },
    "name": "LiCu",
    "repository": "kara.moe",
    "tid": "0e67e296-c3e5-4b55-99cc-57e550bcdf0d",
    "types": [
      "songwriters",
      "8"
    ]
  }
}