{
  "header": {
    "description": "Karaoke Mugen Tag File",
    "version": 1
  },
  "tag": {
    "i18n": {
      "eng": "Liella!"
    },
    "name": "Liella!",
    "repository": "kara.moe",
    "tid": "f3e5b1d3-30b1-4548-95c8-6cf77216bdbd",
    "types": [
      "singergroups",
      "17"
    ]
  }
}