{
  "header": {
    "description": "Karaoke Mugen Tag File",
    "version": 1
  },
  "tag": {
    "i18n": {
      "eng": "LiGHTs"
    },
    "name": "LiGHTs",
    "repository": "kara.moe",
    "tid": "64fee09a-9a86-4f42-ae0c-1f38aa104dce",
    "types": [
      "singergroups",
      "17"
    ]
  }
}