{
  "header": {
    "description": "Karaoke Mugen Tag File",
    "version": 1
  },
  "tag": {
    "i18n": {
      "eng": "Lil’ Fang"
    },
    "name": "Lil’ Fang",
    "repository": "kara.moe",
    "tid": "e414dc9a-a15b-4ca8-8667-337b9e11d5b9",
    "types": [
      "singers",
      "2"
    ]
  }
}