{
  "header": {
    "description": "Karaoke Mugen Tag File",
    "version": 1
  },
  "tag": {
    "i18n": {
      "eng": "LillyAlbarn"
    },
    "name": "LillyAlbarn",
    "repository": "kara.moe",
    "tid": "e433001a-a073-4124-a13f-9be9efdf917d",
    "types": [
      "creators",
      "4"
    ]
  }
}