{
  "header": {
    "description": "Karaoke Mugen Tag File",
    "version": 1
  },
  "tag": {
    "i18n": {
      "eng": "Lillipi-sama"
    },
    "name": "Lillipi-sama",
    "repository": "kara.moe",
    "tid": "d9053550-3b33-465b-9ee7-0b5cfa4d3ae0",
    "types": [
      "creators",
      "4"
    ]
  }
}