{
  "header": {
    "description": "Karaoke Mugen Tag File",
    "version": 1
  },
  "tag": {
    "i18n": {
      "eng": "Lin Kazuyo"
    },
    "name": "Lin Kazuyo",
    "tid": "42dd5e48-34ee-4c99-b22a-40e8af07a592",
    "types": [
      "songwriters",
      "8",
      "singers",
      "2"
    ],
    "repository": "kara.moe",
    "modified_at": "2020-03-31T19:04:35.826Z"
  }
}