{
  "header": {
    "description": "Karaoke Mugen Tag File",
    "version": 1
  },
  "tag": {
    "external_database_ids": {
      "anilist": 18155,
      "myanimelist": 18155,
      "kitsu": 9020
    },
    "i18n": {
      "eng": "Line Town",
      "jpn": "LINE TOWN",
      "qro": "Line Town"
    },
    "modified_at": "2020-03-31T19:04:32.091Z",
    "name": "Line Town",
    "repository": "kara.moe",
    "tid": "c48211a5-2a14-4562-b684-2a0c5e7ec7de",
    "types": [
      "series",
      "1"
    ]
  }
}