{
  "header": {
    "description": "Karaoke Mugen Tag File",
    "version": 1
  },
  "tag": {
    "aliases": [
      "Isabelle",
      "Yellow Zero"
    ],
    "i18n": {
      "eng": "Ling Huang"
    },
    "name": "Ling Huang",
    "repository": "kara.moe",
    "tid": "ef4a1fe7-b109-4f4a-b420-4636b7cc9d72",
    "types": [
      "singers",
      "2"
    ]
  }
}