{
  "header": {
    "description": "Karaoke Mugen Tag File",
    "version": 1
  },
  "tag": {
    "aliases": [
      "スピリットパクト",
      "Spirit Pact",
      "ling",
      "qi"
    ],
    "external_database_ids": {
      "anilist": 98031,
      "myanimelist": 33605,
      "kitsu": 12517
    },
    "i18n": {
      "chi": "灵契",
      "eng": "Spiritpact",
      "jpn": "SPIRITPACT",
      "qro": "Líng Qì"
    },
    "modified_at": "2021-03-11T18:04:01.340Z",
    "name": "Líng Qì",
    "repository": "kara.moe",
    "tid": "e2468c56-693d-4b2b-8c53-6521e1a4d984",
    "types": [
      "series",
      "1",
      "franchises",
      "18"
    ]
  }
}