{
  "header": {
    "description": "Karaoke Mugen Tag File",
    "version": 1
  },
  "tag": {
    "i18n": {
      "eng": "Lisa Komine"
    },
    "modified_at": "2021-09-11T17:04:32.824Z",
    "name": "Lisa Komine",
    "repository": "kara.moe",
    "tid": "e8c7d3ac-1ec5-452b-8b67-5325ce575669",
    "types": [
      "singers",
      "2",
      "songwriters",
      "8"
    ]
  }
}