{
  "header": {
    "description": "Karaoke Mugen Tag File",
    "version": 1
  },
  "tag": {
    "i18n": {
      "eng": "Lisa Kôsaka"
    },
    "name": "Lisa Kôsaka",
    "repository": "kara.moe",
    "tid": "89249257-0103-4834-929c-2d3837e04231",
    "types": [
      "songwriters",
      "8"
    ]
  }
}