{
  "header": {
    "description": "Karaoke Mugen Tag File",
    "version": 1
  },
  "tag": {
    "i18n": {
      "eng": "LiSA"
    },
    "name": "LiSA",
    "tid": "41f045f2-1576-496d-91b1-c0f28bab57a4",
    "types": [
      "singers",
      "2",
      "songwriters",
      "8"
    ],
    "repository": "kara.moe",
    "modified_at": "2020-03-31T19:04:35.839Z"
  }
}