{
  "header": {
    "description": "Karaoke Mugen Tag File",
    "version": 1
  },
  "tag": {
    "i18n": {
      "eng": "LISP"
    },
    "name": "LISP",
    "tid": "134c9169-f902-4af9-b4c6-f959974fac8e",
    "types": [
      "singers",
      "2"
    ],
    "repository": "kara.moe",
    "modified_at": "2020-03-31T19:04:35.841Z"
  }
}