{
  "header": {
    "description": "Karaoke Mugen Tag File",
    "version": 1
  },
  "tag": {
    "external_database_ids": {
      "anilist": 20481,
      "myanimelist": 20517,
      "kitsu": 8019
    },
    "i18n": {
      "eng": "Little Busters! EX",
      "jpn": "リトルバスターズ!EX",
      "qro": "Little Busters! EX"
    },
    "modified_at": "2020-03-31T19:04:32.092Z",
    "name": "Little Busters! EX",
    "repository": "kara.moe",
    "tid": "10817648-abe8-4921-8956-387c33843557",
    "types": [
      "series",
      "1"
    ]
  }
}