{
  "header": {
    "description": "Karaoke Mugen Tag File",
    "version": 1
  },
  "tag": {
    "i18n": {
      "eng": "Little Black Dress"
    },
    "name": "Little Black Dress",
    "repository": "kara.moe",
    "tid": "e7abcc49-f694-4951-82ce-bb79818715a4",
    "types": [
      "songwriters",
      "8",
      "singers",
      "2"
    ]
  }
}