{
  "header": {
    "description": "Karaoke Mugen Tag File",
    "version": 1
  },
  "tag": {
    "i18n": {
      "eng": "LittleJayneyCakes"
    },
    "name": "LittleJayneyCakes",
    "repository": "kara.moe",
    "tid": "0067df6b-568d-4932-a59f-ae3336d83583",
    "types": [
      "singers",
      "2"
    ]
  }
}