{
  "header": {
    "description": "Karaoke Mugen Tag File",
    "version": 1
  },
  "tag": {
    "i18n": {
      "eng": "Liú Shìchāo",
      "chi": "刘世超"
    },
    "modified_at": "2021-03-13T13:56:28.619Z",
    "name": "Liú Shìchāo",
    "repository": "kara.moe",
    "tid": "0511688f-7d76-4787-ab88-da318aea6d5b",
    "types": [
      "singers",
      "2"
    ]
  }
}