{
  "header": {
    "description": "Karaoke Mugen Tag File",
    "version": 1
  },
  "tag": {
    "i18n": {
      "eng": "Live A Live",
      "jpn": "ライブ・ア・ライブ ",
      "qro": "Live A Live"
    },
    "name": "Live A Live",
    "repository": "kara.moe",
    "tid": "d1a39e0c-61e0-4a37-8e80-9f1508e6deed",
    "types": [
      "series",
      "1"
    ]
  }
}