{
  "header": {
    "description": "Karaoke Mugen Tag File",
    "version": 1
  },
  "tag": {
    "aliases": [
      "Hibike Euphonium",
      "LatBB",
      "Mizore to Nozomi no Monogatari",
      "The Story of Mizore and Nozomi"
    ],
    "external_database_ids": {
      "anilist": 100178,
      "myanimelist": 35677,
      "kitsu": 13618
    },
    "i18n": {
      "eng": "Liz and the Blue Bird",
      "fre": "Liz & l'Oiseau Bleu",
      "ger": "Liz und ein Blauer Vogel",
      "jpn": "リズと青い鳥",
      "qro": "Liz to Aoi Tori"
    },
    "modified_at": "2020-06-21T23:45:31.966Z",
    "name": "Liz to Aoi Tori",
    "repository": "kara.moe",
    "tid": "78350081-d1d4-4e29-aaa4-fd9bfe179230",
    "types": [
      "series",
      "1"
    ]
  }
}