{
  "header": {
    "description": "Karaoke Mugen Tag File",
    "version": 1
  },
  "tag": {
    "i18n": {
      "eng": "Liz Triangle"
    },
    "name": "Liz Triangle",
    "repository": "kara.moe",
    "tid": "63e7d83f-c2f3-43c5-9993-87202fd90347",
    "types": [
      "creators",
      "4"
    ]
  }
}