{
  "header": {
    "description": "Karaoke Mugen Tag File",
    "version": 1
  },
  "tag": {
    "i18n": {
      "eng": "Liza Owen"
    },
    "name": "Liza Owen",
    "repository": "kara.moe",
    "tid": "a0eae8f9-6efc-495d-b2d6-b0e8b5376424",
    "types": [
      "songwriters",
      "8"
    ]
  }
}