{
  "header": {
    "description": "Karaoke Mugen Tag File",
    "version": 1
  },
  "tag": {
    "i18n": {
      "eng": "LM.C"
    },
    "name": "LM.C",
    "tid": "a897ef35-b6b5-4117-91cb-e65b960ef591",
    "types": [
      "singers",
      "2",
      "songwriters",
      "8"
    ],
    "repository": "kara.moe",
    "modified_at": "2020-03-31T19:04:35.859Z"
  }
}