{
  "header": {
    "description": "Karaoke Mugen Tag File",
    "version": 1
  },
  "tag": {
    "i18n": {
      "eng": "Loft"
    },
    "name": "Loft",
    "repository": "kara.moe",
    "tid": "8be85f8e-4f8d-4d45-b035-a02eb4eca312",
    "types": [
      "creators",
      "4"
    ]
  }
}