{
  "header": {
    "description": "Karaoke Mugen Tag File",
    "version": 1
  },
  "tag": {
    "aliases": [
      "LOGH",
      "LH",
      "Log Horizon season 3",
      "Log Horizon: Entaku Houkai",
      "houkai"
    ],
    "external_database_ids": {
      "anilist": 114862,
      "myanimelist": 41109,
      "kitsu": 42957
    },
    "i18n": {
      "eng": "Log Horizon: Destruction of the Round Table",
      "jpn": "ログ・ホライズン 円卓崩壊",
      "kor": "로그 호라이즌: 원탁붕괴",
      "qro": "Log Horizon: Entaku Hôkai"
    },
    "modified_at": "2021-03-05T23:23:14.076Z",
    "name": "Log Horizon: Entaku Hôkai",
    "repository": "kara.moe",
    "tid": "330e04da-7fd1-4319-9c8c-31f9fad98c1b",
    "types": [
      "series",
      "1"
    ]
  }
}