{
  "header": {
    "description": "Karaoke Mugen Tag File",
    "version": 1
  },
  "tag": {
    "i18n": {
      "eng": "Logan Mader"
    },
    "name": "Logan Mader",
    "repository": "kara.moe",
    "tid": "590cacbb-2464-4b7a-bd60-8b40f58c4dbf",
    "types": [
      "songwriters",
      "8"
    ]
  }
}