{
  "header": {
    "description": "Karaoke Mugen Tag File",
    "version": 1
  },
  "tag": {
    "i18n": {
      "eng": "Lolirock"
    },
    "name": "Lolirock",
    "repository": "kara.moe",
    "tid": "7ab50f4e-543c-49e4-8259-8a9ec293cddc",
    "types": [
      "series",
      "1"
    ]
  }
}