{
  "header": {
    "description": "Karaoke Mugen Tag File",
    "version": 1
  },
  "tag": {
    "i18n": {
      "eng": "Lollitree"
    },
    "modified_at": "2021-01-13T18:12:33.421Z",
    "name": "Lollitree",
    "repository": "kara.moe",
    "tid": "f6ace0de-d474-4f5c-a54e-a31a7cced3b2",
    "types": [
      "creators",
      "4"
    ]
  }
}