{
  "header": {
    "description": "Karaoke Mugen Tag File",
    "version": 1
  },
  "tag": {
    "i18n": {
      "eng": "Longman"
    },
    "name": "Longman",
    "repository": "kara.moe",
    "tid": "63c021fe-db1d-44f9-8314-4dd90fd670fe",
    "types": [
      "singergroups",
      "17"
    ]
  }
}