{
  "header": {
    "description": "Karaoke Mugen Tag File",
    "version": 1
  },
  "tag": {
    "i18n": {
      "eng": "LONG SHOT PARTY"
    },
    "name": "LONG SHOT PARTY",
    "tid": "89adcb71-1968-4b1b-8ae2-89924c6b2d08",
    "types": [
      "singers",
      "2",
      "songwriters",
      "8"
    ],
    "repository": "kara.moe",
    "modified_at": "2020-03-31T19:04:35.863Z"
  }
}