{
  "header": {
    "description": "Karaoke Mugen Tag File",
    "version": 1
  },
  "tag": {
    "i18n": {
      "eng": "lop"
    },
    "name": "lop",
    "repository": "kara.moe",
    "tid": "94af8136-d0f9-4c55-8160-963683b85811",
    "types": [
      "authors",
      "6"
    ]
  }
}