{
  "header": {
    "description": "Karaoke Mugen Tag File",
    "version": 1
  },
  "tag": {
    "aliases": [
      "Lord El-Melloi II Case Files: Rail Zeppelin Grace Note"
    ],
    "external_database_ids": {
      "anilist": 106918,
      "myanimelist": 38959,
      "kitsu": 42092
    },
    "i18n": {
      "eng": "Lord El-Melloi II Sei no Jikenbo: Rail Zeppelin Grace Note",
      "jpn": "ロード・エルメロイⅡ世の事件簿 -魔眼蒐集列車 Grace note-",
      "qro": "Lord El-Melloi II Sei no Jikenbo: Rail Zeppelin Grace Note"
    },
    "modified_at": "2020-03-31T19:04:32.100Z",
    "name": "Lord El-Melloi II Sei no Jikenbo: Rail Zeppelin Grace Note",
    "repository": "kara.moe",
    "tid": "53a8cd65-85ce-4319-9afc-62e9ea589b34",
    "types": [
      "series",
      "1"
    ]
  }
}