{
  "header": {
    "description": "Karaoke Mugen Tag File",
    "version": 1
  },
  "tag": {
    "i18n": {
      "eng": "Loretta Santini"
    },
    "name": "Loretta Santini",
    "repository": "kara.moe",
    "tid": "ab99f8a0-4502-4dc9-a192-2079dd4b234d",
    "types": [
      "songwriters",
      "8"
    ]
  }
}