{
  "header": {
    "description": "Karaoke Mugen Tag File",
    "version": 1
  },
  "tag": {
    "i18n": {
      "eng": "Loser Kashiwagi"
    },
    "name": "Loser Kashiwagi",
    "tid": "69b884fc-6793-4cf2-8615-d8a05f193d85",
    "types": [
      "songwriters",
      "8"
    ],
    "repository": "kara.moe",
    "modified_at": "2020-03-31T19:04:35.867Z"
  }
}