{
  "header": {
    "description": "Karaoke Mugen Tag File",
    "version": 1
  },
  "tag": {
    "i18n": {
      "eng": "Lost Judgment"
    },
    "name": "Lost Judgment",
    "repository": "kara.moe",
    "tid": "45321b74-44b9-4902-9fab-da77e9a13065",
    "types": [
      "series",
      "1"
    ]
  }
}