{
  "header": {
    "description": "Karaoke Mugen Tag File",
    "version": 1
  },
  "tag": {
    "i18n": {
      "eng": "Lou"
    },
    "name": "Lou",
    "tid": "5c4bd668-8f86-4649-a84a-97754fc08904",
    "types": [
      "singers",
      "2"
    ],
    "repository": "kara.moe",
    "modified_at": "2020-03-31T19:04:35.871Z"
  }
}