{
  "header": {
    "description": "Karaoke Mugen Tag File",
    "version": 1
  },
  "tag": {
    "i18n": {
      "jpn": "ラブライブ！スクールアイドルフェスティバル ~after school ACTIVITY~",
      "qro": "Love Live! School idol festival ~after school ACTIVITY~"
    },
    "name": "Love Live! School Idol Festival ~after school ACTIVITY~ Wai Wai! Home Meeting!!",
    "repository": "kara.moe",
    "tid": "a26f6db0-a254-4c11-b9d4-4bb80b96e294",
    "types": [
      "series",
      "1"
    ]
  }
}