{
  "header": {
    "description": "Karaoke Mugen Tag File",
    "version": 1
  },
  "tag": {
    "i18n": {
      "eng": "Love Live! School Idol Musical"
    },
    "name": "Love Live! School Idol Musical",
    "repository": "kara.moe",
    "tid": "2c80d835-0bd0-42ca-9639-a16560c17a8c",
    "types": [
      "series",
      "1"
    ]
  }
}