{
  "header": {
    "description": "Karaoke Mugen Tag File",
    "version": 1
  },
  "tag": {
    "i18n": {
      "eng": "Love Solfege"
    },
    "name": "Love Solfege",
    "repository": "kara.moe",
    "tid": "24005a5f-c40c-41e9-a5d9-58adfd5009f6",
    "types": [
      "singergroups",
      "17"
    ]
  }
}