{
  "header": {
    "description": "Karaoke Mugen Tag File",
    "version": 1
  },
  "tag": {
    "i18n": {
      "eng": "Love Hina: Smile Again",
      "jpn": "ラブひな スマイルアゲイン",
      "qro": "Love Hina: Smile Again"
    },
    "modified_at": "2020-03-31T19:04:32.103Z",
    "name": "Love Hina: Smile Again",
    "repository": "kara.moe",
    "tid": "04e870b0-fcb6-4708-847c-88035847ca43",
    "types": [
      "series",
      "1"
    ]
  }
}