{
  "header": {
    "description": "Karaoke Mugen Tag File",
    "version": 1
  },
  "tag": {
    "aliases": [
      "LH",
      "Love Hina tv",
      "Кохання та Хіна",
      "Любовь и Хина",
      "С любовью Хина",
      "บ้านพักอลเวง",
      "纯情房东俏房客"
    ],
    "external_database_ids": {
      "anilist": 189,
      "myanimelist": 189,
      "kitsu": 166
    },
    "i18n": {
      "dan": "Love Hina",
      "eng": "Love Hina",
      "fin": "Love Hina",
      "fre": "Love Hina",
      "ger": "Love Hina",
      "jpn": "ラブひな",
      "kor": "러브 히나",
      "pol": "Love Hina",
      "por": "Love Hina",
      "spa": "Love Hina",
      "swe": "Love Hina",
      "tha": "เลิฟฮินะ",
      "qro": "Love Hina"
    },
    "modified_at": "2020-03-31T19:04:32.105Z",
    "name": "Love Hina",
    "repository": "kara.moe",
    "tid": "fbb6b156-9cfc-4191-9855-34e77387d237",
    "types": [
      "series",
      "1",
      "franchises",
      "18"
    ]
  }
}