{
  "header": {
    "description": "Karaoke Mugen Tag File",
    "version": 1
  },
  "tag": {
    "external_database_ids": {
      "anilist": 20766,
      "myanimelist": 24997,
      "kitsu": 8531
    },
    "i18n": {
      "eng": "Love Live! The School Idol Movie",
      "jpn": "ラブライブ! The School Idol Movie",
      "qro": "Love Live! The School Idol Movie"
    },
    "modified_at": "2021-03-07T23:18:00.994Z",
    "name": "Love Live! The School Idol Movie",
    "repository": "kara.moe",
    "tid": "1782b62f-485d-4e42-9e3f-c64c5d3ce174",
    "types": [
      "series",
      "1"
    ]
  }
}