{
  "header": {
    "description": "Karaoke Mugen Tag File",
    "version": 1
  },
  "tag": {
    "external_database_ids": {
      "anilist": 140642,
      "myanimelist": 50203,
      "kitsu": 45360
    },
    "i18n": {
      "eng": "Love Live! Superstar!! 2nd Season",
      "jpn": "ラブライブ! スーパースター!! (2022)",
      "qro": "Love Live! Superstar!! (2022)",
      "fre": "Love Live! Superstar!! (saison 2)"
    },
    "name": "Love Live! Superstar!! 2nd Season",
    "repository": "kara.moe",
    "tid": "51ceccbb-3e30-4e99-b378-a0d09a5a5786",
    "types": [
      "series",
      "1"
    ]
  }
}