{
  "header": {
    "description": "Karaoke Mugen Tag File",
    "version": 1
  },
  "tag": {
    "i18n": {
      "eng": "Love Desire"
    },
    "name": "Love Desire",
    "repository": "kara.moe",
    "tid": "0d28a3d4-bc4e-446d-a239-9b03438893ee",
    "types": [
      "singers",
      "2"
    ],
    "modified_at": "2020-03-31T19:04:35.872Z"
  }
}