{
  "header": {
    "description": "Karaoke Mugen Tag File",
    "version": 1
  },
  "tag": {
    "aliases": [
      "Perfect Dream Project",
      "Nijigasaki Gakuen School Idol Doukoukai",
      "LL",
      "LLSIF",
      "LLSIP"
    ],
    "external_database_ids": {
      "anilist": 113970,
      "myanimelist": 40879,
      "kitsu": 42872
    },
    "i18n": {
      "eng": "Love Live! Nijigasaki High School Idol Club",
      "jpn": "ラブライブ! 虹ヶ咲学園スクールアイドル同好会",
      "qro": "Love Live! Nijigasaki Gakuen School Idol Dôkôkai"
    },
    "name": "Love Live! Nijigasaki Gakuen School Idol Dôkôkai",
    "repository": "kara.moe",
    "tid": "9609e3a6-60db-412a-9d81-e9d9d2e0fb79",
    "types": [
      "series",
      "1"
    ]
  }
}