{
  "header": {
    "description": "Karaoke Mugen Tag File",
    "version": 1
  },
  "tag": {
    "i18n": {
      "eng": "LOWEND ORDER"
    },
    "name": "LOWEND ORDER",
    "repository": "kara.moe",
    "tid": "ca955570-bac4-463b-b5ff-e30a06afbf27",
    "types": [
      "songwriters",
      "8"
    ]
  }
}