{
  "header": {
    "description": "Karaoke Mugen Tag File",
    "version": 1
  },
  "tag": {
    "i18n": {
      "eng": "Lozareena"
    },
    "name": "Lozareena",
    "tid": "064daa1d-65aa-48e9-a536-a53e75841d17",
    "types": [
      "singers",
      "2",
      "songwriters",
      "8"
    ],
    "repository": "kara.moe",
    "modified_at": "2020-03-31T19:04:35.876Z"
  }
}