{
  "header": {
    "description": "Karaoke Mugen Tag File",
    "version": 1
  },
  "tag": {
    "i18n": {
      "eng": "Lshiro"
    },
    "name": "Lshiro",
    "repository": "kara.moe",
    "tid": "f1a26167-47e9-444e-acb1-3cdd3acea3f9",
    "types": [
      "authors",
      "6"
    ]
  }
}