{
  "header": {
    "description": "Karaoke Mugen Tag File",
    "version": 1
  },
  "tag": {
    "i18n": {
      "eng": "Luc Aulivier"
    },
    "name": "Luc Aulivier",
    "tid": "92a4d148-9d66-4cfa-82ce-031e16fc7014",
    "types": [
      "songwriters",
      "8"
    ],
    "repository": "kara.moe",
    "modified_at": "2020-03-31T19:04:35.878Z"
  }
}