{
  "header": {
    "description": "Karaoke Mugen Tag File",
    "version": 1
  },
  "tag": {
    "i18n": {
      "eng": "Luca Morandini"
    },
    "name": "Luca Morandini",
    "tid": "85b30c15-6c57-45f3-b3b0-ce40d051929e",
    "types": [
      "songwriters",
      "8"
    ],
    "repository": "kara.moe",
    "modified_at": "2020-03-31T19:04:35.879Z"
  }
}