{
  "header": {
    "description": "Karaoke Mugen Tag File",
    "version": 1
  },
  "tag": {
    "i18n": {
      "eng": "Luca Yûmi"
    },
    "name": "Luca Yûmi",
    "tid": "d10ef91b-031b-4ba9-9db2-3e2c50220711",
    "types": [
      "singers",
      "2"
    ],
    "repository": "kara.moe",
    "modified_at": "2020-03-31T19:04:35.879Z"
  }
}