{
  "header": {
    "description": "Karaoke Mugen Tag File",
    "version": 1
  },
  "tag": {
    "i18n": {
      "eng": "Lucien Zabuski"
    },
    "modified_at": "2021-01-15T23:36:57.981Z",
    "name": "Lucien Zabuski",
    "repository": "kara.moe",
    "tid": "c43c82ba-630c-45f6-97f5-df3faf826064",
    "types": [
      "songwriters",
      "8"
    ]
  }
}