{
  "header": {
    "description": "Karaoke Mugen Tag File",
    "version": 1
  },
  "tag": {
    "i18n": {
      "eng": "Luck Life"
    },
    "name": "Luck Life",
    "tid": "4be95706-fea9-4d27-ac9f-d967ec1290a9",
    "types": [
      "singers",
      "2"
    ],
    "repository": "kara.moe",
    "modified_at": "2020-03-31T19:04:35.884Z"
  }
}