{
  "header": {
    "description": "Karaoke Mugen Tag File",
    "version": 1
  },
  "tag": {
    "aliases": [
      "LD1",
      "Lucky Dog 1"
    ],
    "i18n": {
      "eng": "Luckydog1",
      "jpn": "ラッキードッグ１",
      "qro": "Luckydog1"
    },
    "modified_at": "2020-03-31T19:04:32.115Z",
    "name": "Luckydog1",
    "repository": "kara.moe",
    "tid": "0d3b7065-5bbe-4013-b5f4-f5e58464ce0a",
    "types": [
      "series",
      "1"
    ]
  }
}