{
  "header": {
    "description": "Karaoke Mugen Tag File",
    "version": 1
  },
  "tag": {
    "i18n": {
      "eng": "Ludovic"
    },
    "name": "Ludovic",
    "tid": "26424990-dd9d-4ad6-b692-475a5e34bd48",
    "types": [
      "authors",
      "6"
    ],
    "repository": "kara.moe",
    "modified_at": "2020-03-31T19:04:35.885Z"
  }
}