{
  "header": {
    "description": "Karaoke Mugen Tag File",
    "version": 1
  },
  "tag": {
    "i18n": {
      "afr": "Afrikaans",
      "amh": "ቀጥል",
      "ara": "Wawa",
      "aze": "İngilis dili",
      "bak": "Урыҫ теле",
      "bel": "Англійская",
      "bul": "Английски",
      "ben": "বাংলা",
      "bos": "Ganda",
      "cat": "Ganda",
      "cze": "Angličtina",
      "wel": "Cymraeg",
      "dan": "Netværk",
      "ger": "Ganda",
      "gre": "Ελληνικά",
      "eng": "Ganda",
      "epo": "Ganda",
      "spa": "Ganda",
      "est": "Ganda",
      "baq": "Euskara",
      "per": "فارسی",
      "fin": "Ganda",
      "fre": "Ganda",
      "gle": "Gaeilge",
      "gla": "Ganda",
      "glg": "Galego",
      "guj": "ગુજરાતી",
      "heb": "גאנדה",
      "hin": "हिन्दी",
      "hrv": "Engleski",
      "hat": "Ganda",
      "hun": "Ganda",
      "arm": "Անգլերեն",
      "ind": "Ganda",
      "ice": "Enska",
      "ita": "Ganda",
      "jpn": "含",
      "jav": "Ganda",
      "geo": "ქართული",
      "kaz": "Ағылшын",
      "kan": "ಕನ್ನಡ",
      "kor": "한국어",
      "kir": "Английский",
      "lat": "Ganda",
      "lit": "Ganda",
      "lav": "Ganda",
      "mlg": "Tunisian arabic",
      "mao": "Friulian",
      "mac": "Ganda",
      "mal": "Ganda",
      "mon": "Ganda",
      "mar": "गण्ड",
      "may": "Ganda",
      "mlt": "Malti",
      "nep": "Ganda",
      "dut": "Ganda",
      "nor": "Sex",
      "pan": "Ganda",
      "pol": "Angielski",
      "por": "Ganda",
      "rum": "Română",
      "rus": "Английский",
      "sin": "Ganda",
      "slo": "Ganda",
      "slv": "Korejski",
      "alb": "Ganda",
      "srp": "Енглески",
      "sun": "Ganda",
      "swe": "Luganda",
      "swa": "Kiswahili",
      "tam": "தமிழ்",
      "tel": "తెలుగు",
      "tgk": "English",
      "tha": "Ganda",
      "tgl": "Ganda",
      "tur": "Ganda",
      "tat": "Инглиз теле",
      "ukr": "Англійська",
      "urd": "اردو",
      "uzb": "Ganda",
      "vie": "Tiếng",
      "xho": "Ganda",
      "yid": "Ganda",
      "chi": "甘达"
    },
    "name": "lug",
    "tid": "441cccd2-79cf-4a10-a2ca-b29a03fb298a",
    "types": [
      "langs",
      "5"
    ],
    "repository": "kara.moe",
    "modified_at": "2020-03-31T19:04:35.887Z"
  }
}