{
  "header": {
    "description": "Karaoke Mugen Tag File",
    "version": 1
  },
  "tag": {
    "i18n": {
      "eng": "Lui Takane"
    },
    "name": "Lui Takane",
    "repository": "kara.moe",
    "tid": "b4e77e35-3b68-47a8-9c2b-75b3e5697457",
    "types": [
      "singers",
      "2"
    ]
  }
}