{
  "header": {
    "description": "Karaoke Mugen Tag File",
    "version": 1
  },
  "tag": {
    "i18n": {
      "eng": "Luis Resto"
    },
    "name": "Luis Resto",
    "repository": "kara.moe",
    "tid": "75998a7c-bfda-44ae-9a51-f0bae1d42d75",
    "types": [
      "songwriters",
      "8"
    ]
  }
}