{
  "header": {
    "description": "Karaoke Mugen Tag File",
    "version": 1
  },
  "tag": {
    "i18n": {
      "eng": "Luis Dubuc"
    },
    "modified_at": "2020-10-25T17:58:16.968Z",
    "name": "Luis Dubuc",
    "repository": "kara.moe",
    "tid": "afe813c3-c013-49f0-9ad3-97f53efe86e2",
    "types": [
      "singers",
      "2"
    ]
  }
}