{
  "header": {
    "description": "Karaoke Mugen Tag File",
    "version": 1
  },
  "tag": {
    "i18n": {
      "eng": "Luisa Gerstein"
    },
    "name": "Luisa Gerstein",
    "repository": "kara.moe",
    "tid": "235be941-8003-4820-888b-5b855c8e51ea",
    "types": [
      "songwriters",
      "8"
    ]
  }
}