{
  "header": {
    "description": "Karaoke Mugen Tag File",
    "version": 1
  },
  "tag": {
    "i18n": {
      "eng": "Luka"
    },
    "name": "Luka",
    "tid": "1eb078bb-70d7-4671-9c71-86b7b42358ec",
    "types": [
      "songwriters",
      "8"
    ],
    "repository": "kara.moe",
    "modified_at": "2020-03-31T19:04:35.890Z"
  }
}