{
  "header": {
    "description": "Karaoke Mugen Tag File",
    "version": 1
  },
  "tag": {
    "i18n": {
      "eng": "Lulu Suzuhara"
    },
    "name": "Lulu Suzuhara",
    "repository": "kara.moe",
    "tid": "945ec075-3b3e-4a4a-8333-1b7f713822bf",
    "types": [
      "singers",
      "2"
    ]
  }
}