{
  "header": {
    "description": "Karaoke Mugen Tag File",
    "version": 1
  },
  "tag": {
    "i18n": {
      "eng": "Lulu Suzuhara"
    },
    "name": "Lulu Suzuhara",
    "repository": "kara.moe",
    "tid": "72033403-1b76-47e1-8c5b-09de7474a818",
    "types": [
      "singers",
      "2"
    ]
  }
}