{
  "header": {
    "description": "Karaoke Mugen Tag File",
    "version": 1
  },
  "tag": {
    "i18n": {
      "eng": "Luna Himemori",
      "jpn": "姫森ルーナ",
      "qro": "Luna Himemori"
    },
    "modified_at": "2021-09-02T20:38:01.957Z",
    "name": "Luna Himemori",
    "repository": "kara.moe",
    "tid": "00c08b6a-f5da-433d-a03c-66d37ef5150b",
    "types": [
      "singers",
      "2"
    ]
  }
}