{
  "header": {
    "description": "Karaoke Mugen Tag File",
    "version": 1
  },
  "tag": {
    "i18n": {
      "eng": "Lunar: Silver Star Story Complete",
      "jpn": "ルナ~シルバースターストーリ",
      "qro": "Lunar: Silver Star Story"
    },
    "modified_at": "2020-03-31T19:04:32.117Z",
    "name": "Lunar: Silver Star Story",
    "repository": "kara.moe",
    "tid": "8e25c032-9675-4b10-86b7-9adb52f27ea0",
    "types": [
      "series",
      "1"
    ]
  }
}