{
  "header": {
    "description": "Karaoke Mugen Tag File",
    "version": 1
  },
  "tag": {
    "i18n": {
      "eng": "Luna Haruna"
    },
    "name": "Luna Haruna",
    "tid": "9e3b7bd6-d31f-4e68-a873-3a7c51f8cdb3",
    "types": [
      "singers",
      "2",
      "songwriters",
      "8"
    ],
    "repository": "kara.moe",
    "modified_at": "2020-03-31T19:04:35.891Z"
  }
}