{
  "header": {
    "description": "Karaoke Mugen Tag File",
    "version": 1
  },
  "tag": {
    "external_database_ids": {
      "anilist": 112023,
      "kitsu": 43296,
      "myanimelist": 40211
    },
    "i18n": {
      "chi": "罗小黑战记",
      "eng": "The Legend of Hei",
      "jpn": "羅小黒戦記 ぼくが選ぶ未来",
      "qro": "Luō xiǎo hēi zhàn jì"
    },
    "name": "Luō xiǎo hēi zhàn jì",
    "repository": "kara.moe",
    "tid": "d1e54b14-0c3a-42f1-b6f9-646b4b26d47e",
    "types": [
      "series",
      "1"
    ]
  }
}