{
  "header": {
    "description": "Karaoke Mugen Tag File",
    "version": 1
  },
  "tag": {
    "i18n": {
      "eng": "Luo Shaoye"
    },
    "name": "Luo Shaoye",
    "repository": "kara.moe",
    "tid": "58fed177-52b8-44c2-af10-eb00f43c0273",
    "types": [
      "singers",
      "2"
    ]
  }
}