{
  "header": {
    "description": "Karaoke Mugen Tag File",
    "version": 1
  },
  "tag": {
    "aliases": [
      "Edgar le détective cambrioleur",
      "Giacca rossa",
      "Lupin III 78",
      "Lupin III: Part II",
      "Lupin Sansei: Part 2",
      "Lupin The Third Part 2",
      "Lupin the 3rd: Series 2",
      "Lupin the Third: Part 2",
      "New Lupin III",
      "Red jacket",
      "Shin Lupin III",
      "Shin Lupin Sansei",
      "Люпет Трети (1977)",
      "新・ルパン三世",
      "鲁邦三世 (TV第2部)",
      "Edgar de la cambriole",
      "Lupin 3"
    ],
    "external_database_ids": {
      "anilist": 1425,
      "myanimelist": 1425,
      "kitsu": 1278
    },
    "i18n": {
      "eng": "Lupin III Part II",
      "fre": "Lupin III Part II",
      "ita": "Lupin III - Seconda serie",
      "jpn": "ルパン三世 (1977)",
      "qro": "Lupin III Part II"
    },
    "modified_at": "2020-07-19T17:12:09.094Z",
    "name": "Lupin III Part II",
    "repository": "kara.moe",
    "tid": "b3e6e867-0220-4b35-8d95-9f0b54302656",
    "types": [
      "series",
      "1"
    ]
  }
}