{
  "header": {
    "description": "Karaoke Mugen Tag File",
    "version": 1
  },
  "tag": {
    "aliases": [
      "Lupin 3",
      "Edgar de la cambriole"
    ],
    "external_database_ids": {
      "anilist": 1419,
      "myanimelist": 1419,
      "kitsu": 1272
    },
    "i18n": {
      "eng": "Lupin III: Farewell to Nostradamus",
      "jpn": "ルパン三世 くたばれ! ノストラダムス",
      "fre": "Lupin III : Adieu, Nostradamus !",
      "ger": "Lupin the 3rd - Farewell to Nostradamus",
      "ita": "Lupin III: Le profezie di Nostradamus",
      "qro": "Lupin Sansei: Kutabare! Nostradamus"
    },
    "modified_at": "2020-07-19T15:24:03.958Z",
    "name": "Lupin Sansei: Kutabare! Nostradamus",
    "repository": "kara.moe",
    "tid": "66104873-cf20-45f8-a41d-674413223cae",
    "types": [
      "series",
      "1"
    ]
  }
}