{
  "header": {
    "description": "Karaoke Mugen Tag File",
    "version": 1
  },
  "tag": {
    "aliases": [
      "Lupin Sansei: Walther P38 - In Gedenken an die Walther P38",
      "Lupin III: In Memory of the Walther P38",
      "Lupin III: Nome in codice Tarantola",
      "Люпен Трети: Уолтър Р-38 - Островът на Убийците"
    ],
    "i18n": {
      "eng": "Lupin the 3rd: Island of Assassins",
      "ita": "Lupin III: Walther P38",
      "jpn": "ルパン三世 ワルサーP38",
      "qro": "Lupin III Walther P-38"
    },
    "modified_at": "2020-06-28T22:50:45.122Z",
    "name": "Lupin III Walther P-38",
    "repository": "kara.moe",
    "tid": "bf84f4a0-34b8-4dcb-b64e-007caecfa08a",
    "types": [
      "series",
      "1"
    ]
  }
}