{
  "header": {
    "description": "Karaoke Mugen Tag File",
    "version": 1
  },
  "tag": {
    "aliases": [
      "Edgar de la cambriole",
      "Giacca verde",
      "Green jacket Lupin III TV",
      "Lupin 3",
      "Lupin III: Part I",
      "Lupin Sansei: Part I",
      "Lupin The Third",
      "Lupin The Third: Part 1",
      "Lupin the 3rd: Series 1",
      "lupin1",
      "lupins1",
      "لوبن الثالث لوپین سوم",
      "鲁邦三世 (TV第1部)"
    ],
    "external_database_ids": {
      "anilist": 1412,
      "myanimelist": 1412,
      "kitsu": 1265
    },
    "i18n": {
      "bul": "Люпен Трети",
      "eng": "Lupin the Third TV",
      "fre": "Lupin III",
      "ita": "Lupin III - Prima serie",
      "jpn": "ルパン三世",
      "qro": "Lupin III"
    },
    "modified_at": "2020-03-31T19:04:32.120Z",
    "name": "Lupin III",
    "repository": "kara.moe",
    "tid": "f0deb9e6-1914-4984-ad4a-3e9406fdd7b0",
    "types": [
      "series",
      "1"
    ]
  }
}