{
  "header": {
    "description": "Karaoke Mugen Tag File",
    "version": 1
  },
  "tag": {
    "aliases": [
      "Lupin 3",
      "Edgar de la cambriole",
      "Lupin e il tesoro del Titanic",
      "Spada Zantetsu, infuocati!",
      "Zantetsu Sword Is On Fire"
    ],
    "external_database_ids": {
      "anilist": 1417,
      "myanimelist": 1417,
      "kitsu": 1270
    },
    "i18n": {
      "eng": "Lupin the 3rd: Dragon of Doom",
      "jpn": "ルパン三世 燃えよ斬鉄剣",
      "spa": "Lupin III: El dragón de la muerte",
      "ita": "Lupin III: Il mistero del dragone",
      "qro": "Lupin Sansei: Moeyo Zantetsuken"
    },
    "modified_at": "2020-07-19T15:46:37.688Z",
    "name": "Lupin Sansei: Moeyo Zantetsuken",
    "repository": "kara.moe",
    "tid": "b30209b0-9d08-425a-afc4-40e48713d5b5",
    "types": [
      "series",
      "1"
    ]
  }
}