{
  "header": {
    "description": "Karaoke Mugen Tag File",
    "version": 1
  },
  "tag": {
    "aliases": [
      "Edgar de la Cambriole",
      "Edgar le détective cambrioleur",
      "Lupin Sansei Fuuma Ichizoku no Inbou",
      "Lupin 3",
      "fuuma",
      "inbou"
    ],
    "external_database_ids": {
      "anilist": 1432,
      "myanimelist": 1432,
      "kitsu": 1285
    },
    "i18n": {
      "eng": "Lupin III: The Fuma Conspiracy",
      "fre": "Lupin III : Le Complot du clan Fuma",
      "jpn": "ルパン三世 風魔一族の陰謀",
      "spa": "Lupin III: La Conspiración de Fuuma",
      "ita": "Lupin III: La cospirazione dei Fuma",
      "qro": "Lupin Sansei: Fûma Ichizoku no Inbô"
    },
    "modified_at": "2020-08-22T17:36:39.315Z",
    "name": "Lupin Sansei: Fûma Ichizoku no Inbô",
    "repository": "kara.moe",
    "tid": "03635fc2-48c6-435a-ab53-97c6a4aedcc8",
    "types": [
      "series",
      "1"
    ]
  }
}