{
  "header": {
    "description": "Karaoke Mugen Tag File",
    "version": 1
  },
  "tag": {
    "aliases": [
      "Lupin III",
      "Lupin 3",
      "Edgar de la cambriole"
    ],
    "external_database_ids": {
      "anilist": 1416,
      "myanimelist": 1416,
      "kitsu": 1269
    },
    "i18n": {
      "eng": "Lupin III: Dead or Alive",
      "jpn": "ルパン三世 DEAD OR ALIVE",
      "fre": "Lupin III : Mort ou vif",
      "ita": "Lupin III: Trappola mortale",
      "spa": "Lupin III: Vivo o muerto",
      "qro": "Lupin Sansei: Dead or Alive"
    },
    "modified_at": "2020-07-19T15:11:00.684Z",
    "name": "Lupin Sansei: Dead or Alive",
    "repository": "kara.moe",
    "tid": "8bc89efa-a073-4285-ba8b-20442efbd63d",
    "types": [
      "series",
      "1"
    ]
  }
}