{
  "header": {
    "description": "Karaoke Mugen Tag File",
    "version": 1
  },
  "tag": {
    "i18n": {
      "eng": "luz",
      "jpn": "ルス",
      "qro": "luz"
    },
    "modified_at": "2021-05-12T00:03:47.940Z",
    "name": "luz",
    "repository": "kara.moe",
    "tid": "06a24716-6608-40e0-b23b-1d166e19eb09",
    "types": [
      "creators",
      "4",
      "singers",
      "2"
    ]
  }
}