{
  "header": {
    "description": "Karaoke Mugen Tag File",
    "version": 1
  },
  "tag": {
    "i18n": {
      "eng": "Lyka"
    },
    "modified_at": "2021-10-14T17:01:15.635Z",
    "name": "Lyka",
    "repository": "kara.moe",
    "tid": "640afbc1-42cb-4af2-8dd0-3bb926b01ff5",
    "types": [
      "songwriters",
      "8"
    ]
  }
}