{
  "header": {
    "description": "Karaoke Mugen Tag File",
    "version": 1
  },
  "tag": {
    "i18n": {
      "eng": "Lylas"
    },
    "name": "Lylas",
    "repository": "kara.moe",
    "tid": "530f2e1c-ed1d-44a9-90ec-745ec75d3d23",
    "types": [
      "creators",
      "4"
    ]
  }
}