{
  "header": {
    "description": "Karaoke Mugen Tag File",
    "version": 1
  },
  "tag": {
    "i18n": {
      "eng": "Lynn Ahrens"
    },
    "modified_at": "2020-07-03T22:59:31.183Z",
    "name": "Lynn Ahrens",
    "repository": "kara.moe",
    "tid": "d1b75a44-7fb1-49e3-a6eb-c26665b74940",
    "types": [
      "songwriters",
      "8"
    ]
  }
}