{
  "header": {
    "description": "Karaoke Mugen Tag File",
    "version": 1
  },
  "tag": {
    "i18n": {
      "eng": "M Rie"
    },
    "name": "M Rie",
    "tid": "6aec831a-c6d8-4c7b-b4ff-d8d412878d79",
    "types": [
      "songwriters",
      "8"
    ],
    "repository": "kara.moe",
    "modified_at": "2020-03-31T19:04:35.898Z"
  }
}