{
  "header": {
    "description": "Karaoke Mugen Tag File",
    "version": 1
  },
  "tag": {
    "i18n": {
      "eng": "M Three"
    },
    "modified_at": "2021-03-08T18:27:43.994Z",
    "name": "M Three",
    "repository": "kara.moe",
    "tid": "143e7539-489f-41c6-bc32-c38ed5912017",
    "types": [
      "singers",
      "2"
    ]
  }
}