{
  "header": {
    "description": "Karaoke Mugen Tag File",
    "version": 1
  },
  "tag": {
    "aliases": [
      "Mao Ichimichi"
    ],
    "i18n": {
      "eng": "M・A・O"
    },
    "name": "M・A・O",
    "tid": "dfddf0a7-15e4-4fa7-90e7-fead611ee6c7",
    "types": [
      "singers",
      "2"
    ],
    "repository": "kara.moe",
    "modified_at": "2020-03-31T19:04:35.901Z"
  }
}