{
  "header": {
    "description": "Karaoke Mugen Tag File",
    "version": 1
  },
  "tag": {
    "i18n": {
      "eng": "M.I.O"
    },
    "name": "M.I.O",
    "repository": "kara.moe",
    "tid": "7bada103-13b3-4f2d-9d31-d3d93aef2bcb",
    "types": [
      "songwriters",
      "8"
    ]
  }
}