{
  "header": {
    "description": "Karaoke Mugen Tag File",
    "version": 1
  },
  "tag": {
    "i18n": {
      "eng": "m.o.v.e"
    },
    "name": "m.o.v.e",
    "tid": "067a5236-4d24-4fe6-b528-5370ee52bb3b",
    "types": [
      "singers",
      "2"
    ],
    "repository": "kara.moe",
    "modified_at": "2020-03-31T19:04:35.903Z"
  }
}