{
  "header": {
    "description": "Karaoke Mugen Tag File",
    "version": 1
  },
  "tag": {
    "i18n": {
      "eng": "m.o.e.v"
    },
    "modified_at": "2021-04-12T00:15:28.098Z",
    "name": "m.o.e.v",
    "repository": "kara.moe",
    "tid": "d0e2ff59-1d9e-4419-8a64-4c67a8ec4457",
    "types": [
      "singers",
      "2"
    ]
  }
}