{
  "header": {
    "description": "Karaoke Mugen Tag File",
    "version": 1
  },
  "tag": {
    "i18n": {
      "eng": "M.S.C"
    },
    "name": "M.S.C",
    "tid": "17618856-a57b-430f-b558-7b93311e1ef1",
    "types": [
      "creators",
      "4"
    ],
    "repository": "kara.moe",
    "modified_at": "2020-03-31T19:04:35.903Z"
  }
}