{
  "header": {
    "description": "Karaoke Mugen Tag File",
    "version": 1
  },
  "tag": {
    "i18n": {
      "eng": "M83"
    },
    "modified_at": "2020-08-25T15:20:22.396Z",
    "name": "M83",
    "repository": "kara.moe",
    "tid": "3e8e5502-7833-4c62-bd4d-c7dfec9e5b46",
    "types": [
      "songwriters",
      "8",
      "singers",
      "2"
    ]
  }
}