{
  "header": {
    "description": "Karaoke Mugen Tag File",
    "version": 1
  },
  "tag": {
    "i18n": {
      "eng": "ma-saya"
    },
    "name": "ma-saya",
    "tid": "2b9ae163-40ea-49ac-bc08-050a8a5aa330",
    "types": [
      "songwriters",
      "8"
    ],
    "repository": "kara.moe",
    "modified_at": "2020-03-31T19:04:35.905Z"
  }
}