{
  "header": {
    "description": "Karaoke Mugen Tag File",
    "version": 1
  },
  "tag": {
    "i18n": {
      "eng": "Mâ-san"
    },
    "name": "Mâ-san",
    "repository": "kara.moe",
    "tid": "bb80840d-449a-4de1-b864-fdebf6a778a2",
    "types": [
      "creators",
      "4"
    ]
  }
}