{
  "header": {
    "description": "Karaoke Mugen Tag File",
    "version": 1
  },
  "tag": {
    "i18n": {
      "eng": "Maakiizu"
    },
    "name": "Maakiizu",
    "tid": "0dd4d5a5-2b13-4384-b4b1-6203aceca582",
    "types": [
      "singers",
      "2"
    ],
    "repository": "kara.moe",
    "modified_at": "2020-03-31T19:04:35.905Z"
  }
}