{
  "header": {
    "description": "Karaoke Mugen Tag File",
    "version": 1
  },
  "tag": {
    "i18n": {
      "eng": "Maarten ten Hove"
    },
    "name": "Maarten ten Hove",
    "repository": "kara.moe",
    "tid": "35b05d79-6e84-4b3c-aa88-32093071d2e4",
    "types": [
      "songwriters",
      "8"
    ]
  }
}