{
  "header": {
    "description": "Karaoke Mugen Tag File",
    "version": 1
  },
  "tag": {
    "i18n": {
      "eng": "Maaya Uchida"
    },
    "name": "Maaya Uchida",
    "tid": "c4927d85-e42d-415b-9486-be693c8a8bfe",
    "types": [
      "singers",
      "2"
    ],
    "repository": "kara.moe",
    "modified_at": "2020-03-31T19:04:35.906Z"
  }
}