{
  "header": {
    "description": "Karaoke Mugen Tag File",
    "version": 1
  },
  "tag": {
    "i18n": {
      "eng": "MacGyver"
    },
    "modified_at": "2021-01-15T18:37:22.221Z",
    "name": "MacGyver",
    "repository": "kara.moe",
    "tid": "f1caa7c2-4734-4e53-b8da-9b7e7e6466ca",
    "types": [
      "series",
      "1"
    ]
  }
}