{
  "header": {
    "description": "Karaoke Mugen Tag File",
    "version": 1
  },
  "tag": {
    "i18n": {
      "eng": "Machiya"
    },
    "name": "Machiya",
    "tid": "eededecd-9ba0-43ce-9080-2d9b5f7ce002",
    "types": [
      "songwriters",
      "8"
    ],
    "repository": "kara.moe",
    "modified_at": "2020-03-31T19:04:35.909Z"
  }
}