{
  "header": {
    "description": "Karaoke Mugen Tag File",
    "version": 1
  },
  "tag": {
    "i18n": {
      "eng": "machina21"
    },
    "modified_at": "2021-07-04T19:01:17.067Z",
    "name": "machina21",
    "repository": "kara.moe",
    "tid": "2afe365e-3f42-41eb-86ab-ac580be6a6a0",
    "types": [
      "creators",
      "4"
    ]
  }
}