{
  "header": {
    "description": "Karaoke Mugen Tag File",
    "version": 1
  },
  "tag": {
    "aliases": [
      "Ken Falco",
      "Ken Falco il Superbolide",
      "Machine Peregrine"
    ],
    "external_database_ids": {
      "anilist": 10562,
      "myanimelist": 10562,
      "kitsu": 6241
    },
    "i18n": {
      "ara": "السيارة الخارقة هيابوزا",
      "eng": "Machine Hayabusa",
      "ita": "Falco il Superbolide",
      "jpn": "マシンハヤブサ",
      "qro": "Machine Hayabusa"
    },
    "modified_at": "2020-03-31T19:04:32.123Z",
    "name": "Machine Hayabusa",
    "repository": "kara.moe",
    "tid": "1d26ee51-70c8-421e-8694-ff1cd424f05b",
    "types": [
      "series",
      "1"
    ]
  }
}