{
  "header": {
    "description": "Karaoke Mugen Tag File",
    "version": 1
  },
  "tag": {
    "i18n": {
      "eng": "Machigerita-P"
    },
    "modified_at": "2021-05-24T14:44:25.998Z",
    "name": "Machigerita-P",
    "repository": "kara.moe",
    "tid": "9d61fc3e-35dd-4161-9cf9-5662a1133a70",
    "types": [
      "songwriters",
      "8"
    ]
  }
}