{
  "header": {
    "description": "Karaoke Mugen Tag File",
    "version": 1
  },
  "tag": {
    "i18n": {
      "eng": "Macklemore LLC"
    },
    "name": "Macklemore LLC",
    "repository": "kara.moe",
    "tid": "89dfe84f-4a5c-4b90-8404-5bad3d0a3d5b",
    "types": [
      "creators",
      "4"
    ]
  }
}