{
  "header": {
    "description": "Karaoke Mugen Tag File",
    "version": 1
  },
  "tag": {
    "aliases": [
      "Macross Seven",
      "m7",
      "m7 tv",
      "Макрос 7",
      "ماكروس 7"
    ],
    "external_database_ids": {
      "anilist": 1397,
      "myanimelist": 1397,
      "kitsu": 1250
    },
    "i18n": {
      "chi": "超时空要塞7",
      "eng": "Macross 7",
      "jpn": "マクロス7",
      "qro": "Macross 7"
    },
    "modified_at": "2020-03-31T19:04:32.124Z",
    "name": "Macross 7",
    "repository": "kara.moe",
    "tid": "6ffeba39-3d62-45f8-97d5-e25f81c61af1",
    "types": [
      "series",
      "1"
    ]
  }
}