{
  "header": {
    "description": "Karaoke Mugen Tag File",
    "version": 1
  },
  "tag": {
    "aliases": [
      "MP",
      "Macross +",
      "Macross Plus The Movie"
    ],
    "external_database_ids": {
      "anilist": 1211,
      "myanimelist": 1211,
      "kitsu": 1089
    },
    "i18n": {
      "eng": "Macross Plus Movie Edition",
      "jpn": "マクロスプラス MOVIE EDITION",
      "qro": "Macross Plus Movie Edition"
    },
    "modified_at": "2020-03-31T19:04:32.129Z",
    "name": "Macross Plus Movie Edition",
    "repository": "kara.moe",
    "tid": "fb132bc9-c4b8-43ac-a167-dd6743497012",
    "types": [
      "series",
      "1"
    ]
  }
}