{
  "header": {
    "description": "Karaoke Mugen Tag File",
    "version": 1
  },
  "tag": {
    "aliases": [
      "Macross Frontier",
      "Macross Frontier Music Clip Shuu: Nyankuri",
      "Nyankuri: Nyan x 2 Music Clip",
      "娘クリ Nyan×2 Music Clip",
      "shuu"
    ],
    "i18n": {
      "eng": "Macross F Music Clip Shû: Nyankuri",
      "jpn": "マクロスF MUSIC CLIP集 娘クリ",
      "qro": "Macross F Music Clip Shû: Nyankuri"
    },
    "modified_at": "2020-03-31T19:04:32.127Z",
    "name": "Macross F Music Clip Shû: Nyankuri",
    "repository": "kara.moe",
    "tid": "af0de105-8a59-4699-9ce3-3fe3a6f98a56",
    "types": [
      "series",
      "1"
    ]
  }
}