{
  "header": {
    "description": "Karaoke Mugen Tag File",
    "version": 1
  },
  "tag": {
    "aliases": [
      "Madan no Ou to Vanadis",
      "ou"
    ],
    "external_database_ids": {
      "anilist": 20809,
      "myanimelist": 24455,
      "kitsu": 8630
    },
    "i18n": {
      "eng": "Lord Marksman and Vanadis",
      "jpn": "魔弾の王と戦姫[ヴァナディース]",
      "qro": "Madan no Ô to Vanadis"
    },
    "modified_at": "2020-03-31T19:04:32.130Z",
    "name": "Madan no Ô to Vanadis",
    "repository": "kara.moe",
    "tid": "34476a14-ab83-4271-969c-6158f8c0328e",
    "types": [
      "series",
      "1"
    ]
  }
}