{
  "header": {
    "description": "Karaoke Mugen Tag File",
    "version": 1
  },
  "tag": {
    "i18n": {
      "eng": "Madara Ushi"
    },
    "name": "Madara Ushi",
    "repository": "kara.moe",
    "tid": "cc7c3410-2331-49b8-8a5f-a9cbe9de7b1b",
    "types": [
      "songwriters",
      "8"
    ]
  }
}