{
  "header": {
    "description": "Karaoke Mugen Tag File",
    "version": 1
  },
  "tag": {
    "i18n": {
      "eng": "Madeline Olsen"
    },
    "name": "Madeline Olsen",
    "repository": "kara.moe",
    "tid": "7307c28e-1365-44e8-8bcc-d77c425d1cf4",
    "types": [
      "singers",
      "2"
    ]
  }
}