{
  "header": {
    "description": "Karaoke Mugen Tag File",
    "version": 1
  },
  "tag": {
    "aliases": [
      "Made in Abyss: Retsujitsu no Ougonkyou",
      "MiA",
      "来自深渊 烈日的黄金乡",
      "來自深淵 烈日的黃金鄉",
      "Made in Abyss S2"
    ],
    "external_database_ids": {
      "anilist": 114745,
      "myanimelist": 41084,
      "kitsu": 42951
    },
    "i18n": {
      "eng": "Made in Abyss: The Golden City of the Scorching Sun",
      "fre": "Made in Abyss : La ville d’or incandescente",
      "ger": "Made in Abyss: Die Goldene Stadt der sengenden Sonne",
      "jpn": "メイドインアビス 烈日の黄金郷",
      "qro": "Made in Abyss: Retsujitsu no Ôgonkyô",
      "spa": "Made in Abyss: La ciudad dorada del sol abrasador"
    },
    "name": "Made in Abyss: Retsujitsu no Ôgonkyô",
    "repository": "kara.moe",
    "tid": "4e5f01e2-8ca4-4697-a57a-f4b498e435bf",
    "types": [
      "series",
      "1"
    ]
  }
}