{
  "header": {
    "description": "Karaoke Mugen Tag File",
    "version": 1
  },
  "tag": {
    "i18n": {
      "eng": "Mafuyu"
    },
    "modified_at": "2020-08-08T14:55:48.973Z",
    "name": "Mafuyu",
    "repository": "kara.moe",
    "tid": "eeb60124-87c1-4bde-8040-765476440140",
    "types": [
      "creators",
      "4"
    ]
  }
}