{
  "header": {
    "description": "Karaoke Mugen Tag File",
    "version": 1
  },
  "tag": {
    "aliases": [
      "Magi 2",
      "Маги - Кралство на магия",
      "ماجي: مملكة السحر"
    ],
    "external_database_ids": {
      "anilist": 18115,
      "myanimelist": 18115,
      "kitsu": 7696
    },
    "i18n": {
      "eng": "Magi 2: The Kingdom of Magic",
      "ger": "Magi 2: The Kingdom of Magic",
      "jpn": "マギ The kingdom of magic",
      "per": "ماگی : پادشاهی سحر و جادو",
      "qro": "Magi: The Kingdom of Magic"
    },
    "modified_at": "2020-03-31T19:04:32.133Z",
    "name": "Magi: The Kingdom of Magic",
    "repository": "kara.moe",
    "tid": "9e39e268-987f-4a0b-8cfe-bbf9727d048c",
    "types": [
      "series",
      "1"
    ]
  }
}