{
  "header": {
    "description": "Karaoke Mugen Tag File",
    "version": 1
  },
  "tag": {
    "aliases": [
      "MKR",
      "MKRE",
      "MKRTV",
      "Mahou Kishi Rayearth",
      "Una Porta Socchiusa ai Confini del Sole",
      "Рейърт и магическите рицари",
      "魔法骑士"
    ],
    "external_database_ids": {
      "anilist": 435,
      "myanimelist": 435,
      "kitsu": 399
    },
    "i18n": {
      "eng": "Magic Knight Rayearth",
      "fre": "Magic Knight RayEarth",
      "ita": "Magic Knight Rayearth",
      "jpn": "魔法騎士[マジックナイト]レイアース",
      "pol": "Wojowniczki z Krainy Marzeń",
      "por": "Guerreiras Mágicas de Rayearth",
      "spa": "Las Guerreras Mágicas",
      "tha": "เมจิคไนท์ เรย์เอิร์ธ",
      "qro": "Magic Knight Rayearth"
    },
    "modified_at": "2020-03-31T19:04:32.136Z",
    "name": "Magic Knight Rayearth",
    "repository": "kara.moe",
    "tid": "3c7df4e9-0b48-4cc0-b043-3dd1df5df063",
    "types": [
      "series",
      "1"
    ]
  }
}