{
  "header": {
    "description": "Karaoke Mugen Tag File",
    "version": 1
  },
  "tag": {
    "i18n": {
      "eng": "Magical Battle Arena",
      "jpn": "マジカルバトルアリーナ",
      "qro": "Magical Battle Arena"
    },
    "modified_at": "2020-03-31T19:04:32.136Z",
    "name": "Magical Battle Arena",
    "repository": "kara.moe",
    "tid": "a2b7754e-21d0-4dd9-9baf-3f8ed45afbd2",
    "types": [
      "series",
      "1"
    ]
  }
}