{
  "header": {
    "description": "Karaoke Mugen Tag File",
    "version": 1
  },
  "tag": {
    "aliases": [
      "MMMT",
      "MNNT",
      "Magical Nyan Nyan Tarte",
      "Mahou Shoujo Neko Tarte",
      "Mahou Shoujo Neko Taruto",
      "Магическая Девочка-Кошка Таруто"
    ],
    "external_database_ids": {
      "anilist": 952,
      "myanimelist": 952,
      "kitsu": 844
    },
    "i18n": {
      "eng": "Magical Meow Meow Taruto",
      "jpn": "魔法少女猫[まじかる にゃん にゃん]たると",
      "qro": "Magical Nyan Nyan Taruto"
    },
    "modified_at": "2020-06-21T23:45:31.966Z",
    "name": "Magical Nyan Nyan Taruto",
    "repository": "kara.moe",
    "tid": "c6699289-5809-422c-80ac-ef03df5a5b1a",
    "types": [
      "series",
      "1"
    ]
  }
}