{
  "header": {
    "description": "Karaoke Mugen Tag File",
    "version": 1
  },
  "tag": {
    "aliases": [
      "magi",
      "Маги",
      "Маги: Вълшебният лабиринт",
      "Маги: Магическият лабиринт",
      "ماجي: متاهة السحر",
      "ماگی: هزارتوی جادو"
    ],
    "external_database_ids": {
      "anilist": 14513,
      "myanimelist": 14513,
      "kitsu": 7129
    },
    "i18n": {
      "ara": "متاهة السحر",
      "eng": "Magi: The Labyrinth of Magic",
      "ger": "Magi: The Labyrinth of Magic",
      "jpn": "マギ The labyrinth of magic",
      "per": "علاءالدین و هزارتوی جادو",
      "qro": "Magi: The Labyrinth of Magic"
    },
    "modified_at": "2020-03-31T19:04:32.134Z",
    "name": "Magi: The Labyrinth of Magic",
    "repository": "kara.moe",
    "tid": "7db0c5fa-20d7-4b80-88f7-ac47ea8bb52d",
    "types": [
      "series",
      "1"
    ]
  }
}