{
  "header": {
    "description": "Karaoke Mugen Tag File",
    "version": 1
  },
  "tag": {
    "i18n": {
      "eng": "Magne Furuholmen"
    },
    "modified_at": "2020-06-01T15:24:33.371Z",
    "name": "Magne Furuholmen",
    "repository": "kara.moe",
    "tid": "932648ed-55f2-4fce-bca1-d1f34ca14821",
    "types": [
      "songwriters",
      "8"
    ]
  }
}