{
  "header": {
    "description": "Karaoke Mugen Tag File",
    "version": 1
  },
  "tag": {
    "aliases": [
      "MTK",
      "Mahoutsukai ni Taisetsu na Koto",
      "Mahoutsukai ni Taisetsu na Koto",
      "Somedays Dreamers",
      "Yume Mahou",
      "mtntnk",
      "mttk",
      "Важливе для чарівника",
      "Нечто важное для мага [ТВ-1]",
      "mahoutsukai"
    ],
    "external_database_ids": {
      "anilist": 273,
      "myanimelist": 273,
      "kitsu": 248
    },
    "i18n": {
      "ara": "حالمو في يوم ما",
      "chi": "魔法使的條件",
      "eng": "Someday's Dreamers",
      "fre": "Mahôtsukai ni Taisetsu na Koto",
      "jpn": "魔法遣いに大切なこと",
      "qro": "Mahôtsukai ni Taisetsu na Koto"
    },
    "modified_at": "2020-03-31T19:04:32.162Z",
    "name": "Mahôtsukai ni Taisetsu na Koto",
    "repository": "kara.moe",
    "tid": "5ed888d7-554a-4234-b805-0c6f33a5624f",
    "types": [
      "series",
      "1",
      "franchises",
      "18"
    ]
  }
}