{
  "header": {
    "description": "Karaoke Mugen Tag File",
    "version": 1
  },
  "tag": {
    "aliases": [
      "Mahouka Koukou no Yuutousei"
    ],
    "external_database_ids": {
      "anilist": 127688,
      "myanimelist": 45572,
      "kitsu": 43847
    },
    "i18n": {
      "eng": "The Honor at Magic High School",
      "jpn": "魔法科高校の優等生",
      "chi": "魔法科高中的優等生"
    },
    "modified_at": "2021-11-20T16:32:52.328Z",
    "name": "Mahôka Kôkô no Yûtôsei",
    "repository": "kara.moe",
    "tid": "56db7b68-ea0e-4bee-89a1-707ac80a2a6d",
    "types": [
      "series",
      "1"
    ]
  }
}