{
  "header": {
    "description": "Karaoke Mugen Tag File",
    "version": 1
  },
  "tag": {
    "aliases": [
      "Magical Stage Fancy Lala",
      "Mahou no Stage Fancy Lala",
      "fl",
      "mahou"
    ],
    "external_database_ids": {
      "anilist": 604,
      "myanimelist": 604,
      "kitsu": 559
    },
    "i18n": {
      "eng": "Magical Stage Fancy Lala",
      "jpn": "魔法のステージ ファンシーララ",
      "por": "Fancy Lala",
      "qro": "Mahô no Stage Fancy Lala"
    },
    "modified_at": "2020-06-21T23:45:31.966Z",
    "name": "Mahô no Stage Fancy Lala",
    "repository": "kara.moe",
    "tid": "d5f18da4-e74c-4e4d-a473-212c2c6969d9",
    "types": [
      "series",
      "1"
    ]
  }
}