{
  "header": {
    "description": "Karaoke Mugen Tag File",
    "version": 1
  },
  "tag": {
    "aliases": [
      "Maho Girls Precure!",
      "Mahou Tsukai PreCure!",
      "Mahoutsukai PreCure!",
      "Pretty Cure",
      "precure13",
      "mahoutsukai"
    ],
    "external_database_ids": {
      "anilist": 21506,
      "myanimelist": 31884,
      "kitsu": 11688
    },
    "i18n": {
      "eng": "Maho Girls PreCure!",
      "fre": "Mahô Tsukai PreCure!",
      "jpn": "魔法つかいプリキュア!",
      "qro": "Mahôtsukai PreCure!"
    },
    "modified_at": "2020-03-31T19:04:32.166Z",
    "name": "Mahôtsukai PreCure!",
    "repository": "kara.moe",
    "tid": "58225131-71da-4b4e-826b-1cc2ba1be746",
    "types": [
      "series",
      "1"
    ]
  }
}