{
  "header": {
    "description": "Karaoke Mugen Tag File",
    "version": 1
  },
  "tag": {
    "aliases": [
      "MM",
      "魔力女仆真幌"
    ],
    "external_database_ids": {
      "anilist": 276,
      "myanimelist": 276,
      "kitsu": 251
    },
    "i18n": {
      "eng": "Mahoromatic: Automatic Maiden",
      "fre": "Mahoromatic",
      "ger": "Mahoromatic: Automatic Maiden",
      "jpn": "まほろまてぃっく Automatic Maiden",
      "rus": "Махороматик: Автоматическая девушка",
      "qro": "Mahoromatic: Automatic Maiden"
    },
    "modified_at": "2020-06-21T23:45:31.966Z",
    "name": "Mahoromatic: Automatic Maiden",
    "repository": "kara.moe",
    "tid": "7a54c0fe-0ec2-4596-8923-fa6b92b10f00",
    "types": [
      "series",
      "1"
    ]
  }
}