{
  "header": {
    "description": "Karaoke Mugen Tag File",
    "version": 1
  },
  "tag": {
    "aliases": [
      "Garota Mágica Lírica Nanoha A's",
      "Mahou Shoujo Lyrical Nanoha A's",
      "mglna",
      "mslna",
      "na2",
      "nanoha2",
      "mahou",
      "shoujo"
    ],
    "external_database_ids": {
      "anilist": 77,
      "myanimelist": 77,
      "kitsu": 57
    },
    "i18n": {
      "chi": "魔法少女奈叶A's",
      "eng": "Magical Girl Lyrical Nanoha A's",
      "jpn": "魔法少女リリカルなのはA's",
      "tha": "สาวน้อยจอมเวทย์ นาโนฮะ A's",
      "qro": "Mahô Shôjo Lyrical Nanoha A's"
    },
    "modified_at": "2020-06-21T23:45:31.966Z",
    "name": "Mahô Shôjo Lyrical Nanoha A's",
    "repository": "kara.moe",
    "tid": "b5a5cd31-d170-4135-96ed-d668ece1857a",
    "types": [
      "series",
      "1"
    ]
  }
}