{
  "header": {
    "description": "Karaoke Mugen Tag File",
    "version": 1
  },
  "tag": {
    "aliases": [
      "MSMM",
      "Madoka",
      "Madoka Magica",
      "Magical Girl Madoka Magika",
      "Mahou Shoujo Madoka Magika",
      "Mahou Shoujo Madoka★Magica",
      "Meduka Meguca",
      "PMMM",
      "madomagi",
      "pmagi",
      "Волшебница Мадока Магика",
      "Дівчина-чарівниця Мадока Маґіка",
      "Чарівниця Мадока Магіка",
      "مدوکا مجیکا دختر جادویی",
      "まどマギ",
      "マドマギ",
      "小圆",
      "mahou",
      "shoujo",
      "madoka magica"
    ],
    "external_database_ids": {
      "anilist": 9756,
      "myanimelist": 9756,
      "kitsu": 5853
    },
    "i18n": {
      "chi": "魔法少女小圆",
      "eng": "Puella Magi Madoka★Magica",
      "fre": "Puella Magi Madoka★Magica",
      "ger": "Madoka Magica",
      "ita": "Madoka Magica",
      "jpn": "魔法少女まどか★マギカ PUELLA MAGI MADOKA MAGICA",
      "kor": "마법소녀 마도카 마기카",
      "spa": "Puella Magi Madoka★Magica",
      "tha": "สาวน้อยเวทมนตร์ มาโดกะ",
      "qro": "Mahô Shôjo Madoka★Magica"
    },
    "modified_at": "2020-03-31T19:04:32.154Z",
    "name": "Mahô Shôjo Madoka★Magica",
    "repository": "kara.moe",
    "tid": "c31a2b6a-96f5-4244-bce3-e04cd8b5c2ae",
    "types": [
      "series",
      "1",
      "franchises",
      "18"
    ]
  }
}