{
  "header": {
    "description": "Karaoke Mugen Tag File",
    "version": 1
  },
  "tag": {
    "aliases": [
      "Mahou Shoujo Ikusei Keikaku",
      "mahoiku",
      "mahou",
      "shoujo"
    ],
    "external_database_ids": {
      "anilist": 21340,
      "kitsu": 11363,
      "myanimelist": 33003
    },
    "i18n": {
      "eng": "Magical Girl Raising Project",
      "jpn": "魔法少女育成計画",
      "qro": "Mahô Shôjo Ikusei Keikaku"
    },
    "name": "Mahô Shôjo Ikusei Keikaku",
    "repository": "kara.moe",
    "tid": "2d6a3008-4ed8-42fd-ad7c-9f2b88c309a1",
    "types": [
      "series",
      "1",
      "franchises",
      "18"
    ]
  }
}