{
  "header": {
    "description": "Karaoke Mugen Tag File",
    "version": 1
  },
  "tag": {
    "aliases": [
      "Magic Teacher Negima",
      "Magister Negima",
      "Mahou Sensei Negima",
      "Mahou Sensei Negima!",
      "msn",
      "negi",
      "negima",
      "Волшебный учитель Нэгима!",
      "Магічний вчитель Неґіма!",
      "mahou"
    ],
    "external_database_ids": {
      "anilist": 157,
      "myanimelist": 157,
      "kitsu": 135
    },
    "i18n": {
      "chi": "魔法老師",
      "eng": "Negima!",
      "fre": "Le maître magicien Negima !",
      "ger": "Magister Negi Magi",
      "jpn": "魔法先生 ネギま!",
      "pol": "Magister Negi Magi",
      "tha": "คุณครูจอมเวท เนกิมะ!",
      "qro": "Mahô Sensei Negima!"
    },
    "modified_at": "2020-03-31T19:04:32.147Z",
    "name": "Mahô Sensei Negima!",
    "repository": "kara.moe",
    "tid": "286c4e7f-97f7-4f02-8fbb-124ecdfdb761",
    "types": [
      "series",
      "1"
    ]
  }
}