{
  "header": {
    "description": "Karaoke Mugen Tag File",
    "version": 1
  },
  "tag": {
    "i18n": {
      "eng": "Mahora Gakuen Chuutoubu 2-A"
    },
    "name": "Mahora Gakuen Chuutoubu 2-A",
    "tid": "8fe7b501-2229-4808-8611-44347b2ebd30",
    "types": [
      "singers",
      "2"
    ],
    "repository": "kara.moe",
    "modified_at": "2020-03-31T19:04:35.933Z"
  }
}