{
  "header": {
    "description": "Karaoke Mugen Tag File",
    "version": 1
  },
  "tag": {
    "aliases": [
      "Mahou Shoujo Sonico Magika",
      "Mahou Shoujo Sonico★Magica",
      "魔法少女そにこ☆マギカ",
      "mahou",
      "shoujo",
      "sonico magica"
    ],
    "external_database_ids": {
      "anilist": 10519,
      "myanimelist": 10519,
      "kitsu": 6218
    },
    "i18n": {
      "eng": "Puella Magi Sonico★Magica",
      "jpn": "魔法少女そにこ☆マギカ PUELLA MAGI SONICO MAGICA",
      "qro": "Mahô Shôjo Sonico★Magica"
    },
    "modified_at": "2020-03-31T19:04:32.157Z",
    "name": "Mahô Shôjo Sonico★Magica",
    "repository": "kara.moe",
    "tid": "99c26102-0431-49de-a3d1-7ea46d9a781f",
    "types": [
      "series",
      "1"
    ]
  }
}