{
  "header": {
    "description": "Karaoke Mugen Tag File",
    "version": 1
  },
  "tag": {
    "i18n": {
      "eng": "Mai Sugimori"
    },
    "name": "Mai Sugimori",
    "tid": "fdf90ebe-de36-4708-815a-363c60325ef7",
    "types": [
      "songwriters",
      "8"
    ],
    "repository": "kara.moe",
    "modified_at": "2020-03-31T19:04:35.945Z"
  }
}