{
  "header": {
    "description": "Karaoke Mugen Tag File",
    "version": 1
  },
  "tag": {
    "aliases": [
      "Mai Oto-Hime",
      "Mai Otome",
      "Mai ZHiME",
      "Mai-OtoHiME",
      "Mai-Z HiME",
      "My Otome",
      "My ZHiME",
      "otome",
      "Май-Отомэ",
      "ศึกอัญมณีสาวน้อยแห่งดวงดาว",
      "ไม-โอโตเมะ",
      "舞-乙HiME"
    ],
    "external_database_ids": {
      "anilist": 99,
      "myanimelist": 99,
      "kitsu": 78
    },
    "i18n": {
      "eng": "My-OTOME",
      "fre": "My-Otome",
      "jpn": "舞-乙HiME",
      "tha": "ไม-乙-HiME-โอโตเมะ ศึกอัญมณีสาวน้อยแห่งดวงดาว",
      "qro": "Mai-Otome"
    },
    "modified_at": "2020-03-31T19:04:32.167Z",
    "name": "Mai-Otome",
    "repository": "kara.moe",
    "tid": "16f1d226-4841-43f1-8fd9-da604b56df80",
    "types": [
      "series",
      "1"
    ]
  }
}