{
  "header": {
    "description": "Karaoke Mugen Tag File",
    "version": 1
  },
  "tag": {
    "aliases": [
      "MiH SS",
      "MiH SuperS",
      "천국의 메이드"
    ],
    "external_database_ids": {
      "anilist": 2188,
      "myanimelist": 2188,
      "kitsu": 1981
    },
    "i18n": {
      "eng": "Maid in Heaven",
      "fre": "MAID iN HEAVEN SuperS : Comme le désire Monsieur !",
      "jpn": "MAID iN HEAVEN SuperS",
      "qro": "MAID iN HEAVEN SuperS"
    },
    "modified_at": "2020-12-30T14:00:48.447Z",
    "name": "MAID iN HEAVEN SuperS",
    "repository": "kara.moe",
    "tid": "51c235ce-2d35-43e9-ba87-d26c127a663a",
    "types": [
      "series",
      "1"
    ]
  }
}