{
  "header": {
    "description": "Karaoke Mugen Tag File",
    "version": 1
  },
  "tag": {
    "i18n": {
      "eng": "Maiko Hashimoto"
    },
    "name": "Maiko Hashimoto",
    "tid": "57f02d19-8e18-4fca-b0d7-62c16ffac90b",
    "types": [
      "singers",
      "2"
    ],
    "repository": "kara.moe",
    "modified_at": "2020-03-31T19:04:35.951Z"
  }
}