{
  "header": {
    "description": "Karaoke Mugen Tag File",
    "version": 1
  },
  "tag": {
    "i18n": {
      "eng": "Maiko of M.Y"
    },
    "modified_at": "2021-08-23T20:26:37.740Z",
    "name": "Maiko of M.Y",
    "repository": "kara.moe",
    "tid": "2cb85c42-8df9-4373-94c6-50528c5fcba1",
    "types": [
      "songwriters",
      "8"
    ]
  }
}