{
  "header": {
    "description": "Karaoke Mugen Tag File",
    "version": 1
  },
  "tag": {
    "i18n": {
      "eng": "maimie"
    },
    "name": "maimie",
    "tid": "5aa49c49-23f3-4ce8-b56a-2b1ac7ec69aa",
    "types": [
      "songwriters",
      "8"
    ],
    "repository": "kara.moe",
    "modified_at": "2020-03-31T19:04:35.952Z"
  }
}