{
  "header": {
    "description": "Karaoke Mugen Tag File",
    "version": 1
  },
  "tag": {
    "i18n": {
      "eng": "Main Kushita"
    },
    "name": "Main Kushita",
    "repository": "kara.moe",
    "tid": "6012157c-f65c-4e69-a57f-0da948905c83",
    "types": [
      "songwriters",
      "8"
    ]
  }
}