{
  "header": {
    "description": "Karaoke Mugen Tag File",
    "version": 1
  },
  "tag": {
    "i18n": {
      "eng": "Mainstream"
    },
    "name": "Mainstream",
    "tid": "6fffd8fd-2174-4448-9628-f64f2acbad4c",
    "types": [
      "singers",
      "2"
    ],
    "repository": "kara.moe",
    "modified_at": "2020-03-31T19:04:35.954Z"
  }
}