{
  "header": {
    "description": "Karaoke Mugen Tag File",
    "version": 1
  },
  "tag": {
    "aliases": [
      "Fall in Love with Me for Real!!",
      "MajiKoi",
      "Majikoi",
      "まじこい",
      "真剣恋",
      "請認真的和我戀愛!!"
    ],
    "external_database_ids": {
      "anilist": 10213,
      "myanimelist": 10213,
      "kitsu": 6081
    },
    "i18n": {
      "eng": "Majikoi: Oh! Samurai Girls!",
      "jpn": "真剣で私に恋しなさい!!",
      "qro": "Maji de Watashi ni Koi Shinasai!!"
    },
    "modified_at": "2020-03-31T19:04:32.171Z",
    "name": "Maji de Watashi ni Koi Shinasai!!",
    "repository": "kara.moe",
    "tid": "5168b630-c08d-4a43-92fc-f4c8068007d0",
    "types": [
      "series",
      "1"
    ]
  }
}