{
  "header": {
    "description": "Karaoke Mugen Tag File",
    "version": 1
  },
  "tag": {
    "aliases": [
      "Major 6th Season",
      "major6",
      "Мейжър С6",
      "メジャー 第6シリーズ"
    ],
    "external_database_ids": {
      "anilist": 7655,
      "myanimelist": 7655,
      "kitsu": 5070
    },
    "i18n": {
      "eng": "Major (6th serie)",
      "jpn": "メジャー　（第6シリーズ)",
      "qro": "Major (2010)"
    },
    "modified_at": "2020-03-31T19:04:32.177Z",
    "name": "Major (2010)",
    "repository": "kara.moe",
    "tid": "88a1b265-12c0-4c12-b8b6-d7a8d118ad9e",
    "types": [
      "series",
      "1"
    ]
  }
}