{
  "header": {
    "description": "Karaoke Mugen Tag File",
    "version": 1
  },
  "tag": {
    "aliases": [
      "Lo stregone Orphen",
      "Sorcerer Stabber Orphen",
      "Sorcerous Stabber Orphen",
      "Öksüz Büyücü"
    ],
    "external_database_ids": {
      "anilist": 1017,
      "myanimelist": 1017,
      "kitsu": 907
    },
    "i18n": {
      "cat": "Orphen, el bruixot",
      "eng": "Sorcerous Stabber Orphen",
      "fre": "Orphen le sorcier noir",
      "gre": "Ορφέας",
      "ita": "Orphen lo stregone",
      "jpn": "魔術士オーフェン",
      "por": "Orphen",
      "spa": "Orphen",
      "qro": "Majutsushi Orphen"
    },
    "modified_at": "2020-03-31T19:04:32.181Z",
    "name": "Majutsushi Orphen",
    "repository": "kara.moe",
    "tid": "46e84f5c-c567-4086-923a-72d54309516f",
    "types": [
      "series",
      "1",
      "franchises",
      "18"
    ]
  }
}