{
  "header": {
    "description": "Karaoke Mugen Tag File",
    "version": 1
  },
  "tag": {
    "i18n": {
      "eng": "Disgaea 4: A Promise Unforgotten",
      "jpn": "魔界戦記ディスガイア4",
      "qro": "Makai Senki Disgaea 4"
    },
    "modified_at": "2020-03-31T19:04:32.182Z",
    "name": "Makai Senki Disgaea 4",
    "repository": "kara.moe",
    "tid": "3107f947-d7ef-4e1f-9734-086f25d8b153",
    "types": [
      "series",
      "1"
    ]
  }
}