{
  "header": {
    "description": "Karaoke Mugen Tag File",
    "version": 1
  },
  "tag": {
    "i18n": {
      "eng": "Trillion : God of Destruction",
      "jpn": "魔壊神トリリオン",
      "qro": "Makai Shin Trillion"
    },
    "modified_at": "2020-03-31T19:04:32.185Z",
    "name": "Makai Shin Trillion",
    "repository": "kara.moe",
    "tid": "97c5da5b-d236-4718-9fde-e2d2ffa4ac2f",
    "types": [
      "series",
      "1"
    ]
  }
}