{
  "header": {
    "description": "Karaoke Mugen Tag File",
    "version": 1
  },
  "tag": {
    "description": {
      "eng": "Djibril The Devil Angel is an eroge visual novel series created by Frontwing composed of the classic entries and one spinoff, titled MegaChu. Each of the entries have also spawned trimmed down erotic OVA release."
    },
    "i18n": {
      "eng": "Djibril: The Devil Angel",
      "jpn": "魔界天使ジブリール 1",
      "qro": "Makai Tenshi Djibril 1",
      "kor": "마계천사 지브릴 1"
    },
    "name": "Makai Tenshi Djibril 1",
    "repository": "kara.moe",
    "tid": "bd0121ec-f8e1-4d58-b396-82e9384006ff",
    "types": [
      "series",
      "1"
    ]
  }
}