{
  "header": {
    "description": "Karaoke Mugen Tag File",
    "version": 1
  },
  "tag": {
    "aliases": [
      "Jiburiru: Second Coming"
    ],
    "i18n": {
      "eng": "Djibril: The Devil Angel 2",
      "jpn": "魔界天使ジブリール 2",
      "qro": "Makai Tenshi Djibril 2",
      "kor": "마계천사 지브릴 2"
    },
    "name": "Makai Tenshi Djibril 2",
    "repository": "kara.moe",
    "tid": "6813d875-7771-47e3-a6a6-d2fdb5bd2e5d",
    "types": [
      "series",
      "1"
    ]
  }
}