{
  "header": {
    "description": "Karaoke Mugen Tag File",
    "version": 1
  },
  "tag": {
    "i18n": {
      "eng": "Makino Mako"
    },
    "modified_at": "1982-04-06",
    "name": "Makino Mako",
    "repository": "kara.moe",
    "tid": "8ac8891b-d924-4a90-87dc-739be931c17d",
    "types": [
      "singers",
      "2"
    ]
  }
}