{
  "header": {
    "description": "Karaoke Mugen Tag File",
    "version": 1
  },
  "tag": {
    "i18n": {
      "eng": "Maki Chihara"
    },
    "name": "Maki Chihara",
    "tid": "a54dd126-ec7f-4043-83e1-978fa4c833c0",
    "types": [
      "songwriters",
      "8"
    ],
    "repository": "kara.moe",
    "modified_at": "2020-03-31T19:04:35.957Z"
  }
}