{
  "header": {
    "description": "Karaoke Mugen Tag File",
    "version": 1
  },
  "tag": {
    "i18n": {
      "eng": "Makino Mizuta"
    },
    "name": "Makino Mizuta",
    "tid": "8b404ea5-5641-43aa-a93c-571178a26d47",
    "types": [
      "singers",
      "2"
    ],
    "repository": "kara.moe",
    "modified_at": "2020-03-31T19:04:35.967Z"
  }
}