{
  "header": {
    "description": "Karaoke Mugen Tag File",
    "version": 1
  },
  "tag": {
    "i18n": {
      "eng": "Makoto Yamashita"
    },
    "name": "Makoto Yamashita",
    "repository": "kara.moe",
    "tid": "a24f04d7-4802-4faa-b5c1-37f924996885",
    "types": [
      "songwriters",
      "8"
    ]
  }
}