{
  "header": {
    "description": "Karaoke Mugen Tag File",
    "version": 1
  },
  "tag": {
    "i18n": {
      "eng": "Mako Yamaguchi"
    },
    "name": "Mako Yamaguchi",
    "repository": "kara.moe",
    "tid": "b479da70-760a-4ef0-aecd-6a40c0dd5346",
    "types": [
      "singers",
      "2"
    ]
  }
}