{
  "header": {
    "description": "Karaoke Mugen Tag File",
    "version": 1
  },
  "tag": {
    "i18n": {
      "eng": "Makoto Nishikawa"
    },
    "name": "Makoto Nishikawa",
    "tid": "a24947aa-6b31-41fd-bb61-5205daa252da",
    "types": [
      "songwriters",
      "8"
    ],
    "repository": "kara.moe",
    "modified_at": "2020-03-31T19:04:35.974Z"
  }
}