{
  "header": {
    "description": "Karaoke Mugen Tag File",
    "version": 1
  },
  "tag": {
    "aliases": [
      "makoto-ONP"
    ],
    "i18n": {
      "eng": "Makoto Iriyama"
    },
    "name": "Makoto Iriyama",
    "repository": "kara.moe",
    "tid": "a335a297-2460-4f94-8b0a-86c349bc9f51",
    "types": [
      "songwriters",
      "8"
    ]
  }
}