{
  "header": {
    "description": "Karaoke Mugen Tag File",
    "version": 1
  },
  "tag": {
    "i18n": {
      "eng": "Makoto"
    },
    "name": "Makoto",
    "tid": "231f8e04-ce5a-4f83-81c2-acffee51cc59",
    "types": [
      "songwriters",
      "8"
    ],
    "repository": "kara.moe",
    "modified_at": "2020-03-31T19:04:35.978Z"
  }
}