{
  "header": {
    "description": "Karaoke Mugen Tag File",
    "version": 1
  },
  "tag": {
    "i18n": {
      "eng": "Makoto Yasumura"
    },
    "name": "Makoto Yasumura",
    "tid": "a66006aa-8b62-4a6c-b028-facded681990",
    "types": [
      "singers",
      "2"
    ],
    "repository": "kara.moe",
    "modified_at": "2020-03-31T19:04:35.978Z"
  }
}