{
  "header": {
    "description": "Karaoke Mugen Tag File",
    "version": 1
  },
  "tag": {
    "i18n": {
      "eng": "Malcolm McLaren"
    },
    "name": "Malcolm McLaren",
    "repository": "kara.moe",
    "tid": "53a38f6f-8a07-426c-9591-f6be81332e3f",
    "types": [
      "songwriters",
      "8"
    ]
  }
}