{
  "header": {
    "description": "Karaoke Mugen Tag File",
    "version": 1
  },
  "tag": {
    "i18n": {
      "eng": "Mamemi"
    },
    "name": "Mamemi",
    "repository": "kara.moe",
    "tid": "65e147c0-6c5b-4dda-aa4f-cf8c50418bde",
    "types": [
      "singers",
      "2"
    ]
  }
}