{
  "header": {
    "description": "Karaoke Mugen Tag File",
    "version": 1
  },
  "tag": {
    "i18n": {
      "eng": "Mamiko"
    },
    "name": "Mamiko",
    "tid": "5105394f-87f5-48ba-a19b-d0796458bbb0",
    "types": [
      "songwriters",
      "8"
    ],
    "repository": "kara.moe",
    "modified_at": "2020-03-31T19:04:35.992Z"
  }
}