{
  "header": {
    "description": "Karaoke Mugen Tag File",
    "version": 1
  },
  "tag": {
    "i18n": {
      "eng": "Mami Deguchi"
    },
    "name": "Mami Deguchi",
    "repository": "kara.moe",
    "tid": "750971cf-54bb-4a5f-8fc3-5b3785be3b86",
    "types": [
      "singers",
      "2"
    ]
  }
}