{
  "header": {
    "description": "Karaoke Mugen Tag File",
    "version": 1
  },
  "tag": {
    "i18n": {
      "eng": "Mami Takubo"
    },
    "name": "Mami Takubo",
    "tid": "d87eb36e-5746-443a-b9dc-e016a1256add",
    "types": [
      "songwriters",
      "8"
    ],
    "repository": "kara.moe",
    "modified_at": "2020-03-31T19:04:35.989Z"
  }
}