{
  "header": {
    "description": "Karaoke Mugen Tag File",
    "version": 1
  },
  "tag": {
    "i18n": {
      "eng": "Mami Koyama"
    },
    "name": "Mami Koyama",
    "repository": "kara.moe",
    "tid": "1340542e-ce4f-4f3d-ba42-411313d6c0ba",
    "types": [
      "singers",
      "2"
    ],
    "modified_at": "2020-03-31T19:04:35.987Z"
  }
}