{
  "header": {
    "description": "Karaoke Mugen Tag File",
    "version": 1
  },
  "tag": {
    "i18n": {
      "eng": "Mamoru Miyano"
    },
    "name": "Mamoru Miyano",
    "tid": "7ef605c3-a982-4b3e-ae9f-33d59bf35e85",
    "types": [
      "singers",
      "2",
      "songwriters",
      "8"
    ],
    "repository": "kara.moe",
    "modified_at": "2020-03-31T19:04:35.994Z"
  }
}