{
  "header": {
    "description": "Karaoke Mugen Tag File",
    "version": 1
  },
  "tag": {
    "i18n": {
      "eng": "Mamoru Tanôe"
    },
    "name": "Mamoru Tanôe",
    "tid": "adfedefd-a4a7-4b6d-b05b-dcaacf5c74b4",
    "types": [
      "songwriters",
      "8"
    ],
    "repository": "kara.moe",
    "modified_at": "2020-03-31T19:04:35.995Z"
  }
}