{
  "header": {
    "description": "Karaoke Mugen Tag File",
    "version": 1
  },
  "tag": {
    "i18n": {
      "eng": "Mamoru Sasaki"
    },
    "name": "Mamoru Sasaki",
    "tid": "1c30f3f4-899e-420c-9627-6541980699a7",
    "types": [
      "songwriters",
      "8"
    ],
    "repository": "kara.moe",
    "modified_at": "2020-03-31T19:04:35.995Z"
  }
}