{
  "header": {
    "description": "Karaoke Mugen Tag File",
    "version": 1
  },
  "tag": {
    "i18n": {
      "eng": "Mamoru Asada"
    },
    "name": "Mamoru Asada",
    "tid": "ad8758e2-add0-416e-b57b-a3bdac61b1d3",
    "types": [
      "singers",
      "2"
    ],
    "repository": "kara.moe",
    "modified_at": "2020-03-31T19:04:35.993Z"
  }
}