{
  "header": {
    "description": "Karaoke Mugen Tag File",
    "version": 1
  },
  "tag": {
    "i18n": {
      "eng": "MAMS"
    },
    "name": "MAMS",
    "repository": "kara.moe",
    "tid": "2c65f5ed-ca45-4677-b81b-59d7cf0e9153",
    "types": [
      "songwriters",
      "8"
    ]
  }
}