{
  "header": {
    "description": "Karaoke Mugen Tag File",
    "version": 1
  },
  "tag": {
    "i18n": {
      "eng": "Manami Tanaka"
    },
    "name": "Manami Tanaka",
    "tid": "476ee42d-b199-4a83-bf98-6b7d2b74608d",
    "types": [
      "singers",
      "2"
    ],
    "repository": "kara.moe",
    "modified_at": "2020-03-31T19:04:36.005Z"
  }
}