{
  "header": {
    "description": "Karaoke Mugen Tag File",
    "version": 1
  },
  "tag": {
    "i18n": {
      "eng": "Mana Ashida"
    },
    "name": "Mana Ashida",
    "tid": "adda2d46-759e-454a-ad10-b468f04daa89",
    "types": [
      "singers",
      "2"
    ],
    "repository": "kara.moe",
    "modified_at": "2020-03-31T19:04:35.997Z"
  }
}