{
  "header": {
    "description": "Karaoke Mugen Tag File",
    "version": 1
  },
  "tag": {
    "i18n": {
      "eng": "Manami"
    },
    "name": "Manami",
    "tid": "b23a79d8-7d13-4250-b3c9-bc334ee22578",
    "types": [
      "songwriters",
      "8"
    ],
    "repository": "kara.moe",
    "modified_at": "2020-03-31T19:04:36.006Z"
  }
}