{
  "header": {
    "description": "Karaoke Mugen Tag File",
    "version": 1
  },
  "tag": {
    "i18n": {
      "eng": "Manami Watanabe"
    },
    "name": "Manami Watanabe",
    "tid": "27eaa384-0590-4cca-9d9a-70882025c7e3",
    "types": [
      "songwriters",
      "8"
    ],
    "repository": "kara.moe",
    "modified_at": "2020-03-31T19:04:36.006Z"
  }
}