{
  "header": {
    "description": "Karaoke Mugen Tag File",
    "version": 1
  },
  "tag": {
    "i18n": {
      "eng": "Manaka Suzuki"
    },
    "name": "Manaka Suzuki",
    "repository": "kara.moe",
    "tid": "5405b648-17c3-427b-9f7f-391712ab1140",
    "types": [
      "songwriters",
      "8"
    ]
  }
}