{
  "header": {
    "description": "Karaoke Mugen Tag File",
    "version": 1
  },
  "tag": {
    "i18n": {
      "eng": "Manatsu Murakami"
    },
    "name": "Manatsu Murakami",
    "repository": "kara.moe",
    "tid": "9f569139-7a33-4e20-8bc9-bb365dd3d853",
    "types": [
      "singers",
      "2"
    ]
  }
}