{
  "header": {
    "description": "Karaoke Mugen Tag File",
    "version": 1
  },
  "tag": {
    "i18n": {
      "eng": "Manau"
    },
    "modified_at": "2020-05-23T21:36:56.645Z",
    "name": "Manau",
    "repository": "kara.moe",
    "tid": "59c10b98-b711-474a-a291-ce3e3c488297",
    "types": [
      "creators",
      "4",
      "singers",
      "2"
    ]
  }
}