{
  "header": {
    "description": "Karaoke Mugen Tag File",
    "version": 1
  },
  "tag": {
    "i18n": {
      "eng": "Mana Komatsu"
    },
    "name": "Mana Komatsu",
    "tid": "640f6edc-450c-458a-a6ed-210f8924f4bc",
    "types": [
      "singers",
      "2"
    ],
    "repository": "kara.moe",
    "modified_at": "2020-03-31T19:04:35.998Z"
  }
}