{
  "header": {
    "description": "Karaoke Mugen Tag File",
    "version": 1
  },
  "tag": {
    "i18n": {
      "eng": "Måneskin"
    },
    "name": "Måneskin",
    "repository": "kara.moe",
    "tid": "ea459541-8d0f-4cf5-8b02-73a76b8fe2a8",
    "types": [
      "singergroups",
      "17"
    ]
  }
}