{
  "header": {
    "description": "Karaoke Mugen Tag File",
    "version": 1
  },
  "tag": {
    "i18n": {
      "eng": "manglobe"
    },
    "name": "manglobe",
    "tid": "345edf8e-218e-47e7-ba1a-a15a623da4c5",
    "types": [
      "creators",
      "4"
    ],
    "repository": "kara.moe",
    "modified_at": "2020-03-31T19:04:36.008Z"
  }
}