{
  "header": {
    "description": "Karaoke Mugen Tag File",
    "version": 1
  },
  "tag": {
    "i18n": {
      "eng": "Manör Sevan"
    },
    "modified_at": "2020-06-01T16:27:09.858Z",
    "name": "Manör Sevan",
    "repository": "kara.moe",
    "tid": "87955698-6cd2-420c-bf28-398869323592",
    "types": [
      "songwriters",
      "8"
    ]
  }
}