{
  "header": {
    "description": "Karaoke Mugen Tag File",
    "version": 1
  },
  "tag": {
    "i18n": {
      "eng": "Manos"
    },
    "name": "Manos",
    "repository": "kara.moe",
    "tid": "4c9681c5-a3ca-493b-9bf2-8bd594c5bb15",
    "types": [
      "authors",
      "6"
    ]
  }
}