{
  "header": {
    "description": "Karaoke Mugen Tag File",
    "version": 1
  },
  "tag": {
    "i18n": {
      "eng": "Måns Zelmerlöw"
    },
    "name": "Måns Zelmerlöw",
    "repository": "kara.moe",
    "tid": "0c41c537-54d6-4177-8808-564be5108fd9",
    "types": [
      "singers",
      "2"
    ]
  }
}