{
  "header": {
    "description": "Karaoke Mugen Tag File",
    "version": 1
  },
  "tag": {
    "i18n": {
      "eng": "Manura Nagun"
    },
    "name": "Manura Nagun",
    "repository": "kara.moe",
    "tid": "a2802e01-6a4c-4da7-bf76-5bebebf34729",
    "types": [
      "songwriters",
      "8"
    ]
  }
}