{
  "header": {
    "description": "Karaoke Mugen Tag File",
    "version": 1
  },
  "tag": {
    "i18n": {
      "eng": "Manu Chao"
    },
    "modified_at": "2020-08-17T12:13:06.815Z",
    "name": "Manu Chao",
    "repository": "kara.moe",
    "tid": "b540a54a-373b-447c-97e0-e675638488a4",
    "types": [
      "songwriters",
      "8",
      "singers",
      "2"
    ]
  }
}