{
  "header": {
    "description": "Karaoke Mugen Tag File",
    "version": 1
  },
  "tag": {
    "i18n": {
      "eng": "Mao Enokidu"
    },
    "name": "Mao Enokidu",
    "tid": "ce3400c7-d310-4030-a7c4-1457e5dad368",
    "types": [
      "singers",
      "2"
    ],
    "repository": "kara.moe",
    "modified_at": "2020-03-31T19:04:36.019Z"
  }
}