{
  "header": {
    "description": "Karaoke Mugen Tag File",
    "version": 1
  },
  "tag": {
    "aliases": [
      "Love Story of Cat Spirit"
    ],
    "external_database_ids": {
      "anilist": 110249,
      "myanimelist": 39767,
      "kitsu": 42556
    },
    "i18n": {
      "eng": "Māo Yāo De Yòuhuò",
      "chi": "猫妖的诱惑"
    },
    "modified_at": "2021-03-11T19:02:52.503Z",
    "name": "Māo Yāo De Yòuhuò",
    "repository": "kara.moe",
    "tid": "dae7bd70-930f-4287-8730-4d3a8379f68b",
    "types": [
      "series",
      "1"
    ]
  }
}