{
  "header": {
    "description": "Karaoke Mugen Tag File",
    "version": 1
  },
  "tag": {
    "i18n": {
      "eng": "Mao Komiya",
      "jpn": "小宮真央",
      "qro": "Mao Komiya"
    },
    "name": "Mao Komiya",
    "repository": "kara.moe",
    "tid": "1ff22179-35b8-406b-a7f0-37496bcf6897",
    "types": [
      "songwriters",
      "8",
      "singers",
      "2"
    ]
  }
}