{
  "header": {
    "description": "Karaoke Mugen Tag File",
    "version": 1
  },
  "tag": {
    "i18n": {
      "eng": "Mao Yamamoto"
    },
    "name": "Mao Yamamoto",
    "repository": "kara.moe",
    "tid": "80f858d0-7947-4dc5-a723-7b446644d1c9",
    "types": [
      "songwriters",
      "8"
    ]
  }
}