{
  "header": {
    "description": "Karaoke Mugen Tag File",
    "version": 1
  },
  "tag": {
    "i18n": {
      "eng": "Mao Sumida"
    },
    "name": "Mao Sumida",
    "tid": "e0a2b181-aa93-4a1a-8b2e-769d2b65bace",
    "types": [
      "songwriters",
      "8"
    ],
    "repository": "kara.moe",
    "modified_at": "2020-03-31T19:04:36.020Z"
  }
}