{
  "header": {
    "description": "Karaoke Mugen Tag File",
    "version": 1
  },
  "tag": {
    "i18n": {
      "eng": "Mao Sasagawa"
    },
    "modified_at": "2021-09-22T13:40:16.919Z",
    "name": "Mao Sasagawa",
    "repository": "kara.moe",
    "tid": "19aa03db-4aa2-4e6f-9293-ae0e9526d272",
    "types": [
      "songwriters",
      "8"
    ]
  }
}