{
  "header": {
    "description": "Karaoke Mugen Tag File",
    "version": 1
  },
  "tag": {
    "i18n": {
      "eng": "Maon Kuge"
    },
    "name": "Maon Kuge",
    "repository": "kara.moe",
    "tid": "7478eb40-cc1f-4995-bcf2-a9577c4c6a4e",
    "types": [
      "songwriters",
      "8"
    ]
  }
}