{
  "header": {
    "description": "Karaoke Mugen Tag File",
    "version": 1
  },
  "tag": {
    "i18n": {
      "eng": "maoto"
    },
    "modified_at": "2021-06-15T22:03:31.815Z",
    "name": "maoto",
    "repository": "kara.moe",
    "tid": "9f4c3c07-ea6a-44de-b75f-735d2276f0a4",
    "types": [
      "singers",
      "2"
    ]
  }
}