{
  "header": {
    "description": "Karaoke Mugen Tag File",
    "version": 1
  },
  "tag": {
    "i18n": {
      "eng": "Maoto Yumeno"
    },
    "name": "Maoto Yumeno",
    "tid": "358d1772-e33a-4032-b3e6-0f7d5780b825",
    "types": [
      "songwriters",
      "8"
    ],
    "repository": "kara.moe",
    "modified_at": "2020-03-31T19:04:36.025Z"
  }
}