{
  "header": {
    "description": "Karaoke Mugen Tag File",
    "version": 1
  },
  "tag": {
    "aliases": [
      "History's Strongest Demon King Reincarnates and Goes to School with His Descendants",
      "Maou Gakuin no Futekigousha: Shijou Saikyou no Maou no Shiso, Tensei Shite Shison-tachi no Gakkou e Kayou",
      "futekigousha",
      "shijou",
      "saikyou",
      "maou",
      "gakkou",
      "kayou"
    ],
    "external_database_ids": {
      "anilist": 112301,
      "myanimelist": 40496,
      "kitsu": 43005
    },
    "i18n": {
      "eng": "The Misfit of Demon King Academy",
      "jpn": "魔王学院の不適合者 ~史上最強の魔王の始祖, 転生して子孫たちの学校へ通う~",
      "chi": "魔王學院的不適任者～史上最強的魔王始祖，轉生就讀子孫們的學校～",
      "qro": "Maô Gakuin no Futekigôsha ~ Shijô Saikyô no Maô no Shiso, Tensei Shite Shison-tachi no Gakkô e Kayô ~"
    },
    "modified_at": "2020-08-24T13:31:17.928Z",
    "name": "Maô Gakuin no Futekigôsha ~ Shijô Saikyô no Maô no Shiso, Tensei Shite Shison-tachi no Gakkô e Kayô ~",
    "repository": "kara.moe",
    "tid": "2866b284-64e4-4c97-9abb-bdf918425b5a",
    "types": [
      "series",
      "1"
    ]
  }
}