{
  "header": {
    "description": "Karaoke Mugen Tag File",
    "version": 1
  },
  "tag": {
    "i18n": {
      "eng": "MAPPA"
    },
    "name": "MAPPA",
    "tid": "0a86e9ea-5e17-4371-8f2a-60c818324d58",
    "types": [
      "creators",
      "4"
    ],
    "repository": "kara.moe",
    "modified_at": "2020-03-31T19:04:36.026Z"
  }
}