{
  "header": {
    "description": "Karaoke Mugen Tag File",
    "version": 1
  },
  "tag": {
    "aliases": [
      "Maps (1994)"
    ],
    "external_database_ids": {
      "anilist": 1620,
      "myanimelist": 1620,
      "kitsu": 1455
    },
    "i18n": {
      "fre": "Maps",
      "ita": "Maps: La leggenda dell'uragano di luce",
      "jpn": "マップス",
      "qro": "MAPS"
    },
    "modified_at": "2020-03-31T19:04:32.192Z",
    "name": "MAPS",
    "repository": "kara.moe",
    "tid": "21bca6ab-f50e-4647-ac93-7f66266ed2b2",
    "types": [
      "series",
      "1"
    ]
  }
}