{
  "header": {
    "description": "Karaoke Mugen Tag File",
    "version": 1
  },
  "tag": {
    "aliases": [
      "Marasy8"
    ],
    "i18n": {
      "eng": "Marasy",
      "jpn": "まらしぃ",
      "qro": "Marasy"
    },
    "name": "Marasy",
    "tid": "4477b8b2-6456-46ee-85a8-3f84d9b8bb9d",
    "types": [
      "songwriters",
      "8"
    ],
    "repository": "kara.moe",
    "modified_at": "2020-03-31T19:04:36.027Z"
  }
}