{
  "header": {
    "description": "Karaoke Mugen Tag File",
    "version": 1
  },
  "tag": {
    "i18n": {
      "eng": "Marc Pascal"
    },
    "name": "Marc Pascal",
    "tid": "b940f73a-ef23-49d9-ad30-d8f67f0b0a73",
    "types": [
      "singers",
      "2"
    ],
    "repository": "kara.moe",
    "modified_at": "2020-03-31T19:04:36.029Z"
  }
}