{
  "header": {
    "description": "Karaoke Mugen Tag File",
    "version": 1
  },
  "tag": {
    "i18n": {
      "eng": "Marcin Przybyłowicz"
    },
    "name": "Marcin Przybyłowicz",
    "tid": "2d05955c-5d23-4af9-9cfd-70716058bcdd",
    "types": [
      "songwriters",
      "8"
    ],
    "repository": "kara.moe",
    "modified_at": "2020-03-31T19:04:36.030Z"
  }
}