{
  "header": {
    "description": "Karaoke Mugen Tag File",
    "version": 1
  },
  "tag": {
    "i18n": {
      "eng": "Marc Lavoine"
    },
    "name": "Marc Lavoine",
    "repository": "kara.moe",
    "tid": "645058d8-6c8c-438c-a23c-7f27211682b3",
    "types": [
      "songwriters",
      "8",
      "singers",
      "2"
    ]
  }
}