{
  "header": {
    "description": "Karaoke Mugen Tag File",
    "version": 1
  },
  "tag": {
    "i18n": {
      "eng": "MARETU"
    },
    "modified_at": "2021-09-01T21:26:25.174Z",
    "name": "MARETU",
    "repository": "kara.moe",
    "tid": "d1f6cfc6-444a-4d7f-b216-42f60bec7c61",
    "types": [
      "songwriters",
      "8",
      "creators",
      "4"
    ]
  }
}