{
  "header": {
    "description": "Karaoke Mugen Tag File",
    "version": 1
  },
  "tag": {
    "i18n": {
      "eng": "marhy"
    },
    "name": "marhy",
    "tid": "dff138a6-d1b8-44e7-bf86-a425cbd61660",
    "types": [
      "songwriters",
      "8"
    ],
    "repository": "kara.moe",
    "modified_at": "2020-03-31T19:04:36.031Z"
  }
}