{
  "header": {
    "description": "Karaoke Mugen Tag File",
    "version": 1
  },
  "tag": {
    "i18n": {
      "eng": "Mari Kikuma"
    },
    "name": "Mari Kikuma",
    "tid": "e48541ad-4b25-4b42-93a3-9d2570390ba8",
    "types": [
      "singers",
      "2"
    ],
    "repository": "kara.moe",
    "modified_at": "2020-03-31T19:04:36.034Z"
  }
}