{
  "header": {
    "description": "Karaoke Mugen Tag File",
    "version": 1
  },
  "tag": {
    "i18n": {
      "eng": "Mariko Uranishi"
    },
    "name": "Mariko Uranishi",
    "tid": "38a219af-00c9-48d0-922c-9b2d7c8e68c6",
    "types": [
      "singers",
      "2"
    ],
    "repository": "kara.moe",
    "modified_at": "2020-03-31T19:04:36.059Z"
  }
}