{
  "header": {
    "description": "Karaoke Mugen Tag File",
    "version": 1
  },
  "tag": {
    "i18n": {
      "eng": "Mariko Sakou"
    },
    "name": "Mariko Sakou",
    "tid": "1290970d-e52d-4aa3-abfe-023944c115ea",
    "types": [
      "singers",
      "2"
    ],
    "repository": "kara.moe",
    "modified_at": "2020-03-31T19:04:36.058Z"
  }
}