{
  "header": {
    "description": "Karaoke Mugen Tag File",
    "version": 1
  },
  "tag": {
    "i18n": {
      "eng": "Mari Hayama"
    },
    "name": "Mari Hayama",
    "tid": "6bb79348-d066-42b5-a8c4-0277e0185286",
    "types": [
      "songwriters",
      "8"
    ],
    "repository": "kara.moe",
    "modified_at": "2020-03-31T19:04:36.032Z"
  }
}