{
  "header": {
    "description": "Karaoke Mugen Tag File",
    "version": 1
  },
  "tag": {
    "i18n": {
      "eng": "Mari Adachi"
    },
    "modified_at": "2021-02-27T20:07:14.189Z",
    "name": "Mari Adachi",
    "repository": "kara.moe",
    "tid": "64bc988e-3603-4588-9bb9-b4dea861f7d1",
    "types": [
      "singers",
      "2"
    ]
  }
}