{
  "header": {
    "description": "Karaoke Mugen Tag File",
    "version": 1
  },
  "tag": {
    "i18n": {
      "eng": "MARiA (GARNiDELiA)"
    },
    "modified_at": "2020-06-01T01:26:16.332Z",
    "name": "MARiA (GARNiDELiA)",
    "repository": "kara.moe",
    "tid": "796c4009-51ee-49a9-8947-d6cb242a9aad",
    "types": [
      "songwriters",
      "8",
      "singers",
      "2"
    ]
  }
}