{
  "header": {
    "description": "Karaoke Mugen Tag File",
    "version": 1
  },
  "tag": {
    "i18n": {
      "eng": "Marichans"
    },
    "name": "Marichans",
    "repository": "kara.moe",
    "tid": "0de5cf61-f59a-4dff-b9a3-70019d22ac9f",
    "types": [
      "songwriters",
      "8"
    ]
  }
}