{
  "header": {
    "description": "Karaoke Mugen Tag File",
    "version": 1
  },
  "tag": {
    "i18n": {
      "eng": "MARiA"
    },
    "name": "MARiA",
    "tid": "ed6fe920-206d-409c-a7ca-4242da7e5ecc",
    "types": [
      "songwriters",
      "8"
    ],
    "repository": "kara.moe",
    "modified_at": "2020-03-31T19:04:36.043Z"
  }
}