{
  "header": {
    "description": "Karaoke Mugen Tag File",
    "version": 1
  },
  "tag": {
    "i18n": {
      "eng": "Marina Fujiwara"
    },
    "name": "Marina Fujiwara",
    "tid": "6fe38308-6d6f-47c9-948e-89a185c03917",
    "types": [
      "singers",
      "2"
    ],
    "repository": "kara.moe",
    "modified_at": "2020-03-31T19:04:36.063Z"
  }
}