{
  "header": {
    "description": "Karaoke Mugen Tag File",
    "version": 1
  },
  "tag": {
    "i18n": {
      "fre": "Marie-Annick Lépine"
    },
    "name": "Marie-Annick Lépine",
    "repository": "kara.moe",
    "tid": "f9c08abf-5c5c-4454-9ed2-d3347eeb7ad0",
    "types": [
      "songwriters",
      "8"
    ]
  }
}