{
  "header": {
    "description": "Karaoke Mugen Tag File",
    "version": 1
  },
  "tag": {
    "aliases": [
      "Maria+Holic",
      "Maria†Holic",
      "m+h",
      "Мария Холик",
      "Марія†Голік",
      "まりあ・ほりっく",
      "玛利亚狂热"
    ],
    "external_database_ids": {
      "anilist": 5030,
      "myanimelist": 5030,
      "kitsu": 3893
    },
    "i18n": {
      "eng": "Maria†Holic",
      "jpn": "まりあ†ほりっく",
      "tha": "มาเรีย†โฮลิค",
      "qro": "Maria Holic"
    },
    "modified_at": "2020-03-31T19:04:32.195Z",
    "name": "Maria Holic",
    "repository": "kara.moe",
    "tid": "3af3f10e-2b89-4c4e-bcc3-d2e41becce0d",
    "types": [
      "series",
      "1",
      "franchises",
      "18"
    ]
  }
}