{
  "header": {
    "description": "Karaoke Mugen Tag File",
    "version": 1
  },
  "tag": {
    "i18n": {
      "eng": "Mari Konishi"
    },
    "name": "Mari Konishi",
    "tid": "15757530-f124-4af2-9289-edff39a38660",
    "types": [
      "songwriters",
      "8"
    ],
    "repository": "kara.moe",
    "modified_at": "2020-03-31T19:04:36.034Z"
  }
}