{
  "header": {
    "description": "Karaoke Mugen Tag File",
    "version": 1
  },
  "tag": {
    "i18n": {
      "eng": "Mariko Honda"
    },
    "name": "Mariko Honda",
    "tid": "e2daa417-6c90-4d99-9344-cb59f5cbef02",
    "types": [
      "singers",
      "2"
    ],
    "repository": "kara.moe",
    "modified_at": "2020-03-31T19:04:36.055Z"
  }
}