{
  "header": {
    "description": "Karaoke Mugen Tag File",
    "version": 1
  },
  "tag": {
    "i18n": {
      "eng": "Marie Mercier"
    },
    "name": "Marie Mercier",
    "tid": "9d7137c6-8c8f-417b-b58e-4fc2359a3e02",
    "types": [
      "singers",
      "2"
    ],
    "repository": "kara.moe",
    "modified_at": "2020-03-31T19:04:36.048Z"
  }
}