{
  "header": {
    "description": "Karaoke Mugen Tag File",
    "version": 1
  },
  "tag": {
    "i18n": {
      "eng": "Mari Yaguchi"
    },
    "name": "Mari Yaguchi",
    "tid": "81ebdf36-c8cc-40a9-b569-7467e771321e",
    "types": [
      "singers",
      "2"
    ],
    "repository": "kara.moe",
    "modified_at": "2020-03-31T19:04:36.037Z"
  }
}