{
  "header": {
    "description": "Karaoke Mugen Tag File",
    "version": 1
  },
  "tag": {
    "i18n": {
      "eng": "Mariah Carey"
    },
    "name": "Mariah Carey",
    "repository": "kara.moe",
    "tid": "a746fb0f-f272-4d00-8c89-93d0ac5556b0",
    "types": [
      "singers",
      "2"
    ]
  }
}