{
  "header": {
    "description": "Karaoke Mugen Tag File",
    "version": 1
  },
  "tag": {
    "i18n": {
      "eng": "Marie Lanzafame"
    },
    "name": "Marie Lanzafame",
    "tid": "b5e9cbe7-f67e-4f21-a4e3-18a85494aefe",
    "types": [
      "singers",
      "2"
    ],
    "repository": "kara.moe",
    "modified_at": "2020-03-31T19:04:36.046Z"
  }
}