{
  "header": {
    "description": "Karaoke Mugen Tag File",
    "version": 1
  },
  "tag": {
    "i18n": {
      "eng": "maRIONnetTe"
    },
    "name": "maRIONnetTe",
    "tid": "713c4e8f-143a-44f9-8a2a-e8adec374523",
    "types": [
      "singers",
      "2"
    ],
    "repository": "kara.moe",
    "modified_at": "2020-03-31T19:04:36.067Z"
  }
}