{
  "header": {
    "description": "Karaoke Mugen Tag File",
    "version": 1
  },
  "tag": {
    "i18n": {
      "eng": "Mariko Takahashi"
    },
    "name": "Mariko Takahashi",
    "repository": "kara.moe",
    "tid": "34da18a7-357e-4daa-ac6d-cfc6b86fc9bd",
    "types": [
      "singers",
      "2"
    ]
  }
}