{
  "header": {
    "description": "Karaoke Mugen Tag File",
    "version": 1
  },
  "tag": {
    "i18n": {
      "eng": "Marily"
    },
    "modified_at": "2020-05-24T00:06:51.445Z",
    "name": "Marily",
    "repository": "kara.moe",
    "tid": "1bb31c93-8235-44c0-be81-784a74b461bf",
    "types": [
      "singers",
      "2"
    ]
  }
}