{
  "header": {
    "description": "Karaoke Mugen Tag File",
    "version": 1
  },
  "tag": {
    "i18n": {
      "eng": "Mari Iijima"
    },
    "name": "Mari Iijima",
    "tid": "10fb6933-2ae4-4082-b8ff-ea1ad7429cf5",
    "types": [
      "singers",
      "2"
    ],
    "repository": "kara.moe",
    "modified_at": "2020-03-31T19:04:36.033Z"
  }
}