{
  "header": {
    "description": "Karaoke Mugen Tag File",
    "version": 1
  },
  "tag": {
    "i18n": {
      "jpn": "中津 真莉子",
      "qro": "Mariko Nakatsu"
    },
    "name": "Mariko Nakatsu",
    "repository": "kara.moe",
    "tid": "4b0419c3-1883-4868-bc3e-8aaa585b9f9c",
    "types": [
      "singers",
      "2"
    ]
  }
}