{
  "header": {
    "description": "Karaoke Mugen Tag File",
    "version": 1
  },
  "tag": {
    "i18n": {
      "eng": "Marilou"
    },
    "name": "Marilou",
    "repository": "kara.moe",
    "tid": "fc72d996-a61b-47b9-8f71-0e3295f58b4b",
    "types": [
      "singers",
      "2"
    ]
  }
}