{
  "header": {
    "description": "Karaoke Mugen Tag File",
    "version": 1
  },
  "tag": {
    "i18n": {
      "eng": "Mariko Gotô"
    },
    "name": "Mariko Gotô",
    "tid": "6efc7ca4-5a4e-40f3-91a0-62e8cd902b10",
    "types": [
      "singers",
      "2",
      "songwriters",
      "8"
    ],
    "repository": "kara.moe",
    "modified_at": "2020-03-31T19:04:36.054Z"
  }
}