{
  "header": {
    "description": "Karaoke Mugen Tag File",
    "version": 1
  },
  "tag": {
    "i18n": {
      "eng": "Mariya Bondarenko"
    },
    "name": "Mariya Bondarenko",
    "tid": "635d7a89-746d-4103-9c03-493864cc1798",
    "types": [
      "singers",
      "2"
    ],
    "repository": "kara.moe",
    "modified_at": "2020-03-31T19:04:36.067Z"
  }
}