{
  "header": {
    "description": "Karaoke Mugen Tag File",
    "version": 1
  },
  "tag": {
    "i18n": {
      "eng": "Maria Tanijiri"
    },
    "name": "Maria Tanijiri",
    "tid": "4d56757c-6c27-4700-984e-80beff252154",
    "types": [
      "singers",
      "2"
    ],
    "repository": "kara.moe",
    "modified_at": "2020-03-31T19:04:36.041Z"
  }
}