{
  "header": {
    "description": "Karaoke Mugen Tag File",
    "version": 1
  },
  "tag": {
    "i18n": {
      "eng": "Mariko Fukui"
    },
    "name": "Mariko Fukui",
    "tid": "2d68dbcb-ae2a-4a9a-b85a-527e7125c3ee",
    "types": [
      "singers",
      "2"
    ],
    "repository": "kara.moe",
    "modified_at": "2020-03-31T19:04:36.054Z"
  }
}