{
  "header": {
    "description": "Karaoke Mugen Tag File",
    "version": 1
  },
  "tag": {
    "i18n": {
      "eng": "Mariya Takeuchi"
    },
    "name": "Mariya Takeuchi",
    "repository": "kara.moe",
    "tid": "fcfd94c5-10a5-427d-ab61-ef27b79742f3",
    "types": [
      "singers",
      "2",
      "songwriters",
      "8"
    ]
  }
}