{
  "header": {
    "description": "Karaoke Mugen Tag File",
    "version": 1
  },
  "tag": {
    "i18n": {
      "eng": "Marina del ray"
    },
    "name": "Marina del ray",
    "tid": "5a2d1c05-3180-4f2d-8dde-e364128f4961",
    "types": [
      "singers",
      "2"
    ],
    "repository": "kara.moe",
    "modified_at": "2020-03-31T19:04:36.062Z"
  }
}