{
  "header": {
    "description": "Karaoke Mugen Tag File",
    "version": 1
  },
  "tag": {
    "i18n": {
      "eng": "Mark Mueller"
    },
    "name": "Mark Mueller",
    "tid": "317bd3d1-b19c-437a-ba69-b1468e08f580",
    "types": [
      "songwriters",
      "8"
    ],
    "repository": "kara.moe",
    "modified_at": "2020-03-31T19:04:36.072Z"
  }
}