{
  "header": {
    "description": "Karaoke Mugen Tag File",
    "version": 1
  },
  "tag": {
    "i18n": {
      "eng": "Mark Williams"
    },
    "name": "Mark Williams",
    "repository": "kara.moe",
    "tid": "8f9fada5-79d0-4fe1-add4-c86884f78968",
    "types": [
      "songwriters",
      "8"
    ]
  }
}