{
  "header": {
    "description": "Karaoke Mugen Tag File",
    "version": 1
  },
  "tag": {
    "i18n": {
      "eng": "Mark and John"
    },
    "name": "Mark and John",
    "tid": "90f91b16-9c48-44d4-a27c-0f02c707d010",
    "types": [
      "songwriters",
      "8"
    ],
    "repository": "kara.moe",
    "modified_at": "2020-03-31T19:04:36.070Z"
  }
}