{
  "header": {
    "description": "Karaoke Mugen Tag File",
    "version": 1
  },
  "tag": {
    "i18n": {
      "eng": "Mark Hamill"
    },
    "modified_at": "2020-10-30T00:11:51.262Z",
    "name": "Mark Hamill",
    "repository": "kara.moe",
    "tid": "a1f23ccc-1e13-46dc-adec-1af058044fbb",
    "types": [
      "singers",
      "2"
    ]
  }
}