{
  "header": {
    "description": "Karaoke Mugen Tag File",
    "version": 1
  },
  "tag": {
    "i18n": {
      "eng": "Mars Radio Station"
    },
    "name": "Mars Radio Station",
    "repository": "kara.moe",
    "tid": "1463ed0a-bf9b-418b-9ead-116c9cc16022",
    "types": [
      "songwriters",
      "8"
    ]
  }
}