{
  "header": {
    "description": "Karaoke Mugen Tag File",
    "version": 1
  },
  "tag": {
    "i18n": {
      "eng": "Martial Tricoche"
    },
    "modified_at": "2020-05-23T21:36:56.652Z",
    "name": "Martial Tricoche",
    "repository": "kara.moe",
    "tid": "e7bbbe7e-57f2-4a7a-91e7-1b1d9905d966",
    "types": [
      "songwriters",
      "8"
    ]
  }
}