{
  "header": {
    "description": "Karaoke Mugen Tag File",
    "version": 1
  },
  "tag": {
    "i18n": {
      "eng": "Martin L. Gore"
    },
    "modified_at": "2020-08-15T19:46:00.735Z",
    "name": "Martin L. Gore",
    "repository": "kara.moe",
    "tid": "1c32dc78-370d-4549-aa46-6c25cd5320a7",
    "types": [
      "songwriters",
      "8"
    ]
  }
}