{
  "header": {
    "description": "Karaoke Mugen Tag File",
    "version": 1
  },
  "tag": {
    "i18n": {
      "eng": "Martin Hirthe"
    },
    "modified_at": "2021-12-04T22:16:25.706Z",
    "name": "Martin Hirthe",
    "repository": "kara.moe",
    "tid": "cc748221-5635-4c9e-b153-5cfdfb8ae1b6",
    "types": [
      "singers",
      "2"
    ]
  }
}