{
  "header": {
    "description": "Karaoke Mugen Tag File",
    "version": 1
  },
  "tag": {
    "i18n": {
      "eng": "Marty Robbins"
    },
    "modified_at": "2021-04-09T10:40:25.348Z",
    "name": "Marty Robbins",
    "repository": "kara.moe",
    "tid": "66e2c340-1d0a-438f-a3e6-4d5cf3c30d59",
    "types": [
      "songwriters",
      "8"
    ]
  }
}