{
  "header": {
    "description": "Karaoke Mugen Tag File",
    "version": 1
  },
  "tag": {
    "i18n": {
      "eng": "Marti Mix"
    },
    "modified_at": "2020-07-03T14:29:32.771Z",
    "name": "Marti Mix",
    "repository": "kara.moe",
    "tid": "2965bb9c-778d-4961-acd4-3f4b4cc6b866",
    "types": [
      "songwriters",
      "8"
    ]
  }
}