{
  "header": {
    "description": "Karaoke Mugen Tag File",
    "version": 1
  },
  "tag": {
    "i18n": {
      "eng": "Marvelous"
    },
    "name": "Marvelous",
    "tid": "17464ee5-cbb1-425f-855a-f1002962b421",
    "types": [
      "creators",
      "4"
    ],
    "repository": "kara.moe",
    "modified_at": "2020-03-31T19:04:36.082Z"
  }
}