{
  "header": {
    "description": "Karaoke Mugen Tag File",
    "version": 1
  },
  "tag": {
    "i18n": {
      "eng": "Mary Poppins",
      "fre": "Mary Poppins"
    },
    "modified_at": "2020-03-31T19:04:32.197Z",
    "name": "Mary Poppins",
    "repository": "kara.moe",
    "tid": "702a8372-5625-4d3b-86bf-c2d061382bef",
    "types": [
      "series",
      "1"
    ]
  }
}