{
  "header": {
    "description": "Karaoke Mugen Tag File",
    "version": 1
  },
  "tag": {
    "i18n": {
      "eng": "Masafumi Takada"
    },
    "name": "Masafumi Takada",
    "tid": "2ce6c6c2-0df8-4a5f-b798-9c0086984114",
    "types": [
      "songwriters",
      "8"
    ],
    "repository": "kara.moe",
    "modified_at": "2020-03-31T19:04:36.093Z"
  }
}