{
  "header": {
    "description": "Karaoke Mugen Tag File",
    "version": 1
  },
  "tag": {
    "i18n": {
      "eng": "Masatoshi Nishikawa"
    },
    "name": "Masatoshi Nishikawa",
    "tid": "e1944f7f-245b-4514-b307-f997366f46b4",
    "types": [
      "songwriters",
      "8"
    ],
    "repository": "kara.moe",
    "modified_at": "2020-03-31T19:04:36.148Z"
  }
}