{
  "header": {
    "description": "Karaoke Mugen Tag File",
    "version": 1
  },
  "tag": {
    "i18n": {
      "eng": "Masayuki Nakano"
    },
    "name": "Masayuki Nakano",
    "tid": "2692b52e-7629-466b-999f-3ace4f410c15",
    "types": [
      "songwriters",
      "8"
    ],
    "repository": "kara.moe",
    "modified_at": "2020-03-31T19:04:36.161Z"
  }
}