{
  "header": {
    "description": "Karaoke Mugen Tag File",
    "version": 1
  },
  "tag": {
    "i18n": {
      "eng": "Masami Itô"
    },
    "name": "Masami Itô",
    "repository": "kara.moe",
    "tid": "d953c6b0-680d-4e3b-9ab5-3cf0015de91b",
    "types": [
      "singers",
      "2"
    ]
  }
}