{
  "header": {
    "description": "Karaoke Mugen Tag File",
    "version": 1
  },
  "tag": {
    "i18n": {
      "eng": "Masafumi Akikawa"
    },
    "name": "Masafumi Akikawa",
    "repository": "kara.moe",
    "tid": "ea9f3697-49d0-4919-9570-e9d8dae322dd",
    "types": [
      "singers",
      "2"
    ]
  }
}