{
  "header": {
    "description": "Karaoke Mugen Tag File",
    "version": 1
  },
  "tag": {
    "i18n": {
      "eng": "Masaki Takanashi"
    },
    "name": "Masaki Takanashi",
    "tid": "c9830aac-5b63-41e8-9227-62820be9db30",
    "types": [
      "singers",
      "2"
    ],
    "repository": "kara.moe",
    "modified_at": "2020-03-31T19:04:36.112Z"
  }
}