{
  "header": {
    "description": "Karaoke Mugen Tag File",
    "version": 1
  },
  "tag": {
    "i18n": {
      "eng": "Masami Yûki"
    },
    "name": "Masami Yûki",
    "tid": "60350bf3-fabd-4e04-beba-59b4f5d5906d",
    "types": [
      "songwriters",
      "8"
    ],
    "repository": "kara.moe",
    "modified_at": "2020-03-31T19:04:36.119Z"
  }
}