{
  "header": {
    "description": "Karaoke Mugen Tag File",
    "version": 1
  },
  "tag": {
    "i18n": {
      "eng": "Masataka Nakagauchi"
    },
    "modified_at": "2020-09-03T21:00:40.324Z",
    "name": "Masataka Nakagauchi",
    "repository": "kara.moe",
    "tid": "5ad2c616-fbf3-48b3-8757-f8bff7500045",
    "types": [
      "singers",
      "2"
    ]
  }
}