{
  "header": {
    "description": "Karaoke Mugen Tag File",
    "version": 1
  },
  "tag": {
    "i18n": {
      "eng": "Masayuki Tanaka"
    },
    "name": "Masayuki Tanaka",
    "tid": "15678d9a-f95b-4cb6-9196-5d5d26c321c0",
    "types": [
      "songwriters",
      "8",
      "singers",
      "2"
    ],
    "repository": "kara.moe",
    "modified_at": "2020-03-31T19:04:36.164Z"
  }
}