{
  "header": {
    "description": "Karaoke Mugen Tag File",
    "version": 1
  },
  "tag": {
    "i18n": {
      "eng": "Masaaki Fujioka"
    },
    "name": "Masaaki Fujioka",
    "repository": "kara.moe",
    "tid": "41ba353d-3119-4bc1-81e6-0cc0d2bf1c45",
    "types": [
      "songwriters",
      "8",
      "singers",
      "2"
    ],
    "modified_at": "2020-03-31T19:04:36.086Z"
  }
}