{
  "header": {
    "description": "Karaoke Mugen Tag File",
    "version": 1
  },
  "tag": {
    "i18n": {
      "eng": "Masanori Ikeda"
    },
    "name": "Masanori Ikeda",
    "tid": "e1f698bd-05d5-49dc-9ad5-230436552c47",
    "types": [
      "singers",
      "2"
    ],
    "repository": "kara.moe",
    "modified_at": "2020-03-31T19:04:36.123Z"
  }
}