{
  "header": {
    "description": "Karaoke Mugen Tag File",
    "version": 1
  },
  "tag": {
    "i18n": {
      "eng": "Masahiro Koizumi"
    },
    "name": "Masahiro Koizumi",
    "tid": "c4623648-dc53-4e49-bcc6-37d4d1881058",
    "types": [
      "songwriters",
      "8"
    ],
    "repository": "kara.moe",
    "modified_at": "2020-03-31T19:04:36.100Z"
  }
}