{
  "header": {
    "description": "Karaoke Mugen Tag File",
    "version": 1
  },
  "tag": {
    "i18n": {
      "eng": "Masaki Tsuzuki"
    },
    "name": "Masaki Tsuzuki",
    "tid": "2f9f8490-efb6-4851-9e2c-c0148a59c58d",
    "types": [
      "songwriters",
      "8"
    ],
    "repository": "kara.moe",
    "modified_at": "2020-03-31T19:04:36.113Z"
  }
}