{
  "header": {
    "description": "Karaoke Mugen Tag File",
    "version": 1
  },
  "tag": {
    "i18n": {
      "eng": "Masaru Yokoyama"
    },
    "name": "Masaru Yokoyama",
    "tid": "da571c49-7397-4ed6-aec2-9db087bb9f12",
    "types": [
      "songwriters",
      "8"
    ],
    "repository": "kara.moe",
    "modified_at": "2020-03-31T19:04:36.132Z"
  }
}