{
  "header": {
    "description": "Karaoke Mugen Tag File",
    "version": 1
  },
  "tag": {
    "i18n": {
      "eng": "Masahisa Urushihara"
    },
    "name": "Masahisa Urushihara",
    "tid": "68cba595-8dfe-4316-aa5e-d770094c2bfd",
    "types": [
      "songwriters",
      "8"
    ],
    "repository": "kara.moe",
    "modified_at": "2020-03-31T19:04:36.104Z"
  }
}