{
  "header": {
    "description": "Karaoke Mugen Tag File",
    "version": 1
  },
  "tag": {
    "i18n": {
      "eng": "Masamoto Oota"
    },
    "modified_at": "2021-07-16T13:06:57.648Z",
    "name": "Masamoto Oota",
    "repository": "kara.moe",
    "tid": "a39e2ad3-e408-4e75-915f-47ce2823461c",
    "types": [
      "songwriters",
      "8"
    ]
  }
}