{
  "header": {
    "description": "Karaoke Mugen Tag File",
    "version": 1
  },
  "tag": {
    "i18n": {
      "eng": "Masahide Sakuma"
    },
    "name": "Masahide Sakuma",
    "tid": "cfc0a906-f053-46f0-8614-4ca259aea454",
    "types": [
      "songwriters",
      "8"
    ],
    "repository": "kara.moe",
    "modified_at": "2020-03-31T19:04:36.094Z"
  }
}