{
  "header": {
    "description": "Karaoke Mugen Tag File",
    "version": 1
  },
  "tag": {
    "i18n": {
      "eng": "Masayoshi Ooishi"
    },
    "name": "Masayoshi Ooishi",
    "tid": "b531ddea-8318-4347-a511-cda312bf5182",
    "types": [
      "singers",
      "2",
      "songwriters",
      "8"
    ],
    "repository": "kara.moe",
    "modified_at": "2020-03-31T19:04:36.157Z"
  }
}