{
  "header": {
    "description": "Karaoke Mugen Tag File",
    "version": 1
  },
  "tag": {
    "i18n": {
      "eng": "Masataka Kitaura"
    },
    "name": "Masataka Kitaura",
    "tid": "97cbc37b-2410-40ad-98b9-8872524b87db",
    "types": [
      "songwriters",
      "8"
    ],
    "repository": "kara.moe",
    "modified_at": "2020-03-31T19:04:36.135Z"
  }
}