{
  "header": {
    "description": "Karaoke Mugen Tag File",
    "version": 1
  },
  "tag": {
    "i18n": {
      "eng": "Masahiro Yokotani"
    },
    "name": "Masahiro Yokotani",
    "tid": "7c40f7dc-4756-4fb6-b55e-fe154004dd15",
    "types": [
      "songwriters",
      "8"
    ],
    "repository": "kara.moe",
    "modified_at": "2020-03-31T19:04:36.103Z"
  }
}