{
  "header": {
    "description": "Karaoke Mugen Tag File",
    "version": 1
  },
  "tag": {
    "i18n": {
      "qro": "Masahiro Ikumi",
      "jpn": "幾見 雅博"
    },
    "name": "Masahiro Ikumi",
    "repository": "kara.moe",
    "tid": "46375399-47da-42d7-890a-ca8dfeb889ac",
    "types": [
      "songwriters",
      "8"
    ]
  }
}