{
  "header": {
    "description": "Karaoke Mugen Tag File",
    "version": 1
  },
  "tag": {
    "i18n": {
      "eng": "Masaaki Saito"
    },
    "modified_at": "2021-12-07T21:40:56.870Z",
    "name": "Masaaki Saito",
    "repository": "kara.moe",
    "tid": "a5f56f5c-a959-448e-9bba-a68dd837c9d6",
    "types": [
      "songwriters",
      "8"
    ]
  }
}