{
  "header": {
    "description": "Karaoke Mugen Tag File",
    "version": 1
  },
  "tag": {
    "i18n": {
      "eng": "Masahiro Mizoguchi"
    },
    "name": "Masahiro Mizoguchi",
    "repository": "kara.moe",
    "tid": "cebaf646-96c2-4a94-89c1-42f659488d0b",
    "types": [
      "songwriters",
      "8"
    ],
    "modified_at": "2020-03-31T19:04:36.101Z"
  }
}