{
  "header": {
    "description": "Karaoke Mugen Tag File",
    "version": 1
  },
  "tag": {
    "i18n": {
      "eng": "Masaya Wada"
    },
    "modified_at": "2021-08-13T20:15:59.687Z",
    "name": "Masaya Wada",
    "repository": "kara.moe",
    "tid": "78ba579f-fafd-4c93-b126-c9af1b8b9b05",
    "types": [
      "singers",
      "2"
    ]
  }
}