{
  "header": {
    "description": "Karaoke Mugen Tag File",
    "version": 1
  },
  "tag": {
    "i18n": {
      "eng": "Masatoshi Ono"
    },
    "name": "Masatoshi Ono",
    "tid": "d112d144-47dc-47b9-9bf3-9b0425dbb59c",
    "types": [
      "singers",
      "2"
    ],
    "repository": "kara.moe",
    "modified_at": "2020-03-31T19:04:36.150Z"
  }
}