{
  "header": {
    "description": "Karaoke Mugen Tag File",
    "version": 1
  },
  "tag": {
    "i18n": {
      "eng": "Masatomo Oota"
    },
    "name": "Masatomo Oota",
    "repository": "kara.moe",
    "tid": "7130ac6c-9583-4922-8ddb-dd6b5d9f694c",
    "types": [
      "songwriters",
      "8"
    ]
  }
}