{
  "header": {
    "description": "Karaoke Mugen Tag File",
    "version": 1
  },
  "tag": {
    "i18n": {
      "eng": "Masahiko Oka"
    },
    "name": "Masahiko Oka",
    "tid": "f53af7ef-a7e9-41cb-b67c-c6bd02f5063c",
    "types": [
      "singers",
      "2"
    ],
    "repository": "kara.moe",
    "modified_at": "2020-03-31T19:04:36.097Z"
  }
}