{
  "header": {
    "description": "Karaoke Mugen Tag File",
    "version": 1
  },
  "tag": {
    "i18n": {
      "eng": "MASH"
    },
    "modified_at": "2021-03-13T16:50:14.173Z",
    "name": "MASH",
    "repository": "kara.moe",
    "tid": "edb4d1ea-74cb-480d-a224-11fc29eded3d",
    "types": [
      "songwriters",
      "8"
    ]
  }
}