{
  "header": {
    "description": "Karaoke Mugen Tag File",
    "version": 1
  },
  "tag": {
    "i18n": {
      "eng": "mashed"
    },
    "name": "mashed",
    "repository": "kara.moe",
    "tid": "773d5074-a0d9-4b61-bfec-b9fe80392f0d",
    "types": [
      "creators",
      "4"
    ]
  }
}