{
  "header": {
    "description": "Karaoke Mugen Tag File",
    "version": 1
  },
  "tag": {
    "aliases": [
      "Adrien le sauveur du monde 2",
      "Keith Courage 2",
      "Mashin Eiyuuden Wataru 2",
      "Rainbow Fantasia 2",
      "Spirit Hero Wataru 2",
      "eiyuuden"
    ],
    "external_database_ids": {
      "anilist": 4807,
      "myanimelist": 4807,
      "kitsu": 3797
    },
    "i18n": {
      "eng": "Mashin Hero Wataru 2",
      "fre": "Adrien le sauveur du monde 2",
      "jpn": "魔神英雄伝ワタル2",
      "qro": "Mashin Eiyûden Wataru 2"
    },
    "modified_at": "2020-03-31T19:04:32.200Z",
    "name": "Mashin Eiyûden Wataru 2",
    "repository": "kara.moe",
    "tid": "4fdc4e11-91f0-4a32-8604-8de0facbe0e5",
    "types": [
      "series",
      "1"
    ]
  }
}