{
  "header": {
    "description": "Karaoke Mugen Tag File",
    "version": 1
  },
  "tag": {
    "i18n": {
      "eng": "MasKaleido"
    },
    "name": "MasKaleido",
    "repository": "kara.moe",
    "tid": "3fb85349-d73b-48e8-ab41-3fdad776182a",
    "types": [
      "songwriters",
      "8"
    ]
  }
}