{
  "header": {
    "description": "Karaoke Mugen Tag File",
    "version": 1
  },
  "tag": {
    "aliases": [
      "Heart of Air"
    ],
    "i18n": {
      "eng": "Masumi Itô"
    },
    "name": "Masumi Itô",
    "repository": "kara.moe",
    "tid": "4d509824-9384-4076-8c0a-c019e7a28eec",
    "types": [
      "songwriters",
      "8",
      "singers",
      "2"
    ]
  }
}