{
  "header": {
    "description": "Karaoke Mugen Tag File",
    "version": 1
  },
  "tag": {
    "i18n": {
      "eng": "Masumi Asano"
    },
    "name": "Masumi Asano",
    "tid": "a543ef19-c86f-457e-afa9-0f66bf0b6e37",
    "types": [
      "singers",
      "2",
      "songwriters",
      "8"
    ],
    "repository": "kara.moe",
    "modified_at": "2020-03-31T19:04:36.169Z"
  }
}