{
  "header": {
    "description": "Karaoke Mugen Tag File",
    "version": 1
  },
  "tag": {
    "i18n": {
      "eng": "Masumi Toyooka"
    },
    "name": "Masumi Toyooka",
    "tid": "f60701ec-76d5-4fa1-8ac0-ac2e79915e0e",
    "types": [
      "singers",
      "2"
    ],
    "repository": "kara.moe",
    "modified_at": "2020-03-31T19:04:36.173Z"
  }
}