{
  "header": {
    "description": "Karaoke Mugen Tag File",
    "version": 1
  },
  "tag": {
    "i18n": {
      "eng": "Masumi Kageyama"
    },
    "name": "Masumi Kageyama",
    "tid": "61d22e25-7c9f-4979-ad4d-fedeff371baf",
    "types": [
      "singers",
      "2"
    ],
    "repository": "kara.moe",
    "modified_at": "2020-03-31T19:04:36.171Z"
  }
}