{
  "header": {
    "description": "Karaoke Mugen Tag File",
    "version": 1
  },
  "tag": {
    "i18n": {
      "eng": "Mat McNerney"
    },
    "name": "Mat McNerney",
    "repository": "kara.moe",
    "tid": "a3c40418-9c12-4201-8284-625f87b01acd",
    "types": [
      "singers",
      "2"
    ]
  }
}