{
  "header": {
    "description": "Karaoke Mugen Tag File",
    "version": 1
  },
  "tag": {
    "aliases": [
      "Demon Detective Roki - Ragnarok",
      "mlr",
      "rag"
    ],
    "external_database_ids": {
      "anilist": 335,
      "myanimelist": 335,
      "kitsu": 302
    },
    "i18n": {
      "cat": "Loki, el detectiu misteriós",
      "eng": "Mythical Detective Loki Ragnarok",
      "jpn": "魔探偵ロキ RAGNAROK",
      "por": "Mythical Sleuth Loki",
      "spa": "El misterioso Loki",
      "tha": "โลกิ ปริศนาแร็กนาร็อค",
      "qro": "Matantei Loki Ragnarok"
    },
    "modified_at": "2020-06-21T23:45:31.966Z",
    "name": "Matantei Loki Ragnarok",
    "repository": "kara.moe",
    "tid": "08f44888-3d75-44f8-ae90-f5faacb51492",
    "types": [
      "series",
      "1"
    ]
  }
}