{
  "header": {
    "description": "Karaoke Mugen Tag File",
    "version": 1
  },
  "tag": {
    "i18n": {
      "eng": "Matenrou Opera"
    },
    "name": "Matenrou Opera",
    "tid": "0cc5e8b5-6fd6-4c48-9641-a6ff432b7550",
    "types": [
      "singers",
      "2"
    ],
    "repository": "kara.moe",
    "modified_at": "2020-03-31T19:04:36.176Z"
  }
}