{
  "header": {
    "description": "Karaoke Mugen Tag File",
    "version": 1
  },
  "tag": {
    "i18n": {
      "eng": "Matsuwaki Akari"
    },
    "name": "Matsuwaki Akari",
    "repository": "kara.moe",
    "tid": "9f7e3d49-c71b-40f9-96c1-30a3240e762b",
    "types": [
      "singers",
      "2"
    ]
  }
}