{
  "header": {
    "description": "Karaoke Mugen Tag File",
    "version": 1
  },
  "tag": {
    "i18n": {
      "eng": "Mats Berntoft"
    },
    "name": "Mats Berntoft",
    "tid": "f294a9bf-7ce3-4e4e-a017-6db9654ee2b5",
    "types": [
      "songwriters",
      "8"
    ],
    "repository": "kara.moe",
    "modified_at": "2020-03-31T19:04:36.179Z"
  }
}