{
  "header": {
    "description": "Karaoke Mugen Tag File",
    "version": 1
  },
  "tag": {
    "i18n": {
      "eng": "Matthew Burnett"
    },
    "name": "Matthew Burnett",
    "repository": "kara.moe",
    "tid": "b5e286e8-8585-4ccb-9054-7c3101b722da",
    "types": [
      "songwriters",
      "8"
    ]
  }
}