{
  "header": {
    "description": "Karaoke Mugen Tag File",
    "version": 1
  },
  "tag": {
    "i18n": {
      "eng": "Matt Gray"
    },
    "name": "Matt Gray",
    "tid": "c5392aac-5246-4d1a-bca2-3726d301adba",
    "types": [
      "songwriters",
      "8"
    ],
    "repository": "kara.moe",
    "modified_at": "2020-03-31T19:04:36.186Z"
  }
}