{
  "header": {
    "description": "Karaoke Mugen Tag File",
    "version": 1
  },
  "tag": {
    "i18n": {
      "eng": "Matthew Gerrard"
    },
    "modified_at": "2020-12-12T16:12:23.169Z",
    "name": "Matthew Gerrard",
    "repository": "kara.moe",
    "tid": "8d143527-0103-48d0-987c-6ebcdc0e2206",
    "types": [
      "songwriters",
      "8"
    ]
  }
}