{
  "header": {
    "description": "Karaoke Mugen Tag File",
    "version": 1
  },
  "tag": {
    "i18n": {
      "eng": "Matthieu Balanca"
    },
    "name": "Matthieu Balanca",
    "repository": "kara.moe",
    "tid": "dcb116e7-c266-4f71-b42f-b36bb39ff057",
    "types": [
      "songwriters",
      "8"
    ]
  }
}