{
  "header": {
    "description": "Karaoke Mugen Tag File",
    "version": 1
  },
  "tag": {
    "i18n": {
      "eng": "Matthieu Bausson"
    },
    "name": "Matthieu Bausson",
    "repository": "kara.moe",
    "tid": "57c23e67-a9cf-4364-bec0-4e35fbd8ea9f",
    "types": [
      "songwriters",
      "8"
    ]
  }
}