{
  "header": {
    "description": "Karaoke Mugen Tag File",
    "version": 1
  },
  "tag": {
    "i18n": {
      "eng": "Matt Aitken"
    },
    "name": "Matt Aitken",
    "tid": "4ca4829a-9ae5-4d55-900e-8471ba382b32",
    "types": [
      "songwriters",
      "8"
    ],
    "repository": "kara.moe",
    "modified_at": "2020-03-31T19:04:36.186Z"
  }
}