{
  "header": {
    "description": "Karaoke Mugen Tag File",
    "version": 1
  },
  "tag": {
    "i18n": {
      "eng": "Matthew Bellamy"
    },
    "name": "Matthew Bellamy",
    "repository": "kara.moe",
    "tid": "9f16063f-03bf-4a15-beb8-d084f1896659",
    "types": [
      "songwriters",
      "8"
    ]
  }
}