{
  "header": {
    "description": "Karaoke Mugen Tag File",
    "version": 1
  },
  "tag": {
    "i18n": {
      "eng": "Matthieu Le Carpentier"
    },
    "modified_at": "2020-07-04T14:36:57.661Z",
    "name": "Matthieu Le Carpentier",
    "repository": "kara.moe",
    "tid": "be015d85-abfc-4814-8f25-ba52a80ddaeb",
    "types": [
      "songwriters",
      "8"
    ]
  }
}