{
  "header": {
    "description": "Karaoke Mugen Tag File",
    "version": 1
  },
  "tag": {
    "i18n": {
      "eng": "Maurizio Bassi"
    },
    "name": "Maurizio Bassi",
    "repository": "kara.moe",
    "tid": "9cbf87f6-f8fc-48ad-8da9-8941bb0d9e0c",
    "types": [
      "songwriters",
      "8"
    ]
  }
}