{
  "header": {
    "description": "Karaoke Mugen Tag File",
    "version": 1
  },
  "tag": {
    "i18n": {
      "jpn": "Maurits\"禅\"Cornelis",
      "qro": "Maurits \"Zen\" Cornelis"
    },
    "name": "Maurits \"Zen\" Cornelis",
    "repository": "kara.moe",
    "tid": "114b46b1-3de8-4286-9cf0-e719243e3d30",
    "types": [
      "songwriters",
      "8"
    ]
  }
}