{
  "header": {
    "description": "Karaoke Mugen Tag File",
    "version": 1
  },
  "tag": {
    "i18n": {
      "eng": "Mauro Farina"
    },
    "name": "Mauro Farina",
    "tid": "2ff58551-f3dd-4427-a955-a24ae43e10ed",
    "types": [
      "songwriters",
      "8"
    ],
    "repository": "kara.moe",
    "modified_at": "2020-03-31T19:04:36.194Z"
  }
}