{
  "header": {
    "description": "Karaoke Mugen Tag File",
    "version": 1
  },
  "tag": {
    "i18n": {
      "eng": "mavie"
    },
    "name": "mavie",
    "tid": "f9f6e5a0-137c-4d8e-ae2c-a12fb1234b36",
    "types": [
      "singers",
      "2",
      "songwriters",
      "8"
    ],
    "repository": "kara.moe",
    "modified_at": "2020-03-31T19:04:36.194Z"
  }
}