{
  "header": {
    "description": "Karaoke Mugen Tag File",
    "version": 1
  },
  "tag": {
    "i18n": {
      "eng": "Max Martin"
    },
    "name": "Max Martin",
    "tid": "34f37834-cec2-4d5c-9d72-d5ed8c1edc4d",
    "types": [
      "songwriters",
      "8"
    ],
    "repository": "kara.moe",
    "modified_at": "2020-03-31T19:04:36.197Z"
  }
}