{
  "header": {
    "description": "Karaoke Mugen Tag File",
    "version": 1
  },
  "tag": {
    "i18n": {
      "eng": "MAX"
    },
    "name": "MAX",
    "tid": "05712bbe-390d-42d3-bcf7-bfdbc5c72b06",
    "types": [
      "singers",
      "2"
    ],
    "repository": "kara.moe",
    "modified_at": "2020-03-31T19:04:36.198Z"
  }
}