{
  "header": {
    "description": "Karaoke Mugen Tag File",
    "version": 1
  },
  "tag": {
    "i18n": {
      "eng": "MaxaoH"
    },
    "name": "MaxaoH",
    "repository": "kara.moe",
    "tid": "e746046a-82f1-41af-aa58-e59c92f5c273",
    "types": [
      "authors",
      "6",
      "creators",
      "4"
    ]
  }
}