{
  "header": {
    "description": "Karaoke Mugen Tag File",
    "version": 1
  },
  "tag": {
    "i18n": {
      "eng": "MaximumVolty X"
    },
    "modified_at": "2020-10-25T13:59:40.173Z",
    "name": "MaximumVolty X",
    "repository": "kara.moe",
    "tid": "d4c0a191-5a91-40a6-808c-71f57ca4d07a",
    "types": [
      "creators",
      "4"
    ]
  }
}