{
  "header": {
    "description": "Karaoke Mugen Tag File",
    "version": 1
  },
  "tag": {
    "i18n": {
      "eng": "Maximum the Ryô-kun"
    },
    "name": "Maximum the Ryô-kun",
    "tid": "9b3d630c-9985-4a0b-b88e-125f223ffe54",
    "types": [
      "songwriters",
      "8",
      "singers",
      "2"
    ],
    "repository": "kara.moe",
    "modified_at": "2020-03-31T19:04:36.200Z"
  }
}