{
  "header": {
    "description": "Karaoke Mugen Tag File",
    "version": 1
  },
  "tag": {
    "i18n": {
      "eng": "maya (LM.C)"
    },
    "name": "maya (LM.C)",
    "tid": "ce821768-c60d-454e-8dc0-bf223bf0262c",
    "types": [
      "songwriters",
      "8"
    ],
    "repository": "kara.moe",
    "modified_at": "2020-03-31T19:04:36.204Z"
  }
}