{
  "header": {
    "description": "Karaoke Mugen Tag File",
    "version": 1
  },
  "tag": {
    "i18n": {
      "eng": "Maya Katsumura"
    },
    "name": "Maya Katsumura",
    "repository": "kara.moe",
    "tid": "cc3418fd-4668-411c-bf5a-29e2681e175e",
    "types": [
      "singers",
      "2"
    ]
  }
}