{
  "header": {
    "description": "Karaoke Mugen Tag File",
    "version": 1
  },
  "tag": {
    "i18n": {
      "eng": "Maya Okamoto"
    },
    "name": "Maya Okamoto",
    "tid": "a7df006f-215a-4cad-a9b9-92b631c84ad8",
    "types": [
      "singers",
      "2"
    ],
    "repository": "kara.moe",
    "modified_at": "2020-03-31T19:04:36.204Z"
  }
}