{
  "header": {
    "description": "Karaoke Mugen Tag File",
    "version": 1
  },
  "tag": {
    "i18n": {
      "eng": "Maya Rudolph"
    },
    "name": "Maya Rudolph",
    "repository": "kara.moe",
    "tid": "601c3be3-e46d-453c-85fe-6883c68dc3a0",
    "types": [
      "singers",
      "2"
    ]
  }
}