{
  "header": {
    "description": "Karaoke Mugen Tag File",
    "version": 1
  },
  "tag": {
    "aliases": [
      "Patisserie Straycats",
      "Stray Cats Overrun!",
      "Нашествие бродячих кошек!",
      "迷途猫Overrun!"
    ],
    "external_database_ids": {
      "anilist": 7590,
      "myanimelist": 7590,
      "kitsu": 5042
    },
    "i18n": {
      "eng": "Mayoi Neko Overrun!",
      "jpn": "迷い猫オーバーラン!",
      "qro": "Mayoi Neko Overrun!"
    },
    "modified_at": "2020-03-31T19:04:32.209Z",
    "name": "Mayoi Neko Overrun!",
    "repository": "kara.moe",
    "tid": "7e7c5dc4-b5f5-470c-9eb1-b5526fa77980",
    "types": [
      "series",
      "1",
      "franchises",
      "18"
    ]
  }
}