{
  "header": {
    "description": "Karaoke Mugen Tag File",
    "version": 1
  },
  "tag": {
    "aliases": [
      "Mayoeru Shitsuji to Chikin na Ore to",
      "Хей Пиленце!",
      "Эй цыпочка!",
      "迷える執事とチキンな俺と",
      "迷茫管家与懦弱的我"
    ],
    "external_database_ids": {
      "anilist": 10110,
      "myanimelist": 10110,
      "kitsu": 6039
    },
    "i18n": {
      "eng": "Mayo Chiki!",
      "jpn": "まよチキ!",
      "tha": "ฉันนี่ล่ะพ่อบ้าน!",
      "qro": "Mayo Chiki!"
    },
    "modified_at": "2020-03-31T19:04:32.207Z",
    "name": "Mayo Chiki!",
    "repository": "kara.moe",
    "tid": "92242007-4645-4e0f-a22b-b914199cbf62",
    "types": [
      "series",
      "1"
    ]
  }
}