{
  "header": {
    "description": "Karaoke Mugen Tag File",
    "version": 1
  },
  "tag": {
    "i18n": {
      "eng": "Mayumi Asano"
    },
    "name": "Mayumi Asano",
    "tid": "f351c1ce-fcde-4fac-ad19-f4a51bafaa5f",
    "types": [
      "singers",
      "2"
    ],
    "repository": "kara.moe",
    "modified_at": "2020-03-31T19:04:36.214Z"
  }
}