{
  "header": {
    "description": "Karaoke Mugen Tag File",
    "version": 1
  },
  "tag": {
    "i18n": {
      "eng": "Mayu Katsuragi"
    },
    "name": "Mayu Katsuragi",
    "tid": "606dfa7e-6785-442e-9293-d3e83b14a60b",
    "types": [
      "singers",
      "2"
    ],
    "repository": "kara.moe",
    "modified_at": "2020-03-31T19:04:36.208Z"
  }
}