{
  "header": {
    "description": "Karaoke Mugen Tag File",
    "version": 1
  },
  "tag": {
    "i18n": {
      "eng": "Mayu Yoshioka"
    },
    "name": "Mayu Yoshioka",
    "tid": "5cfc37b4-4af6-455c-8319-69761dcc4d7b",
    "types": [
      "singers",
      "2"
    ],
    "repository": "kara.moe",
    "modified_at": "2020-03-31T19:04:36.210Z"
  }
}