{
  "header": {
    "description": "Karaoke Mugen Tag File",
    "version": 1
  },
  "tag": {
    "aliases": [
      "senya",
      "PRIM",
      "MM",
      "moimoi"
    ],
    "i18n": {
      "eng": "Mayumi Morinaga",
      "jpn": "森永 真由美"
    },
    "name": "Mayumi Morinaga",
    "repository": "kara.moe",
    "tid": "7f848493-f1e9-49d7-bfdd-df6ff41dec94",
    "types": [
      "singers",
      "2",
      "songwriters",
      "8"
    ]
  }
}