{
  "header": {
    "description": "Karaoke Mugen Tag File",
    "version": 1
  },
  "tag": {
    "i18n": {
      "eng": "Mebae Miara"
    },
    "name": "Mebae Miara",
    "repository": "kara.moe",
    "tid": "0269f68b-f0d6-4f9b-86e0-2ca7ade02c5d",
    "types": [
      "songwriters",
      "8"
    ]
  }
}