{
  "header": {
    "description": "Karaoke Mugen Tag File",
    "version": 1
  },
  "tag": {
    "i18n": {
      "eng": "Mechanica Metallica"
    },
    "name": "Mechanica Metallica",
    "repository": "kara.moe",
    "tid": "9e7fc2a3-a3cf-4e6e-afb7-a62bf541697d",
    "types": [
      "singergroups",
      "17"
    ]
  }
}