{
  "header": {
    "description": "Karaoke Mugen Tag File",
    "version": 1
  },
  "tag": {
    "i18n": {
      "eng": "Medansy"
    },
    "name": "Medansy",
    "repository": "kara.moe",
    "tid": "29670dce-71c6-4069-aea5-4235407e94cd",
    "types": [
      "songwriters",
      "8"
    ]
  }
}