{
  "header": {
    "description": "Karaoke Mugen Tag File",
    "version": 1
  },
  "tag": {
    "i18n": {
      "eng": "MEG"
    },
    "modified_at": "2020-08-20T15:33:25.032Z",
    "name": "MEG",
    "repository": "kara.moe",
    "tid": "76e68206-5ed7-47fd-8cae-fb5c84ff0d1f",
    "types": [
      "songwriters",
      "8"
    ]
  }
}