{
  "header": {
    "description": "Karaoke Mugen Tag File",
    "version": 1
  },
  "tag": {
    "i18n": {
      "eng": "Megatone 13"
    },
    "name": "Megatone 13",
    "repository": "kara.moe",
    "tid": "3e704d88-d6b4-4dc9-bd1f-04cc3c7f0f3d",
    "types": [
      "songwriters",
      "8"
    ]
  }
}