{
  "header": {
    "description": "Karaoke Mugen Tag File",
    "version": 1
  },
  "tag": {
    "aliases": [
      "Chuuihou",
      "Goddess Warning, Oh! My Sex Goddess"
    ],
    "i18n": {
      "eng": "Megachu!",
      "jpn": "めがちゅ! -Megamisama Chuuihou-",
      "qro": "Megachu! -Megamisama Chûihô-"
    },
    "name": "Megachu! -Megamisama Chûihô-",
    "repository": "kara.moe",
    "tid": "244685cd-3349-4cf2-87ed-cee63b71604b",
    "types": [
      "series",
      "1"
    ]
  }
}