{
  "header": {
    "description": "Karaoke Mugen Tag File",
    "version": 1
  },
  "tag": {
    "external_database_ids": {
      "anilist": 87502,
      "myanimelist": 33737,
      "kitsu": 12509
    },
    "i18n": {
      "eng": "Megaton Musashi"
    },
    "modified_at": "1982-04-06",
    "name": "Megaton Musashi",
    "repository": "kara.moe",
    "tid": "f9c8ae7a-ad6a-4a1a-b2f2-d15c7f55be02",
    "types": [
      "series",
      "1"
    ]
  }
}