{
  "header": {
    "description": "Karaoke Mugen Tag File",
    "version": 1
  },
  "tag": {
    "aliases": [
      "and",
      "megaman",
      "rock man"
    ],
    "i18n": {
      "eng": "Mega Man: Battle & Chase",
      "qro": "Rockman Battle & Chase",
      "jpn": "ロックマン バトル＆チェイス"
    },
    "name": "Mega Man: Battle & Chase",
    "repository": "kara.moe",
    "tid": "e502c612-9a0d-4f44-a529-3d45e8baf02f",
    "types": [
      "series",
      "1"
    ]
  }
}