{
  "header": {
    "description": "Karaoke Mugen Tag File",
    "version": 1
  },
  "tag": {
    "aliases": [
      "Heart Dimension Neptunia H",
      "Hyper Dimension Neptunia G",
      "Shinjigen Game Neptunia VII",
      "Zero Dimension Neptunia Z"
    ],
    "i18n": {
      "eng": "Megadimension Neptunia VII",
      "jpn": "新次元ゲイム ネプテューヌVII",
      "qro": "Megadimension Neptunia VII"
    },
    "modified_at": "2020-03-31T19:04:32.214Z",
    "name": "Megadimension Neptunia VII",
    "repository": "kara.moe",
    "tid": "43af8e7e-a533-44a2-a025-32ce442e0709",
    "types": [
      "series",
      "1"
    ]
  }
}