{
  "header": {
    "description": "Karaoke Mugen Tag File",
    "version": 1
  },
  "tag": {
    "aliases": [
      "Megami-ryou to Ryoubo-kun."
    ],
    "external_database_ids": {
      "anilist": 117989,
      "myanimelist": 41812,
      "kitsu": 44176
    },
    "i18n": {
      "eng": "Mother of the Goddess' Dormitory",
      "jpn": "女神寮の寮母くん."
    },
    "name": "Megami-ryô to Ryôbo-kun.",
    "repository": "kara.moe",
    "tid": "a40e07a1-9c67-4623-a240-d918590edc9e",
    "types": [
      "series",
      "1"
    ]
  }
}