{
  "header": {
    "description": "Karaoke Mugen Tag File",
    "version": 1
  },
  "tag": {
    "aliases": [
      "Candidate for Goddess",
      "CfG",
      "Megami Kouhosei",
      "Pilot Candidate",
      "女神候补生",
      "kouhosei"
    ],
    "external_database_ids": {
      "anilist": 888,
      "myanimelist": 888,
      "kitsu": 788
    },
    "i18n": {
      "eng": "Candidate for Goddess",
      "fre": "Candidate for Goddess",
      "ger": "The Candidate for Goddess",
      "jpn": "女神候補生",
      "pol": "Candidate for Goddess",
      "por": "Candidate for Goddess",
      "qro": "Megami Kôhosei"
    },
    "modified_at": "2020-03-31T19:04:32.216Z",
    "name": "Megami Kôhosei",
    "repository": "kara.moe",
    "tid": "f3daeafd-875b-41fd-b2c3-f33da1c10db5",
    "types": [
      "series",
      "1"
    ]
  }
}