{
  "header": {
    "description": "Karaoke Mugen Tag File",
    "version": 1
  },
  "tag": {
    "i18n": {
      "eng": "Megu Sakuragawa"
    },
    "name": "Megu Sakuragawa",
    "tid": "7c3886c0-356d-4840-83ad-afa700d96061",
    "types": [
      "singers",
      "2"
    ],
    "repository": "kara.moe",
    "modified_at": "2020-03-31T19:04:36.230Z"
  }
}