{
  "header": {
    "description": "Karaoke Mugen Tag File",
    "version": 1
  },
  "tag": {
    "i18n": {
      "eng": "Megumi Masuda"
    },
    "name": "Megumi Masuda",
    "tid": "1d539614-e75c-4b4a-ba21-fa980850e3f1",
    "types": [
      "songwriters",
      "8"
    ],
    "repository": "kara.moe",
    "modified_at": "2020-03-31T19:04:36.235Z"
  }
}