{
  "header": {
    "description": "Karaoke Mugen Tag File",
    "version": 1
  },
  "tag": {
    "i18n": {
      "eng": "Megumi Umino"
    },
    "modified_at": "2020-12-08T11:09:26.990Z",
    "name": "Megumi Umino",
    "repository": "kara.moe",
    "tid": "f0ae0832-7a59-432c-9ecb-c592b9415bd1",
    "types": [
      "songwriters",
      "8"
    ]
  }
}