{
  "header": {
    "description": "Karaoke Mugen Tag File",
    "version": 1
  },
  "tag": {
    "i18n": {
      "eng": "Megumi Oohashi"
    },
    "name": "Megumi Oohashi",
    "tid": "851a7b94-110e-4fc8-94a5-2a959a806e86",
    "types": [
      "songwriters",
      "8"
    ],
    "repository": "kara.moe",
    "modified_at": "2020-03-31T19:04:36.239Z"
  }
}