{
  "header": {
    "description": "Karaoke Mugen Tag File",
    "version": 1
  },
  "tag": {
    "i18n": {
      "qro": "Mei Okada",
      "jpn": "岡田夢以"
    },
    "name": "Mei Okada",
    "repository": "kara.moe",
    "tid": "a5c02dc9-4484-476d-bf85-b82ea08a8459",
    "types": [
      "singers",
      "2"
    ]
  }
}