{
  "header": {
    "description": "Karaoke Mugen Tag File",
    "version": 1
  },
  "tag": {
    "i18n": {
      "eng": "Meiji Warabeda"
    },
    "modified_at": "2021-01-29T01:02:28.450Z",
    "name": "Meiji Warabeda",
    "repository": "kara.moe",
    "tid": "55c689da-2168-4b9b-808d-eed4431cd692",
    "types": [
      "singers",
      "2"
    ]
  }
}