{
  "header": {
    "description": "Karaoke Mugen Tag File",
    "version": 1
  },
  "tag": {
    "external_database_ids": {
      "anilist": 99000,
      "myanimelist": 34209,
      "kitsu": 13056
    },
    "i18n": {
      "eng": "Meiji Tokyo Renka",
      "jpn": "明治東亰恋伽",
      "qro": "Meiji Tokyo Renka"
    },
    "modified_at": "2020-03-31T19:04:32.220Z",
    "name": "Meiji Tokyo Renka",
    "repository": "kara.moe",
    "tid": "a79939a8-aa69-42d3-a6ba-368577e41003",
    "types": [
      "series",
      "1"
    ]
  }
}