{
  "header": {
    "description": "Karaoke Mugen Tag File",
    "version": 1
  },
  "tag": {
    "i18n": {
      "eng": "MEIKO"
    },
    "name": "MEIKO",
    "tid": "42e22ca1-af49-4588-90e3-671ab88f2258",
    "types": [
      "singers",
      "2"
    ],
    "repository": "kara.moe",
    "modified_at": "2020-03-31T19:04:36.248Z"
  }
}