{
  "header": {
    "description": "Karaoke Mugen Tag File",
    "version": 1
  },
  "tag": {
    "i18n": {
      "eng": "Meisa Kuroki"
    },
    "name": "Meisa Kuroki",
    "repository": "kara.moe",
    "tid": "f090c76c-4ea5-4c95-84ce-36da149c056a",
    "types": [
      "singers",
      "2"
    ],
    "modified_at": "2020-03-31T19:04:36.249Z"
  }
}