{
  "header": {
    "description": "Karaoke Mugen Tag File",
    "version": 1
  },
  "tag": {
    "aliases": [
      "Meikyuu",
      "Detective Conan: Crossroad in the Ancient Capital",
      "Детектив Конан (Фильм 7):На перекрестках древней столицы",
      "Детектив Конан: Кръстопътят в древната столица",
      "المحقق كونان: تقاطع شوارع العاصمة القديمة",
      "迷宫的十字路口"
    ],
    "external_database_ids": {
      "anilist": 1366,
      "kitsu": 1220,
      "myanimelist": 1366
    },
    "i18n": {
      "ger": "Detektiv Conan - 7. Film: Die Kreuzung des Labyrinths",
      "ita": "Detective Conan - La mappa del mistero",
      "jpn": "名探偵コナン 迷宮の十字路(クロスロード)",
      "qro": "Meitantei Conan: Meikyû no Crossroad",
      "spa": "Detective Conan 7 - Cruce en la antigua capital",
      "tha": "ยอดนักสืบจิ๋วโคนัน เดอะมูฟวี่ 7 ตอน คดีฆาตกรรมแห่งเมืองปริศนา",
      "fre": "Détective Conan Film 7 : Croisement dans l'ancienne capitale"
    },
    "name": "Meitantei Conan: Meikyû no Crossroad",
    "repository": "kara.moe",
    "tid": "e6835436-b1a1-45e7-a2ff-0f471c71e02e",
    "types": [
      "series",
      "1"
    ]
  }
}