{
  "header": {
    "description": "Karaoke Mugen Tag File",
    "version": 1
  },
  "tag": {
    "i18n": {
      "eng": "Detective Conan Movie 21: The Crimson Love Letter",
      "fre": "Détective Conan Film 21 : La Lettre d'Amour Ecarlate",
      "jpn": "劇場版『名探偵コナン から紅の恋歌』",
      "qro": "Meitantei Conan: Kara Kurenai no Love Letter"
    },
    "name": "Meitantei Conan: Kara Kurenai no Love Letter",
    "repository": "kara.moe",
    "tid": "8ba1c6c9-0619-4a47-9de0-048ad7a867b6",
    "types": [
      "series",
      "1"
    ]
  }
}