{
  "header": {
    "description": "Karaoke Mugen Tag File",
    "version": 1
  },
  "tag": {
    "external_database_ids": {
      "anilist": 244,
      "myanimelist": 244,
      "kitsu": 219
    },
    "i18n": {
      "eng": "Agatha Christie's Great Detectives Poirot and Marple",
      "fre": "Poirot et Marple les grands détectives d'Agatha Christie",
      "jpn": "アガサ·クリスティーの名探偵ポワロとマープル",
      "qro": "Meitantei Poirot to Marple"
    },
    "modified_at": "2020-03-31T19:04:32.224Z",
    "name": "Meitantei Poirot to Marple",
    "repository": "kara.moe",
    "tid": "1d0d06ff-096a-4ff6-b9aa-7c17380f3062",
    "types": [
      "series",
      "1"
    ]
  }
}