{
  "header": {
    "description": "Karaoke Mugen Tag File",
    "version": 1
  },
  "tag": {
    "i18n": {
      "eng": "Mel"
    },
    "name": "Mel",
    "repository": "kara.moe",
    "tid": "e06437c0-e609-40d1-9575-e79472459d4b",
    "types": [
      "songwriters",
      "8"
    ]
  }
}