{
  "header": {
    "description": "Karaoke Mugen Tag File",
    "version": 1
  },
  "tag": {
    "i18n": {
      "eng": "Melise de Winter"
    },
    "name": "Melise de Winter",
    "tid": "c961696a-b3ea-4746-b792-15e2539fcb2e",
    "types": [
      "singers",
      "2"
    ],
    "repository": "kara.moe",
    "modified_at": "2020-03-31T19:04:36.253Z"
  }
}