{
  "header": {
    "description": "Karaoke Mugen Tag File",
    "version": 1
  },
  "tag": {
    "i18n": {
      "eng": "Melissa Disney"
    },
    "name": "Melissa Disney",
    "tid": "3e42440d-6a18-4238-a3bc-9a746601a8c8",
    "types": [
      "singers",
      "2"
    ],
    "repository": "kara.moe",
    "modified_at": "2020-03-31T19:04:36.254Z"
  }
}