{
  "header": {
    "description": "Karaoke Mugen Tag File",
    "version": 1
  },
  "tag": {
    "i18n": {
      "eng": "Melody Chubak"
    },
    "modified_at": "2020-12-28T19:54:31.362Z",
    "name": "Melody Chubak",
    "repository": "kara.moe",
    "tid": "1f9b55b5-5d4b-4ddb-b87d-77ddfa596049",
    "types": [
      "singers",
      "2"
    ]
  }
}