{
  "header": {
    "description": "Karaoke Mugen Tag File",
    "version": 1
  },
  "tag": {
    "i18n": {
      "eng": "Melon Kinenbi"
    },
    "name": "Melon Kinenbi",
    "tid": "c548c963-ba66-4c36-90bb-0df7c9e31d7f",
    "types": [
      "singers",
      "2"
    ],
    "repository": "kara.moe",
    "modified_at": "2020-03-31T19:04:36.257Z"
  }
}