{
  "header": {
    "description": "Karaoke Mugen Tag File",
    "version": 1
  },
  "tag": {
    "i18n": {
      "eng": "Meltic StAr"
    },
    "name": "Meltic StAr",
    "repository": "kara.moe",
    "tid": "d50e2a13-de14-4481-9b0e-e0ef6b9067e5",
    "types": [
      "singergroups",
      "17"
    ]
  }
}