{
  "header": {
    "description": "Karaoke Mugen Tag File",
    "version": 1
  },
  "tag": {
    "external_database_ids": {
      "anilist": 1462,
      "myanimelist": 1462,
      "kitsu": 1311
    },
    "i18n": {
      "eng": "Memories"
    },
    "name": "Memories",
    "repository": "kara.moe",
    "tid": "8b2aa8ca-658f-4f14-a389-8e8c76635d4b",
    "types": [
      "series",
      "1"
    ]
  }
}