{
  "header": {
    "description": "Karaoke Mugen Tag File",
    "version": 1
  },
  "tag": {
    "i18n": {
      "eng": "Mercury Records"
    },
    "name": "Mercury Records",
    "repository": "kara.moe",
    "tid": "438a4f9a-8573-40ed-a436-364aa3505f36",
    "types": [
      "creators",
      "4"
    ]
  }
}