{
  "header": {
    "description": "Karaoke Mugen Tag File",
    "version": 1
  },
  "tag": {
    "i18n": {
      "eng": "Meredith Brooks"
    },
    "name": "Meredith Brooks",
    "tid": "d9374fbf-bee9-4401-bd9c-58a3af6cd522",
    "types": [
      "songwriters",
      "8"
    ],
    "repository": "kara.moe",
    "modified_at": "2020-03-31T19:04:36.261Z"
  }
}