{
  "header": {
    "description": "Karaoke Mugen Tag File",
    "version": 1
  },
  "tag": {
    "aliases": [
      "mmppp"
    ],
    "external_database_ids": {
      "anilist": 521,
      "myanimelist": 521,
      "kitsu": 480
    },
    "i18n": {
      "chi": "真珠美人魚",
      "fre": "Pichi Pichi Pitch : La Mélodie des Sirènes",
      "gre": "Pichi Pichi Pitch",
      "heb": "בנות הים",
      "ita": "Mermaid Melody - Principesse sirene",
      "jpn": "マーメイドメロディー ぴちぴちピッチ",
      "kor": "피치피치핏치",
      "por": "Mermaid Melody",
      "srp": "Sirene - Pichi Pichi Pitch",
      "qro": "Mermaid Melody Pichi Pichi Pitch"
    },
    "modified_at": "2020-03-31T19:04:32.226Z",
    "name": "Mermaid Melody Pichi Pichi Pitch",
    "repository": "kara.moe",
    "tid": "c0678268-0314-4ab6-a21e-191fd0837f67",
    "types": [
      "series",
      "1",
      "franchises",
      "18"
    ]
  }
}