{
  "header": {
    "description": "Karaoke Mugen Tag File",
    "version": 1
  },
  "tag": {
    "i18n": {
      "eng": "Méry Rossignol"
    },
    "name": "Méry Rossignol",
    "tid": "788fa649-c349-4026-ba53-e5a566b7c2bc",
    "types": [
      "singers",
      "2"
    ],
    "repository": "kara.moe",
    "modified_at": "2020-03-31T19:04:36.264Z"
  }
}