{
  "header": {
    "description": "Karaoke Mugen Tag File",
    "version": 1
  },
  "tag": {
    "i18n": {
      "eng": "Mes"
    },
    "name": "Mes",
    "repository": "kara.moe",
    "tid": "f00f4a05-4281-4d5a-81fa-d9f2369a7900",
    "types": [
      "singers",
      "2"
    ]
  }
}