{
  "header": {
    "description": "Karaoke Mugen Tag File",
    "version": 1
  },
  "tag": {
    "aliases": [
      "MGS 5",
      "MGS V"
    ],
    "i18n": {
      "eng": "Metal Gear Solid V: The Phantom Pain",
      "jpn": "メタルギアソリッドV ファントムペイン",
      "qro": "Metal Gear Solid 5"
    },
    "modified_at": "2020-03-31T19:04:32.232Z",
    "name": "Metal Gear Solid 5",
    "repository": "kara.moe",
    "tid": "f5f81d92-d3af-447f-8755-3abf3b4fbe23",
    "types": [
      "series",
      "1"
    ]
  }
}