{
  "header": {
    "description": "Karaoke Mugen Tag File",
    "version": 1
  },
  "tag": {
    "aliases": [
      "Beyblade Metal Fury"
    ],
    "external_database_ids": {
      "anilist": 10370,
      "myanimelist": 10370,
      "kitsu": 6152
    },
    "i18n": {
      "eng": "Beyblade: Metal Fury",
      "jpn": "メタルファイト ベイブレード 4D",
      "qro": "Metal Fight Beyblade 4D"
    },
    "modified_at": "2020-03-31T19:04:32.229Z",
    "name": "Metal Fight Beyblade 4D",
    "repository": "kara.moe",
    "tid": "2df04e42-7f62-478b-a07b-d546f3353adf",
    "types": [
      "series",
      "1"
    ]
  }
}