{
  "header": {
    "description": "Karaoke Mugen Tag File",
    "version": 1
  },
  "tag": {
    "i18n": {
      "eng": "Metal Gear Rising: Revengeance"
    },
    "name": "Metal Gear Rising: Revengeance",
    "repository": "kara.moe",
    "tid": "9825cc45-325d-4c16-9741-38c7f8ab8faa",
    "types": [
      "series",
      "1"
    ]
  }
}