{
  "header": {
    "description": "Karaoke Mugen Tag File",
    "version": 1
  },
  "tag": {
    "i18n": {
      "eng": "Meu Ninomiya"
    },
    "name": "Meu Ninomiya",
    "tid": "1b97a394-5781-4b75-bf6c-5afa8266a71a",
    "types": [
      "singers",
      "2"
    ],
    "repository": "kara.moe",
    "modified_at": "2020-03-31T19:04:36.268Z"
  }
}