{
  "header": {
    "description": "Karaoke Mugen Tag File",
    "version": 1
  },
  "tag": {
    "external_database_ids": {
      "anilist": 111310,
      "myanimelist": 40327,
      "kitsu": 42524
    },
    "i18n": {
      "eng": "Mewkledreamy"
    },
    "name": "Mewkledreamy",
    "repository": "kara.moe",
    "tid": "508ef058-f3af-4f8b-a5f7-e045db798674",
    "types": [
      "series",
      "1"
    ]
  }
}