{
  "header": {
    "description": "Karaoke Mugen Tag File",
    "version": 1
  },
  "tag": {
    "aliases": [
      "Mezzo - Agência de Serviços de Perigo",
      "メゾ"
    ],
    "external_database_ids": {
      "anilist": 222,
      "myanimelist": 222,
      "kitsu": 198
    },
    "i18n": {
      "eng": "Mezzo",
      "jpn": "MEZZO DSA",
      "ger": "Mezzo - Danger Service Agency",
      "fre": "Mezzo - Danger Service Agency",
      "rus": "Mezzo: Игра со смертью",
      "qro": "Mezzo DSA"
    },
    "modified_at": "2020-08-28T21:24:18.706Z",
    "name": "Mezzo DSA",
    "repository": "kara.moe",
    "tid": "c1325bd5-0b64-42a1-873d-7e1dd5a0b45d",
    "types": [
      "series",
      "1"
    ]
  }
}