{
  "header": {
    "description": "Karaoke Mugen Tag File",
    "version": 1
  },
  "tag": {
    "i18n": {
      "eng": "Miagete Goran, Yozora no Hoshi wo",
      "jpn": "見上げてごらん夜の星を",
      "qro": "Miagete Goran Yozora no Hoshi wo"
    },
    "modified_at": "2020-03-31T19:04:32.234Z",
    "name": "Miagete Goran Yozora no Hoshi wo",
    "repository": "kara.moe",
    "tid": "b23ff17c-72fb-43d0-98cc-75297b0016c9",
    "types": [
      "series",
      "1"
    ]
  }
}