{
  "header": {
    "description": "Karaoke Mugen Tag File",
    "version": 1
  },
  "tag": {
    "i18n": {
      "eng": "Michel Mella"
    },
    "name": "Michel Mella",
    "tid": "58e01d0a-8a7a-4985-8ff6-49d5441557e6",
    "types": [
      "singers",
      "2"
    ],
    "repository": "kara.moe",
    "modified_at": "2020-03-31T19:04:36.285Z"
  }
}