{
  "header": {
    "description": "Karaoke Mugen Tag File",
    "version": 1
  },
  "tag": {
    "i18n": {
      "eng": "Micheal-Christopher Koji Fox"
    },
    "name": "Micheal-Christopher Koji Fox",
    "repository": "kara.moe",
    "tid": "6fe2d0f8-3a6e-45cf-ba6f-b36a87a92d96",
    "types": [
      "singers",
      "2"
    ]
  }
}