{
  "header": {
    "description": "Karaoke Mugen Tag File",
    "version": 1
  },
  "tag": {
    "i18n": {
      "eng": "Michel ‘Lindgren’ Schulz"
    },
    "name": "Michel ‘Lindgren’ Schulz",
    "repository": "kara.moe",
    "tid": "2f5d27a8-bd26-4248-8f1b-791ef84112e3",
    "types": [
      "songwriters",
      "8"
    ]
  }
}