{
  "header": {
    "description": "Karaoke Mugen Tag File",
    "version": 1
  },
  "tag": {
    "i18n": {
      "eng": "Michael the Dream"
    },
    "name": "Michael the Dream",
    "repository": "kara.moe",
    "tid": "ebeb76c5-bf1c-4ee8-b4f4-c466669d8ebf",
    "types": [
      "songwriters",
      "8"
    ],
    "modified_at": "2020-03-31T19:04:36.278Z"
  }
}