{
  "header": {
    "description": "Karaoke Mugen Tag File",
    "version": 1
  },
  "tag": {
    "i18n": {
      "eng": "Michiko Naruke"
    },
    "name": "Michiko Naruke",
    "tid": "661d2432-17f7-4409-9b0b-5b1664803117",
    "types": [
      "songwriters",
      "8"
    ],
    "repository": "kara.moe",
    "modified_at": "2020-03-31T19:04:36.293Z"
  }
}