{
  "header": {
    "description": "Karaoke Mugen Tag File",
    "version": 1
  },
  "tag": {
    "i18n": {
      "eng": "Michio Yamashita"
    },
    "name": "Michio Yamashita",
    "tid": "3a2c1064-baed-4f60-b723-9f5c2777c4ac",
    "types": [
      "songwriters",
      "8"
    ],
    "repository": "kara.moe",
    "modified_at": "2020-03-31T19:04:36.297Z"
  }
}