{
  "header": {
    "description": "Karaoke Mugen Tag File",
    "version": 1
  },
  "tag": {
    "aliases": [
      "Mičiko ir Hana",
      "道子与哈金",
      "Мичико и Хатчин",
      "and"
    ],
    "external_database_ids": {
      "anilist": 4087,
      "kitsu": 3458,
      "myanimelist": 4087
    },
    "i18n": {
      "eng": "Michiko & Hatchin",
      "jpn": "ミチコとハッチン",
      "qro": "Michiko to Hatchin",
      "ita": "Michiko e Hatchin"
    },
    "name": "Michiko to Hatchin",
    "repository": "kara.moe",
    "tid": "7aba734b-d5cc-4a3b-9458-8d144caecade",
    "types": [
      "series",
      "1"
    ]
  }
}