{
  "header": {
    "description": "Karaoke Mugen Tag File",
    "version": 1
  },
  "tag": {
    "i18n": {
      "eng": "Michael Delancray"
    },
    "name": "Michael Delancray",
    "repository": "kara.moe",
    "tid": "ddb039e9-c9e9-45f1-9a1f-caf2f29867a6",
    "types": [
      "songwriters",
      "8"
    ]
  }
}