{
  "header": {
    "description": "Karaoke Mugen Tag File",
    "version": 1
  },
  "tag": {
    "i18n": {
      "eng": "MICHIRU"
    },
    "name": "MICHIRU",
    "tid": "04c5de8b-e6f4-4bf1-85c9-630fbf9d6ecc",
    "types": [
      "songwriters",
      "8"
    ],
    "repository": "kara.moe",
    "modified_at": "2020-03-31T19:04:36.298Z"
  }
}