{
  "header": {
    "description": "Karaoke Mugen Tag File",
    "version": 1
  },
  "tag": {
    "i18n": {
      "eng": "Midori Tsukimiya"
    },
    "name": "Midori Tsukimiya",
    "tid": "71c995b9-f9d8-475e-b869-04b34bba5813",
    "types": [
      "singers",
      "2"
    ],
    "repository": "kara.moe",
    "modified_at": "2020-03-31T19:04:36.305Z"
  }
}