{
  "header": {
    "description": "Karaoke Mugen Tag File",
    "version": 1
  },
  "tag": {
    "i18n": {
      "eng": "Midori Ueda"
    },
    "modified_at": "2020-04-29T21:57:22.427Z",
    "name": "Midori Ueda",
    "repository": "kara.moe",
    "tid": "808705ba-8800-4a0f-baf6-c179b193fd20",
    "types": [
      "songwriters",
      "8"
    ]
  }
}