{
  "header": {
    "description": "Karaoke Mugen Tag File",
    "version": 1
  },
  "tag": {
    "i18n": {
      "eng": "Midzuki Niito"
    },
    "name": "Midzuki Niito",
    "tid": "fa0a0e30-d063-4dd9-8c87-e01bfdf0272c",
    "types": [
      "songwriters",
      "8"
    ],
    "repository": "kara.moe",
    "modified_at": "2020-03-31T19:04:36.306Z"
  }
}