{
  "header": {
    "description": "Karaoke Mugen Tag File",
    "version": 1
  },
  "tag": {
    "i18n": {
      "qro": "Mie Shimizu",
      "jpn": "清水美恵"
    },
    "name": "Mie Shimizu",
    "repository": "kara.moe",
    "tid": "ce74c6b8-5464-46e4-9762-70e539407872",
    "types": [
      "singers",
      "2"
    ]
  }
}