{
  "header": {
    "description": "Karaoke Mugen Tag File",
    "version": 1
  },
  "tag": {
    "i18n": {
      "eng": "Mighty Eggroll"
    },
    "modified_at": "2020-12-19T22:11:44.152Z",
    "name": "Mighty Eggroll",
    "repository": "kara.moe",
    "tid": "1eb6ea0c-7d4c-4dd9-92b5-ef47d476cdfe",
    "types": [
      "creators",
      "4"
    ]
  }
}