{
  "header": {
    "description": "Karaoke Mugen Tag File",
    "version": 1
  },
  "tag": {
    "i18n": {
      "eng": "Miho Fujiwara"
    },
    "name": "Miho Fujiwara",
    "tid": "9721af4d-bff9-45b8-ba9b-d4bae8373be5",
    "types": [
      "singers",
      "2"
    ],
    "repository": "kara.moe",
    "modified_at": "2020-03-31T19:04:36.312Z"
  }
}