{
  "header": {
    "description": "Karaoke Mugen Tag File",
    "version": 1
  },
  "tag": {
    "i18n": {
      "eng": "Miho Hatori",
      "jpn": "羽鳥 美保"
    },
    "name": "Miho Hatori",
    "repository": "kara.moe",
    "tid": "baf2170e-f376-4fcb-8f8f-9ee9af2da745",
    "types": [
      "songwriters",
      "8",
      "singers",
      "2"
    ]
  }
}