{
  "header": {
    "description": "Karaoke Mugen Tag File",
    "version": 1
  },
  "tag": {
    "i18n": {
      "eng": "Miho Morikawa"
    },
    "modified_at": "2020-04-14T17:01:33.532Z",
    "name": "Miho Morikawa",
    "repository": "kara.moe",
    "tid": "4723c05b-44c0-4751-82a1-0500bfe51492",
    "types": [
      "singers",
      "2",
      "songwriters",
      "8"
    ]
  }
}