{
  "header": {
    "description": "Karaoke Mugen Tag File",
    "version": 1
  },
  "tag": {
    "i18n": {
      "eng": "Miina Tominaga"
    },
    "name": "Miina Tominaga",
    "tid": "992b9d62-06fe-4c9a-9177-edc9f3aa980d",
    "types": [
      "singers",
      "2"
    ],
    "repository": "kara.moe",
    "modified_at": "2020-03-31T19:04:36.318Z"
  }
}