{
  "header": {
    "description": "Karaoke Mugen Tag File",
    "version": 1
  },
  "tag": {
    "i18n": {
      "eng": "Mikazuki Tekkodan"
    },
    "name": "Mikazuki Tekkodan",
    "repository": "kara.moe",
    "tid": "60ae96cf-a68e-4588-b489-91470f0e7d42",
    "types": [
      "singers",
      "2"
    ],
    "modified_at": "2020-03-31T19:04:36.327Z"
  }
}