{
  "header": {
    "description": "Karaoke Mugen Tag File",
    "version": 1
  },
  "tag": {
    "i18n": {
      "eng": "Mikako Komatsu"
    },
    "name": "Mikako Komatsu",
    "tid": "5b21d12f-ac04-4272-882c-df57865ca6b9",
    "types": [
      "singers",
      "2",
      "songwriters",
      "8"
    ],
    "repository": "kara.moe",
    "modified_at": "2020-03-31T19:04:36.325Z"
  }
}