{
  "header": {
    "description": "Karaoke Mugen Tag File",
    "version": 1
  },
  "tag": {
    "external_database_ids": {
      "anilist": 20983,
      "myanimelist": 28817,
      "kitsu": 10072
    },
    "i18n": {
      "eng": "Mikagura School Suite",
      "jpn": "ミカグラ学園組曲",
      "qro": "Mikagura Gakuen Kumikyoku"
    },
    "modified_at": "2020-03-31T19:04:32.237Z",
    "name": "Mikagura Gakuen Kumikyoku",
    "repository": "kara.moe",
    "tid": "55321b13-61a6-40f5-99e0-7b431bd190bd",
    "types": [
      "series",
      "1"
    ]
  }
}