{
  "header": {
    "description": "Karaoke Mugen Tag File",
    "version": 1
  },
  "tag": {
    "i18n": {
      "eng": "Mika Arisaka"
    },
    "name": "Mika Arisaka",
    "tid": "e7517604-9c68-43d3-83a2-789c22366d6e",
    "types": [
      "singers",
      "2",
      "songwriters",
      "8"
    ],
    "repository": "kara.moe",
    "modified_at": "2020-03-31T19:04:36.319Z"
  }
}