{
  "header": {
    "description": "Karaoke Mugen Tag File",
    "version": 1
  },
  "tag": {
    "i18n": {
      "eng": "Mikan Fuumi"
    },
    "name": "Mikan Fuumi",
    "repository": "kara.moe",
    "tid": "9056474c-13ce-4ed9-bf3d-cbfe2efdc0d1",
    "types": [
      "creators",
      "4"
    ]
  }
}