{
  "header": {
    "description": "Karaoke Mugen Tag File",
    "version": 1
  },
  "tag": {
    "i18n": {
      "eng": "Mike Patten"
    },
    "modified_at": "2021-01-09T20:33:37.890Z",
    "name": "Mike Patten",
    "repository": "kara.moe",
    "tid": "3983defa-b91d-445d-88d2-fe978184817b",
    "types": [
      "creators",
      "4"
    ]
  }
}