{
  "header": {
    "description": "Karaoke Mugen Tag File",
    "version": 1
  },
  "tag": {
    "i18n": {
      "eng": "Mikey Way"
    },
    "name": "Mikey Way",
    "repository": "kara.moe",
    "tid": "cb940200-6c2a-461f-b56f-2e0c2e64fa8b",
    "types": [
      "songwriters",
      "8"
    ]
  }
}