{
  "header": {
    "description": "Karaoke Mugen Tag File",
    "version": 1
  },
  "tag": {
    "i18n": {
      "eng": "Mikey McNamara"
    },
    "name": "Mikey McNamara",
    "repository": "kara.moe",
    "tid": "0b680129-91b7-4171-887b-2fb535dcef50",
    "types": [
      "songwriters",
      "8"
    ]
  }
}