{
  "header": {
    "description": "Karaoke Mugen Tag File",
    "version": 1
  },
  "tag": {
    "i18n": {
      "eng": "Mike Oldfield"
    },
    "name": "Mike Oldfield",
    "tid": "52d578d6-861d-4811-9222-447ee153f5d2",
    "types": [
      "songwriters",
      "8"
    ],
    "repository": "kara.moe",
    "modified_at": "2020-03-31T19:04:36.329Z"
  }
}