{
  "header": {
    "description": "Karaoke Mugen Tag File",
    "version": 1
  },
  "tag": {
    "i18n": {
      "eng": "Mike Inel"
    },
    "name": "Mike Inel",
    "tid": "1cd5d132-4086-40bd-8f54-e845054b16e5",
    "types": [
      "creators",
      "4"
    ],
    "repository": "kara.moe",
    "modified_at": "2020-03-31T19:04:36.328Z"
  }
}