{
  "header": {
    "description": "Karaoke Mugen Tag File",
    "version": 1
  },
  "tag": {
    "i18n": {
      "eng": "Mikihito Tanaka"
    },
    "modified_at": "2021-02-19T22:03:38.292Z",
    "name": "Mikihito Tanaka",
    "repository": "kara.moe",
    "tid": "40c21e85-bf25-4c18-8405-ab8b0cb1279c",
    "types": [
      "singers",
      "2"
    ]
  }
}