{
  "header": {
    "description": "Karaoke Mugen Tag File",
    "version": 1
  },
  "tag": {
    "i18n": {
      "eng": "Miki Asakura"
    },
    "modified_at": "2020-08-22T17:31:05.089Z",
    "name": "Miki Asakura",
    "repository": "kara.moe",
    "tid": "ff715e48-cd08-4e7f-849b-b75e22b0d89f",
    "types": [
      "singers",
      "2"
    ]
  }
}