{
  "header": {
    "description": "Karaoke Mugen Tag File",
    "version": 1
  },
  "tag": {
    "i18n": {
      "eng": "Miki Sato",
      "jpn": "佐藤みき",
      "qro": "Miki Sato"
    },
    "name": "Miki Sato",
    "repository": "kara.moe",
    "tid": "8cd521f1-3177-4192-9cbd-b4e0b965acd0",
    "types": [
      "singers",
      "2"
    ]
  }
}