{
  "header": {
    "description": "Karaoke Mugen Tag File",
    "version": 1
  },
  "tag": {
    "i18n": {
      "eng": "Miki Kakizawa"
    },
    "name": "Miki Kakizawa",
    "tid": "78c1a06a-2586-440c-b659-121078d5d6fe",
    "types": [
      "singers",
      "2"
    ],
    "repository": "kara.moe",
    "modified_at": "2020-03-31T19:04:36.335Z"
  }
}