{
  "header": {
    "description": "Karaoke Mugen Tag File",
    "version": 1
  },
  "tag": {
    "i18n": {
      "eng": "Miki Nonaka"
    },
    "name": "Miki Nonaka",
    "repository": "kara.moe",
    "tid": "9c7f44aa-510c-4ffa-bed8-a43398721054",
    "types": [
      "singers",
      "2"
    ]
  }
}