{
  "header": {
    "description": "Karaoke Mugen Tag File",
    "version": 1
  },
  "tag": {
    "i18n": {
      "eng": "Miki Matsubara"
    },
    "name": "Miki Matsubara",
    "tid": "c58ef491-a5b7-4bb2-a865-77ab25f6e8c1",
    "types": [
      "singers",
      "2",
      "songwriters",
      "8"
    ],
    "repository": "kara.moe",
    "modified_at": "2020-03-31T19:04:36.336Z"
  }
}