{
  "header": {
    "description": "Karaoke Mugen Tag File",
    "version": 1
  },
  "tag": {
    "i18n": {
      "eng": "Miki Muroi"
    },
    "name": "Miki Muroi",
    "tid": "d5b1d6e8-86bd-47f8-b14a-ae6fda7032c4",
    "types": [
      "songwriters",
      "8"
    ],
    "repository": "kara.moe",
    "modified_at": "2020-03-31T19:04:36.338Z"
  }
}