{
  "header": {
    "description": "Karaoke Mugen Tag File",
    "version": 1
  },
  "tag": {
    "i18n": {
      "eng": "Miki Imai"
    },
    "modified_at": "2020-08-08T12:39:00.592Z",
    "name": "Miki Imai",
    "repository": "kara.moe",
    "tid": "b9093603-9efc-4e8c-8bc6-376832b10205",
    "types": [
      "singers",
      "2"
    ]
  }
}