{
  "header": {
    "description": "Karaoke Mugen Tag File",
    "version": 1
  },
  "tag": {
    "i18n": {
      "eng": "Miki Watanabe"
    },
    "name": "Miki Watanabe",
    "tid": "da3cae77-dbb4-48b8-83c3-77da763a9148",
    "types": [
      "songwriters",
      "8"
    ],
    "repository": "kara.moe",
    "modified_at": "2020-03-31T19:04:36.339Z"
  }
}