{
  "header": {
    "description": "Karaoke Mugen Tag File",
    "version": 1
  },
  "tag": {
    "i18n": {
      "eng": "Miko Miko Nurse",
      "jpn": "巫女みこナース",
      "qro": "Miko Miko Nurse"
    },
    "modified_at": "2020-03-31T19:04:32.238Z",
    "name": "Miko Miko Nurse",
    "repository": "kara.moe",
    "tid": "3476c8b6-a2aa-4344-827e-44399f4c58ea",
    "types": [
      "series",
      "1"
    ]
  }
}