{
  "header": {
    "description": "Karaoke Mugen Tag File",
    "version": 1
  },
  "tag": {
    "i18n": {
      "eng": "miko"
    },
    "name": "miko",
    "repository": "kara.moe",
    "tid": "98cd2e0e-44fb-4feb-aada-1b418e94af37",
    "types": [
      "singers",
      "2"
    ]
  }
}