{
  "header": {
    "description": "Karaoke Mugen Tag File",
    "version": 1
  },
  "tag": {
    "i18n": {
      "eng": "Mikoi Sasaki"
    },
    "name": "Mikoi Sasaki",
    "tid": "43aac84b-cf1f-439c-86b3-5b420304a518",
    "types": [
      "singers",
      "2"
    ],
    "repository": "kara.moe",
    "modified_at": "2020-03-31T19:04:36.345Z"
  }
}