{
  "header": {
    "description": "Karaoke Mugen Tag File",
    "version": 1
  },
  "tag": {
    "i18n": {
      "eng": "Mikomi"
    },
    "name": "Mikomi",
    "tid": "87e75487-ac53-44e7-b7b5-aede12f6e474",
    "types": [
      "authors",
      "6"
    ],
    "repository": "kara.moe",
    "modified_at": "2020-03-31T19:04:36.346Z"
  }
}