{
  "header": {
    "description": "Karaoke Mugen Tag File",
    "version": 1
  },
  "tag": {
    "i18n": {
      "eng": "Miksu"
    },
    "name": "Miksu",
    "repository": "kara.moe",
    "tid": "efd8dbca-a1d6-4891-9659-deda6449632f",
    "types": [
      "authors",
      "6"
    ]
  }
}