{
  "header": {
    "description": "Karaoke Mugen Tag File",
    "version": 1
  },
  "tag": {
    "i18n": {
      "eng": "Miku Hatsune",
      "jpn": "初音ミク"
    },
    "name": "Miku Hatsune",
    "repository": "kara.moe",
    "tid": "4407ba0e-5de7-4add-870f-7ac95a4804c9",
    "types": [
      "singers",
      "2"
    ]
  }
}