{
  "header": {
    "description": "Karaoke Mugen Tag File",
    "version": 1
  },
  "tag": {
    "i18n": {
      "eng": "mikumikumikumi"
    },
    "name": "mikumikumikumi",
    "repository": "kara.moe",
    "tid": "d32d2a0e-7fcc-4c74-801e-a9e8b9556d57",
    "types": [
      "creators",
      "4"
    ]
  }
}