{
  "header": {
    "description": "Karaoke Mugen Tag File",
    "version": 1
  },
  "tag": {
    "i18n": {
      "eng": "Mikuru Hoshitani",
      "qro": "Mikuru Hoshitani",
      "jpn": "星谷美来"
    },
    "name": "Mikuru Hoshitani",
    "repository": "kara.moe",
    "tid": "e70e3aa6-10b7-43d0-953e-5b414ff1f98e",
    "types": [
      "singers",
      "2"
    ]
  }
}