{
  "header": {
    "description": "Karaoke Mugen Tag File",
    "version": 1
  },
  "tag": {
    "i18n": {
      "eng": "milet"
    },
    "name": "milet",
    "tid": "9516aaa1-e158-4d23-a740-5d9bbb897d1a",
    "types": [
      "songwriters",
      "8",
      "singers",
      "2"
    ],
    "repository": "kara.moe",
    "modified_at": "2020-03-31T19:04:36.352Z"
  }
}