{
  "header": {
    "description": "Karaoke Mugen Tag File",
    "version": 1
  },
  "tag": {
    "i18n": {
      "eng": "MILGRAM"
    },
    "name": "MILGRAM",
    "repository": "kara.moe",
    "tid": "26ee7120-6bf2-4a33-b1e1-1aecd700f836",
    "types": [
      "franchises",
      "18"
    ]
  }
}