{
  "header": {
    "description": "Karaoke Mugen Tag File",
    "version": 1
  },
  "tag": {
    "i18n": {
      "eng": "Milkyway 2",
      "jpn": "Milkyway 2",
      "qro": "Milkyway 2"
    },
    "modified_at": "2021-03-07T11:38:27.443Z",
    "name": "Milkyway 2",
    "repository": "kara.moe",
    "tid": "cc786ad8-128d-45d8-9a5f-8e198ed1672c",
    "types": [
      "series",
      "1"
    ]
  }
}