{
  "header": {
    "description": "Karaoke Mugen Tag File",
    "version": 1
  },
  "tag": {
    "i18n": {
      "eng": "Mimi Félixine"
    },
    "name": "Mimi Félixine",
    "tid": "fe81b794-0fba-4580-9628-a7f5d5974665",
    "types": [
      "singers",
      "2"
    ],
    "repository": "kara.moe",
    "modified_at": "2020-03-31T19:04:36.358Z"
  }
}