{
  "header": {
    "description": "Karaoke Mugen Tag File",
    "version": 1
  },
  "tag": {
    "i18n": {
      "eng": "mimimemeMIMI"
    },
    "name": "mimimemeMIMI",
    "tid": "381a0b25-32f1-4498-9907-433a8f1e509c",
    "types": [
      "singers",
      "2"
    ],
    "repository": "kara.moe",
    "modified_at": "2020-03-31T19:04:36.358Z"
  }
}