{
  "header": {
    "description": "Karaoke Mugen Tag File",
    "version": 1
  },
  "tag": {
    "i18n": {
      "eng": "Mimori Yusa"
    },
    "name": "Mimori Yusa",
    "tid": "83773a3e-f993-4a53-a9db-545d06132d74",
    "types": [
      "singers",
      "2",
      "songwriters",
      "8"
    ],
    "repository": "kara.moe",
    "modified_at": "2020-03-31T19:04:36.359Z"
  }
}