{
  "header": {
    "description": "Karaoke Mugen Tag File",
    "version": 1
  },
  "tag": {
    "i18n": {
      "eng": "Minawo"
    },
    "name": "Minawo",
    "tid": "6c93ddbb-9cfc-41b1-9098-7f5fa2d36ddd",
    "types": [
      "singers",
      "2"
    ],
    "repository": "kara.moe",
    "modified_at": "2020-03-31T19:04:36.375Z"
  }
}