{
  "header": {
    "description": "Karaoke Mugen Tag File",
    "version": 1
  },
  "tag": {
    "i18n": {
      "eng": "minatoku"
    },
    "name": "minatoku",
    "tid": "6040c8d1-34a6-43b3-b1b5-02657f32ea63",
    "types": [
      "songwriters",
      "8"
    ],
    "repository": "kara.moe",
    "modified_at": "2020-03-31T19:04:36.374Z"
  }
}