{
  "header": {
    "description": "Karaoke Mugen Tag File",
    "version": 1
  },
  "tag": {
    "i18n": {
      "eng": "Minamoto.K"
    },
    "name": "Minamoto.K",
    "tid": "e3190388-def7-45c8-ab0f-58f94d7bf74c",
    "types": [
      "songwriters",
      "8"
    ],
    "repository": "kara.moe",
    "modified_at": "2020-03-31T19:04:36.372Z"
  }
}