{
  "header": {
    "description": "Karaoke Mugen Tag File",
    "version": 1
  },
  "tag": {
    "aliases": [
      "mke4tv",
      "mke5",
      "미나미가 4기"
    ],
    "external_database_ids": {
      "anilist": 14511,
      "myanimelist": 14511,
      "kitsu": 7128
    },
    "i18n": {
      "eng": "Minami-ke Tadaima",
      "jpn": "みなみけ ただいま",
      "qro": "Minami-ke Tadaima"
    },
    "modified_at": "2020-03-31T19:04:32.242Z",
    "name": "Minami-ke Tadaima",
    "repository": "kara.moe",
    "tid": "ee0cd088-209d-4bbf-8e2f-9b6d8f43f3e5",
    "types": [
      "series",
      "1"
    ]
  }
}