{
  "header": {
    "description": "Karaoke Mugen Tag File",
    "version": 1
  },
  "tag": {
    "i18n": {
      "eng": "Minako Kawae"
    },
    "name": "Minako Kawae",
    "tid": "f2916951-cb19-45a4-9b87-c2ed45aceeb8",
    "types": [
      "songwriters",
      "8"
    ],
    "repository": "kara.moe",
    "modified_at": "2020-03-31T19:04:36.363Z"
  }
}