{
  "header": {
    "description": "Karaoke Mugen Tag File",
    "version": 1
  },
  "tag": {
    "i18n": {
      "eng": "Minakata Laboratory"
    },
    "modified_at": "2020-11-25T00:39:45.009Z",
    "name": "Minakata Laboratory",
    "repository": "kara.moe",
    "tid": "76984bac-4d06-406a-94c9-0a72586be2bb",
    "types": [
      "creators",
      "4"
    ]
  }
}