{
  "header": {
    "description": "Karaoke Mugen Tag File",
    "version": 1
  },
  "tag": {
    "i18n": {
      "eng": "Minami Kuribayashi"
    },
    "name": "Minami Kuribayashi",
    "tid": "da2034ae-6d61-4f43-9700-4030f097ef13",
    "types": [
      "singers",
      "2",
      "songwriters",
      "8"
    ],
    "repository": "kara.moe",
    "modified_at": "2020-03-31T19:04:36.366Z"
  }
}