{
  "header": {
    "description": "Karaoke Mugen Tag File",
    "version": 1
  },
  "tag": {
    "i18n": {
      "eng": "Minako Hamano"
    },
    "name": "Minako Hamano",
    "tid": "ea574599-07d6-4ecf-9db2-20637bedf06e",
    "types": [
      "songwriters",
      "8"
    ],
    "repository": "kara.moe",
    "modified_at": "2020-03-31T19:04:36.362Z"
  }
}