{
  "header": {
    "description": "Karaoke Mugen Tag File",
    "version": 1
  },
  "tag": {
    "i18n": {
      "eng": "Minako Honda"
    },
    "name": "Minako Honda",
    "tid": "5fe68146-7428-4c2a-95fc-2ef8ac5ba2e0",
    "types": [
      "singers",
      "2"
    ],
    "repository": "kara.moe",
    "modified_at": "2020-03-31T19:04:36.363Z"
  }
}