{
  "header": {
    "description": "Karaoke Mugen Tag File",
    "version": 1
  },
  "tag": {
    "aliases": [
      "msi"
    ],
    "i18n": {
      "eng": "Mindless Self Indulgence"
    },
    "name": "Mindless Self Indulgence",
    "repository": "kara.moe",
    "tid": "49641856-f965-45e6-820c-95dafb56ff10",
    "types": [
      "creators",
      "4",
      "songwriters",
      "8",
      "singers",
      "2"
    ]
  }
}