{
  "header": {
    "description": "Karaoke Mugen Tag File",
    "version": 1
  },
  "tag": {
    "i18n": {
      "eng": "Mineral★Miracle★Muse"
    },
    "name": "Mineral★Miracle★Muse",
    "tid": "311d9450-2e6e-48cd-96df-ce9c2b855837",
    "types": [
      "singers",
      "2"
    ],
    "repository": "kara.moe",
    "modified_at": "2020-03-31T19:04:36.379Z"
  }
}