{
  "header": {
    "description": "Karaoke Mugen Tag File",
    "version": 1
  },
  "tag": {
    "i18n": {
      "eng": "minimum electric design"
    },
    "name": "minimum electric design",
    "repository": "kara.moe",
    "tid": "8a3fc0e0-aac3-4ea7-a64a-0730bef86a33",
    "types": [
      "singergroups",
      "17"
    ]
  }
}