{
  "header": {
    "description": "Karaoke Mugen Tag File",
    "version": 1
  },
  "tag": {
    "i18n": {
      "eng": "MINMI"
    },
    "name": "MINMI",
    "tid": "9314f7dd-9cb0-473f-baad-6c4c6f90188b",
    "types": [
      "singers",
      "2",
      "songwriters",
      "8"
    ],
    "repository": "kara.moe",
    "modified_at": "2020-03-31T19:04:36.380Z"
  }
}