{
  "header": {
    "description": "Karaoke Mugen Tag File",
    "version": 1
  },
  "tag": {
    "i18n": {
      "eng": "Minna no Uta",
      "jpn": "みんなのうた",
      "qro": "Minna no Uta"
    },
    "modified_at": "2020-03-31T19:04:32.246Z",
    "name": "Minna no Uta",
    "repository": "kara.moe",
    "tid": "cee6bc31-a9b1-4c3d-8413-c2426fe0c650",
    "types": [
      "series",
      "1"
    ]
  }
}