{
  "header": {
    "description": "Karaoke Mugen Tag File",
    "version": 1
  },
  "tag": {
    "i18n": {
      "eng": "Mio Okamura"
    },
    "name": "Mio Okamura",
    "tid": "de0e3b21-c186-4b1f-a00e-b06fb6308d70",
    "types": [
      "songwriters",
      "8"
    ],
    "repository": "kara.moe",
    "modified_at": "2020-03-31T19:04:36.390Z"
  }
}