{
  "header": {
    "description": "Karaoke Mugen Tag File",
    "version": 1
  },
  "tag": {
    "i18n": {
      "eng": "Mio Ookami",
      "jpn": "大神ミオ",
      "qro": "Mio Ookami"
    },
    "modified_at": "2021-09-02T20:11:04.974Z",
    "name": "Mio Ookami",
    "repository": "kara.moe",
    "tid": "159fd050-23ee-4f6d-a6a7-6844b7700caf",
    "types": [
      "singers",
      "2"
    ]
  }
}