{
  "header": {
    "description": "Karaoke Mugen Tag File",
    "version": 1
  },
  "tag": {
    "i18n": {
      "eng": "MioFRANKY/Ryo Ito"
    },
    "name": "MioFRANKY/Ryo Ito",
    "tid": "bdeb9759-075b-4819-b23c-d9547371a832",
    "types": [
      "songwriters",
      "8"
    ],
    "repository": "kara.moe",
    "modified_at": "2020-03-31T19:04:36.391Z"
  }
}