{
  "header": {
    "description": "Karaoke Mugen Tag File",
    "version": 1
  },
  "tag": {
    "i18n": {
      "eng": "Mioko Hazama"
    },
    "name": "Mioko Hazama",
    "tid": "8b2addec-a30d-45fa-a77e-26252002a76e",
    "types": [
      "songwriters",
      "8"
    ],
    "repository": "kara.moe",
    "modified_at": "2020-03-31T19:04:36.392Z"
  }
}