{
  "header": {
    "description": "Karaoke Mugen Tag File",
    "version": 1
  },
  "tag": {
    "i18n": {
      "eng": "MIQ"
    },
    "name": "MIQ",
    "tid": "f7a1aa6a-4cc9-433f-a6a0-924653b6fd7f",
    "types": [
      "singers",
      "2"
    ],
    "repository": "kara.moe",
    "modified_at": "2020-03-31T19:04:36.393Z"
  }
}