{
  "header": {
    "description": "Karaoke Mugen Tag File",
    "version": 1
  },
  "tag": {
    "aliases": [
      "Mirai Nikki Redial: Data Ikou",
      "The Future Diary Redial: Data Migration",
      "ikou"
    ],
    "external_database_ids": {
      "anilist": 16762,
      "myanimelist": 16762,
      "kitsu": 7510
    },
    "i18n": {
      "eng": "Mirai Nikki Redial: Data Ikô",
      "jpn": "未来日記リダイヤル データ移行",
      "qro": "Mirai Nikki Redial: Data Ikô"
    },
    "modified_at": "2020-03-31T19:04:32.249Z",
    "name": "Mirai Nikki Redial: Data Ikô",
    "repository": "kara.moe",
    "tid": "e19a3ae4-a8e4-4fab-877c-aa33fe79d7de",
    "types": [
      "series",
      "1"
    ]
  }
}