{
  "header": {
    "description": "Karaoke Mugen Tag File",
    "version": 1
  },
  "tag": {
    "i18n": {
      "eng": "MiRai"
    },
    "modified_at": "2020-10-25T15:07:59.872Z",
    "name": "MiRai",
    "repository": "kara.moe",
    "tid": "b9928461-8470-4c27-a0f5-f6cfa43f6459",
    "types": [
      "songwriters",
      "8"
    ]
  }
}