{
  "header": {
    "description": "Karaoke Mugen Tag File",
    "version": 1
  },
  "tag": {
    "i18n": {
      "eng": "Misaki Umase"
    },
    "modified_at": "2021-02-28T13:44:57.526Z",
    "name": "Misaki Umase",
    "repository": "kara.moe",
    "tid": "1d8316a8-5948-40d7-99fa-5065fbf84e48",
    "types": [
      "songwriters",
      "8"
    ]
  }
}