{
  "header": {
    "description": "Karaoke Mugen Tag File",
    "version": 1
  },
  "tag": {
    "i18n": {
      "eng": "Misa Kuwatani"
    },
    "name": "Misa Kuwatani",
    "tid": "e624e277-544e-4090-817c-3eccc8a026f1",
    "types": [
      "songwriters",
      "8"
    ],
    "repository": "kara.moe",
    "modified_at": "2020-03-31T19:04:36.397Z"
  }
}