{
  "header": {
    "description": "Karaoke Mugen Tag File",
    "version": 1
  },
  "tag": {
    "i18n": {
      "eng": "Misato Fukuen"
    },
    "name": "Misato Fukuen",
    "tid": "2833c1fd-1446-4b55-97db-4d97fda4dcea",
    "types": [
      "singers",
      "2"
    ],
    "repository": "kara.moe",
    "modified_at": "2020-03-31T19:04:36.399Z"
  }
}