{
  "header": {
    "description": "Karaoke Mugen Tag File",
    "version": 1
  },
  "tag": {
    "i18n": {
      "eng": "Misae Takamatsu"
    },
    "modified_at": "2020-08-28T18:35:45.329Z",
    "name": "Misae Takamatsu",
    "repository": "kara.moe",
    "tid": "85f3daae-c9ad-4afb-98cf-8dfd0f1eba68",
    "types": [
      "singers",
      "2"
    ]
  }
}