{
  "header": {
    "description": "Karaoke Mugen Tag File",
    "version": 1
  },
  "tag": {
    "i18n": {
      "eng": "Misaki"
    },
    "name": "Misaki",
    "tid": "925a43ec-d7ec-4e68-b969-665c8b70b55b",
    "types": [
      "songwriters",
      "8"
    ],
    "repository": "kara.moe",
    "modified_at": "2020-03-31T19:04:36.398Z"
  }
}