{
  "header": {
    "description": "Karaoke Mugen Tag File",
    "version": 1
  },
  "tag": {
    "i18n": {
      "eng": "Mish-Mosh"
    },
    "name": "Mish-Mosh",
    "tid": "062cf058-6dfd-4127-bd6a-b32417a4294b",
    "types": [
      "songwriters",
      "8"
    ],
    "repository": "kara.moe",
    "modified_at": "2020-03-31T19:04:36.402Z"
  }
}