{
  "header": {
    "description": "Karaoke Mugen Tag File",
    "version": 1
  },
  "tag": {
    "i18n": {
      "eng": "misono"
    },
    "name": "misono",
    "tid": "606a54a4-f7b1-42de-ba07-735cbbab169b",
    "types": [
      "songwriters",
      "8",
      "singers",
      "2"
    ],
    "repository": "kara.moe",
    "modified_at": "2020-03-31T19:04:36.404Z"
  }
}