{
  "header": {
    "description": "Karaoke Mugen Tag File",
    "version": 1
  },
  "tag": {
    "i18n": {
      "eng": "Miss.tee"
    },
    "name": "Miss.tee",
    "tid": "0f0dde39-0c6c-4871-962c-49c125b116b1",
    "types": [
      "songwriters",
      "8"
    ],
    "repository": "kara.moe",
    "modified_at": "2020-03-31T19:04:36.405Z"
  }
}