{
  "header": {
    "description": "Karaoke Mugen Tag File",
    "version": 1
  },
  "tag": {
    "i18n": {
      "eng": "Misuzu Takahashi"
    },
    "name": "Misuzu Takahashi",
    "tid": "634426b1-c8ce-4e9c-b524-ea4dda78aeb1",
    "types": [
      "songwriters",
      "8"
    ],
    "repository": "kara.moe",
    "modified_at": "2020-03-31T19:04:36.408Z"
  }
}