{
  "header": {
    "description": "Karaoke Mugen Tag File",
    "version": 1
  },
  "tag": {
    "i18n": {
      "eng": "Misumi"
    },
    "name": "Misumi",
    "repository": "kara.moe",
    "tid": "b0bf3b0d-8a14-4ec5-81e5-dc00b5a819b3",
    "types": [
      "creators",
      "4"
    ]
  }
}