{
  "header": {
    "description": "Karaoke Mugen Tag File",
    "version": 1
  },
  "tag": {
    "i18n": {
      "eng": "Misuzu Togashi"
    },
    "name": "Misuzu Togashi",
    "tid": "fea58c35-b79a-4ed6-b300-bfede576d60f",
    "types": [
      "singers",
      "2",
      "songwriters",
      "8"
    ],
    "repository": "kara.moe",
    "modified_at": "2020-03-31T19:04:36.408Z"
  }
}