{
  "header": {
    "description": "Karaoke Mugen Tag File",
    "version": 1
  },
  "tag": {
    "i18n": {
      "eng": "Mitch Mueller"
    },
    "name": "Mitch Mueller",
    "tid": "0c30f548-6798-4d12-99dd-0d1d24d8cb22",
    "types": [
      "songwriters",
      "8"
    ],
    "repository": "kara.moe",
    "modified_at": "2020-03-31T19:04:36.409Z"
  }
}