{
  "header": {
    "description": "Karaoke Mugen Tag File",
    "version": 1
  },
  "tag": {
    "i18n": {
      "eng": "Mito"
    },
    "name": "Mito",
    "tid": "8c88f3c6-ea88-458e-8935-f94f8408e349",
    "types": [
      "songwriters",
      "8"
    ],
    "repository": "kara.moe",
    "modified_at": "2020-03-31T19:04:36.411Z"
  }
}