{
  "header": {
    "description": "Karaoke Mugen Tag File",
    "version": 1
  },
  "tag": {
    "i18n": {
      "eng": "mitsu"
    },
    "name": "mitsu",
    "tid": "6899a759-16e3-4858-9650-b8ad6f2da6ae",
    "types": [
      "songwriters",
      "8"
    ],
    "repository": "kara.moe",
    "modified_at": "2020-03-31T19:04:36.412Z"
  }
}