{
  "header": {
    "description": "Karaoke Mugen Tag File",
    "version": 1
  },
  "tag": {
    "i18n": {
      "eng": "Mitsuru Igarashi"
    },
    "name": "Mitsuru Igarashi",
    "tid": "ee4c8af6-f2c0-454b-9759-f5123212d62b",
    "types": [
      "songwriters",
      "8"
    ],
    "repository": "kara.moe",
    "modified_at": "2020-03-31T19:04:36.422Z"
  }
}