{
  "header": {
    "description": "Karaoke Mugen Tag File",
    "version": 1
  },
  "tag": {
    "i18n": {
      "eng": "Mitsuru Endô"
    },
    "name": "Mitsuru Endô",
    "tid": "fa6781fd-d1dd-499a-971f-6f6d2f6fcbd0",
    "types": [
      "songwriters",
      "8"
    ],
    "repository": "kara.moe",
    "modified_at": "2020-03-31T19:04:36.422Z"
  }
}