{
  "header": {
    "description": "Karaoke Mugen Tag File",
    "version": 1
  },
  "tag": {
    "i18n": {
      "eng": "Mitsuru Kanekuri",
      "jpn": "包国 充"
    },
    "name": "Mitsuru Kanekuri",
    "repository": "kara.moe",
    "tid": "8d225c5a-67a7-488b-abab-6c450e60468a",
    "types": [
      "songwriters",
      "8"
    ]
  }
}