{
  "header": {
    "description": "Karaoke Mugen Tag File",
    "version": 1
  },
  "tag": {
    "i18n": {
      "eng": "Mitsuki Nakae"
    },
    "name": "Mitsuki Nakae",
    "tid": "e210ac10-a512-4fae-9e4a-1f40baec2e1f",
    "types": [
      "singers",
      "2"
    ],
    "repository": "kara.moe",
    "modified_at": "2020-03-31T19:04:36.417Z"
  }
}