{
  "header": {
    "description": "Karaoke Mugen Tag File",
    "version": 1
  },
  "tag": {
    "i18n": {
      "eng": "Mitsuru Matsuoka"
    },
    "name": "Mitsuru Matsuoka",
    "tid": "19be02a8-50ce-4fea-814d-b84e91d2cfdf",
    "types": [
      "singers",
      "2"
    ],
    "repository": "kara.moe",
    "modified_at": "2020-03-31T19:04:36.423Z"
  }
}