{
  "header": {
    "description": "Karaoke Mugen Tag File",
    "version": 1
  },
  "tag": {
    "i18n": {
      "eng": "Mitsuhiko Watanabe"
    },
    "name": "Mitsuhiko Watanabe",
    "tid": "f0812fd0-6338-4043-bb18-eb8ff9ebe9af",
    "types": [
      "songwriters",
      "8"
    ],
    "repository": "kara.moe",
    "modified_at": "2020-03-31T19:04:36.414Z"
  }
}