{
  "header": {
    "description": "Karaoke Mugen Tag File",
    "version": 1
  },
  "tag": {
    "i18n": {
      "eng": "Mitsuki Saiga"
    },
    "name": "Mitsuki Saiga",
    "tid": "f1e01bbb-a89b-4be4-8c95-b37e8c157914",
    "types": [
      "singers",
      "2"
    ],
    "repository": "kara.moe",
    "modified_at": "2020-03-31T19:04:36.417Z"
  }
}