{
  "header": {
    "description": "Karaoke Mugen Tag File",
    "version": 1
  },
  "tag": {
    "i18n": {
      "eng": "Mitsuhiro Ichiki"
    },
    "name": "Mitsuhiro Ichiki",
    "tid": "2ed61dce-cbb0-4f20-ad9b-6f3426ba60a8",
    "types": [
      "singers",
      "2"
    ],
    "repository": "kara.moe",
    "modified_at": "2020-03-31T19:04:36.415Z"
  }
}