{
  "header": {
    "description": "Karaoke Mugen Tag File",
    "version": 1
  },
  "tag": {
    "aliases": [
      "Miura Ichinen"
    ],
    "i18n": {
      "eng": "Miura Toshikazu",
      "jpn": "三浦一年",
      "qro": "Miura Toshikazu"
    },
    "name": "Miura Toshikazu",
    "repository": "kara.moe",
    "tid": "05ec7623-a78c-4a92-82a6-97a7e40b471e",
    "types": [
      "songwriters",
      "8"
    ],
    "modified_at": "2020-03-31T19:04:36.426Z"
  }
}