{
  "header": {
    "description": "Karaoke Mugen Tag File",
    "version": 1
  },
  "tag": {
    "i18n": {
      "eng": "Miura Ayme"
    },
    "name": "Miura Ayme",
    "repository": "kara.moe",
    "tid": "bae9ce20-5bf2-43dc-9cf2-95b546f4f24e",
    "types": [
      "songwriters",
      "8",
      "singers",
      "2"
    ],
    "modified_at": "2020-03-31T19:04:36.425Z"
  }
}