{
  "header": {
    "description": "Karaoke Mugen Tag File",
    "version": 1
  },
  "tag": {
    "aliases": [
      "Miwako Saitou"
    ],
    "i18n": {
      "eng": "Miwako Saitô"
    },
    "modified_at": "2020-08-30T16:33:17.785Z",
    "name": "Miwako Saitô",
    "repository": "kara.moe",
    "tid": "4a980044-fd69-499c-80a3-715ccd8663e0",
    "types": [
      "songwriters",
      "8",
      "singers",
      "2"
    ]
  }
}