{
  "header": {
    "description": "Karaoke Mugen Tag File",
    "version": 1
  },
  "tag": {
    "i18n": {
      "eng": "Miwa Yoshida",
      "jpn": "吉田 美和"
    },
    "name": "Miwa Yoshida",
    "repository": "kara.moe",
    "tid": "76517704-d450-4e5e-a091-3ae8aee27f6d",
    "types": [
      "songwriters",
      "8"
    ]
  }
}