{
  "header": {
    "description": "Karaoke Mugen Tag File",
    "version": 1
  },
  "tag": {
    "i18n": {
      "eng": "Mix: Meisei Story 2nd Season"
    },
    "name": "Mix: Meisei Story 2nd Season",
    "repository": "kara.moe",
    "tid": "d57a0355-acfd-449c-ad04-aea7726da50f",
    "types": [
      "series",
      "1"
    ]
  }
}