{
  "header": {
    "description": "Karaoke Mugen Tag File",
    "version": 1
  },
  "tag": {
    "i18n": {
      "eng": "Mix Speaker's Inc."
    },
    "name": "Mix Speaker's Inc.",
    "tid": "cdedcc34-bb08-4206-af5a-9e50d2340138",
    "types": [
      "singers",
      "2",
      "songwriters",
      "8",
      "creators",
      "4"
    ],
    "repository": "kara.moe",
    "modified_at": "2020-03-31T19:04:36.429Z"
  }
}