{
  "header": {
    "description": "Karaoke Mugen Tag File",
    "version": 1
  },
  "tag": {
    "i18n": {
      "eng": "Miya Amamiya"
    },
    "name": "Miya Amamiya",
    "repository": "kara.moe",
    "tid": "6c7229e8-9f83-4dd9-838c-9e86c4cc8d28",
    "types": [
      "singers",
      "2",
      "songwriters",
      "8"
    ]
  }
}