{
  "header": {
    "description": "Karaoke Mugen Tag File",
    "version": 1
  },
  "tag": {
    "i18n": {
      "eng": "Miyako Matsuoka"
    },
    "modified_at": "2020-05-02T16:43:22.058Z",
    "name": "Miyako Matsuoka",
    "repository": "kara.moe",
    "tid": "b4790955-99ab-4568-a910-0f26c31392d6",
    "types": [
      "songwriters",
      "8"
    ]
  }
}