{
  "header": {
    "description": "Karaoke Mugen Tag File",
    "version": 1
  },
  "tag": {
    "i18n": {
      "eng": "Miyabi Hanasaki"
    },
    "name": "Miyabi Hanasaki",
    "repository": "kara.moe",
    "tid": "55437f40-6f2c-456c-932c-30d8ef0270dc",
    "types": [
      "singers",
      "2"
    ]
  }
}