{
  "header": {
    "description": "Karaoke Mugen Tag File",
    "version": 1
  },
  "tag": {
    "i18n": {
      "eng": "Miyanaga Jirou"
    },
    "name": "Miyanaga Jirou",
    "repository": "kara.moe",
    "tid": "4a85b6f7-df4b-430a-af6f-2247be9e2ec8",
    "types": [
      "songwriters",
      "8"
    ]
  }
}