{
  "header": {
    "description": "Karaoke Mugen Tag File",
    "version": 1
  },
  "tag": {
    "i18n": {
      "eng": "Miya Kotsuki"
    },
    "name": "Miya Kotsuki",
    "tid": "ba5bd223-619a-45cd-93a5-684709c77d47",
    "types": [
      "songwriters",
      "8"
    ],
    "repository": "kara.moe",
    "modified_at": "2020-03-31T19:04:36.429Z"
  }
}