{
  "header": {
    "description": "Karaoke Mugen Tag File",
    "version": 1
  },
  "tag": {
    "i18n": {
      "eng": "Miyo-Ken"
    },
    "name": "Miyo-Ken",
    "tid": "28f64ef3-960d-464a-ba5d-dbeff2271f41",
    "types": [
      "songwriters",
      "8"
    ],
    "repository": "kara.moe",
    "modified_at": "2020-03-31T19:04:36.435Z"
  }
}