{
  "header": {
    "description": "Karaoke Mugen Tag File",
    "version": 1
  },
  "tag": {
    "i18n": {
      "eng": "Miyu Takagi"
    },
    "name": "Miyu Takagi",
    "tid": "20a5bacf-2ddb-45c1-82c6-05c0e3e96860",
    "types": [
      "singers",
      "2"
    ],
    "repository": "kara.moe",
    "modified_at": "2020-03-31T19:04:36.440Z"
  }
}