{
  "header": {
    "description": "Karaoke Mugen Tag File",
    "version": 1
  },
  "tag": {
    "i18n": {
      "eng": "Miyuki Kanbe"
    },
    "name": "Miyuki Kanbe",
    "tid": "019d6554-5ca0-435c-a241-239895e5f779",
    "types": [
      "singers",
      "2"
    ],
    "repository": "kara.moe",
    "modified_at": "2020-03-31T19:04:36.442Z"
  }
}