{
  "header": {
    "description": "Karaoke Mugen Tag File",
    "version": 1
  },
  "tag": {
    "i18n": {
      "eng": "Miyu Tomita"
    },
    "name": "Miyu Tomita",
    "tid": "24bfad52-ccfe-42b7-b3dd-c06e7660d1dc",
    "types": [
      "singers",
      "2"
    ],
    "repository": "kara.moe",
    "modified_at": "2020-03-31T19:04:36.440Z"
  }
}