{
  "header": {
    "description": "Karaoke Mugen Tag File",
    "version": 1
  },
  "tag": {
    "i18n": {
      "eng": "Miyu Kubota"
    },
    "name": "Miyu Kubota",
    "tid": "8f4dc795-4e05-4e8f-a5fc-61e45e229402",
    "types": [
      "singers",
      "2"
    ],
    "repository": "kara.moe",
    "modified_at": "2020-03-31T19:04:36.438Z"
  }
}