{
  "header": {
    "description": "Karaoke Mugen Tag File",
    "version": 1
  },
  "tag": {
    "aliases": [
      "Salut les filles"
    ],
    "external_database_ids": {
      "anilist": 2231,
      "myanimelist": 2231,
      "kitsu": 2022
    },
    "i18n": {
      "eng": "Miyuki",
      "fre": "Tommy et Magalie",
      "ger": "Miyuki",
      "jpn": "みゆき",
      "spa": "Vacaciones de verano",
      "qro": "Miyuki"
    },
    "modified_at": "2020-03-31T19:04:32.259Z",
    "name": "Miyuki",
    "repository": "kara.moe",
    "tid": "938a6e6f-b393-4136-b897-1013c89c694d",
    "types": [
      "series",
      "1"
    ]
  }
}