{
  "header": {
    "description": "Karaoke Mugen Tag File",
    "version": 1
  },
  "tag": {
    "i18n": {
      "eng": "Mizuki Yamamoto"
    },
    "modified_at": "2020-11-14T14:32:59.614Z",
    "name": "Mizuki Yamamoto",
    "repository": "kara.moe",
    "tid": "daa910cd-e7d3-42a3-9713-85d96763cb6c",
    "types": [
      "singers",
      "2"
    ]
  }
}