{
  "header": {
    "description": "Karaoke Mugen Tag File",
    "version": 1
  },
  "tag": {
    "i18n": {
      "eng": "Mizuki"
    },
    "name": "Mizuki",
    "tid": "860997b6-f748-4703-8625-bae1052e1158",
    "types": [
      "singers",
      "2"
    ],
    "repository": "kara.moe",
    "modified_at": "2020-03-31T19:04:36.452Z"
  }
}