{
  "header": {
    "description": "Karaoke Mugen Tag File",
    "version": 1
  },
  "tag": {
    "i18n": {
      "eng": "Mizuki Saiba"
    },
    "name": "Mizuki Saiba",
    "repository": "kara.moe",
    "tid": "ad5a6f8d-c689-4dfe-baca-81241a74009b",
    "types": [
      "singers",
      "2"
    ]
  }
}