{
  "header": {
    "description": "Karaoke Mugen Tag File",
    "version": 1
  },
  "tag": {
    "i18n": {
      "jpn": "MIZUKING様",
      "qro": "MIZUKING"
    },
    "name": "MIZUKING",
    "repository": "kara.moe",
    "tid": "43d81efe-2288-4eb3-a1d2-1bf77c6c8834",
    "types": [
      "creators",
      "4"
    ]
  }
}