{
  "header": {
    "description": "Karaoke Mugen Tag File",
    "version": 1
  },
  "tag": {
    "aliases": [
      "miz_k6",
      "mzk_i6"
    ],
    "i18n": {
      "jpn": "みず希",
      "qro": "Mizuki"
    },
    "name": "Mizuki",
    "repository": "kara.moe",
    "tid": "cef27e38-8603-4a79-b07e-9ca735ba72c7",
    "types": [
      "creators",
      "4"
    ]
  }
}