{
  "header": {
    "description": "Karaoke Mugen Tag File",
    "version": 1
  },
  "tag": {
    "i18n": {
      "eng": "Mizuki Moie"
    },
    "name": "Mizuki Moie",
    "tid": "27cdaa80-844c-49e4-8e8b-debcc570ef9d",
    "types": [
      "singers",
      "2"
    ],
    "repository": "kara.moe",
    "modified_at": "2020-03-31T19:04:36.451Z"
  }
}