{
  "header": {
    "description": "Karaoke Mugen Tag File",
    "version": 1
  },
  "tag": {
    "i18n": {
      "eng": "Mizunoke"
    },
    "name": "Mizunoke",
    "tid": "037c94c8-6f53-42d0-ab3d-8d057729ba17",
    "types": [
      "authors",
      "6"
    ],
    "repository": "kara.moe",
    "modified_at": "2020-03-31T19:04:36.453Z"
  }
}