{
  "header": {
    "description": "Karaoke Mugen Tag File",
    "version": 1
  },
  "tag": {
    "i18n": {
      "eng": "Mizuki Ueki"
    },
    "name": "Mizuki Ueki",
    "tid": "6880656a-c827-49e8-8d26-7be7902cfeed",
    "types": [
      "songwriters",
      "8"
    ],
    "repository": "kara.moe",
    "modified_at": "2020-03-31T19:04:36.452Z"
  }
}