{
  "header": {
    "description": "Karaoke Mugen Tag File",
    "version": 1
  },
  "tag": {
    "i18n": {
      "eng": "MKL"
    },
    "name": "MKL",
    "repository": "kara.moe",
    "tid": "582dfa09-ecbb-4b53-ac2f-45eb7f90626c",
    "types": [
      "songwriters",
      "8"
    ]
  }
}