{
  "header": {
    "description": "Karaoke Mugen Tag File",
    "version": 1
  },
  "tag": {
    "aliases": [
      "Mo Dao Zushi: Qianchen Pian",
      "Módào Zǔshī: Qiánchén Piān",
      "Modao Zu Shi",
      "Mo Dao Zu Shi:"
    ],
    "external_database_ids": {
      "anilist": 101972,
      "kitsu": 41036,
      "myanimelist": 37208
    },
    "i18n": {
      "chi": "魔道祖师 前尘篇",
      "qro": "Módào Zǔshī: Qián Chén Piān"
    },
    "name": "Módào Zǔshī: Qián Chén Piān",
    "repository": "kara.moe",
    "tid": "803d6fa0-4f2d-44ee-96b0-3fbc29e73f50",
    "types": [
      "series",
      "1"
    ]
  }
}