{
  "header": {
    "description": "Karaoke Mugen Tag File",
    "version": 1
  },
  "tag": {
    "i18n": {
      "eng": "Moe Tamago Soft"
    },
    "name": "Moe Tamago Soft",
    "tid": "05507b7c-a584-46ea-8aa7-4b9c1cf9395e",
    "types": [
      "creators",
      "4"
    ],
    "repository": "kara.moe",
    "modified_at": "2020-03-31T19:04:36.460Z"
  }
}