{
  "header": {
    "description": "Karaoke Mugen Tag File",
    "version": 1
  },
  "tag": {
    "i18n": {
      "eng": "Moeka Shiotsuka"
    },
    "name": "Moeka Shiotsuka",
    "repository": "kara.moe",
    "tid": "111358b8-02ca-4323-962a-797866d57c91",
    "types": [
      "singers",
      "2"
    ]
  }
}