{
  "header": {
    "description": "Karaoke Mugen Tag File",
    "version": 1
  },
  "tag": {
    "i18n": {
      "eng": "Moeko Kanisawa"
    },
    "name": "Moeko Kanisawa",
    "repository": "kara.moe",
    "tid": "4f21e299-a444-4721-8f89-ebfc4fdeb086",
    "types": [
      "singers",
      "2"
    ]
  }
}