{
  "header": {
    "description": "Karaoke Mugen Tag File",
    "version": 1
  },
  "tag": {
    "i18n": {
      "eng": "Moeki",
      "chi": "沐霏",
      "qro": "Mù fēi"
    },
    "name": "Moeki",
    "repository": "kara.moe",
    "tid": "87943334-2b6d-4299-9731-fd4cc7d8bdf2",
    "types": [
      "singers",
      "2"
    ]
  }
}