{
  "header": {
    "description": "Karaoke Mugen Tag File",
    "version": 1
  },
  "tag": {
    "aliases": [
      "萌之英语单词",
      "萌单"
    ],
    "external_database_ids": {
      "anilist": 2367,
      "myanimelist": 2367,
      "kitsu": 7758
    },
    "i18n": {
      "eng": "Moetan",
      "jpn": "もえたん",
      "qro": "Moetan"
    },
    "modified_at": "2020-03-31T19:04:32.263Z",
    "name": "Moetan",
    "repository": "kara.moe",
    "tid": "8c80b4c1-2f52-4528-be44-ccd1192f7847",
    "types": [
      "series",
      "1"
    ]
  }
}