{
  "header": {
    "description": "Karaoke Mugen Tag File",
    "version": 1
  },
  "tag": {
    "i18n": {
      "eng": "Moga Mogami"
    },
    "name": "Moga Mogami",
    "repository": "kara.moe",
    "tid": "76ca73e1-3b38-400b-8671-acf8315ee747",
    "types": [
      "singers",
      "2"
    ],
    "modified_at": "2020-03-31T19:04:36.463Z"
  }
}