{
  "header": {
    "description": "Karaoke Mugen Tag File",
    "version": 1
  },
  "tag": {
    "i18n": {
      "eng": "Moja"
    },
    "name": "Moja",
    "repository": "kara.moe",
    "tid": "6f17b3b1-084b-43bc-9d7e-4d0393af53f6",
    "types": [
      "songwriters",
      "8"
    ]
  }
}