{
  "header": {
    "description": "Karaoke Mugen Tag File",
    "version": 1
  },
  "tag": {
    "i18n": {
      "eng": "momiji"
    },
    "modified_at": "2020-10-10T21:59:06.192Z",
    "name": "momiji",
    "repository": "kara.moe",
    "tid": "83b6a9ec-0d46-4bed-9932-cedaacb448f4",
    "types": [
      "singers",
      "2"
    ]
  }
}