{
  "header": {
    "description": "Karaoke Mugen Tag File",
    "version": 1
  },
  "tag": {
    "i18n": {
      "eng": "Momoeika"
    },
    "modified_at": "2021-10-04T00:18:03.007Z",
    "name": "Momoeika",
    "repository": "kara.moe",
    "tid": "bc102f0f-0af3-4b2a-9e75-6fbc8a35cee7",
    "types": [
      "singers",
      "2"
    ]
  }
}