{
  "header": {
    "description": "Karaoke Mugen Tag File",
    "version": 1
  },
  "tag": {
    "i18n": {
      "eng": "momocashew"
    },
    "name": "momocashew",
    "tid": "4967c6bd-7bc5-4602-ab28-2250cc39e2d1",
    "types": [
      "songwriters",
      "8",
      "singers",
      "2"
    ],
    "repository": "kara.moe",
    "modified_at": "2020-03-31T19:04:36.470Z"
  }
}