{
  "header": {
    "description": "Karaoke Mugen Tag File",
    "version": 1
  },
  "tag": {
    "i18n": {
      "eng": "Momoko Kanade"
    },
    "modified_at": "2020-11-15T15:40:32.609Z",
    "name": "Momoko Kanade",
    "repository": "kara.moe",
    "tid": "a56b195e-79f7-4d36-8f0a-9a5deeea7c56",
    "types": [
      "singers",
      "2"
    ]
  }
}