{
  "header": {
    "description": "Karaoke Mugen Tag File",
    "version": 1
  },
  "tag": {
    "i18n": {
      "eng": "Momoiro Clover Z"
    },
    "name": "Momoiro Clover Z",
    "tid": "1536dd86-9c4d-46ce-99a0-da77134b5f1f",
    "types": [
      "singers",
      "2"
    ],
    "repository": "kara.moe",
    "modified_at": "2020-03-31T19:04:36.471Z"
  }
}