{
  "header": {
    "description": "Karaoke Mugen Tag File",
    "version": 1
  },
  "tag": {
    "i18n": {
      "eng": "Monbushô Shôka"
    },
    "name": "Monbushô Shôka",
    "tid": "89697ece-1694-4ecd-8514-a6b6350af234",
    "types": [
      "songwriters",
      "8"
    ],
    "repository": "kara.moe",
    "modified_at": "2020-03-31T19:04:36.479Z"
  }
}