{
  "header": {
    "description": "Karaoke Mugen Tag File",
    "version": 1
  },
  "tag": {
    "i18n": {
      "eng": "Monkichi"
    },
    "name": "Monkichi",
    "repository": "kara.moe",
    "tid": "bbbc6873-d455-46b6-903b-152e41d11b82",
    "types": [
      "songwriters",
      "8"
    ]
  }
}