{
  "header": {
    "description": "Karaoke Mugen Tag File",
    "version": 1
  },
  "tag": {
    "i18n": {
      "eng": "Monoral"
    },
    "name": "Monoral",
    "tid": "c93be61f-2dc5-4813-9701-e8c5718938ec",
    "types": [
      "singers",
      "2",
      "songwriters",
      "8"
    ],
    "repository": "kara.moe",
    "modified_at": "2020-03-31T19:04:36.485Z"
  }
}