{
  "header": {
    "description": "Karaoke Mugen Tag File",
    "version": 1
  },
  "tag": {
    "aliases": [
      "Vienspalvis Faktorius",
      "monofac",
      "Монохромный Фактор",
      "幻影少年"
    ],
    "external_database_ids": {
      "anilist": 3656,
      "myanimelist": 3656,
      "kitsu": 3174
    },
    "i18n": {
      "eng": "Monochrome Factor",
      "jpn": "モノクローム・ファクター",
      "qro": "Monochrome Factor"
    },
    "modified_at": "2020-03-31T19:04:32.268Z",
    "name": "Monochrome Factor",
    "repository": "kara.moe",
    "tid": "7f21c816-34b8-40be-8668-3cb5c710011e",
    "types": [
      "series",
      "1"
    ]
  }
}