{
  "header": {
    "description": "Karaoke Mugen Tag File",
    "version": 1
  },
  "tag": {
    "aliases": [
      "Canavar",
      "Monster TV",
      "Monstras",
      "Monstro",
      "Monstrul",
      "Naoki Urasawa's MONSTER",
      "Potwór",
      "Монстр",
      "Чудовище",
      "هیولا",
      "وحش"
    ],
    "external_database_ids": {
      "anilist": 19,
      "myanimelist": 19,
      "kitsu": 10
    },
    "i18n": {
      "cat": "Monstre",
      "eng": "Monster",
      "fre": "Monster",
      "jpn": "MONSTER",
      "por": "O Monstro",
      "spa": "Monster",
      "qro": "Monster"
    },
    "modified_at": "2020-03-31T19:04:32.274Z",
    "name": "Monster",
    "repository": "kara.moe",
    "tid": "80a15602-d625-4543-884e-fbaba34f120c",
    "types": [
      "series",
      "1"
    ]
  }
}