{
  "header": {
    "description": "Karaoke Mugen Tag File",
    "version": 1
  },
  "tag": {
    "i18n": {
      "eng": "Monsieur Flap"
    },
    "modified_at": "2020-12-30T17:04:44.930Z",
    "name": "Monsieur Flap",
    "repository": "kara.moe",
    "tid": "0918c698-685a-4f5d-af96-2b32b00988e8",
    "types": [
      "series",
      "1"
    ]
  }
}