{
  "header": {
    "description": "Karaoke Mugen Tag File",
    "version": 1
  },
  "tag": {
    "external_database_ids": {
      "anilist": 1469,
      "myanimelist": 1469,
      "kitsu": 1315
    },
    "i18n": {
      "eng": "Monster Rancher",
      "fre": "Monster Rancher",
      "jpn": "モンスターファーム",
      "qro": "Monster Farm"
    },
    "modified_at": "2020-03-31T19:04:32.270Z",
    "name": "Monster Farm",
    "repository": "kara.moe",
    "tid": "f3d92103-3100-46e8-904b-47dff97a57b8",
    "types": [
      "series",
      "1"
    ]
  }
}