{
  "header": {
    "description": "Karaoke Mugen Tag File",
    "version": 1
  },
  "tag": {
    "i18n": {
      "eng": "Monseigneur Philippe Dominique"
    },
    "modified_at": "2020-05-07T17:55:04.199Z",
    "name": "Monseigneur Philippe Dominique",
    "repository": "kara.moe",
    "tid": "f0651120-8198-4c75-9200-5a150dc7c227",
    "types": [
      "singers",
      "2"
    ]
  }
}