{
  "header": {
    "description": "Karaoke Mugen Tag File",
    "version": 1
  },
  "tag": {
    "aliases": [
      "モンスターハンターストーリーズ RIDE ON",
      "MH Ride On"
    ],
    "external_database_ids": {
      "anilist": 21363,
      "myanimelist": 31631,
      "kitsu": 11584
    },
    "i18n": {
      "eng": "Monster Hunter Stories: Ride On"
    },
    "modified_at": "2021-06-20T12:31:30.789Z",
    "name": "Monster Hunter Stories: Ride On",
    "repository": "kara.moe",
    "tid": "e021f3e9-b44d-424c-8f74-8e364207cb3c",
    "types": [
      "series",
      "1"
    ]
  }
}