{
  "header": {
    "description": "Karaoke Mugen Tag File",
    "version": 1
  },
  "tag": {
    "i18n": {
      "eng": "Mood Melodies"
    },
    "modified_at": "2021-11-13T12:57:59.241Z",
    "name": "Mood Melodies",
    "repository": "kara.moe",
    "tid": "9acd3266-c0c2-4ab7-82ac-8670feac17ae",
    "types": [
      "songwriters",
      "8"
    ]
  }
}