{
  "header": {
    "description": "Karaoke Mugen Tag File",
    "version": 1
  },
  "tag": {
    "i18n": {
      "eng": "Mool & Yugi"
    },
    "name": "Mool & Yugi",
    "tid": "5608b644-b247-4f02-9fef-4ade2bf2cf7b",
    "types": [
      "songwriters",
      "8"
    ],
    "repository": "kara.moe",
    "modified_at": "2020-03-31T19:04:36.489Z"
  }
}