{
  "header": {
    "description": "Karaoke Mugen Tag File",
    "version": 1
  },
  "tag": {
    "i18n": {
      "eng": "Moona Hoshinova"
    },
    "modified_at": "2021-09-20T18:15:23.252Z",
    "name": "Moona Hoshinova",
    "repository": "kara.moe",
    "tid": "f708c8c5-9078-48f2-9197-28926d5c2aef",
    "types": [
      "singers",
      "2",
      "songwriters",
      "8"
    ]
  }
}