{
  "header": {
    "description": "Karaoke Mugen Tag File",
    "version": 1
  },
  "tag": {
    "aliases": [
      "Moonlight Mile",
      "Лунна миля: Сезон Първи - Отлитане",
      "ムーンライトマイル",
      "月亮的距离"
    ],
    "external_database_ids": {
      "anilist": 1941,
      "myanimelist": 1941,
      "kitsu": 1750
    },
    "i18n": {
      "eng": "Moonlight Mile: 1st Season - Lift Off",
      "jpn": "MOONLIGHT MILE 1stシーズン -Lift off-",
      "qro": "Moonlight Mile: 1st Season - Lift Off"
    },
    "modified_at": "2020-03-31T19:04:32.275Z",
    "name": "Moonlight Mile: 1st Season - Lift Off",
    "repository": "kara.moe",
    "tid": "99710e06-1656-4925-a87c-69e7699628ee",
    "types": [
      "series",
      "1"
    ]
  }
}