{
  "header": {
    "description": "Karaoke Mugen Tag File",
    "version": 1
  },
  "tag": {
    "external_database_ids": {},
    "i18n": {
      "eng": "MORE MORE JUMP!"
    },
    "name": "MORE MORE JUMP!",
    "repository": "kara.moe",
    "tid": "0a879283-62f0-4266-a835-73cbe7ef7c0b",
    "types": [
      "singergroups",
      "17"
    ]
  }
}