{
  "header": {
    "description": "Karaoke Mugen Tag File",
    "version": 1
  },
  "tag": {
    "i18n": {
      "eng": "Moreno Donadoni"
    },
    "name": "Moreno Donadoni",
    "tid": "3501b555-ee03-415d-beb2-9a39c48322c0",
    "types": [
      "songwriters",
      "8"
    ],
    "repository": "kara.moe",
    "modified_at": "2020-03-31T19:04:36.491Z"
  }
}