{
  "header": {
    "description": "Karaoke Mugen Tag File",
    "version": 1
  },
  "tag": {
    "i18n": {
      "eng": "Moreno"
    },
    "name": "Moreno",
    "tid": "0cc2d694-c131-4ef5-882d-f80428f420ae",
    "types": [
      "singers",
      "2"
    ],
    "repository": "kara.moe",
    "modified_at": "2020-03-31T19:04:36.492Z"
  }
}