{
  "header": {
    "description": "Karaoke Mugen Tag File",
    "version": 1
  },
  "tag": {
    "i18n": {
      "eng": "Mori"
    },
    "name": "Mori",
    "repository": "kara.moe",
    "tid": "fecfe7bd-e11c-4d89-832a-a1fbc70e1ec4",
    "types": [
      "singers",
      "2"
    ]
  }
}