{
  "header": {
    "description": "Karaoke Mugen Tag File",
    "version": 1
  },
  "tag": {
    "i18n": {
      "eng": "morimisa"
    },
    "modified_at": "2020-11-22T16:38:09.315Z",
    "name": "morimisa",
    "repository": "kara.moe",
    "tid": "7e89c767-feec-494b-9f91-53b2fcfad863",
    "types": [
      "songwriters",
      "8"
    ]
  }
}