{
  "header": {
    "description": "Karaoke Mugen Tag File",
    "version": 1
  },
  "tag": {
    "i18n": {
      "eng": "Morning Musume.",
      "jpn": "モーニング娘.",
      "qro": "Morning Musume."
    },
    "name": "Morning Musume.",
    "repository": "kara.moe",
    "tid": "94320683-0d79-407f-a8ae-5b0c2a19f187",
    "types": [
      "singergroups",
      "17"
    ]
  }
}