{
  "header": {
    "description": "Karaoke Mugen Tag File",
    "version": 1
  },
  "tag": {
    "i18n": {
      "eng": "Mosaert"
    },
    "name": "Mosaert",
    "repository": "kara.moe",
    "tid": "e4e9a094-8651-4ffa-babe-43fb106b86d4",
    "types": [
      "creators",
      "4"
    ]
  }
}