{
  "header": {
    "description": "Karaoke Mugen Tag File",
    "version": 1
  },
  "tag": {
    "aliases": [
      "If God Were to Exist in This World",
      "MoshiKami",
      "もし神"
    ],
    "i18n": {
      "eng": "Moshi, Kono Sekai ni Kami-sama ga Iru to suru Naraba.",
      "jpn": "もし、この世界に神様がいるとするならば。",
      "qro": "Moshi, Kono Sekai ni Kami-sama ga Iru to suru Naraba."
    },
    "modified_at": "2020-03-31T19:04:32.275Z",
    "name": "Moshi, Kono Sekai ni Kami-sama ga Iru to suru Naraba.",
    "repository": "kara.moe",
    "tid": "7760ddbf-953c-41b5-adac-ebd2249dcdcb",
    "types": [
      "series",
      "1"
    ]
  }
}