{
  "header": {
    "description": "Karaoke Mugen Tag File",
    "version": 1
  },
  "tag": {
    "i18n": {
      "eng": "Motoki Michihiro"
    },
    "modified_at": "2021-06-24T10:44:07.088Z",
    "name": "Motoki Michihiro",
    "repository": "kara.moe",
    "tid": "c5745124-91fb-422e-a6d9-21f9c68558c1",
    "types": [
      "songwriters",
      "8"
    ]
  }
}