{
  "header": {
    "description": "Karaoke Mugen Tag File",
    "version": 1
  },
  "tag": {
    "i18n": {
      "eng": "\"Ippon\" again!",
      "jpn": "もういっぽん！",
      "qro": "Mou Ippon!"
    },
    "name": "Mou Ippon!",
    "repository": "kara.moe",
    "tid": "e723c308-7037-4ab9-88d2-97a7418e44c3",
    "types": [
      "series",
      "1"
    ]
  }
}