{
  "header": {
    "description": "Karaoke Mugen Tag File",
    "version": 1
  },
  "tag": {
    "i18n": {
      "eng": "moumoon"
    },
    "name": "moumoon",
    "tid": "3f898def-74a5-4817-9838-22b46717b4fe",
    "types": [
      "singers",
      "2"
    ],
    "repository": "kara.moe",
    "modified_at": "2020-03-31T19:04:36.508Z"
  }
}