{
  "header": {
    "description": "Karaoke Mugen Tag File",
    "version": 1
  },
  "tag": {
    "i18n": {
      "eng": "Moyu Arishima"
    },
    "name": "Moyu Arishima",
    "tid": "0c78c6bc-985e-4bdb-b264-53f5f1b3442b",
    "types": [
      "singers",
      "2"
    ],
    "repository": "kara.moe",
    "modified_at": "2020-03-31T19:04:36.512Z"
  }
}