{
  "header": {
    "description": "Karaoke Mugen Tag File",
    "version": 1
  },
  "tag": {
    "i18n": {
      "eng": "Mozart"
    },
    "name": "Mozart",
    "tid": "96c9bc17-d908-441d-b7e1-ae2ef5ca9fc0",
    "types": [
      "songwriters",
      "8"
    ],
    "repository": "kara.moe",
    "modified_at": "2020-03-31T19:04:36.512Z"
  }
}