{
  "header": {
    "description": "Karaoke Mugen Tag File",
    "version": 1
  },
  "tag": {
    "i18n": {
      "eng": "Mozart l'Opéra Rock"
    },
    "name": "Mozart l'Opéra Rock",
    "repository": "kara.moe",
    "tid": "91f0c410-bb44-4a25-8087-e0f2bc2439f9",
    "types": [
      "singers",
      "2",
      "series",
      "1"
    ]
  }
}