{
  "header": {
    "description": "Karaoke Mugen Tag File",
    "version": 1
  },
  "tag": {
    "i18n": {
      "eng": "MrKyubu"
    },
    "modified_at": "2020-05-04T19:16:44.654Z",
    "name": "MrKyubu",
    "repository": "kara.moe",
    "tid": "5cb3d0c5-479e-4224-b6ec-b27209e933a0",
    "types": [
      "authors",
      "6"
    ]
  }
}