{
  "header": {
    "description": "Karaoke Mugen Tag File",
    "version": 1
  },
  "tag": {
    "i18n": {
      "eng": "MTB"
    },
    "name": "MTB",
    "repository": "kara.moe",
    "tid": "5ad0c994-5c25-4edc-9349-f2681e76201f",
    "types": [
      "creators",
      "4"
    ]
  }
}