{
  "header": {
    "description": "Karaoke Mugen Tag File",
    "version": 1
  },
  "tag": {
    "aliases": [
      "Mugen no Juunin",
      "L'immortale",
      "Nemirtingojo Kardas",
      "Ostří Nesmrtelného",
      "Ölümsüzün Kılıcı",
      "Клинок Бессмертного",
      "Острието на безсмъртния",
      "無限之住人"
    ],
    "external_database_ids": {
      "anilist": 4151,
      "myanimelist": 4151,
      "kitsu": 3490
    },
    "i18n": {
      "eng": "Blade of the Immortal",
      "jpn": "無限の住人",
      "por": "Blade: A Lâmina do Imortal",
      "pol": "Miecz Nieśmiertelnego",
      "kor": "무한의 주인",
      "fre": "L'habitant de l`infini"
    },
    "name": "Mugen no Jûnin",
    "repository": "kara.moe",
    "tid": "7e225f55-0d9a-4587-a6ac-0b47c05bed4e",
    "types": [
      "series",
      "1"
    ]
  }
}