{
  "header": {
    "description": "Karaoke Mugen Tag File",
    "version": 1
  },
  "tag": {
    "i18n": {
      "eng": "Mukai Live"
    },
    "modified_at": "2020-11-14T14:32:59.742Z",
    "name": "Mukai Live",
    "repository": "kara.moe",
    "tid": "99229d7e-7cbe-4ceb-a886-3fb6d82adf59",
    "types": [
      "singers",
      "2"
    ]
  }
}