{
  "header": {
    "description": "Karaoke Mugen Tag File",
    "version": 1
  },
  "tag": {
    "i18n": {
      "fre": "Multi-langues",
      "eng": "Multiple languages"
    },
    "name": "mul",
    "tid": "1a23082a-620c-4bd8-9930-64d1798515c1",
    "types": [
      "langs",
      "5"
    ],
    "repository": "kara.moe",
    "modified_at": "2020-03-31T19:04:36.516Z"
  }
}