{
  "header": {
    "description": "Karaoke Mugen Tag File",
    "version": 1
  },
  "tag": {
    "aliases": [
      "Munou na Nana",
      "Бездарная Нана",
      "عديمة القدرة نانا",
      "munou"
    ],
    "external_database_ids": {
      "anilist": 117343,
      "myanimelist": 41619,
      "kitsu": 43534
    },
    "i18n": {
      "eng": "Talentless Nana",
      "jpn": "無能なナナ",
      "qro": "Munô na Nana"
    },
    "modified_at": "2020-10-23T17:10:29.427Z",
    "name": "Munô na Nana",
    "repository": "kara.moe",
    "tid": "6248f167-d2a6-4fb2-8a77-a9935a4c46c3",
    "types": [
      "series",
      "1"
    ]
  }
}