{
  "header": {
    "description": "Karaoke Mugen Tag File",
    "version": 1
  },
  "tag": {
    "i18n": {
      "eng": "murakumo × kubotabee"
    },
    "name": "murakumo × kubotabee",
    "tid": "6a78fc51-5f54-4e7f-8928-107c21cb4f9c",
    "types": [
      "creators",
      "4"
    ],
    "repository": "kara.moe",
    "modified_at": "2020-03-31T19:04:36.518Z"
  }
}