{
  "header": {
    "description": "Karaoke Mugen Tag File",
    "version": 1
  },
  "tag": {
    "i18n": {
      "eng": "Murasaki (MiddleIsland)"
    },
    "name": "Murasaki (MiddleIsland)",
    "tid": "83894b1c-954e-4f8f-8b06-185dc0bf9755",
    "types": [
      "singers",
      "2"
    ],
    "repository": "kara.moe",
    "modified_at": "2020-03-31T19:04:36.520Z"
  }
}