{
  "header": {
    "description": "Karaoke Mugen Tag File",
    "version": 1
  },
  "tag": {
    "i18n": {
      "eng": "Murakaruki"
    },
    "name": "Murakaruki",
    "repository": "kara.moe",
    "tid": "79a04ac1-715a-4998-9375-07b904877795",
    "types": [
      "creators",
      "4"
    ]
  }
}