{
  "header": {
    "description": "Karaoke Mugen Tag File",
    "version": 1
  },
  "tag": {
    "i18n": {
      "eng": "Musashino Animation"
    },
    "name": "Musashino Animation",
    "tid": "2d6661ee-86b9-412a-9e4c-7839f2364561",
    "types": [
      "creators",
      "4"
    ],
    "repository": "kara.moe",
    "modified_at": "2020-03-31T19:04:36.521Z"
  }
}