{
  "header": {
    "description": "Karaoke Mugen Tag File",
    "version": 1
  },
  "tag": {
    "i18n": {
      "eng": "MusicRay'n Inc"
    },
    "name": "MusicRay'n Inc",
    "tid": "a18c849a-abcc-43a7-92e3-a269c50d4eff",
    "types": [
      "creators",
      "4"
    ],
    "repository": "kara.moe",
    "modified_at": "2020-03-31T19:04:36.523Z"
  }
}