{
  "header": {
    "description": "Karaoke Mugen Tag File",
    "version": 1
  },
  "tag": {
    "i18n": {
      "eng": "MusicalMike"
    },
    "name": "MusicalMike",
    "repository": "kara.moe",
    "tid": "f44573ef-5a35-46c0-b981-242776d082e0",
    "types": [
      "singers",
      "2"
    ]
  }
}