{
  "header": {
    "description": "Karaoke Mugen Tag File",
    "version": 1
  },
  "tag": {
    "i18n": {
      "eng": "Musical Academy"
    },
    "name": "Musical Academy",
    "tid": "ed419d77-bbeb-4418-a805-319066781a51",
    "types": [
      "singers",
      "2"
    ],
    "repository": "kara.moe",
    "modified_at": "2020-03-31T19:04:36.522Z"
  }
}