{
  "header": {
    "description": "Karaoke Mugen Tag File",
    "version": 1
  },
  "tag": {
    "i18n": {
      "eng": "mustangfred"
    },
    "modified_at": "2021-05-20T17:41:14.155Z",
    "name": "mustangfred",
    "repository": "kara.moe",
    "tid": "90414ca0-ab36-4879-8810-b032c6bfdab0",
    "types": [
      "authors",
      "6"
    ]
  }
}