{
  "header": {
    "description": "Karaoke Mugen Tag File",
    "version": 1
  },
  "tag": {
    "aliases": [
      "Muteking (2021)"
    ],
    "external_database_ids": {
      "anilist": 109745,
      "myanimelist": 39893,
      "kitsu": 44236
    },
    "i18n": {
      "eng": "MUTEKING THE Dancing HERO"
    },
    "modified_at": "2021-09-17T11:38:19.561Z",
    "name": "MUTEKING THE Dancing HERO",
    "repository": "kara.moe",
    "tid": "7ac4f243-3801-42bb-9534-842107c1e27b",
    "types": [
      "series",
      "1"
    ]
  }
}