{
  "header": {
    "description": "Karaoke Mugen Tag File",
    "version": 1
  },
  "tag": {
    "i18n": {
      "eng": "Mute Records"
    },
    "modified_at": "2020-08-15T19:46:00.678Z",
    "name": "Mute Records",
    "repository": "kara.moe",
    "tid": "ea122c9c-30da-4ba9-b014-de3579d27520",
    "types": [
      "creators",
      "4"
    ]
  }
}