{
  "header": {
    "description": "Karaoke Mugen Tag File",
    "version": 1
  },
  "tag": {
    "aliases": [
      "Muv-Luv Unlimited: The Day After"
    ],
    "i18n": {
      "eng": "Muv-Luv Alternative Chronicles",
      "jpn": "マブラヴ オルタネイティヴ クロニクルズ",
      "qro": "Muv-Luv Alternative Chronicles"
    },
    "modified_at": "2020-03-31T19:04:32.294Z",
    "name": "Muv-Luv Alternative Chronicles",
    "repository": "kara.moe",
    "tid": "874fe9d1-3d38-4b83-89af-09e399ce1b1d",
    "types": [
      "series",
      "1"
    ]
  }
}