{
  "header": {
    "description": "Karaoke Mugen Tag File",
    "version": 1
  },
  "tag": {
    "i18n": {
      "eng": "Muv-Luv photonflowers*",
      "jpn": "マブラヴ photonflowers*",
      "qro": "Muv-Luv photonflowers"
    },
    "modified_at": "2020-03-31T19:04:32.295Z",
    "name": "Muv-Luv photonflowers",
    "repository": "kara.moe",
    "tid": "71c0b763-0aea-4019-b67b-6fba48a7121f",
    "types": [
      "series",
      "1"
    ]
  }
}