{
  "header": {
    "description": "Karaoke Mugen Tag File",
    "version": 1
  },
  "tag": {
    "aliases": [
      "MLP",
      "MLP FIM"
    ],
    "i18n": {
      "eng": "My Little Pony: Friendship is Magic",
      "fre": "My Little Pony : Les amies, c'est magique",
      "jpn": "マイリトルポニー〜トモダチは魔法〜",
      "qro": "My Little Pony Friendship is Magic"
    },
    "modified_at": "2020-03-31T19:04:32.297Z",
    "name": "My Little Pony Friendship is Magic",
    "repository": "kara.moe",
    "tid": "3e6e8fd3-c345-43c2-b72e-9388760730b3",
    "types": [
      "series",
      "1"
    ]
  }
}