{
  "header": {
    "description": "Karaoke Mugen Tag File",
    "version": 1
  },
  "tag": {
    "i18n": {
      "eng": "MyFuckinMess"
    },
    "modified_at": "2021-06-01T17:02:07.491Z",
    "name": "MyFuckinMess",
    "repository": "kara.moe",
    "tid": "e7bdf0b7-d0a7-45d8-95e2-93f73be264b7",
    "types": [
      "creators",
      "4"
    ]
  }
}