{
  "header": {
    "description": "Karaoke Mugen Tag File",
    "version": 1
  },
  "tag": {
    "aliases": [
      "Myself Yourself",
      "m;y",
      "myyour",
      "Я; Ти",
      "Я; Ты",
      "マイセルフ;ユアセルフ",
      "myself"
    ],
    "external_database_ids": {
      "anilist": 2926,
      "myanimelist": 2926,
      "kitsu": 2650
    },
    "i18n": {
      "eng": "Myself; Yourself",
      "jpn": "Myself; Yourself",
      "qro": "Myself; Yourself"
    },
    "modified_at": "2020-03-31T19:04:32.299Z",
    "name": "Myself; Yourself",
    "repository": "kara.moe",
    "tid": "bb83e6eb-b786-4c97-920f-9e19b4f3298e",
    "types": [
      "series",
      "1"
    ]
  }
}