{
  "header": {
    "description": "Karaoke Mugen Tag File",
    "version": 1
  },
  "tag": {
    "i18n": {
      "eng": "Myuuji"
    },
    "name": "Myuuji",
    "tid": "91f754df-84a2-471c-a378-d4d692ada307",
    "types": [
      "singers",
      "2"
    ],
    "repository": "kara.moe",
    "modified_at": "2020-03-31T19:04:36.530Z"
  }
}