{
  "header": {
    "description": "Karaoke Mugen Tag File",
    "version": 1
  },
  "tag": {
    "i18n": {
      "eng": "mztm"
    },
    "name": "mztm",
    "tid": "ea1c06a0-6370-4458-9adf-eeade82e87a1",
    "types": [
      "creators",
      "4"
    ],
    "repository": "kara.moe",
    "modified_at": "2020-03-31T19:04:36.531Z"
  }
}