{
  "header": {
    "description": "Karaoke Mugen Tag File",
    "version": 1
  },
  "tag": {
    "i18n": {
      "eng": "N K"
    },
    "name": "N K",
    "tid": "28810e2b-1ab6-4583-b223-7dfc77223acf",
    "types": [
      "songwriters",
      "8"
    ],
    "repository": "kara.moe",
    "modified_at": "2020-03-31T19:04:36.532Z"
  }
}