{
  "header": {
    "description": "Karaoke Mugen Tag File",
    "version": 1
  },
  "tag": {
    "i18n": {
      "eng": "NA.ZU.NA"
    },
    "name": "NA.ZU.NA",
    "repository": "kara.moe",
    "tid": "bb18c88e-67ce-41c4-ada4-537a3338f392",
    "types": [
      "songwriters",
      "8"
    ]
  }
}