{
  "header": {
    "description": "Karaoke Mugen Tag File",
    "version": 1
  },
  "tag": {
    "i18n": {
      "eng": "Nadine Delanoë"
    },
    "name": "Nadine Delanoë",
    "tid": "5db9d613-8e70-467c-b837-c51e65a44198",
    "types": [
      "songwriters",
      "8",
      "singers",
      "2"
    ],
    "repository": "kara.moe",
    "modified_at": "2020-03-31T19:04:36.536Z"
  }
}