{
  "header": {
    "description": "Karaoke Mugen Tag File",
    "version": 1
  },
  "tag": {
    "i18n": {
      "eng": "Nae Futaba"
    },
    "name": "Nae Futaba",
    "repository": "kara.moe",
    "tid": "3ec0f0e4-9603-4eb0-8ee5-2c05f3873b4c",
    "types": [
      "singers",
      "2"
    ]
  }
}