{
  "header": {
    "description": "Karaoke Mugen Tag File",
    "version": 1
  },
  "tag": {
    "i18n": {
      "eng": "Nagao Shizune"
    },
    "modified_at": "2021-01-18T21:27:39.768Z",
    "name": "Nagao Shizune",
    "repository": "kara.moe",
    "tid": "0ff39467-f8cd-416e-b660-fc3dd6c0a469",
    "types": [
      "singers",
      "2"
    ]
  }
}