{
  "header": {
    "description": "Karaoke Mugen Tag File",
    "version": 1
  },
  "tag": {
    "aliases": [
      "Nagato Yuki-chan no Shoushitsu",
      "The Disappearance of Nagato Yuki Chan",
      "The Vanishing of Nagato Yuki-chan",
      "shoushitsu"
    ],
    "external_database_ids": {
      "anilist": 20566,
      "myanimelist": 26351,
      "kitsu": 8144
    },
    "i18n": {
      "eng": "The Disappearance of Nagato Yuki-chan",
      "fre": "La disparition de Yuki Nagato",
      "jpn": "長門有希ちゃんの消失",
      "kor": "나가토 유키짱의 소실",
      "qro": "Nagato Yuki-chan no Shôshitsu"
    },
    "modified_at": "2020-03-31T19:04:32.300Z",
    "name": "Nagato Yuki-chan no Shôshitsu",
    "repository": "kara.moe",
    "tid": "5502f724-0c2c-4d36-a497-a68110baca28",
    "types": [
      "series",
      "1"
    ]
  }
}