{
  "header": {
    "description": "Karaoke Mugen Tag File",
    "version": 1
  },
  "tag": {
    "i18n": {
      "eng": "Nagimiso.SYS"
    },
    "modified_at": "2020-07-12T17:42:35.250Z",
    "name": "Nagimiso.SYS",
    "repository": "kara.moe",
    "tid": "f686293e-633b-4c1b-99cb-a2a8ccd84157",
    "types": [
      "creators",
      "4"
    ]
  }
}