{
  "header": {
    "description": "Karaoke Mugen Tag File",
    "version": 1
  },
  "tag": {
    "i18n": {
      "eng": "Nagomi Saijô"
    },
    "name": "Nagomi Saijô",
    "repository": "kara.moe",
    "tid": "9703f71e-fd40-405a-8ae1-642cec3ef6c6",
    "types": [
      "singers",
      "2"
    ],
    "modified_at": "2020-03-31T19:04:36.541Z"
  }
}