{
  "header": {
    "description": "Karaoke Mugen Tag File",
    "version": 1
  },
  "tag": {
    "i18n": {
      "eng": "Naheulband"
    },
    "name": "Naheulband",
    "tid": "c64d2f28-d20d-4092-a68a-b2e298973b6a",
    "types": [
      "singers",
      "2",
      "songwriters",
      "8"
    ],
    "repository": "kara.moe",
    "modified_at": "2020-03-31T19:04:36.542Z"
  }
}