{
  "header": {
    "description": "Karaoke Mugen Tag File",
    "version": 1
  },
  "tag": {
    "i18n": {
      "eng": "NAHO"
    },
    "name": "NAHO",
    "repository": "kara.moe",
    "tid": "02fc987a-c694-479e-8df5-81b507058f8e",
    "types": [
      "singers",
      "2"
    ]
  }
}