{
  "header": {
    "description": "Karaoke Mugen Tag File",
    "version": 1
  },
  "tag": {
    "i18n": {
      "eng": "Nai Br.XX"
    },
    "name": "Nai Br.XX",
    "tid": "6523c4c6-8004-4599-9e41-316602872984",
    "types": [
      "singers",
      "2"
    ],
    "repository": "kara.moe",
    "modified_at": "2020-03-31T19:04:36.544Z"
  }
}