{
  "header": {
    "description": "Karaoke Mugen Tag File",
    "version": 1
  },
  "tag": {
    "i18n": {
      "eng": "Nakametal"
    },
    "modified_at": "2020-08-16T17:58:03.624Z",
    "name": "Nakametal",
    "repository": "kara.moe",
    "tid": "ee6b1d35-a97b-4aa3-a904-d6e423f153c3",
    "types": [
      "songwriters",
      "8"
    ]
  }
}