{
  "header": {
    "description": "Karaoke Mugen Tag File",
    "version": 1
  },
  "tag": {
    "i18n": {
      "eng": "Nakajima Obawo"
    },
    "name": "Nakajima Obawo",
    "tid": "efc07be9-a8af-4ade-b502-bd696939e39b",
    "types": [
      "songwriters",
      "8"
    ],
    "repository": "kara.moe",
    "modified_at": "2020-03-31T19:04:36.547Z"
  }
}