{
  "header": {
    "description": "Karaoke Mugen Tag File",
    "version": 1
  },
  "tag": {
    "i18n": {
      "eng": "NakazatoTakeshi"
    },
    "name": "NakazatoTakeshi",
    "repository": "kara.moe",
    "tid": "44d75c35-655d-4233-83f8-db54871f5395",
    "types": [
      "creators",
      "4"
    ]
  }
}