{
  "header": {
    "description": "Karaoke Mugen Tag File",
    "version": 1
  },
  "tag": {
    "i18n": {
      "eng": "Nako Yabuki"
    },
    "name": "Nako Yabuki",
    "repository": "kara.moe",
    "tid": "a8d1c779-9221-4db7-a44f-754fd338cf07",
    "types": [
      "singers",
      "2"
    ]
  }
}