{
  "header": {
    "description": "Karaoke Mugen Tag File",
    "version": 1
  },
  "tag": {
    "i18n": {
      "eng": "Nami Miyahara"
    },
    "name": "Nami Miyahara",
    "tid": "a25e433f-89a6-47d2-b3df-5dcd692df4c1",
    "types": [
      "singers",
      "2"
    ],
    "repository": "kara.moe",
    "modified_at": "2020-03-31T19:04:36.553Z"
  }
}