{
  "header": {
    "description": "Karaoke Mugen Tag File",
    "version": 1
  },
  "tag": {
    "aliases": [
      "muromi"
    ],
    "external_database_ids": {
      "anilist": 16910,
      "myanimelist": 16910,
      "kitsu": 7549
    },
    "i18n": {
      "eng": "Muromi-san",
      "jpn": "波打際のむろみさん",
      "qro": "Namiuchigiwa no Muromi-san"
    },
    "modified_at": "2020-03-31T19:04:32.302Z",
    "name": "Namiuchigiwa no Muromi-san",
    "repository": "kara.moe",
    "tid": "a7e0c0ae-8e42-4e48-a7b7-6662cc44c626",
    "types": [
      "series",
      "1"
    ]
  }
}