{
  "header": {
    "description": "Karaoke Mugen Tag File",
    "version": 1
  },
  "tag": {
    "i18n": {
      "eng": "Namika"
    },
    "modified_at": "2020-04-15T17:00:01.143Z",
    "name": "Namika",
    "repository": "kara.moe",
    "tid": "d3a9a85f-bcb7-419f-90d0-345714ad72c8",
    "types": [
      "songwriters",
      "8"
    ]
  }
}