{
  "header": {
    "description": "Karaoke Mugen Tag File",
    "version": 1
  },
  "tag": {
    "i18n": {
      "eng": "Nami Minami"
    },
    "modified_at": "2021-01-29T01:02:29.877Z",
    "name": "Nami Minami",
    "repository": "kara.moe",
    "tid": "9ef47cf8-d5aa-43ff-87e1-3e83b5135eb9",
    "types": [
      "singers",
      "2"
    ]
  }
}