{
  "header": {
    "description": "Karaoke Mugen Tag File",
    "version": 1
  },
  "tag": {
    "i18n": {
      "eng": "Nami Nakagawa"
    },
    "name": "Nami Nakagawa",
    "tid": "7989d67d-e923-4ea9-8957-dc672ada1921",
    "types": [
      "singers",
      "2"
    ],
    "repository": "kara.moe",
    "modified_at": "2020-03-31T19:04:36.554Z"
  }
}