{
  "header": {
    "description": "Karaoke Mugen Tag File",
    "version": 1
  },
  "tag": {
    "external_database_ids": {
      "anilist": 776,
      "myanimelist": 776,
      "kitsu": 694
    },
    "i18n": {
      "eng": "Nanaka 6/17",
      "jpn": "ななか6/17",
      "qro": "Nanaka 6-17"
    },
    "modified_at": "2020-03-31T19:04:32.304Z",
    "name": "Nanaka 6-17",
    "repository": "kara.moe",
    "tid": "6662b9df-1865-409d-91c6-9f0f447a7840",
    "types": [
      "series",
      "1"
    ]
  }
}