{
  "header": {
    "description": "Karaoke Mugen Tag File",
    "version": 1
  },
  "tag": {
    "i18n": {
      "eng": "Nana Nakayama"
    },
    "modified_at": "2020-04-26T00:13:18.441Z",
    "name": "Nana Nakayama",
    "repository": "kara.moe",
    "tid": "2410b6d8-538a-4230-9f7c-a6670f359050",
    "types": [
      "songwriters",
      "8"
    ]
  }
}