{
  "header": {
    "description": "Karaoke Mugen Tag File",
    "version": 1
  },
  "tag": {
    "aliases": [
      "7O3X",
      "7O3X Fastest Finger First",
      "7O3X-0.01초의 싸움",
      "Nanamaru Sanbatsu",
      "quiz animation",
      "quizz animation"
    ],
    "external_database_ids": {
      "anilist": 97979,
      "myanimelist": 34580,
      "kitsu": 13263
    },
    "i18n": {
      "eng": "Fastest Finger First",
      "jpn": "ナナマル サンバツ",
      "qro": "Nana Maru San Batsu"
    },
    "modified_at": "2020-03-31T19:04:32.302Z",
    "name": "Nana Maru San Batsu",
    "repository": "kara.moe",
    "tid": "ce2b10ec-7cdc-4780-ab23-47abd2b633a9",
    "types": [
      "series",
      "1"
    ]
  }
}