{
  "header": {
    "description": "Karaoke Mugen Tag File",
    "version": 1
  },
  "tag": {
    "i18n": {
      "eng": "Nana (Make Flow, Inc)"
    },
    "modified_at": "2021-01-20T00:05:09.365Z",
    "name": "Nana (Make Flow, Inc)",
    "repository": "kara.moe",
    "tid": "90efb83c-c033-40d9-8713-673e7bf39c6e",
    "types": [
      "songwriters",
      "8"
    ]
  }
}