{
  "header": {
    "description": "Karaoke Mugen Tag File",
    "version": 1
  },
  "tag": {
    "i18n": {
      "eng": "Nanami Atsugi"
    },
    "name": "Nanami Atsugi",
    "tid": "e61ea2d1-ade4-4208-882a-23535bf70384",
    "types": [
      "singers",
      "2"
    ],
    "repository": "kara.moe",
    "modified_at": "2020-03-31T19:04:36.561Z"
  }
}