{
  "header": {
    "description": "Karaoke Mugen Tag File",
    "version": 1
  },
  "tag": {
    "i18n": {
      "eng": "Nana Kitade"
    },
    "name": "Nana Kitade",
    "tid": "a4bf3008-03ce-4109-a27f-9227ac5b8dac",
    "types": [
      "singers",
      "2",
      "songwriters",
      "8"
    ],
    "repository": "kara.moe",
    "modified_at": "2020-03-31T19:04:36.558Z"
  }
}