{
  "header": {
    "description": "Karaoke Mugen Tag File",
    "version": 1
  },
  "tag": {
    "i18n": {
      "eng": "nana (Sevencolors)"
    },
    "name": "nana (Sevencolors)",
    "tid": "b2d96441-7973-4f0c-acb9-b7f4ce53da40",
    "types": [
      "songwriters",
      "8"
    ],
    "repository": "kara.moe",
    "modified_at": "2020-03-31T19:04:36.557Z"
  }
}