{
  "header": {
    "description": "Karaoke Mugen Tag File",
    "version": 1
  },
  "tag": {
    "i18n": {
      "eng": "Nanami Yoshi."
    },
    "name": "Nanami Yoshi.",
    "repository": "kara.moe",
    "tid": "3863705c-825f-4fc0-830b-33dbc976c190",
    "types": [
      "singers",
      "2"
    ]
  }
}