{
  "header": {
    "description": "Karaoke Mugen Tag File",
    "version": 1
  },
  "tag": {
    "i18n": {
      "eng": "Nanase Matsuoka"
    },
    "modified_at": "2020-11-22T16:24:17.476Z",
    "name": "Nanase Matsuoka",
    "repository": "kara.moe",
    "tid": "01a7f307-8e99-46f9-86b6-b52057ca9926",
    "types": [
      "singers",
      "2"
    ]
  }
}