{
  "header": {
    "description": "Karaoke Mugen Tag File",
    "version": 1
  },
  "tag": {
    "aliases": [
      "Nana tv",
      "Нана",
      "نانا",
      "娜娜"
    ],
    "external_database_ids": {
      "anilist": 877,
      "myanimelist": 877,
      "kitsu": 777
    },
    "i18n": {
      "cze": "Nana",
      "eng": "Nana",
      "fre": "Nana",
      "hun": "Nana",
      "ita": "Nana",
      "jpn": "ナナ",
      "kor": "나나",
      "pol": "Nana",
      "por": "Nana",
      "rum": "Nana",
      "tha": "นานะ",
      "qro": "NANA"
    },
    "modified_at": "2020-06-21T23:45:31.966Z",
    "name": "NANA",
    "repository": "kara.moe",
    "tid": "6393edba-8ecb-44e6-8a1d-e80b6e007a12",
    "types": [
      "series",
      "1"
    ]
  }
}