{
  "header": {
    "description": "Karaoke Mugen Tag File",
    "version": 1
  },
  "tag": {
    "i18n": {
      "eng": "Nanase Ookawa"
    },
    "name": "Nanase Ookawa",
    "tid": "73525bf5-806c-4f56-b5c1-295b2ae9fde0",
    "types": [
      "songwriters",
      "8"
    ],
    "repository": "kara.moe",
    "modified_at": "2020-03-31T19:04:36.565Z"
  }
}