{
  "header": {
    "description": "Karaoke Mugen Tag File",
    "version": 1
  },
  "tag": {
    "i18n": {
      "eng": "Nanaironote"
    },
    "name": "Nanaironote",
    "repository": "kara.moe",
    "tid": "0805dc40-82b2-4ccf-b2a4-80e28dd427bc",
    "types": [
      "singergroups",
      "17"
    ]
  }
}