{
  "header": {
    "description": "Karaoke Mugen Tag File",
    "version": 1
  },
  "tag": {
    "i18n": {
      "eng": "Nanase (TUMENECO)"
    },
    "name": "Nanase (TUMENECO)",
    "repository": "kara.moe",
    "tid": "bb84fba6-792e-4225-a634-d1f51284ad49",
    "types": [
      "songwriters",
      "8"
    ]
  }
}