{
  "header": {
    "description": "Karaoke Mugen Tag File",
    "version": 1
  },
  "tag": {
    "aliases": [
      "Sae"
    ],
    "i18n": {
      "eng": "Nanami Yumihara"
    },
    "modified_at": "2021-03-08T18:45:40.219Z",
    "name": "Nanami Yumihara",
    "repository": "kara.moe",
    "tid": "4aade1f0-8020-4d01-9d34-37668bdc201b",
    "types": [
      "singers",
      "2"
    ]
  }
}