{
  "header": {
    "description": "Karaoke Mugen Tag File",
    "version": 1
  },
  "tag": {
    "aliases": [
      "sds4"
    ],
    "external_database_ids": {
      "anilist": 116752,
      "kitsu": 43458,
      "myanimelist": 41491
    },
    "i18n": {
      "eng": "The Seven Deadly Sins : Dragon's Judgement",
      "jpn": "七つの大罪 憤怒の審判",
      "qro": "Nanatsu no Taizai: Funnu no Shinpan",
      "pol": "The Seven Deadly Sins: Smoczy Rozsądek",
      "chi": "七大罪 愤怒的审判"
    },
    "name": "Nanatsu no Taizai: Funnu no Shinpan",
    "repository": "kara.moe",
    "tid": "44eedf53-284f-420a-bdae-099bfc58bb21",
    "types": [
      "series",
      "1"
    ]
  }
}