{
  "header": {
    "description": "Karaoke Mugen Tag File",
    "version": 1
  },
  "tag": {
    "i18n": {
      "eng": "Nanahira"
    },
    "modified_at": "2020-06-23T20:30:04.982Z",
    "name": "Nanahira",
    "repository": "kara.moe",
    "tid": "598804bf-5c62-4ae9-a6aa-cc414eac6781",
    "types": [
      "singers",
      "2"
    ]
  }
}