{
  "header": {
    "description": "Karaoke Mugen Tag File",
    "version": 1
  },
  "tag": {
    "external_database_ids": {
      "anilist": 21385,
      "myanimelist": 31722,
      "kitsu": 11414
    },
    "i18n": {
      "eng": "The Seven Deadly Sins: Signs of Holy War",
      "jpn": "七つの大罪 The Seven Deadly Sins 聖戦の予兆",
      "qro": "Nanatsu no Taizai: Seisen no Shirushi"
    },
    "modified_at": "2020-03-31T19:04:32.305Z",
    "name": "Nanatsu no Taizai: Seisen no Shirushi",
    "repository": "kara.moe",
    "tid": "e416352c-3111-4c51-ad65-a8d8601eef69",
    "types": [
      "series",
      "1"
    ]
  }
}