{
  "header": {
    "description": "Karaoke Mugen Tag File",
    "version": 1
  },
  "tag": {
    "i18n": {
      "eng": "NanaOn-Sha"
    },
    "name": "NanaOn-Sha",
    "repository": "kara.moe",
    "tid": "9db65546-fb51-4fed-a2c7-ad5afdef6c47",
    "types": [
      "creators",
      "4"
    ]
  }
}