{
  "header": {
    "description": "Karaoke Mugen Tag File",
    "version": 1
  },
  "tag": {
    "i18n": {
      "jpn": "AZUKI 七",
      "qro": "Nana Azuki"
    },
    "name": "Nana Azuki",
    "repository": "kara.moe",
    "tid": "9b87bc55-8b31-466e-b29f-512a03645641",
    "types": [
      "songwriters",
      "8"
    ]
  }
}