{
  "header": {
    "description": "Karaoke Mugen Tag File",
    "version": 1
  },
  "tag": {
    "aliases": [
      "Nambaka",
      "The Numbers"
    ],
    "external_database_ids": {
      "anilist": 21051,
      "myanimelist": 30016,
      "kitsu": 10467
    },
    "i18n": {
      "eng": "Nanbaka",
      "jpn": "ナンバカ",
      "kor": "난바카",
      "qro": "Nanbaka"
    },
    "modified_at": "2020-03-31T19:04:32.307Z",
    "name": "Nanbaka",
    "repository": "kara.moe",
    "tid": "640fe018-aef9-4208-afd6-2a9b4cc199b1",
    "types": [
      "series",
      "1"
    ]
  }
}