{
  "header": {
    "description": "Karaoke Mugen Tag File",
    "version": 1
  },
  "tag": {
    "i18n": {
      "eng": "Nancy Philippot"
    },
    "modified_at": "2020-04-17T21:30:42.485Z",
    "name": "Nancy Philippot",
    "repository": "kara.moe",
    "tid": "a13b6fe3-2eca-4578-abf6-efdb659b3705",
    "types": [
      "singers",
      "2"
    ]
  }
}