{
  "header": {
    "description": "Karaoke Mugen Tag File",
    "version": 1
  },
  "tag": {
    "external_database_ids": {
      "anilist": 104325,
      "myanimelist": 38397,
      "kitsu": 42060
    },
    "i18n": {
      "eng": "Why the Hell Are You Here, Teacher!?",
      "jpn": "なんでここに先生が!?",
      "qro": "Nande Koko ni Sensei ga!?"
    },
    "modified_at": "2020-03-31T19:04:32.309Z",
    "name": "Nande Koko ni Sensei ga!?",
    "repository": "kara.moe",
    "tid": "e7b57729-f70c-411c-bacc-2d7404e51328",
    "types": [
      "series",
      "1"
    ]
  }
}