{
  "header": {
    "description": "Karaoke Mugen Tag File",
    "version": 1
  },
  "tag": {
    "i18n": {
      "eng": "Nanette Workman"
    },
    "name": "Nanette Workman",
    "repository": "kara.moe",
    "tid": "262ac9c3-0890-4345-b097-067ca1338788",
    "types": [
      "singers",
      "2"
    ]
  }
}