{
  "header": {
    "description": "Karaoke Mugen Tag File",
    "version": 1
  },
  "tag": {
    "i18n": {
      "eng": "nano.RIPE"
    },
    "name": "nano.RIPE",
    "tid": "705e40f8-00f0-46e5-838a-4181d93de4b2",
    "types": [
      "singers",
      "2"
    ],
    "repository": "kara.moe",
    "modified_at": "2020-03-31T19:04:36.568Z"
  }
}