{
  "header": {
    "description": "Karaoke Mugen Tag File",
    "version": 1
  },
  "tag": {
    "i18n": {
      "eng": "nanovish"
    },
    "name": "nanovish",
    "tid": "2d68c67c-da04-4a1d-b699-82a05224365f",
    "types": [
      "songwriters",
      "8"
    ],
    "repository": "kara.moe",
    "modified_at": "2020-03-31T19:04:36.569Z"
  }
}