{
  "header": {
    "description": "Karaoke Mugen Tag File",
    "version": 1
  },
  "tag": {
    "i18n": {
      "eng": "nanogram"
    },
    "name": "nanogram",
    "repository": "kara.moe",
    "tid": "2b9c609c-b6f8-417c-bd64-98d01544a7ea",
    "types": [
      "creators",
      "4"
    ]
  }
}