{
  "header": {
    "description": "Karaoke Mugen Tag File",
    "version": 1
  },
  "tag": {
    "i18n": {
      "eng": "Nao Sasaki"
    },
    "name": "Nao Sasaki",
    "repository": "kara.moe",
    "tid": "bc759bff-3e5b-462d-8e45-1e1744f61494",
    "types": [
      "singers",
      "2"
    ]
  }
}