{
  "header": {
    "description": "Karaoke Mugen Tag File",
    "version": 1
  },
  "tag": {
    "i18n": {
      "eng": "Nao Kizuki",
      "qro": "Nao Kizuki",
      "jpn": "城月菜央"
    },
    "name": "Nao Kizuki",
    "repository": "kara.moe",
    "tid": "c3baa197-4895-4037-a497-a0dd7d427d00",
    "types": [
      "singers",
      "2"
    ]
  }
}