{
  "header": {
    "description": "Karaoke Mugen Tag File",
    "version": 1
  },
  "tag": {
    "i18n": {
      "eng": "Naoichiro Yamamoto"
    },
    "name": "Naoichiro Yamamoto",
    "repository": "kara.moe",
    "tid": "42516e25-6eb4-413f-82b4-112e725b7216",
    "types": [
      "songwriters",
      "8"
    ]
  }
}