{
  "header": {
    "description": "Karaoke Mugen Tag File",
    "version": 1
  },
  "tag": {
    "i18n": {
      "eng": "Naoki Maeda"
    },
    "name": "Naoki Maeda",
    "tid": "90f60ecb-339a-4272-ba93-bfb95260220c",
    "types": [
      "songwriters",
      "8"
    ],
    "repository": "kara.moe",
    "modified_at": "2020-03-31T19:04:36.582Z"
  }
}