{
  "header": {
    "description": "Karaoke Mugen Tag File",
    "version": 1
  },
  "tag": {
    "i18n": {
      "eng": "Naoki Oka"
    },
    "name": "Naoki Oka",
    "tid": "2a7de991-6e2e-4872-8b8e-aade313caaf7",
    "types": [
      "songwriters",
      "8"
    ],
    "repository": "kara.moe",
    "modified_at": "2020-03-31T19:04:36.583Z"
  }
}