{
  "header": {
    "description": "Karaoke Mugen Tag File",
    "version": 1
  },
  "tag": {
    "i18n": {
      "eng": "Naoki Akamatsu"
    },
    "name": "Naoki Akamatsu",
    "repository": "kara.moe",
    "tid": "bcf08f86-8683-4b6f-8bd2-553f7a9ea3ac",
    "types": [
      "songwriters",
      "8"
    ]
  }
}