{
  "header": {
    "description": "Karaoke Mugen Tag File",
    "version": 1
  },
  "tag": {
    "i18n": {
      "eng": "Naoko Takayama"
    },
    "name": "Naoko Takayama",
    "tid": "73fc05fe-20fc-4157-a278-b2df8ff91d36",
    "types": [
      "singers",
      "2",
      "songwriters",
      "8"
    ],
    "repository": "kara.moe",
    "modified_at": "2020-03-31T19:04:36.590Z"
  }
}