{
  "header": {
    "description": "Karaoke Mugen Tag File",
    "version": 1
  },
  "tag": {
    "i18n": {
      "eng": "Naoki"
    },
    "name": "Naoki",
    "tid": "fe307b69-54b0-43cf-a26b-54056cf231bf",
    "types": [
      "singers",
      "2"
    ],
    "repository": "kara.moe",
    "modified_at": "2020-03-31T19:04:36.587Z"
  }
}