{
  "header": {
    "description": "Karaoke Mugen Tag File",
    "version": 1
  },
  "tag": {
    "i18n": {
      "eng": "Naomi Kosaka"
    },
    "name": "Naomi Kosaka",
    "tid": "a22823df-f852-4fc3-9af7-f711e1b19dc9",
    "types": [
      "songwriters",
      "8"
    ],
    "repository": "kara.moe",
    "modified_at": "2020-03-31T19:04:36.592Z"
  }
}