{
  "header": {
    "description": "Karaoke Mugen Tag File",
    "version": 1
  },
  "tag": {
    "i18n": {
      "eng": "Naoto Okabe"
    },
    "name": "Naoto Okabe",
    "repository": "kara.moe",
    "tid": "0daada2b-f3b5-4971-937f-f79be5d8481a",
    "types": [
      "songwriters",
      "8"
    ]
  }
}