{
  "header": {
    "description": "Karaoke Mugen Tag File",
    "version": 1
  },
  "tag": {
    "i18n": {
      "eng": "Naoto Matohara"
    },
    "name": "Naoto Matohara",
    "tid": "225fe858-8713-49a8-b11c-82079b404a52",
    "types": [
      "songwriters",
      "8"
    ],
    "repository": "kara.moe",
    "modified_at": "2020-03-31T19:04:36.600Z"
  }
}