{
  "header": {
    "description": "Karaoke Mugen Tag File",
    "version": 1
  },
  "tag": {
    "i18n": {
      "eng": "Naoyuki Honzawa"
    },
    "name": "Naoyuki Honzawa",
    "tid": "e36b1d7d-1635-4307-a934-f1bc7b358a6e",
    "types": [
      "singers",
      "2",
      "songwriters",
      "8"
    ],
    "repository": "kara.moe",
    "modified_at": "2020-03-31T19:04:36.604Z"
  }
}