{
  "header": {
    "description": "Karaoke Mugen Tag File",
    "version": 1
  },
  "tag": {
    "i18n": {
      "eng": "Naoya Kurosawa"
    },
    "name": "Naoya Kurosawa",
    "tid": "b2e8b682-fb79-4418-a5c9-471dd3e433de",
    "types": [
      "songwriters",
      "8"
    ],
    "repository": "kara.moe",
    "modified_at": "2020-03-31T19:04:36.602Z"
  }
}