{
  "header": {
    "description": "Karaoke Mugen Tag File",
    "version": 1
  },
  "tag": {
    "i18n": {
      "eng": "Narmak"
    },
    "name": "Narmak",
    "tid": "22429270-bbcc-402c-a87d-64fbecad9138",
    "types": [
      "creators",
      "4"
    ],
    "repository": "kara.moe",
    "modified_at": "2020-03-31T19:04:36.611Z"
  }
}