{
  "header": {
    "description": "Karaoke Mugen Tag File",
    "version": 1
  },
  "tag": {
    "aliases": [
      "Narue'nin Dünyası",
      "Narue's world",
      "nns"
    ],
    "external_database_ids": {
      "anilist": 840,
      "myanimelist": 840,
      "kitsu": 745
    },
    "i18n": {
      "eng": "The World of Narue",
      "jpn": "成恵の世界",
      "tha": "นารุเอะ อลวนลุ้นรักสาวต่างดาว",
      "qro": "Narue no Sekai"
    },
    "modified_at": "2020-06-21T23:45:31.966Z",
    "name": "Narue no Sekai",
    "repository": "kara.moe",
    "tid": "dae399fe-c5e5-40d8-aecf-b9ea5d0829ef",
    "types": [
      "series",
      "1"
    ]
  }
}