{
  "header": {
    "description": "Karaoke Mugen Tag File",
    "version": 1
  },
  "tag": {
    "i18n": {
      "eng": "Naruhisa Arakawa"
    },
    "name": "Naruhisa Arakawa",
    "tid": "7871486d-1e10-4112-95ff-d7ffc1ee1fad",
    "types": [
      "songwriters",
      "8"
    ],
    "repository": "kara.moe",
    "modified_at": "2020-03-31T19:04:36.612Z"
  }
}