{
  "header": {
    "description": "Karaoke Mugen Tag File",
    "version": 1
  },
  "tag": {
    "aliases": [
      "NARUTO -ナルト- SD ロック・リーの青春フルパワー忍伝",
      "NARUTOSD ロック・リーの青春フルパワー忍伝",
      "Naruto SD - Rock Lee no Seishun Full-Power Ninden"
    ],
    "external_database_ids": {
      "anilist": 12979,
      "myanimelist": 12979,
      "kitsu": 6861
    },
    "i18n": {
      "eng": "NARUTO Spin-Off: Rock Lee & His Ninja Pals",
      "jpn": "NARUTO SD[すごいどりょく] ロック・リーの青春フルパワー忍伝",
      "por": "Naruto Rock Lee",
      "chi": "火影忍者SD 李洛克的青春全力忍传",
      "qro": "Naruto Sugoi Doryoku: Rock Lee no Seishun Full-Power Ninden"
    },
    "modified_at": "2021-03-08T19:18:05.449Z",
    "name": "Naruto Sugoi Doryoku: Rock Lee no Seishun Full-Power Ninden",
    "repository": "kara.moe",
    "tid": "a07f222c-9c89-4f72-bcc3-844988de9411",
    "types": [
      "series",
      "1"
    ]
  }
}