{
  "header": {
    "description": "Karaoke Mugen Tag File",
    "version": 1
  },
  "tag": {
    "i18n": {
      "eng": "NARUE"
    },
    "name": "NARUE",
    "repository": "kara.moe",
    "tid": "f0eea7d6-d811-4ab9-bc11-cc1a2dbc26ab",
    "types": [
      "creators",
      "4"
    ]
  }
}