{
  "header": {
    "description": "Karaoke Mugen Tag File",
    "version": 1
  },
  "tag": {
    "i18n": {
      "eng": "Naru Kawamoto"
    },
    "name": "Naru Kawamoto",
    "repository": "kara.moe",
    "tid": "de588ed5-4a6a-4222-b6c4-a28171af64f1",
    "types": [
      "singers",
      "2"
    ]
  }
}