{
  "header": {
    "description": "Karaoke Mugen Tag File",
    "version": 1
  },
  "tag": {
    "i18n": {
      "eng": "nasuno"
    },
    "name": "nasuno",
    "repository": "kara.moe",
    "tid": "9858c213-dfed-4f20-a5f4-89460fd0986c",
    "types": [
      "songwriters",
      "8",
      "creators",
      "4"
    ]
  }
}