{
  "header": {
    "description": "Karaoke Mugen Tag File",
    "version": 1
  },
  "tag": {
    "i18n": {
      "eng": "Natacha Nahon"
    },
    "name": "Natacha Nahon",
    "repository": "kara.moe",
    "tid": "808cdf4b-f86d-4e0b-90ec-f395da067896",
    "types": [
      "songwriters",
      "8"
    ]
  }
}