{
  "header": {
    "description": "Karaoke Mugen Tag File",
    "version": 1
  },
  "tag": {
    "i18n": {
      "eng": "Natsumi Haruse"
    },
    "name": "Natsumi Haruse",
    "repository": "kara.moe",
    "tid": "12f8617b-9fb2-4a9a-8ac3-90ec152463ad",
    "types": [
      "singers",
      "2"
    ]
  }
}