{
  "header": {
    "description": "Karaoke Mugen Tag File",
    "version": 1
  },
  "tag": {
    "i18n": {
      "eng": "Natsumi Gonda"
    },
    "name": "Natsumi Gonda",
    "repository": "kara.moe",
    "tid": "6d79571f-0c4c-4557-a44e-1f010ebb1e2d",
    "types": [
      "singers",
      "2"
    ]
  }
}