{
  "header": {
    "description": "Karaoke Mugen Tag File",
    "version": 1
  },
  "tag": {
    "i18n": {
      "eng": "Natsumi Hayashi"
    },
    "name": "Natsumi Hayashi",
    "tid": "eeb99dc8-35fe-4a53-b31a-2310b063fe66",
    "types": [
      "songwriters",
      "8"
    ],
    "repository": "kara.moe",
    "modified_at": "2020-03-31T19:04:36.628Z"
  }
}