{
  "header": {
    "description": "Karaoke Mugen Tag File",
    "version": 1
  },
  "tag": {
    "i18n": {
      "eng": "Natsuko Kuwatani"
    },
    "name": "Natsuko Kuwatani",
    "tid": "d98be534-e311-4345-b434-709150cdf427",
    "types": [
      "singers",
      "2"
    ],
    "repository": "kara.moe",
    "modified_at": "2020-03-31T19:04:36.626Z"
  }
}