{
  "header": {
    "description": "Karaoke Mugen Tag File",
    "version": 1
  },
  "tag": {
    "i18n": {
      "eng": "Natsuki"
    },
    "name": "Natsuki",
    "repository": "kara.moe",
    "tid": "b81d1077-53b4-4c94-9df2-18e3a5cb281a",
    "types": [
      "singers",
      "2"
    ]
  }
}