{
  "header": {
    "description": "Karaoke Mugen Tag File",
    "version": 1
  },
  "tag": {
    "i18n": {
      "eng": "Natsumi Kobayashi"
    },
    "name": "Natsumi Kobayashi",
    "tid": "9d7f1e85-9dfb-4431-a9b7-42eddf68d8e2",
    "types": [
      "songwriters",
      "8"
    ],
    "repository": "kara.moe",
    "modified_at": "2020-03-31T19:04:36.631Z"
  }
}