{
  "header": {
    "description": "Karaoke Mugen Tag File",
    "version": 1
  },
  "tag": {
    "aliases": [
      "Les Fleurs du passé",
      "Snow-in-Summer Rendezvous",
      "Summer Snow Rendezvous"
    ],
    "external_database_ids": {
      "anilist": 13585,
      "myanimelist": 13585,
      "kitsu": 6996
    },
    "i18n": {
      "eng": "Natsuyuki Rendezvous",
      "jpn": "夏雪ランデブー",
      "qro": "Natsuyuki Rendezvous"
    },
    "modified_at": "2020-03-31T19:04:32.318Z",
    "name": "Natsuyuki Rendezvous",
    "repository": "kara.moe",
    "tid": "7acfac1e-3843-46e0-ad3e-3e39a8822933",
    "types": [
      "series",
      "1"
    ]
  }
}