{
  "header": {
    "description": "Karaoke Mugen Tag File",
    "version": 1
  },
  "tag": {
    "i18n": {
      "eng": "Natsuyo Akabane"
    },
    "name": "Natsuyo Akabane",
    "tid": "92eeaff9-9f84-416a-816d-deda1d1e139a",
    "types": [
      "songwriters",
      "8"
    ],
    "repository": "kara.moe",
    "modified_at": "2020-03-31T19:04:36.635Z"
  }
}