{
  "header": {
    "description": "Karaoke Mugen Tag File",
    "version": 1
  },
  "tag": {
    "i18n": {
      "eng": "Natural Afro Record"
    },
    "name": "Natural Afro Record",
    "tid": "a23e5a01-77aa-4819-9d53-9cbc6ed35314",
    "types": [
      "creators",
      "4"
    ],
    "repository": "kara.moe",
    "modified_at": "2020-03-31T19:04:36.636Z"
  }
}