{
  "header": {
    "description": "Karaoke Mugen Tag File",
    "version": 1
  },
  "tag": {
    "i18n": {
      "eng": "Naya Rivera"
    },
    "name": "Naya Rivera",
    "repository": "kara.moe",
    "tid": "bd4e31b5-1a99-4283-8c18-d0d39f0fc6d4",
    "types": [
      "singers",
      "2"
    ]
  }
}