{
  "header": {
    "description": "Karaoke Mugen Tag File",
    "version": 1
  },
  "tag": {
    "i18n": {
      "eng": "NAYUTA RECORDS"
    },
    "name": "NAYUTA RECORDS",
    "tid": "5c8473f1-e183-4330-8358-00b4077a292b",
    "types": [
      "creators",
      "4"
    ],
    "repository": "kara.moe",
    "modified_at": "2020-03-31T19:04:36.641Z"
  }
}