{
  "header": {
    "description": "Karaoke Mugen Tag File",
    "version": 1
  },
  "tag": {
    "aliases": [
      "Nayutan Seijin",
      "Nanawoakari"
    ],
    "i18n": {
      "eng": "NayutalieN"
    },
    "modified_at": "2021-08-07T20:41:31.317Z",
    "name": "NayutalieN",
    "repository": "kara.moe",
    "tid": "cb9b1959-0972-4eb8-9955-c2e4a4f3988d",
    "types": [
      "songwriters",
      "8",
      "creators",
      "4"
    ]
  }
}