{
  "header": {
    "description": "Karaoke Mugen Tag File",
    "version": 1
  },
  "tag": {
    "i18n": {
      "eng": "nayuta"
    },
    "name": "nayuta",
    "repository": "kara.moe",
    "tid": "a003b572-922f-47ae-974e-fe7c0edea921",
    "types": [
      "songwriters",
      "8"
    ]
  }
}