{
  "header": {
    "description": "Karaoke Mugen Tag File",
    "version": 1
  },
  "tag": {
    "i18n": {
      "eng": "Trails of Nayuta",
      "jpn": "那由多の軌跡",
      "qro": "Nayuta no Kiseki"
    },
    "modified_at": "2020-03-31T19:04:32.319Z",
    "name": "Nayuta no Kiseki",
    "repository": "kara.moe",
    "tid": "131b335b-a1ed-4ac6-b978-0b76ea810822",
    "types": [
      "series",
      "1"
    ]
  }
}