{
  "header": {
    "description": "Karaoke Mugen Tag File",
    "version": 1
  },
  "tag": {
    "i18n": {
      "eng": "NAZ"
    },
    "name": "NAZ",
    "tid": "9d11a5bd-c259-43b2-9368-dc19cb636254",
    "types": [
      "creators",
      "4"
    ],
    "repository": "kara.moe",
    "modified_at": "2020-03-31T19:04:36.643Z"
  }
}