{
  "header": {
    "description": "Karaoke Mugen Tag File",
    "version": 1
  },
  "tag": {
    "i18n": {
      "eng": "Nazca"
    },
    "name": "Nazca",
    "tid": "ea8e8ff8-f968-456d-97ba-5c622d0a8514",
    "types": [
      "songwriters",
      "8"
    ],
    "repository": "kara.moe",
    "modified_at": "2020-03-31T19:04:36.643Z"
  }
}