{
  "header": {
    "description": "Karaoke Mugen Tag File",
    "version": 1
  },
  "tag": {
    "i18n": {
      "eng": "Nazo no Shin Unit STA☆MEN"
    },
    "name": "Nazo no Shin Unit STA☆MEN",
    "tid": "675cc8a0-ade7-4747-98c9-8f2f5ac56a4e",
    "types": [
      "singers",
      "2"
    ],
    "repository": "kara.moe",
    "modified_at": "2020-03-31T19:04:36.644Z"
  }
}