{
  "header": {
    "description": "Karaoke Mugen Tag File",
    "version": 1
  },
  "tag": {
    "external_database_ids": {
      "anilist": 21876,
      "myanimelist": 33690,
      "kitsu": 12448
    },
    "i18n": {
      "eng": "Nazotokine",
      "jpn": "ナゾトキネ ",
      "qro": "Nazotokine"
    },
    "modified_at": "2020-03-31T19:04:32.320Z",
    "name": "Nazotokine",
    "repository": "kara.moe",
    "tid": "3c210d8f-8cbb-4653-84f9-3939b1f040e0",
    "types": [
      "series",
      "1"
    ]
  }
}