{
  "header": {
    "description": "Karaoke Mugen Tag File",
    "version": 1
  },
  "tag": {
    "i18n": {
      "eng": "NECRY TALKIE"
    },
    "modified_at": "2020-08-06T15:33:01.617Z",
    "name": "NECRY TALKIE",
    "repository": "kara.moe",
    "tid": "c2ef2c52-b75f-4ff1-97e3-f2d7ad62e402",
    "types": [
      "songwriters",
      "8",
      "singers",
      "2"
    ]
  }
}