{
  "header": {
    "description": "Karaoke Mugen Tag File",
    "version": 1
  },
  "tag": {
    "aliases": [
      "Le maître magicien",
      "MSN",
      "Mahô Sensei",
      "Mahou Sensei"
    ],
    "i18n": {
      "jpn": "ネギま",
      "qro": "Negima"
    },
    "name": "Negima",
    "repository": "kara.moe",
    "tid": "601c1fcb-8218-407e-be99-ceea5eecfd03",
    "types": [
      "franchises",
      "18"
    ]
  }
}