{
  "header": {
    "description": "Karaoke Mugen Tag File",
    "version": 1
  },
  "tag": {
    "aliases": [
      "加賀",
      "Kaga"
    ],
    "i18n": {
      "eng": "NegiShowerP",
      "jpn": "ネギシャワーＰ"
    },
    "name": "NegiShowerP",
    "repository": "kara.moe",
    "tid": "eb6d5cb8-b32e-4b48-a6e8-20a9eff015a1",
    "types": [
      "songwriters",
      "8"
    ]
  }
}