{
  "header": {
    "description": "Karaoke Mugen Tag File",
    "version": 1
  },
  "tag": {
    "i18n": {
      "eng": "Neil Sedaka"
    },
    "name": "Neil Sedaka",
    "tid": "2e1c9710-d8f8-40b3-bed9-082e38e17cc3",
    "types": [
      "songwriters",
      "8"
    ],
    "repository": "kara.moe",
    "modified_at": "2020-03-31T19:04:36.650Z"
  }
}