{
  "header": {
    "description": "Karaoke Mugen Tag File",
    "version": 1
  },
  "tag": {
    "i18n": {
      "eng": "Nekopara Vol. 1",
      "jpn": "ネコぱら Vol. 1",
      "qro": "Nekopara Vol 1"
    },
    "modified_at": "2020-03-31T19:04:32.326Z",
    "name": "Nekopara Vol 1",
    "repository": "kara.moe",
    "tid": "c2e2067b-a97b-47c5-9107-21f7b4bc3ff2",
    "types": [
      "series",
      "1"
    ]
  }
}