{
  "header": {
    "description": "Karaoke Mugen Tag File",
    "version": 1
  },
  "tag": {
    "i18n": {
      "eng": "NekoKeba"
    },
    "modified_at": "2020-04-11T16:15:40.544Z",
    "name": "NekoKeba",
    "repository": "kara.moe",
    "tid": "27e115f1-70d0-4c2d-956f-9102b488ff4f",
    "types": [
      "creators",
      "4"
    ]
  }
}