{
  "header": {
    "description": "Karaoke Mugen Tag File",
    "version": 1
  },
  "tag": {
    "i18n": {
      "eng": "neko"
    },
    "name": "neko",
    "tid": "2ed2a8a0-23d5-4828-8479-f9782a916595",
    "types": [
      "singers",
      "2",
      "songwriters",
      "8"
    ],
    "repository": "kara.moe",
    "modified_at": "2020-03-31T19:04:36.653Z"
  }
}