{
  "header": {
    "description": "Karaoke Mugen Tag File",
    "version": 1
  },
  "tag": {
    "i18n": {
      "qro": "Nekopara",
      "jpn": "ネコぱら"
    },
    "name": "Nekopara",
    "repository": "kara.moe",
    "tid": "b6b8c5b5-0672-4b06-a5f2-1049ff522b89",
    "types": [
      "franchises",
      "18"
    ]
  }
}