{
  "header": {
    "description": "Karaoke Mugen Tag File",
    "version": 1
  },
  "tag": {
    "i18n": {
      "eng": "Nekoyashiki",
      "jpn": "猫屋敷",
      "qro": "Nekoyashiki"
    },
    "modified_at": "2021-09-08T22:52:14.089Z",
    "name": "Nekoyashiki",
    "repository": "kara.moe",
    "tid": "95293a56-8171-4b5a-8044-4b5c5b4390eb",
    "types": [
      "singers",
      "2"
    ]
  }
}