{
  "header": {
    "description": "Karaoke Mugen Tag File",
    "version": 1
  },
  "tag": {
    "i18n": {
      "eng": "Nelvana"
    },
    "name": "Nelvana",
    "tid": "8ab8913d-001c-49bd-ab77-b3c26c9dda03",
    "types": [
      "creators",
      "4"
    ],
    "repository": "kara.moe",
    "modified_at": "2020-03-31T19:04:36.657Z"
  }
}