{
  "header": {
    "description": "Karaoke Mugen Tag File",
    "version": 1
  },
  "tag": {
    "i18n": {
      "eng": "Nemesise"
    },
    "name": "Nemesise",
    "repository": "kara.moe",
    "tid": "2941868f-535f-4ea6-99f9-a0192e0e4dc7",
    "types": [
      "authors",
      "6"
    ]
  }
}