{
  "header": {
    "description": "Karaoke Mugen Tag File",
    "version": 1
  },
  "tag": {
    "i18n": {
      "eng": "Nene Momosuzu",
      "jpn": "桃鈴ねね",
      "qro": "Nene Momosuzu"
    },
    "name": "Nene Momosuzu",
    "repository": "kara.moe",
    "tid": "e6ac54d7-7e22-4a32-9bf7-84848921f029",
    "types": [
      "singers",
      "2"
    ]
  }
}