{
  "header": {
    "description": "Karaoke Mugen Tag File",
    "version": 1
  },
  "tag": {
    "i18n": {
      "eng": "neo飛燕"
    },
    "modified_at": "2021-08-14T17:06:48.512Z",
    "name": "neo飛燕",
    "repository": "kara.moe",
    "tid": "75ef4a0c-fafa-4b77-8008-df6f22a6b444",
    "types": [
      "creators",
      "4"
    ]
  }
}