{
  "header": {
    "description": "Karaoke Mugen Tag File",
    "version": 1
  },
  "tag": {
    "i18n": {
      "eng": "NEW JACK Takurou"
    },
    "name": "NEW JACK Takurou",
    "tid": "7fbfd1fc-6c89-4849-8186-7c37eacebbaf",
    "types": [
      "singers",
      "2"
    ],
    "repository": "kara.moe",
    "modified_at": "2020-03-31T19:04:36.666Z"
  }
}