{
  "header": {
    "description": "Karaoke Mugen Tag File",
    "version": 1
  },
  "tag": {
    "i18n": {
      "eng": "Newkazan"
    },
    "name": "Newkazan",
    "repository": "kara.moe",
    "tid": "4320067f-6dde-43bb-9daa-5af1fe55453a",
    "types": [
      "authors",
      "6"
    ]
  }
}