{
  "header": {
    "description": "Karaoke Mugen Tag File",
    "version": 1
  },
  "tag": {
    "i18n": {
      "eng": "Nex Entertainment"
    },
    "name": "Nex Entertainment",
    "tid": "dca900a6-7cf8-48ce-ae5d-641c737a196a",
    "types": [
      "creators",
      "4"
    ],
    "repository": "kara.moe",
    "modified_at": "2020-03-31T19:04:36.667Z"
  }
}