{
  "header": {
    "description": "Karaoke Mugen Tag File",
    "version": 1
  },
  "tag": {
    "i18n": {
      "eng": "Next Media Animation"
    },
    "name": "Next Media Animation",
    "tid": "83e73fb1-3fa0-4cba-8fa5-895778485987",
    "types": [
      "creators",
      "4"
    ],
    "repository": "kara.moe",
    "modified_at": "2020-03-31T19:04:36.668Z"
  }
}