{
  "header": {
    "description": "Karaoke Mugen Tag File",
    "version": 1
  },
  "tag": {
    "aliases": [
      "Bem-vindo à NHK!",
      "Benvenuti alla NHK!",
      "Benvinguts a NHK!",
      "Bienvenue à la NHK",
      "Kαλωσήρθατε στο NHK",
      "NHK ni Youkoso!",
      "NHK'ya Hoşgeldiniz!",
      "Välkommen till NHK!",
      "Welcome to the NHK",
      "Witaj w NHK!",
      "¡Bienvenidos a NHK!",
      "Добро пожаловать в NHK!",
      "Ласкаво просимо до NHK!",
      "أهلاً و سهلاً بكم في الأن أتش كيه",
      "ยัยตัวร้ายกับนายโหลยโท่ย",
      "欢迎来到NHK!",
      "歡迎加入NHK！",
      "youkoso"
    ],
    "external_database_ids": {
      "anilist": 1210,
      "myanimelist": 1210,
      "kitsu": 1088
    },
    "i18n": {
      "eng": "Welcome to the N.H.K",
      "fre": "Bienvenue dans la NHK",
      "ita": "Welcome to the N-H-K",
      "jpn": "NHKにようこそ!",
      "per": "!به ان اچ کی خوش آمدید",
      "tha": "สมาคมคนหนีโลก",
      "qro": "NHK ni Yôkoso!"
    },
    "modified_at": "2020-06-21T23:45:31.966Z",
    "name": "NHK ni Yôkoso!",
    "repository": "kara.moe",
    "tid": "eb59011d-bc0d-4eb1-aa22-e8cb4e1675a1",
    "types": [
      "series",
      "1"
    ]
  }
}