{
  "header": {
    "description": "Karaoke Mugen Tag File",
    "version": 1
  },
  "tag": {
    "i18n": {
      "eng": "Nia Hoshino"
    },
    "name": "Nia Hoshino",
    "repository": "kara.moe",
    "tid": "9d72af27-eaeb-49d8-aa6e-02c2b661b01f",
    "types": [
      "singers",
      "2"
    ]
  }
}