{
  "header": {
    "description": "Karaoke Mugen Tag File",
    "version": 1
  },
  "tag": {
    "aliases": [
      "Fuuka Morisaki"
    ],
    "i18n": {
      "eng": "Nicamoq"
    },
    "modified_at": "2020-04-11T16:27:42.666Z",
    "name": "Nicamoq",
    "repository": "kara.moe",
    "tid": "abc639da-76fc-4f97-bdda-14b365a35742",
    "types": [
      "songwriters",
      "8",
      "singers",
      "2"
    ]
  }
}