{
  "header": {
    "description": "Karaoke Mugen Tag File",
    "version": 1
  },
  "tag": {
    "i18n": {
      "eng": "Nice Boat Animation",
      "qro": "hǎo",
      "chi": "好传动画"
    },
    "name": "Nice Boat Animation",
    "repository": "kara.moe",
    "tid": "72c1d71d-e0f2-4fde-a628-8d33377f5b0a",
    "types": [
      "creators",
      "4"
    ]
  }
}