{
  "header": {
    "description": "Karaoke Mugen Tag File",
    "version": 1
  },
  "tag": {
    "i18n": {
      "eng": "Nickelback"
    },
    "name": "Nickelback",
    "tid": "0d246dc1-54c6-4adc-87a9-b67d8e06b1e0",
    "types": [
      "singers",
      "2",
      "songwriters",
      "8"
    ],
    "repository": "kara.moe",
    "modified_at": "2020-03-31T19:04:36.674Z"
  }
}