{
  "header": {
    "description": "Karaoke Mugen Tag File",
    "version": 1
  },
  "tag": {
    "i18n": {
      "eng": "Nick Lee"
    },
    "name": "Nick Lee",
    "repository": "kara.moe",
    "tid": "59f85b33-7667-4048-b757-0e6816d09b99",
    "types": [
      "songwriters",
      "8"
    ]
  }
}