{
  "header": {
    "description": "Karaoke Mugen Tag File",
    "version": 1
  },
  "tag": {
    "i18n": {
      "eng": "NieR",
      "jpn": "ニーア"
    },
    "name": "NieR",
    "repository": "kara.moe",
    "tid": "c1316bef-8063-4d9b-ae4f-3fbd68424764",
    "types": [
      "franchises",
      "18"
    ]
  }
}