{
  "header": {
    "description": "Karaoke Mugen Tag File",
    "version": 1
  },
  "tag": {
    "i18n": {
      "eng": "NieR Replicant ver.1.22474487139...",
      "jpn": "ニーア レプリカント ver.1.22474487139..."
    },
    "name": "NieR Replicant ver.1.22474487139...",
    "repository": "kara.moe",
    "tid": "96f231ea-8a71-42f2-928e-99a6468a3679",
    "types": [
      "series",
      "1"
    ]
  }
}