{
  "header": {
    "description": "Karaoke Mugen Tag File",
    "version": 1
  },
  "tag": {
    "i18n": {
      "eng": "NieR Gestalt",
      "jpn": "ニーア ゲシュタルト"
    },
    "name": "NieR Gestalt",
    "repository": "kara.moe",
    "tid": "84599ed9-a886-4baf-8c2e-fb209c46e1ee",
    "types": [
      "series",
      "1"
    ]
  }
}