{
  "header": {
    "description": "Karaoke Mugen Tag File",
    "version": 1
  },
  "tag": {
    "i18n": {
      "eng": "Night Ravens"
    },
    "name": "Night Ravens",
    "repository": "kara.moe",
    "tid": "8e420c63-f1a4-4ed2-aa90-e081f59de651",
    "types": [
      "singergroups",
      "17"
    ]
  }
}