{
  "header": {
    "description": "Karaoke Mugen Tag File",
    "version": 1
  },
  "tag": {
    "i18n": {
      "eng": "Nihon Columbia Dansei Gasshôdan"
    },
    "name": "Nihon Columbia Dansei Gasshôdan",
    "tid": "fd64955a-ae36-4dbe-bfec-35af1f767203",
    "types": [
      "singers",
      "2"
    ],
    "repository": "kara.moe",
    "modified_at": "2020-03-31T19:04:36.687Z"
  }
}