{
  "header": {
    "description": "Karaoke Mugen Tag File",
    "version": 1
  },
  "tag": {
    "i18n": {
      "eng": "niji"
    },
    "name": "niji",
    "tid": "c4de0217-ef31-4e13-a461-667a4143444c",
    "types": [
      "creators",
      "4"
    ],
    "repository": "kara.moe",
    "modified_at": "2020-03-31T19:04:36.689Z"
  }
}