{
  "header": {
    "description": "Karaoke Mugen Tag File",
    "version": 1
  },
  "tag": {
    "aliases": [
      "Nijigaku",
      "ニジガク"
    ],
    "i18n": {
      "eng": "Nijigasaki High School Idol Club",
      "jpn": "虹ヶ咲学園スクールアイドル同好会",
      "qro": "Nijigasaki Gakuen School Idol Dôkôkai"
    },
    "name": "Nijigasaki Gakuen School Idol Dôkôkai",
    "repository": "kara.moe",
    "tid": "425f6083-f574-451a-b719-1257f1d38957",
    "types": [
      "singergroups",
      "17"
    ]
  }
}