{
  "header": {
    "description": "Karaoke Mugen Tag File",
    "version": 1
  },
  "tag": {
    "aliases": [
      "NijiCon",
      "虹コン"
    ],
    "i18n": {
      "eng": "Niji no Conquistador",
      "jpn": "虹のコンキスタドール",
      "qro": "Niji no Conquistador"
    },
    "name": "Niji no Conquistador",
    "repository": "kara.moe",
    "tid": "6070aa61-d694-4626-921d-e62a7f4a47ba",
    "types": [
      "singergroups",
      "17"
    ]
  }
}