{
  "header": {
    "description": "Karaoke Mugen Tag File",
    "version": 1
  },
  "tag": {
    "i18n": {
      "eng": "Nijime"
    },
    "name": "Nijime",
    "tid": "325592a8-f777-4904-8941-d206b6934b8f",
    "types": [
      "songwriters",
      "8"
    ],
    "repository": "kara.moe",
    "modified_at": "2020-03-31T19:04:36.690Z"
  }
}