{
  "header": {
    "description": "Karaoke Mugen Tag File",
    "version": 1
  },
  "tag": {
    "i18n": {
      "eng": "Nikolai Karayev"
    },
    "name": "Nikolai Karayev",
    "tid": "cfa9c2c2-9b73-44b0-9392-317ea8590789",
    "types": [
      "songwriters",
      "8"
    ],
    "repository": "kara.moe",
    "modified_at": "2020-03-31T19:04:36.695Z"
  }
}