{
  "header": {
    "description": "Karaoke Mugen Tag File",
    "version": 1
  },
  "tag": {
    "aliases": [
      "Teito Genwaku Kitan",
      "帝都幻惑綺譚"
    ],
    "external_database_ids": {
      "anilist": 99963,
      "kitsu": 12762,
      "myanimelist": 33850
    },
    "i18n": {
      "eng": "Libra of Nil Admirari",
      "jpn": "ニル・アドミラリの天秤",
      "qro": "Nil Admirari no Tenbin",
      "rus": "Весы «Nil Admirari»",
      "chi": "冷然之天秤",
      "kor": "닐 아드미라리의 천칭 제도환혹기담"
    },
    "name": "Nil Admirari no Tenbin",
    "repository": "kara.moe",
    "tid": "b1f00739-64e8-4b0f-b06e-f6223f71e83a",
    "types": [
      "series",
      "1"
    ]
  }
}