{
  "header": {
    "description": "Karaoke Mugen Tag File",
    "version": 1
  },
  "tag": {
    "i18n": {
      "eng": "Nil Bernardes"
    },
    "name": "Nil Bernardes",
    "tid": "e46f5f9d-a0e5-471b-a3b0-518e7172a915",
    "types": [
      "songwriters",
      "8"
    ],
    "repository": "kara.moe",
    "modified_at": "2020-03-31T19:04:36.695Z"
  }
}