{
  "header": {
    "description": "Karaoke Mugen Tag File",
    "version": 1
  },
  "tag": {
    "i18n": {
      "eng": "Nile Rodgers"
    },
    "modified_at": "2020-07-09T19:21:53.032Z",
    "name": "Nile Rodgers",
    "repository": "kara.moe",
    "tid": "d97da3ce-5cdc-4e69-9ada-be7635071eb2",
    "types": [
      "songwriters",
      "8"
    ]
  }
}