{
  "header": {
    "description": "Karaoke Mugen Tag File",
    "version": 1
  },
  "tag": {
    "i18n": {
      "eng": "Nina Sakuma"
    },
    "name": "Nina Sakuma",
    "repository": "kara.moe",
    "tid": "c4c38c1b-64f2-4edd-899b-65b7fb308ff8",
    "types": [
      "singers",
      "2"
    ]
  }
}