{
  "header": {
    "description": "Karaoke Mugen Tag File",
    "version": 1
  },
  "tag": {
    "aliases": [
      "2 X 2 = The Legend of Shinobu",
      "2X2 Shinobuden",
      "2X2=Shinobuden",
      "2x2",
      "2x2=Shinobuden",
      "Shinobuden",
      "Дважды на два - это Синобу или Сумасбродная история про девушку ниндзя",
      "นินXนิน ชิโนบุเด็น"
    ],
    "external_database_ids": {
      "anilist": 229,
      "myanimelist": 229,
      "kitsu": 204
    },
    "i18n": {
      "eng": "Ninja Nonsense: The Legend of Shinobu",
      "fre": "Shinobu, apprentie ninja",
      "jpn": "ニニンがシノブ伝 The nonsense KUNOICHI fiction",
      "qro": "Ninin ga Shinobuden: The Nonsense Kunoichi Fiction"
    },
    "modified_at": "2020-03-31T19:04:32.338Z",
    "name": "Ninin ga Shinobuden: The Nonsense Kunoichi Fiction",
    "repository": "kara.moe",
    "tid": "fe33fbed-27d4-4014-bf3c-d3ae396bfd19",
    "types": [
      "series",
      "1"
    ]
  }
}