{
  "header": {
    "description": "Karaoke Mugen Tag File",
    "version": 1
  },
  "tag": {
    "aliases": [
      "NSP"
    ],
    "i18n": {
      "eng": "Ninja Sex Party"
    },
    "modified_at": "2021-01-21T17:40:23.521Z",
    "name": "Ninja Sex Party",
    "repository": "kara.moe",
    "tid": "13afd48d-5e81-451c-962f-b233a581f295",
    "types": [
      "creators",
      "4",
      "singers",
      "2"
    ]
  }
}