{
  "header": {
    "description": "Karaoke Mugen Tag File",
    "version": 1
  },
  "tag": {
    "aliases": [
      "Ninja Robots",
      "Ninja Warrior Tobikage"
    ],
    "external_database_ids": {
      "anilist": 3059,
      "myanimelist": 3059,
      "kitsu": 2758
    },
    "i18n": {
      "ara": "الننجات الآلية",
      "eng": "Ninja Robot Tobikage",
      "fre": "Tobikage",
      "jpn": "忍者戦士飛影",
      "qro": "Ninja Senshi Tobikage"
    },
    "modified_at": "2020-03-31T19:04:32.341Z",
    "name": "Ninja Senshi Tobikage",
    "repository": "kara.moe",
    "tid": "759c3393-b7ef-43c4-a679-4f325fc1be6e",
    "types": [
      "series",
      "1"
    ]
  }
}