{
  "header": {
    "description": "Karaoke Mugen Tag File",
    "version": 1
  },
  "tag": {
    "i18n": {
      "eng": "nio"
    },
    "name": "nio",
    "repository": "kara.moe",
    "tid": "efc0644e-c0a3-4821-8686-276fef6c5a7e",
    "types": [
      "songwriters",
      "8"
    ]
  }
}