{
  "header": {
    "description": "Karaoke Mugen Tag File",
    "version": 1
  },
  "tag": {
    "i18n": {
      "eng": "Nippon Columbia"
    },
    "name": "Nippon Columbia",
    "repository": "kara.moe",
    "tid": "38bde068-f094-4dbc-9d75-02e3ee2f6604",
    "types": [
      "creators",
      "4"
    ]
  }
}