{
  "header": {
    "description": "Karaoke Mugen Tag File",
    "version": 1
  },
  "tag": {
    "i18n": {
      "eng": "Niqiu Niko"
    },
    "name": "Niqiu Niko",
    "repository": "kara.moe",
    "tid": "1f42d8dd-37e0-4d2e-9269-e50267b3ecbb",
    "types": [
      "singers",
      "2"
    ]
  }
}