{
  "header": {
    "description": "Karaoke Mugen Tag File",
    "version": 1
  },
  "tag": {
    "i18n": {
      "jpn": "楡井 希実",
      "qro": "Nirei Nozomi"
    },
    "name": "Nirei Nozomi",
    "repository": "kara.moe",
    "tid": "1a912ff3-ff2f-4e8a-92de-d2adbb19d0b3",
    "types": [
      "singers",
      "2"
    ]
  }
}