{
  "header": {
    "description": "Karaoke Mugen Tag File",
    "version": 1
  },
  "tag": {
    "i18n": {
      "eng": "Nishinohashi Heroes Shôtenjers"
    },
    "name": "Nishinohashi Heroes Shôtenjers",
    "tid": "e5dc24c6-6d65-44ec-b9ed-aaaca258bee6",
    "types": [
      "singers",
      "2"
    ],
    "repository": "kara.moe",
    "modified_at": "2020-03-31T19:04:36.703Z"
  }
}