{
  "header": {
    "description": "Karaoke Mugen Tag File",
    "version": 1
  },
  "tag": {
    "i18n": {
      "eng": "Nishikata Masaki"
    },
    "name": "Nishikata Masaki",
    "tid": "b28720c3-9b15-4c74-be52-5b63ea6d3543",
    "types": [
      "songwriters",
      "8"
    ],
    "repository": "kara.moe",
    "modified_at": "2020-03-31T19:04:36.702Z"
  }
}