{
  "header": {
    "description": "Karaoke Mugen Tag File",
    "version": 1
  },
  "tag": {
    "i18n": {
      "eng": "Nissin"
    },
    "modified_at": "2021-08-10T21:25:29.693Z",
    "name": "Nissin",
    "repository": "kara.moe",
    "tid": "cd22fb47-bd91-4d98-a153-600adaf65b96",
    "types": [
      "creators",
      "4"
    ]
  }
}