{
  "header": {
    "description": "Karaoke Mugen Tag File",
    "version": 1
  },
  "tag": {
    "i18n": {
      "eng": "niwaka",
      "jpn": "にわか侍"
    },
    "name": "niwaka",
    "repository": "kara.moe",
    "tid": "c183dc1a-0798-4a75-909d-52b6f1e513f8",
    "types": [
      "creators",
      "4"
    ]
  }
}