{
  "header": {
    "description": "Karaoke Mugen Tag File",
    "version": 1
  },
  "tag": {
    "i18n": {
      "eng": "Niyaa"
    },
    "name": "Niyaa",
    "repository": "kara.moe",
    "tid": "9e3661b6-cae5-45ef-a2d9-788d92a8deec",
    "types": [
      "authors",
      "6"
    ]
  }
}