{
  "header": {
    "description": "Karaoke Mugen Tag File",
    "version": 1
  },
  "tag": {
    "i18n": {
      "afr": "Die Noorse Nynorsk",
      "amh": "ኖርዌጂያን Nynorsk",
      "ara": "النينورسك النرويجي",
      "aze": "Norveç Нюнорск",
      "bak": "Норвег-Тюдор Теле",
      "bel": "Нарвежская Нюнорск",
      "bul": "Норвежки Nynorsk",
      "ben": "নরওয়েজীয়ান নিনর্স্ক",
      "bos": "Norveški Njorsk",
      "cat": "El Noruec Nynorsk",
      "cze": "Norština Nynorsk",
      "wel": "Norwyeg Nynorsk",
      "dan": "Nynorsk",
      "ger": "Norwegisch Nynorsk",
      "gre": "Νορβηγικά Νινόρσκ",
      "eng": "Norwegian Nynorsk",
      "epo": "Norvega Lingvo Nynorsk",
      "spa": "Noruego Nynorsk",
      "est": "Norra Nynorsk",
      "baq": "Nynorsk Norvegiera",
      "per": "نرس جدید نروژی",
      "fin": "Norjan Nynorsk",
      "fre": "Norvégien Nynorsk",
      "gle": "Ioruais Nynorsk",
      "gla": "Comhairle Nan Eilean Siar Nynorsk",
      "glg": "Noruegués Nynorsk",
      "guj": "નૉર્વેજીયન નાયનૉર્સ્ક",
      "heb": "נורווגית נינורסק",
      "hin": "नॉर्वेजियन नाइनोर्स्क",
      "hrv": "Norveški Novonorveški",
      "hat": "Norwegian Nynorsk",
      "hun": "Norvég Nynorsk",
      "arm": "Նոր Նորվեգերեն",
      "ind": "Norwegia Nynorsk",
      "ice": "Norska Íslenska",
      "ita": "Norvegese Nynorsk",
      "jpn": "ノルウェー Nynorsk",
      "jav": "Norwegia Latin, Kroasia, Turki",
      "geo": "ნორვეგიული ნინორსკი",
      "kaz": "Норвег Нюнорск",
      "kan": "ನಾರ್ವೇಜಿಯನ್ ನೂನಾರ್ಸ್ಕ್",
      "kor": "노르웨이스를 제공하는 데 도움이 됩",
      "kir": "Норвегия Нюнорск",
      "lat": "Norwegian Nynorsk",
      "lit": "Norvegų Nynorsk",
      "lav": "Jaunnorvēģu",
      "mlg": "Zavatra Tsy",
      "mao": "Norwegian Nynorsk",
      "mac": "Норвешката Nynorsk",
      "mal": "Norwegian Nynorsk",
      "mon": "Норвеги Nynorsk",
      "mar": "Norwegian Nynorsk",
      "may": "Norway Norway",
      "mlt": "Norveġiżi}",
      "nep": "Norwegian Nynorsk",
      "dut": "Noors Nynorsk",
      "nor": "Nynorsk",
      "pan": "ਨਾਰਵੇਈ ਨਿਨੋਰਸਕ",
      "pol": "Norweski Nynorsk",
      "por": "Norueguês Nynorsk",
      "rum": "Norvegiană Nynorsk",
      "rus": "Норвежский Нюнорск",
      "sin": "නෝර්වේ Nynorsk",
      "slo": "Nórsky Nový",
      "slv": "Pandžabščina",
      "alb": "Norvegjeze Nynorsk",
      "srp": "Норвешки Нинорск",
      "sun": "Norwegia Nynorsk",
      "swe": "Norska Nynorsk",
      "swa": "Kinorwe Kipya",
      "tam": "நார்வேஜியன் நியூநார்ஸ்க்",
      "tel": "నార్విజియాన్ న్యోర్స్క్",
      "tgk": "Норвежский Нюнорск",
      "tha": "ษานอร์เวย์ Nynorsk",
      "tgl": "Norwegian Nynorsk",
      "tur": "Norveççe Nynorsk",
      "tat": "Норвег-Нюнор Теле",
      "ukr": "Норвезька Нюнорськ",
      "urd": "نورویجینی نینورسک",
      "uzb": "Norvegiya Nynorsk",
      "vie": "Na Uy",
      "xho": "Isithai Nynorsk",
      "yid": "Norwegian Nynorsk",
      "chi": "挪威尼诺斯克"
    },
    "name": "nno",
    "tid": "e245d887-8073-4d38-82a8-b987796cdd1f",
    "types": [
      "langs",
      "5"
    ],
    "repository": "kara.moe",
    "modified_at": "2020-03-31T19:04:36.709Z"
  }
}