{
  "header": {
    "description": "Karaoke Mugen Tag File",
    "version": 1
  },
  "tag": {
    "i18n": {
      "eng": "NNZN"
    },
    "modified_at": "2021-01-20T12:28:07.800Z",
    "name": "NNZN",
    "repository": "kara.moe",
    "tid": "25c9768e-f330-4b1d-8c79-7a5ca4861e58",
    "types": [
      "songwriters",
      "8"
    ]
  }
}