{
  "header": {
    "description": "Karaoke Mugen Tag File",
    "version": 1
  },
  "tag": {
    "external_database_ids": {
      "anilist": 108478,
      "kitsu": 42197,
      "myanimelist": 39539
    },
    "i18n": {
      "eng": "No Guns Life (season 1)",
      "fre": "No Guns Life (saison 1)",
      "jpn": "ノー・ガンズ・ライフ (2019)"
    },
    "name": "No Guns Life (2019)",
    "repository": "kara.moe",
    "tid": "0d5bf64d-4981-4c00-86fd-fdb6a9cffa1b",
    "types": [
      "series",
      "1"
    ]
  }
}