{
  "header": {
    "description": "Karaoke Mugen Tag File",
    "version": 1
  },
  "tag": {
    "aliases": [
      "NGL"
    ],
    "i18n": {
      "eng": "No Guns Life",
      "jpn": "ノー・ガンズ・ライフ"
    },
    "name": "No Guns Life",
    "repository": "kara.moe",
    "tid": "c28ae160-4e98-4ed7-8fe8-f650c53f0225",
    "types": [
      "franchises",
      "18"
    ]
  }
}