{
  "header": {
    "description": "Karaoke Mugen Tag File",
    "version": 1
  },
  "tag": {
    "aliases": [
      "no3b"
    ],
    "i18n": {
      "eng": "No Sleeves",
      "jpn": "ノースリーブス",
      "qro": "No Sleeves"
    },
    "modified_at": "2020-09-03T22:08:21.180Z",
    "name": "No Sleeves",
    "repository": "kara.moe",
    "tid": "27edcc60-facb-491f-b964-41903d05b052",
    "types": [
      "singers",
      "2"
    ]
  }
}