{
  "header": {
    "description": "Karaoke Mugen Tag File",
    "version": 1
  },
  "tag": {
    "i18n": {
      "eng": "no_my"
    },
    "name": "no_my",
    "tid": "86079ceb-543f-412e-a505-a031331d3db9",
    "types": [
      "songwriters",
      "8"
    ],
    "repository": "kara.moe",
    "modified_at": "2020-03-31T19:04:36.781Z"
  }
}