{
  "header": {
    "description": "Karaoke Mugen Tag File",
    "version": 1
  },
  "tag": {
    "i18n": {
      "eng": "noahniconii"
    },
    "modified_at": "2021-05-19T20:28:48.145Z",
    "name": "noahniconii",
    "repository": "kara.moe",
    "tid": "844a846c-718e-42e5-bd5f-241ca19d91bc",
    "types": [
      "authors",
      "6"
    ]
  }
}