{
  "header": {
    "description": "Karaoke Mugen Tag File",
    "version": 1
  },
  "tag": {
    "i18n": {
      "eng": "NOBE"
    },
    "name": "NOBE",
    "tid": "1023ba0e-508b-4e7d-a1c5-c196a208916a",
    "types": [
      "songwriters",
      "8"
    ],
    "repository": "kara.moe",
    "modified_at": "2020-03-31T19:04:36.716Z"
  }
}