{
  "header": {
    "description": "Karaoke Mugen Tag File",
    "version": 1
  },
  "tag": {
    "i18n": {
      "eng": "Noble☆Works",
      "jpn": "のーぶる☆わーくす",
      "qro": "Noble Works"
    },
    "modified_at": "2020-03-31T19:04:32.349Z",
    "name": "Noble Works",
    "repository": "kara.moe",
    "tid": "6e1e0c34-4a5d-46cb-980a-bbf08ddfd74a",
    "types": [
      "series",
      "1"
    ]
  }
}