{
  "header": {
    "description": "Karaoke Mugen Tag File",
    "version": 1
  },
  "tag": {
    "i18n": {
      "eng": "Nobuyuki Shimizu"
    },
    "name": "Nobuyuki Shimizu",
    "repository": "kara.moe",
    "tid": "1584827a-4dae-4994-92db-fcc0c32d9667",
    "types": [
      "songwriters",
      "8"
    ]
  }
}