{
  "header": {
    "description": "Karaoke Mugen Tag File",
    "version": 1
  },
  "tag": {
    "aliases": [
      "Nobunaga's Shinobi"
    ],
    "external_database_ids": {
      "anilist": 21666,
      "myanimelist": 32829,
      "kitsu": 11871
    },
    "i18n": {
      "eng": "Ninja Girl & Samurai Master",
      "fre": "Nobunaga no Shinobi",
      "jpn": "信長の忍び",
      "qro": "Nobunaga no Shinobi"
    },
    "modified_at": "2020-03-31T19:04:32.351Z",
    "name": "Nobunaga no Shinobi",
    "repository": "kara.moe",
    "tid": "a70654c9-897d-4b1d-b376-7fcadc86ba95",
    "types": [
      "series",
      "1",
      "franchises",
      "18"
    ]
  }
}