{
  "header": {
    "description": "Karaoke Mugen Tag File",
    "version": 1
  },
  "tag": {
    "i18n": {
      "eng": "Nobuo Ariga"
    },
    "name": "Nobuo Ariga",
    "tid": "1986cb5e-5195-4fdb-a333-e29b1509719a",
    "types": [
      "songwriters",
      "8"
    ],
    "repository": "kara.moe",
    "modified_at": "2020-03-31T19:04:36.727Z"
  }
}