{
  "header": {
    "description": "Karaoke Mugen Tag File",
    "version": 1
  },
  "tag": {
    "i18n": {
      "eng": "Nobuo Band"
    },
    "name": "Nobuo Band",
    "repository": "kara.moe",
    "tid": "182e7dd7-9af2-47b7-8ed1-334acf1f5112",
    "types": [
      "singergroups",
      "17"
    ]
  }
}