{
  "header": {
    "description": "Karaoke Mugen Tag File",
    "version": 1
  },
  "tag": {
    "i18n": {
      "eng": "Nock"
    },
    "name": "Nock",
    "repository": "kara.moe",
    "tid": "6bebcb04-2694-453c-9e0c-eb1a2e2718d9",
    "types": [
      "authors",
      "6",
      "creators",
      "4"
    ]
  }
}