{
  "header": {
    "description": "Karaoke Mugen Tag File",
    "version": 1
  },
  "tag": {
    "aliases": [
      "arman"
    ],
    "i18n": {
      "eng": "Noctiflora"
    },
    "name": "Noctiflora",
    "repository": "kara.moe",
    "tid": "44e2f777-8f96-425e-8141-cdde722dc79c",
    "types": [
      "authors",
      "6"
    ]
  }
}