{
  "header": {
    "description": "Karaoke Mugen Tag File",
    "version": 1
  },
  "tag": {
    "i18n": {
      "eng": "Noda Tomoo"
    },
    "name": "Noda Tomoo",
    "repository": "kara.moe",
    "tid": "592c6978-0963-40dc-9c74-e2c94eea6c3d",
    "types": [
      "creators",
      "4"
    ]
  }
}