{
  "header": {
    "description": "Karaoke Mugen Tag File",
    "version": 1
  },
  "tag": {
    "aliases": [
      "NC",
      "NC1",
      "noda",
      "Нодаме Кантабіле",
      "Нодамэ Кантабиле",
      "จังหวะรัก หัวใจดนตรี",
      "วุ่นรักนักดนตรี",
      "โนดาเมะ"
    ],
    "external_database_ids": {
      "anilist": 1698,
      "myanimelist": 1698,
      "kitsu": 1525
    },
    "i18n": {
      "bul": "Нодаме Кантабиле",
      "chi": "交响情人梦",
      "eng": "Nodame Cantabile",
      "hun": "Nodame Cantabile",
      "jpn": "のだめカンタービレ",
      "kor": "노다메 칸타빌레",
      "pol": "Nodame Cantabile",
      "por": "Nodame Cantabile",
      "spa": "Nodame Cantabile",
      "qro": "Nodame Cantabile"
    },
    "modified_at": "2020-06-21T23:45:31.966Z",
    "name": "Nodame Cantabile",
    "repository": "kara.moe",
    "tid": "0ba1106d-bbc5-483c-a0cc-ceba4ea7b170",
    "types": [
      "series",
      "1",
      "franchises",
      "18"
    ]
  }
}