{
  "header": {
    "description": "Karaoke Mugen Tag File",
    "version": 1
  },
  "tag": {
    "i18n": {
      "eng": "Noddy's toyland adventures",
      "fre": "Oui-Oui du pays des jouets"
    },
    "modified_at": "2020-03-31T19:04:32.355Z",
    "name": "Noddy's toyland adventures",
    "repository": "kara.moe",
    "tid": "50fa861c-81d1-4e16-a9e4-ec6e67e03894",
    "types": [
      "series",
      "1"
    ]
  }
}