{
  "header": {
    "description": "Karaoke Mugen Tag File",
    "version": 1
  },
  "tag": {
    "i18n": {
      "eng": "Nodoka Shinomaru"
    },
    "name": "Nodoka Shinomaru",
    "tid": "55f1446e-0bab-4991-9447-977e362c84fc",
    "types": [
      "songwriters",
      "8"
    ],
    "repository": "kara.moe",
    "modified_at": "2020-03-31T19:04:36.737Z"
  }
}