{
  "header": {
    "description": "Karaoke Mugen Tag File",
    "version": 1
  },
  "tag": {
    "aliases": [
      "Noein: Mou Hitori no Kimi e",
      "Noein: Toward Another You"
    ],
    "external_database_ids": {
      "anilist": 584,
      "myanimelist": 584,
      "kitsu": 539
    },
    "i18n": {
      "eng": "Noein: to your other self",
      "jpn": "ノエイン もうひとりの君へ",
      "qro": "Noein"
    },
    "modified_at": "2020-03-31T19:04:32.355Z",
    "name": "Noein",
    "repository": "kara.moe",
    "tid": "02ec8a11-d168-4319-9577-ebd5d19ad878",
    "types": [
      "series",
      "1"
    ]
  }
}