{
  "header": {
    "description": "Karaoke Mugen Tag File",
    "version": 1
  },
  "tag": {
    "i18n": {
      "eng": "Noel Gallagher"
    },
    "name": "Noel Gallagher",
    "tid": "66268737-656b-4a68-80da-9b02547d1e22",
    "types": [
      "songwriters",
      "8"
    ],
    "repository": "kara.moe",
    "modified_at": "2020-03-31T19:04:36.738Z"
  }
}