{
  "header": {
    "description": "Karaoke Mugen Tag File",
    "version": 1
  },
  "tag": {
    "i18n": {
      "eng": "Noh Ji Hoon"
    },
    "name": "Noh Ji Hoon",
    "tid": "da95af42-75ec-45dc-b5a2-4b58fb30b61f",
    "types": [
      "singers",
      "2"
    ],
    "repository": "kara.moe",
    "modified_at": "2020-03-31T19:04:36.739Z"
  }
}