{
  "header": {
    "description": "Karaoke Mugen Tag File",
    "version": 1
  },
  "tag": {
    "external_database_ids": {},
    "i18n": {
      "eng": "Noir Vesper",
      "jpn": "ノワール・ヴェスパー"
    },
    "name": "Noir Vesper",
    "repository": "kara.moe",
    "tid": "129aa13a-dfb8-4654-aea9-4a669147fd5d",
    "types": [
      "singers",
      "2"
    ]
  }
}