{
  "header": {
    "description": "Karaoke Mugen Tag File",
    "version": 1
  },
  "tag": {
    "i18n": {
      "eng": "NoisyCell"
    },
    "name": "NoisyCell",
    "tid": "3dc96b8a-1562-431a-94fa-2b9c3ea3e5da",
    "types": [
      "singers",
      "2"
    ],
    "repository": "kara.moe",
    "modified_at": "2020-03-31T19:04:36.740Z"
  }
}