{
  "header": {
    "description": "Karaoke Mugen Tag File",
    "version": 1
  },
  "tag": {
    "i18n": {
      "eng": "NOIZEWAVE"
    },
    "name": "NOIZEWAVE",
    "repository": "kara.moe",
    "tid": "bd2136da-6983-45fb-9a88-c7a4bfe81437",
    "types": [
      "songwriters",
      "8"
    ]
  }
}