{
  "header": {
    "description": "Karaoke Mugen Tag File",
    "version": 1
  },
  "tag": {
    "i18n": {
      "eng": "Noko"
    },
    "name": "Noko",
    "tid": "f7e964a1-5a75-4d25-a655-478a213f4ada",
    "types": [
      "songwriters",
      "8"
    ],
    "repository": "kara.moe",
    "modified_at": "2020-03-31T19:04:36.742Z"
  }
}