{
  "header": {
    "description": "Karaoke Mugen Tag File",
    "version": 1
  },
  "tag": {
    "i18n": {
      "eng": "NOMA"
    },
    "modified_at": "2020-07-22T23:48:24.036Z",
    "name": "NOMA",
    "repository": "kara.moe",
    "tid": "4d90bd87-7496-4adf-87ac-03250544d26c",
    "types": [
      "songwriters",
      "8"
    ]
  }
}