{
  "header": {
    "description": "Karaoke Mugen Tag File",
    "version": 1
  },
  "tag": {
    "i18n": {
      "eng": "Non Harusaki"
    },
    "name": "Non Harusaki",
    "repository": "kara.moe",
    "tid": "cdf974c9-adab-462a-b061-e74ea786671a",
    "types": [
      "singers",
      "2"
    ]
  }
}