{
  "header": {
    "description": "Karaoke Mugen Tag File",
    "version": 1
  },
  "tag": {
    "i18n": {
      "eng": "NONA REEVES"
    },
    "name": "NONA REEVES",
    "tid": "f3fe7f36-17e7-4c4f-a159-ff90edf6987c",
    "types": [
      "singers",
      "2"
    ],
    "repository": "kara.moe",
    "modified_at": "2020-03-31T19:04:36.746Z"
  }
}