{
  "header": {
    "description": "Karaoke Mugen Tag File",
    "version": 1
  },
  "tag": {
    "i18n": {
      "eng": "Nonolu"
    },
    "name": "Nonolu",
    "repository": "kara.moe",
    "tid": "894e41da-e756-4092-b31c-ab38a0f2d4d4",
    "types": [
      "creators",
      "4"
    ]
  }
}