{
  "header": {
    "description": "Karaoke Mugen Tag File",
    "version": 1
  },
  "tag": {
    "i18n": {
      "eng": "Norbert Krief"
    },
    "modified_at": "2020-07-12T12:49:48.917Z",
    "name": "Norbert Krief",
    "repository": "kara.moe",
    "tid": "04045080-77b3-4a76-83c5-c5b2f36aced8",
    "types": [
      "songwriters",
      "8"
    ]
  }
}