{
  "header": {
    "description": "Karaoke Mugen Tag File",
    "version": 1
  },
  "tag": {
    "i18n": {
      "eng": "Norbert Arias"
    },
    "name": "Norbert Arias",
    "tid": "0faaed0c-6fb0-4066-a41b-d4ea860e4600",
    "types": [
      "singers",
      "2"
    ],
    "repository": "kara.moe",
    "modified_at": "2020-03-31T19:04:36.749Z"
  }
}