{
  "header": {
    "description": "Karaoke Mugen Tag File",
    "version": 1
  },
  "tag": {
    "external_database_ids": {
      "anilist": 116258,
      "myanimelist": 41384,
      "kitsu": 43036
    },
    "i18n": {
      "qro": "Norimono Man Mobile Land no Car-kun",
      "jpn": "のりものまん モービルランドのカークン"
    },
    "name": "Norimono Man Mobile Land no Car-kun",
    "repository": "kara.moe",
    "tid": "0f8dd397-44a3-4672-9ff3-2a24083982cc",
    "types": [
      "series",
      "1"
    ]
  }
}