{
  "header": {
    "description": "Karaoke Mugen Tag File",
    "version": 1
  },
  "tag": {
    "i18n": {
      "eng": "Noriyasu Agematsu"
    },
    "name": "Noriyasu Agematsu",
    "tid": "af3ffe51-8059-461c-bbb8-78ea388731f3",
    "types": [
      "songwriters",
      "8"
    ],
    "repository": "kara.moe",
    "modified_at": "2020-03-31T19:04:36.764Z"
  }
}