{
  "header": {
    "description": "Karaoke Mugen Tag File",
    "version": 1
  },
  "tag": {
    "i18n": {
      "eng": "Norimasa Yamanaka"
    },
    "name": "Norimasa Yamanaka",
    "tid": "8f365893-7bcb-4b4b-91c6-326029c29c91",
    "types": [
      "songwriters",
      "8",
      "singers",
      "2"
    ],
    "repository": "kara.moe",
    "modified_at": "2020-03-31T19:04:36.763Z"
  }
}