{
  "header": {
    "description": "Karaoke Mugen Tag File",
    "version": 1
  },
  "tag": {
    "i18n": {
      "eng": "Noriyasu Isshiki"
    },
    "name": "Noriyasu Isshiki",
    "tid": "bdd97cd9-f190-4e4c-a0f1-91e16f119273",
    "types": [
      "songwriters",
      "8"
    ],
    "repository": "kara.moe",
    "modified_at": "2020-03-31T19:04:36.765Z"
  }
}