{
  "header": {
    "description": "Karaoke Mugen Tag File",
    "version": 1
  },
  "tag": {
    "i18n": {
      "eng": "Noriko Matsueda"
    },
    "name": "Noriko Matsueda",
    "tid": "c1985205-5712-4189-a669-69021be19500",
    "types": [
      "songwriters",
      "8"
    ],
    "repository": "kara.moe",
    "modified_at": "2020-03-31T19:04:36.760Z"
  }
}