{
  "header": {
    "description": "Karaoke Mugen Tag File",
    "version": 1
  },
  "tag": {
    "i18n": {
      "eng": "Norihito Sumitomo"
    },
    "name": "Norihito Sumitomo",
    "tid": "80243c90-526c-4f82-b3e2-996545bed2a5",
    "types": [
      "songwriters",
      "8"
    ],
    "repository": "kara.moe",
    "modified_at": "2020-03-31T19:04:36.757Z"
  }
}