{
  "header": {
    "description": "Karaoke Mugen Tag File",
    "version": 1
  },
  "tag": {
    "i18n": {
      "eng": "Nori da Funky Shibire-sasu"
    },
    "name": "Nori da Funky Shibire-sasu",
    "tid": "0659c4d4-b908-49ae-b504-2fee544e50c7",
    "types": [
      "songwriters",
      "8"
    ],
    "repository": "kara.moe",
    "modified_at": "2020-03-31T19:04:36.751Z"
  }
}