{
  "header": {
    "description": "Karaoke Mugen Tag File",
    "version": 1
  },
  "tag": {
    "i18n": {
      "eng": "Norimasa Fujisawa"
    },
    "name": "Norimasa Fujisawa",
    "tid": "0e88f186-9acb-4946-a290-0e6bd0f022b3",
    "types": [
      "singers",
      "2"
    ],
    "repository": "kara.moe",
    "modified_at": "2020-03-31T19:04:36.762Z"
  }
}