{
  "header": {
    "description": "Karaoke Mugen Tag File",
    "version": 1
  },
  "tag": {
    "i18n": {
      "eng": "NormCore"
    },
    "name": "NormCore",
    "tid": "bebb0955-b9f2-4a1d-9367-a4196e21e837",
    "types": [
      "singers",
      "2"
    ],
    "repository": "kara.moe",
    "modified_at": "2020-03-31T19:04:36.768Z"
  }
}