{
  "header": {
    "description": "Karaoke Mugen Tag File",
    "version": 1
  },
  "tag": {
    "i18n": {
      "eng": "nounoknown",
      "jpn": "のう"
    },
    "name": "nounoknown",
    "repository": "kara.moe",
    "short": "のう",
    "tid": "021aab8c-5dd0-41a5-8214-cc628ac818f9",
    "types": [
      "creators",
      "4"
    ]
  }
}