{
  "header": {
    "description": "Karaoke Mugen Tag File",
    "version": 1
  },
  "tag": {
    "external_database_ids": {
      "anilist": 18095,
      "myanimelist": 18095,
      "kitsu": 7782
    },
    "i18n": {
      "chi": "农林",
      "eng": "No-Rin",
      "fre": "No-Rin",
      "jpn": "のうりん",
      "kor": "농림",
      "qro": "Nourin"
    },
    "modified_at": "2020-03-31T19:04:32.362Z",
    "name": "Nourin",
    "repository": "kara.moe",
    "tid": "9939004d-201d-4020-bafd-81463c8b65c0",
    "types": [
      "series",
      "1"
    ]
  }
}