{
  "header": {
    "description": "Karaoke Mugen Tag File",
    "version": 1
  },
  "tag": {
    "i18n": {
      "eng": "Novala Takemoto"
    },
    "name": "Novala Takemoto",
    "tid": "6910af3e-6430-47c2-9ce9-cd8ba05ab4c8",
    "types": [
      "songwriters",
      "8"
    ],
    "repository": "kara.moe",
    "modified_at": "2020-03-31T19:04:36.771Z"
  }
}