{
  "header": {
    "description": "Karaoke Mugen Tag File",
    "version": 1
  },
  "tag": {
    "i18n": {
      "eng": "Nozomi Nishida"
    },
    "name": "Nozomi Nishida",
    "tid": "32e77f34-f0b8-4b82-a70b-138f7c5ba816",
    "types": [
      "singers",
      "2"
    ],
    "repository": "kara.moe",
    "modified_at": "2020-03-31T19:04:36.776Z"
  }
}