{
  "header": {
    "description": "Karaoke Mugen Tag File",
    "version": 1
  },
  "tag": {
    "i18n": {
      "eng": "NTIX Soft"
    },
    "name": "NTIX Soft",
    "tid": "94cfa1ae-5257-486e-90e8-b2939ffff5cc",
    "types": [
      "creators",
      "4"
    ],
    "repository": "kara.moe",
    "modified_at": "2020-03-31T19:04:36.782Z"
  }
}