{
  "header": {
    "description": "Karaoke Mugen Tag File",
    "version": 1
  },
  "tag": {
    "aliases": [
      "Honkai Impact 3",
      "Sen'otome no Shokutaku",
      "戦乙女の食卓"
    ],
    "external_database_ids": {
      "anilist": 110287,
      "myanimelist": 40100,
      "kitsu": 42478
    },
    "i18n": {
      "chi": "女武神的餐桌",
      "eng": "Cooking with Valkyries",
      "jpn": "女武神的餐桌",
      "qro": "Valkyrie no Shokutaku"
    },
    "modified_at": "2021-09-07T23:54:52.163Z",
    "name": "Nu Wushen de Canzhuo",
    "repository": "kara.moe",
    "tid": "9a4ee98f-1d27-4995-a686-2b4f7f454d90",
    "types": [
      "series",
      "1",
      "franchises",
      "18"
    ]
  }
}