{
  "header": {
    "description": "Karaoke Mugen Tag File",
    "version": 1
  },
  "tag": {
    "i18n": {
      "eng": "Nudelsuppe"
    },
    "name": "Nudelsuppe",
    "repository": "kara.moe",
    "tid": "aa31b3f3-0a7e-4042-8063-862454d37dc5",
    "types": [
      "authors",
      "6"
    ]
  }
}