{
  "header": {
    "description": "Karaoke Mugen Tag File",
    "version": 1
  },
  "tag": {
    "aliases": [
      "NukiTashi"
    ],
    "i18n": {
      "eng": "Nukige Mitai na Shima ni Sunderu Watashi wa Dou Surya Ii Desu ka? 2",
      "jpn": "抜きゲーみたいな島に住んでる貧乳はどうすりゃいいですか？ 2"
    },
    "name": "Nukige Mitai na Shima ni Sunderu Watashi wa Dou Surya Ii Desu ka? 2",
    "repository": "kara.moe",
    "tid": "35a85d56-8060-4041-9863-364d7f30e607",
    "types": [
      "series",
      "1"
    ]
  }
}