{
  "header": {
    "description": "Karaoke Mugen Tag File",
    "version": 1
  },
  "tag": {
    "i18n": {
      "eng": "nulut"
    },
    "name": "nulut",
    "repository": "kara.moe",
    "tid": "85f43623-05fd-4be1-808f-1392ff70e1c8",
    "types": [
      "songwriters",
      "8"
    ]
  }
}