{
  "header": {
    "description": "Karaoke Mugen Tag File",
    "version": 1
  },
  "tag": {
    "aliases": [
      "Komugi 2",
      "Komugi Z"
    ],
    "external_database_ids": {
      "anilist": 921,
      "myanimelist": 921,
      "kitsu": 821
    },
    "i18n": {
      "eng": "Nurse Witch Komugi Z",
      "jpn": "ナースウィッチ小麦ちゃんマジカルてZ",
      "qro": "Nurse Witch Komugi-chan Magikarte Z"
    },
    "modified_at": "2020-03-31T19:04:32.364Z",
    "name": "Nurse Witch Komugi-chan Magikarte Z",
    "repository": "kara.moe",
    "tid": "185491f9-b375-4a6e-9ec2-91e4e5a6a55b",
    "types": [
      "series",
      "1"
    ]
  }
}