{
  "header": {
    "description": "Karaoke Mugen Tag File",
    "version": 1
  },
  "tag": {
    "i18n": {
      "eng": "NUT"
    },
    "name": "NUT",
    "tid": "e0018e4e-1568-49ea-9e31-6e618a430f2a",
    "types": [
      "creators",
      "4"
    ],
    "repository": "kara.moe",
    "modified_at": "2020-03-31T19:04:36.785Z"
  }
}