{
  "header": {
    "description": "Karaoke Mugen Tag File",
    "version": 1
  },
  "tag": {
    "i18n": {
      "eng": "Nyanners"
    },
    "modified_at": "2021-01-01T15:38:23.137Z",
    "name": "Nyanners",
    "repository": "kara.moe",
    "tid": "10445ac9-3f54-4eb6-84bf-3ec5351c3e09",
    "types": [
      "singers",
      "2"
    ]
  }
}