{
  "header": {
    "description": "Karaoke Mugen Tag File",
    "version": 1
  },
  "tag": {
    "external_database_ids": {
      "anilist": 21655,
      "myanimelist": 32805,
      "kitsu": 11945
    },
    "i18n": {
      "qro": "Nyanbo!",
      "jpn": "にゃんぼー!"
    },
    "name": "Nyanbo!",
    "repository": "kara.moe",
    "tid": "7b7e243e-7e84-459f-85eb-dc6d9cf476ec",
    "types": [
      "series",
      "1"
    ]
  }
}