{
  "header": {
    "description": "Karaoke Mugen Tag File",
    "version": 1
  },
  "tag": {
    "aliases": [
      "Kedi Sevgisi",
      "Mewwuv!",
      "Nyan Koi",
      "Nyankoi",
      "Nyankoi!",
      "Кошачьи прихоти!",
      "喵恋!",
      "猫愿三角恋"
    ],
    "external_database_ids": {
      "anilist": 6512,
      "myanimelist": 6512,
      "kitsu": 4588
    },
    "i18n": {
      "eng": "Nyan Koi!",
      "jpn": "にゃんこい!",
      "qro": "Nyan Koi!"
    },
    "modified_at": "2020-03-31T19:04:32.366Z",
    "name": "Nyan Koi!",
    "repository": "kara.moe",
    "tid": "8c93865e-1eca-47a2-80b1-a3e58def9711",
    "types": [
      "series",
      "1"
    ]
  }
}