{
  "header": {
    "description": "Karaoke Mugen Tag File",
    "version": 1
  },
  "tag": {
    "i18n": {
      "eng": "O-Two"
    },
    "name": "O-Two",
    "tid": "a22b903c-e059-478d-944b-a1879cead844",
    "types": [
      "creators",
      "4"
    ],
    "repository": "kara.moe",
    "modified_at": "2020-03-31T19:04:36.789Z"
  }
}