{
  "header": {
    "description": "Karaoke Mugen Tag File",
    "version": 1
  },
  "tag": {
    "i18n": {
      "eng": "O"
    },
    "name": "O",
    "tid": "b2314e4f-6ac2-4464-bc99-fc1703eb89f3",
    "types": [
      "songwriters",
      "8"
    ],
    "repository": "kara.moe",
    "modified_at": "2020-03-31T19:04:36.790Z"
  }
}