{
  "header": {
    "description": "Karaoke Mugen Tag File",
    "version": 1
  },
  "tag": {
    "aliases": [
      "One master to rule them all!",
      "Shall we date?"
    ],
    "i18n": {
      "eng": "Obey Me!",
      "jpn": "Obey Me!",
      "qro": "Obey Me!"
    },
    "modified_at": "2020-03-31T19:04:32.368Z",
    "name": "Obey Me!",
    "repository": "kara.moe",
    "tid": "f96b8982-0a4e-4e2f-97dc-0239350248b2",
    "types": [
      "series",
      "1"
    ]
  }
}