{
  "header": {
    "description": "Karaoke Mugen Tag File",
    "version": 1
  },
  "tag": {
    "aliases": [
      "Ochamegami Monogatari - Colocolo Polon",
      "Ochamegami Monogatari Kolokolo Polon"
    ],
    "external_database_ids": {
      "anilist": 3136,
      "myanimelist": 3136,
      "kitsu": 2818
    },
    "i18n": {
      "eng": "Little Pollon",
      "fre": "La petite Olympe et les dieux",
      "ita": "C'era una volta Pollon",
      "jpn": "おちゃめ神物語コロコロポロン",
      "qro": "Ochamegami Monogatari: Korokoro Pollon"
    },
    "modified_at": "2020-06-21T23:45:31.966Z",
    "name": "Ochamegami Monogatari: Korokoro Pollon",
    "repository": "kara.moe",
    "tid": "e3ec174f-bd7d-45c3-81fd-99c989aca689",
    "types": [
      "series",
      "1"
    ]
  }
}