{
  "header": {
    "description": "Karaoke Mugen Tag File",
    "version": 1
  },
  "tag": {
    "i18n": {
      "afr": "Oksitaans",
      "amh": "Occitan",
      "ara": "الأوكيتانية",
      "aze": "Окситанский",
      "bak": "Окситан теле",
      "bel": "Правансальская",
      "bul": "Окситанский",
      "ben": "অক্সিটান",
      "bos": "Provansalski",
      "cat": "L'occità",
      "cze": "Okcitánština",
      "wel": "Ocsitaneg",
      "dan": "Occitan",
      "ger": "Okzitanisch",
      "gre": "Οκσιτανικά",
      "eng": "Occitan",
      "epo": "Okcitana lingvo",
      "spa": "Occitano",
      "est": "Occitan",
      "baq": "Occitan",
      "per": "اکسیتان",
      "fin": "Oksitaani",
      "fre": "Occitan",
      "gle": "Ocatáinis",
      "gla": "Occitan",
      "glg": "Occitano",
      "guj": "ઓક્સિટન",
      "heb": "אוקסיטנית",
      "hin": "ओसीटान",
      "hrv": "Okcitanski",
      "hat": "Occitan",
      "hun": "Occitan",
      "arm": "Ակվիտաներեն",
      "ind": "Bahasa ositania",
      "ice": "Norræna",
      "ita": "Occitano",
      "jpn": "Occitan",
      "jav": "Occitan",
      "geo": "ოქსიტანური",
      "kaz": "Окситанский",
      "kan": "ಒಸಿಟನ್",
      "kor": "오크어",
      "kir": "Окситанский",
      "lat": "Occitanam",
      "lit": "Očitarų",
      "lav": "Oksitāņu",
      "mlg": "Zavatra",
      "mao": "Occitan",
      "mac": "Occitan",
      "mal": "Occitan",
      "mon": "Occitan",
      "mar": "Occitan",
      "may": "Occitania",
      "mlt": "Oċċitan",
      "nep": "Occitan",
      "dut": "Occitaans",
      "nor": "Occitan",
      "pan": "ਓਕਸੀਤਾਈ",
      "pol": "Prowansalski",
      "por": "Occitânico",
      "rum": "Occitană",
      "rus": "Окситанский",
      "sin": "Occitan",
      "slo": "Gálijský",
      "slv": "Occitan",
      "alb": "Occitan",
      "srp": "Окситански",
      "sun": "Occitan",
      "swe": "Occitanska",
      "swa": "Occitan",
      "tam": "ஒக்கிடன்",
      "tel": "ఆక్సిటన్",
      "tgk": "Окситанский",
      "tha": "ภาษาออคซิทัน name",
      "tgl": "Occitan",
      "tur": "Oksitanca",
      "tat": "Окситан теле",
      "ukr": "Окитан",
      "urd": "آکسیٹان",
      "uzb": "Occitan",
      "vie": "Tiếng",
      "xho": "Occitan",
      "yid": "Occitan",
      "chi": "奥克"
    },
    "name": "oci",
    "tid": "8c537979-49df-4abd-91fd-c71978af451e",
    "types": [
      "langs",
      "5"
    ],
    "repository": "kara.moe",
    "modified_at": "2020-03-31T19:04:36.791Z"
  }
}