{
  "header": {
    "description": "Karaoke Mugen Tag File",
    "version": 1
  },
  "tag": {
    "i18n": {
      "eng": "Octone Records"
    },
    "name": "Octone Records",
    "repository": "kara.moe",
    "tid": "5e1fad67-67bd-4df9-9197-3efa967a9590",
    "types": [
      "creators",
      "4"
    ]
  }
}