{
  "header": {
    "description": "Karaoke Mugen Tag File",
    "version": 1
  },
  "tag": {
    "aliases": [
      "Little Shark's Outings",
      "Outgoing Baby Shark",
      "Going Out."
    ],
    "external_database_ids": {
      "anilist": 165426,
      "kitsu": 47497,
      "myanimelist": 55463
    },
    "i18n": {
      "jpn": "おでかけ子ザメ",
      "qro": "Odekake Kozame",
      "eng": "Little Shark's Day Out"
    },
    "name": "Odekake Kozame",
    "repository": "kara.moe",
    "tid": "6d21a7e7-f599-4a5f-934e-c947be0a4420",
    "types": [
      "series",
      "1"
    ]
  }
}