{
  "header": {
    "description": "Karaoke Mugen Tag File",
    "version": 1
  },
  "tag": {
    "i18n": {
      "eng": "Odin Sphere",
      "jpn": "オーディンスフィア",
      "qro": "Odin Sphere"
    },
    "modified_at": "2020-03-31T19:04:32.372Z",
    "name": "Odin Sphere",
    "repository": "kara.moe",
    "tid": "55295c6c-d71f-4d98-a362-8b52d11e1c3c",
    "types": [
      "series",
      "1"
    ]
  }
}