{
  "header": {
    "description": "Karaoke Mugen Tag File",
    "version": 1
  },
  "tag": {
    "i18n": {
      "eng": "Odyssey Interactive"
    },
    "name": "Odyssey Interactive",
    "repository": "kara.moe",
    "tid": "de589c7e-99bf-49d5-8215-cc87d6e4903b",
    "types": [
      "creators",
      "4"
    ]
  }
}