{
  "header": {
    "description": "Karaoke Mugen Tag File",
    "version": 1
  },
  "tag": {
    "i18n": {
      "eng": "Official Hige Dandism"
    },
    "modified_at": "2021-06-14T20:05:04.254Z",
    "name": "Official Hige Dandism",
    "repository": "kara.moe",
    "tid": "a6faab1b-859e-4068-971a-c6ff47788c8a",
    "types": [
      "singers",
      "2",
      "songwriters",
      "8"
    ]
  }
}