{
  "header": {
    "description": "Karaoke Mugen Tag File",
    "version": 1
  },
  "tag": {
    "i18n": {
      "eng": "Ogura Rio"
    },
    "modified_at": "2021-01-18T21:27:39.837Z",
    "name": "Ogura Rio",
    "repository": "kara.moe",
    "tid": "8602ef97-147e-4188-b1a3-f17273bba9cc",
    "types": [
      "singers",
      "2"
    ]
  }
}