{
  "header": {
    "description": "Karaoke Mugen Tag File",
    "version": 1
  },
  "tag": {
    "i18n": {
      "eng": "OH MY GIRL"
    },
    "modified_at": "2020-10-25T15:07:59.626Z",
    "name": "OH MY GIRL",
    "repository": "kara.moe",
    "tid": "4299eca0-20f6-486b-be87-1b1bfaa5c146",
    "types": [
      "singers",
      "2"
    ]
  }
}