{
  "header": {
    "description": "Karaoke Mugen Tag File",
    "version": 1
  },
  "tag": {
    "i18n": {
      "eng": "Oh Seung Hee"
    },
    "name": "Oh Seung Hee",
    "tid": "a82d9706-6538-4e78-a502-2489e6da0745",
    "types": [
      "singers",
      "2"
    ],
    "repository": "kara.moe",
    "modified_at": "2020-03-31T19:04:36.797Z"
  }
}