{
  "header": {
    "description": "Karaoke Mugen Tag File",
    "version": 1
  },
  "tag": {
    "i18n": {
      "eng": "ohisashiburi"
    },
    "name": "ohisashiburi",
    "repository": "kara.moe",
    "tid": "a35b8ce8-da75-49cc-a965-c29c44c026b5",
    "types": [
      "creators",
      "4"
    ]
  }
}