{
  "header": {
    "description": "Karaoke Mugen Tag File",
    "version": 1
  },
  "tag": {
    "i18n": {
      "eng": "OHTORA"
    },
    "name": "OHTORA",
    "repository": "kara.moe",
    "tid": "da722c81-43cd-41ce-bd7d-5f2e77ffb06e",
    "types": [
      "songwriters",
      "8"
    ]
  }
}