{
  "header": {
    "description": "Karaoke Mugen Tag File",
    "version": 1
  },
  "tag": {
    "aliases": [
      "Bothersome Witch Doremi KABOOM!",
      "Doremi (2002)",
      "Doremi 4",
      "DoremiS4",
      "Dorémi Magique",
      "Dó-Ré-Mi 4",
      "Magical DoReMi S4"
    ],
    "external_database_ids": {
      "anilist": 353,
      "myanimelist": 353,
      "kitsu": 320
    },
    "i18n": {
      "eng": "Magical DoReMi (4th season)",
      "fre": "Magical DoReMi (saison 4)",
      "jpn": "おジャ魔女どれみドッカ~ン!",
      "por": "Dó-Ré-Mi (2002)",
      "qro": "Ojamajo Doremi Dokkaan!"
    },
    "modified_at": "2020-03-31T19:04:32.373Z",
    "name": "Ojamajo Doremi Dokkaan!",
    "repository": "kara.moe",
    "tid": "7fea6e6e-a8d3-473e-bbf7-035b84e97760",
    "types": [
      "series",
      "1"
    ]
  }
}