{
  "header": {
    "description": "Karaoke Mugen Tag File",
    "version": 1
  },
  "tag": {
    "i18n": {
      "eng": "OKAMOTO'S"
    },
    "modified_at": "2020-08-17T17:20:12.115Z",
    "name": "OKAMOTO'S",
    "repository": "kara.moe",
    "tid": "6983e525-1141-41a4-8d0c-a9a2c142277e",
    "types": [
      "singers",
      "2",
      "songwriters",
      "8"
    ]
  }
}