{
  "header": {
    "description": "Karaoke Mugen Tag File",
    "version": 1
  },
  "tag": {
    "i18n": {
      "eng": "Okamoto Industries"
    },
    "name": "Okamoto Industries",
    "repository": "kara.moe",
    "tid": "4df5067d-8219-4588-941c-4d82438b76e3",
    "types": [
      "creators",
      "4"
    ]
  }
}