{
  "header": {
    "description": "Karaoke Mugen Tag File",
    "version": 1
  },
  "tag": {
    "i18n": {
      "eng": "Okiku",
      "jpn": "お菊",
      "qro": "Okiku"
    },
    "name": "Okiku",
    "tid": "9c140043-1d86-4656-9b99-7195261d78b1",
    "types": [
      "creators",
      "4"
    ],
    "repository": "kara.moe",
    "modified_at": "2020-03-31T19:04:36.802Z"
  }
}