{
  "header": {
    "description": "Karaoke Mugen Tag File",
    "version": 1
  },
  "tag": {
    "i18n": {
      "eng": "OkuriBunt Inc."
    },
    "modified_at": "2020-05-31T15:10:48.631Z",
    "name": "OkuriBunt Inc.",
    "repository": "kara.moe",
    "tid": "3770769b-3243-4acd-b13b-e46a2bfbb2b1",
    "types": [
      "creators",
      "4"
    ]
  }
}