{
  "header": {
    "description": "Karaoke Mugen Tag File",
    "version": 1
  },
  "tag": {
    "aliases": [
      "Okusama wa Mahou Shoujo",
      "mahou",
      "shoujo"
    ],
    "external_database_ids": {
      "anilist": 614,
      "myanimelist": 614,
      "kitsu": 569
    },
    "i18n": {
      "eng": "Madam is a Magical Girl",
      "jpn": "奥さまは魔法少女",
      "qro": "Okusama wa Mahô Shôjo"
    },
    "modified_at": "2020-03-31T19:04:32.377Z",
    "name": "Okusama wa Mahô Shôjo",
    "repository": "kara.moe",
    "tid": "9843be94-19ef-4aac-8525-d19d6b65910a",
    "types": [
      "series",
      "1"
    ]
  }
}