{
  "header": {
    "description": "Karaoke Mugen Tag File",
    "version": 1
  },
  "tag": {
    "i18n": {
      "eng": "Oleh Psiuk"
    },
    "name": "Oleh Psiuk",
    "repository": "kara.moe",
    "tid": "627baa06-8d35-43c6-9e51-521109399920",
    "types": [
      "songwriters",
      "8"
    ]
  }
}