{
  "header": {
    "description": "Karaoke Mugen Tag File",
    "version": 1
  },
  "tag": {
    "i18n": {
      "eng": "Olia Tira"
    },
    "modified_at": "2021-07-24T23:57:23.731Z",
    "name": "Olia Tira",
    "repository": "kara.moe",
    "tid": "1a7505ec-4b20-4aa3-9157-e11753d9cf32",
    "types": [
      "singers",
      "2"
    ]
  }
}