{
  "header": {
    "description": "Karaoke Mugen Tag File",
    "version": 1
  },
  "tag": {
    "i18n": {
      "eng": "Oliver Wallace"
    },
    "name": "Oliver Wallace",
    "repository": "kara.moe",
    "tid": "847f0e4d-2b32-4ee3-8af3-9f995c0782ca",
    "types": [
      "songwriters",
      "8"
    ]
  }
}