{
  "header": {
    "description": "Karaoke Mugen Tag File",
    "version": 1
  },
  "tag": {
    "i18n": {
      "eng": "Olivier Constantin"
    },
    "name": "Olivier Constantin",
    "repository": "kara.moe",
    "tid": "630bb535-96b2-4886-a563-9ee908aea2ee",
    "types": [
      "singers",
      "2",
      "songwriters",
      "8"
    ]
  }
}