{
  "header": {
    "description": "Karaoke Mugen Tag File",
    "version": 1
  },
  "tag": {
    "i18n": {
      "eng": "Om"
    },
    "name": "Om",
    "repository": "kara.moe",
    "tid": "509b5f7b-c400-45ba-8921-1f4fdf0a6c22",
    "types": [
      "singers",
      "2"
    ]
  }
}