{
  "header": {
    "description": "Karaoke Mugen Tag File",
    "version": 1
  },
  "tag": {
    "i18n": {
      "eng": "Omae Tai!!"
    },
    "name": "Omae Tai!!",
    "tid": "edc4c4ad-95fc-47d6-8055-858fe6ccfdca",
    "types": [
      "singers",
      "2"
    ],
    "repository": "kara.moe",
    "modified_at": "2020-03-31T19:04:36.808Z"
  }
}