{
  "header": {
    "description": "Karaoke Mugen Tag File",
    "version": 1
  },
  "tag": {
    "i18n": {
      "eng": "Omega Bone"
    },
    "name": "Omega Bone",
    "repository": "kara.moe",
    "tid": "a9d2488e-76a7-4750-9a94-7c6900dc08fe",
    "types": [
      "singers",
      "2"
    ]
  }
}