{
  "header": {
    "description": "Karaoke Mugen Tag File",
    "version": 1
  },
  "tag": {
    "i18n": {
      "eng": "omega-xis"
    },
    "modified_at": "2020-08-17T14:09:35.687Z",
    "name": "omega-xis",
    "repository": "kara.moe",
    "tid": "0360b062-49c0-4cd2-ad0f-54d7f57729d9",
    "types": [
      "authors",
      "6"
    ]
  }
}