{
  "header": {
    "description": "Karaoke Mugen Tag File",
    "version": 1
  },
  "tag": {
    "i18n": {
      "eng": "Omer Fedi"
    },
    "name": "Omer Fedi",
    "repository": "kara.moe",
    "tid": "2e91f8e8-f327-49cb-83a3-070f1e8b35b3",
    "types": [
      "songwriters",
      "8"
    ]
  }
}