{
  "header": {
    "description": "Karaoke Mugen Tag File",
    "version": 1
  },
  "tag": {
    "aliases": [
      "Mahou Shinshi Gekijou Risky Safety",
      "Risky Safety",
      "Волшебный театр Омиси: Риски и Сэйфти",
      "mahou",
      "gekijou",
      "risky safety"
    ],
    "external_database_ids": {
      "anilist": 1300,
      "myanimelist": 1300,
      "kitsu": 1172
    },
    "i18n": {
      "eng": "Omishi Magical Theater: Risky★Safety",
      "jpn": "臣士魔法劇場 リスキー★セフティ",
      "qro": "Omishi Mahô Gekijô: Risky★Safety"
    },
    "modified_at": "2020-03-31T19:04:32.379Z",
    "name": "Omishi Mahô Gekijô: Risky★Safety",
    "repository": "kara.moe",
    "tid": "16a10e20-59a9-4d5d-b3f4-af77e13beb64",
    "types": [
      "series",
      "1"
    ]
  }
}