{
  "header": {
    "description": "Karaoke Mugen Tag File",
    "version": 1
  },
  "tag": {
    "i18n": {
      "eng": "Omoinotake"
    },
    "name": "Omoinotake",
    "repository": "kara.moe",
    "tid": "da2deabb-4660-4cb7-ab5c-c7b13bafe1b2",
    "types": [
      "singergroups",
      "17"
    ]
  }
}