{
  "header": {
    "description": "Karaoke Mugen Tag File",
    "version": 1
  },
  "tag": {
    "i18n": {
      "eng": "omri"
    },
    "name": "omri",
    "repository": "kara.moe",
    "tid": "e554ab39-0f7e-43eb-822a-9c8ad5e78ed1",
    "types": [
      "singers",
      "2"
    ]
  }
}