{
  "header": {
    "description": "Karaoke Mugen Tag File",
    "version": 1
  },
  "tag": {
    "i18n": {
      "eng": "omri"
    },
    "name": "omri",
    "repository": "kara.moe",
    "tid": "309d266a-5387-4942-a5b7-c5e9fed7eef5",
    "types": [
      "creators",
      "4"
    ]
  }
}