{
  "header": {
    "description": "Karaoke Mugen Tag File",
    "version": 1
  },
  "tag": {
    "i18n": {
      "eng": "Ondřej Hudeček"
    },
    "modified_at": "2021-05-27T22:56:49.666Z",
    "name": "Ondřej Hudeček",
    "repository": "kara.moe",
    "tid": "3fa97654-f2c6-4e11-8689-09d9eca2b6fb",
    "types": [
      "creators",
      "4"
    ]
  }
}