{
  "header": {
    "description": "Karaoke Mugen Tag File",
    "version": 1
  },
  "tag": {
    "aliases": [
      "One Outs: Nobody Wins but I!",
      "oo",
      "oo!",
      "Один на вылет",
      "ون أوتس: لا أحد يفوز سواي!",
      "超智遊戲"
    ],
    "external_database_ids": {
      "anilist": 5040,
      "myanimelist": 5040,
      "kitsu": 3899
    },
    "i18n": {
      "eng": "One Outs",
      "jpn": "ワンナウツ",
      "qro": "One Outs"
    },
    "modified_at": "2020-03-31T19:04:32.380Z",
    "name": "One Outs",
    "repository": "kara.moe",
    "tid": "7d77bea5-fa65-4716-be35-2d4fa8d75bb5",
    "types": [
      "series",
      "1"
    ]
  }
}