{
  "header": {
    "description": "Karaoke Mugen Tag File",
    "version": 1
  },
  "tag": {
    "external_database_ids": {
      "anilist": 116147,
      "myanimelist": 41364,
      "kitsu": 43556
    },
    "i18n": {
      "eng": "One Room 3rd Season",
      "jpn": "One Room サードシーズン",
      "qro": "One Room Third Season"
    },
    "modified_at": "2021-04-17T14:24:07.693Z",
    "name": "One Room Third Season",
    "repository": "kara.moe",
    "tid": "b733e1d4-4112-4402-b9fa-380e679513b5",
    "types": [
      "series",
      "1"
    ]
  }
}