{
  "header": {
    "description": "Karaoke Mugen Tag File",
    "version": 1
  },
  "tag": {
    "aliases": [
      "One2",
      "Please2",
      "Prašau Dvyniai",
      "onetwo",
      "ot2",
      "otw",
      "otwins",
      "pt2",
      "Пожалуйста! Близнецы",
      "おね*2",
      "오네가이 트윈즈"
    ],
    "external_database_ids": {
      "anilist": 196,
      "myanimelist": 196,
      "kitsu": 173
    },
    "i18n": {
      "eng": "Please Twins!",
      "fre": "Onegai☆Twins",
      "jpn": "おねがい☆ツインズ",
      "qro": "Onegai Twins"
    },
    "modified_at": "2020-03-31T19:04:32.386Z",
    "name": "Onegai Twins",
    "repository": "kara.moe",
    "tid": "bf29a8d5-4823-48db-963f-16e6af764af8",
    "types": [
      "series",
      "1"
    ]
  }
}