{
  "header": {
    "description": "Karaoke Mugen Tag File",
    "version": 1
  },
  "tag": {
    "aliases": [
      "OT",
      "Prašau Mokytoja!",
      "one1",
      "onetea",
      "Будь ласка вчителю!",
      "Моля ви учителю",
      "Пожалуйста! Учитель",
      "おねてぃ",
      "오네가이 티쳐"
    ],
    "external_database_ids": {
      "anilist": 195,
      "myanimelist": 195,
      "kitsu": 172
    },
    "i18n": {
      "eng": "Please Teacher!",
      "fre": "Onegai☆Teacher!",
      "ger": "Onegai Teacher",
      "jpn": "おねがい☆ティーチャー",
      "tha": "พลีสทีชเชอร์ สอนนักรักซะ",
      "qro": "Onegai Teacher"
    },
    "modified_at": "2020-03-31T19:04:32.384Z",
    "name": "Onegai Teacher",
    "repository": "kara.moe",
    "tid": "9f12ae5a-4a54-457d-86d6-b14e516b5c36",
    "types": [
      "series",
      "1"
    ]
  }
}