{
  "header": {
    "description": "Karaoke Mugen Tag File",
    "version": 1
  },
  "tag": {
    "i18n": {
      "eng": "OneRepublic"
    },
    "name": "OneRepublic",
    "repository": "kara.moe",
    "tid": "40817659-3e8b-43f3-82a4-9ecc9f35f714",
    "types": [
      "singergroups",
      "17"
    ]
  }
}