{
  "header": {
    "description": "Karaoke Mugen Tag File",
    "version": 1
  },
  "tag": {
    "aliases": [
      "Oniuta"
    ],
    "i18n": {
      "eng": "Oni Uta. ~Oni ga Kitarite, Amaesasero to Notamouta.~",
      "jpn": "鬼うた。 ～鬼が来たりて、甘えさせろとのたもうた。～",
      "qro": "Oni Uta. ~Oni ga Kitarite Amaesasero to Notamouta.~"
    },
    "modified_at": "2020-03-31T19:04:32.387Z",
    "name": "Oni Uta. ~Oni ga Kitarite Amaesasero to Notamouta.~",
    "repository": "kara.moe",
    "tid": "a288ec42-f5fe-4ab1-95c9-3bff560a0326",
    "types": [
      "series",
      "1"
    ]
  }
}