{
  "header": {
    "description": "Karaoke Mugen Tag File",
    "version": 1
  },
  "tag": {
    "aliases": [
      "Brother Dear Brother",
      "Sevgili Abime...",
      "To My Brother...",
      "oe",
      "Милому брату...",
      "Уважаемый старший брат"
    ],
    "external_database_ids": {
      "anilist": 795,
      "myanimelist": 795,
      "kitsu": 709
    },
    "i18n": {
      "ara": "أخي العزيز",
      "eng": "Dear Brother",
      "fre": "Très cher frère",
      "heb": "אחי היקר",
      "ita": "Caro Fratello",
      "jpn": "おにいさまへ...",
      "por": "Querido Irmão...",
      "spa": "Escuela de Cenicientas",
      "qro": "Oniisama e..."
    },
    "modified_at": "2020-06-21T23:45:31.966Z",
    "name": "Oniisama e...",
    "repository": "kara.moe",
    "tid": "9bd547f7-2d8b-4fa2-9a63-c7d65220b7eb",
    "types": [
      "series",
      "1"
    ]
  }
}