{
  "header": {
    "description": "Karaoke Mugen Tag File",
    "version": 1
  },
  "tag": {
    "aliases": [
      "鬼まり。～鬼が夢見し常の世に 至る幼き恋の始まり～"
    ],
    "i18n": {
      "eng": "Onimari. ~Oni ga Yumemishi Tsune no Yo ni, Itaru Osanaki Koi no Hajimari~",
      "jpn": "鬼まり。～鬼が夢見し常の世に, 至る幼き恋のはじまり～",
      "qro": "Onimari. ~Oni ga Yumemishi Tsune no Yo ni Itaru Osanaki Koi no Hajimari~"
    },
    "modified_at": "2020-03-31T19:04:32.389Z",
    "name": "Onimari. ~Oni ga Yumemishi Tsune no Yo ni Itaru Osanaki Koi no Hajimari~",
    "repository": "kara.moe",
    "tid": "8f1a5440-4773-47aa-8608-1108c82641e4",
    "types": [
      "series",
      "1"
    ]
  }
}