{
  "header": {
    "description": "Karaoke Mugen Tag File",
    "version": 1
  },
  "tag": {
    "external_database_ids": {
      "anilist": 100255,
      "myanimelist": 35971,
      "kitsu": 13908
    },
    "i18n": {
      "eng": "Onyankopon",
      "jpn": "おにゃんこポン",
      "qro": "Onyankopon"
    },
    "modified_at": "2021-07-28T22:43:21.707Z",
    "name": "Onyankopon",
    "repository": "kara.moe",
    "tid": "49084db1-40bd-4bf9-924b-d2986a9db224",
    "types": [
      "series",
      "1"
    ]
  }
}