{
  "header": {
    "description": "Karaoke Mugen Tag File",
    "version": 1
  },
  "tag": {
    "aliases": [
      "Odorobo Jing",
      "Oodorobou Jing",
      "Oudorobou Jing"
    ],
    "external_database_ids": {
      "anilist": 107,
      "myanimelist": 107,
      "kitsu": 86
    },
    "i18n": {
      "eng": "Jing: King of Bandits",
      "jpn": "王ドロボウJING",
      "qro": "Oodorobo Jing"
    },
    "modified_at": "2020-03-31T19:04:32.390Z",
    "name": "Oodorobo Jing",
    "repository": "kara.moe",
    "tid": "d159e5ee-e1e1-4403-a35a-3092b5b648bb",
    "types": [
      "series",
      "1"
    ]
  }
}