{
  "header": {
    "description": "Karaoke Mugen Tag File",
    "version": 1
  },
  "tag": {
    "aliases": [
      "ookawa san"
    ],
    "i18n": {
      "eng": "Ookawa no Itamemono",
      "jpn": "大川さんの炒め物"
    },
    "name": "Ookawa-san no Itamemono",
    "repository": "kara.moe",
    "tid": "b1ed4d0d-74d7-4826-a4cd-a52bd81f9210",
    "types": [
      "creators",
      "4"
    ]
  }
}