{
  "header": {
    "description": "Karaoke Mugen Tag File",
    "version": 1
  },
  "tag": {
    "aliases": [
      "Okami-san and Her 7 Companions",
      "Okami-san to Shichinin no Nakama-tachi",
      "Okamisan",
      "Okamisan and Seven Companions",
      "Ookami-san ve Yedi Arkadaşı",
      "ookamisan",
      "Госпожа Волк и семеро друзей",
      "Пані Вовчиця і семеро друзів",
      "オオカミさん",
      "大神与七位伙伴",
      "大神與七位夥伴"
    ],
    "external_database_ids": {
      "anilist": 7769,
      "myanimelist": 7769,
      "kitsu": 5114
    },
    "i18n": {
      "eng": "Okami-san and Her Seven Companions",
      "jpn": "オオカミさんと七人の仲間たち",
      "qro": "Ookami-san to Shichinin no Nakama-tachi"
    },
    "modified_at": "2020-06-21T23:45:31.966Z",
    "name": "Ookami-san to Shichinin no Nakama-tachi",
    "repository": "kara.moe",
    "tid": "ea3eccd0-1d2a-46f6-863b-baa83667a90e",
    "types": [
      "series",
      "1"
    ]
  }
}