{
  "header": {
    "description": "Karaoke Mugen Tag File",
    "version": 1
  },
  "tag": {
    "aliases": [
      "Gods' harboring",
      "Hidden God",
      "Ookami",
      "Скрывание Богов",
      "Унесённые волками",
      "狼神隐",
      "神隐之狼"
    ],
    "external_database_ids": {
      "anilist": 7079,
      "myanimelist": 7079,
      "kitsu": 4859
    },
    "i18n": {
      "eng": "Okamikakushi: Masque of the Wolf",
      "fre": "Ôkamikakushi",
      "jpn": "おおかみかくし",
      "qro": "Ookamikakushi"
    },
    "modified_at": "2020-06-21T23:45:31.966Z",
    "name": "Ookamikakushi",
    "repository": "kara.moe",
    "tid": "4d5d0e95-389f-4343-abb3-03b7d666930e",
    "types": [
      "series",
      "1"
    ]
  }
}