{
  "header": {
    "description": "Karaoke Mugen Tag File",
    "version": 1
  },
  "tag": {
    "i18n": {
      "eng": "OPcrotte"
    },
    "name": "OPcrotte",
    "repository": "kara.moe",
    "tid": "bdb5594c-b147-4e31-a3d8-fd4623e2e44a",
    "types": [
      "singers",
      "2"
    ]
  }
}