{
  "header": {
    "description": "Karaoke Mugen Tag File",
    "version": 1
  },
  "tag": {
    "i18n": {
      "eng": "Orangestar"
    },
    "name": "Orangestar",
    "tid": "ea05cda1-bb09-4818-9ec1-78b21ac84c44",
    "types": [
      "creators",
      "4",
      "songwriters",
      "8"
    ],
    "repository": "kara.moe",
    "modified_at": "2020-03-31T19:04:36.824Z"
  }
}