{
  "header": {
    "description": "Karaoke Mugen Tag File",
    "version": 1
  },
  "tag": {
    "i18n": {
      "eng": "Oranges&Lemons"
    },
    "name": "Oranges&Lemons",
    "repository": "kara.moe",
    "tid": "bd8431ad-0ea3-4d9c-9835-9fb31bbf84a4",
    "types": [
      "singergroups",
      "17"
    ]
  }
}