{
  "header": {
    "description": "Karaoke Mugen Tag File",
    "version": 1
  },
  "tag": {
    "aliases": [
      "やはり俺の青春ラブコメはまちがっている。完 OVA",
      "Yahari Ore no Seishun Love Come wa Machigatteiru. Kan OVA",
      "oregairu kan ova",
      "My youth romantic comedy is wrong as I expected 3 OVA"
    ],
    "external_database_ids": {
      "anilist": 128643,
      "kitsu": 43910,
      "myanimelist": 46431
    },
    "i18n": {
      "eng": "My Teen Romantic Comedy SNAFU Climax! OVA",
      "jpn": "やはり俺の青春ラブコメはまちがっている。完 「だから、思春期は終わらずに、青春は続いていく。」",
      "qro": "Yahari Ore no Seishun Love Come wa Machigatteiru. Kan: Dakara, Shishunki wa Owarazu ni, Seishun wa Tsuzuiteiku."
    },
    "name": "Oregairu Kan OVA",
    "repository": "kara.moe",
    "tid": "0bf0722b-4a24-47bc-92c6-b50fb17f5bcd",
    "types": [
      "series",
      "1"
    ]
  }
}