{
  "header": {
    "description": "Karaoke Mugen Tag File",
    "version": 1
  },
  "tag": {
    "i18n": {
      "eng": "Oreo"
    },
    "modified_at": "2020-08-17T21:19:54.118Z",
    "name": "Oreo",
    "repository": "kara.moe",
    "tid": "31d19fff-51d8-4241-b4ae-1f8fe2b6937f",
    "types": [
      "creators",
      "4"
    ]
  }
}