{
  "header": {
    "description": "Karaoke Mugen Tag File",
    "version": 1
  },
  "tag": {
    "i18n": {
      "eng": "ORESAMA"
    },
    "name": "ORESAMA",
    "tid": "607c7178-32ae-4378-a8d8-5fc3e6762177",
    "types": [
      "singers",
      "2",
      "songwriters",
      "8"
    ],
    "repository": "kara.moe",
    "modified_at": "2020-03-31T19:04:36.827Z"
  }
}