{
  "header": {
    "description": "Karaoke Mugen Tag File",
    "version": 1
  },
  "tag": {
    "i18n": {
      "eng": "ORIHARA"
    },
    "name": "ORIHARA",
    "repository": "kara.moe",
    "tid": "8f1dbe22-aaae-47c3-aa3d-c2ad863b1d57",
    "types": [
      "creators",
      "4"
    ]
  }
}