{
  "header": {
    "description": "Karaoke Mugen Tag File",
    "version": 1
  },
  "tag": {
    "i18n": {
      "eng": "ORIO"
    },
    "name": "ORIO",
    "repository": "kara.moe",
    "tid": "0b3b62db-bc02-4672-ae9b-3cc73361c1c6",
    "types": [
      "singergroups",
      "17"
    ]
  }
}