{
  "header": {
    "description": "Karaoke Mugen Tag File",
    "version": 1
  },
  "tag": {
    "i18n": {
      "eng": "Orlando Brown"
    },
    "name": "Orlando Brown",
    "tid": "55ab0387-91ad-476a-870a-7f071d9f51a9",
    "types": [
      "singers",
      "2"
    ],
    "repository": "kara.moe",
    "modified_at": "2020-03-31T19:04:36.832Z"
  }
}