{
  "header": {
    "description": "Karaoke Mugen Tag File",
    "version": 1
  },
  "tag": {
    "external_database_ids": {
      "anilist": 1060,
      "myanimelist": 1060,
      "kitsu": 949
    },
    "i18n": {
      "eng": "Ebichu",
      "jpn": "おるちゅばんエビちゅ",
      "qro": "Oruchuban Ebichu"
    },
    "modified_at": "2020-03-31T19:04:32.405Z",
    "name": "Oruchuban Ebichu",
    "repository": "kara.moe",
    "tid": "ac1bb1c0-2f85-435a-ae4d-3d7be3bf4da0",
    "types": [
      "series",
      "1"
    ]
  }
}