{
  "header": {
    "description": "Karaoke Mugen Tag File",
    "version": 1
  },
  "tag": {
    "i18n": {
      "eng": "Osamu Kamio"
    },
    "name": "Osamu Kamio",
    "tid": "bfc1f438-3e21-48f0-a33d-d2f28083ae39",
    "types": [
      "songwriters",
      "8"
    ],
    "repository": "kara.moe",
    "modified_at": "2020-03-31T19:04:36.834Z"
  }
}