{
  "header": {
    "description": "Karaoke Mugen Tag File",
    "version": 1
  },
  "tag": {
    "i18n": {
      "eng": "Osamu Minagawa"
    },
    "modified_at": "2020-04-21T20:51:47.594Z",
    "name": "Osamu Minagawa",
    "repository": "kara.moe",
    "tid": "3842d23a-b27a-4ff2-9d2c-bf3a9b138f10",
    "types": [
      "singers",
      "2"
    ]
  }
}