{
  "header": {
    "description": "Karaoke Mugen Tag File",
    "version": 1
  },
  "tag": {
    "i18n": {
      "eng": "Osamu Noguchi"
    },
    "name": "Osamu Noguchi",
    "tid": "ba01509a-c651-4572-b363-c856eebe8c5c",
    "types": [
      "songwriters",
      "8"
    ],
    "repository": "kara.moe",
    "modified_at": "2020-03-31T19:04:36.836Z"
  }
}