{
  "header": {
    "description": "Karaoke Mugen Tag File",
    "version": 1
  },
  "tag": {
    "i18n": {
      "eng": "Osamu Masaki"
    },
    "name": "Osamu Masaki",
    "tid": "4856f08e-73aa-4e2d-a63c-1964a1ff4c37",
    "types": [
      "singers",
      "2",
      "songwriters",
      "8"
    ],
    "repository": "kara.moe",
    "modified_at": "2020-03-31T19:04:36.835Z"
  }
}