{
  "header": {
    "description": "Karaoke Mugen Tag File",
    "version": 1
  },
  "tag": {
    "i18n": {
      "eng": "Oscar Hammerstein II"
    },
    "modified_at": "2021-02-16T10:48:36.178Z",
    "name": "Oscar Hammerstein II",
    "repository": "kara.moe",
    "tid": "e9b5017e-f01f-4dfa-9aab-08e7da15dcc2",
    "types": [
      "songwriters",
      "8"
    ]
  }
}