{
  "header": {
    "description": "Karaoke Mugen Tag File",
    "version": 1
  },
  "tag": {
    "external_database_ids": {
      "anilist": 150672,
      "kitsu": 46170,
      "myanimelist": 52034
    },
    "i18n": {
      "jpn": "【推しの子】",
      "qro": "[Oshi no Ko]"
    },
    "name": "[Oshi no Ko]",
    "repository": "kara.moe",
    "tid": "2f23efae-dc36-4438-8e8d-66c0cd746cd0",
    "types": [
      "series",
      "1"
    ]
  }
}