{
  "header": {
    "description": "Karaoke Mugen Tag File",
    "version": 1
  },
  "tag": {
    "i18n": {
      "eng": "Late Blooming Sunflower –My life renewed-",
      "jpn": "遅咲きのヒマワリ ~ボクの人生、リニューアル~",
      "qro": "Osozaki no Himawari ~Boku no Jinsei Renewal~"
    },
    "modified_at": "2020-03-31T19:04:32.408Z",
    "name": "Osozaki no Himawari ~Boku no Jinsei Renewal~",
    "repository": "kara.moe",
    "tid": "ee0c5d9c-b6ea-43c1-8ea1-e2605d621eb1",
    "types": [
      "series",
      "1"
    ]
  }
}