{
  "header": {
    "description": "Karaoke Mugen Tag File",
    "version": 1
  },
  "tag": {
    "i18n": {
      "afr": "Ossetië, Ossetic",
      "amh": "Ossetian, Ossetic",
      "ara": "أوسيتيا, الأوسيتيك",
      "aze": "Osetin, Osetin",
      "bak": "Осетин Теле, Осетин Теле",
      "bel": "Ossetian, Ossetian",
      "bul": "Осетинский, Осетинский",
      "ben": "ওসেটিয়ার, ওসেটিক",
      "bos": "Osetiji, Ukrajinski",
      "cat": "Ossetian, Ossetic",
      "cze": "Osetie, Osetština",
      "wel": "Ossetian, Ossetic",
      "dan": "Ossetian, Gennemsigtigt",
      "ger": "Ossetische, Ossetic",
      "gre": "Οσετίας, Οσετικά",
      "eng": "Ossetian, Ossetic",
      "epo": "Oseta Lingvo, Oseta",
      "spa": "Osetia, Ossetic",
      "est": "Osseedi, Ossetic",
      "baq": "Ossetian, Osetiera",
      "per": "آسی های لاتینی",
      "fin": "Ossetian, Ossetic",
      "fre": "Ossète, L'Ossète",
      "gle": "Ossetian, Ossetic",
      "gla": "Ossetian, Ossetic",
      "glg": "Osetia, Osetio",
      "guj": "Ossetian, ઓસ્સેટિક",
      "heb": "אוסטיה, Ossetic",
      "hin": "Ossetian, ओस्सेटिक",
      "hrv": "Osetski, Osetski",
      "hat": "Osèt, Ossetic",
      "hun": "Oszét, Ossetic",
      "arm": "Ossetian, Ossetian",
      "ind": "Ossetia, Ossetic",
      "ice": "Ossetian, Enska",
      "ita": "Ossezia, Igbo",
      "jpn": "Ossetianは、ティグレ語",
      "jav": "Ossetian, Osetia",
      "geo": "ოსი, ოსური",
      "kaz": "Осетинский, Осетинский",
      "kan": "Ossetian, ಒಸ್ಸೆಟಿಕ್",
      "kor": "오세트어,오세트어",
      "kir": "Осетинский, Осетинский",
      "lat": "Ossetian, Ossetic",
      "lit": "Osetijos, Ossetic",
      "lav": "Spēkā Sajūta, Osetīnu",
      "mlg": "Ossetian, Ossetic",
      "mao": "Ossetian, Oriya",
      "mac": "Осетија, Ossetic",
      "mal": "ഒസ്സെഷിയന്name, Ossetic",
      "mon": "Ossetian, Ossetic",
      "mar": "ओसेशियनname, Ossetic",
      "may": "Ossetia, Ossete",
      "mlt": "Ossezja Tan-Nofsinhar, }",
      "nep": "ओसेसियनname, Ossetic",
      "dut": "Ossetische, Ossetic",
      "nor": "- Ossetiske, Ossetic",
      "pan": "Ossetian, Ossetic",
      "pol": "Osetyjski, Osetyjski",
      "por": "Ossétia, Ossetic",
      "rum": "Osetia, Osetă",
      "rus": "Осетинский, Осетинский",
      "sin": "Ossetian, Ossetic",
      "slo": "Osetska, Ossetic",
      "slv": "Veljajo Občutek, Beberske Jezike",
      "alb": "Ossetian, Ossetic",
      "srp": "Осетинский, Осетинский",
      "sun": "Ossetian, Ossetic",
      "swe": "Ossetiska, Ossetic",
      "swa": "Ossetian, Ossetic",
      "tam": "Ossetian, ஒசெட்டிக்",
      "tel": "ఒస్సెషియన్name, ఒసేటిక్",
      "tgk": "Осетинский, Осетинский",
      "tha": "ภาษาโอซิเชียน Name,Ossetic",
      "tgl": "Osit, Ossetic",
      "tur": "Oset, Ossetic",
      "tat": "Осетин Теле, Осетин Теле",
      "ukr": "Осетинський, Осетинський",
      "urd": "Ossetian, اوسیٹک",
      "uzb": "Ossetian, Ossetic",
      "vie": "Tấ, Tiếng Nam Tư",
      "xho": "Ossetianname, Ossetic",
      "yid": "אָססעטיאַן, Ossetic",
      "chi": "奥塞梯，奥塞梯文"
    },
    "name": "oss",
    "tid": "4804e322-26b0-4a00-a12d-200ef75ffdc9",
    "types": [
      "langs",
      "5"
    ],
    "repository": "kara.moe",
    "modified_at": "2020-03-31T19:04:36.841Z"
  }
}