{
  "header": {
    "description": "Karaoke Mugen Tag File",
    "version": 1
  },
  "tag": {
    "i18n": {
      "eng": "otetsu"
    },
    "name": "otetsu",
    "repository": "kara.moe",
    "tid": "d1010bb2-bfc6-4379-a503-754a7495af86",
    "types": [
      "songwriters",
      "8"
    ]
  }
}