{
  "header": {
    "description": "Karaoke Mugen Tag File",
    "version": 1
  },
  "tag": {
    "i18n": {
      "eng": "OTOIRO"
    },
    "modified_at": "2021-06-14T10:17:09.667Z",
    "name": "OTOIRO",
    "repository": "kara.moe",
    "tid": "92ae28c3-4c46-45e1-986e-4e5514c9b277",
    "types": [
      "creators",
      "4"
    ]
  }
}