{
  "header": {
    "description": "Karaoke Mugen Tag File",
    "version": 1
  },
  "tag": {
    "aliases": [
      "Ouji Hiroi",
      "Ohji Hiroi"
    ],
    "i18n": {
      "eng": "Ôji Hiroi"
    },
    "modified_at": "2021-01-19T21:35:24.639Z",
    "name": "Ôji Hiroi",
    "repository": "kara.moe",
    "tid": "7cc5d197-4923-4d92-a0e8-deffcf49b1cf",
    "types": [
      "songwriters",
      "8"
    ]
  }
}