{
  "header": {
    "description": "Karaoke Mugen Tag File",
    "version": 1
  },
  "tag": {
    "i18n": {
      "eng": "Ôtori"
    },
    "name": "Ôtori",
    "tid": "9c97db3b-a4e2-4403-b7b7-ae9f1aeba4d1",
    "types": [
      "creators",
      "4"
    ],
    "repository": "kara.moe",
    "modified_at": "2020-03-31T19:04:36.851Z"
  }
}