{
  "header": {
    "description": "Karaoke Mugen Tag File",
    "version": 1
  },
  "tag": {
    "i18n": {
      "fre": "Overwatch"
    },
    "modified_at": "2020-03-31T19:04:32.423Z",
    "name": "Overwatch",
    "repository": "kara.moe",
    "tid": "24b3b5aa-8d74-4c2f-881c-5dbcc08b45fd",
    "types": [
      "series",
      "1"
    ]
  }
}