{
  "header": {
    "description": "Karaoke Mugen Tag File",
    "version": 1
  },
  "tag": {
    "i18n": {
      "eng": "OVERA"
    },
    "modified_at": "2021-02-17T21:23:21.873Z",
    "name": "OVERA",
    "repository": "kara.moe",
    "tid": "5c453c09-8cdf-446e-bde3-72e85f3a1135",
    "types": [
      "creators",
      "4"
    ]
  }
}