{
  "header": {
    "description": "Karaoke Mugen Tag File",
    "version": 1
  },
  "tag": {
    "aliases": [
      "Seraph of the End",
      "Последний Серафим"
    ],
    "external_database_ids": {
      "anilist": 20829,
      "myanimelist": 26243,
      "kitsu": 8736
    },
    "i18n": {
      "eng": "Seraph of the End: Vampire Reign",
      "fre": "Seraph of the End",
      "ger": "Seraph of the End",
      "jpn": "終わりのセラフ Seraph of the end",
      "kor": "종말의 세라프",
      "pol": "Serafin Dni Ostatnich",
      "qro": "Owari no Seraph"
    },
    "modified_at": "2020-03-31T19:04:32.424Z",
    "name": "Owari no Seraph",
    "repository": "kara.moe",
    "tid": "4dc35109-13e8-4eaa-9e43-f0ead749bd53",
    "types": [
      "series",
      "1",
      "franchises",
      "18"
    ]
  }
}