{
  "header": {
    "description": "Karaoke Mugen Tag File",
    "version": 1
  },
  "tag": {
    "i18n": {
      "eng": "P.O.S."
    },
    "name": "P.O.S.",
    "repository": "kara.moe",
    "tid": "80aeceff-9649-42d8-b074-b0770e1543e6",
    "types": [
      "songwriters",
      "8"
    ],
    "modified_at": "2020-03-31T19:04:36.858Z"
  }
}