{
  "header": {
    "description": "Karaoke Mugen Tag File",
    "version": 1
  },
  "tag": {
    "i18n": {
      "jpn": "ぱはむたん",
      "qro": "Pahamutan"
    },
    "name": "Pahamutan",
    "repository": "kara.moe",
    "tid": "6313eff7-b338-4e38-8129-482b2ad32054",
    "types": [
      "songwriters",
      "8"
    ]
  }
}