{
  "header": {
    "description": "Karaoke Mugen Tag File",
    "version": 1
  },
  "tag": {
    "i18n": {
      "fre": "Palmashow"
    },
    "modified_at": "2020-03-31T19:04:32.427Z",
    "name": "Palmashow",
    "repository": "kara.moe",
    "tid": "3d5bc62f-167e-477a-bfcc-976618acba83",
    "types": [
      "series",
      "1"
    ]
  }
}