{
  "header": {
    "description": "Karaoke Mugen Tag File",
    "version": 1
  },
  "tag": {
    "i18n": {
      "eng": "palo auo"
    },
    "name": "palo auo",
    "repository": "kara.moe",
    "tid": "e27495e5-fe81-4ea7-a15a-129a854992d6",
    "types": [
      "creators",
      "4"
    ],
    "modified_at": "2020-03-31T19:04:36.862Z"
  }
}