{
  "header": {
    "description": "Karaoke Mugen Tag File",
    "version": 1
  },
  "tag": {
    "aliases": [
      "PH",
      "PandoraHearts",
      "Сердца Пандоры",
      "قلوب باندورا",
      "潘多拉之心",
      "潘朵拉之心"
    ],
    "external_database_ids": {
      "anilist": 5530,
      "myanimelist": 5530,
      "kitsu": 4138
    },
    "i18n": {
      "eng": "Pandora Hearts",
      "fre": "Pandora Hearts",
      "ger": "Pandora Hearts",
      "jpn": "パンドラハーツ",
      "qro": "Pandora Hearts"
    },
    "modified_at": "2020-03-31T19:04:32.429Z",
    "name": "Pandora Hearts",
    "repository": "kara.moe",
    "tid": "98c3bceb-489e-4172-86a2-549dcc32ba63",
    "types": [
      "series",
      "1"
    ]
  }
}