{
  "header": {
    "description": "Karaoke Mugen Tag File",
    "version": 1
  },
  "tag": {
    "aliases": [
      "Galaxy Group"
    ],
    "i18n": {
      "eng": "Pandemonium"
    },
    "name": "Pandemonium",
    "repository": "kara.moe",
    "tid": "bbb2f77f-dbfe-445b-8ad2-dbc263cda7d4",
    "types": [
      "singers",
      "2"
    ]
  }
}