{
  "header": {
    "description": "Karaoke Mugen Tag File",
    "version": 1
  },
  "tag": {
    "i18n": {
      "eng": "Panda"
    },
    "name": "Panda",
    "repository": "kara.moe",
    "tid": "fe4ac8c6-5851-4f4c-a707-33704588af9e",
    "types": [
      "creators",
      "4"
    ]
  }
}