{
  "header": {
    "description": "Karaoke Mugen Tag File",
    "version": 1
  },
  "tag": {
    "i18n": {
      "eng": "Pantero"
    },
    "modified_at": "2021-10-02T15:45:46.877Z",
    "name": "Pantero",
    "repository": "kara.moe",
    "tid": "45c26d75-1251-4c7a-bc40-d00821fdf45a",
    "types": [
      "authors",
      "6"
    ]
  }
}