{
  "header": {
    "description": "Karaoke Mugen Tag File",
    "version": 1
  },
  "tag": {
    "i18n": {
      "eng": "Pào pào"
    },
    "modified_at": "2021-04-04T12:06:26.440Z",
    "name": "Pào pào",
    "repository": "kara.moe",
    "tid": "1111aebd-d334-45ec-a443-ad914f2972b2",
    "types": [
      "singers",
      "2"
    ]
  }
}