{
  "header": {
    "description": "Karaoke Mugen Tag File",
    "version": 1
  },
  "tag": {
    "i18n": {
      "eng": "Paolo Picutti"
    },
    "name": "Paolo Picutti",
    "repository": "kara.moe",
    "tid": "514bcaf6-1a5f-4e01-a472-d0d1d736ecb9",
    "types": [
      "singers",
      "2"
    ]
  }
}