{
  "header": {
    "description": "Karaoke Mugen Tag File",
    "version": 1
  },
  "tag": {
    "i18n": {
      "eng": "Paolo Lepore"
    },
    "name": "Paolo Lepore",
    "tid": "9ef77f23-e917-4d33-93ca-eecbd04ea6ae",
    "types": [
      "songwriters",
      "8"
    ],
    "repository": "kara.moe",
    "modified_at": "2020-03-31T19:04:36.868Z"
  }
}