{
  "header": {
    "description": "Karaoke Mugen Tag File",
    "version": 1
  },
  "tag": {
    "i18n": {
      "eng": "Papa Cool & The Familly"
    },
    "modified_at": "2020-03-31T21:29:37.731Z",
    "name": "Papa Cool & The Familly",
    "repository": "kara.moe",
    "tid": "1db74b98-79be-4cd5-918f-c564b8e1f0a6",
    "types": [
      "singers",
      "2"
    ]
  }
}