{
  "header": {
    "description": "Karaoke Mugen Tag File",
    "version": 1
  },
  "tag": {
    "aliases": [
      "Papa no Iukoto wo Kikinasai"
    ],
    "external_database_ids": {
      "anilist": 11179,
      "myanimelist": 11179,
      "kitsu": 6469
    },
    "i18n": {
      "eng": "Listen to Me, Girls. I Am Your Father!",
      "fre": "Papa no iu Koto wo Kikinasai!",
      "jpn": "パパのいうことを聞きなさい!",
      "qro": "Papa no iu Koto wo Kikinasai!"
    },
    "modified_at": "2020-03-31T19:04:32.432Z",
    "name": "Papa no iu Koto wo Kikinasai!",
    "repository": "kara.moe",
    "tid": "d0683d4d-c9bf-4081-ab61-7b8b8f7e51f7",
    "types": [
      "series",
      "1"
    ]
  }
}