{
  "header": {
    "description": "Karaoke Mugen Tag File",
    "version": 1
  },
  "tag": {
    "i18n": {
      "eng": "paperisfood"
    },
    "name": "paperisfood",
    "repository": "kara.moe",
    "tid": "aa1e547a-27ed-4bf8-ac61-c2373ee9513d",
    "types": [
      "creators",
      "4"
    ]
  }
}