{
  "header": {
    "description": "Karaoke Mugen Tag File",
    "version": 1
  },
  "tag": {
    "i18n": {
      "eng": "Pär Sundström"
    },
    "modified_at": "2021-10-23T20:52:21.775Z",
    "name": "Pär Sundström",
    "repository": "kara.moe",
    "tid": "7b8233a7-0c86-495d-bdcb-d9dda748be4b",
    "types": [
      "songwriters",
      "8"
    ]
  }
}