{
  "header": {
    "description": "Karaoke Mugen Tag File",
    "version": 1
  },
  "tag": {
    "i18n": {
      "eng": "paranoik"
    },
    "modified_at": "2020-07-10T22:10:03.541Z",
    "name": "paranoik",
    "repository": "kara.moe",
    "tid": "820d381a-254e-4e16-ad10-6a0478a89d72",
    "types": [
      "authors",
      "6"
    ]
  }
}