{
  "header": {
    "description": "Karaoke Mugen Tag File",
    "version": 1
  },
  "tag": {
    "i18n": {
      "eng": "Parade"
    },
    "name": "Parade",
    "tid": "4aabf023-f136-4048-baf8-2322196615f2",
    "types": [
      "creators",
      "4"
    ],
    "repository": "kara.moe",
    "modified_at": "2020-03-31T19:04:36.870Z"
  }
}