{
  "header": {
    "description": "Karaoke Mugen Tag File",
    "version": 1
  },
  "tag": {
    "aliases": [
      "パラソル"
    ],
    "i18n": {
      "eng": "PARA-SOL",
      "jpn": "PARA-SOL",
      "qro": "PARA-SOL"
    },
    "modified_at": "2020-03-31T19:04:32.434Z",
    "name": "PARA-SOL",
    "repository": "kara.moe",
    "tid": "0a9e57aa-dfd7-449e-ab3f-bb605729eed5",
    "types": [
      "series",
      "1"
    ]
  }
}