{
  "header": {
    "description": "Karaoke Mugen Tag File",
    "version": 1
  },
  "tag": {
    "external_database_ids": {
      "anilist": 3736,
      "kitsu": 3221,
      "myanimelist": 3736
    },
    "i18n": {
      "cze": "Rapper PaRappa",
      "eng": "PaRappa the Rapper",
      "hun": "PaRappa a Rapper",
      "jpn": "パラッパラッパー",
      "qro": "PaRappa the Rapper",
      "rum": "Raperul PaRappa",
      "fre": "PaRappa the Rapper"
    },
    "name": "PaRappa the Rapper",
    "repository": "kara.moe",
    "tid": "9eefe599-8e02-4511-89ae-a86704955fb9",
    "types": [
      "series",
      "1",
      "franchises",
      "18"
    ]
  }
}