{
  "header": {
    "description": "Karaoke Mugen Tag File",
    "version": 1
  },
  "tag": {
    "aliases": [
      "Koumei",
      "派对浪客诸葛孔明"
    ],
    "external_database_ids": {
      "anilist": 141774,
      "myanimelist": 50380,
      "kitsu": 45506
    },
    "i18n": {
      "eng": "Ya Boy Kongming!",
      "jpn": "パリピ孔明",
      "qro": "Paripi Kômei"
    },
    "name": "Paripi Koumei",
    "repository": "kara.moe",
    "tid": "cee09d3c-75e6-4501-9fda-cb4a6b4755c7",
    "types": [
      "series",
      "1"
    ]
  }
}