{
  "header": {
    "description": "Karaoke Mugen Tag File",
    "version": 1
  },
  "tag": {
    "aliases": [
      "Chanyeol"
    ],
    "i18n": {
      "eng": "Park Chanyeol",
      "kor": "박찬열"
    },
    "name": "Park Chanyeol",
    "tid": "50012d58-263d-4dc0-8cc3-d1a7502d1b96",
    "types": [
      "singers",
      "2"
    ],
    "repository": "kara.moe",
    "modified_at": "2020-03-31T19:04:36.871Z"
  }
}