{
  "header": {
    "description": "Karaoke Mugen Tag File",
    "version": 1
  },
  "tag": {
    "i18n": {
      "eng": "Park Sung-hoon"
    },
    "name": "Park Sung-hoon",
    "repository": "kara.moe",
    "tid": "3544bfc9-ea67-4ec1-824c-f6a5c6b756b3",
    "types": [
      "singers",
      "2"
    ]
  }
}