{
  "header": {
    "description": "Karaoke Mugen Tag File",
    "version": 1
  },
  "tag": {
    "i18n": {
      "eng": "Parmin Board",
      "jpn": "ぱるみんボード"
    },
    "name": "Parmin Board",
    "repository": "kara.moe",
    "tid": "685ef8ea-a37e-4574-911a-2ec5a47bc94a",
    "types": [
      "creators",
      "4"
    ]
  }
}