{
  "header": {
    "description": "Karaoke Mugen Tag File",
    "version": 1
  },
  "tag": {
    "i18n": {
      "eng": "Parry Gripp"
    },
    "name": "Parry Gripp",
    "repository": "kara.moe",
    "tid": "9b9a94ee-b936-48d3-9df3-318c0aab0a04",
    "types": [
      "songwriters",
      "8",
      "singers",
      "2"
    ]
  }
}