{
  "header": {
    "description": "Karaoke Mugen Tag File",
    "version": 1
  },
  "tag": {
    "i18n": {
      "eng": "Partenaire particulier"
    },
    "name": "Partenaire particulier",
    "repository": "kara.moe",
    "tid": "cc093bdd-b257-4af0-9bbe-e312c8248b17",
    "types": [
      "singers",
      "2"
    ]
  }
}