{
  "header": {
    "description": "Karaoke Mugen Tag File",
    "version": 1
  },
  "tag": {
    "i18n": {
      "eng": "Pascal Periz"
    },
    "name": "Pascal Periz",
    "repository": "kara.moe",
    "tid": "526a8cca-3853-4648-96f0-f97ee81af72f",
    "types": [
      "singers",
      "2",
      "songwriters",
      "8"
    ]
  }
}