{
  "header": {
    "description": "Karaoke Mugen Tag File",
    "version": 1
  },
  "tag": {
    "i18n": {
      "eng": "PASSiON KiNG"
    },
    "modified_at": "2020-12-09T20:31:44.912Z",
    "name": "PASSiON KiNG",
    "repository": "kara.moe",
    "tid": "03e1b3d7-b472-4245-bdd1-70266a6937de",
    "types": [
      "songwriters",
      "8"
    ]
  }
}