{
  "header": {
    "description": "Karaoke Mugen Tag File",
    "version": 1
  },
  "tag": {
    "i18n": {
      "eng": "PASTEL"
    },
    "name": "PASTEL",
    "tid": "046049ee-e6ae-4b86-b9d3-df5620db7586",
    "types": [
      "creators",
      "4"
    ],
    "repository": "kara.moe",
    "modified_at": "2020-03-31T19:04:36.880Z"
  }
}