{
  "header": {
    "description": "Karaoke Mugen Tag File",
    "version": 1
  },
  "tag": {
    "i18n": {
      "eng": "Pat Le Guen"
    },
    "name": "Pat Le Guen",
    "tid": "e87db774-1593-4b8f-b115-ae9598fd0a8e",
    "types": [
      "creators",
      "4"
    ],
    "repository": "kara.moe",
    "modified_at": "2020-03-31T19:04:36.880Z"
  }
}