{
  "header": {
    "description": "Karaoke Mugen Tag File",
    "version": 1
  },
  "tag": {
    "i18n": {
      "eng": "Pat McCarthy"
    },
    "modified_at": "2021-04-27T22:38:26.754Z",
    "name": "Pat McCarthy",
    "repository": "kara.moe",
    "tid": "5401ba3f-cd96-42b7-9327-0de9853b8699",
    "types": [
      "songwriters",
      "8"
    ]
  }
}