{
  "header": {
    "description": "Karaoke Mugen Tag File",
    "version": 1
  },
  "tag": {
    "i18n": {
      "eng": "Patrick Stump"
    },
    "name": "Patrick Stump",
    "repository": "kara.moe",
    "tid": "848d6d0e-59d9-4847-93b9-6a4dfb061e69",
    "types": [
      "songwriters",
      "8"
    ]
  }
}