{
  "header": {
    "description": "Karaoke Mugen Tag File",
    "version": 1
  },
  "tag": {
    "i18n": {
      "eng": "Patrick Sébastien"
    },
    "name": "Patrick Sébastien",
    "tid": "74fd541d-3495-4a68-bae2-69c740fd7992",
    "types": [
      "creators",
      "4",
      "singers",
      "2",
      "songwriters",
      "8"
    ],
    "repository": "kara.moe",
    "modified_at": "2020-03-31T19:04:36.886Z"
  }
}