{
  "header": {
    "description": "Karaoke Mugen Tag File",
    "version": 1
  },
  "tag": {
    "i18n": {
      "eng": "Patrick Effendy"
    },
    "name": "Patrick Effendy",
    "repository": "kara.moe",
    "tid": "378be23a-1f9d-448e-bf12-e7a2fe0dab75",
    "types": [
      "songwriters",
      "8"
    ]
  }
}