{
  "header": {
    "description": "Karaoke Mugen Tag File",
    "version": 1
  },
  "tag": {
    "i18n": {
      "eng": "Patrick Oliver"
    },
    "name": "Patrick Oliver",
    "tid": "6431b217-2b2b-4cc5-bb4d-7efae7e7b780",
    "types": [
      "songwriters",
      "8"
    ],
    "repository": "kara.moe",
    "modified_at": "2020-03-31T19:04:36.885Z"
  }
}