{
  "header": {
    "description": "Karaoke Mugen Tag File",
    "version": 1
  },
  "tag": {
    "i18n": {
      "eng": "Paul McCartney"
    },
    "modified_at": "2021-10-03T17:08:56.697Z",
    "name": "Paul McCartney",
    "repository": "kara.moe",
    "tid": "b628ad85-67d2-4001-8ec5-47907249ece9",
    "types": [
      "songwriters",
      "8"
    ]
  }
}