{
  "header": {
    "description": "Karaoke Mugen Tag File",
    "version": 1
  },
  "tag": {
    "i18n": {
      "eng": "Paul Epworth"
    },
    "name": "Paul Epworth",
    "tid": "d99079b3-e2e5-45ae-bc5d-8351850f286a",
    "types": [
      "songwriters",
      "8"
    ],
    "repository": "kara.moe",
    "modified_at": "2020-03-31T19:04:36.888Z"
  }
}