{
  "header": {
    "description": "Karaoke Mugen Tag File",
    "version": 1
  },
  "tag": {
    "i18n": {
      "eng": "Pdogg"
    },
    "name": "Pdogg",
    "tid": "3b77604d-5e08-4247-b8d6-8a3836d0e58a",
    "types": [
      "songwriters",
      "8"
    ],
    "repository": "kara.moe",
    "modified_at": "2020-03-31T19:04:36.893Z"
  }
}