{
  "header": {
    "description": "Karaoke Mugen Tag File",
    "version": 1
  },
  "tag": {
    "i18n": {
      "eng": "Peaky P-key"
    },
    "name": "Peaky P-key",
    "repository": "kara.moe",
    "tid": "f26ff5d5-f37a-4aa0-a4cd-5b33bc00ecc2",
    "types": [
      "singergroups",
      "17"
    ]
  }
}