{
  "header": {
    "description": "Karaoke Mugen Tag File",
    "version": 1
  },
  "tag": {
    "i18n": {
      "eng": "Pearl"
    },
    "name": "Pearl",
    "tid": "2373f84c-4c94-4c9c-9b59-1570ae36e613",
    "types": [
      "singers",
      "2"
    ],
    "repository": "kara.moe",
    "modified_at": "2020-03-31T19:04:36.894Z"
  }
}