{
  "header": {
    "description": "Karaoke Mugen Tag File",
    "version": 1
  },
  "tag": {
    "i18n": {
      "eng": "pecka"
    },
    "name": "pecka",
    "repository": "kara.moe",
    "tid": "ee8628c8-9b7f-415b-bc0d-9b712d5daf8c",
    "types": [
      "authors",
      "6"
    ]
  }
}