{
  "header": {
    "description": "Karaoke Mugen Tag File",
    "version": 1
  },
  "tag": {
    "i18n": {
      "eng": "PEDL"
    },
    "name": "PEDL",
    "tid": "645f7f9c-382c-438d-a31e-ea29c4c80023",
    "types": [
      "creators",
      "4"
    ],
    "repository": "kara.moe",
    "modified_at": "2020-03-31T19:04:36.894Z"
  }
}