{
  "header": {
    "description": "Karaoke Mugen Tag File",
    "version": 1
  },
  "tag": {
    "i18n": {
      "eng": "Peejun"
    },
    "name": "Peejun",
    "tid": "c378fb18-f4be-4177-8b59-66ddbfbb2dfe",
    "types": [
      "songwriters",
      "8"
    ],
    "repository": "kara.moe",
    "modified_at": "2020-03-31T19:04:36.895Z"
  }
}