{
  "header": {
    "description": "Karaoke Mugen Tag File",
    "version": 1
  },
  "tag": {
    "i18n": {
      "eng": "Peggy March"
    },
    "name": "Peggy March",
    "repository": "kara.moe",
    "tid": "af66e9ed-5daa-4d54-b8e1-778df021b582",
    "types": [
      "songwriters",
      "8"
    ]
  }
}