{
  "header": {
    "description": "Karaoke Mugen Tag File",
    "version": 1
  },
  "tag": {
    "i18n": {
      "eng": "Peko"
    },
    "name": "Peko",
    "tid": "06022b24-1474-4c9a-8132-d6786d2d17d7",
    "types": [
      "songwriters",
      "8"
    ],
    "repository": "kara.moe",
    "modified_at": "2020-03-31T19:04:36.896Z"
  }
}