{
  "header": {
    "description": "Karaoke Mugen Tag File",
    "version": 1
  },
  "tag": {
    "i18n": {
      "eng": "PelleK"
    },
    "name": "PelleK",
    "repository": "kara.moe",
    "tid": "eb7d3208-b2f7-446e-b29b-9c650099a8e5",
    "types": [
      "singers",
      "2"
    ]
  }
}