{
  "header": {
    "description": "Karaoke Mugen Tag File",
    "version": 1
  },
  "tag": {
    "i18n": {
      "eng": "Penta Asibuto",
      "jpn": "足太ぺんた"
    },
    "name": "Penta Asibuto",
    "repository": "kara.moe",
    "tid": "aeb75b0a-796b-4266-b5b5-f4c741e772f4",
    "types": [
      "creators",
      "4"
    ]
  }
}