{
  "header": {
    "description": "Karaoke Mugen Tag File",
    "version": 1
  },
  "tag": {
    "i18n": {
      "eng": "Pepsiman"
    },
    "name": "Pepsiman",
    "repository": "kara.moe",
    "tid": "46ad449e-a46d-4bea-8e1e-ffda69bb91c1",
    "types": [
      "singers",
      "2"
    ],
    "modified_at": "2020-03-31T19:04:36.903Z"
  }
}