{
  "header": {
    "description": "Karaoke Mugen Tag File",
    "version": 1
  },
  "tag": {
    "i18n": {
      "eng": "Perfume"
    },
    "name": "Perfume",
    "tid": "78726a5c-35c9-4c82-9307-3564797ff50b",
    "types": [
      "singers",
      "2"
    ],
    "repository": "kara.moe",
    "modified_at": "2020-03-31T19:04:36.905Z"
  }
}