{
  "header": {
    "description": "Karaoke Mugen Tag File",
    "version": 1
  },
  "tag": {
    "i18n": {
      "eng": "peЯoco"
    },
    "name": "peЯoco",
    "repository": "kara.moe",
    "tid": "0722b729-a7e1-47bc-a9ea-6f41857564b6",
    "types": [
      "songwriters",
      "8"
    ]
  }
}