{
  "header": {
    "description": "Karaoke Mugen Tag File",
    "version": 1
  },
  "tag": {
    "aliases": [
      "P Q2",
      "SMT",
      "Shin Megami Tensei"
    ],
    "i18n": {
      "eng": "Persona Q2: New Cinema Labyrinth",
      "jpn": "ペルソナQ2 ニュー シネマ ラビリンズ",
      "qro": "Persona Q2"
    },
    "modified_at": "2021-01-18T00:05:32.357Z",
    "name": "Persona Q2",
    "repository": "kara.moe",
    "tid": "2664992c-bc58-4bc2-9031-2b250300d051",
    "types": [
      "series",
      "1"
    ]
  }
}