{
  "header": {
    "description": "Karaoke Mugen Tag File",
    "version": 1
  },
  "tag": {
    "i18n": {
      "eng": "Pet Shop Boys"
    },
    "name": "Pet Shop Boys",
    "repository": "kara.moe",
    "tid": "6b8f4f65-7948-4cda-a32b-241d284aceb5",
    "types": [
      "singergroups",
      "17"
    ]
  }
}