{
  "header": {
    "description": "Karaoke Mugen Tag File",
    "version": 1
  },
  "tag": {
    "i18n": {
      "eng": "Pet na Kanojo-tachi"
    },
    "name": "Pet na Kanojo-tachi",
    "tid": "7a53afca-3506-45cf-a26c-1fb3a9d5f51b",
    "types": [
      "singers",
      "2"
    ],
    "repository": "kara.moe",
    "modified_at": "2020-03-31T19:04:36.906Z"
  }
}