{
  "header": {
    "description": "Karaoke Mugen Tag File",
    "version": 1
  },
  "tag": {
    "i18n": {
      "eng": "Pete Woodroffe"
    },
    "name": "Pete Woodroffe",
    "tid": "bfec5b2b-962e-4744-9af1-5b402aaa482e",
    "types": [
      "songwriters",
      "8"
    ],
    "repository": "kara.moe",
    "modified_at": "2020-03-31T19:04:36.908Z"
  }
}