{
  "header": {
    "description": "Karaoke Mugen Tag File",
    "version": 1
  },
  "tag": {
    "i18n": {
      "eng": "Peter Habib"
    },
    "name": "Peter Habib",
    "repository": "kara.moe",
    "tid": "31b7d41b-48ba-4208-ae18-5a469139691c",
    "types": [
      "songwriters",
      "8"
    ]
  }
}