{
  "header": {
    "description": "Karaoke Mugen Tag File",
    "version": 1
  },
  "tag": {
    "i18n": {
      "eng": "Petit Ferret"
    },
    "name": "Petit Ferret",
    "tid": "a201cc00-30f6-426f-8730-c0887ef46e4c",
    "types": [
      "creators",
      "4"
    ],
    "repository": "kara.moe",
    "modified_at": "2020-03-31T19:04:36.910Z"
  }
}