{
  "header": {
    "description": "Karaoke Mugen Tag File",
    "version": 1
  },
  "tag": {
    "i18n": {
      "eng": "pH Studio"
    },
    "name": "pH Studio",
    "repository": "kara.moe",
    "tid": "d60df72a-34ee-4567-97db-90bb5bdc5355",
    "types": [
      "creators",
      "4"
    ]
  }
}