{
  "header": {
    "description": "Karaoke Mugen Tag File",
    "version": 1
  },
  "tag": {
    "i18n": {
      "eng": "PHANTASM",
      "jpn": "ファンタズム"
    },
    "name": "Phantasm",
    "repository": "kara.moe",
    "tid": "7d912311-59e5-47e1-8c70-b79729fc8c5b",
    "types": [
      "singergroups",
      "17"
    ]
  }
}