{
  "header": {
    "description": "Karaoke Mugen Tag File",
    "version": 1
  },
  "tag": {
    "i18n": {
      "eng": "PHEVOTT"
    },
    "name": "PHEVOTT",
    "tid": "4125edd8-185c-4dd7-8905-21d52974a7d4",
    "types": [
      "songwriters",
      "8"
    ],
    "repository": "kara.moe",
    "modified_at": "2020-03-31T19:04:36.914Z"
  }
}