{
  "header": {
    "description": "Karaoke Mugen Tag File",
    "version": 1
  },
  "tag": {
    "i18n": {
      "eng": "Philippe Monthaye"
    },
    "modified_at": "2021-02-08T23:14:36.800Z",
    "name": "Philippe Monthaye",
    "repository": "kara.moe",
    "tid": "ba0ea9f3-1dc8-4125-a02a-e1c0a37c99e2",
    "types": [
      "songwriters",
      "8"
    ]
  }
}