{
  "header": {
    "description": "Karaoke Mugen Tag File",
    "version": 1
  },
  "tag": {
    "i18n": {
      "eng": "Philippe Félidat"
    },
    "name": "Philippe Félidat",
    "repository": "kara.moe",
    "tid": "62a3b68b-7f6c-4105-99b0-484275f89b9a",
    "types": [
      "songwriters",
      "8"
    ]
  }
}