{
  "header": {
    "description": "Karaoke Mugen Tag File",
    "version": 1
  },
  "tag": {
    "i18n": {
      "eng": "Philip Woo"
    },
    "name": "Philip Woo",
    "tid": "0e199afd-3db9-4613-9a8d-d80e5bce747c",
    "types": [
      "songwriters",
      "8"
    ],
    "repository": "kara.moe",
    "modified_at": "2020-03-31T19:04:36.916Z"
  }
}