{
  "header": {
    "description": "Karaoke Mugen Tag File",
    "version": 1
  },
  "tag": {
    "i18n": {
      "eng": "Phoko"
    },
    "name": "Phoko",
    "tid": "f1710fab-7461-468f-a8dd-11eebe4e1fc0",
    "types": [
      "authors",
      "6"
    ],
    "repository": "kara.moe",
    "modified_at": "2020-03-31T19:04:36.918Z"
  }
}