{
  "header": {
    "description": "Karaoke Mugen Tag File",
    "version": 1
  },
  "tag": {
    "i18n": {
      "eng": "Phonogram"
    },
    "name": "Phonogram",
    "repository": "kara.moe",
    "tid": "8faa5ebb-22af-4593-acfb-8a4c0a146e0c",
    "types": [
      "creators",
      "4"
    ]
  }
}