{
  "header": {
    "description": "Karaoke Mugen Tag File",
    "version": 1
  },
  "tag": {
    "aliases": [
      "Foto Kano",
      "Photograph Girlfriend"
    ],
    "external_database_ids": {
      "anilist": 16397,
      "myanimelist": 16397,
      "kitsu": 7421
    },
    "i18n": {
      "eng": "Photo Kano",
      "fre": "PhotoKano",
      "ger": "Photo Kano",
      "jpn": "フォトカノ",
      "qro": "Photokano"
    },
    "modified_at": "2020-03-31T19:04:32.456Z",
    "name": "Photokano",
    "repository": "kara.moe",
    "tid": "50c10e4c-2a38-4bba-aba4-639c546b7783",
    "types": [
      "series",
      "1"
    ]
  }
}