{
  "header": {
    "description": "Karaoke Mugen Tag File",
    "version": 1
  },
  "tag": {
    "i18n": {
      "eng": "Pia Zadora"
    },
    "name": "Pia Zadora",
    "repository": "kara.moe",
    "tid": "c87cdab9-9f54-4311-b96b-8f4c8304c4c7",
    "types": [
      "singers",
      "2"
    ]
  }
}