{
  "header": {
    "description": "Karaoke Mugen Tag File",
    "version": 1
  },
  "tag": {
    "aliases": [
      "Boku no Pico 3"
    ],
    "external_database_ids": {
      "anilist": 4866,
      "myanimelist": 4866,
      "kitsu": 3829
    },
    "i18n": {
      "eng": "Pico x CoCo x Chico",
      "jpn": "ぴこ×CoCo×ちこ",
      "qro": "Pico x CoCo x Chico"
    },
    "modified_at": "2020-03-31T19:04:32.457Z",
    "name": "Pico x CoCo x Chico",
    "repository": "kara.moe",
    "tid": "fdef96ce-0e80-4bd7-bf59-e4498b4e29ca",
    "types": [
      "series",
      "1"
    ]
  }
}