{
  "header": {
    "description": "Karaoke Mugen Tag File",
    "version": 1
  },
  "tag": {
    "i18n": {
      "eng": "Pierre Nakano"
    },
    "name": "Pierre Nakano",
    "tid": "bff0ebbb-e0d4-46d4-9a33-78804db3bd42",
    "types": [
      "singers",
      "2"
    ],
    "repository": "kara.moe",
    "modified_at": "2020-03-31T19:04:36.927Z"
  }
}