{
  "header": {
    "description": "Karaoke Mugen Tag File",
    "version": 1
  },
  "tag": {
    "i18n": {
      "eng": "Pierre-Daniel Rheault"
    },
    "name": "Pierre-Daniel Rheault",
    "repository": "kara.moe",
    "tid": "7863a7b7-de1f-4792-91f5-7f1aa19b58ff",
    "types": [
      "songwriters",
      "8"
    ]
  }
}