{
  "header": {
    "description": "Karaoke Mugen Tag File",
    "version": 1
  },
  "tag": {
    "i18n": {
      "eng": "Pierre Maugard"
    },
    "name": "Pierre Maugard",
    "tid": "9e16da7e-a803-4d9a-b7b7-dceb13ccfbdc",
    "types": [
      "creators",
      "4",
      "songwriters",
      "8"
    ],
    "repository": "kara.moe",
    "modified_at": "2020-03-31T19:04:36.926Z"
  }
}