{
  "header": {
    "description": "Karaoke Mugen Tag File",
    "version": 1
  },
  "tag": {
    "i18n": {
      "eng": "Piero Cassano"
    },
    "modified_at": "2021-09-18T20:59:24.308Z",
    "name": "Piero Cassano",
    "repository": "kara.moe",
    "tid": "a8636b6a-b190-405b-993b-eb0cb11244ae",
    "types": [
      "songwriters",
      "8"
    ]
  }
}