{
  "header": {
    "description": "Karaoke Mugen Tag File",
    "version": 1
  },
  "tag": {
    "i18n": {
      "eng": "PIGGS"
    },
    "name": "PIGGS",
    "repository": "kara.moe",
    "tid": "cbb1aefb-0d50-4d41-8ccd-3d1a5e6688e9",
    "types": [
      "singergroups",
      "17"
    ]
  }
}