{
  "header": {
    "description": "Karaoke Mugen Tag File",
    "version": 1
  },
  "tag": {
    "i18n": {
      "eng": "Pinky and the Brain",
      "fre": "Minus et Cortex"
    },
    "modified_at": "2020-03-31T19:04:32.461Z",
    "name": "Pinky and the Brain",
    "repository": "kara.moe",
    "tid": "8c84ec67-d943-48ae-b022-c29315e149fb",
    "types": [
      "series",
      "1"
    ]
  }
}