{
  "header": {
    "description": "Karaoke Mugen Tag File",
    "version": 1
  },
  "tag": {
    "aliases": [
      "Piofiore no Banshou",
      "banshou"
    ],
    "i18n": {
      "eng": "Piofiore no Banshô",
      "jpn": "ピオフィオーレの晩鐘",
      "qro": "Piofiore no Banshô"
    },
    "modified_at": "2020-03-31T19:04:32.461Z",
    "name": "Piofiore no Banshô",
    "repository": "kara.moe",
    "tid": "1bfad0d7-cc63-4251-9b5c-c2d099993d5c",
    "types": [
      "series",
      "1"
    ]
  }
}