{
  "header": {
    "description": "Karaoke Mugen Tag File",
    "version": 1
  },
  "tag": {
    "i18n": {
      "eng": "Pioneer Jidô Gasshôdan"
    },
    "name": "Pioneer Jidô Gasshôdan",
    "tid": "6c3201a9-22d4-48e7-9bc5-5c4e55cbde27",
    "types": [
      "singers",
      "2"
    ],
    "repository": "kara.moe",
    "modified_at": "2020-03-31T19:04:36.935Z"
  }
}