{
  "header": {
    "description": "Karaoke Mugen Tag File",
    "version": 1
  },
  "tag": {
    "i18n": {
      "eng": "Pirates Mejeeru"
    },
    "name": "Pirates Mejeeru",
    "tid": "b5c8ac8c-5ec0-4641-bc65-ecf9615552d7",
    "types": [
      "singers",
      "2"
    ],
    "repository": "kara.moe",
    "modified_at": "2020-03-31T19:04:36.937Z"
  }
}