{
  "header": {
    "description": "Karaoke Mugen Tag File",
    "version": 1
  },
  "tag": {
    "i18n": {
      "eng": "Pixar Animation Studios"
    },
    "name": "Pixar Animation Studios",
    "tid": "d1bbfbad-6e44-48ce-903a-a8defb20652c",
    "types": [
      "creators",
      "4"
    ],
    "repository": "kara.moe",
    "modified_at": "2020-03-31T19:04:36.939Z"
  }
}