{
  "header": {
    "description": "Karaoke Mugen Tag File",
    "version": 1
  },
  "tag": {
    "i18n": {
      "eng": "PixelBlended Studios"
    },
    "name": "PixelBlended Studios",
    "tid": "3b3a43d9-46b2-4923-9fbf-6753a72e4e6f",
    "types": [
      "creators",
      "4"
    ],
    "repository": "kara.moe",
    "modified_at": "2020-03-31T19:04:36.940Z"
  }
}