{
  "header": {
    "description": "Karaoke Mugen Tag File",
    "version": 1
  },
  "tag": {
    "i18n": {
      "eng": "PIZZA OF DEATH RECORDS"
    },
    "name": "PIZZA OF DEATH RECORDS",
    "tid": "eaa8276f-6f7b-45d0-8f0b-2b30b9a0eff9",
    "types": [
      "creators",
      "4"
    ],
    "repository": "kara.moe",
    "modified_at": "2020-03-31T19:04:36.940Z"
  }
}