{
  "header": {
    "description": "Karaoke Mugen Tag File",
    "version": 1
  },
  "tag": {
    "aliases": [
      "PES",
      "Planètes",
      "ΠΛΑΝΗΤΕΣ",
      "Планетес",
      "Планети",
      "Странники",
      "星空清理者"
    ],
    "external_database_ids": {
      "anilist": 329,
      "myanimelist": 329,
      "kitsu": 296
    },
    "i18n": {
      "eng": "Planetes",
      "fre": "Planetes",
      "ger": "Planetes",
      "gre": "ΠΛΑΝΗΤΕΣ",
      "ita": "Planetes",
      "jpn": "プラネテス",
      "pol": "PLANET-ES",
      "spa": "Planetes",
      "ukr": "Мандрівники",
      "qro": "Planetes"
    },
    "modified_at": "2020-06-21T23:45:31.966Z",
    "name": "Planetes",
    "repository": "kara.moe",
    "tid": "2603ba31-2c03-4f31-ae8d-7f078def888e",
    "types": [
      "series",
      "1"
    ]
  }
}