{
  "header": {
    "description": "Karaoke Mugen Tag File",
    "version": 1
  },
  "tag": {
    "i18n": {
      "eng": "Planet"
    },
    "name": "Planet",
    "repository": "kara.moe",
    "tid": "766718d3-0277-49f8-8c86-d924de3a4920",
    "types": [
      "creators",
      "4"
    ]
  }
}