{
  "header": {
    "description": "Karaoke Mugen Tag File",
    "version": 1
  },
  "tag": {
    "i18n": {
      "eng": "Plasmagica"
    },
    "name": "Plasmagica",
    "tid": "f1134930-b180-402e-b17f-e79b3317dfb6",
    "types": [
      "singers",
      "2"
    ],
    "repository": "kara.moe",
    "modified_at": "2020-03-31T19:04:36.941Z"
  }
}