{
  "header": {
    "description": "Karaoke Mugen Tag File",
    "version": 1
  },
  "tag": {
    "i18n": {
      "eng": "Plasterbrain"
    },
    "modified_at": "2020-12-12T15:18:38.943Z",
    "name": "Plasterbrain",
    "repository": "kara.moe",
    "tid": "8f256006-148d-40ba-b6e1-d22a768003c2",
    "types": [
      "songwriters",
      "8"
    ]
  }
}