{
  "header": {
    "description": "Karaoke Mugen Tag File",
    "version": 1
  },
  "tag": {
    "i18n": {
      "eng": "Plastic Tree"
    },
    "name": "Plastic Tree",
    "tid": "d785b580-c490-4fa9-a2d8-c0749455bf4f",
    "types": [
      "singers",
      "2"
    ],
    "repository": "kara.moe",
    "modified_at": "2020-03-31T19:04:36.942Z"
  }
}