{
  "header": {
    "description": "Karaoke Mugen Tag File",
    "version": 1
  },
  "tag": {
    "i18n": {
      "eng": "PlayStation 2"
    },
    "karafile_tag": "PS2",
    "name": "Playstation 2",
    "tid": "2173004e-21da-45c9-9dfb-26014423c566",
    "types": [
      "platforms",
      "13"
    ],
    "short": "PS2",
    "repository": "kara.moe",
    "modified_at": "2020-03-31T19:04:36.945Z"
  }
}