{
  "header": {
    "description": "Karaoke Mugen Tag File",
    "version": 1
  },
  "tag": {
    "i18n": {
      "eng": "Play Two"
    },
    "name": "Play Two",
    "repository": "kara.moe",
    "tid": "94199e72-16c6-4d60-9be5-37ad9279a4ee",
    "types": [
      "creators",
      "4"
    ]
  }
}