{
  "header": {
    "description": "Karaoke Mugen Tag File",
    "version": 1
  },
  "tag": {
    "i18n": {
      "eng": "PlayStation 4"
    },
    "karafile_tag": "PS4",
    "name": "Playstation 4",
    "tid": "248d92ee-8c02-43bc-86e2-cc6029883564",
    "types": [
      "platforms",
      "13"
    ],
    "short": "PS4",
    "repository": "kara.moe",
    "modified_at": "2020-03-31T19:04:36.946Z"
  }
}