{
  "header": {
    "description": "Karaoke Mugen Tag File",
    "version": 1
  },
  "tag": {
    "i18n": {
      "eng": "plingmin"
    },
    "name": "plingmin",
    "tid": "276ceb02-ca8a-4471-8f1e-6ec99740e259",
    "types": [
      "singers",
      "2",
      "songwriters",
      "8"
    ],
    "repository": "kara.moe",
    "modified_at": "2020-03-31T19:04:36.950Z"
  }
}