{
  "header": {
    "description": "Karaoke Mugen Tag File",
    "version": 1
  },
  "tag": {
    "i18n": {
      "eng": "PNGN 3"
    },
    "name": "PNGN 3",
    "repository": "kara.moe",
    "tid": "fafdbd66-d41c-4f89-98af-8a0ab0a4dfe1",
    "types": [
      "singergroups",
      "17"
    ]
  }
}