{
  "header": {
    "description": "Karaoke Mugen Tag File",
    "version": 1
  },
  "tag": {
    "aliases": [
      "Pkmn"
    ],
    "i18n": {
      "eng": "Pokémon: Sun & Moon",
      "fre": "Pokémon : Soleil et Lune",
      "jpn": "ポケットモンスター　サン＆ムーン",
      "qro": "Pocket Monsters Sun & Moon (Game)"
    },
    "modified_at": "2020-06-21T23:45:31.966Z",
    "name": "Pocket Monsters Sun & Moon (Game)",
    "repository": "kara.moe",
    "tid": "9b0b0930-0227-4016-b01f-e5986f2d6a2b",
    "types": [
      "series",
      "1"
    ]
  }
}