{
  "header": {
    "description": "Karaoke Mugen Tag File",
    "version": 1
  },
  "tag": {
    "aliases": [
      "Pkmn",
      "Pocket Monsters"
    ],
    "external_database_ids": {
      "anilist": 527,
      "myanimelist": 527,
      "kitsu": 486
    },
    "i18n": {
      "eng": "Pokémon: Adventures in the Orange Islands",
      "fre": "Pokémon : Les Îles Orange",
      "jpn": "ポケットモンスター オレンジ諸島編",
      "qro": "Pocket Monsters: Orange Islands"
    },
    "modified_at": "2020-03-31T19:04:32.470Z",
    "name": "Pocket Monsters: Orange Islands",
    "repository": "kara.moe",
    "tid": "6203fb92-1622-4a22-b6e2-f20c9a59f96a",
    "types": [
      "series",
      "1"
    ]
  }
}