{
  "header": {
    "description": "Karaoke Mugen Tag File",
    "version": 1
  },
  "tag": {
    "aliases": [
      "Pokemon 2019",
      "pkmn"
    ],
    "external_database_ids": {
      "anilist": 112153,
      "myanimelist": 40351,
      "kitsu": 42534
    },
    "i18n": {
      "eng": "Pokémon Journeys: The Series",
      "fre": "Pokémon, la série : Les voyages",
      "jpn": "ポケットモンスター (2019)",
      "qro": "Pocket Monsters (2019)"
    },
    "modified_at": "2020-04-23T17:15:22.136Z",
    "name": "Pocket Monsters (2019)",
    "repository": "kara.moe",
    "tid": "7e64f82b-9248-41f6-a3ce-6fccb26b6742",
    "types": [
      "series",
      "1"
    ]
  }
}