{
  "header": {
    "description": "Karaoke Mugen Tag File",
    "version": 1
  },
  "tag": {
    "aliases": [
      "PDP",
      "PMDP",
      "PMDaP",
      "Pocket Monsters DP",
      "Pokemon: DP Battle Dimension",
      "Pokemon: DP Galactic Battles",
      "Pokemon: DP Sinnoh League Victors",
      "Pokémon - saison 10 - Diamant et Perle",
      "Pokémon DP: Battle Dimension - מימד הקרב",
      "Карманные монстры: Алмаз и жемчуг",
      "פוקימון: יהלום ופנינה",
      "ポケットモンスター ダイヤモンド・パール"
    ],
    "external_database_ids": {
      "anilist": 1565,
      "myanimelist": 1565,
      "kitsu": 1405
    },
    "i18n": {
      "bul": "Покемон Диамант и Перла",
      "cze": "Pokémon: Diamant a Perla",
      "eng": "Pokemon: Diamond and Pearl",
      "fre": "Pokémon Diamant et Perle",
      "ger": "Pokémon: Diamond and Pearl",
      "heb": "Pokémon - Pearl and Diamond :פוקימון",
      "hun": "Pokémon: Gyémánt és Igazgyöngy",
      "jpn": "ポケットモンスター ダイヤモンド&パール",
      "pol": "Pokémon: Diament i Perła",
      "por": "Pokémon: Diamante & Pérola",
      "rus": "Покемон: Алмаз и Жемчуг",
      "qro": "Pocket Monsters: Diamond and Pearl"
    },
    "modified_at": "2020-03-31T19:04:32.469Z",
    "name": "Pocket Monsters: Diamond and Pearl",
    "repository": "kara.moe",
    "tid": "467e4850-91d3-4b31-97fa-1f5149cc602b",
    "types": [
      "series",
      "1"
    ]
  }
}