{
  "header": {
    "description": "Karaoke Mugen Tag File",
    "version": 1
  },
  "tag": {
    "aliases": [
      "Pokémon",
      "Pkmn",
      "Pokemon BW",
      "Pocket Monsters BW",
      "Pokemon NB"
    ],
    "external_database_ids": {
      "anilist": 17873,
      "myanimelist": 17873,
      "kitsu": 7895
    },
    "i18n": {
      "eng": "Pokemon: BW Adventures in Unova and Beyond",
      "fre": "Pokémon : Noir et Blanc - Aventures à Unys et au-delà",
      "jpn": "ポケットモンスター ベストウイッシュ シーズン2 デコロラアドベンチャー!",
      "qro": "Pocket Monsters: Best Wishes! Season 2 - Decolora Adventure"
    },
    "modified_at": "2021-04-15T20:56:35.677Z",
    "name": "Pocket Monsters: Best Wishes! Season 2 - Decolora Adventure",
    "repository": "kara.moe",
    "tid": "07a57e3c-ca67-4a9f-b422-b15cafaf2f14",
    "types": [
      "series",
      "1"
    ]
  }
}