{
  "header": {
    "description": "Karaoke Mugen Tag File",
    "version": 1
  },
  "tag": {
    "aliases": [
      "Pkmn",
      "ruby sapphire"
    ],
    "external_database_ids": {
      "anilist": 1564,
      "myanimelist": 1564,
      "kitsu": 1404
    },
    "i18n": {
      "eng": "Pokémon: Advanced Generation",
      "fre": "Pokémon : Advanced Generation",
      "jpn": "ポケットモンスター　アドバンスジェネレーション",
      "qro": "Pocket Monsters Advanced Generation"
    },
    "modified_at": "2020-06-21T23:45:31.966Z",
    "name": "Pocket Monsters Advanced Generation",
    "repository": "kara.moe",
    "tid": "622e32bc-ca7f-4de8-9d52-b931e5b3d3b4",
    "types": [
      "series",
      "1"
    ]
  }
}