{
  "header": {
    "description": "Karaoke Mugen Tag File",
    "version": 1
  },
  "tag": {
    "aliases": [
      "Pkmn"
    ],
    "external_database_ids": {
      "anilist": 527,
      "myanimelist": 527,
      "kitsu": 486
    },
    "i18n": {
      "eng": "Pokémon: Gold & Silver",
      "fre": "Pokémon : Or et Argent",
      "jpn": "ポケットモンスター 金・銀",
      "qro": "Pocket Monsters Gold & Silver"
    },
    "modified_at": "2020-06-21T23:45:31.966Z",
    "name": "Pocket Monsters Gold & Silver",
    "repository": "kara.moe",
    "tid": "928cc669-7ee2-4d24-b3ec-9d718f573b74",
    "types": [
      "series",
      "1"
    ]
  }
}