{
  "header": {
    "description": "Karaoke Mugen Tag File",
    "version": 1
  },
  "tag": {
    "aliases": [
      "Pkmn",
      "Pocket Monsters",
      "ruby sapphire",
      "pokemon"
    ],
    "external_database_ids": {
      "anilist": 1564,
      "myanimelist": 1564,
      "kitsu": 1404
    },
    "i18n": {
      "eng": "Pokémon: Advanced",
      "fre": "Pokémon : Advanced",
      "jpn": "ポケットモンスター　アドバンスジェネレーション",
      "qro": "Pokémon: Advanced"
    },
    "modified_at": "2020-03-31T19:04:32.474Z",
    "name": "Pokémon: Advanced",
    "repository": "kara.moe",
    "tid": "6879200d-61c4-4146-8c72-7d2c6ad41c96",
    "types": [
      "series",
      "1"
    ]
  }
}