{
  "header": {
    "description": "Karaoke Mugen Tag File",
    "version": 1
  },
  "tag": {
    "aliases": [
      "Gekijouban Pocket Monsters: Lord of the UNKNOWN Tower ENTEI",
      "Pkmn",
      "Pocket Monsters",
      "Pokemon Movie 3",
      "Pokemon: Spell Of The Unown",
      "Pokémon 3",
      "le film"
    ],
    "external_database_ids": {
      "anilist": 1118,
      "myanimelist": 1118,
      "kitsu": 1002
    },
    "i18n": {
      "eng": "Pokémon the Movie 3: Spell of the Unown ‒ Entei",
      "fre": "Pokémon le film 3 : Le Sort des Zarbi",
      "jpn": "劇場版ポケットモンスター 結晶塔の帝王 ENTEI",
      "qro": "Pokemon: Kesshoutou no Teiou Entei"
    },
    "modified_at": "2020-03-31T19:04:32.482Z",
    "name": "Pokemon: Kesshoutou no Teiou Entei",
    "repository": "kara.moe",
    "tid": "ac951cc4-cf8e-406b-a9e0-1f5b190ec672",
    "types": [
      "series",
      "1"
    ]
  }
}