{
  "header": {
    "description": "Karaoke Mugen Tag File",
    "version": 1
  },
  "tag": {
    "aliases": [
      ""
    ],
    "external_database_ids": {
      "anilist": 97634,
      "myanimelist": 34034,
      "kitsu": 12533
    },
    "i18n": {
      "eng": "Pokémon: Sun & Moon ‒ Ultra Adventures",
      "fre": "Pokémon, la série : Soleil et Lune ‒ Ultra Aventures",
      "jpn": "ポケットモンスター　サン＆ムーン",
      "qro": "Pokemon the Series: Sun & Moon ‒ Ultra Adventures"
    },
    "modified_at": "2020-03-31T19:04:32.488Z",
    "name": "Pokemon the Series: Sun & Moon ‒ Ultra Adventures",
    "repository": "kara.moe",
    "tid": "ffaa2e4d-9b30-4821-b096-02ec37af6a90",
    "types": [
      "series",
      "1"
    ]
  }
}