{
  "header": {
    "description": "Karaoke Mugen Tag File",
    "version": 1
  },
  "tag": {
    "aliases": [
      "Pkmn",
      "Pocket Monsters",
      "ruby sapphire",
      "pokemon"
    ],
    "external_database_ids": {
      "anilist": 1564,
      "myanimelist": 1564,
      "kitsu": 1404
    },
    "i18n": {
      "eng": "Pokémon: Battle Frontier",
      "fre": "Pokémon : Battle Frontier",
      "jpn": "ポケットモンスター アドバンスジェネレーション",
      "qro": "Pokémon: Battle Frontier"
    },
    "modified_at": "2020-03-31T19:04:32.476Z",
    "name": "Pokémon: Battle Frontier",
    "repository": "kara.moe",
    "tid": "d700940a-fd18-467a-b5be-5cc618e44260",
    "types": [
      "series",
      "1"
    ]
  }
}