{
  "header": {
    "description": "Karaoke Mugen Tag File",
    "version": 1
  },
  "tag": {
    "aliases": [
      "Pkmn",
      "Pocket Monsters XY",
      "pokemon"
    ],
    "external_database_ids": {
      "anilist": 19291,
      "myanimelist": 19291,
      "kitsu": 7850
    },
    "i18n": {
      "eng": "Pokémon the Series : XY Kalos Quest",
      "fre": "Pokémon, la série : XY ‒ La Quête de Kalos",
      "jpn": "ポケットモンスターＸＹ",
      "qro": "Pokémon the Series : XY Kalos Quest"
    },
    "modified_at": "2020-03-31T19:04:32.490Z",
    "name": "Pokémon the Series : XY Kalos Quest",
    "repository": "kara.moe",
    "tid": "f478383c-7a79-46b7-831e-f9f3ba90ee21",
    "types": [
      "series",
      "1"
    ]
  }
}