{
  "header": {
    "description": "Karaoke Mugen Tag File",
    "version": 1
  },
  "tag": {
    "i18n": {
      "eng": "Pokémon Wanna Try Rapping Team"
    },
    "name": "Pokémon Wanna Try Rapping Team",
    "repository": "kara.moe",
    "tid": "21e6ef1b-1682-4934-a5ea-a8120442b6e0",
    "types": [
      "songwriters",
      "8"
    ]
  }
}