{
  "header": {
    "description": "Karaoke Mugen Tag File",
    "version": 1
  },
  "tag": {
    "aliases": [
      "Pkmn",
      "Pocket Monsters",
      "Pocket Monsters BW",
      "Pokémon Black & White",
      "Pokémon Black and White",
      "pokemon"
    ],
    "external_database_ids": {
      "anilist": 17115,
      "myanimelist": 17115,
      "kitsu": 7586
    },
    "i18n": {
      "eng": "Pokémon BW: Adventures in Unova",
      "fre": "Pokémon : Noir & Blanc ‒ Aventures à Unys",
      "jpn": "ポケットモンスター ベストウィッシュ",
      "qro": "Pokémon BW: Adventures in Unova"
    },
    "modified_at": "2020-03-31T19:04:32.476Z",
    "name": "Pokémon BW: Adventures in Unova",
    "repository": "kara.moe",
    "tid": "d1bfa8e0-3ea8-4e62-b656-aee435673919",
    "types": [
      "series",
      "1"
    ]
  }
}