{
  "header": {
    "description": "Karaoke Mugen Tag File",
    "version": 1
  },
  "tag": {
    "i18n": {
      "afr": "Pools",
      "amh": "ፖሊሽኛ",
      "ara": "البولندية",
      "aze": "Polşa",
      "bak": "Поляк теле",
      "bel": "Польскі",
      "bul": "Полски",
      "ben": "পোলিশ",
      "bos": "Poljski",
      "cat": "Polonès",
      "cze": "Polština",
      "wel": "Pwyleg",
      "dan": "Polsk",
      "ger": "Polnisch",
      "gre": "Πολωνικά",
      "eng": "Polish",
      "epo": "Pola",
      "spa": "Polaco",
      "est": "Poola",
      "baq": "Poloniako",
      "per": "لهستانی",
      "fin": "Puola",
      "fre": "Polonais",
      "gle": "Polainnis",
      "gla": "Pòlainnis",
      "glg": "Polaco",
      "guj": "પોલિશ",
      "heb": "פולני",
      "hin": "पोलिश",
      "hrv": "Poljski",
      "hat": "Polonè",
      "hun": "Lengyel",
      "arm": "Լեհերեն",
      "ind": "Polandia",
      "ice": "Pólska",
      "ita": "Polacco",
      "jpn": "ポーランド",
      "jav": "Polandia",
      "geo": "პოლონური",
      "kaz": "Поляк",
      "kan": "ಪೋಲಿಶ್",
      "kor": "폴란드인",
      "kir": "Польский",
      "lat": "Polish",
      "lit": "Lenkų",
      "lav": "Poļu",
      "mlg": "Poloney",
      "mao": "Kaupapa",
      "mac": "Полски",
      "mal": "പോളിഷ്",
      "mon": "Польш",
      "mar": "Polish",
      "may": "Poland",
      "mlt": "Pollakk",
      "nep": "पोलिस",
      "dut": "Pools",
      "nor": "Polsk",
      "pan": "ਪੋਲੈਂਡੀ",
      "pol": "Polski",
      "por": "Polonês",
      "rum": "Poloneză",
      "rus": "Польский",
      "sin": "පෝලන්ත",
      "slo": "Poľský",
      "slv": "Poljski",
      "alb": "Polake",
      "srp": "Пољски",
      "sun": "Polandia",
      "swe": "Polska",
      "swa": "Kipolishi",
      "tam": "போலந்து",
      "tel": "పోలిష్",
      "tgk": "Лаҳистон",
      "tha": "โปแลนด์",
      "tgl": "Polish",
      "tur": "Polonya",
      "tat": "Поляк теле",
      "ukr": "Польський",
      "urd": "پولینڈ",
      "uzb": "Polsha",
      "vie": "Ba lan",
      "xho": "Isipolish",
      "yid": "פויליש",
      "chi": "波兰"
    },
    "name": "pol",
    "tid": "d546d5ef-06af-4ad0-add4-2ca7725ff743",
    "types": [
      "langs",
      "5"
    ],
    "repository": "kara.moe",
    "modified_at": "2020-03-31T19:04:36.958Z"
  }
}