{
  "header": {
    "description": "Karaoke Mugen Tag File",
    "version": 1
  },
  "tag": {
    "i18n": {
      "eng": "Pole Position"
    },
    "modified_at": "2020-03-31T19:04:32.491Z",
    "name": "Pole Position",
    "repository": "kara.moe",
    "tid": "9e51a5a5-1328-4106-bd92-466ca58f74a4",
    "types": [
      "series",
      "1"
    ]
  }
}