{
  "header": {
    "description": "Karaoke Mugen Tag File",
    "version": 1
  },
  "tag": {
    "i18n": {
      "eng": "Police Piccadilly",
      "jpn": "ポリスピカデリー",
      "qro": "Police Piccadilly"
    },
    "name": "Police Piccadilly",
    "repository": "kara.moe",
    "tid": "05dcfd3a-8364-4fc9-891f-ad37784cd104",
    "types": [
      "songwriters",
      "8"
    ]
  }
}