{
  "header": {
    "description": "Karaoke Mugen Tag File",
    "version": 1
  },
  "tag": {
    "i18n": {
      "eng": "Polyphony Digital"
    },
    "name": "Polyphony Digital",
    "repository": "kara.moe",
    "tid": "a8744088-cda6-4a9f-89ce-470770c2771a",
    "types": [
      "creators",
      "4"
    ]
  }
}