{
  "header": {
    "description": "Karaoke Mugen Tag File",
    "version": 1
  },
  "tag": {
    "i18n": {
      "eng": "PolyGram Music"
    },
    "name": "PolyGram Music",
    "repository": "kara.moe",
    "tid": "d4ac84d8-8910-4fd3-accb-8654df057cfb",
    "types": [
      "creators",
      "4"
    ]
  }
}