{
  "header": {
    "description": "Karaoke Mugen Tag File",
    "version": 1
  },
  "tag": {
    "i18n": {
      "eng": "POM"
    },
    "name": "POM",
    "tid": "9c35f275-7b10-4c01-9efc-7ef65ff1afdf",
    "types": [
      "songwriters",
      "8"
    ],
    "repository": "kara.moe",
    "modified_at": "2020-03-31T19:04:36.961Z"
  }
}