{
  "header": {
    "description": "Karaoke Mugen Tag File",
    "version": 1
  },
  "tag": {
    "aliases": [
      "PTE",
      "PPTP",
      "Hoshiiro Girldrop",
      "Poptepipic"
    ],
    "i18n": {
      "eng": "Pop Team Epic",
      "jpn": "ポプテピピック",
      "qro": "Poputepipikku"
    },
    "name": "Pop Team Epic",
    "repository": "kara.moe",
    "tid": "a70d6cff-c630-4a4e-b76f-21a76a018dd6",
    "types": [
      "franchises",
      "18"
    ]
  }
}