{
  "header": {
    "description": "Karaoke Mugen Tag File",
    "version": 1
  },
  "tag": {
    "i18n": {
      "eng": "Poplar"
    },
    "name": "Poplar",
    "tid": "d948408b-2073-4bf2-9451-c7ef9d69584d",
    "types": [
      "singers",
      "2"
    ],
    "repository": "kara.moe",
    "modified_at": "2020-03-31T19:04:36.964Z"
  }
}