{
  "header": {
    "description": "Karaoke Mugen Tag File",
    "version": 1
  },
  "tag": {
    "i18n": {
      "eng": "Populica"
    },
    "name": "Populica",
    "repository": "kara.moe",
    "tid": "6f1c6c38-8707-4606-9395-0b8ce20cfb31",
    "types": [
      "creators",
      "4"
    ],
    "modified_at": "2020-03-31T19:04:36.966Z"
  }
}