{
  "header": {
    "description": "Karaoke Mugen Tag File",
    "version": 1
  },
  "tag": {
    "aliases": [
      "بوتيمايو",
      "蛋黄酱萝莉"
    ],
    "external_database_ids": {
      "anilist": 2744,
      "myanimelist": 2744,
      "kitsu": 2504
    },
    "i18n": {
      "eng": "Potemayo",
      "jpn": "ぽてまよ",
      "qro": "Potemayo"
    },
    "modified_at": "2020-03-31T19:04:32.495Z",
    "name": "Potemayo",
    "repository": "kara.moe",
    "tid": "87215f7a-ed6b-4974-91e0-659a515e1d63",
    "types": [
      "series",
      "1"
    ]
  }
}