{
  "header": {
    "description": "Karaoke Mugen Tag File",
    "version": 1
  },
  "tag": {
    "i18n": {
      "eng": "Potiron-kun"
    },
    "name": "Potiron-kun",
    "tid": "4b850d34-7ed5-456f-bb25-7b630358c169",
    "types": [
      "authors",
      "6"
    ],
    "repository": "kara.moe",
    "modified_at": "2020-03-31T19:04:36.970Z"
  }
}