{
  "header": {
    "description": "Karaoke Mugen Tag File",
    "version": 1
  },
  "tag": {
    "i18n": {
      "eng": "Power Sound"
    },
    "name": "Power Sound",
    "tid": "84ea2d1e-b43e-406e-a37f-5a724da2507c",
    "types": [
      "singers",
      "2"
    ],
    "repository": "kara.moe",
    "modified_at": "2020-03-31T19:04:36.970Z"
  }
}