{
  "header": {
    "description": "Karaoke Mugen Tag File",
    "version": 1
  },
  "tag": {
    "i18n": {
      "eng": "Power Rangers Wild Force",
      "fre": "Power Rangers : Force animale"
    },
    "modified_at": "2020-03-31T19:04:32.497Z",
    "name": "Power Rangers Wild Force",
    "repository": "kara.moe",
    "tid": "216c7f80-8a98-4d85-a4a0-2760e6729edf",
    "types": [
      "series",
      "1"
    ]
  }
}