{
  "header": {
    "description": "Karaoke Mugen Tag File",
    "version": 1
  },
  "tag": {
    "i18n": {
      "eng": "Power Rangers Zeo",
      "fre": "Power Rangers : Zeo"
    },
    "modified_at": "2020-03-31T19:04:32.497Z",
    "name": "Power Rangers Zeo",
    "repository": "kara.moe",
    "tid": "c1a49bfe-6af2-4011-b419-5cb177c4e291",
    "types": [
      "series",
      "1"
    ]
  }
}