{
  "header": {
    "description": "Karaoke Mugen Tag File",
    "version": 1
  },
  "tag": {
    "aliases": [
      "Precure All Stars DX: Minna Tomodachi - Kiseki no Zen'in Daishuugou!",
      "Pretty Cure",
      "daishuugou"
    ],
    "external_database_ids": {
      "anilist": 5753,
      "myanimelist": 5753,
      "kitsu": 4265
    },
    "i18n": {
      "eng": "PreCure All Stars DX: Minna Tomodachi☆Kiseki no Zen'in Daishugo!",
      "fre": "PreCure All Stars DX: Minna Tomodachi☆Kiseki no Zen'in Daishûgô!",
      "jpn": "プリキュアオールスターズDX みんなともだちっ☆奇跡の全員大集合!",
      "qro": "Precure All Stars DX: Minna Tomodachi - Kiseki no Zen'in Daishûgô!"
    },
    "modified_at": "2021-02-28T02:39:08.753Z",
    "name": "Precure All Stars DX: Minna Tomodachi - Kiseki no Zen'in Daishûgô!",
    "repository": "kara.moe",
    "tid": "5fbd8fe2-1de9-4e74-92e9-dd96a14c6a24",
    "types": [
      "series",
      "1"
    ]
  }
}