{
  "header": {
    "description": "Karaoke Mugen Tag File",
    "version": 1
  },
  "tag": {
    "i18n": {
      "eng": "Precure Miracle Universe"
    },
    "name": "Precure Miracle Universe",
    "repository": "kara.moe",
    "tid": "34aaf5f8-05f6-4e05-8eaf-410598f77162",
    "types": [
      "series",
      "1"
    ]
  }
}