{
  "header": {
    "description": "Karaoke Mugen Tag File",
    "version": 1
  },
  "tag": {
    "i18n": {
      "eng": "Pretty Patterns"
    },
    "modified_at": "2021-10-15T14:07:19.136Z",
    "name": "Pretty Patterns",
    "repository": "kara.moe",
    "tid": "25819c10-5068-415e-be78-d4d6b43aa075",
    "types": [
      "songwriters",
      "8"
    ]
  }
}