{
  "header": {
    "description": "Karaoke Mugen Tag File",
    "version": 1
  },
  "tag": {
    "external_database_ids": {
      "anilist": 12863,
      "myanimelist": 12863,
      "kitsu": 6829
    },
    "i18n": {
      "chi": "星光少女 Dear My Future",
      "eng": "Pretty Rhythm: Dear My Future",
      "jpn": "プリティーリズム ディアマイフューチャー",
      "qro": "Pretty Rhythm Dear My Future"
    },
    "modified_at": "2020-03-31T19:04:32.502Z",
    "name": "Pretty Rhythm Dear My Future",
    "repository": "kara.moe",
    "tid": "0718eb3b-02bf-4e21-8b5b-17ff2d2bc4e5",
    "types": [
      "series",
      "1"
    ]
  }
}