{
  "header": {
    "description": "Karaoke Mugen Tag File",
    "version": 1
  },
  "tag": {
    "i18n": {
      "eng": "Prico"
    },
    "name": "Prico",
    "tid": "1741fcb4-2f1a-4f5a-be14-6bce9c841bcf",
    "types": [
      "singers",
      "2"
    ],
    "repository": "kara.moe",
    "modified_at": "2020-03-31T19:04:36.973Z"
  }
}