{
  "header": {
    "description": "Karaoke Mugen Tag File",
    "version": 1
  },
  "tag": {
    "external_database_ids": {
      "anilist": 144509,
      "kitsu": 45812,
      "myanimelist": 50917
    },
    "i18n": {
      "eng": "Prima Doll",
      "jpn": "プリマドール",
      "chi": "天籁人偶"
    },
    "name": "Prima Doll",
    "repository": "kara.moe",
    "tid": "25f1df10-2dea-44cc-98e3-bf311d78efbd",
    "types": [
      "series",
      "1"
    ]
  }
}