{
  "header": {
    "description": "Karaoke Mugen Tag File",
    "version": 1
  },
  "tag": {
    "aliases": [
      "Kapital des Kiikens",
      "Kapitel des Eies",
      "Księżniczka Tutu",
      "Prenses Tutu",
      "Prinzessin Tutu",
      "Принцесса Тютю",
      "الأميرة توتو",
      "پرنسس توتو"
    ],
    "external_database_ids": {
      "anilist": 721,
      "myanimelist": 721,
      "kitsu": 650
    },
    "i18n": {
      "eng": "Princess Tutu",
      "fre": "Princess Tutu",
      "jpn": "プリンセスチュチュ",
      "qro": "Princess Tutu"
    },
    "modified_at": "2020-06-21T23:45:31.966Z",
    "name": "Princess Tutu",
    "repository": "kara.moe",
    "tid": "a896fcc5-b4f8-465a-b91a-fd6a18b86ba8",
    "types": [
      "series",
      "1"
    ]
  }
}