{
  "header": {
    "description": "Karaoke Mugen Tag File",
    "version": 1
  },
  "tag": {
    "i18n": {
      "eng": "Prince7"
    },
    "name": "Prince7",
    "repository": "kara.moe",
    "tid": "8ca50bd1-6c21-418e-b7da-401991393212",
    "types": [
      "authors",
      "6"
    ]
  }
}