{
  "header": {
    "description": "Karaoke Mugen Tag File",
    "version": 1
  },
  "tag": {
    "aliases": [
      "プリンセス・ワルツ"
    ],
    "i18n": {
      "eng": "Princess Waltz",
      "jpn": "Princess Waltz",
      "qro": "Princess Waltz"
    },
    "modified_at": "2020-03-31T19:04:32.506Z",
    "name": "Princess Waltz",
    "repository": "kara.moe",
    "tid": "e37d2140-d67f-4437-b206-e3006e9af966",
    "types": [
      "series",
      "1"
    ]
  }
}