{
  "header": {
    "description": "Karaoke Mugen Tag File",
    "version": 1
  },
  "tag": {
    "aliases": [
      "pripri",
      "プリンセス・プリンシパル"
    ],
    "external_database_ids": {
      "anilist": 98505,
      "myanimelist": 35240,
      "kitsu": 13261
    },
    "i18n": {
      "eng": "Princess Principal",
      "fre": "Princess Principal",
      "jpn": "Princess Principal",
      "kor": "프린세스 프린서플",
      "qro": "Princess Principal"
    },
    "modified_at": "2020-03-31T19:04:32.504Z",
    "name": "Princess Principal",
    "repository": "kara.moe",
    "tid": "9a2bfce4-6cfa-4183-90ee-00bc24b13bcf",
    "types": [
      "series",
      "1",
      "franchises",
      "18"
    ]
  }
}