{
  "header": {
    "description": "Karaoke Mugen Tag File",
    "version": 1
  },
  "tag": {
    "aliases": [
      "Priconne R",
      "re dive"
    ],
    "external_database_ids": {
      "anilist": 122808,
      "kitsu": 43600,
      "myanimelist": 42670
    },
    "i18n": {
      "eng": "Princess Connect! Re:Dive (Season 2)",
      "jpn": "プリンセスコネクト！Re:Dive Season2",
      "fre": "Princess Connect! Re:Dive (saison 2)"
    },
    "name": "Princess Connect! Re:Dive Season 2",
    "repository": "kara.moe",
    "tid": "52c25d94-22b3-426b-b5e1-64927d5f41de",
    "types": [
      "series",
      "1"
    ]
  }
}