{
  "header": {
    "description": "Karaoke Mugen Tag File",
    "version": 1
  },
  "tag": {
    "aliases": [
      "Prism Paradise",
      "PuriPara"
    ],
    "external_database_ids": {
      "anilist": 20742,
      "kitsu": 8555,
      "myanimelist": 23135
    },
    "i18n": {
      "jpn": "プリパラ",
      "qro": "Pripara"
    },
    "name": "PriPara",
    "repository": "kara.moe",
    "tid": "4aa91989-cff1-48eb-9f5e-d4ae773d3122",
    "types": [
      "series",
      "1"
    ]
  }
}