{
  "header": {
    "description": "Karaoke Mugen Tag File",
    "version": 1
  },
  "tag": {
    "i18n": {
      "eng": "Prism Stone"
    },
    "name": "Prism Stone",
    "repository": "kara.moe",
    "tid": "1f2e5840-52b2-4c19-a26a-d7d0eeb75ff7",
    "types": [
      "creators",
      "4"
    ]
  }
}