{
  "header": {
    "description": "Karaoke Mugen Tag File",
    "version": 1
  },
  "tag": {
    "i18n": {
      "eng": "production doA"
    },
    "name": "production doA",
    "tid": "fbdea836-8b33-4ff2-99df-658567343466",
    "types": [
      "creators",
      "4"
    ],
    "repository": "kara.moe",
    "modified_at": "2020-03-31T19:04:36.976Z"
  }
}