{
  "header": {
    "description": "Karaoke Mugen Tag File",
    "version": 1
  },
  "tag": {
    "aliases": [
      "I.G Tatsunoko"
    ],
    "i18n": {
      "eng": "Production I.G"
    },
    "modified_at": "2020-08-18T19:40:36.840Z",
    "name": "Production I.G",
    "repository": "kara.moe",
    "tid": "20d023d6-5195-4e4f-bae3-8b28ad6334e2",
    "types": [
      "creators",
      "4"
    ]
  }
}