{
  "header": {
    "description": "Karaoke Mugen Tag File",
    "version": 1
  },
  "tag": {
    "aliases": [
      "Pocket Monsters",
      "Pokémon"
    ],
    "i18n": {
      "eng": "Project Eevee",
      "jpn": "プロジェクトイーブ",
      "qro": "Project Eevee"
    },
    "modified_at": "2020-05-31T23:40:48.936Z",
    "name": "Project Eevee",
    "repository": "kara.moe",
    "tid": "69ab672f-6cf0-40cd-95aa-e186d61bf2aa",
    "types": [
      "series",
      "1",
      "songwriters",
      "8"
    ]
  }
}