{
  "header": {
    "description": "Karaoke Mugen Tag File",
    "version": 1
  },
  "tag": {
    "i18n": {
      "eng": "Project BAKI"
    },
    "modified_at": "2021-07-25T00:56:37.544Z",
    "name": "Project BAKI",
    "repository": "kara.moe",
    "tid": "658f493a-f9a7-4fba-bd00-6629b63aa239",
    "types": [
      "songwriters",
      "8"
    ]
  }
}