{
  "header": {
    "description": "Karaoke Mugen Tag File",
    "version": 1
  },
  "tag": {
    "i18n": {
      "eng": "Project Moon"
    },
    "name": "Project Moon",
    "repository": "kara.moe",
    "tid": "32d6c05c-b86b-4343-8e34-44500ad95d4b",
    "types": [
      "creators",
      "4"
    ]
  }
}