{
  "header": {
    "description": "Karaoke Mugen Tag File",
    "version": 1
  },
  "tag": {
    "external_database_ids": {
      "anilist": 1492,
      "myanimelist": 1492,
      "kitsu": 1338
    },
    "i18n": {
      "eng": "Project ARMS",
      "jpn": "プロジェクトアームズ",
      "qro": "Project ARMS"
    },
    "modified_at": "2020-03-31T19:04:32.510Z",
    "name": "Project ARMS",
    "repository": "kara.moe",
    "tid": "a395fdc2-3b36-4ecb-a7c9-2fa773206ce2",
    "types": [
      "series",
      "1"
    ]
  }
}