{
  "header": {
    "description": "Karaoke Mugen Tag File",
    "version": 1
  },
  "tag": {
    "external_database_ids": {
      "anilist": 99425,
      "myanimelist": 35848,
      "kitsu": 13602
    },
    "i18n": {
      "jpn": "プロメア",
      "qro": "Promare"
    },
    "modified_at": "2020-03-31T19:04:32.514Z",
    "name": "Promare",
    "repository": "kara.moe",
    "tid": "2e0843e9-ffaa-42ec-8bb6-a955d899724b",
    "types": [
      "series",
      "1"
    ]
  }
}