{
  "header": {
    "description": "Karaoke Mugen Tag File",
    "version": 1
  },
  "tag": {
    "aliases": [
      "Mamore! Saigo no Dai Butai",
      "OP",
      "ワンピース守れ! 最後の大舞台"
    ],
    "external_database_ids": {
      "anilist": 1238,
      "myanimelist": 1238,
      "kitsu": 1114
    },
    "i18n": {
      "eng": "One Piece - Protect! The Last Great Performance",
      "jpn": "守れ!最後の大舞台",
      "qro": "Mamore! Saigo no Oobutai"
    },
    "name": "Protect! The Last Great Performance",
    "repository": "kara.moe",
    "tid": "48dd68a1-5030-4886-a852-6c7ddb66774a",
    "types": [
      "series",
      "1"
    ]
  }
}