{
  "header": {
    "description": "Karaoke Mugen Tag File",
    "version": 1
  },
  "tag": {
    "i18n": {
      "eng": "provençal"
    },
    "name": "provençal",
    "repository": "kara.moe",
    "tid": "21d4cb8a-995b-4ab9-a526-5d05196808f2",
    "types": [
      "authors",
      "6"
    ]
  }
}