{
  "header": {
    "description": "Karaoke Mugen Tag File",
    "version": 1
  },
  "tag": {
    "aliases": [
      "PA",
      "PAAB",
      "Psychic Academy Aura Banshou",
      "Ψchic academy",
      "φchic academy",
      "banshou"
    ],
    "external_database_ids": {
      "anilist": 337,
      "myanimelist": 337,
      "kitsu": 304
    },
    "i18n": {
      "eng": "Psychic Academy",
      "jpn": "サイキックアカデミー煌羅万象",
      "qro": "Psychic Academy Aura Banshô"
    },
    "modified_at": "2020-03-31T19:04:32.514Z",
    "name": "Psychic Academy Aura Banshô",
    "repository": "kara.moe",
    "tid": "042b8d34-80fe-44ff-82e8-cb6eeca90a1a",
    "types": [
      "series",
      "1"
    ]
  }
}