{
  "header": {
    "description": "Karaoke Mugen Tag File",
    "version": 1
  },
  "tag": {
    "aliases": [
      "Puchimas 2",
      "Puchimas!!",
      "Puchimas!! Petit Petit Idolmaster",
      "Puchimas!! Puchi Puchi Idolmaster",
      "Puchimasu 2",
      "Puchimasu!!",
      "ぷちます 2"
    ],
    "external_database_ids": {
      "anilist": 20498,
      "myanimelist": 21073,
      "kitsu": 8405
    },
    "i18n": {
      "eng": "Puchim@s!! Petit Petit Idolm@ster",
      "jpn": "ぷちます!! プチプチ・アイドルマスター",
      "kor": "푸치마스!!",
      "qro": "Puchim@s!! Petit Petit Idolm@ster"
    },
    "modified_at": "2020-03-31T19:04:32.519Z",
    "name": "Puchim@s!! Petit Petit Idolm@ster",
    "repository": "kara.moe",
    "tid": "9eda682d-5404-4286-a3ae-3d59d5fc6512",
    "types": [
      "series",
      "1"
    ]
  }
}