{
  "header": {
    "description": "Karaoke Mugen Tag File",
    "version": 1
  },
  "tag": {
    "aliases": [
      "Puchi Pri*Yuushi"
    ],
    "external_database_ids": {
      "anilist": 327,
      "myanimelist": 327,
      "kitsu": 294
    },
    "i18n": {
      "eng": "Petite Princess Yucie",
      "jpn": "ぷちぷり＊ユーシィ",
      "qro": "Puchi Puri Yuushi"
    },
    "modified_at": "2020-03-31T19:04:32.518Z",
    "name": "Puchi Puri Yuushi",
    "repository": "kara.moe",
    "tid": "0f7d6600-da5e-4d88-9968-620104d647a4",
    "types": [
      "series",
      "1"
    ]
  }
}