{
  "header": {
    "description": "Karaoke Mugen Tag File",
    "version": 1
  },
  "tag": {
    "aliases": [
      "PS",
      "PumpSci",
      "Гарбуз і ножиці",
      "南瓜剪刀"
    ],
    "external_database_ids": {
      "anilist": 1538,
      "myanimelist": 1538,
      "kitsu": 1379
    },
    "i18n": {
      "eng": "Pumpkin Scissors",
      "ger": "Pumpkin Scissors",
      "jpn": "パンプキン・シザーズ",
      "qro": "Pumpkin Scissors"
    },
    "modified_at": "2020-03-31T19:04:32.521Z",
    "name": "Pumpkin Scissors",
    "repository": "kara.moe",
    "tid": "b1473eb5-9ca1-4b64-98b7-18075e5d6071",
    "types": [
      "series",
      "1"
    ]
  }
}