{
  "header": {
    "description": "Karaoke Mugen Tag File",
    "version": 1
  },
  "tag": {
    "i18n": {
      "eng": "PUNCH PUNCH FOREVER!"
    },
    "name": "PUNCH PUNCH FOREVER!",
    "repository": "kara.moe",
    "tid": "ca0105dd-5763-4304-8cb2-0dc377d8f8e8",
    "types": [
      "series",
      "1"
    ]
  }
}