{
  "header": {
    "description": "Karaoke Mugen Tag File",
    "version": 1
  },
  "tag": {
    "i18n": {
      "eng": "Purple Cow Studios Japan"
    },
    "name": "Purple Cow Studios Japan",
    "tid": "e667c42e-72d7-468f-89b0-43cd27222fef",
    "types": [
      "creators",
      "4"
    ],
    "repository": "kara.moe",
    "modified_at": "2020-03-31T19:04:36.989Z"
  }
}