{
  "header": {
    "description": "Karaoke Mugen Tag File",
    "version": 1
  },
  "tag": {
    "aliases": [
      "Pazudora",
      "PuzzDra Cross",
      "Puzzle and Dragons Cross",
      "パズドラX",
      "パズル&ドラゴンズ"
    ],
    "external_database_ids": {
      "anilist": 21644,
      "myanimelist": 32772,
      "kitsu": 11846
    },
    "i18n": {
      "eng": "Puzzle & Dragons X",
      "jpn": "パズドラクロス",
      "qro": "Puzzle & Dragons Cross"
    },
    "modified_at": "2020-03-31T19:04:32.523Z",
    "name": "Puzzle & Dragons Cross",
    "repository": "kara.moe",
    "tid": "13217ff0-f194-40f1-a99f-6e885f700cf5",
    "types": [
      "series",
      "1"
    ]
  }
}