{
  "header": {
    "description": "Karaoke Mugen Tag File",
    "version": 1
  },
  "tag": {
    "i18n": {
      "eng": "Pye Records"
    },
    "modified_at": "2021-05-23T23:26:19.710Z",
    "name": "Pye Records",
    "repository": "kara.moe",
    "tid": "971c0efd-509d-4b41-8170-2084259eeb88",
    "types": [
      "creators",
      "4"
    ]
  }
}