{
  "header": {
    "description": "Karaoke Mugen Tag File",
    "version": 1
  },
  "tag": {
    "i18n": {
      "eng": "Pyxis"
    },
    "name": "Pyxis",
    "tid": "0eeda062-b1b7-4cec-8b5a-03b525fe461c",
    "types": [
      "singers",
      "2"
    ],
    "repository": "kara.moe",
    "modified_at": "2020-03-31T19:04:36.995Z"
  }
}