{
  "header": {
    "description": "Karaoke Mugen Tag File",
    "version": 1
  },
  "tag": {
    "i18n": {
      "eng": "Q-MHz"
    },
    "name": "Q-MHz",
    "repository": "kara.moe",
    "tid": "68c5cb83-d115-4e98-a990-47f109192220",
    "types": [
      "singers",
      "2"
    ]
  }
}