{
  "header": {
    "description": "Karaoke Mugen Tag File",
    "version": 1
  },
  "tag": {
    "i18n": {
      "eng": "Q-MHz"
    },
    "name": "Q-MHz",
    "tid": "dd847c79-82cb-45b1-ae9b-ae2f8bd39417",
    "types": [
      "songwriters",
      "8"
    ],
    "repository": "kara.moe",
    "modified_at": "2020-03-31T19:04:36.996Z"
  }
}