{
  "header": {
    "description": "Karaoke Mugen Tag File",
    "version": 1
  },
  "tag": {
    "i18n": {
      "eng": "Qīng tán",
      "chi": "青谈"
    },
    "modified_at": "2021-03-11T20:45:15.639Z",
    "name": "Qīng tán",
    "repository": "kara.moe",
    "tid": "5d00eb97-d23e-4dce-a18c-990283f8c570",
    "types": [
      "singers",
      "2"
    ]
  }
}