{
  "header": {
    "description": "Karaoke Mugen Tag File",
    "version": 1
  },
  "tag": {
    "i18n": {
      "eng": "Qruppo"
    },
    "name": "Qruppo",
    "repository": "kara.moe",
    "tid": "531a4d4d-a6c6-4331-a3af-c6c21cedaea7",
    "types": [
      "creators",
      "4"
    ]
  }
}