{
  "header": {
    "description": "Karaoke Mugen Tag File",
    "version": 1
  },
  "tag": {
    "i18n": {
      "eng": "Quad City DJ's"
    },
    "name": "Quad City DJ's",
    "tid": "fa070ce8-c121-4fd8-b8b4-118b806c15b5",
    "types": [
      "singers",
      "2"
    ],
    "repository": "kara.moe",
    "modified_at": "2020-03-31T19:04:36.998Z"
  }
}