{
  "header": {
    "description": "Karaoke Mugen Tag File",
    "version": 1
  },
  "tag": {
    "external_database_ids": {
      "anilist": 101410,
      "myanimelist": 37078,
      "kitsu": 41158
    },
    "i18n": {
      "chi": "全职高手特别篇",
      "eng": "The King's Avatar - Specials"
    },
    "modified_at": "2021-03-11T19:38:47.801Z",
    "name": "Quánzhí Gāoshǒu Tèbié piān",
    "repository": "kara.moe",
    "tid": "69b8c552-6fbd-43da-8b10-19d5d854c3b6",
    "types": [
      "series",
      "1"
    ]
  }
}