{
  "header": {
    "description": "Karaoke Mugen Tag File",
    "version": 1
  },
  "tag": {
    "i18n": {
      "chi": "全职高手 (drama)",
      "eng": "The King's Avatar (drama)"
    },
    "modified_at": "2021-03-11T19:40:39.336Z",
    "name": "Quánzhí Gāoshǒu (drama)",
    "repository": "kara.moe",
    "tid": "c950b5da-bf40-49b8-bee5-3ec979594280",
    "types": [
      "series",
      "1"
    ]
  }
}