{
  "header": {
    "description": "Karaoke Mugen Tag File",
    "version": 1
  },
  "tag": {
    "i18n": {
      "eng": "QUARTET NIGHT"
    },
    "modified_at": "2020-08-18T17:37:34.319Z",
    "name": "QUARTET NIGHT",
    "repository": "kara.moe",
    "tid": "5ebd1804-6a29-4b28-a92e-8e7a08279f69",
    "types": [
      "singers",
      "2"
    ]
  }
}