{
  "header": {
    "description": "Karaoke Mugen Tag File",
    "version": 1
  },
  "tag": {
    "i18n": {
      "eng": "Quatro A"
    },
    "modified_at": "2020-04-26T22:58:55.038Z",
    "name": "Quatro A",
    "repository": "kara.moe",
    "tid": "8e96746c-2afa-48ae-af0a-3f57f4a9f8ab",
    "types": [
      "creators",
      "4"
    ]
  }
}