{
  "header": {
    "description": "Karaoke Mugen Tag File",
    "version": 1
  },
  "tag": {
    "aliases": [
      "QBR",
      "Queen's Blade - Rebelia",
      "Queens Blade Rebellion"
    ],
    "external_database_ids": {
      "anilist": 11859,
      "myanimelist": 11859,
      "kitsu": 6620
    },
    "i18n": {
      "eng": "Queen's Blade: Rebellion",
      "jpn": "クイーンズブレイド リベリオン",
      "qro": "Queen's Blade Rebellion"
    },
    "modified_at": "2020-03-31T19:04:32.528Z",
    "name": "Queen's Blade Rebellion",
    "repository": "kara.moe",
    "tid": "b7da07a0-6e4b-44df-b55a-1a35b54e0b28",
    "types": [
      "series",
      "1"
    ]
  }
}