{
  "header": {
    "description": "Karaoke Mugen Tag File",
    "version": 1
  },
  "tag": {
    "i18n": {
      "eng": "QUELL"
    },
    "name": "QUELL",
    "repository": "kara.moe",
    "tid": "ff06f1db-9f2a-4088-91c3-c0680e6d008a",
    "types": [
      "singergroups",
      "17"
    ]
  }
}