{
  "header": {
    "description": "Karaoke Mugen Tag File",
    "version": 1
  },
  "tag": {
    "i18n": {
      "eng": "Qvy"
    },
    "name": "Qvy",
    "repository": "kara.moe",
    "tid": "22e411be-c9d3-4e59-a8e8-9c64e2c34548",
    "types": [
      "creators",
      "4"
    ]
  }
}