{
  "header": {
    "description": "Karaoke Mugen Tag File",
    "version": 1
  },
  "tag": {
    "aliases": [
      "r o n",
      "ron"
    ],
    "i18n": {
      "eng": "R・O・N"
    },
    "modified_at": "2020-07-17T14:41:32.630Z",
    "name": "R・O・N",
    "repository": "kara.moe",
    "tid": "c5a951cb-53d8-4472-ac1d-9f31a38fdb2f",
    "types": [
      "songwriters",
      "8"
    ]
  }
}