{
  "header": {
    "description": "Karaoke Mugen Tag File",
    "version": 1
  },
  "tag": {
    "i18n": {
      "eng": "R.o.r/s"
    },
    "name": "R.o.r/s",
    "tid": "31dd647f-657f-4184-8863-4ae0cbbd6346",
    "types": [
      "singers",
      "2"
    ],
    "repository": "kara.moe",
    "modified_at": "2020-03-31T19:04:37.004Z"
  }
}