{
  "header": {
    "description": "Karaoke Mugen Tag File",
    "version": 1
  },
  "tag": {
    "i18n": {
      "eng": "Adults Only",
      "fre": "Pour Adultes"
    },
    "name": "R18",
    "repository": "kara.moe",
    "short": "R18",
    "tid": "e82ce681-6d7b-4fb6-abe4-daa8aaa9bbf9",
    "types": [
      "warnings",
      "15"
    ]
  }
}