{
  "header": {
    "description": "Karaoke Mugen Tag File",
    "version": 1
  },
  "tag": {
    "i18n": {
      "eng": "R1SE"
    },
    "modified_at": "2021-03-11T19:22:11.284Z",
    "name": "R1SE",
    "repository": "kara.moe",
    "tid": "d957ea11-95c5-4be7-896b-971b597977fb",
    "types": [
      "singers",
      "2"
    ]
  }
}