{
  "header": {
    "description": "Karaoke Mugen Tag File",
    "version": 1
  },
  "tag": {
    "i18n": {
      "eng": "Ra-U"
    },
    "name": "Ra-U",
    "repository": "kara.moe",
    "tid": "16e01712-a5b1-4b4f-b9ca-4c23af066c14",
    "types": [
      "singers",
      "2",
      "songwriters",
      "8"
    ]
  }
}