{
  "header": {
    "description": "Karaoke Mugen Tag File",
    "version": 1
  },
  "tag": {
    "i18n": {
      "eng": "Rachel Bloom"
    },
    "modified_at": "2020-11-28T02:27:44.808Z",
    "name": "Rachel Bloom",
    "repository": "kara.moe",
    "tid": "c7b74313-c3c1-4c79-8045-524e7f5177ee",
    "types": [
      "singers",
      "2"
    ]
  }
}