{
  "header": {
    "description": "Karaoke Mugen Tag File",
    "version": 1
  },
  "tag": {
    "i18n": {
      "eng": "Rachelle Cano"
    },
    "name": "Rachelle Cano",
    "tid": "c8e01267-e8ae-4c37-815c-443da8881ce6",
    "types": [
      "singers",
      "2"
    ],
    "repository": "kara.moe",
    "modified_at": "2020-03-31T19:04:37.006Z"
  }
}