{
  "header": {
    "description": "Karaoke Mugen Tag File",
    "version": 1
  },
  "tag": {
    "i18n": {
      "eng": "rachie"
    },
    "modified_at": "2020-12-16T20:19:01.859Z",
    "name": "rachie",
    "repository": "kara.moe",
    "tid": "7dc90a8c-5132-4a5c-9019-37197a2c4142",
    "types": [
      "songwriters",
      "8"
    ]
  }
}