{
  "header": {
    "description": "Karaoke Mugen Tag File",
    "version": 1
  },
  "tag": {
    "i18n": {
      "eng": "Rachel"
    },
    "name": "Rachel",
    "tid": "622b11d4-52c7-4253-89fe-7132c4c1ada2",
    "types": [
      "songwriters",
      "8"
    ],
    "repository": "kara.moe",
    "modified_at": "2020-03-31T19:04:37.006Z"
  }
}