{
  "header": {
    "description": "Karaoke Mugen Tag File",
    "version": 1
  },
  "tag": {
    "i18n": {
      "eng": "Raditya Joko Bramantyo"
    },
    "name": "Raditya Joko Bramantyo",
    "repository": "kara.moe",
    "tid": "4a3f62c6-8277-4a62-a406-c03e9dc20ab1",
    "types": [
      "songwriters",
      "8"
    ]
  }
}