{
  "header": {
    "description": "Karaoke Mugen Tag File",
    "version": 1
  },
  "tag": {
    "i18n": {
      "eng": "Radio Jerk"
    },
    "modified_at": "2021-09-15T11:30:32.702Z",
    "name": "Radio Jerk",
    "repository": "kara.moe",
    "tid": "2c45490f-f831-494d-bdaa-4632ad9e801a",
    "types": [
      "creators",
      "4"
    ]
  }
}