{
  "header": {
    "description": "Karaoke Mugen Tag File",
    "version": 1
  },
  "tag": {
    "i18n": {
      "eng": "Radiant Historia",
      "jpn": "ラジアントヒストリア",
      "qro": "Radiant Historia"
    },
    "modified_at": "2020-03-31T19:04:32.532Z",
    "name": "Radiant Historia",
    "repository": "kara.moe",
    "tid": "75666ba7-53a0-4f80-8f53-476c15153dda",
    "types": [
      "series",
      "1"
    ]
  }
}