{
  "header": {
    "description": "Karaoke Mugen Tag File",
    "version": 1
  },
  "tag": {
    "i18n": {
      "fre": "Rahan fils des âges farouches",
      "ita": "Rahan il figlio dei tempi selvaggi"
    },
    "modified_at": "2020-03-31T19:04:32.533Z",
    "name": "Rahan fils des âges farouches",
    "repository": "kara.moe",
    "tid": "35594197-0225-4dcb-9c67-cd63edddfeb3",
    "types": [
      "series",
      "1"
    ]
  }
}