{
  "header": {
    "description": "Karaoke Mugen Tag File",
    "version": 1
  },
  "tag": {
    "i18n": {
      "eng": "Raiko"
    },
    "name": "Raiko",
    "tid": "8ef61302-8db8-4b51-a9d0-2545e66951bc",
    "types": [
      "singers",
      "2",
      "songwriters",
      "8"
    ],
    "repository": "kara.moe",
    "modified_at": "2020-03-31T19:04:37.009Z"
  }
}