{
  "header": {
    "description": "Karaoke Mugen Tag File",
    "version": 1
  },
  "tag": {
    "external_database_ids": {
      "anilist": 20583,
      "myanimelist": 23309,
      "kitsu": 8155
    },
    "i18n": {
      "eng": "Rail Wars!",
      "jpn": "RAIL WARS!",
      "qro": "Rail Wars!"
    },
    "modified_at": "2020-03-31T19:04:32.534Z",
    "name": "Rail Wars!",
    "repository": "kara.moe",
    "tid": "50eaac82-c902-4f03-a2f1-4d435fc1e9f7",
    "types": [
      "series",
      "1"
    ]
  }
}