{
  "header": {
    "description": "Karaoke Mugen Tag File",
    "version": 1
  },
  "tag": {
    "i18n": {
      "eng": "Rainmaker Entertainment"
    },
    "name": "Rainmaker Entertainment",
    "tid": "55e6e15a-b30f-43f9-bdaa-669907d6cde7",
    "types": [
      "creators",
      "4"
    ],
    "repository": "kara.moe",
    "modified_at": "2020-03-31T19:04:37.010Z"
  }
}