{
  "header": {
    "description": "Karaoke Mugen Tag File",
    "version": 1
  },
  "tag": {
    "i18n": {
      "eng": "Rainy"
    },
    "modified_at": "2021-03-28T12:53:25.158Z",
    "name": "Rainy",
    "repository": "kara.moe",
    "tid": "157da2be-152c-4e77-9521-f3b3d96cb5a3",
    "types": [
      "creators",
      "4"
    ]
  }
}