{
  "header": {
    "description": "Karaoke Mugen Tag File",
    "version": 1
  },
  "tag": {
    "i18n": {
      "eng": "Raj Ramayya"
    },
    "name": "Raj Ramayya",
    "tid": "e28d0395-a46a-4aff-917c-7f7474a9cca7",
    "types": [
      "singers",
      "2"
    ],
    "repository": "kara.moe",
    "modified_at": "2020-03-31T19:04:37.013Z"
  }
}