{
  "header": {
    "description": "Karaoke Mugen Tag File",
    "version": 1
  },
  "tag": {
    "aliases": [
      "Rakudai Kishi no Eiyuutan",
      "Доблестните рицари-неудачници",
      "Доблестният рицар-неудачник"
    ],
    "external_database_ids": {
      "anilist": 21092,
      "myanimelist": 30296,
      "kitsu": 10745
    },
    "i18n": {
      "eng": "Chivalry of a Failed Knight",
      "jpn": "落第騎士の英雄譚[キャバルリィ] A TALE OF WORST ONE",
      "rus": "Доблесть Рыцаря-Неудачника",
      "qro": "Rakudai Kishi no Cavalry"
    },
    "modified_at": "2020-03-31T19:04:32.535Z",
    "name": "Rakudai Kishi no Cavalry",
    "repository": "kara.moe",
    "tid": "b349a41d-ae29-4e40-8cb4-04a219b27320",
    "types": [
      "series",
      "1"
    ]
  }
}