{
  "header": {
    "description": "Karaoke Mugen Tag File",
    "version": 1
  },
  "tag": {
    "i18n": {
      "eng": "rakug"
    },
    "name": "rakug",
    "repository": "kara.moe",
    "tid": "1fe2b6f9-4877-4cd5-a68d-7798363f261f",
    "types": [
      "creators",
      "4"
    ]
  }
}