{
  "header": {
    "description": "Karaoke Mugen Tag File",
    "version": 1
  },
  "tag": {
    "i18n": {
      "eng": "Ralph Bénatar"
    },
    "name": "Ralph Bénatar",
    "tid": "46e8d060-78e6-4937-a450-449c41a40b79",
    "types": [
      "songwriters",
      "8"
    ],
    "repository": "kara.moe",
    "modified_at": "2020-03-31T19:04:37.013Z"
  }
}