{
  "header": {
    "description": "Karaoke Mugen Tag File",
    "version": 1
  },
  "tag": {
    "i18n": {
      "eng": "RamblingRECORDS"
    },
    "name": "RamblingRECORDS",
    "repository": "kara.moe",
    "tid": "74cc2810-7dc4-4d5d-b1e4-df3ff6144596",
    "types": [
      "creators",
      "4"
    ]
  }
}