{
  "header": {
    "description": "Karaoke Mugen Tag File",
    "version": 1
  },
  "tag": {
    "i18n": {
      "eng": "Ramin Djawadi"
    },
    "name": "Ramin Djawadi",
    "tid": "55b98dae-eb4f-4f0b-89ca-14c6a73225d0",
    "types": [
      "songwriters",
      "8"
    ],
    "repository": "kara.moe",
    "modified_at": "2020-03-31T19:04:37.016Z"
  }
}