{
  "header": {
    "description": "Karaoke Mugen Tag File",
    "version": 1
  },
  "tag": {
    "i18n": {
      "eng": "Rammstein"
    },
    "modified_at": "2020-07-11T15:27:01.200Z",
    "name": "Rammstein",
    "repository": "kara.moe",
    "tid": "239ddf58-bd82-40c0-b783-7ed4e5aad61a",
    "types": [
      "singers",
      "2"
    ]
  }
}