{
  "header": {
    "description": "Karaoke Mugen Tag File",
    "version": 1
  },
  "tag": {
    "i18n": {
      "eng": "Ramseeni"
    },
    "name": "Ramseeni",
    "repository": "kara.moe",
    "tid": "43fde0c2-f502-463b-90d5-91cb357378e5",
    "types": [
      "songwriters",
      "8"
    ]
  }
}