{
  "header": {
    "description": "Karaoke Mugen Tag File",
    "version": 1
  },
  "tag": {
    "i18n": {
      "eng": "Randy Fitzsimmons"
    },
    "name": "Randy Fitzsimmons",
    "tid": "1d1b824e-b791-4808-a407-f79458300376",
    "types": [
      "songwriters",
      "8"
    ],
    "repository": "kara.moe",
    "modified_at": "2020-03-31T19:04:37.019Z"
  }
}