{
  "header": {
    "description": "Karaoke Mugen Tag File",
    "version": 1
  },
  "tag": {
    "i18n": {
      "eng": "Ranko no Ane",
      "jpn": "ランコの姉"
    },
    "name": "Ranko no Ane",
    "repository": "kara.moe",
    "tid": "76cf133f-cac5-4534-afa7-7d26ee921a3b",
    "types": [
      "songwriters",
      "8"
    ]
  }
}