{
  "header": {
    "description": "Karaoke Mugen Tag File",
    "version": 1
  },
  "tag": {
    "i18n": {
      "eng": "Raon Lee"
    },
    "modified_at": "2021-05-19T20:28:48.007Z",
    "name": "Raon Lee",
    "repository": "kara.moe",
    "tid": "19864d5c-f556-402a-97f7-8dd559c51b98",
    "types": [
      "creators",
      "4",
      "singers",
      "2"
    ]
  }
}