{
  "header": {
    "description": "Karaoke Mugen Tag File",
    "version": 1
  },
  "tag": {
    "i18n": {
      "eng": "Ray Parker Jr."
    },
    "modified_at": "2021-09-12T13:32:31.691Z",
    "name": "Ray Parker Jr.",
    "repository": "kara.moe",
    "tid": "86c0e274-4db3-4eae-b48b-7c985593f25d",
    "types": [
      "songwriters",
      "8",
      "singers",
      "2"
    ]
  }
}