{
  "header": {
    "description": "Karaoke Mugen Tag File",
    "version": 1
  },
  "tag": {
    "i18n": {
      "eng": "Raychell"
    },
    "name": "Raychell",
    "tid": "ac98d1ea-1b4a-4dc8-a6b2-b18b2b2de6cd",
    "types": [
      "singers",
      "2"
    ],
    "repository": "kara.moe",
    "modified_at": "2020-03-31T19:04:37.028Z"
  }
}