{
  "header": {
    "description": "Karaoke Mugen Tag File",
    "version": 1
  },
  "tag": {
    "i18n": {
      "eng": "*Razzy"
    },
    "name": "*Razzy",
    "repository": "kara.moe",
    "tid": "b6ea5058-11f1-4eaa-9b4b-bf8ba6959cb0",
    "types": [
      "songwriters",
      "8"
    ]
  }
}