{
  "header": {
    "description": "Karaoke Mugen Tag File",
    "version": 1
  },
  "tag": {
    "i18n": {
      "eng": "RB26DETT"
    },
    "modified_at": "2020-12-30T12:56:35.241Z",
    "name": "RB26DETT",
    "repository": "kara.moe",
    "tid": "ffc89800-ef7f-4230-8763-0f5cca97e960",
    "types": [
      "songwriters",
      "8"
    ]
  }
}