{
  "header": {
    "description": "Karaoke Mugen Tag File",
    "version": 1
  },
  "tag": {
    "aliases": [
      "Re Zero kara Hajimeru Isekai Seikatsu",
      "Re: Life in a Different World from Zero",
      "Re:Zero",
      "rezero",
      "rizero",
      "リゼロ",
      "从零开始的异世界"
    ],
    "external_database_ids": {
      "anilist": 21355,
      "myanimelist": 31240,
      "kitsu": 11209
    },
    "i18n": {
      "chi": "Re: 从零开始的异世界生活",
      "eng": "Re:Zero ‒ Starting Life in Another World",
      "jpn": "Re: ゼロから始める異世界生活",
      "qro": "Re: Zero kara Hajimeru Isekai Seikatsu"
    },
    "modified_at": "2020-03-31T19:04:32.543Z",
    "name": "Re: Zero kara Hajimeru Isekai Seikatsu",
    "repository": "kara.moe",
    "tid": "6339add6-b9a3-46c4-9488-2660caa30487",
    "types": [
      "series",
      "1",
      "franchises",
      "18"
    ]
  }
}