{
  "header": {
    "description": "Karaoke Mugen Tag File",
    "version": 1
  },
  "tag": {
    "aliases": [
      "Снежные воспоминания",
      "제로부터 시작하는 이세계 생활"
    ],
    "external_database_ids": {
      "anilist": 100049,
      "kitsu": 13882,
      "myanimelist": 36286
    },
    "i18n": {
      "eng": "Re:Zero - Starting Life in Another World OVA",
      "qro": "Re: Zero kara Hajimeru Isekai Seikatsu OVA",
      "jpn": "Re:ゼロから始める異世界生活 (2018)",
      "rus": "Re:Zero — жизнь с нуля в другом мире OVA",
      "chi": "Re：從零開始的異世界生活 OVA"
    },
    "name": "Re: Zero kara Hajimeru Isekai Seikatsu OVA",
    "repository": "kara.moe",
    "tid": "06545c35-bc7e-45c5-b8bf-e4ac7e993c44",
    "types": [
      "series",
      "1"
    ]
  }
}