{
  "header": {
    "description": "Karaoke Mugen Tag File",
    "version": 1
  },
  "tag": {
    "external_database_ids": {
      "anilist": 20814,
      "kitsu": 8668,
      "myanimelist": 25859
    },
    "i18n": {
      "chi": "灵感少女",
      "eng": "Re-Kan!",
      "jpn": "レーカン!",
      "qro": "Re-Kan!"
    },
    "name": "Re-Kan!",
    "repository": "kara.moe",
    "tid": "68e7b8ac-ea3a-4295-b94e-81f796d4d1bc",
    "types": [
      "series",
      "1"
    ]
  }
}