{
  "header": {
    "description": "Karaoke Mugen Tag File",
    "version": 1
  },
  "tag": {
    "aliases": [
      "リメイン"
    ],
    "external_database_ids": {
      "anilist": 130549,
      "myanimelist": 48406,
      "kitsu": 44122
    },
    "i18n": {
      "eng": "RE-MAIN"
    },
    "name": "RE-MAIN",
    "repository": "kara.moe",
    "tid": "274aa0a2-b3d2-4eb4-86d8-3c085a67fe96",
    "types": [
      "series",
      "1"
    ]
  }
}