{
  "header": {
    "description": "Karaoke Mugen Tag File",
    "version": 1
  },
  "tag": {
    "i18n": {
      "eng": "Яeal"
    },
    "name": "Яeal",
    "tid": "0491b94e-4f9b-4436-bb25-bf7febb45eac",
    "types": [
      "singers",
      "2"
    ],
    "repository": "kara.moe",
    "modified_at": "2020-03-31T19:04:37.032Z"
  }
}