{
  "header": {
    "description": "Karaoke Mugen Tag File",
    "version": 1
  },
  "tag": {
    "i18n": {
      "eng": "Rebecca G"
    },
    "name": "Rebecca G",
    "repository": "kara.moe",
    "tid": "2e0a42a8-1a56-48a4-9f88-5969966125e6",
    "types": [
      "singers",
      "2"
    ],
    "modified_at": "2020-03-31T19:04:37.034Z"
  }
}