{
  "header": {
    "description": "Karaoke Mugen Tag File",
    "version": 1
  },
  "tag": {
    "i18n": {
      "eng": "Rebecca Roth"
    },
    "modified_at": "2021-07-18T18:02:46.474Z",
    "name": "Rebecca Roth",
    "repository": "kara.moe",
    "tid": "0f6f01ba-7991-4318-9640-a56d941bec3e",
    "types": [
      "songwriters",
      "8"
    ]
  }
}