{
  "header": {
    "description": "Karaoke Mugen Tag File",
    "version": 1
  },
  "tag": {
    "i18n": {
      "eng": "Red Entertainment"
    },
    "name": "Red Entertainment",
    "tid": "a52f4346-91ee-49ea-9ba4-97dfd4a5057b",
    "types": [
      "creators",
      "4"
    ],
    "repository": "kara.moe",
    "modified_at": "2020-03-31T19:04:37.036Z"
  }
}