{
  "header": {
    "description": "Karaoke Mugen Tag File",
    "version": 1
  },
  "tag": {
    "i18n": {
      "eng": "REDALiCE"
    },
    "name": "REDALiCE",
    "tid": "bfe566b0-b569-44af-bd4f-c58a605ceefc",
    "types": [
      "singers",
      "2",
      "songwriters",
      "8"
    ],
    "repository": "kara.moe",
    "modified_at": "2020-03-31T19:04:37.037Z"
  }
}