{
  "header": {
    "description": "Karaoke Mugen Tag File",
    "version": 1
  },
  "tag": {
    "i18n": {
      "eng": "Rednight5"
    },
    "name": "Rednight5",
    "repository": "kara.moe",
    "tid": "98535a3b-43c4-4e54-9a4a-8af586b26651",
    "types": [
      "creators",
      "4"
    ]
  }
}