{
  "header": {
    "description": "Karaoke Mugen Tag File",
    "version": 1
  },
  "tag": {
    "i18n": {
      "eng": "RedRangerJo"
    },
    "name": "RedRangerJo",
    "repository": "kara.moe",
    "tid": "f3fe1adc-2d04-4a00-94a2-d911d8c61a47",
    "types": [
      "authors",
      "6"
    ]
  }
}