{
  "header": {
    "description": "Karaoke Mugen Tag File",
    "version": 1
  },
  "tag": {
    "i18n": {
      "eng": "Refio"
    },
    "name": "Refio",
    "tid": "3dbee81b-8255-4794-b547-f365d97cc9bc",
    "types": [
      "singers",
      "2"
    ],
    "repository": "kara.moe",
    "modified_at": "2020-03-31T19:04:37.040Z"
  }
}