{
  "header": {
    "description": "Karaoke Mugen Tag File",
    "version": 1
  },
  "tag": {
    "i18n": {
      "eng": "ReGLOSS"
    },
    "name": "ReGLOSS",
    "repository": "kara.moe",
    "tid": "1a0415b3-53e4-4ab0-8b7a-ae190ff372a6",
    "types": [
      "singergroups",
      "17"
    ]
  }
}