{
  "header": {
    "description": "Karaoke Mugen Tag File",
    "version": 1
  },
  "tag": {
    "i18n": {
      "eng": "Rei Sakuma"
    },
    "name": "Rei Sakuma",
    "tid": "1e814f5f-d0d0-4356-b565-ba28564a393f",
    "types": [
      "singers",
      "2"
    ],
    "repository": "kara.moe",
    "modified_at": "2020-03-31T19:04:37.044Z"
  }
}