{
  "header": {
    "description": "Karaoke Mugen Tag File",
    "version": 1
  },
  "tag": {
    "i18n": {
      "eng": "Rei Matsuzaki"
    },
    "name": "Rei Matsuzaki",
    "tid": "b7460704-94c8-4850-98f3-07a179e4b834",
    "types": [
      "singers",
      "2"
    ],
    "repository": "kara.moe",
    "modified_at": "2020-03-31T19:04:37.043Z"
  }
}