{
  "header": {
    "description": "Karaoke Mugen Tag File",
    "version": 1
  },
  "tag": {
    "description": {
      "eng": "Vocalist from TUYU"
    },
    "i18n": {
      "jpn": "礼衣",
      "qro": "Rei"
    },
    "name": "Rei (TUYU)",
    "repository": "kara.moe",
    "tid": "59d1295f-d723-464c-9422-96bb55789689",
    "types": [
      "singers",
      "2"
    ]
  }
}