{
  "header": {
    "description": "Karaoke Mugen Tag File",
    "version": 1
  },
  "tag": {
    "i18n": {
      "eng": "Rei Tanaka"
    },
    "name": "Rei Tanaka",
    "tid": "e4be2734-71a0-4cb8-9cf4-e172073f03d3",
    "types": [
      "songwriters",
      "8"
    ],
    "repository": "kara.moe",
    "modified_at": "2020-03-31T19:04:37.045Z"
  }
}