{
  "header": {
    "description": "Karaoke Mugen Tag File",
    "version": 1
  },
  "tag": {
    "i18n": {
      "eng": "Reiko Oomori"
    },
    "name": "Reiko Oomori",
    "tid": "605829ea-78a7-40eb-b110-596bda97ec88",
    "types": [
      "singers",
      "2"
    ],
    "repository": "kara.moe",
    "modified_at": "2020-03-31T19:04:37.048Z"
  }
}