{
  "header": {
    "description": "Karaoke Mugen Tag File",
    "version": 1
  },
  "tag": {
    "i18n": {
      "eng": "Reiko"
    },
    "modified_at": "2021-07-04T11:42:13.377Z",
    "name": "Reiko",
    "repository": "kara.moe",
    "tid": "efb10409-c552-4f80-aa52-b8094c273a27",
    "types": [
      "singers",
      "2"
    ]
  }
}