{
  "header": {
    "description": "Karaoke Mugen Tag File",
    "version": 1
  },
  "tag": {
    "i18n": {
      "eng": "Reika Okina"
    },
    "name": "Reika Okina",
    "tid": "ac8face8-7eb4-41a8-8919-37e509ffebea",
    "types": [
      "singers",
      "2"
    ],
    "repository": "kara.moe",
    "modified_at": "2020-03-31T19:04:37.048Z"
  }
}