{
  "header": {
    "description": "Karaoke Mugen Tag File",
    "version": 1
  },
  "tag": {
    "i18n": {
      "eng": "Reina Ueda"
    },
    "name": "Reina Ueda",
    "tid": "20d2fab3-1e7c-4a00-889e-272eacc68e10",
    "types": [
      "singers",
      "2"
    ],
    "repository": "kara.moe",
    "modified_at": "2020-03-31T19:04:37.053Z"
  }
}