{
  "header": {
    "description": "Karaoke Mugen Tag File",
    "version": 1
  },
  "tag": {
    "aliases": [
      "leo"
    ],
    "i18n": {
      "jpn": "藤井レオ",
      "qro": "Reio Fujii"
    },
    "name": "Reio Fujii",
    "repository": "kara.moe",
    "tid": "67425504-37c4-429d-826f-ed28ade14525",
    "types": [
      "songwriters",
      "8",
      "singers",
      "2"
    ]
  }
}