{
  "header": {
    "description": "Karaoke Mugen Tag File",
    "version": 1
  },
  "tag": {
    "i18n": {
      "eng": "REISSUE RECORDS"
    },
    "name": "REISSUE RECORDS",
    "repository": "kara.moe",
    "tid": "2129f6ac-5578-4cb2-8267-fa9ecc8b7981",
    "types": [
      "creators",
      "4"
    ]
  }
}