{
  "header": {
    "description": "Karaoke Mugen Tag File",
    "version": 1
  },
  "tag": {
    "external_database_ids": {
      "anilist": 135515,
      "myanimelist": 49179,
      "kitsu": 44709
    },
    "i18n": {
      "eng": "Reiwa no Digi Charat",
      "jpn": "令和のデ・ジ・キャラット"
    },
    "name": "Reiwa no Digi Charat",
    "repository": "kara.moe",
    "tid": "5a1589d3-62cc-43b7-a56c-5b3d3541eb5f",
    "types": [
      "series",
      "1"
    ]
  }
}