{
  "header": {
    "description": "Karaoke Mugen Tag File",
    "version": 1
  },
  "tag": {
    "external_database_ids": {
      "anilist": 21049,
      "myanimelist": 30015,
      "kitsu": 10464
    },
    "i18n": {
      "eng": "ReLIFE",
      "jpn": "ReLIFE",
      "qro": "ReLife"
    },
    "modified_at": "2020-03-31T19:04:32.549Z",
    "name": "ReLife",
    "repository": "kara.moe",
    "tid": "bdbc3ae4-3611-4de1-9fc5-e9286d34ce3b",
    "types": [
      "series",
      "1"
    ]
  }
}