{
  "header": {
    "description": "Karaoke Mugen Tag File",
    "version": 1
  },
  "tag": {
    "aliases": [
      "STAR☆ANIS",
      "STAR ANIS"
    ],
    "i18n": {
      "eng": "Remi Mitani"
    },
    "modified_at": "2020-11-22T18:06:25.946Z",
    "name": "Remi Mitani",
    "repository": "kara.moe",
    "tid": "f7732ea9-5bdc-454f-8734-d45c876c2b6e",
    "types": [
      "singers",
      "2"
    ]
  }
}