{
  "header": {
    "description": "Karaoke Mugen Tag File",
    "version": 1
  },
  "tag": {
    "i18n": {
      "eng": "Remi Tanaka"
    },
    "name": "Remi Tanaka",
    "repository": "kara.moe",
    "tid": "74cdbf44-528a-4791-a214-4fa9bd895b35",
    "types": [
      "singers",
      "2"
    ]
  }
}