{
  "header": {
    "description": "Karaoke Mugen Tag File",
    "version": 1
  },
  "tag": {
    "i18n": {
      "eng": "Remi Tanaka"
    },
    "name": "Remi Tanaka",
    "repository": "kara.moe",
    "tid": "324f2392-171b-42e4-8d9f-68775d95a6c3",
    "types": [
      "songwriters",
      "8"
    ]
  }
}