{
  "header": {
    "description": "Karaoke Mugen Tag File",
    "version": 1
  },
  "tag": {
    "i18n": {
      "eng": "Reminiscence",
      "jpn": "Reminiscence",
      "qro": "Reminiscence"
    },
    "modified_at": "2020-03-31T19:04:32.550Z",
    "name": "Reminiscence",
    "repository": "kara.moe",
    "tid": "c1ff9aa8-9c81-4cc0-b50f-4ce34ad3817d",
    "types": [
      "series",
      "1"
    ]
  }
}