{
  "header": {
    "description": "Karaoke Mugen Tag File",
    "version": 1
  },
  "tag": {
    "i18n": {
      "eng": "Remioromen"
    },
    "name": "Remioromen",
    "repository": "kara.moe",
    "tid": "437c6d41-bead-48a2-915d-0a2cc87da78c",
    "types": [
      "singergroups",
      "17"
    ]
  }
}