{
  "header": {
    "description": "Karaoke Mugen Tag File",
    "version": 1
  },
  "tag": {
    "i18n": {
      "eng": "Rena Yazawa"
    },
    "name": "Rena Yazawa",
    "tid": "0e88baaf-0ebf-4ae2-89fb-708aebd3e59a",
    "types": [
      "singers",
      "2"
    ],
    "repository": "kara.moe",
    "modified_at": "2020-03-31T19:04:37.063Z"
  }
}