{
  "header": {
    "description": "Karaoke Mugen Tag File",
    "version": 1
  },
  "tag": {
    "i18n": {
      "eng": "Rena Uehara"
    },
    "name": "Rena Uehara",
    "tid": "a5238199-ccfe-4596-80b4-047f63fc2014",
    "types": [
      "singers",
      "2"
    ],
    "repository": "kara.moe",
    "modified_at": "2020-03-31T19:04:37.062Z"
  }
}