{
  "header": {
    "description": "Karaoke Mugen Tag File",
    "version": 1
  },
  "tag": {
    "i18n": {
      "jpn": "長谷川 玲奈",
      "qro": "Rena Hasegawa"
    },
    "name": "Rena Hasegawa",
    "repository": "kara.moe",
    "tid": "c8b24f6e-af25-4e36-a2bf-1fd586415b59",
    "types": [
      "singers",
      "2"
    ]
  }
}