{
  "header": {
    "description": "Karaoke Mugen Tag File",
    "version": 1
  },
  "tag": {
    "i18n": {
      "eng": "Renaud Rebillaud"
    },
    "name": "Renaud Rebillaud",
    "repository": "kara.moe",
    "tid": "88b0e5bd-d710-4761-be15-e4906e46d2f5",
    "types": [
      "songwriters",
      "8"
    ]
  }
}