{
  "header": {
    "description": "Karaoke Mugen Tag File",
    "version": 1
  },
  "tag": {
    "i18n": {
      "eng": "Rena Strober"
    },
    "name": "Rena Strober",
    "tid": "c853c4ad-8bd6-44f0-bc41-16bf71a1b8b0",
    "types": [
      "singers",
      "2"
    ],
    "repository": "kara.moe",
    "modified_at": "2020-03-31T19:04:37.061Z"
  }
}