{
  "header": {
    "description": "Karaoke Mugen Tag File",
    "version": 1
  },
  "tag": {
    "aliases": [
      "Gasaki",
      "Ryuugasaki"
    ],
    "i18n": {
      "eng": "Rene Ryugasaki",
      "jpn": "龍ヶ崎リン"
    },
    "name": "Rene Ryugasaki",
    "repository": "kara.moe",
    "tid": "5e37692a-c93d-4ae3-b5f5-dc50ca941cfa",
    "types": [
      "singers",
      "2"
    ]
  }
}