{
  "header": {
    "description": "Karaoke Mugen Tag File",
    "version": 1
  },
  "tag": {
    "i18n": {
      "eng": "Renee Violet"
    },
    "modified_at": "2021-01-13T18:12:32.160Z",
    "name": "Renee Violet",
    "repository": "kara.moe",
    "tid": "f8d14e4e-053a-4850-afd4-b1273ab0c7f8",
    "types": [
      "creators",
      "4"
    ]
  }
}