{
  "header": {
    "description": "Karaoke Mugen Tag File",
    "version": 1
  },
  "tag": {
    "i18n": {
      "eng": "Reno"
    },
    "name": "Reno",
    "tid": "f6fa8596-3472-42a4-8a44-bfe3be91ed0b",
    "types": [
      "songwriters",
      "8"
    ],
    "repository": "kara.moe",
    "modified_at": "2020-03-31T19:04:37.067Z"
  }
}