{
  "header": {
    "description": "Karaoke Mugen Tag File",
    "version": 1
  },
  "tag": {
    "i18n": {
      "eng": "Reo Rinozuka"
    },
    "name": "Reo Rinozuka",
    "tid": "37dd20b2-85f2-4c00-a778-e4f8d82719d2",
    "types": [
      "songwriters",
      "8"
    ],
    "repository": "kara.moe",
    "modified_at": "2020-03-31T19:04:37.068Z"
  }
}