{
  "header": {
    "description": "Karaoke Mugen Tag File",
    "version": 1
  },
  "tag": {
    "i18n": {
      "eng": "Reo"
    },
    "name": "Reo",
    "tid": "7fd6dc5e-652d-4ad2-a2c2-c177cb47a61c",
    "types": [
      "songwriters",
      "8"
    ],
    "repository": "kara.moe",
    "modified_at": "2020-03-31T19:04:37.069Z"
  }
}