{
  "header": {
    "description": "Karaoke Mugen Tag File",
    "version": 1
  },
  "tag": {
    "i18n": {
      "eng": "REOL"
    },
    "name": "REOL",
    "tid": "466ad700-8ba6-4dea-80a7-c0b763548a72",
    "types": [
      "singers",
      "2",
      "songwriters",
      "8"
    ],
    "repository": "kara.moe",
    "modified_at": "2020-03-31T19:04:37.070Z"
  }
}