{
  "header": {
    "description": "Karaoke Mugen Tag File",
    "version": 1
  },
  "tag": {
    "i18n": {
      "eng": "Reposhoo"
    },
    "name": "Reposhoo",
    "repository": "kara.moe",
    "tid": "c25cb299-4a67-4930-a927-1b5e7caec6bd",
    "types": [
      "creators",
      "4"
    ]
  }
}