{
  "header": {
    "description": "Karaoke Mugen Tag File",
    "version": 1
  },
  "tag": {
    "i18n": {
      "eng": "Reprise Records"
    },
    "name": "Reprise Records",
    "repository": "kara.moe",
    "tid": "443700b5-68b0-4abd-8b71-efe590f4e616",
    "types": [
      "creators",
      "4"
    ]
  }
}