{
  "header": {
    "description": "Karaoke Mugen Tag File",
    "version": 1
  },
  "tag": {
    "aliases": [
      "プロジェクトD"
    ],
    "external_database_ids": {
      "anilist": 99413,
      "myanimelist": 35835,
      "kitsu": 13613
    },
    "i18n": {
      "eng": "RErideD: Derrida, who leaps through time",
      "jpn": "RErideD-刻越えのデリダ-",
      "qro": "RErideD -Tokigoe no Derrida-"
    },
    "modified_at": "2020-03-31T19:04:32.551Z",
    "name": "RErideD -Tokigoe no Derrida-",
    "repository": "kara.moe",
    "tid": "16e4322a-242f-4e0e-aa85-765443111775",
    "types": [
      "series",
      "1"
    ]
  }
}