{
  "header": {
    "description": "Karaoke Mugen Tag File",
    "version": 1
  },
  "tag": {
    "i18n": {
      "eng": "RESTART"
    },
    "name": "RESTART",
    "repository": "kara.moe",
    "tid": "0f30f5c4-741b-4302-a103-3bfb05cd2f0e",
    "types": [
      "songwriters",
      "8"
    ]
  }
}