{
  "header": {
    "description": "Karaoke Mugen Tag File",
    "version": 1
  },
  "tag": {
    "i18n": {
      "eng": "Retro Ryno"
    },
    "name": "Retro Ryno",
    "tid": "9c81e5f5-ad16-4c05-9388-5cd2ed189ae8",
    "types": [
      "creators",
      "4"
    ],
    "repository": "kara.moe",
    "modified_at": "2020-03-31T19:04:37.072Z"
  }
}