{
  "header": {
    "description": "Karaoke Mugen Tag File",
    "version": 1
  },
  "tag": {
    "aliases": [
      "Rewrite 2nd Season Moon編 / Terra編",
      "Rewrite 2nd Season: Moon Hen / Terra Hen",
      "Rewrite S2"
    ],
    "external_database_ids": {
      "anilist": 97665,
      "myanimelist": 34126,
      "kitsu": 12861
    },
    "i18n": {
      "eng": "Rewrite 2nd Season",
      "jpn": "Rewrite 2nd Season",
      "qro": "Rewrite 2nd Season"
    },
    "modified_at": "2020-06-21T23:45:31.966Z",
    "name": "Rewrite 2nd Season",
    "repository": "kara.moe",
    "tid": "40bd56e2-9f6e-4bde-a688-7388d836f548",
    "types": [
      "series",
      "1"
    ]
  }
}