{
  "header": {
    "description": "Karaoke Mugen Tag File",
    "version": 1
  },
  "tag": {
    "aliases": [
      "リライト"
    ],
    "external_database_ids": {
      "anilist": 21382,
      "myanimelist": 31716,
      "kitsu": 11410
    },
    "i18n": {
      "eng": "Rewrite",
      "fre": "Rewrite",
      "jpn": "Rewrite",
      "qro": "Rewrite"
    },
    "modified_at": "2020-06-21T23:45:31.966Z",
    "name": "Rewrite",
    "repository": "kara.moe",
    "tid": "f60c135c-70b7-4452-a7d6-f15c8f647307",
    "types": [
      "series",
      "1",
      "franchises",
      "18"
    ]
  }
}