{
  "header": {
    "description": "Karaoke Mugen Tag File",
    "version": 1
  },
  "tag": {
    "i18n": {
      "eng": "RGPAnims"
    },
    "modified_at": "2021-01-09T20:33:37.720Z",
    "name": "RGPAnims",
    "repository": "kara.moe",
    "tid": "f0a13113-eefa-4139-8ed3-f70d282484e7",
    "types": [
      "creators",
      "4"
    ]
  }
}