{
  "header": {
    "description": "Karaoke Mugen Tag File",
    "version": 1
  },
  "tag": {
    "i18n": {
      "eng": "RGR"
    },
    "modified_at": "2021-02-05T20:57:32.620Z",
    "name": "RGR",
    "repository": "kara.moe",
    "tid": "ab00e865-387f-4ca2-89cf-052e67e89409",
    "types": [
      "creators",
      "4"
    ]
  }
}