{
  "header": {
    "description": "Karaoke Mugen Tag File",
    "version": 1
  },
  "tag": {
    "i18n": {
      "eng": "Rgveta"
    },
    "name": "Rgveta",
    "repository": "kara.moe",
    "tid": "98882ea7-74ee-4c9c-9410-e06ef333d64e",
    "types": [
      "creators",
      "4"
    ]
  }
}