{
  "header": {
    "description": "Karaoke Mugen Tag File",
    "version": 1
  },
  "tag": {
    "i18n": {
      "eng": "Rhodanthe*"
    },
    "name": "Rhodanthe*",
    "tid": "601444d0-b78b-4fcc-b546-bb90babe53d7",
    "types": [
      "singers",
      "2"
    ],
    "repository": "kara.moe",
    "modified_at": "2020-03-31T19:04:37.075Z"
  }
}