{
  "header": {
    "description": "Karaoke Mugen Tag File",
    "version": 1
  },
  "tag": {
    "aliases": [
      "Beat the Beat",
      "Rhythm Heaven"
    ],
    "i18n": {
      "eng": "Rhythm Paradise",
      "jpn": "リズム天国",
      "qro": "Rhythm Tengoku"
    },
    "name": "Rhythm Tengoku",
    "repository": "kara.moe",
    "tid": "7542749a-37e8-4dd6-aa66-8eaf7f84d3f7",
    "types": [
      "franchises",
      "18"
    ]
  }
}