{
  "header": {
    "description": "Karaoke Mugen Tag File",
    "version": 1
  },
  "tag": {
    "i18n": {
      "eng": "Ribu Mukai"
    },
    "name": "Ribu Mukai",
    "repository": "kara.moe",
    "tid": "16ecf54e-bdaa-4b7c-9c2a-5a93ebfaea34",
    "types": [
      "singers",
      "2"
    ]
  }
}