{
  "header": {
    "description": "Karaoke Mugen Tag File",
    "version": 1
  },
  "tag": {
    "i18n": {
      "eng": "Ricardo Cruz"
    },
    "name": "Ricardo Cruz",
    "tid": "8ea587cc-9385-4bff-9ac4-d2829f44feae",
    "types": [
      "songwriters",
      "8"
    ],
    "repository": "kara.moe",
    "modified_at": "2020-03-31T19:04:37.080Z"
  }
}