{
  "header": {
    "description": "Karaoke Mugen Tag File",
    "version": 1
  },
  "tag": {
    "i18n": {
      "eng": "Ricardo Silva"
    },
    "modified_at": "2021-08-01T21:24:19.539Z",
    "name": "Ricardo Silva",
    "repository": "kara.moe",
    "tid": "8690ff82-d56f-49f2-a7c6-36f1a6938143",
    "types": [
      "singers",
      "2",
      "songwriters",
      "8"
    ]
  }
}