{
  "header": {
    "description": "Karaoke Mugen Tag File",
    "version": 1
  },
  "tag": {
    "i18n": {
      "eng": "Riccardo Zara"
    },
    "name": "Riccardo Zara",
    "tid": "24e57cfc-1fea-485f-b4af-553f0e69b0a4",
    "types": [
      "songwriters",
      "8"
    ],
    "repository": "kara.moe",
    "modified_at": "2020-03-31T19:04:37.080Z"
  }
}