{
  "header": {
    "description": "Karaoke Mugen Tag File",
    "version": 1
  },
  "tag": {
    "i18n": {
      "eng": "Richard Rodgers"
    },
    "modified_at": "2021-02-16T10:48:36.656Z",
    "name": "Richard Rodgers",
    "repository": "kara.moe",
    "tid": "e9239826-b34c-4c03-90ef-02850615eab5",
    "types": [
      "songwriters",
      "8"
    ]
  }
}