{
  "header": {
    "description": "Karaoke Mugen Tag File",
    "version": 1
  },
  "tag": {
    "i18n": {
      "eng": "Richard Joffo"
    },
    "name": "Richard Joffo",
    "repository": "kara.moe",
    "tid": "a9c388be-8ec9-4c45-82ae-9628ad8512dd",
    "types": [
      "songwriters",
      "8"
    ]
  }
}