{
  "header": {
    "description": "Karaoke Mugen Tag File",
    "version": 1
  },
  "tag": {
    "i18n": {
      "eng": "Richard Zven Kruspe"
    },
    "modified_at": "2020-07-11T15:27:01.640Z",
    "name": "Richard Zven Kruspe",
    "repository": "kara.moe",
    "tid": "6f6f8580-104e-4a53-b9bc-665dbbf645ee",
    "types": [
      "songwriters",
      "8"
    ]
  }
}