{
  "header": {
    "description": "Karaoke Mugen Tag File",
    "version": 1
  },
  "tag": {
    "i18n": {
      "eng": "Rick & Morty",
      "fre": "Rick et Morty",
      "jpn": "リック・アンド・モーティ",
      "qro": "Rick and Morty",
      "spa": "Rick y Morty"
    },
    "modified_at": "2021-10-01T13:25:40.337Z",
    "name": "Rick & Morty",
    "repository": "kara.moe",
    "tid": "d6a3923b-a545-4ce4-b978-4fde2fa06b3f",
    "types": [
      "series",
      "1"
    ]
  }
}