{
  "header": {
    "description": "Karaoke Mugen Tag File",
    "version": 1
  },
  "tag": {
    "i18n": {
      "eng": "Rick Astley"
    },
    "name": "Rick Astley",
    "tid": "d75a6087-dda1-417c-81f7-370a9a16f9d3",
    "types": [
      "singers",
      "2"
    ],
    "repository": "kara.moe",
    "modified_at": "2020-03-31T19:04:37.085Z"
  }
}