{
  "header": {
    "description": "Karaoke Mugen Tag File",
    "version": 1
  },
  "tag": {
    "i18n": {
      "eng": "Rico Ohashi"
    },
    "name": "Rico Ohashi",
    "tid": "60584c21-6342-48b9-9187-69b39b925e8c",
    "types": [
      "songwriters",
      "8"
    ],
    "repository": "kara.moe",
    "modified_at": "2020-03-31T19:04:37.086Z"
  }
}