{
  "header": {
    "description": "Karaoke Mugen Tag File",
    "version": 1
  },
  "tag": {
    "i18n": {
      "eng": "R4: Ridge Racer Type 4",
      "jpn": "Ridge Racer Type 4",
      "qro": "Ridge Racer Type 4"
    },
    "modified_at": "2020-03-31T19:04:32.557Z",
    "name": "Ridge Racer Type 4",
    "repository": "kara.moe",
    "tid": "07b3bbd5-964a-4a50-baff-eca68246a63f",
    "types": [
      "series",
      "1"
    ]
  }
}