{
  "header": {
    "description": "Karaoke Mugen Tag File",
    "version": 1
  },
  "tag": {
    "i18n": {
      "eng": "Rie Hikisaka"
    },
    "name": "Rie Hikisaka",
    "tid": "f81f1789-6bc0-4535-9ae8-b7db4f167cb0",
    "types": [
      "singers",
      "2"
    ],
    "repository": "kara.moe",
    "modified_at": "2020-03-31T19:04:37.090Z"
  }
}