{
  "header": {
    "description": "Karaoke Mugen Tag File",
    "version": 1
  },
  "tag": {
    "i18n": {
      "eng": "Rie Suegara"
    },
    "name": "Rie Suegara",
    "tid": "432afab3-575a-47b0-b6ea-225fc6ffdae5",
    "types": [
      "singers",
      "2"
    ],
    "repository": "kara.moe",
    "modified_at": "2020-03-31T19:04:37.094Z"
  }
}