{
  "header": {
    "description": "Karaoke Mugen Tag File",
    "version": 1
  },
  "tag": {
    "i18n": {
      "eng": "Rie Tanaka"
    },
    "name": "Rie Tanaka",
    "tid": "6008adae-7997-4a23-ac14-f51cfe4ec984",
    "types": [
      "singers",
      "2"
    ],
    "repository": "kara.moe",
    "modified_at": "2020-03-31T19:04:37.095Z"
  }
}