{
  "header": {
    "description": "Karaoke Mugen Tag File",
    "version": 1
  },
  "tag": {
    "i18n": {
      "eng": "Rie Kitagawa"
    },
    "name": "Rie Kitagawa",
    "tid": "3fb97e01-24d2-4df9-ba1e-9a718e6c06e4",
    "types": [
      "singers",
      "2"
    ],
    "repository": "kara.moe",
    "modified_at": "2020-03-31T19:04:37.091Z"
  }
}