{
  "header": {
    "description": "Karaoke Mugen Tag File",
    "version": 1
  },
  "tag": {
    "i18n": {
      "eng": "Rihona Kato"
    },
    "name": "Rihona Kato",
    "repository": "kara.moe",
    "tid": "81548020-23db-4eee-82e0-826eebefda45",
    "types": [
      "singers",
      "2"
    ]
  }
}