{
  "header": {
    "description": "Karaoke Mugen Tag File",
    "version": 1
  },
  "tag": {
    "i18n": {
      "eng": "Riho Sugiyama"
    },
    "modified_at": "2021-07-03T13:33:57.763Z",
    "name": "Riho Sugiyama",
    "repository": "kara.moe",
    "tid": "e2d39365-b5f2-473a-ac3e-5b7d86b3a797",
    "types": [
      "songwriters",
      "8",
      "singers",
      "2"
    ]
  }
}