{
  "header": {
    "description": "Karaoke Mugen Tag File",
    "version": 1
  },
  "tag": {
    "i18n": {
      "eng": "Rika Komatsu"
    },
    "name": "Rika Komatsu",
    "tid": "fda9ce58-ce06-439c-83a6-2602d8497ff8",
    "types": [
      "singers",
      "2"
    ],
    "repository": "kara.moe",
    "modified_at": "2020-03-31T19:04:37.102Z"
  }
}