{
  "header": {
    "description": "Karaoke Mugen Tag File",
    "version": 1
  },
  "tag": {
    "i18n": {
      "eng": "Rika Mayama"
    },
    "name": "Rika Mayama",
    "tid": "4ea9b669-c9bc-4acf-b1af-a11ee4fd301d",
    "types": [
      "singers",
      "2"
    ],
    "repository": "kara.moe",
    "modified_at": "2020-03-31T19:04:37.103Z"
  }
}