{
  "header": {
    "description": "Karaoke Mugen Tag File",
    "version": 1
  },
  "tag": {
    "i18n": {
      "eng": "Rikako Aikawa"
    },
    "name": "Rikako Aikawa",
    "tid": "732092ae-3e81-4aa4-8eba-fa697c74748f",
    "types": [
      "singers",
      "2"
    ],
    "repository": "kara.moe",
    "modified_at": "2020-03-31T19:04:37.106Z"
  }
}