{
  "header": {
    "description": "Karaoke Mugen Tag File",
    "version": 1
  },
  "tag": {
    "i18n": {
      "eng": "Rika Nagae"
    },
    "name": "Rika Nagae",
    "tid": "69eaa2d8-dbff-4942-8f6f-9c1deb927d10",
    "types": [
      "singers",
      "2"
    ],
    "repository": "kara.moe",
    "modified_at": "2020-03-31T19:04:37.104Z"
  }
}