{
  "header": {
    "description": "Karaoke Mugen Tag File",
    "version": 1
  },
  "tag": {
    "i18n": {
      "eng": "Rika Fukami"
    },
    "name": "Rika Fukami",
    "tid": "3f4c087e-5bd0-4550-8537-391a37f5cba6",
    "types": [
      "singers",
      "2"
    ],
    "repository": "kara.moe",
    "modified_at": "2020-03-31T19:04:37.101Z"
  }
}