{
  "header": {
    "description": "Karaoke Mugen Tag File",
    "version": 1
  },
  "tag": {
    "i18n": {
      "eng": "Rika Nakagawa"
    },
    "name": "Rika Nakagawa",
    "repository": "kara.moe",
    "tid": "2ddb07ef-a9a4-46c9-bb74-a0e8aea5228f",
    "types": [
      "singers",
      "2"
    ]
  }
}