{
  "header": {
    "description": "Karaoke Mugen Tag File",
    "version": 1
  },
  "tag": {
    "aliases": [
      "りけいがこいにおちたのでしょうめいしてみた ハート",
      "RikeKoi"
    ],
    "external_database_ids": {
      "anilist": 125124,
      "myanimelist": 43470,
      "kitsu": 43681
    },
    "i18n": {
      "chi": "理科生坠入情网，故尝试证明。第二季",
      "eng": "Science Fell in Love, So I Tried to Prove It. [r=1-sinθ]",
      "jpn": "理系が恋に落ちたので証明してみた. [r=1-sinθ]",
      "qro": "Rikei ga Koi ni Ochita no de Shoumei Shite Mita. Heart"
    },
    "name": "Rikei ga Koi ni Ochita no de Shoumei shitemita. r=1-sinθ (Heart)",
    "repository": "kara.moe",
    "tid": "155af76f-b491-45d6-88b8-d28488629b6f",
    "types": [
      "series",
      "1"
    ]
  }
}