{
  "header": {
    "description": "Karaoke Mugen Tag File",
    "version": 1
  },
  "tag": {
    "i18n": {
      "eng": "Rikiya Kinôchi"
    },
    "name": "Rikiya Kinôchi",
    "tid": "95e22a44-d2e3-4177-96f5-5714950cbfeb",
    "types": [
      "singers",
      "2"
    ],
    "repository": "kara.moe",
    "modified_at": "2020-03-31T19:04:37.108Z"
  }
}