{
  "header": {
    "description": "Karaoke Mugen Tag File",
    "version": 1
  },
  "tag": {
    "i18n": {
      "eng": "Rikiya Koyama"
    },
    "name": "Rikiya Koyama",
    "tid": "29a857c1-8d06-49ab-8615-bb7ffb58a5ae",
    "types": [
      "singers",
      "2"
    ],
    "repository": "kara.moe",
    "modified_at": "2020-03-31T19:04:37.109Z"
  }
}