{
  "header": {
    "description": "Karaoke Mugen Tag File",
    "version": 1
  },
  "tag": {
    "i18n": {
      "eng": "RIKKI"
    },
    "name": "RIKKI",
    "tid": "bb45b3c6-3b54-4741-8940-9687349fa99b",
    "types": [
      "singers",
      "2"
    ],
    "repository": "kara.moe",
    "modified_at": "2020-03-31T19:04:37.110Z"
  }
}