{
  "header": {
    "description": "Karaoke Mugen Tag File",
    "version": 1
  },
  "tag": {
    "i18n": {
      "eng": "Riko Sakaguchi"
    },
    "name": "Riko Sakaguchi",
    "tid": "0de47688-259d-41a5-b984-df8a3f7fcc02",
    "types": [
      "songwriters",
      "8"
    ],
    "repository": "kara.moe",
    "modified_at": "2020-03-31T19:04:37.113Z"
  }
}