{
  "header": {
    "description": "Karaoke Mugen Tag File",
    "version": 1
  },
  "tag": {
    "aliases": [
      "Rico"
    ],
    "i18n": {
      "eng": "Riko Sasaki",
      "jpn": "佐々木李子",
      "qro": "Riko Sasaki"
    },
    "name": "Riko Sasaki",
    "repository": "kara.moe",
    "tid": "006feaa5-2550-4ae2-8448-9a11d1061ce1",
    "types": [
      "singers",
      "2"
    ]
  }
}