{
  "header": {
    "description": "Karaoke Mugen Tag File",
    "version": 1
  },
  "tag": {
    "i18n": {
      "eng": "Rima Nakabayashi"
    },
    "name": "Rima Nakabayashi",
    "repository": "kara.moe",
    "tid": "d023bbf8-8d41-4595-a7cb-28442b5425d8",
    "types": [
      "singers",
      "2"
    ]
  }
}