{
  "header": {
    "description": "Karaoke Mugen Tag File",
    "version": 1
  },
  "tag": {
    "i18n": {
      "eng": "Rimi Nishimoto"
    },
    "name": "Rimi Nishimoto",
    "tid": "721a998c-a803-416e-a40c-98294656ed8e",
    "types": [
      "singers",
      "2"
    ],
    "repository": "kara.moe",
    "modified_at": "2020-03-31T19:04:37.115Z"
  }
}