{
  "header": {
    "description": "Karaoke Mugen Tag File",
    "version": 1
  },
  "tag": {
    "i18n": {
      "eng": "Rimo Hasegawa"
    },
    "name": "Rimo Hasegawa",
    "repository": "kara.moe",
    "tid": "3eddd7a5-9460-4b9f-bce6-f5c1fc939616",
    "types": [
      "singers",
      "2"
    ]
  }
}