{
  "header": {
    "description": "Karaoke Mugen Tag File",
    "version": 1
  },
  "tag": {
    "i18n": {
      "qro": "RiMy"
    },
    "name": "RiMy",
    "repository": "kara.moe",
    "tid": "0e41c4db-87df-40c4-8b66-8145c8ab763f",
    "types": [
      "singers",
      "2",
      "songwriters",
      "8"
    ]
  }
}