{
  "header": {
    "description": "Karaoke Mugen Tag File",
    "version": 1
  },
  "tag": {
    "i18n": {
      "eng": "Rin Shizuka"
    },
    "modified_at": "2021-09-03T21:33:57.610Z",
    "name": "Rin Shizuka",
    "repository": "kara.moe",
    "tid": "90412fbb-19b1-4a22-81db-c23fed10e898",
    "types": [
      "singers",
      "2"
    ]
  }
}