{
  "header": {
    "description": "Karaoke Mugen Tag File",
    "version": 1
  },
  "tag": {
    "i18n": {
      "eng": "Rin Kojima"
    },
    "name": "Rin Kojima",
    "repository": "kara.moe",
    "tid": "4a44aa1a-e5f5-4f1a-83e1-d05f8958bf3e",
    "types": [
      "singers",
      "2"
    ]
  }
}