{
  "header": {
    "description": "Karaoke Mugen Tag File",
    "version": 1
  },
  "tag": {
    "i18n": {
      "eng": "Rin Tateishi"
    },
    "name": "Rin Tateishi",
    "repository": "kara.moe",
    "tid": "b3acaa49-3b62-4aaf-a1a1-2b9cd2ca76a5",
    "types": [
      "singers",
      "2"
    ]
  }
}