{
  "header": {
    "description": "Karaoke Mugen Tag File",
    "version": 1
  },
  "tag": {
    "i18n": {
      "eng": "Rin Iogi"
    },
    "name": "Rin Iogi",
    "tid": "38e17194-fe7b-48e3-8f52-0ac018250a1b",
    "types": [
      "songwriters",
      "8"
    ],
    "repository": "kara.moe",
    "modified_at": "2020-03-31T19:04:37.116Z"
  }
}