{
  "header": {
    "description": "Karaoke Mugen Tag File",
    "version": 1
  },
  "tag": {
    "i18n": {
      "eng": "Rin'"
    },
    "modified_at": "2020-10-18T00:47:03.287Z",
    "name": "Rin'",
    "repository": "kara.moe",
    "tid": "55e3774e-8a4c-4654-b364-70322af1e38d",
    "types": [
      "singers",
      "2",
      "songwriters",
      "8"
    ]
  }
}