{
  "header": {
    "description": "Karaoke Mugen Tag File",
    "version": 1
  },
  "tag": {
    "i18n": {
      "eng": "Rina Takenaka"
    },
    "modified_at": "2020-10-02T00:42:31.783Z",
    "name": "Rina Takenaka",
    "repository": "kara.moe",
    "tid": "6f9d37d2-9774-4609-8f2b-30a2cbf0864d",
    "types": [
      "singers",
      "2"
    ]
  }
}