{
  "header": {
    "description": "Karaoke Mugen Tag File",
    "version": 1
  },
  "tag": {
    "i18n": {
      "eng": "Rinchama"
    },
    "name": "Rinchama",
    "tid": "fa399f2f-ea1d-4902-8796-ea6d8218aff0",
    "types": [
      "authors",
      "6"
    ],
    "repository": "kara.moe",
    "modified_at": "2020-03-31T19:04:37.123Z"
  }
}