{
  "header": {
    "description": "Karaoke Mugen Tag File",
    "version": 1
  },
  "tag": {
    "external_database_ids": {
      "anilist": 10346,
      "myanimelist": 10346,
      "kitsu": 6137
    },
    "i18n": {
      "eng": "Ring ni Kakero 1 : Sekai Taikai-hen"
    },
    "name": "Ring ni Kakero 1 : Sekai Taikai-hen",
    "repository": "kara.moe",
    "tid": "d5728c7d-52b8-4fb9-836f-6f3de2c0a3a9",
    "types": [
      "series",
      "1"
    ]
  }
}