{
  "header": {
    "description": "Karaoke Mugen Tag File",
    "version": 1
  },
  "tag": {
    "i18n": {
      "eng": "Rino Yoshikita"
    },
    "name": "Rino Yoshikita",
    "repository": "kara.moe",
    "tid": "738dbb0f-d6e7-47b2-b7a3-163ff1db66a0",
    "types": [
      "singers",
      "2"
    ]
  }
}