{
  "header": {
    "description": "Karaoke Mugen Tag File",
    "version": 1
  },
  "tag": {
    "i18n": {
      "eng": "rino"
    },
    "name": "rino",
    "tid": "3b56d3a6-239c-445d-ae3e-eff298a03189",
    "types": [
      "songwriters",
      "8",
      "singers",
      "2"
    ],
    "repository": "kara.moe",
    "modified_at": "2020-03-31T19:04:37.126Z"
  }
}