{
  "header": {
    "description": "Karaoke Mugen Tag File",
    "version": 1
  },
  "tag": {
    "i18n": {
      "eng": "Rino Sashihara"
    },
    "name": "Rino Sashihara",
    "repository": "kara.moe",
    "tid": "fcf883e1-0ac5-4fbc-9f3f-d3edcc102c20",
    "types": [
      "songwriters",
      "8"
    ]
  }
}