{
  "header": {
    "description": "Karaoke Mugen Tag File",
    "version": 1
  },
  "tag": {
    "i18n": {
      "eng": "rinx2musixxx"
    },
    "name": "rinx2musixxx",
    "repository": "kara.moe",
    "tid": "cb3a0473-bca8-46c2-a99f-8b5421e097c6",
    "types": [
      "songwriters",
      "8"
    ]
  }
}