{
  "header": {
    "description": "Karaoke Mugen Tag File",
    "version": 1
  },
  "tag": {
    "i18n": {
      "eng": "Rion Watanabe"
    },
    "name": "Rion Watanabe",
    "repository": "kara.moe",
    "tid": "2f082c03-2447-4740-88f0-96b05e4e5cad",
    "types": [
      "singers",
      "2"
    ]
  }
}