{
  "header": {
    "description": "Karaoke Mugen Tag File",
    "version": 1
  },
  "tag": {
    "i18n": {
      "eng": "Rion Takamiya"
    },
    "modified_at": "2021-09-03T21:21:09.429Z",
    "name": "Rion Takamiya",
    "repository": "kara.moe",
    "tid": "fadd8e96-a7c0-48eb-a097-d59393e8833a",
    "types": [
      "singers",
      "2"
    ]
  }
}