{
  "header": {
    "description": "Karaoke Mugen Tag File",
    "version": 1
  },
  "tag": {
    "i18n": {
      "eng": "RIP SLYME"
    },
    "name": "RIP SLYME",
    "tid": "b7cca285-06e8-43a0-ad5b-247dd11af99f",
    "types": [
      "singers",
      "2",
      "songwriters",
      "8"
    ],
    "repository": "kara.moe",
    "modified_at": "2020-03-31T19:04:37.132Z"
  }
}