{
  "header": {
    "description": "Karaoke Mugen Tag File",
    "version": 1
  },
  "tag": {
    "i18n": {
      "eng": "RIRI Yamashita"
    },
    "name": "RIRI Yamashita",
    "repository": "kara.moe",
    "tid": "eb8ce66b-b9c1-4236-a49c-5c85245972db",
    "types": [
      "creators",
      "4"
    ]
  }
}