{
  "header": {
    "description": "Karaoke Mugen Tag File",
    "version": 1
  },
  "tag": {
    "aliases": [
      "Ririsasaki"
    ],
    "i18n": {
      "eng": "Ririsya"
    },
    "name": "Ririsya",
    "repository": "kara.moe",
    "tid": "78faa367-c64b-4224-8e54-d92ed08e457f",
    "types": [
      "songwriters",
      "8"
    ]
  }
}