{
  "header": {
    "description": "Karaoke Mugen Tag File",
    "version": 1
  },
  "tag": {
    "i18n": {
      "eng": "Risako"
    },
    "name": "Risako",
    "repository": "kara.moe",
    "tid": "91ea6d71-e438-49de-b4b5-a78260069e1a",
    "types": [
      "authors",
      "6"
    ]
  }
}