{
  "header": {
    "description": "Karaoke Mugen Tag File",
    "version": 1
  },
  "tag": {
    "i18n": {
      "eng": "Risa Shimizu"
    },
    "name": "Risa Shimizu",
    "tid": "d282224f-41cb-4920-931f-72073f049d3b",
    "types": [
      "singers",
      "2"
    ],
    "repository": "kara.moe",
    "modified_at": "2020-03-31T19:04:37.138Z"
  }
}