{
  "header": {
    "description": "Karaoke Mugen Tag File",
    "version": 1
  },
  "tag": {
    "i18n": {
      "qro": "Risa Yuzuki",
      "jpn": "柚木 梨沙"
    },
    "name": "Risa Yuzuki",
    "repository": "kara.moe",
    "tid": "def99de7-da75-4cf7-833a-9ca630e049ed",
    "types": [
      "singers",
      "2"
    ]
  }
}