{
  "header": {
    "description": "Karaoke Mugen Tag File",
    "version": 1
  },
  "tag": {
    "aliases": [
      "Paradise Restaurant",
      "Rispara",
      "天堂餐馆"
    ],
    "external_database_ids": {
      "anilist": 5984,
      "myanimelist": 5984,
      "kitsu": 4371
    },
    "i18n": {
      "eng": "Ristorante Paradiso",
      "jpn": "リストランテ・パラディーゾ",
      "qro": "Ristorante Paradiso"
    },
    "modified_at": "2020-03-31T19:04:32.559Z",
    "name": "Ristorante Paradiso",
    "repository": "kara.moe",
    "tid": "71f376a1-f2e1-454c-bace-6af6a440793a",
    "types": [
      "series",
      "1"
    ]
  }
}