{
  "header": {
    "description": "Karaoke Mugen Tag File",
    "version": 1
  },
  "tag": {
    "i18n": {
      "eng": "Risu Ayunda"
    },
    "name": "Risu Ayunda",
    "repository": "kara.moe",
    "tid": "447f0420-6b9b-4bf3-958e-62a70e4ac30c",
    "types": [
      "singers",
      "2",
      "songwriters",
      "8"
    ]
  }
}