{
  "header": {
    "description": "Karaoke Mugen Tag File",
    "version": 1
  },
  "tag": {
    "aliases": [
      "STAR☆ANIS",
      "STAR ANIS"
    ],
    "i18n": {
      "eng": "Risuko Sasakama"
    },
    "modified_at": "2020-11-22T18:25:33.009Z",
    "name": "Risuko Sasakama",
    "repository": "kara.moe",
    "tid": "14d9e870-b098-4707-8ff4-0d3ba9edc97b",
    "types": [
      "singers",
      "2",
      "songwriters",
      "8"
    ]
  }
}