{
  "header": {
    "description": "Karaoke Mugen Tag File",
    "version": 1
  },
  "tag": {
    "i18n": {
      "eng": "Rita"
    },
    "name": "Rita",
    "tid": "5f15d417-cdd0-4dc2-ace1-446d7971cf07",
    "types": [
      "singers",
      "2",
      "songwriters",
      "8"
    ],
    "repository": "kara.moe",
    "modified_at": "2020-03-31T19:04:37.144Z"
  }
}