{
  "header": {
    "description": "Karaoke Mugen Tag File",
    "version": 1
  },
  "tag": {
    "i18n": {
      "eng": "Rittsu"
    },
    "name": "Rittsu",
    "repository": "kara.moe",
    "tid": "2881394e-d0e0-4f55-854b-61d52b705f10",
    "types": [
      "singers",
      "2"
    ]
  }
}