{
  "header": {
    "description": "Karaoke Mugen Tag File",
    "version": 1
  },
  "tag": {
    "i18n": {
      "eng": "riya"
    },
    "name": "riya",
    "tid": "b42731d8-fee7-401f-a78e-136a8a6dcd3d",
    "types": [
      "songwriters",
      "8",
      "singers",
      "2"
    ],
    "repository": "kara.moe",
    "modified_at": "2020-03-31T19:04:37.150Z"
  }
}