{
  "header": {
    "description": "Karaoke Mugen Tag File",
    "version": 1
  },
  "tag": {
    "i18n": {
      "eng": "RIZE"
    },
    "name": "RIZE",
    "tid": "0a043b6c-e40c-4047-abe7-191a17579cd6",
    "types": [
      "singers",
      "2",
      "songwriters",
      "8"
    ],
    "repository": "kara.moe",
    "modified_at": "2020-03-31T19:04:37.152Z"
  }
}