{
  "header": {
    "description": "Karaoke Mugen Tag File",
    "version": 1
  },
  "tag": {
    "i18n": {
      "eng": "ЯK Standard"
    },
    "name": "ЯK Standard",
    "tid": "ca9bde5e-79a4-4181-9419-df26571055a4",
    "types": [
      "singers",
      "2"
    ],
    "repository": "kara.moe",
    "modified_at": "2020-03-31T19:04:37.153Z"
  }
}