{
  "header": {
    "description": "Karaoke Mugen Tag File",
    "version": 1
  },
  "tag": {
    "i18n": {
      "eng": "Rob Graves"
    },
    "name": "Rob Graves",
    "repository": "kara.moe",
    "tid": "efbf66a6-df96-4735-8332-755ec0a09ba0",
    "types": [
      "songwriters",
      "8"
    ]
  }
}