{
  "header": {
    "description": "Karaoke Mugen Tag File",
    "version": 1
  },
  "tag": {
    "i18n": {
      "eng": "Rob Grimaldi"
    },
    "name": "Rob Grimaldi",
    "repository": "kara.moe",
    "tid": "eb0bc51b-e952-40c4-a4bf-063cf12852ab",
    "types": [
      "songwriters",
      "8"
    ]
  }
}