{
  "header": {
    "description": "Karaoke Mugen Tag File",
    "version": 1
  },
  "tag": {
    "i18n": {
      "eng": "Roberto Baldi"
    },
    "name": "Roberto Baldi",
    "repository": "kara.moe",
    "tid": "d787dd57-8fad-4caf-9a00-70f2319d5e33",
    "types": [
      "songwriters",
      "8"
    ]
  }
}