{
  "header": {
    "description": "Karaoke Mugen Tag File",
    "version": 1
  },
  "tag": {
    "i18n": {
      "eng": "Robert Kral"
    },
    "name": "Robert Kral",
    "tid": "46a3d458-8df4-408a-86a7-bec29fdd8b5e",
    "types": [
      "songwriters",
      "8"
    ],
    "repository": "kara.moe",
    "modified_at": "2020-03-31T19:04:37.159Z"
  }
}