{
  "header": {
    "description": "Karaoke Mugen Tag File",
    "version": 1
  },
  "tag": {
    "i18n": {
      "eng": "Robert Lopez"
    },
    "name": "Robert Lopez",
    "tid": "506f076a-3358-4987-b14a-2f8a74c08a43",
    "types": [
      "songwriters",
      "8"
    ],
    "repository": "kara.moe",
    "modified_at": "2020-03-31T19:04:37.160Z"
  }
}