{
  "header": {
    "description": "Karaoke Mugen Tag File",
    "version": 1
  },
  "tag": {
    "i18n": {
      "eng": "Robert J. Walsh"
    },
    "name": "Robert J. Walsh",
    "tid": "ef2dce15-4dea-4a76-8d7f-856f504ec81b",
    "types": [
      "songwriters",
      "8"
    ],
    "repository": "kara.moe",
    "modified_at": "2020-03-31T19:04:37.159Z"
  }
}