{
  "header": {
    "description": "Karaoke Mugen Tag File",
    "version": 1
  },
  "tag": {
    "i18n": {
      "eng": "Robert Hodgens"
    },
    "name": "Robert Hodgens",
    "repository": "kara.moe",
    "tid": "94f754ab-ab2c-4bba-afb4-9caebee2d39a",
    "types": [
      "songwriters",
      "8"
    ]
  }
}