{
  "header": {
    "description": "Karaoke Mugen Tag File",
    "version": 1
  },
  "tag": {
    "i18n": {
      "eng": "Robert Orton"
    },
    "name": "Robert Orton",
    "repository": "kara.moe",
    "tid": "d72404bd-24de-4cf7-b689-f8c9368d1d20",
    "types": [
      "songwriters",
      "8"
    ]
  }
}