{
  "header": {
    "description": "Karaoke Mugen Tag File",
    "version": 1
  },
  "tag": {
    "i18n": {
      "eng": "Robinxon"
    },
    "modified_at": "2020-08-20T16:15:11.426Z",
    "name": "Robinxon",
    "repository": "kara.moe",
    "tid": "280286f8-4228-4689-b3d8-a8ee3e5d2355",
    "types": [
      "authors",
      "6"
    ]
  }
}