{
  "header": {
    "description": "Karaoke Mugen Tag File",
    "version": 1
  },
  "tag": {
    "aliases": [
      "ロボット工学;ノートダッシュ",
      "Daru the Super Hacker",
      "ロボティクス・ノーツ DaSH",
      "R;N DaSH",
      "robono Dash",
      "ロボﾉ DaSH"
    ],
    "i18n": {
      "eng": "Robotics;Notes DaSH"
    },
    "modified_at": "2020-10-25T23:13:12.683Z",
    "name": "Robotics;Notes DaSH",
    "repository": "kara.moe",
    "tid": "fac0227c-dc25-45fa-8790-2a4218449c0d",
    "types": [
      "series",
      "1"
    ]
  }
}