{
  "header": {
    "description": "Karaoke Mugen Tag File",
    "version": 1
  },
  "tag": {
    "i18n": {
      "eng": "Robot"
    },
    "name": "Robot",
    "tid": "05188d3c-9efd-4b40-ba87-170dd9db1a39",
    "types": [
      "creators",
      "4"
    ],
    "repository": "kara.moe",
    "modified_at": "2020-03-31T19:04:37.164Z"
  }
}