{
  "header": {
    "description": "Karaoke Mugen Tag File",
    "version": 1
  },
  "tag": {
    "i18n": {
      "eng": "Rock the Factory"
    },
    "modified_at": "2021-01-16T17:01:43.344Z",
    "name": "Rock the Factory",
    "repository": "kara.moe",
    "tid": "bcfaf4b5-86db-4b9a-aee2-b6acd97832c9",
    "types": [
      "songwriters",
      "8"
    ]
  }
}