{
  "header": {
    "description": "Karaoke Mugen Tag File",
    "version": 1
  },
  "tag": {
    "aliases": [
      "megaman"
    ],
    "i18n": {
      "eng": "Mega Man X: Command Mission",
      "jpn": "ロックマンXコマンドミッション",
      "qro": "Rockman X Command Mission"
    },
    "name": "Rockman X: Command Mission",
    "repository": "kara.moe",
    "tid": "ec685c14-09d7-4c4e-9cb8-78d5ac178209",
    "types": [
      "series",
      "1"
    ]
  }
}