{
  "header": {
    "description": "Karaoke Mugen Tag File",
    "version": 1
  },
  "tag": {
    "aliases": [
      "MegaMan X3"
    ],
    "i18n": {
      "eng": "Mega Man X3",
      "jpn": "ロックマンX3",
      "qro": "Rockman X3"
    },
    "modified_at": "2021-05-21T16:51:29.513Z",
    "name": "Rockman X3",
    "repository": "kara.moe",
    "tid": "d81ac670-a116-4bbf-919c-b6110b7386e6",
    "types": [
      "series",
      "1"
    ]
  }
}