{
  "header": {
    "description": "Karaoke Mugen Tag File",
    "version": 1
  },
  "tag": {
    "i18n": {
      "fre": "Rody Julienne",
      "eng": "Roddy Julienne"
    },
    "name": "Roddy Julienne",
    "repository": "kara.moe",
    "tid": "a85837d8-af83-4265-9e92-3cfb17a93a9a",
    "types": [
      "songwriters",
      "8",
      "singers",
      "2"
    ]
  }
}