{
  "header": {
    "description": "Karaoke Mugen Tag File",
    "version": 1
  },
  "tag": {
    "i18n": {
      "eng": "Rodstar"
    },
    "modified_at": "2021-10-12T14:18:51.806Z",
    "name": "Rodstar",
    "repository": "kara.moe",
    "tid": "f1de533b-7fc7-4abc-a18a-6574d950941f",
    "types": [
      "authors",
      "6"
    ]
  }
}