{
  "header": {
    "description": "Karaoke Mugen Tag File",
    "version": 1
  },
  "tag": {
    "i18n": {
      "eng": "Roger Taylor"
    },
    "name": "Roger Taylor",
    "repository": "kara.moe",
    "tid": "b2d834a3-c11b-47cc-a5dd-92e7b5742386",
    "types": [
      "songwriters",
      "8"
    ]
  }
}