{
  "header": {
    "description": "Karaoke Mugen Tag File",
    "version": 1
  },
  "tag": {
    "i18n": {
      "eng": "Roger Waters"
    },
    "modified_at": "2021-05-21T16:15:04.770Z",
    "name": "Roger Waters",
    "repository": "kara.moe",
    "tid": "b9b717f3-46d5-4f56-bd35-f21555ea1eea",
    "types": [
      "songwriters",
      "8"
    ]
  }
}