{
  "header": {
    "description": "Karaoke Mugen Tag File",
    "version": 1
  },
  "tag": {
    "i18n": {
      "eng": "Roger Dumas"
    },
    "name": "Roger Dumas",
    "tid": "b98a58d7-8452-45dc-9d1f-2b26f6a0df67",
    "types": [
      "songwriters",
      "8"
    ],
    "repository": "kara.moe",
    "modified_at": "2020-03-31T19:04:37.169Z"
  }
}