{
  "header": {
    "description": "Karaoke Mugen Tag File",
    "version": 1
  },
  "tag": {
    "aliases": [
      "Героите на Шестлистника",
      "Шестимата герои",
      "yuusha"
    ],
    "external_database_ids": {
      "anilist": 20955,
      "myanimelist": 28497,
      "kitsu": 10029
    },
    "i18n": {
      "eng": "Rokka: Braves of the Six Flowers",
      "fre": "Rokka no Yûsha",
      "jpn": "六花の勇者",
      "kor": "육화의 용사",
      "qro": "Rokka no Yûsha"
    },
    "modified_at": "2020-03-31T19:04:32.566Z",
    "name": "Rokka no Yûsha",
    "repository": "kara.moe",
    "tid": "255550a6-1b74-486f-86b0-4f144dcbf112",
    "types": [
      "series",
      "1"
    ]
  }
}