{
  "header": {
    "description": "Karaoke Mugen Tag File",
    "version": 1
  },
  "tag": {
    "i18n": {
      "eng": "Roland Vincent"
    },
    "name": "Roland Vincent",
    "repository": "kara.moe",
    "tid": "be2e8a8b-2a28-4a99-ba8b-ff880a0c230a",
    "types": [
      "songwriters",
      "8"
    ]
  }
}