{
  "header": {
    "description": "Karaoke Mugen Tag File",
    "version": 1
  },
  "tag": {
    "i18n": {
      "eng": "Roméo et Juliette, de la haine à l'amour"
    },
    "name": "Roméo et Juliette, de la haine à l'amour",
    "repository": "kara.moe",
    "tid": "bdee699a-ec8e-411e-9a9f-ed8bab2e2905",
    "types": [
      "series",
      "1"
    ]
  }
}