{
  "header": {
    "description": "Karaoke Mugen Tag File",
    "version": 1
  },
  "tag": {
    "i18n": {
      "eng": "Ron Perry"
    },
    "name": "Ron Perry",
    "repository": "kara.moe",
    "tid": "301676f2-1641-440a-a80a-3955a9a0ac6c",
    "types": [
      "songwriters",
      "8"
    ]
  }
}