{
  "header": {
    "description": "Karaoke Mugen Tag File",
    "version": 1
  },
  "tag": {
    "i18n": {
      "eng": "Ronald Larkins"
    },
    "name": "Ronald Larkins",
    "repository": "kara.moe",
    "tid": "a174fe26-6668-4893-83a2-16216f60556d",
    "types": [
      "songwriters",
      "8"
    ]
  }
}