{
  "header": {
    "description": "Karaoke Mugen Tag File",
    "version": 1
  },
  "tag": {
    "i18n": {
      "jpn": "燐舞曲",
      "qro": "RONDO"
    },
    "name": "RONDO",
    "repository": "kara.moe",
    "tid": "8ee92c32-35d2-4688-b196-f0c19cabbeaf",
    "types": [
      "singergroups",
      "17"
    ]
  }
}