{
  "header": {
    "description": "Karaoke Mugen Tag File",
    "version": 1
  },
  "tag": {
    "i18n": {
      "eng": "ROOKiEZ is PUNK'D"
    },
    "name": "ROOKiEZ is PUNK'D",
    "tid": "30122147-4a27-469f-a59d-86a9997f1359",
    "types": [
      "singers",
      "2",
      "songwriters",
      "8"
    ],
    "repository": "kara.moe",
    "modified_at": "2020-03-31T19:04:37.175Z"
  }
}