{
  "header": {
    "description": "Karaoke Mugen Tag File",
    "version": 1
  },
  "tag": {
    "i18n": {
      "eng": "Rooney"
    },
    "name": "Rooney",
    "tid": "698f9afa-2803-49d4-aa82-1e3a9508078b",
    "types": [
      "songwriters",
      "8",
      "singers",
      "2"
    ],
    "repository": "kara.moe",
    "modified_at": "2020-03-31T19:04:37.176Z"
  }
}