{
  "header": {
    "description": "Karaoke Mugen Tag File",
    "version": 1
  },
  "tag": {
    "i18n": {
      "eng": "Rooster Teeth"
    },
    "name": "Rooster Teeth",
    "tid": "86f7951e-5483-4382-84ff-e7cdce425bdd",
    "types": [
      "creators",
      "4"
    ],
    "repository": "kara.moe",
    "modified_at": "2020-03-31T19:04:37.176Z"
  }
}