{
  "header": {
    "description": "Karaoke Mugen Tag File",
    "version": 1
  },
  "tag": {
    "i18n": {
      "eng": "Roppongi Gasshôdan"
    },
    "name": "Roppongi Gasshôdan",
    "tid": "780b5f90-6d09-489e-b843-ecbe13fa0746",
    "types": [
      "singers",
      "2"
    ],
    "repository": "kara.moe",
    "modified_at": "2020-03-31T19:04:37.178Z"
  }
}