{
  "header": {
    "description": "Karaoke Mugen Tag File",
    "version": 1
  },
  "tag": {
    "i18n": {
      "eng": "Rosa"
    },
    "name": "Rosa",
    "repository": "kara.moe",
    "tid": "3d367075-f4af-46a9-b8d1-8d6ad5a2726a",
    "types": [
      "songwriters",
      "8"
    ]
  }
}