{
  "header": {
    "description": "Karaoke Mugen Tag File",
    "version": 1
  },
  "tag": {
    "i18n": {
      "eng": "Ross Tran"
    },
    "modified_at": "2020-08-11T18:38:13.186Z",
    "name": "Ross Tran",
    "repository": "kara.moe",
    "tid": "68e56751-bc61-44b9-8e7d-55b00944cd10",
    "types": [
      "songwriters",
      "8",
      "creators",
      "4"
    ]
  }
}