{
  "header": {
    "description": "Karaoke Mugen Tag File",
    "version": 1
  },
  "tag": {
    "i18n": {
      "eng": "Ross Bagdasarian"
    },
    "name": "Ross Bagdasarian",
    "repository": "kara.moe",
    "tid": "422f4eb2-e99e-42a7-8e66-65b25f7bb29a",
    "types": [
      "songwriters",
      "8"
    ],
    "modified_at": "2020-03-31T19:04:37.180Z"
  }
}