{
  "header": {
    "description": "Karaoke Mugen Tag File",
    "version": 1
  },
  "tag": {
    "aliases": [
      "Rougo",
      "為了養老金去異界存八萬金",
      "roukin",
      "ろうきん8"
    ],
    "external_database_ids": {
      "anilist": 152765,
      "kitsu": 46304,
      "myanimelist": 52461
    },
    "i18n": {
      "eng": "Saving 80,000 Gold in Another World for My Retirement",
      "qro": "Rôgo ni Sonaete Isekai de 8-manmai no Kinka o Tamemasu",
      "jpn": "老後に備えて異世界で8万枚の金貨を貯めます",
      "rus": "Я коплю 80.000 золотых в другом мире на пенсию",
      "chi": "为了养老金去异世界存八万金"
    },
    "name": "Rôgo ni Sonaete Isekai de 8-manmai no Kinka o Tamemasu",
    "repository": "kara.moe",
    "tid": "ad2ed46f-d252-47a2-b37e-09e4cad7623f",
    "types": [
      "series",
      "1"
    ]
  }
}