{
  "header": {
    "description": "Karaoke Mugen Tag File",
    "version": 1
  },
  "tag": {
    "i18n": {
      "eng": "RoughSketch"
    },
    "name": "RoughSketch",
    "tid": "5001993d-3d80-4bd2-aa71-a5f27176244a",
    "types": [
      "songwriters",
      "8"
    ],
    "repository": "kara.moe",
    "modified_at": "2020-03-31T19:04:37.182Z"
  }
}