{
  "header": {
    "description": "Karaoke Mugen Tag File",
    "version": 1
  },
  "tag": {
    "i18n": {
      "eng": "Rouget de Lisle"
    },
    "modified_at": "2020-11-03T16:32:51.459Z",
    "name": "Rouget de Lisle",
    "repository": "kara.moe",
    "tid": "7d8856c5-fdfc-415c-8ef6-22422f6517b5",
    "types": [
      "songwriters",
      "8"
    ]
  }
}