{
  "header": {
    "description": "Karaoke Mugen Tag File",
    "version": 1
  },
  "tag": {
    "i18n": {
      "eng": "Rough Draft Studios"
    },
    "modified_at": "2021-02-14T14:50:23.268Z",
    "name": "Rough Draft Studios",
    "repository": "kara.moe",
    "tid": "f53d92a8-50ea-4262-aa3d-4e458585c131",
    "types": [
      "creators",
      "4"
    ]
  }
}