{
  "header": {
    "description": "Karaoke Mugen Tag File",
    "version": 1
  },
  "tag": {
    "i18n": {
      "eng": "Royal Knights"
    },
    "name": "Royal Knights",
    "tid": "ed293f08-ecb1-4e60-823f-6e4c8e607314",
    "types": [
      "singers",
      "2"
    ],
    "repository": "kara.moe",
    "modified_at": "2020-03-31T19:04:37.183Z"
  }
}