{
  "header": {
    "description": "Karaoke Mugen Tag File",
    "version": 1
  },
  "tag": {
    "i18n": {
      "eng": "RSO Records"
    },
    "modified_at": "2020-06-01T21:49:48.820Z",
    "name": "RSO Records",
    "repository": "kara.moe",
    "tid": "f8771e18-3a29-4d7b-ad18-39ff19fbc3f8",
    "types": [
      "creators",
      "4"
    ]
  }
}