{
  "header": {
    "description": "Karaoke Mugen Tag File",
    "version": 1
  },
  "tag": {
    "i18n": {
      "eng": "RTL Zwei"
    },
    "name": "RTL Zwei",
    "repository": "kara.moe",
    "tid": "249dc4c1-94d8-4a6d-9bfd-99a10ac1c4de",
    "types": [
      "creators",
      "4"
    ]
  }
}