{
  "header": {
    "description": "Karaoke Mugen Tag File",
    "version": 1
  },
  "tag": {
    "i18n": {
      "eng": "RUANN"
    },
    "name": "RUANN",
    "tid": "7b601672-741d-4b8a-8848-f9c9caf872ce",
    "types": [
      "singers",
      "2",
      "songwriters",
      "8"
    ],
    "repository": "kara.moe",
    "modified_at": "2020-03-31T19:04:37.186Z"
  }
}