{
  "header": {
    "description": "Karaoke Mugen Tag File",
    "version": 1
  },
  "tag": {
    "i18n": {
      "eng": "Rubii"
    },
    "name": "Rubii",
    "tid": "53530684-2c49-4f70-83e4-84befa76b48e",
    "types": [
      "songwriters",
      "8"
    ],
    "repository": "kara.moe",
    "modified_at": "2020-03-31T19:04:37.186Z"
  }
}