{
  "header": {
    "description": "Karaoke Mugen Tag File",
    "version": 1
  },
  "tag": {
    "i18n": {
      "eng": "Rui"
    },
    "name": "Rui",
    "tid": "ed8dde08-f578-4c3a-90dc-53d566f580fb",
    "types": [
      "songwriters",
      "8"
    ],
    "repository": "kara.moe",
    "modified_at": "2020-03-31T19:04:37.190Z"
  }
}