{
  "header": {
    "description": "Karaoke Mugen Tag File",
    "version": 1
  },
  "tag": {
    "i18n": {
      "eng": "Ruka Mishina"
    },
    "name": "Ruka Mishina",
    "repository": "kara.moe",
    "tid": "17a53e7c-606e-413e-a7a6-f215eec6afd4",
    "types": [
      "singers",
      "2"
    ]
  }
}