{
  "header": {
    "description": "Karaoke Mugen Tag File",
    "version": 1
  },
  "tag": {
    "i18n": {
      "eng": "Ruka Matsuda"
    },
    "name": "Ruka Matsuda",
    "tid": "0508b604-b904-4a57-b224-13a58bf499fe",
    "types": [
      "singers",
      "2"
    ],
    "repository": "kara.moe",
    "modified_at": "2020-03-31T19:04:37.192Z"
  }
}