{
  "header": {
    "description": "Karaoke Mugen Tag File",
    "version": 1
  },
  "tag": {
    "i18n": {
      "eng": "Rukawa"
    },
    "name": "Rukawa",
    "tid": "e6db00b5-a463-4ddd-b737-2566ab281bf8",
    "types": [
      "authors",
      "6"
    ],
    "repository": "kara.moe",
    "modified_at": "2020-03-31T19:04:37.194Z"
  }
}