{
  "header": {
    "description": "Karaoke Mugen Tag File",
    "version": 1
  },
  "tag": {
    "i18n": {
      "eng": "RukiRuki"
    },
    "modified_at": "2021-03-06T15:43:21.174Z",
    "name": "RukiRuki",
    "repository": "kara.moe",
    "tid": "27b30573-f5ba-4190-ab00-d988ae1d77e2",
    "types": [
      "singers",
      "2"
    ]
  }
}