{
  "header": {
    "description": "Karaoke Mugen Tag File",
    "version": 1
  },
  "tag": {
    "i18n": {
      "eng": "rumania montevideo"
    },
    "name": "rumania montevideo",
    "tid": "57e957f7-5fc7-45be-ab7f-2d6e19947ff1",
    "types": [
      "singers",
      "2"
    ],
    "repository": "kara.moe",
    "modified_at": "2020-03-31T19:04:37.195Z"
  }
}