{
  "header": {
    "description": "Karaoke Mugen Tag File",
    "version": 1
  },
  "tag": {
    "i18n": {
      "eng": "Rumbar Pirates"
    },
    "name": "Rumbar Pirates",
    "tid": "08c05a85-bf78-42d5-a25b-11864fb5846f",
    "types": [
      "singers",
      "2"
    ],
    "repository": "kara.moe",
    "modified_at": "2020-03-31T19:04:37.196Z"
  }
}