{
  "header": {
    "description": "Karaoke Mugen Tag File",
    "version": 1
  },
  "tag": {
    "i18n": {
      "eng": "Rumi Ooishi"
    },
    "modified_at": "2021-02-28T19:42:09.467Z",
    "name": "Rumi Ooishi",
    "repository": "kara.moe",
    "tid": "418b4c5d-d536-4fb7-9f51-f53bd73d2b94",
    "types": [
      "singers",
      "2"
    ]
  }
}