{
  "header": {
    "description": "Karaoke Mugen Tag File",
    "version": 1
  },
  "tag": {
    "i18n": {
      "eng": "Rumi Shishido"
    },
    "name": "Rumi Shishido",
    "tid": "0b79f981-6449-42f6-b73b-269652c5c866",
    "types": [
      "singers",
      "2"
    ],
    "repository": "kara.moe",
    "modified_at": "2020-03-31T19:04:37.197Z"
  }
}