{
  "header": {
    "description": "Karaoke Mugen Tag File",
    "version": 1
  },
  "tag": {
    "i18n": {
      "eng": "Runa Sakaki"
    },
    "name": "Runa Sakaki",
    "tid": "8fea560a-d973-458b-af2f-738a3ba1d20f",
    "types": [
      "singers",
      "2"
    ],
    "repository": "kara.moe",
    "modified_at": "2020-03-31T19:04:37.200Z"
  }
}