{
  "header": {
    "description": "Karaoke Mugen Tag File",
    "version": 1
  },
  "tag": {
    "aliases": [
      "請在伸展台上微笑",
      "らんうぇいでわらって",
      "Smile at the Runway"
    ],
    "external_database_ids": {
      "anilist": 111501,
      "myanimelist": 40392,
      "kitsu": 42552
    },
    "i18n": {
      "eng": "Smile Down the Runway",
      "jpn": "ランウェイで笑って",
      "ara": "ابتسمي في ممرّ العارضين",
      "chi": "请在T台上微笑",
      "qro": "Runway de Waratte"
    },
    "modified_at": "2021-04-04T19:59:13.768Z",
    "name": "Runway de Waratte",
    "repository": "kara.moe",
    "tid": "8487a439-8245-4608-bfbc-eb1541ccaf8c",
    "types": [
      "series",
      "1"
    ]
  }
}