{
  "header": {
    "description": "Karaoke Mugen Tag File",
    "version": 1
  },
  "tag": {
    "i18n": {
      "eng": "Ruriko Aoki"
    },
    "name": "Ruriko Aoki",
    "tid": "add519dc-0acf-4ba2-af62-0b6fe9943828",
    "types": [
      "singers",
      "2",
      "songwriters",
      "8"
    ],
    "repository": "kara.moe",
    "modified_at": "2020-03-31T19:04:37.202Z"
  }
}