{
  "header": {
    "description": "Karaoke Mugen Tag File",
    "version": 1
  },
  "tag": {
    "i18n": {
      "eng": "Ruri Aoyama"
    },
    "name": "Ruri Aoyama",
    "repository": "kara.moe",
    "tid": "f6194dcb-5873-4fce-85c8-ed2f12085757",
    "types": [
      "singers",
      "2"
    ]
  }
}