{
  "header": {
    "description": "Karaoke Mugen Tag File",
    "version": 1
  },
  "tag": {
    "i18n": {
      "eng": "Ruri Arai"
    },
    "modified_at": "2021-10-22T13:26:16.588Z",
    "name": "Ruri Arai",
    "repository": "kara.moe",
    "tid": "e4580135-e15c-4e2f-9306-2bb6a1b26ba3",
    "types": [
      "singers",
      "2"
    ]
  }
}