{
  "header": {
    "description": "Karaoke Mugen Tag File",
    "version": 1
  },
  "tag": {
    "i18n": {
      "afr": "Russiese",
      "amh": "ራሽኛ",
      "ara": "الروسية",
      "aze": "Rus",
      "bak": "Урыҫ ир-аты",
      "bel": "Беларуская",
      "bul": "Руски",
      "ben": "রাশিয়ান",
      "bos": "Ruski",
      "cat": "Rus",
      "cze": "Ruština",
      "wel": "Rwsia",
      "dan": "Russisk",
      "ger": "Russisch",
      "gre": "Ρωσικά",
      "eng": "Russian",
      "epo": "Rusa",
      "spa": "Ruso",
      "est": "Vene",
      "baq": "Russian",
      "per": "روسی",
      "fin": "Venäjän",
      "fre": "Russe",
      "gle": "Rúisis",
      "gla": "Ruisis",
      "glg": "Ruso",
      "guj": "રશિયન",
      "heb": "רוסית",
      "hin": "रूसी",
      "hrv": "Ruski",
      "hat": "Ris",
      "hun": "Orosz",
      "arm": "Հայերեն",
      "ind": "Rusia",
      "ice": "Rússneska",
      "ita": "Russo",
      "jpn": "ロシア",
      "jav": "Rusia",
      "geo": "რუსული",
      "kaz": "Орыс",
      "kan": "ರಶಿಯನ್",
      "kor": "러시아",
      "kir": "Русский",
      "lat": "Russian",
      "lit": "Rusų",
      "lav": "Krievu",
      "mlg": "Rosiana",
      "mao": "Russian",
      "mac": "Руски",
      "mal": "റഷ്യൻ",
      "mon": "Оху-ын",
      "mar": "रशियन",
      "may": "Rusia",
      "mlt": "Russa",
      "nep": "रूसी",
      "dut": "Russisch",
      "nor": "Russisk",
      "pan": "ਰੂਸੀ",
      "pol": "Polski",
      "por": "Russo",
      "rum": "Rusă",
      "rus": "Русский",
      "sin": "රුසියානු",
      "slo": "Ruský",
      "slv": "Ruski",
      "alb": "Ruse",
      "srp": "Руски",
      "sun": "Rusia",
      "swe": "Ryska",
      "swa": "Kirusi",
      "tam": "ரஷியன்",
      "tel": "రష్యన్",
      "tgk": "Милоди",
      "tha": "ภาษารัสเซีย",
      "tgl": "Mga rasyano",
      "tur": "Rus",
      "tat": "Рус",
      "ukr": "Російська",
      "urd": "روسی",
      "uzb": "Rus",
      "vie": "Nga",
      "xho": "Russian",
      "yid": "רוסיש",
      "chi": "俄罗斯"
    },
    "name": "rus",
    "tid": "f7ac64d8-9317-45b9-a4b4-cf32e4eb527a",
    "types": [
      "langs",
      "5"
    ],
    "repository": "kara.moe",
    "modified_at": "2020-03-31T19:04:37.204Z"
  }
}