{
  "header": {
    "description": "Karaoke Mugen Tag File",
    "version": 1
  },
  "tag": {
    "i18n": {
      "eng": "Rushia Uruha",
      "jpn": "潤羽るしあ",
      "qro": "Rushia Uruha"
    },
    "modified_at": "2021-09-02T20:35:01.764Z",
    "name": "Rushia Uruha",
    "repository": "kara.moe",
    "tid": "1b0ecff9-05f5-46dd-b225-480bcf60b7bf",
    "types": [
      "singers",
      "2"
    ]
  }
}