{
  "header": {
    "description": "Karaoke Mugen Tag File",
    "version": 1
  },
  "tag": {
    "i18n": {
      "eng": "Russell Brower"
    },
    "modified_at": "2020-07-12T19:16:07.014Z",
    "name": "Russell Brower",
    "repository": "kara.moe",
    "tid": "fb852c4d-706e-4c8f-9d95-82f29fd69a6e",
    "types": [
      "songwriters",
      "8"
    ]
  }
}