{
  "header": {
    "description": "Karaoke Mugen Tag File",
    "version": 1
  },
  "tag": {
    "i18n": {
      "eng": "Rûto"
    },
    "modified_at": "2021-06-14T20:45:48.661Z",
    "name": "Rûto",
    "repository": "kara.moe",
    "tid": "d84ca269-2646-4672-ac02-3a2a30ecdf75",
    "types": [
      "singers",
      "2"
    ]
  }
}