{
  "header": {
    "description": "Karaoke Mugen Tag File",
    "version": 1
  },
  "tag": {
    "i18n": {
      "eng": "Ryan Haines"
    },
    "name": "Ryan Haines",
    "tid": "cc9314c3-c2db-43b0-a475-0aa90012bcc3",
    "types": [
      "creators",
      "4",
      "songwriters",
      "8"
    ],
    "repository": "kara.moe",
    "modified_at": "2020-03-31T19:04:37.205Z"
  }
}