{
  "header": {
    "description": "Karaoke Mugen Tag File",
    "version": 1
  },
  "tag": {
    "i18n": {
      "eng": "Ryan Borbone"
    },
    "name": "Ryan Borbone",
    "repository": "kara.moe",
    "tid": "f22c9936-9f0f-42b4-bd64-407f52446111",
    "types": [
      "songwriters",
      "8"
    ]
  }
}