{
  "header": {
    "description": "Karaoke Mugen Tag File",
    "version": 1
  },
  "tag": {
    "i18n": {
      "eng": "Ryan McCartan"
    },
    "name": "Ryan McCartan",
    "repository": "kara.moe",
    "tid": "302950e6-399d-41cf-b9b2-ec6e87e507d1",
    "types": [
      "singers",
      "2"
    ]
  }
}