{
  "header": {
    "description": "Karaoke Mugen Tag File",
    "version": 1
  },
  "tag": {
    "i18n": {
      "eng": "Ryo (NoisyCell)"
    },
    "name": "Ryo (NoisyCell)",
    "tid": "751f9156-dca2-490b-8860-6eacef3eabb3",
    "types": [
      "songwriters",
      "8"
    ],
    "repository": "kara.moe",
    "modified_at": "2020-03-31T19:04:37.206Z"
  }
}