{
  "header": {
    "description": "Karaoke Mugen Tag File",
    "version": 1
  },
  "tag": {
    "i18n": {
      "eng": "Ryoko Aoyagi"
    },
    "modified_at": "2021-07-25T00:56:37.490Z",
    "name": "Ryoko Aoyagi",
    "repository": "kara.moe",
    "tid": "4fd71d59-a3f2-4e3e-b67c-3e5ff7fc107d",
    "types": [
      "singers",
      "2"
    ]
  }
}