{
  "header": {
    "description": "Karaoke Mugen Tag File",
    "version": 1
  },
  "tag": {
    "i18n": {
      "eng": "Ryosuke Horii"
    },
    "name": "Ryosuke Horii",
    "tid": "e7ab380c-0951-487a-9ecd-3808306477c6",
    "types": [
      "songwriters",
      "8"
    ],
    "repository": "kara.moe",
    "modified_at": "2020-03-31T19:04:37.215Z"
  }
}