{
  "header": {
    "description": "Karaoke Mugen Tag File",
    "version": 1
  },
  "tag": {
    "i18n": {
      "eng": "Ryosuke"
    },
    "name": "Ryosuke",
    "tid": "cd63870f-6002-4664-a129-da99a360fbac",
    "types": [
      "songwriters",
      "8"
    ],
    "repository": "kara.moe",
    "modified_at": "2020-03-31T19:04:37.216Z"
  }
}