{
  "header": {
    "description": "Karaoke Mugen Tag File",
    "version": 1
  },
  "tag": {
    "i18n": {
      "eng": "Ryôsuke Aoike"
    },
    "modified_at": "2020-05-26T21:14:46.612Z",
    "name": "Ryôsuke Aoike",
    "repository": "kara.moe",
    "tid": "468b5fe3-5656-4447-899c-78bdf56ecb4c",
    "types": [
      "creators",
      "4"
    ]
  }
}