{
  "header": {
    "description": "Karaoke Mugen Tag File",
    "version": 1
  },
  "tag": {
    "i18n": {
      "eng": "Ryô Kitamura"
    },
    "name": "Ryô Kitamura",
    "repository": "kara.moe",
    "tid": "c45ef92a-dc8a-4cc6-bec9-e584c76df719",
    "types": [
      "singers",
      "2"
    ]
  }
}