{
  "header": {
    "description": "Karaoke Mugen Tag File",
    "version": 1
  },
  "tag": {
    "i18n": {
      "eng": "Ryô Kawakami"
    },
    "name": "Ryô Kawakami",
    "repository": "kara.moe",
    "tid": "4743be07-9f9b-448f-887e-855899fd111d",
    "types": [
      "songwriters",
      "8"
    ],
    "modified_at": "2020-03-31T19:04:37.222Z"
  }
}