{
  "header": {
    "description": "Karaoke Mugen Tag File",
    "version": 1
  },
  "tag": {
    "i18n": {
      "eng": "Ryôki Matsumoto"
    },
    "name": "Ryôki Matsumoto",
    "tid": "f05d1ccd-e92d-40d5-851b-3dcdf0a99628",
    "types": [
      "songwriters",
      "8"
    ],
    "repository": "kara.moe",
    "modified_at": "2020-03-31T19:04:37.230Z"
  }
}