{
  "header": {
    "description": "Karaoke Mugen Tag File",
    "version": 1
  },
  "tag": {
    "aliases": [
      "Ryouta"
    ],
    "i18n": {
      "eng": "Ryôta Iwasaki"
    },
    "name": "Ryôta Iwasaki",
    "repository": "kara.moe",
    "tid": "fb311ac5-75b0-4125-88e8-4a4f9ba32556",
    "types": [
      "singers",
      "2"
    ]
  }
}