{
  "header": {
    "description": "Karaoke Mugen Tag File",
    "version": 1
  },
  "tag": {
    "i18n": {
      "eng": "Ryô Kimura"
    },
    "name": "Ryô Kimura",
    "tid": "eccba4d7-1675-4175-90ba-cea0086ebe08",
    "types": [
      "songwriters",
      "8"
    ],
    "repository": "kara.moe",
    "modified_at": "2020-03-31T19:04:37.222Z"
  }
}