{
  "header": {
    "description": "Karaoke Mugen Tag File",
    "version": 1
  },
  "tag": {
    "i18n": {
      "eng": "Ryô Mamiya"
    },
    "name": "Ryô Mamiya",
    "repository": "kara.moe",
    "tid": "b61be88f-2758-4dae-8c6b-4ce0747da6b9",
    "types": [
      "singers",
      "2"
    ]
  }
}