{
  "header": {
    "description": "Karaoke Mugen Tag File",
    "version": 1
  },
  "tag": {
    "i18n": {
      "eng": "Ryu-metal"
    },
    "name": "Ryu-metal",
    "tid": "b30db5ef-5795-49d7-a1a2-ee18443ff033",
    "types": [
      "songwriters",
      "8"
    ],
    "repository": "kara.moe",
    "modified_at": "2020-03-31T19:04:37.242Z"
  }
}