{
  "header": {
    "description": "Karaoke Mugen Tag File",
    "version": 1
  },
  "tag": {
    "i18n": {
      "eng": "Ryuichi Kureha",
      "jpn": "クレハ リュウイチ"
    },
    "name": "Ryuichi Kureha",
    "repository": "kara.moe",
    "tid": "cbff48fb-9ab1-446b-a42d-6110d79b4fed",
    "types": [
      "songwriters",
      "8"
    ]
  }
}