{
  "header": {
    "description": "Karaoke Mugen Tag File",
    "version": 1
  },
  "tag": {
    "i18n": {
      "eng": "Ryûji Satô"
    },
    "name": "Ryûji Satô",
    "repository": "kara.moe",
    "tid": "957e66a1-6cd0-4b0e-85dc-303ed252a6c3",
    "types": [
      "singers",
      "2"
    ]
  }
}