{
  "header": {
    "description": "Karaoke Mugen Tag File",
    "version": 1
  },
  "tag": {
    "aliases": [
      "Ikoman"
    ],
    "i18n": {
      "jpn": "生駒 龍之介",
      "qro": "Ryûnosuke Ikoma"
    },
    "name": "Ryûnosuke Ikoma",
    "repository": "kara.moe",
    "tid": "fe960be2-0662-45d4-91a5-feaa93583a71",
    "types": [
      "songwriters",
      "8"
    ]
  }
}