{
  "header": {
    "description": "Karaoke Mugen Tag File",
    "version": 1
  },
  "tag": {
    "i18n": {
      "eng": "Ryûtarô Fujinaga"
    },
    "name": "Ryûtarô Fujinaga",
    "tid": "178dcba7-6d20-40b9-baea-d7d3e38e2c25",
    "types": [
      "songwriters",
      "8"
    ],
    "repository": "kara.moe",
    "modified_at": "2020-03-31T19:04:37.254Z"
  }
}