{
  "header": {
    "description": "Karaoke Mugen Tag File",
    "version": 1
  },
  "tag": {
    "aliases": [
      "RGG5",
      "ryuu"
    ],
    "i18n": {
      "eng": "Yakuza 5",
      "jpn": "龍が如く5 夢、叶えし者",
      "qro": "Ryû ga Gotoku 5"
    },
    "modified_at": "2020-03-31T19:04:32.577Z",
    "name": "Ryû ga Gotoku 5",
    "repository": "kara.moe",
    "tid": "54ea5279-3843-4d0f-8b37-0a2f71ab049b",
    "types": [
      "series",
      "1"
    ]
  }
}