{
  "header": {
    "description": "Karaoke Mugen Tag File",
    "version": 1
  },
  "tag": {
    "i18n": {
      "eng": "Ryûgû Komachi"
    },
    "name": "Ryûgû Komachi",
    "tid": "6f145256-f3ce-4bfe-8c04-36d8d06a3a37",
    "types": [
      "singers",
      "2"
    ],
    "repository": "kara.moe",
    "modified_at": "2020-03-31T19:04:37.247Z"
  }
}