{
  "header": {
    "description": "Karaoke Mugen Tag File",
    "version": 1
  },
  "tag": {
    "i18n": {
      "eng": "Ryûichi Kijima"
    },
    "name": "Ryûichi Kijima",
    "tid": "496d9fd8-7ed9-4c76-9567-332012b1c0ed",
    "types": [
      "singers",
      "2"
    ],
    "repository": "kara.moe",
    "modified_at": "2020-03-31T19:04:37.248Z"
  }
}