{
  "header": {
    "description": "Karaoke Mugen Tag File",
    "version": 1
  },
  "tag": {
    "i18n": {
      "eng": "Ryûsuke Anzai"
    },
    "name": "Ryûsuke Anzai",
    "tid": "92e7eb8b-7e94-4436-9c7e-288493cd6841",
    "types": [
      "songwriters",
      "8"
    ],
    "repository": "kara.moe",
    "modified_at": "2020-03-31T19:04:37.252Z"
  }
}