{
  "header": {
    "description": "Karaoke Mugen Tag File",
    "version": 1
  },
  "tag": {
    "i18n": {
      "eng": "Ryûki Baba"
    },
    "name": "Ryûki Baba",
    "repository": "kara.moe",
    "tid": "8f0cd294-3aa0-49ec-a9e3-96a6b89dece5",
    "types": [
      "songwriters",
      "8"
    ]
  }
}