{
  "header": {
    "description": "Karaoke Mugen Tag File",
    "version": 1
  },
  "tag": {
    "aliases": [
      "Ryuu ga Gotoku 7",
      "Yakuza 7",
      "Shin Ryu ga Gotoku",
      "ryuu"
    ],
    "i18n": {
      "eng": "Yakuza: Like a Dragon",
      "jpn": "龍が如く7 光と闇の行方",
      "qro": "Ryû ga Gotoku 7: Hikari to Yami no Yukue"
    },
    "modified_at": "2020-11-12T15:23:50.342Z",
    "name": "Ryû ga Gotoku 7: Hikari to Yami no Yukue",
    "repository": "kara.moe",
    "tid": "5baa2d63-856b-4882-9810-e1dd384a89b0",
    "types": [
      "series",
      "1"
    ]
  }
}