{
  "header": {
    "description": "Karaoke Mugen Tag File",
    "version": 1
  },
  "tag": {
    "i18n": {
      "qro": "Ryûhei Yamada",
      "jpn": "山田 竜平"
    },
    "name": "Ryûhei Yamada",
    "repository": "kara.moe",
    "tid": "64855ac6-4c6a-4467-9629-bd8173501533",
    "types": [
      "songwriters",
      "8"
    ]
  }
}