{
  "header": {
    "description": "Karaoke Mugen Tag File",
    "version": 1
  },
  "tag": {
    "aliases": [
      "Ryuugajou Nanana no Maizoukin (TV)",
      "龍ヶ嬢七々々の埋蔵金",
      "ryuugajou",
      "maizoukin"
    ],
    "external_database_ids": {
      "anilist": 20556,
      "myanimelist": 21561,
      "kitsu": 8162
    },
    "i18n": {
      "chi": "龙娘七七七埋藏的宝藏",
      "eng": "Nanana's Buried Treasure",
      "fre": "Nanana's Buried Treasure",
      "jpn": "龍ヶ嬢七々々の埋蔵金(2014)",
      "qro": "Ryûgajô Nanana no Maizôkin (2014)"
    },
    "modified_at": "2020-03-31T19:04:32.579Z",
    "name": "Ryûgajô Nanana no Maizôkin (2014)",
    "repository": "kara.moe",
    "tid": "7b07938f-3f01-4901-8a9d-ce575a4d9324",
    "types": [
      "series",
      "1"
    ]
  }
}