{
  "header": {
    "description": "Karaoke Mugen Tag File",
    "version": 1
  },
  "tag": {
    "i18n": {
      "eng": "S-kit"
    },
    "modified_at": "2021-05-08T15:09:50.090Z",
    "name": "S-kit",
    "repository": "kara.moe",
    "tid": "6a97881d-ce37-494a-bb41-274495e020b3",
    "types": [
      "songwriters",
      "8"
    ]
  }
}