{
  "header": {
    "description": "Karaoke Mugen Tag File",
    "version": 1
  },
  "tag": {
    "i18n": {
      "eng": "S.E.M"
    },
    "name": "S.E.M",
    "tid": "c7202075-12ee-4371-8e67-9cc47aefb6ce",
    "types": [
      "singers",
      "2"
    ],
    "repository": "kara.moe",
    "modified_at": "2020-03-31T19:04:37.254Z"
  }
}