{
  "header": {
    "description": "Karaoke Mugen Tag File",
    "version": 1
  },
  "tag": {
    "aliases": [
      "Super Impassioned Net Generation",
      "SING Nu Tuan"
    ],
    "i18n": {
      "chi": "SING女团",
      "qro": "S.I.N.G"
    },
    "name": "S.I.N.G",
    "repository": "kara.moe",
    "tid": "c5675f2d-910a-49f5-9698-aefdc50365a1",
    "types": [
      "singers",
      "2"
    ]
  }
}