{
  "header": {
    "description": "Karaoke Mugen Tag File",
    "version": 1
  },
  "tag": {
    "i18n": {
      "eng": "S.R.S"
    },
    "name": "S.R.S",
    "tid": "4306288a-8022-4ffe-9da3-1f6b42cf00f0",
    "types": [
      "singers",
      "2"
    ],
    "repository": "kara.moe",
    "modified_at": "2020-03-31T19:04:37.255Z"
  }
}