{
  "header": {
    "description": "Karaoke Mugen Tag File",
    "version": 1
  },
  "tag": {
    "i18n": {
      "eng": "Sa Dingding"
    },
    "name": "Sa Dingding",
    "repository": "kara.moe",
    "tid": "70d38bd4-3399-4457-90f8-6f77b74261fa",
    "types": [
      "singers",
      "2"
    ]
  }
}