{
  "header": {
    "description": "Karaoke Mugen Tag File",
    "version": 1
  },
  "tag": {
    "i18n": {
      "eng": "Saban"
    },
    "name": "Saban",
    "tid": "764412dd-9118-42cc-b8d4-69db77c57f67",
    "types": [
      "creators",
      "4"
    ],
    "repository": "kara.moe",
    "modified_at": "2020-03-31T19:04:37.257Z"
  }
}