{
  "header": {
    "description": "Karaoke Mugen Tag File",
    "version": 1
  },
  "tag": {
    "aliases": [
      "Sabage-bu",
      "Survival Game Club!"
    ],
    "external_database_ids": {
      "anilist": 20475,
      "myanimelist": 20709,
      "kitsu": 8016
    },
    "i18n": {
      "eng": "Sabagebu! Survival Game Club!",
      "jpn": "さばげぶっ!",
      "qro": "Sabagebu!"
    },
    "modified_at": "2020-03-31T19:04:32.580Z",
    "name": "Sabagebu!",
    "repository": "kara.moe",
    "tid": "32bce68c-82fe-431f-923e-f1a2502bae9c",
    "types": [
      "series",
      "1"
    ]
  }
}