{
  "header": {
    "description": "Karaoke Mugen Tag File",
    "version": 1
  },
  "tag": {
    "external_database_ids": {
      "anilist": 130591,
      "myanimelist": 48414,
      "kitsu": 44189
    },
    "i18n": {
      "eng": "Rust-Eater Bisco",
      "fre": "Sabikui Bisco",
      "jpn": "錆喰いビスコ"
    },
    "name": "Sabikui Bisco",
    "repository": "kara.moe",
    "tid": "9396065f-1a08-48bb-92e5-d2ddee69bb00",
    "types": [
      "series",
      "1"
    ]
  }
}