{
  "header": {
    "description": "Karaoke Mugen Tag File",
    "version": 1
  },
  "tag": {
    "external_database_ids": {
      "anilist": 109820,
      "kitsu": 44978,
      "myanimelist": 39917
    },
    "i18n": {
      "eng": "Rusted Armors",
      "jpn": "錆色のアーマ-黎明-",
      "qro": "Sabiiro no Armor - Reimei -"
    },
    "name": "Sabiiro no Armor: Reimei",
    "repository": "kara.moe",
    "tid": "029c77fc-f442-4b0b-8204-a6b466f8b2d6",
    "types": [
      "series",
      "1"
    ]
  }
}