{
  "header": {
    "description": "Karaoke Mugen Tag File",
    "version": 1
  },
  "tag": {
    "i18n": {
      "eng": "Sabrina's Secret Life",
      "fre": "Le Secret de Sabrina"
    },
    "modified_at": "2020-03-31T19:04:32.583Z",
    "name": "Sabrina's Secret Life",
    "repository": "kara.moe",
    "tid": "ca68a848-91d7-419a-b2e2-4799d02c6e19",
    "types": [
      "series",
      "1"
    ]
  }
}