{
  "header": {
    "description": "Karaoke Mugen Tag File",
    "version": 1
  },
  "tag": {
    "i18n": {
      "eng": "Saburô Masano"
    },
    "name": "Saburô Masano",
    "tid": "28f51052-bbf1-44f8-9c11-62da78ec8519",
    "types": [
      "songwriters",
      "8"
    ],
    "repository": "kara.moe",
    "modified_at": "2020-03-31T19:04:37.261Z"
  }
}