{
  "header": {
    "description": "Karaoke Mugen Tag File",
    "version": 1
  },
  "tag": {
    "i18n": {
      "eng": "Saburô Iwakawa"
    },
    "name": "Saburô Iwakawa",
    "tid": "b69f39f3-fa85-4cba-950b-f16a99ddfbcf",
    "types": [
      "songwriters",
      "8"
    ],
    "repository": "kara.moe",
    "modified_at": "2020-03-31T19:04:37.260Z"
  }
}