{
  "header": {
    "description": "Karaoke Mugen Tag File",
    "version": 1
  },
  "tag": {
    "aliases": [
      "Sacred 7",
      "Sacred7",
      "Священная Семерка"
    ],
    "external_database_ids": {
      "anilist": 10156,
      "myanimelist": 10156,
      "kitsu": 6058
    },
    "i18n": {
      "eng": "Sacred Seven",
      "jpn": "セイクリッドセブン",
      "qro": "Sacred Seven"
    },
    "modified_at": "2020-03-31T19:04:32.584Z",
    "name": "Sacred Seven",
    "repository": "kara.moe",
    "tid": "ecce3ac1-0398-4bd7-a45a-014cb019e0e3",
    "types": [
      "series",
      "1"
    ]
  }
}