{
  "header": {
    "description": "Karaoke Mugen Tag File",
    "version": 1
  },
  "tag": {
    "i18n": {
      "eng": "SADS"
    },
    "name": "SADS",
    "repository": "kara.moe",
    "tid": "e67be762-9905-4bc5-9bf7-862192350be2",
    "types": [
      "singers",
      "2"
    ]
  }
}