{
  "header": {
    "description": "Karaoke Mugen Tag File",
    "version": 1
  },
  "tag": {
    "i18n": {
      "eng": "Saeko Shimazu"
    },
    "name": "Saeko Shimazu",
    "tid": "5fe433a6-1604-4892-b859-b71bc8212b78",
    "types": [
      "singers",
      "2"
    ],
    "repository": "kara.moe",
    "modified_at": "2020-03-31T19:04:37.269Z"
  }
}