{
  "header": {
    "description": "Karaoke Mugen Tag File",
    "version": 1
  },
  "tag": {
    "i18n": {
      "eng": "Saeko Ura"
    },
    "name": "Saeko Ura",
    "tid": "e6a7b92f-c17a-4a78-b9f9-c42cc03d120e",
    "types": [
      "singers",
      "2"
    ],
    "repository": "kara.moe",
    "modified_at": "2020-03-31T19:04:37.270Z"
  }
}