{
  "header": {
    "description": "Karaoke Mugen Tag File",
    "version": 1
  },
  "tag": {
    "i18n": {
      "eng": "Saeki YouthK"
    },
    "name": "Saeki YouthK",
    "repository": "kara.moe",
    "tid": "ae504bd1-22bd-49c0-8103-5261ad120569",
    "types": [
      "songwriters",
      "8",
      "singers",
      "2"
    ]
  }
}