{
  "header": {
    "description": "Karaoke Mugen Tag File",
    "version": 1
  },
  "tag": {
    "aliases": [
      "Saekano: How to Raise a Boring Girlfriend Fine",
      "Saenai Kanojo no Sodatekata Fine",
      "시원찮은 그녀를 위한 육성방법 Fine"
    ],
    "i18n": {
      "eng": "Saenai Heroine no Sodatekata Fine",
      "jpn": "冴えない彼女の育てかた Fine",
      "qro": "Saenai Heroine no Sodatekata Fine",
      "chi": "路人女主的养成方法 剧场版"
    },
    "name": "Saenai Heroine no Sodatekata Fine",
    "repository": "kara.moe",
    "tid": "84ccd08f-d959-47ef-b4ab-7191e8551514",
    "types": [
      "series",
      "1"
    ]
  }
}