{
  "header": {
    "description": "Karaoke Mugen Tag File",
    "version": 1
  },
  "tag": {
    "external_database_ids": {
      "anilist": 109171,
      "kitsu": 42295,
      "myanimelist": 39761
    },
    "i18n": {
      "eng": "Twittering Birds Never Fly",
      "qro": "Saezuru Tori wa Habatakanai: The Clouds Gather",
      "jpn": "囀る鳥は羽ばたかない The clouds gather"
    },
    "name": "Saezuru Tori wa Habatakanai: The Clouds Gather",
    "repository": "kara.moe",
    "tid": "4fada63f-46d9-4c5f-b27c-6fa228f7d9f3",
    "types": [
      "series",
      "1"
    ]
  }
}