{
  "header": {
    "description": "Karaoke Mugen Tag File",
    "version": 1
  },
  "tag": {
    "i18n": {
      "eng": "SAGA PLANETS"
    },
    "name": "SAGA PLANETS",
    "tid": "2bd1e76e-6bd9-452b-82e5-4ba07cca68bf",
    "types": [
      "creators",
      "4"
    ],
    "repository": "kara.moe",
    "modified_at": "2020-03-31T19:04:37.272Z"
  }
}