{
  "header": {
    "description": "Karaoke Mugen Tag File",
    "version": 1
  },
  "tag": {
    "i18n": {
      "eng": "SAGE KOIZUMI"
    },
    "name": "SAGE KOIZUMI",
    "tid": "6d9dc758-b860-4c10-8d5d-43494c2dd6fa",
    "types": [
      "songwriters",
      "8"
    ],
    "repository": "kara.moe",
    "modified_at": "2020-03-31T19:04:37.274Z"
  }
}