{
  "header": {
    "description": "Karaoke Mugen Tag File",
    "version": 1
  },
  "tag": {
    "i18n": {
      "eng": "Saharu Kawakami"
    },
    "name": "Saharu Kawakami",
    "tid": "ab93bfa4-8e40-44fc-814e-2db56cd5dde6",
    "types": [
      "singers",
      "2"
    ],
    "repository": "kara.moe",
    "modified_at": "2020-03-31T19:04:37.274Z"
  }
}