{
  "header": {
    "description": "Karaoke Mugen Tag File",
    "version": 1
  },
  "tag": {
    "i18n": {
      "eng": "Sai Pyon"
    },
    "name": "Sai Pyon",
    "repository": "kara.moe",
    "tid": "029041b7-0484-4814-bf60-349973f2090b",
    "types": [
      "singers",
      "2"
    ]
  }
}