{
  "header": {
    "description": "Karaoke Mugen Tag File",
    "version": 1
  },
  "tag": {
    "external_database_ids": {
      "anilist": 21188,
      "myanimelist": 30749,
      "kitsu": 10913
    },
    "i18n": {
      "eng": "Undefeated Bahamut Chronicle",
      "jpn": "最弱無敗の神装機竜[バハムート]",
      "qro": "Saijaku Muhai no Bahamut"
    },
    "modified_at": "2020-03-31T19:04:32.587Z",
    "name": "Saijaku Muhai no Bahamut",
    "repository": "kara.moe",
    "tid": "dac696a7-53b1-4271-90f4-e55758915a2f",
    "types": [
      "series",
      "1"
    ]
  }
}