{
  "header": {
    "description": "Karaoke Mugen Tag File",
    "version": 1
  },
  "tag": {
    "i18n": {
      "eng": "Saiko Kawamura"
    },
    "name": "Saiko Kawamura",
    "tid": "839611a4-d6ce-4ae1-8775-c32c522914f5",
    "types": [
      "songwriters",
      "8"
    ],
    "repository": "kara.moe",
    "modified_at": "2020-03-31T19:04:37.275Z"
  }
}