{
  "header": {
    "description": "Karaoke Mugen Tag File",
    "version": 1
  },
  "tag": {
    "aliases": [
      "Saint Seiya: Ο Χαμένος Καμβάς - Η Μυθολογία του Άδη",
      "loscan",
      "圣斗士星矢The Lost Canvas冥王神话",
      "meiou"
    ],
    "external_database_ids": {
      "anilist": 6171,
      "myanimelist": 6171,
      "kitsu": 4458
    },
    "i18n": {
      "eng": "Saint Seiya: The Lost Canvas",
      "fre": "Les Chevaliers du Zodiaque ‒ The Lost Canvas",
      "jpn": "聖闘士星矢 THE LOST CANVAS 冥王神話",
      "por": "Saint Seiya - A tela perdida",
      "qro": "Saint Seiya: The Lost Canvas - Meiô Shinwa"
    },
    "modified_at": "2020-03-31T19:04:32.594Z",
    "name": "Saint Seiya: The Lost Canvas - Meiô Shinwa",
    "repository": "kara.moe",
    "tid": "334a8048-1a1e-4dd5-bec3-39b704323f88",
    "types": [
      "series",
      "1"
    ]
  }
}