{
  "header": {
    "description": "Karaoke Mugen Tag File",
    "version": 1
  },
  "tag": {
    "aliases": [
      "Shou",
      "聖鬥士星矢 聖鬥少女翔",
      "Aziz Seiya: Azize Shou",
      "聖闘士星矢 セインティア翔"
    ],
    "external_database_ids": {
      "anilist": 97919,
      "kitsu": 40611,
      "myanimelist": 34539
    },
    "i18n": {
      "eng": "Saint Seiya: Saintia Sho",
      "qro": "Saint Seiya Saintia Shô",
      "jpn": "聖闘士星矢 Saintia翔",
      "chi": "圣斗士星矢 圣斗少女翔"
    },
    "name": "Saint Seiya Saintia Shô",
    "repository": "kara.moe",
    "tid": "326363f1-46cf-440a-b995-2fdd4faecb48",
    "types": [
      "series",
      "1"
    ]
  }
}