{
  "header": {
    "description": "Karaoke Mugen Tag File",
    "version": 1
  },
  "tag": {
    "i18n": {
      "eng": "Saint Snow"
    },
    "name": "Saint Snow",
    "repository": "kara.moe",
    "tid": "a1ab013b-21fc-4fe1-a061-897bd0b490fb",
    "types": [
      "singergroups",
      "17"
    ]
  }
}