{
  "header": {
    "description": "Karaoke Mugen Tag File",
    "version": 1
  },
  "tag": {
    "aliases": [
      "Os Cavaleiros do Zodíaco - Hades: A Saga do Inferno",
      "圣斗士星矢 冥王哈迪斯冥界篇 圣斗士星矢 冥界篇"
    ],
    "external_database_ids": {
      "anilist": 1253,
      "myanimelist": 1253,
      "kitsu": 1128
    },
    "i18n": {
      "eng": "Saint Seiya: The Hades - Chapter Inferno",
      "fre": "Les Chevaliers du Zodiaque - Hadès : Inferno",
      "ita": "Saint Seiya: The Hades Chapter - Inferno",
      "jpn": "聖闘士星矢 冥王ハーデス冥界編",
      "spa": "Los Caballeros del Zodiaco - Saga de Hades - Infierno",
      "qro": "Saint Seiya: Meiou Hades Meikai Hen"
    },
    "modified_at": "2020-03-31T19:04:32.593Z",
    "name": "Saint Seiya: Meiou Hades Meikai Hen",
    "repository": "kara.moe",
    "tid": "a7974383-5fb6-4cd2-b7c3-cd66d3dcee8f",
    "types": [
      "series",
      "1"
    ]
  }
}