{
  "header": {
    "description": "Karaoke Mugen Tag File",
    "version": 1
  },
  "tag": {
    "aliases": [
      "Saki: Nationals"
    ],
    "external_database_ids": {
      "anilist": 16123,
      "myanimelist": 16123,
      "kitsu": 7375
    },
    "i18n": {
      "chi": "天才麻将少女 全国篇",
      "eng": "Saki: The Nationals",
      "jpn": "咲 全国編",
      "qro": "Saki: Zenkoku Hen"
    },
    "modified_at": "2020-03-31T19:04:32.603Z",
    "name": "Saki: Zenkoku Hen",
    "repository": "kara.moe",
    "tid": "233a593d-2fec-44d4-88cd-cb8d37a36dbf",
    "types": [
      "series",
      "1"
    ]
  }
}