{
  "header": {
    "description": "Karaoke Mugen Tag File",
    "version": 1
  },
  "tag": {
    "i18n": {
      "eng": "Saki AI"
    },
    "modified_at": "2021-05-15T17:19:41.841Z",
    "name": "Saki AI",
    "repository": "kara.moe",
    "tid": "33674da1-c6ed-497d-828e-66e1b7ca7997",
    "types": [
      "singers",
      "2"
    ]
  }
}