{
  "header": {
    "description": "Karaoke Mugen Tag File",
    "version": 1
  },
  "tag": {
    "i18n": {
      "eng": "sakichan"
    },
    "name": "sakichan",
    "repository": "kara.moe",
    "tid": "a8c04378-d185-40e8-95fa-c095b4b09727",
    "types": [
      "authors",
      "6"
    ]
  }
}