{
  "header": {
    "description": "Karaoke Mugen Tag File",
    "version": 1
  },
  "tag": {
    "i18n": {
      "eng": "Sakito"
    },
    "name": "Sakito",
    "tid": "045904e7-ad2b-4d4d-958d-6b3ff02d6d01",
    "types": [
      "songwriters",
      "8"
    ],
    "repository": "kara.moe",
    "modified_at": "2020-03-31T19:04:37.286Z"
  }
}