{
  "header": {
    "description": "Karaoke Mugen Tag File",
    "version": 1
  },
  "tag": {
    "i18n": {
      "eng": "Saki Ashizawa"
    },
    "modified_at": "2020-08-17T21:19:53.717Z",
    "name": "Saki Ashizawa",
    "repository": "kara.moe",
    "tid": "4f017098-eeb0-4de5-bded-40a66d60f509",
    "types": [
      "singers",
      "2"
    ]
  }
}