{
  "header": {
    "description": "Karaoke Mugen Tag File",
    "version": 1
  },
  "tag": {
    "aliases": [
      "Charge!! Cromartie High",
      "Cro-High",
      "SCH",
      "SCK",
      "Sakigake!! Cromartie High",
      "Valiantly Forge Ahead!! Cromartie High School",
      "Кромешная путяга",
      "koukou"
    ],
    "external_database_ids": {
      "anilist": 114,
      "myanimelist": 114,
      "kitsu": 93
    },
    "i18n": {
      "eng": "Cromartie High School",
      "fre": "Le bahut des tordus",
      "jpn": "魁!!クロマティ高校",
      "tha": "คุโรมาตี้ โรงเรียนคนบวม",
      "qro": "Sakigake!! Cromartie Kôkô"
    },
    "modified_at": "2020-06-21T23:45:31.966Z",
    "name": "Sakigake!! Cromartie Kôkô",
    "repository": "kara.moe",
    "tid": "ae40adb5-9313-450c-9b9e-3defaf358e47",
    "types": [
      "series",
      "1"
    ]
  }
}