{
  "header": {
    "description": "Karaoke Mugen Tag File",
    "version": 1
  },
  "tag": {
    "aliases": [
      "ساكي",
      "咲-Saki-"
    ],
    "external_database_ids": {
      "anilist": 5671,
      "myanimelist": 5671,
      "kitsu": 4235
    },
    "i18n": {
      "chi": "天才麻将少女",
      "eng": "Saki",
      "jpn": "咲",
      "qro": "Saki"
    },
    "modified_at": "2020-03-31T19:04:32.604Z",
    "name": "Saki",
    "repository": "kara.moe",
    "tid": "73bf267c-3013-4a00-bc02-87b99f25ae64",
    "types": [
      "series",
      "1",
      "franchises",
      "18"
    ]
  }
}