{
  "header": {
    "description": "Karaoke Mugen Tag File",
    "version": 1
  },
  "tag": {
    "i18n": {
      "eng": "Sakiel Kiriya"
    },
    "name": "Sakiel Kiriya",
    "repository": "kara.moe",
    "tid": "de321411-4a52-49c7-bb37-cdde8d8ec674",
    "types": [
      "songwriters",
      "8"
    ]
  }
}