{
  "header": {
    "description": "Karaoke Mugen Tag File",
    "version": 1
  },
  "tag": {
    "i18n": {
      "jpn": "宮脇 咲良",
      "qro": "Sakura Miyawaki"
    },
    "name": "Sakura Miyawaki",
    "repository": "kara.moe",
    "tid": "70a00bbf-74f7-4b5c-a2bd-6b9429fc7d0d",
    "types": [
      "singers",
      "2"
    ]
  }
}