{
  "header": {
    "description": "Karaoke Mugen Tag File",
    "version": 1
  },
  "tag": {
    "external_database_ids": {
      "anilist": 97903,
      "myanimelist": 34494,
      "kitsu": 12793
    },
    "i18n": {
      "eng": "Sakura Quest",
      "jpn": "サクラクエスト",
      "kor": "사쿠라 퀘스트",
      "qro": "Sakura Quest"
    },
    "modified_at": "2020-03-31T19:04:32.607Z",
    "name": "Sakura Quest",
    "repository": "kara.moe",
    "tid": "7dcd6e0a-7bf8-4e58-8385-086abe2c317c",
    "types": [
      "series",
      "1"
    ]
  }
}