{
  "header": {
    "description": "Karaoke Mugen Tag File",
    "version": 1
  },
  "tag": {
    "external_database_ids": {
      "anilist": 20047,
      "myanimelist": 20047,
      "kitsu": 7978
    },
    "i18n": {
      "chi": "樱Trick",
      "eng": "Sakura Trick",
      "jpn": "桜Trick",
      "qro": "Sakura Trick"
    },
    "modified_at": "2020-03-31T19:04:32.613Z",
    "name": "Sakura Trick",
    "repository": "kara.moe",
    "tid": "a9af62ad-ea5c-4d0f-8496-3eb5eccba866",
    "types": [
      "series",
      "1"
    ]
  }
}