{
  "header": {
    "description": "Karaoke Mugen Tag File",
    "version": 1
  },
  "tag": {
    "i18n": {
      "eng": "Sakuma Daisuke"
    },
    "name": "Sakuma Daisuke",
    "tid": "b26c6198-b9bc-407a-9d97-d44ba1421343",
    "types": [
      "songwriters",
      "8"
    ],
    "repository": "kara.moe",
    "modified_at": "2020-03-31T19:04:37.287Z"
  }
}