{
  "header": {
    "description": "Karaoke Mugen Tag File",
    "version": 1
  },
  "tag": {
    "i18n": {
      "eng": "Sakura Fujiwara"
    },
    "name": "Sakura Fujiwara",
    "repository": "kara.moe",
    "tid": "6269373a-4f3b-4c37-97a3-ebfa308ccd15",
    "types": [
      "singers",
      "2"
    ]
  }
}