{
  "header": {
    "description": "Karaoke Mugen Tag File",
    "version": 1
  },
  "tag": {
    "aliases": [
      "Sakura Taisen: Ouka Kenran",
      "ST",
      "SW",
      "ouka"
    ],
    "external_database_ids": {
      "anilist": 1165,
      "myanimelist": 1165,
      "kitsu": 1046
    },
    "i18n": {
      "eng": "Sakura Wars: The Gorgeous Blooming Cherry Blossoms",
      "fre": "Sakura Wars : La splendeur des fleurs de cerisier",
      "jpn": "サクラ大戦 桜華絢爛",
      "qro": "Sakura Taisen Ôka Kenran"
    },
    "modified_at": "2020-05-18T19:03:02.653Z",
    "name": "Sakura Taisen Ôka Kenran",
    "repository": "kara.moe",
    "tid": "d48ad72d-77df-4455-a52d-839f0f1c4472",
    "types": [
      "series",
      "1"
    ]
  }
}