{
  "header": {
    "description": "Karaoke Mugen Tag File",
    "version": 1
  },
  "tag": {
    "aliases": [
      "ST",
      "SW"
    ],
    "i18n": {
      "eng": "Sakura Wars Story: Mysterious Paris",
      "jpn": "サクラ大戦物語 ～ミステリアス巴里～",
      "qro": "Sakura Taisen Monogatari ~Mysterious Paris~"
    },
    "modified_at": "2020-05-30T20:48:29.865Z",
    "name": "Sakura Taisen Monogatari ~Mysterious Paris~",
    "repository": "kara.moe",
    "tid": "933e0784-3a78-4b44-837a-d7084fc4e073",
    "types": [
      "series",
      "1"
    ]
  }
}