{
  "header": {
    "description": "Karaoke Mugen Tag File",
    "version": 1
  },
  "tag": {
    "aliases": [
      "ST",
      "SW",
      "Gouka Kenran",
      "gouka"
    ],
    "external_database_ids": {
      "anilist": 1166,
      "myanimelist": 1166,
      "kitsu": 1047
    },
    "i18n": {
      "jpn": "サクラ大戦 轟華絢爛",
      "eng": "Sakura Wars: The Radiant Gorgeous Blooming Cherry Blossoms",
      "fre": "Sakura Wars : La splendeur des fleurs retentissantes",
      "qro": "Sakura Taisen: Gôka Kenran"
    },
    "modified_at": "2020-05-18T18:53:11.078Z",
    "name": "Sakura Taisen: Gôka Kenran",
    "repository": "kara.moe",
    "tid": "0646f38e-fef2-47ff-8d37-79faa0055fa8",
    "types": [
      "series",
      "1"
    ]
  }
}