{
  "header": {
    "description": "Karaoke Mugen Tag File",
    "version": 1
  },
  "tag": {
    "i18n": {
      "eng": "Saliva"
    },
    "modified_at": "2020-07-16T16:41:41.946Z",
    "name": "Saliva",
    "repository": "kara.moe",
    "tid": "555ec3bf-9b93-441f-9316-92d8f88e8e52",
    "types": [
      "songwriters",
      "8",
      "singers",
      "2"
    ]
  }
}