{
  "header": {
    "description": "Karaoke Mugen Tag File",
    "version": 1
  },
  "tag": {
    "aliases": [
      "SLG"
    ],
    "i18n": {
      "fre": "Salut Les Geeks"
    },
    "modified_at": "2020-07-18T21:20:07.199Z",
    "name": "Salut Les Geeks",
    "repository": "kara.moe",
    "tid": "e1d36902-052e-45eb-a576-99216d6de627",
    "types": [
      "series",
      "1"
    ]
  }
}