{
  "header": {
    "description": "Karaoke Mugen Tag File",
    "version": 1
  },
  "tag": {
    "i18n": {
      "eng": "Sam Sumser"
    },
    "name": "Sam Sumser",
    "repository": "kara.moe",
    "tid": "904367d4-b072-4b82-ab6c-9340a904d066",
    "types": [
      "songwriters",
      "8"
    ]
  }
}