{
  "header": {
    "description": "Karaoke Mugen Tag File",
    "version": 1
  },
  "tag": {
    "i18n": {
      "eng": "Sam Green Media"
    },
    "modified_at": "2021-01-03T23:47:33.685Z",
    "name": "Sam Green Media",
    "repository": "kara.moe",
    "tid": "e76385b7-bf4c-4d34-aff5-901a51f5457d",
    "types": [
      "creators",
      "4"
    ]
  }
}