{
  "header": {
    "description": "Karaoke Mugen Tag File",
    "version": 1
  },
  "tag": {
    "i18n": {
      "eng": "SAM FREE"
    },
    "name": "SAM FREE",
    "tid": "7d624674-d750-4b35-9e22-97e022aed58b",
    "types": [
      "songwriters",
      "8"
    ],
    "repository": "kara.moe",
    "modified_at": "2020-03-31T19:04:37.299Z"
  }
}