{
  "header": {
    "description": "Karaoke Mugen Tag File",
    "version": 1
  },
  "tag": {
    "i18n": {
      "eng": "samfree"
    },
    "name": "samfree",
    "tid": "7f506309-7bc0-4af5-9bbc-e477554b4044",
    "types": [
      "songwriters",
      "8"
    ],
    "repository": "kara.moe",
    "modified_at": "2020-03-31T19:04:37.301Z"
  }
}