{
  "header": {
    "description": "Karaoke Mugen Tag File",
    "version": 1
  },
  "tag": {
    "i18n": {
      "eng": "Sanctuary"
    },
    "name": "Sanctuary",
    "tid": "d3f3fdc9-cd33-4e4d-b6b7-679fe426ea60",
    "types": [
      "creators",
      "4"
    ],
    "repository": "kara.moe",
    "modified_at": "2020-03-31T19:04:37.308Z"
  }
}