{
  "header": {
    "description": "Karaoke Mugen Tag File",
    "version": 1
  },
  "tag": {
    "i18n": {
      "eng": "Sandy Lee Casey"
    },
    "name": "Sandy Lee Casey",
    "tid": "2de232a1-657f-4377-b138-85f5c31c754d",
    "types": [
      "singers",
      "2"
    ],
    "repository": "kara.moe",
    "modified_at": "2020-03-31T19:04:37.313Z"
  }
}