{
  "header": {
    "description": "Karaoke Mugen Tag File",
    "version": 1
  },
  "tag": {
    "i18n": {
      "eng": "Sandrine Bonnet"
    },
    "name": "Sandrine Bonnet",
    "tid": "f7f0d8b1-181f-4129-9f9f-4e45d1556676",
    "types": [
      "singers",
      "2"
    ],
    "repository": "kara.moe",
    "modified_at": "2020-03-31T19:04:37.310Z"
  }
}