{
  "header": {
    "description": "Karaoke Mugen Tag File",
    "version": 1
  },
  "tag": {
    "i18n": {
      "eng": "Sandy Cressman"
    },
    "name": "Sandy Cressman",
    "tid": "bef41c79-d10f-480f-9136-569e0c6c7238",
    "types": [
      "singers",
      "2"
    ],
    "repository": "kara.moe",
    "modified_at": "2020-03-31T19:04:37.312Z"
  }
}