{
  "header": {
    "description": "Karaoke Mugen Tag File",
    "version": 1
  },
  "tag": {
    "i18n": {
      "eng": "Saneas"
    },
    "name": "Saneas",
    "repository": "kara.moe",
    "tid": "64860497-79ed-4f98-84ea-994551132fbe",
    "types": [
      "authors",
      "6"
    ]
  }
}