{
  "header": {
    "description": "Karaoke Mugen Tag File",
    "version": 1
  },
  "tag": {
    "aliases": [
      "Санка",
      "Санкареа"
    ],
    "external_database_ids": {
      "anilist": 11499,
      "myanimelist": 11499,
      "kitsu": 6521
    },
    "i18n": {
      "eng": "Sankarea",
      "ger": "Sankarea",
      "jpn": "さんかれあ",
      "kor": "산카레아",
      "qro": "Sankarea"
    },
    "modified_at": "2020-03-31T19:04:32.619Z",
    "name": "Sankarea",
    "repository": "kara.moe",
    "tid": "e95a8d8c-9089-4dc0-8b66-c83f11399604",
    "types": [
      "series",
      "1"
    ]
  }
}