{
  "header": {
    "description": "Karaoke Mugen Tag File",
    "version": 1
  },
  "tag": {
    "external_database_ids": {
      "anilist": 126897,
      "kitsu": 44312,
      "myanimelist": 44387
    },
    "i18n": {
      "eng": "The Night Beyond the Tricornered Window",
      "qro": "Sankaku Mado no Sotogawa wa Yoru",
      "jpn": "さんかく窓の外側は夜"
    },
    "name": "Sankaku Mado no Sotogawa wa Yoru",
    "repository": "kara.moe",
    "tid": "147dd9fb-7dee-4d20-86bc-5390bd53eaae",
    "types": [
      "series",
      "1"
    ]
  }
}