{
  "header": {
    "description": "Karaoke Mugen Tag File",
    "version": 1
  },
  "tag": {
    "external_database_ids": {
      "anilist": 98217,
      "myanimelist": 34839,
      "kitsu": 13714
    },
    "i18n": {
      "eng": "Sanrio Danshi"
    },
    "name": "Sanrio Danshi",
    "repository": "kara.moe",
    "tid": "c4ff6977-da5f-4965-870e-c01fba349adb",
    "types": [
      "series",
      "1"
    ]
  }
}