{
  "header": {
    "description": "Karaoke Mugen Tag File",
    "version": 1
  },
  "tag": {
    "aliases": [
      "Sansha Sanyou",
      "san'you"
    ],
    "external_database_ids": {
      "anilist": 21334,
      "myanimelist": 31564,
      "kitsu": 11401
    },
    "i18n": {
      "eng": "Three Leaves, Three Colors",
      "fre": "Sansha San'yô",
      "jpn": "三者三葉",
      "qro": "Sansha San'yô"
    },
    "modified_at": "2020-03-31T19:04:32.621Z",
    "name": "Sansha San'yô",
    "repository": "kara.moe",
    "tid": "89940f22-3fc4-407c-8761-00fda5fa2dcc",
    "types": [
      "series",
      "1"
    ]
  }
}