{
  "header": {
    "description": "Karaoke Mugen Tag File",
    "version": 1
  },
  "tag": {
    "i18n": {
      "eng": "Saori Atsumi"
    },
    "name": "Saori Atsumi",
    "tid": "9cf3104f-3320-47b6-b7c9-45e84dbe101a",
    "types": [
      "singers",
      "2",
      "songwriters",
      "8"
    ],
    "repository": "kara.moe",
    "modified_at": "2020-03-31T19:04:37.317Z"
  }
}