{
  "header": {
    "description": "Karaoke Mugen Tag File",
    "version": 1
  },
  "tag": {
    "i18n": {
      "eng": "Saori Kodama"
    },
    "name": "Saori Kodama",
    "tid": "36ed7846-c93a-4e89-b677-34c3a8371964",
    "types": [
      "songwriters",
      "8",
      "singers",
      "2"
    ],
    "repository": "kara.moe",
    "modified_at": "2020-03-31T19:04:37.320Z"
  }
}