{
  "header": {
    "description": "Karaoke Mugen Tag File",
    "version": 1
  },
  "tag": {
    "i18n": {
      "eng": "Saori Nishihata"
    },
    "name": "Saori Nishihata",
    "tid": "0133a391-a109-4c0c-961c-e88e4499f5e1",
    "types": [
      "singers",
      "2"
    ],
    "repository": "kara.moe",
    "modified_at": "2020-03-31T19:04:37.320Z"
  }
}