{
  "header": {
    "description": "Karaoke Mugen Tag File",
    "version": 1
  },
  "tag": {
    "i18n": {
      "eng": "Sarasa Ifu"
    },
    "name": "Sarasa Ifu",
    "tid": "0c362764-87a1-4957-9151-a79b65c79ca3",
    "types": [
      "singers",
      "2",
      "songwriters",
      "8"
    ],
    "repository": "kara.moe",
    "modified_at": "2020-03-31T19:04:37.327Z"
  }
}