{
  "header": {
    "description": "Karaoke Mugen Tag File",
    "version": 1
  },
  "tag": {
    "i18n": {
      "eng": "Sarai Matsubara"
    },
    "name": "Sarai Matsubara",
    "tid": "c8893145-8000-4536-82d5-f9c563aa2bb2",
    "types": [
      "songwriters",
      "8"
    ],
    "repository": "kara.moe",
    "modified_at": "2020-03-31T19:04:37.325Z"
  }
}