{
  "header": {
    "description": "Karaoke Mugen Tag File",
    "version": 1
  },
  "tag": {
    "i18n": {
      "eng": "Sasaki Rika"
    },
    "name": "Sasaki Rika",
    "repository": "kara.moe",
    "tid": "0831e3ac-26bc-4a61-95be-88b1ab525b00",
    "types": [
      "singers",
      "2"
    ]
  }
}