{
  "header": {
    "description": "Karaoke Mugen Tag File",
    "version": 1
  },
  "tag": {
    "i18n": {
      "eng": "Sasaki Miwa"
    },
    "name": "Sasaki Miwa",
    "tid": "915faf2b-8dd9-459c-b541-f690ed6539de",
    "types": [
      "songwriters",
      "8"
    ],
    "repository": "kara.moe",
    "modified_at": "2020-03-31T19:04:37.329Z"
  }
}