{
  "header": {
    "description": "Karaoke Mugen Tag File",
    "version": 1
  },
  "tag": {
    "i18n": {
      "eng": "Sata Andagi"
    },
    "name": "Sata Andagi",
    "tid": "76892ce4-370f-46e0-924d-ee443db39fac",
    "types": [
      "singers",
      "2"
    ],
    "repository": "kara.moe",
    "modified_at": "2020-03-31T19:04:37.331Z"
  }
}