{
  "header": {
    "description": "Karaoke Mugen Tag File",
    "version": 1
  },
  "tag": {
    "aliases": [
      "はなむら さとみ"
    ],
    "i18n": {
      "eng": "Satomi Hanamura",
      "jpn": "花村怜美",
      "qro": "Satomi Hanamura"
    },
    "name": "Satomi Hanamura",
    "repository": "kara.moe",
    "tid": "b536d3ad-9978-4560-8c9c-7ec26b953db3",
    "types": [
      "singers",
      "2"
    ]
  }
}