{
  "header": {
    "description": "Karaoke Mugen Tag File",
    "version": 1
  },
  "tag": {
    "i18n": {
      "eng": "Satomi Satô"
    },
    "name": "Satomi Satô",
    "tid": "19de5aa5-60be-4834-985d-7ad3f886311c",
    "types": [
      "singers",
      "2"
    ],
    "repository": "kara.moe",
    "modified_at": "2020-03-31T19:04:37.340Z"
  }
}