{
  "header": {
    "description": "Karaoke Mugen Tag File",
    "version": 1
  },
  "tag": {
    "i18n": {
      "eng": "Satoshi Ikezawa"
    },
    "name": "Satoshi Ikezawa",
    "repository": "kara.moe",
    "tid": "c7723fd5-1e37-4dac-9d77-0ee9869b6e87",
    "types": [
      "songwriters",
      "8"
    ]
  }
}