{
  "header": {
    "description": "Karaoke Mugen Tag File",
    "version": 1
  },
  "tag": {
    "i18n": {
      "eng": "Satoru Shirai"
    },
    "name": "Satoru Shirai",
    "tid": "9fa54fc2-9dd4-49a1-9afa-90737be0509b",
    "types": [
      "songwriters",
      "8"
    ],
    "repository": "kara.moe",
    "modified_at": "2020-03-31T19:04:37.345Z"
  }
}