{
  "header": {
    "description": "Karaoke Mugen Tag File",
    "version": 1
  },
  "tag": {
    "i18n": {
      "eng": "Satomi Koorogi"
    },
    "name": "Satomi Koorogi",
    "tid": "d9b47dda-95ff-4594-8bf7-e1d4c88a9280",
    "types": [
      "singers",
      "2"
    ],
    "repository": "kara.moe",
    "modified_at": "2020-03-31T19:04:37.339Z"
  }
}