{
  "header": {
    "description": "Karaoke Mugen Tag File",
    "version": 1
  },
  "tag": {
    "i18n": {
      "eng": "Satoko Shimizu"
    },
    "name": "Satoko Shimizu",
    "tid": "048d07e0-1840-4c79-9ace-98ae731d8308",
    "types": [
      "singers",
      "2"
    ],
    "repository": "kara.moe",
    "modified_at": "2020-03-31T19:04:37.335Z"
  }
}