{
  "header": {
    "description": "Karaoke Mugen Tag File",
    "version": 1
  },
  "tag": {
    "i18n": {
      "eng": "Satoshi Fujihara"
    },
    "name": "Satoshi Fujihara",
    "tid": "ed300e84-8415-4842-8003-8244d2b2fb2c",
    "types": [
      "songwriters",
      "8"
    ],
    "repository": "kara.moe",
    "modified_at": "2020-03-31T19:04:37.346Z"
  }
}