{
  "header": {
    "description": "Karaoke Mugen Tag File",
    "version": 1
  },
  "tag": {
    "i18n": {
      "eng": "Satomi Moriya"
    },
    "name": "Satomi Moriya",
    "tid": "e857de92-e53b-4074-8b8d-08f146d24e7d",
    "types": [
      "singers",
      "2"
    ],
    "repository": "kara.moe",
    "modified_at": "2020-03-31T19:04:37.340Z"
  }
}