{
  "header": {
    "description": "Karaoke Mugen Tag File",
    "version": 1
  },
  "tag": {
    "i18n": {
      "eng": "Satoru Murata"
    },
    "name": "Satoru Murata",
    "tid": "6476587e-e7ff-4520-9b7b-68b045cc58c0",
    "types": [
      "songwriters",
      "8"
    ],
    "repository": "kara.moe",
    "modified_at": "2020-03-31T19:04:37.344Z"
  }
}