{
  "header": {
    "description": "Karaoke Mugen Tag File",
    "version": 1
  },
  "tag": {
    "i18n": {
      "eng": "Satoshi Setsune"
    },
    "name": "Satoshi Setsune",
    "repository": "kara.moe",
    "tid": "eb1fe794-c6cf-4b1d-be66-bd9cf085e5b1",
    "types": [
      "songwriters",
      "8"
    ]
  }
}