{
  "header": {
    "description": "Karaoke Mugen Tag File",
    "version": 1
  },
  "tag": {
    "i18n": {
      "eng": "Satoko Shimonari"
    },
    "name": "Satoko Shimonari",
    "tid": "42491011-74f0-4ed5-a3f4-c087752bb082",
    "types": [
      "singers",
      "2"
    ],
    "repository": "kara.moe",
    "modified_at": "2020-03-31T19:04:37.336Z"
  }
}