{
  "header": {
    "description": "Karaoke Mugen Tag File",
    "version": 1
  },
  "tag": {
    "aliases": [
      "Kousaki"
    ],
    "i18n": {
      "eng": "Satoru Kôsaki",
      "jpn": "神前暁",
      "qro": "Satoru Kôsaki"
    },
    "name": "Satoru Kôsaki",
    "repository": "kara.moe",
    "tid": "d7658a75-7945-4f08-8233-02f38dc385ba",
    "types": [
      "songwriters",
      "8"
    ]
  }
}