{
  "header": {
    "description": "Karaoke Mugen Tag File",
    "version": 1
  },
  "tag": {
    "aliases": [
      "SNLK"
    ],
    "i18n": {
      "eng": "Saturday Night Live Korea",
      "kor": "새터데이 나이트 라이브 코리아"
    },
    "name": "Saturday Night Live Korea",
    "repository": "kara.moe",
    "tid": "5cd3598c-eae2-4768-8d29-d7825c372987",
    "types": [
      "series",
      "1"
    ]
  }
}