{
  "header": {
    "description": "Karaoke Mugen Tag File",
    "version": 1
  },
  "tag": {
    "i18n": {
      "eng": "Saturn"
    },
    "karafile_tag": "SATURN",
    "name": "Saturn",
    "tid": "e6778c89-1d6b-455e-bd53-37a3b12b7140",
    "types": [
      "platforms",
      "13"
    ],
    "short": "SAT",
    "repository": "kara.moe",
    "modified_at": "2020-03-31T19:04:37.357Z"
  }
}