{
  "header": {
    "description": "Karaoke Mugen Tag File",
    "version": 1
  },
  "tag": {
    "i18n": {
      "eng": "Savage Garden"
    },
    "name": "Savage Garden",
    "tid": "cea6e82a-296e-4868-b1c0-695e94cae509",
    "types": [
      "singers",
      "2"
    ],
    "repository": "kara.moe",
    "modified_at": "2020-03-31T19:04:37.358Z"
  }
}