{
  "header": {
    "description": "Karaoke Mugen Tag File",
    "version": 1
  },
  "tag": {
    "i18n": {
      "eng": "saya"
    },
    "name": "saya",
    "tid": "6593aba9-d565-4ad8-b6f4-7859a3d2927f",
    "types": [
      "singers",
      "2"
    ],
    "repository": "kara.moe",
    "modified_at": "2020-03-31T19:04:37.362Z"
  }
}