{
  "header": {
    "description": "Karaoke Mugen Tag File",
    "version": 1
  },
  "tag": {
    "i18n": {
      "jpn": "千本木 彩花",
      "qro": "Sayaka Senbongi"
    },
    "name": "Sayaka Senbongi",
    "repository": "kara.moe",
    "tid": "05606d20-40df-4f2e-90cc-5af52ebf826b",
    "types": [
      "singers",
      "2"
    ]
  }
}