{
  "header": {
    "description": "Karaoke Mugen Tag File",
    "version": 1
  },
  "tag": {
    "i18n": {
      "eng": "Sayaka Kanda"
    },
    "name": "Sayaka Kanda",
    "tid": "ec951a51-93f6-434f-955d-c5b2d50b5179",
    "types": [
      "songwriters",
      "8"
    ],
    "repository": "kara.moe",
    "modified_at": "2020-03-31T19:04:37.364Z"
  }
}