{
  "header": {
    "description": "Karaoke Mugen Tag File",
    "version": 1
  },
  "tag": {
    "i18n": {
      "eng": "Sayaka Kikuchi"
    },
    "name": "Sayaka Kikuchi",
    "repository": "kara.moe",
    "tid": "b367a9da-64da-4785-a00d-28182614bf95",
    "types": [
      "singers",
      "2"
    ]
  }
}