{
  "header": {
    "description": "Karaoke Mugen Tag File",
    "version": 1
  },
  "tag": {
    "i18n": {
      "eng": "Sayaka Kitahara"
    },
    "name": "Sayaka Kitahara",
    "tid": "2eb65928-a948-4415-ba7f-2e67413f6e46",
    "types": [
      "singers",
      "2"
    ],
    "repository": "kara.moe",
    "modified_at": "2020-03-31T19:04:37.364Z"
  }
}