{
  "header": {
    "description": "Karaoke Mugen Tag File",
    "version": 1
  },
  "tag": {
    "i18n": {
      "eng": "Sayaka Tsuzuki"
    },
    "name": "Sayaka Tsuzuki",
    "repository": "kara.moe",
    "tid": "ab66d7ee-5f3d-47de-b51b-88adc9898747",
    "types": [
      "singers",
      "2"
    ]
  }
}