{
  "header": {
    "description": "Karaoke Mugen Tag File",
    "version": 1
  },
  "tag": {
    "aliases": [
      "Sayonara no Asa ni Yakusoku no Hana o Kazarou",
      "sayoasa",
      "kazarou"
    ],
    "external_database_ids": {
      "anilist": 99457,
      "myanimelist": 35851,
      "kitsu": 13612
    },
    "i18n": {
      "eng": "Maquia: When the Promised Flower Blooms",
      "fre": "Maquia: When the Promised Flower Blooms",
      "ger": "Maquia: Eine unsterbliche Liebesgeschichte",
      "jpn": "さよならの朝に約束の花をかざろう",
      "rus": "Укрась прощальное утро цветами обещания",
      "spa": "Maquia, una historia de amor inmortal",
      "qro": "Sayonara no Asa ni Yakusoku no Hana o Kazarô"
    },
    "modified_at": "2020-03-31T19:04:32.629Z",
    "name": "Sayonara no Asa ni Yakusoku no Hana o Kazarô",
    "repository": "kara.moe",
    "tid": "ef454707-66ac-4bf7-a89d-9c841e8e8e35",
    "types": [
      "series",
      "1"
    ]
  }
}