{
  "header": {
    "description": "Karaoke Mugen Tag File",
    "version": 1
  },
  "tag": {
    "i18n": {
      "eng": "Sayri"
    },
    "name": "Sayri",
    "repository": "kara.moe",
    "tid": "f917dc4b-ecb5-41db-b368-9c1af167fdc4",
    "types": [
      "songwriters",
      "8"
    ]
  }
}