{
  "header": {
    "description": "Karaoke Mugen Tag File",
    "version": 1
  },
  "tag": {
    "i18n": {
      "eng": "Sayumi Suzushiro"
    },
    "name": "Sayumi Suzushiro",
    "tid": "754ddefa-12fb-4055-9561-c7bed688335c",
    "types": [
      "singers",
      "2"
    ],
    "repository": "kara.moe",
    "modified_at": "2020-03-31T19:04:37.370Z"
  }
}