{
  "header": {
    "description": "Karaoke Mugen Tag File",
    "version": 1
  },
  "tag": {
    "i18n": {
      "eng": "Sayuri Saitô"
    },
    "name": "Sayuri Saitô",
    "tid": "bbdfff46-564f-4471-bff2-1e7afa9db2fe",
    "types": [
      "singers",
      "2"
    ],
    "repository": "kara.moe",
    "modified_at": "2020-03-31T19:04:37.371Z"
  }
}