{
  "header": {
    "description": "Karaoke Mugen Tag File",
    "version": 1
  },
  "tag": {
    "i18n": {
      "eng": "Sayuri Yoshida"
    },
    "name": "Sayuri Yoshida",
    "tid": "8589b656-c78a-40fb-9551-69336f78d90a",
    "types": [
      "singers",
      "2"
    ],
    "repository": "kara.moe",
    "modified_at": "2020-03-31T19:04:37.372Z"
  }
}