{
  "header": {
    "description": "Karaoke Mugen Tag File",
    "version": 1
  },
  "tag": {
    "aliases": [
      "SR2",
      "SRN",
      "School Rumble - Semester 2",
      "School Rumble 2",
      "School Rumble 2nd Term",
      "School Rumble Second Term",
      "sukuran 2",
      "sukuran2",
      "Школьный переполох - второй семестр",
      "سكول رمبل الفصل الثاني",
      "สูตรรักฉบับนักเรียน เทอม 2",
      "喧嚣学园 第二学期",
      "校園迷糊大王 二學期"
    ],
    "external_database_ids": {
      "anilist": 846,
      "myanimelist": 846,
      "kitsu": 750
    },
    "i18n": {
      "eng": "School Rumble: 2nd Semester",
      "fre": "School Rumble 2e semestre",
      "jpn": "スクールランブル 二学期",
      "qro": "School Rumble Ni Gakki"
    },
    "modified_at": "2020-03-31T19:04:32.632Z",
    "name": "School Rumble Ni Gakki",
    "repository": "kara.moe",
    "tid": "c5397890-84be-4e9b-b3cd-b79df0824060",
    "types": [
      "series",
      "1"
    ]
  }
}