{
  "header": {
    "description": "Karaoke Mugen Tag File",
    "version": 1
  },
  "tag": {
    "i18n": {
      "eng": "Scorpiose86"
    },
    "name": "Scorpiose86",
    "repository": "kara.moe",
    "tid": "7a39b2ae-c3e4-477e-a4f6-b12d6c432b71",
    "types": [
      "authors",
      "6"
    ]
  }
}