{
  "header": {
    "description": "Karaoke Mugen Tag File",
    "version": 1
  },
  "tag": {
    "i18n": {
      "eng": "Scott Spock"
    },
    "name": "Scott Spock",
    "repository": "kara.moe",
    "tid": "4d7fd39c-a391-4fe5-b305-a781cd78a20b",
    "types": [
      "songwriters",
      "8"
    ]
  }
}