{
  "header": {
    "description": "Karaoke Mugen Tag File",
    "version": 1
  },
  "tag": {
    "i18n": {
      "eng": "Scott Lang"
    },
    "name": "Scott Lang",
    "tid": "b7df3243-b5a0-47e2-b3a4-99647c74043c",
    "types": [
      "songwriters",
      "8"
    ],
    "repository": "kara.moe",
    "modified_at": "2020-03-31T19:04:37.380Z"
  }
}