{
  "header": {
    "description": "Karaoke Mugen Tag File",
    "version": 1
  },
  "tag": {
    "i18n": {
      "eng": "Scotch"
    },
    "name": "Scotch",
    "repository": "kara.moe",
    "tid": "690e4c0a-fdab-4e68-a954-01c88e8e7265",
    "types": [
      "creators",
      "4"
    ]
  }
}