{
  "header": {
    "description": "Karaoke Mugen Tag File",
    "version": 1
  },
  "tag": {
    "i18n": {
      "eng": "SCRIPT"
    },
    "name": "SCRIPT",
    "tid": "3822b186-28cd-472a-bfee-9b32c5911781",
    "types": [
      "singers",
      "2"
    ],
    "repository": "kara.moe",
    "modified_at": "2020-03-31T19:04:37.382Z"
  }
}