{
  "header": {
    "description": "Karaoke Mugen Tag File",
    "version": 1
  },
  "tag": {
    "aliases": [
      "s-Cry-ed",
      "分身战士"
    ],
    "external_database_ids": {
      "anilist": 168,
      "myanimelist": 168,
      "kitsu": 146
    },
    "i18n": {
      "eng": "s.CRY.ed",
      "fre": "s.CRY.ed",
      "jpn": "スクライド",
      "por": "s-CRY-ed",
      "qro": "Scryed"
    },
    "modified_at": "2020-06-21T23:45:31.966Z",
    "name": "Scryed",
    "repository": "kara.moe",
    "tid": "c1fa8f35-2973-4d39-858a-a20596958669",
    "types": [
      "series",
      "1"
    ]
  }
}