{
  "header": {
    "description": "Karaoke Mugen Tag File",
    "version": 1
  },
  "tag": {
    "i18n": {
      "eng": "Scudelia Electro"
    },
    "name": "Scudelia Electro",
    "tid": "12789d3e-e05d-4a4b-b889-0aad15557539",
    "types": [
      "singers",
      "2"
    ],
    "repository": "kara.moe",
    "modified_at": "2020-03-31T19:04:37.383Z"
  }
}