{
  "header": {
    "description": "Karaoke Mugen Tag File",
    "version": 1
  },
  "tag": {
    "i18n": {
      "eng": "Sea O' Colors"
    },
    "name": "Sea O' Colors",
    "tid": "9bc096a2-ee99-46a3-bb17-921a5fb2ba40",
    "types": [
      "singers",
      "2"
    ],
    "repository": "kara.moe",
    "modified_at": "2020-03-31T19:04:37.383Z"
  }
}