{
  "header": {
    "description": "Karaoke Mugen Tag File",
    "version": 1
  },
  "tag": {
    "i18n": {
      "eng": "Seal"
    },
    "name": "Seal",
    "repository": "kara.moe",
    "tid": "1897e131-452f-4d34-bc3d-03a71d81f86d",
    "types": [
      "songwriters",
      "8"
    ]
  }
}