{
  "header": {
    "description": "Karaoke Mugen Tag File",
    "version": 1
  },
  "tag": {
    "i18n": {
      "eng": "Seán Ó Riada"
    },
    "name": "Seán Ó Riada",
    "repository": "kara.moe",
    "tid": "60177ba1-cfd9-40a6-aec5-499c553f1d68",
    "types": [
      "songwriters",
      "8"
    ]
  }
}