{
  "header": {
    "description": "Karaoke Mugen Tag File",
    "version": 1
  },
  "tag": {
    "i18n": {
      "eng": "Sebastien Najand"
    },
    "name": "Sebastien Najand",
    "tid": "ee493af6-fe48-4475-9023-4bd0fc9873a2",
    "types": [
      "songwriters",
      "8"
    ],
    "repository": "kara.moe",
    "modified_at": "2020-03-31T19:04:37.385Z"
  }
}