{
  "header": {
    "description": "Karaoke Mugen Tag File",
    "version": 1
  },
  "tag": {
    "i18n": {
      "eng": "See-Saw"
    },
    "name": "See-Saw",
    "tid": "50b2bf9a-d450-4581-ac86-008363e7d459",
    "types": [
      "singers",
      "2"
    ],
    "repository": "kara.moe",
    "modified_at": "2020-03-31T19:04:37.387Z"
  }
}