{
  "header": {
    "description": "Karaoke Mugen Tag File",
    "version": 1
  },
  "tag": {
    "i18n": {
      "eng": "Seena Hoshiki"
    },
    "name": "Seena Hoshiki",
    "repository": "kara.moe",
    "tid": "92564931-6a4b-4798-89e2-d393526535cb",
    "types": [
      "singers",
      "2"
    ]
  }
}