{
  "header": {
    "description": "Karaoke Mugen Tag File",
    "version": 1
  },
  "tag": {
    "aliases": [
      "Saber Rider",
      "Sei Juushi Bismarck",
      "sratss",
      "Космический Рыцарь и Звёздные Шерифы",
      "juushi"
    ],
    "external_database_ids": {
      "anilist": 2361,
      "myanimelist": 2361,
      "kitsu": 2139
    },
    "i18n": {
      "ara": "حماة الكواكب",
      "bul": "Конникът и звездните шерифи",
      "eng": "Saber Rider and the Star Sheriffs",
      "fin": "Sapeliratsastaja",
      "fre": "Sab-Rider ‒ Le chevalier au sabre",
      "ger": "Saber Rider and the Star Sheriffs",
      "gre": "Ο Σερίφης του Διαστήματος",
      "heb": "סייבר ריידר",
      "ita": "Sceriffi delle Stelle",
      "jpn": "星銃士 ビスマルク",
      "pol": "Jeździec Srebrnej Szabli",
      "por": "Saber Rider e os Guardiões do Espaço",
      "rum": "Saber Rider şi Şerifii Stelari",
      "slo": "Hviezdny šerif Saber Rider",
      "tur": "Uzay Şövalyeleri",
      "qro": "Sei Jûshi Bismarck"
    },
    "modified_at": "2020-03-31T19:04:32.638Z",
    "name": "Sei Jûshi Bismarck",
    "repository": "kara.moe",
    "tid": "c287c36e-d7d3-4cba-a8a1-5ccf83d169ad",
    "types": [
      "series",
      "1"
    ]
  }
}