{
  "header": {
    "description": "Karaoke Mugen Tag File",
    "version": 1
  },
  "tag": {
    "aliases": [
      "AL",
      "Seihou Tenshi Angel Links",
      "Stellar Angel Angel Links",
      "seihou"
    ],
    "external_database_ids": {
      "anilist": 1226,
      "myanimelist": 1226,
      "kitsu": 1103
    },
    "i18n": {
      "eng": "Angel Links",
      "jpn": "星方天使エンジェルリンクス",
      "qro": "Seihô Tenshi Angel Links"
    },
    "modified_at": "2020-03-31T19:04:32.639Z",
    "name": "Seihô Tenshi Angel Links",
    "repository": "kara.moe",
    "tid": "49e49edc-ad68-4e8d-ad82-583a074bd2e9",
    "types": [
      "series",
      "1"
    ]
  }
}