{
  "header": {
    "description": "Karaoke Mugen Tag File",
    "version": 1
  },
  "tag": {
    "i18n": {
      "eng": "Seiichirô Sugiura"
    },
    "name": "Seiichirô Sugiura",
    "tid": "9b16a165-6179-4393-9bd6-b2503d655231",
    "types": [
      "songwriters",
      "8"
    ],
    "repository": "kara.moe",
    "modified_at": "2020-03-31T19:04:37.391Z"
  }
}