{
  "header": {
    "description": "Karaoke Mugen Tag File",
    "version": 1
  },
  "tag": {
    "i18n": {
      "eng": "Seiji Iwasaki"
    },
    "name": "Seiji Iwasaki",
    "repository": "kara.moe",
    "tid": "1ad4ab34-7a2d-4cab-87ad-0f8ba9366a09",
    "types": [
      "songwriters",
      "8"
    ]
  }
}