{
  "header": {
    "description": "Karaoke Mugen Tag File",
    "version": 1
  },
  "tag": {
    "aliases": [
      "The Power of the Saint Is All Around"
    ],
    "external_database_ids": {
      "anilist": 123802,
      "myanimelist": 42826,
      "kitsu": 44115
    },
    "i18n": {
      "eng": "The Saint's Magic Power Is Omnipotent",
      "jpn": "聖女の魔力は万能です",
      "qro": "Seijo no Maryoku wa Bannou Desu",
      "fre": "The Saint's Magic Power is Omnipotent",
      "chi": "圣女魔力无所不能"
    },
    "modified_at": "2021-09-07T18:52:08.899Z",
    "name": "Seijo no Maryoku wa Bannô Desu",
    "repository": "kara.moe",
    "tid": "f2a9ec14-2b03-4fdf-95bd-e06f3d216247",
    "types": [
      "series",
      "1"
    ]
  }
}