{
  "header": {
    "description": "Karaoke Mugen Tag File",
    "version": 1
  },
  "tag": {
    "i18n": {
      "eng": "Seiji Katsu"
    },
    "name": "Seiji Katsu",
    "tid": "16c063c0-eae1-4ea8-9b6f-2ea233eefbef",
    "types": [
      "songwriters",
      "8"
    ],
    "repository": "kara.moe",
    "modified_at": "2020-03-31T19:04:37.394Z"
  }
}