{
  "header": {
    "description": "Karaoke Mugen Tag File",
    "version": 1
  },
  "tag": {
    "i18n": {
      "eng": "Seiji Koizumi"
    },
    "name": "Seiji Koizumi",
    "tid": "a4460e86-2cfa-4312-9f27-6a6dae6c901e",
    "types": [
      "songwriters",
      "8"
    ],
    "repository": "kara.moe",
    "modified_at": "2020-03-31T19:04:37.394Z"
  }
}