{
  "header": {
    "description": "Karaoke Mugen Tag File",
    "version": 1
  },
  "tag": {
    "aliases": [
      "BFotS",
      "Battle Flag of the Stars",
      "BotS1",
      "SnS1",
      "星界的战旗"
    ],
    "external_database_ids": {
      "anilist": 396,
      "myanimelist": 396,
      "kitsu": 363
    },
    "i18n": {
      "eng": "Banner of the Stars",
      "jpn": "星界の戦旗",
      "kor": "성계의 전기",
      "qro": "Seikai no Senki"
    },
    "modified_at": "2020-03-31T19:04:32.641Z",
    "name": "Seikai no Senki",
    "repository": "kara.moe",
    "tid": "3e5b8e6e-8452-427b-8ac0-a17da4669614",
    "types": [
      "series",
      "1"
    ]
  }
}