{
  "header": {
    "description": "Karaoke Mugen Tag File",
    "version": 1
  },
  "tag": {
    "i18n": {
      "eng": "Seiko Tomizawa"
    },
    "name": "Seiko Tomizawa",
    "tid": "c24b9e65-6f6b-403d-8ced-6b894981f9a3",
    "types": [
      "singers",
      "2"
    ],
    "repository": "kara.moe",
    "modified_at": "2020-03-31T19:04:37.400Z"
  }
}