{
  "header": {
    "description": "Karaoke Mugen Tag File",
    "version": 1
  },
  "tag": {
    "aliases": [
      "Seikaisuru Kado"
    ],
    "external_database_ids": {
      "anilist": 21452,
      "myanimelist": 32032,
      "kitsu": 11490
    },
    "i18n": {
      "eng": "KADO: The Right Answer",
      "jpn": "正解するカド",
      "kor": "카도: The Right Answer",
      "qro": "Seikai Suru Kado"
    },
    "modified_at": "2020-03-31T19:04:32.641Z",
    "name": "Seikai Suru Kado",
    "repository": "kara.moe",
    "tid": "45915df9-fbce-46fe-850f-fd92c4815016",
    "types": [
      "series",
      "1"
    ]
  }
}