{
  "header": {
    "description": "Karaoke Mugen Tag File",
    "version": 1
  },
  "tag": {
    "i18n": {
      "eng": "SEIKA"
    },
    "name": "SEIKA",
    "tid": "c30fec57-cce4-4f0e-9a98-556fc5f2bffc",
    "types": [
      "singers",
      "2"
    ],
    "repository": "kara.moe",
    "modified_at": "2020-03-31T19:04:37.397Z"
  }
}