{
  "header": {
    "description": "Karaoke Mugen Tag File",
    "version": 1
  },
  "tag": {
    "i18n": {
      "eng": "Seiko Matsuda"
    },
    "name": "Seiko Matsuda",
    "tid": "06223703-929e-4d6f-a991-340588709e35",
    "types": [
      "songwriters",
      "8"
    ],
    "repository": "kara.moe",
    "modified_at": "2020-03-31T19:04:37.399Z"
  }
}