{
  "header": {
    "description": "Karaoke Mugen Tag File",
    "version": 1
  },
  "tag": {
    "i18n": {
      "eng": "Seima Iwahashi"
    },
    "name": "Seima Iwahashi",
    "tid": "24926282-3ed9-47bd-867c-404398fbecf9",
    "types": [
      "songwriters",
      "8"
    ],
    "repository": "kara.moe",
    "modified_at": "2020-03-31T19:04:37.401Z"
  }
}