{
  "header": {
    "description": "Karaoke Mugen Tag File",
    "version": 1
  },
  "tag": {
    "i18n": {
      "eng": "Seira"
    },
    "name": "Seira",
    "tid": "ac63c17e-2018-4a93-8beb-32c75c25ba9b",
    "types": [
      "singers",
      "2",
      "songwriters",
      "8"
    ],
    "repository": "kara.moe",
    "modified_at": "2020-03-31T19:04:37.403Z"
  }
}