{
  "header": {
    "description": "Karaoke Mugen Tag File",
    "version": 1
  },
  "tag": {
    "aliases": [
      "SYD 2",
      "Seitokai Yakuindomo Bleep",
      "yakuindomo"
    ],
    "external_database_ids": {
      "anilist": 20448,
      "myanimelist": 20847,
      "kitsu": 8061
    },
    "i18n": {
      "eng": "Seitokai Yakuindomo 2",
      "jpn": "生徒会役員共*",
      "chi": "妄想学生会*",
      "qro": "Seitokai Yakuindomo*"
    },
    "modified_at": "2020-11-21T22:55:26.055Z",
    "name": "Seitokai Yakuindomo*",
    "repository": "kara.moe",
    "tid": "0c98b3e0-d3e0-4cf1-8eb9-6ff8b1f0933e",
    "types": [
      "series",
      "1"
    ]
  }
}