{
  "header": {
    "description": "Karaoke Mugen Tag File",
    "version": 1
  },
  "tag": {
    "i18n": {
      "eng": "Nebula Mask Machine Man",
      "jpn": "星雲仮面マシンマン",
      "qro": "Seiun Kamen Machineman"
    },
    "modified_at": "2020-03-31T19:04:32.651Z",
    "name": "Seiun Kamen Machineman",
    "repository": "kara.moe",
    "tid": "7877f061-37b4-4f4d-94a3-b0de124d6c93",
    "types": [
      "series",
      "1"
    ]
  }
}