{
  "header": {
    "description": "Karaoke Mugen Tag File",
    "version": 1
  },
  "tag": {
    "i18n": {
      "eng": "Sekaikan Ozaki"
    },
    "name": "Sekaikan Ozaki",
    "tid": "6c894356-4749-4671-ade1-b55129f49ede",
    "types": [
      "songwriters",
      "8"
    ],
    "repository": "kara.moe",
    "modified_at": "2020-03-31T19:04:37.405Z"
  }
}