{
  "header": {
    "description": "Karaoke Mugen Tag File",
    "version": 1
  },
  "tag": {
    "external_database_ids": {
      "anilist": 126790,
      "myanimelist": 44275,
      "kitsu": 44211
    },
    "i18n": {
      "eng": "Selection Project"
    },
    "modified_at": "2021-10-22T13:24:38.472Z",
    "name": "Selection Project",
    "repository": "kara.moe",
    "tid": "2e9da73b-19f0-485d-8abb-0936c2e92c70",
    "types": [
      "series",
      "1"
    ]
  }
}