{
  "header": {
    "description": "Karaoke Mugen Tag File",
    "version": 1
  },
  "tag": {
    "i18n": {
      "eng": "Sen"
    },
    "name": "Sen",
    "repository": "kara.moe",
    "tid": "3e9dc20f-b9d9-42dc-b4fc-aac7a057412e",
    "types": [
      "creators",
      "4"
    ]
  }
}