{
  "header": {
    "description": "Karaoke Mugen Tag File",
    "version": 1
  },
  "tag": {
    "i18n": {
      "qro": "Sena Horikoshi",
      "jpn": "堀越 せな"
    },
    "name": "Sena Horikoshi",
    "repository": "kara.moe",
    "tid": "71b806f7-02e2-40e1-b343-3e3bddb331e6",
    "types": [
      "singers",
      "2"
    ]
  }
}