{
  "header": {
    "description": "Karaoke Mugen Tag File",
    "version": 1
  },
  "tag": {
    "i18n": {
      "eng": "Sendra"
    },
    "name": "Sendra",
    "tid": "f8a10c4d-4cf9-4b2e-9f66-6bf1d6eaddf9",
    "types": [
      "songwriters",
      "8"
    ],
    "repository": "kara.moe",
    "modified_at": "2020-03-31T19:04:37.408Z"
  }
}