{
  "header": {
    "description": "Karaoke Mugen Tag File",
    "version": 1
  },
  "tag": {
    "i18n": {
      "eng": "Senfbussard"
    },
    "modified_at": "2021-11-21T21:41:58.348Z",
    "name": "Senfbussard",
    "repository": "kara.moe",
    "tid": "2a0cbef6-2e78-42c3-8eae-101a3e472348",
    "types": [
      "authors",
      "6"
    ]
  }
}