{
  "header": {
    "description": "Karaoke Mugen Tag File",
    "version": 1
  },
  "tag": {
    "aliases": [
      "Sengoku Basara 2",
      "Sengoku Basara Two",
      "战国BASARA 2"
    ],
    "external_database_ids": {
      "anilist": 6634,
      "myanimelist": 6634,
      "kitsu": 4643
    },
    "i18n": {
      "eng": "Sengoku Basara: Samurai Kings 2",
      "jpn": "戦国BASARA弐",
      "qro": "Sengoku BASARA Ni"
    },
    "modified_at": "2020-03-31T19:04:32.660Z",
    "name": "Sengoku BASARA Ni",
    "repository": "kara.moe",
    "tid": "3b304d49-ae04-450e-be42-21a4c301834a",
    "types": [
      "series",
      "1"
    ]
  }
}