{
  "header": {
    "description": "Karaoke Mugen Tag File",
    "version": 1
  },
  "tag": {
    "aliases": [
      "Civil War Devil-God GoShogun",
      "Demon God of the War-Torn Land GoShogun",
      "GoShogun",
      "Gotriniton",
      "Sengoku Majin Goshogun",
      "Sengoku Majin Goushougun",
      "Warring Demon God GoShogun",
      "goushougun"
    ],
    "external_database_ids": {
      "anilist": 2510,
      "myanimelist": 2510,
      "kitsu": 2276
    },
    "i18n": {
      "eng": "Macron 1",
      "fre": "Fulgutor",
      "gre": "Ομάδα διάσωσης Macron 1",
      "heb": "מקרון 1",
      "jpn": "戦国魔神ゴーショーグン",
      "rum": "Macron 1",
      "qro": "Sengoku Majin Gôshôgun"
    },
    "modified_at": "2020-03-31T19:04:32.663Z",
    "name": "Sengoku Majin Gôshôgun",
    "repository": "kara.moe",
    "tid": "8b3ca09f-ce2a-449e-bf21-4e85f7ec0ecd",
    "types": [
      "series",
      "1"
    ]
  }
}