{
  "header": {
    "description": "Karaoke Mugen Tag File",
    "version": 1
  },
  "tag": {
    "external_database_ids": {
      "anilist": 10308,
      "myanimelist": 10308,
      "kitsu": 6123
    },
    "i18n": {
      "eng": "Battle Girls: Time Paradox",
      "jpn": "戦国乙女～桃色パラドックス～",
      "qro": "Sengoku Otome ~ Momoiro Paradox"
    },
    "modified_at": "2020-03-31T19:04:32.664Z",
    "name": "Sengoku Otome ~ Momoiro Paradox",
    "repository": "kara.moe",
    "tid": "41f71de7-19b7-4198-8822-3c9f93fd886a",
    "types": [
      "series",
      "1"
    ]
  }
}