{
  "header": {
    "description": "Karaoke Mugen Tag File",
    "version": 1
  },
  "tag": {
    "aliases": [
      "Senki Zesshou Symphogear",
      "zesshou"
    ],
    "external_database_ids": {
      "anilist": 11751,
      "myanimelist": 11751,
      "kitsu": 6587
    },
    "i18n": {
      "eng": "Symphogear",
      "jpn": "戦姫絶唱シンフォギア",
      "qro": "Senki Zesshô Symphogear"
    },
    "modified_at": "2020-03-31T19:04:32.669Z",
    "name": "Senki Zesshô Symphogear",
    "repository": "kara.moe",
    "tid": "61b24082-a6a9-482b-b126-0ad7be595791",
    "types": [
      "series",
      "1",
      "franchises",
      "18"
    ]
  }
}