{
  "header": {
    "description": "Karaoke Mugen Tag File",
    "version": 1
  },
  "tag": {
    "aliases": [
      "Senki Zesshou Symphogear G",
      "zesshou"
    ],
    "external_database_ids": {
      "anilist": 15793,
      "myanimelist": 15793,
      "kitsu": 7311
    },
    "i18n": {
      "eng": "Symphogear G",
      "jpn": "戦姫絶唱シンフォギア G",
      "qro": "Senki Zesshô Symphogear G"
    },
    "modified_at": "2020-03-31T19:04:32.666Z",
    "name": "Senki Zesshô Symphogear G",
    "repository": "kara.moe",
    "tid": "f56a6158-95bb-4dc3-a8fc-2626a9a9b89e",
    "types": [
      "series",
      "1"
    ]
  }
}