{
  "header": {
    "description": "Karaoke Mugen Tag File",
    "version": 1
  },
  "tag": {
    "aliases": [
      "Blazing Night Raid",
      "Greitasis Naktinis Reidas",
      "Nightraid",
      "Raidul de noapte.",
      "Senkou no Night Raid",
      "SnNR",
      "Огни Ночного Рейда",
      "闪光的夜袭",
      "senkou"
    ],
    "external_database_ids": {
      "anilist": 6973,
      "myanimelist": 6973,
      "kitsu": 4813
    },
    "i18n": {
      "eng": "Night Raid 1931",
      "jpn": "閃光のナイトレイド",
      "qro": "Senkô no Night Raid"
    },
    "modified_at": "2020-06-21T23:45:31.966Z",
    "name": "Senkô no Night Raid",
    "repository": "kara.moe",
    "tid": "3022822d-8b2d-47a3-9a47-4251f21cddf6",
    "types": [
      "series",
      "1"
    ]
  }
}