{
  "header": {
    "description": "Karaoke Mugen Tag File",
    "version": 1
  },
  "tag": {
    "aliases": [
      "Senran Kagura 2nd Season ",
      "Senran Kagura: Shinovi Master - Tokyo Youma Chapter",
      "Senran Kagura: Shinovi Master - Tokyo Youma Hen",
      "youma"
    ],
    "external_database_ids": {
      "anilist": 102822,
      "myanimelist": 36037,
      "kitsu": 13690
    },
    "i18n": {
      "eng": "Senran Kagura: Shinovi Master - Tokyo Yôma Chapter",
      "fre": "Senran Kagura Shinovi Master",
      "jpn": "閃乱カグラ SHINOVI MASTER -東京妖魔篇-",
      "qro": "Senran Kagura: Shinovi Master - Tokyo Yôma Hen"
    },
    "modified_at": "2020-03-31T19:04:32.673Z",
    "name": "Senran Kagura: Shinovi Master - Tokyo Yôma Hen",
    "repository": "kara.moe",
    "tid": "2d03ad19-117b-4ec5-b60d-82aafa7a30d5",
    "types": [
      "series",
      "1"
    ]
  }
}