{
  "header": {
    "description": "Karaoke Mugen Tag File",
    "version": 1
  },
  "tag": {
    "i18n": {
      "eng": "SENTIVE"
    },
    "name": "SENTIVE",
    "tid": "8ef68527-9ef7-4fd5-b8e4-64cdf80d0ddd",
    "types": [
      "singers",
      "2",
      "songwriters",
      "8"
    ],
    "repository": "kara.moe",
    "modified_at": "2020-03-31T19:04:37.411Z"
  }
}