{
  "header": {
    "description": "Karaoke Mugen Tag File",
    "version": 1
  },
  "tag": {
    "aliases": [
      "Haken Shimasu"
    ],
    "external_database_ids": {
      "anilist": 116588,
      "kitsu": 43837,
      "myanimelist": 41456
    },
    "i18n": {
      "eng": "Combatants Will Be Dispatched!",
      "fre": "Les combattants seront déployés !",
      "jpn": "戦闘員、派遣します！",
      "qro": "Sentouin, hakenshimasu!"
    },
    "name": "Sentouin, hakenshimasu!",
    "repository": "kara.moe",
    "tid": "8f9346c6-810a-44f9-b96c-189f5c193c4b",
    "types": [
      "series",
      "1"
    ]
  }
}