{
  "header": {
    "description": "Karaoke Mugen Tag File",
    "version": 1
  },
  "tag": {
    "aliases": [
      "Sigururi",
      "Battle Wing Sigrdrifa"
    ],
    "external_database_ids": {
      "anilist": 116173,
      "myanimelist": 41372,
      "kitsu": 43029
    },
    "i18n": {
      "eng": "Warlords of Sigrdrifa",
      "fre": "Senyoku no Sigrdrifa",
      "jpn": "戦翼のシグルドリーヴァ",
      "qro": "Senyoku no Sigrdrifa"
    },
    "modified_at": "2020-10-29T22:30:04.718Z",
    "name": "Senyoku no Sigrdrifa",
    "repository": "kara.moe",
    "tid": "287f3a6e-53d9-4cff-aaaa-4b6ef38bb5da",
    "types": [
      "series",
      "1"
    ]
  }
}