{
  "header": {
    "description": "Karaoke Mugen Tag File",
    "version": 1
  },
  "tag": {
    "i18n": {
      "eng": "Seo Jae Wu"
    },
    "name": "Seo Jae Wu",
    "tid": "9b3a1a85-f379-495d-8840-f8582d935e7d",
    "types": [
      "songwriters",
      "8"
    ],
    "repository": "kara.moe",
    "modified_at": "2020-03-31T19:04:37.413Z"
  }
}