{
  "header": {
    "description": "Karaoke Mugen Tag File",
    "version": 1
  },
  "tag": {
    "i18n": {
      "eng": "Seo Yong Bae"
    },
    "name": "Seo Yong Bae",
    "tid": "72c08da0-ecc5-4db1-84c7-047304b375cb",
    "types": [
      "songwriters",
      "8"
    ],
    "repository": "kara.moe",
    "modified_at": "2020-03-31T19:04:37.414Z"
  }
}