{
  "header": {
    "description": "Karaoke Mugen Tag File",
    "version": 1
  },
  "tag": {
    "i18n": {
      "fre": "Serge Fiori"
    },
    "name": "Serge Fiori",
    "repository": "kara.moe",
    "tid": "22d1c792-4770-4d03-9880-698d3be2a6de",
    "types": [
      "songwriters",
      "8",
      "singers",
      "2"
    ]
  }
}