{
  "header": {
    "description": "Karaoke Mugen Tag File",
    "version": 1
  },
  "tag": {
    "i18n": {
      "eng": "Sergio Cabral"
    },
    "name": "Sergio Cabral",
    "tid": "37807c5f-da47-4205-82df-364aec02debc",
    "types": [
      "songwriters",
      "8"
    ],
    "repository": "kara.moe",
    "modified_at": "2020-03-31T19:04:37.416Z"
  }
}