{
  "header": {
    "description": "Karaoke Mugen Tag File",
    "version": 1
  },
  "tag": {
    "i18n": {
      "eng": "Serge Liberovsky"
    },
    "name": "Serge Liberovsky",
    "repository": "kara.moe",
    "tid": "06f16ab3-2d5f-4583-bcf7-4fd80df6860b",
    "types": [
      "singers",
      "2"
    ]
  }
}