{
  "header": {
    "description": "Karaoke Mugen Tag File",
    "version": 1
  },
  "tag": {
    "i18n": {
      "eng": "Serge Besset"
    },
    "name": "Serge Besset",
    "tid": "b8b2d28e-8673-457a-8cc6-bc037978ae8d",
    "types": [
      "songwriters",
      "8"
    ],
    "repository": "kara.moe",
    "modified_at": "2020-03-31T19:04:37.415Z"
  }
}