{
  "header": {
    "description": "Karaoke Mugen Tag File",
    "version": 1
  },
  "tag": {
    "i18n": {
      "eng": "Serph"
    },
    "name": "Serph",
    "repository": "kara.moe",
    "tid": "799d0898-a6a3-4cef-b672-1dbad23d7533",
    "types": [
      "singers",
      "2"
    ]
  }
}