{
  "header": {
    "description": "Karaoke Mugen Tag File",
    "version": 1
  },
  "tag": {
    "i18n": {
      "eng": "Set It Off"
    },
    "name": "Set It Off",
    "repository": "kara.moe",
    "tid": "dd421d1d-0f1e-4eda-9955-c184b6121cb9",
    "types": [
      "songwriters",
      "8",
      "singers",
      "2"
    ]
  }
}