{
  "header": {
    "description": "Karaoke Mugen Tag File",
    "version": 1
  },
  "tag": {
    "aliases": [
      "Ho sposato una sirena",
      "La Prometida de Seto",
      "Setohana",
      "SnH",
      "The Inland Sea Bride",
      "Морская Невеста",
      "濑户的花嫁"
    ],
    "external_database_ids": {
      "anilist": 2104,
      "myanimelist": 2104,
      "kitsu": 1903
    },
    "i18n": {
      "eng": "My Bride Is a Mermaid",
      "fre": "Seto no Hanayome",
      "jpn": "瀬戸の花嫁",
      "kor": "세토의 신부",
      "spa": "Mi novia es una sirena",
      "qro": "Seto no Hanayome"
    },
    "modified_at": "2020-03-31T19:04:32.680Z",
    "name": "Seto no Hanayome",
    "repository": "kara.moe",
    "tid": "833551d7-0234-4965-ba7b-2bddf2f78ffc",
    "types": [
      "series",
      "1",
      "franchises",
      "18"
    ]
  }
}