{
  "header": {
    "description": "Karaoke Mugen Tag File",
    "version": 1
  },
  "tag": {
    "i18n": {
      "eng": "Setsuko"
    },
    "name": "Setsuko",
    "repository": "kara.moe",
    "tid": "d8972dfa-ff07-42dc-835c-67fec0bbe2b5",
    "types": [
      "songwriters",
      "8",
      "singers",
      "2"
    ]
  }
}