{
  "header": {
    "description": "Karaoke Mugen Tag File",
    "version": 1
  },
  "tag": {
    "i18n": {
      "eng": "setzer"
    },
    "modified_at": "2020-08-27T18:38:38.658Z",
    "name": "setzer",
    "repository": "kara.moe",
    "tid": "d0903f9c-4f2b-4d84-89a3-fbc61f13080a",
    "types": [
      "songwriters",
      "8"
    ]
  }
}