{
  "header": {
    "description": "Karaoke Mugen Tag File",
    "version": 1
  },
  "tag": {
    "i18n": {
      "eng": "Seven"
    },
    "name": "Seven",
    "tid": "21533508-83f1-47dd-95a6-c5d2713c0523",
    "types": [
      "creators",
      "4"
    ],
    "repository": "kara.moe",
    "modified_at": "2020-03-31T19:04:37.422Z"
  }
}