{
  "header": {
    "description": "Karaoke Mugen Tag File",
    "version": 1
  },
  "tag": {
    "i18n": {
      "eng": "Severo Lombardoni"
    },
    "name": "Severo Lombardoni",
    "repository": "kara.moe",
    "tid": "bbd81a6f-716c-459d-885c-f97468375ed8",
    "types": [
      "songwriters",
      "8"
    ]
  }
}