{
  "header": {
    "description": "Karaoke Mugen Tag File",
    "version": 1
  },
  "tag": {
    "i18n": {
      "eng": "sex MACHINEGUNS"
    },
    "name": "sex MACHINEGUNS",
    "tid": "65a9c3f5-89cb-410d-860a-9fdf677783ca",
    "types": [
      "singers",
      "2"
    ],
    "repository": "kara.moe",
    "modified_at": "2020-03-31T19:04:37.423Z"
  }
}