{
  "header": {
    "description": "Karaoke Mugen Tag File",
    "version": 1
  },
  "tag": {
    "aliases": [
      "Sexy Commando Side Story: Amazing! Masaru"
    ],
    "external_database_ids": {
      "anilist": 582,
      "myanimelist": 582,
      "kitsu": 538
    },
    "i18n": {
      "eng": "Sexy Commando Gaiden: Sugoi yo!! Masaru-san",
      "jpn": "セクシーコマンドー外伝 すごいよ!! マサルさん",
      "qro": "Sexy Commando Gaiden Sugoi yo!! Masaru-san"
    },
    "modified_at": "2020-03-31T19:04:32.682Z",
    "name": "Sexy Commando Gaiden Sugoi yo!! Masaru-san",
    "repository": "kara.moe",
    "tid": "966acc89-1a14-48cc-b716-506212e1356c",
    "types": [
      "series",
      "1"
    ]
  }
}