{
  "header": {
    "description": "Karaoke Mugen Tag File",
    "version": 1
  },
  "tag": {
    "i18n": {
      "eng": "SeYUN"
    },
    "name": "SeYUN",
    "tid": "8044f0e8-fc60-4f75-a19b-dffc76fd57a4",
    "types": [
      "singers",
      "2"
    ],
    "repository": "kara.moe",
    "modified_at": "2020-03-31T19:04:37.423Z"
  }
}