{
  "header": {
    "description": "Karaoke Mugen Tag File",
    "version": 1
  },
  "tag": {
    "aliases": [
      "シャドーハウス"
    ],
    "external_database_ids": {
      "anilist": 125038,
      "kitsu": 43820,
      "myanimelist": 43439
    },
    "i18n": {
      "eng": "SHADOWS HOUSE"
    },
    "name": "Shadows House",
    "repository": "kara.moe",
    "tid": "235b6098-78d6-4933-bc29-dbfe8da4e775",
    "types": [
      "franchises",
      "18",
      "series",
      "1"
    ]
  }
}