{
  "header": {
    "description": "Karaoke Mugen Tag File",
    "version": 1
  },
  "tag": {
    "aliases": [
      "シャドーハウス"
    ],
    "external_database_ids": {
      "anilist": 139093,
      "kitsu": 45155,
      "myanimelist": 49782
    },
    "i18n": {
      "eng": "SHADOWS HOUSE 2nd Season",
      "fre": "SHADOWS HOUSE (saison 2)"
    },
    "name": "SHADOWS HOUSE 2nd Season",
    "repository": "kara.moe",
    "tid": "f631bc41-449b-4c18-9366-b2e82f11498e",
    "types": [
      "series",
      "1"
    ]
  }
}