{
  "header": {
    "description": "Karaoke Mugen Tag File",
    "version": 1
  },
  "tag": {
    "external_database_ids": {
      "anilist": 112325,
      "myanimelist": 40506,
      "kitsu": 42613
    },
    "i18n": {
      "eng": "Shadowverse",
      "jpn": "シャドウバース",
      "qro": "Shadowverse",
      "chi": "闇影詩章"
    },
    "name": "Shadowverse",
    "repository": "kara.moe",
    "tid": "a7aa103a-bc3b-4a34-8560-51ed4bc4f85d",
    "types": [
      "series",
      "1"
    ]
  }
}