{
  "header": {
    "description": "Karaoke Mugen Tag File",
    "version": 1
  },
  "tag": {
    "aliases": [
      "Isabel Mebarak Ripoll"
    ],
    "i18n": {
      "eng": "Shakira"
    },
    "name": "Shakira",
    "repository": "kara.moe",
    "tid": "a6cf792d-9115-47dd-ae07-ae41735dd803",
    "types": [
      "singers",
      "2",
      "songwriters",
      "8"
    ]
  }
}