{
  "header": {
    "description": "Karaoke Mugen Tag File",
    "version": 1
  },
  "tag": {
    "aliases": [
      "SK",
      "Shaman King Remake"
    ],
    "external_database_ids": {
      "anilist": 119675,
      "myanimelist": 42205,
      "kitsu": 43222
    },
    "i18n": {
      "eng": "Shaman King (2021)",
      "jpn": "シャーマンキング",
      "qro": "Shaman King (2021)"
    },
    "modified_at": "2021-04-05T11:14:49.697Z",
    "name": "Shaman King (2021)",
    "repository": "kara.moe",
    "tid": "46a1358e-e3ae-4e11-ac9c-d31b5fdec2aa",
    "types": [
      "series",
      "1"
    ]
  }
}