{
  "header": {
    "description": "Karaoke Mugen Tag File",
    "version": 1
  },
  "tag": {
    "i18n": {
      "eng": "Shannon Chan-Kent"
    },
    "name": "Shannon Chan-Kent",
    "tid": "ab87b5e8-f7d3-4581-95be-fee84288b688",
    "types": [
      "singers",
      "2"
    ],
    "repository": "kara.moe",
    "modified_at": "2020-03-31T19:04:37.428Z"
  }
}