{
  "header": {
    "description": "Karaoke Mugen Tag File",
    "version": 1
  },
  "tag": {
    "i18n": {
      "eng": "Shanxia UT"
    },
    "name": "Shanxia UT",
    "repository": "kara.moe",
    "tid": "dac74f3e-2b42-47fd-a52a-f45bf5d81066",
    "types": [
      "creators",
      "4"
    ]
  }
}