{
  "header": {
    "description": "Karaoke Mugen Tag File",
    "version": 1
  },
  "tag": {
    "aliases": [
      "Shangrila",
      "شانغريلا",
      "香格里拉"
    ],
    "external_database_ids": {
      "anilist": 5220,
      "myanimelist": 5220,
      "kitsu": 3995
    },
    "i18n": {
      "eng": "Shangri-La",
      "jpn": "シャングリ・ラ",
      "kor": "샹그리라",
      "qro": "Shangri-La"
    },
    "modified_at": "2020-03-31T19:04:32.687Z",
    "name": "Shangri-La",
    "repository": "kara.moe",
    "tid": "6022a638-ccd8-4440-9656-199bfb18494b",
    "types": [
      "series",
      "1"
    ]
  }
}