{
  "header": {
    "description": "Karaoke Mugen Tag File",
    "version": 1
  },
  "tag": {
    "i18n": {
      "eng": "Sharon den Adel"
    },
    "modified_at": "2021-06-06T00:32:19.723Z",
    "name": "Sharon den Adel",
    "repository": "kara.moe",
    "tid": "ec2bcef2-1342-4a64-adad-672002f56658",
    "types": [
      "songwriters",
      "8"
    ]
  }
}