{
  "header": {
    "description": "Karaoke Mugen Tag File",
    "version": 1
  },
  "tag": {
    "i18n": {
      "eng": "Sharin no Kuni: The Girl Among the Sunflowers",
      "jpn": "車輪の国、向日葵の少女",
      "qro": "Sharin no Kuni Himawari no Shoujo"
    },
    "modified_at": "2020-03-31T19:04:32.689Z",
    "name": "Sharin no Kuni Himawari no Shoujo",
    "repository": "kara.moe",
    "tid": "a639c4eb-75b5-4c6c-973d-9f7973ac3c35",
    "types": [
      "series",
      "1"
    ]
  }
}