{
  "header": {
    "description": "Karaoke Mugen Tag File",
    "version": 1
  },
  "tag": {
    "i18n": {
      "eng": "Sharleen Spiteri"
    },
    "name": "Sharleen Spiteri",
    "repository": "kara.moe",
    "tid": "e619e5da-7cc5-4741-a76f-33aaf7a20287",
    "types": [
      "songwriters",
      "8"
    ]
  }
}