{
  "header": {
    "description": "Karaoke Mugen Tag File",
    "version": 1
  },
  "tag": {
    "i18n": {
      "eng": "Shaun Gibson"
    },
    "name": "Shaun Gibson",
    "repository": "kara.moe",
    "tid": "08585011-ec44-4e0b-a896-43a2c96ec1c7",
    "types": [
      "singers",
      "2"
    ]
  }
}