{
  "header": {
    "description": "Karaoke Mugen Tag File",
    "version": 1
  },
  "tag": {
    "i18n": {
      "eng": "Shawny193"
    },
    "name": "Shawny193",
    "repository": "kara.moe",
    "tid": "c7ffeed8-8c9c-47c5-8146-96fb2886b391",
    "types": [
      "creators",
      "4"
    ]
  }
}