{
  "header": {
    "description": "Karaoke Mugen Tag File",
    "version": 1
  },
  "tag": {
    "i18n": {
      "eng": "Shawn Conrad"
    },
    "modified_at": "2021-10-15T17:36:55.489Z",
    "name": "Shawn Conrad",
    "repository": "kara.moe",
    "tid": "11ebebfd-b070-47c4-a4d3-f27682c62645",
    "types": [
      "singers",
      "2"
    ]
  }
}