{
  "header": {
    "description": "Karaoke Mugen Tag File",
    "version": 1
  },
  "tag": {
    "i18n": {
      "eng": "SHAZNA"
    },
    "name": "SHAZNA",
    "repository": "kara.moe",
    "tid": "7ec80de9-21bb-47ec-a4b6-40d50068921b",
    "types": [
      "songwriters",
      "8",
      "singers",
      "2"
    ]
  }
}