{
  "header": {
    "description": "Karaoke Mugen Tag File",
    "version": 1
  },
  "tag": {
    "i18n": {
      "chi": "笙秋",
      "qro": "Shēng qiū"
    },
    "name": "Shēng qiū",
    "repository": "kara.moe",
    "tid": "77e9b888-8466-453c-9a99-8e15a17daa61",
    "types": [
      "creators",
      "4"
    ]
  }
}