{
  "header": {
    "description": "Karaoke Mugen Tag File",
    "version": 1
  },
  "tag": {
    "i18n": {
      "eng": "Shibata Isao"
    },
    "name": "Shibata Isao",
    "tid": "95beb3e1-968d-471e-8680-23a0edaa5f5b",
    "types": [
      "singers",
      "2"
    ],
    "repository": "kara.moe",
    "modified_at": "2020-03-31T19:04:37.432Z"
  }
}