{
  "header": {
    "description": "Karaoke Mugen Tag File",
    "version": 1
  },
  "tag": {
    "external_database_ids": {
      "anilist": 100085,
      "myanimelist": 36316,
      "kitsu": 40893
    },
    "i18n": {
      "eng": "Seven Senses of the Reunion",
      "fre": "Shichisei no Subaru",
      "jpn": "七星のスバル ",
      "qro": "Shichisei no Subaru"
    },
    "modified_at": "2020-03-31T19:04:32.690Z",
    "name": "Shichisei no Subaru",
    "repository": "kara.moe",
    "tid": "ad900f13-7b34-4f43-a5f4-8efcf5e6bd82",
    "types": [
      "series",
      "1"
    ]
  }
}