{
  "header": {
    "description": "Karaoke Mugen Tag File",
    "version": 1
  },
  "tag": {
    "i18n": {
      "jpn": "原田 茂幸",
      "qro": "Shigeyuki Harada"
    },
    "name": "Shigeyuki Harada",
    "repository": "kara.moe",
    "tid": "155c7602-0358-4bcb-940f-eaa63d63901f",
    "types": [
      "songwriters",
      "8"
    ]
  }
}