{
  "header": {
    "description": "Karaoke Mugen Tag File",
    "version": 1
  },
  "tag": {
    "i18n": {
      "eng": "Shigeru Kishida"
    },
    "name": "Shigeru Kishida",
    "tid": "50a4342d-abb8-4f01-a50c-2f4e922b5046",
    "types": [
      "songwriters",
      "8"
    ],
    "repository": "kara.moe",
    "modified_at": "2020-03-31T19:04:37.439Z"
  }
}