{
  "header": {
    "description": "Karaoke Mugen Tag File",
    "version": 1
  },
  "tag": {
    "i18n": {
      "eng": "Shigeki Sako"
    },
    "name": "Shigeki Sako",
    "tid": "a8d96b88-880d-4204-8038-04a10ee132a5",
    "types": [
      "songwriters",
      "8"
    ],
    "repository": "kara.moe",
    "modified_at": "2020-03-31T19:04:37.436Z"
  }
}