{
  "header": {
    "description": "Karaoke Mugen Tag File",
    "version": 1
  },
  "tag": {
    "i18n": {
      "eng": "Shigeru Matsuzaki"
    },
    "name": "Shigeru Matsuzaki",
    "tid": "5f69c7c1-a5a1-428f-8ea2-2be72fc6e981",
    "types": [
      "singers",
      "2"
    ],
    "repository": "kara.moe",
    "modified_at": "2020-03-31T19:04:37.440Z"
  }
}