{
  "header": {
    "description": "Karaoke Mugen Tag File",
    "version": 1
  },
  "tag": {
    "i18n": {
      "eng": "Link Click",
      "chi": "时光代理人",
      "qro": "Shiguang Dailiren"
    },
    "name": "Shiguang Dailiren",
    "repository": "kara.moe",
    "tid": "9cdbe29f-d228-4b0f-9d87-adf90c039568",
    "types": [
      "franchises",
      "18"
    ]
  }
}