{
  "header": {
    "description": "Karaoke Mugen Tag File",
    "version": 1
  },
  "tag": {
    "i18n": {
      "eng": "Shiho Kokido"
    },
    "name": "Shiho Kokido",
    "tid": "3c112243-36f0-4b8e-8550-c11299d10266",
    "types": [
      "singers",
      "2"
    ],
    "repository": "kara.moe",
    "modified_at": "2020-03-31T19:04:37.444Z"
  }
}