{
  "header": {
    "description": "Karaoke Mugen Tag File",
    "version": 1
  },
  "tag": {
    "aliases": [
      "Shihori"
    ],
    "i18n": {
      "jpn": "中根しほり",
      "qro": "Shiori Nakane"
    },
    "name": "Shihori Nakane",
    "repository": "kara.moe",
    "tid": "8ac88d22-022b-4d8e-a806-b27551a9b0d5",
    "types": [
      "songwriters",
      "8",
      "singers",
      "2"
    ]
  }
}