{
  "header": {
    "description": "Karaoke Mugen Tag File",
    "version": 1
  },
  "tag": {
    "i18n": {
      "eng": "Shiho Terada"
    },
    "name": "Shiho Terada",
    "repository": "kara.moe",
    "tid": "672c6e3c-7837-4932-811b-b27e29a861b3",
    "types": [
      "songwriters",
      "8"
    ]
  }
}