{
  "header": {
    "description": "Karaoke Mugen Tag File",
    "version": 1
  },
  "tag": {
    "aliases": [
      "Saikyou",
      "Shikkakumon",
      "Disqualified",
      "失格紋的最強賢者"
    ],
    "external_database_ids": {
      "anilist": 129191,
      "kitsu": 44025,
      "myanimelist": 47161
    },
    "i18n": {
      "eng": "The Strongest Sage with the Weakest Crest",
      "jpn": "失格紋の最強賢者",
      "qro": "Shikkaku Mon no Saikyô Kenja",
      "ger": "Der stärkste Held mit dem Mal der Schwäche",
      "rus": "Сильнейший мудрец со слабейшей меткой",
      "chi": "失格纹的最强贤者"
    },
    "name": "Shikkaku Mon no Saikyô Kenja",
    "repository": "kara.moe",
    "tid": "89271503-230c-4190-880c-c9b316085ce1",
    "types": [
      "series",
      "1"
    ]
  }
}