{
  "header": {
    "description": "Karaoke Mugen Tag File",
    "version": 1
  },
  "tag": {
    "aliases": [
      "SH",
      "SH:Aka",
      "Принцеса-мрець",
      "Принцесса Немертвых: Красная хроника",
      "尸姬 赫"
    ],
    "external_database_ids": {
      "anilist": 4581,
      "kitsu": 7666,
      "myanimelist": 4581
    },
    "i18n": {
      "eng": "Corpse Princess: Aka",
      "jpn": "屍姫 赫",
      "qro": "Shikabane Hime: Aka"
    },
    "name": "Shikabane Hime: Aka",
    "repository": "kara.moe",
    "tid": "769c1e22-3320-4b8e-b380-07a19b824811",
    "types": [
      "series",
      "1"
    ]
  }
}