{
  "header": {
    "description": "Karaoke Mugen Tag File",
    "version": 1
  },
  "tag": {
    "i18n": {
      "eng": "Shikô Gakuen Seitokai"
    },
    "name": "Shikô Gakuen Seitokai",
    "tid": "d8120240-7cda-4c63-b94d-544b40110cf9",
    "types": [
      "singers",
      "2"
    ],
    "repository": "kara.moe",
    "modified_at": "2020-03-31T19:04:37.450Z"
  }
}