{
  "header": {
    "description": "Karaoke Mugen Tag File",
    "version": 1
  },
  "tag": {
    "i18n": {
      "eng": "Shin Ji Hoon"
    },
    "name": "Shin Ji Hoon",
    "tid": "fa0d6432-cc4e-471b-8c2b-a6d6b356197b",
    "types": [
      "singers",
      "2"
    ],
    "repository": "kara.moe",
    "modified_at": "2020-03-31T19:04:37.454Z"
  }
}