{
  "header": {
    "description": "Karaoke Mugen Tag File",
    "version": 1
  },
  "tag": {
    "i18n": {
      "eng": "Shin Nohata"
    },
    "name": "Shin Nohata",
    "tid": "409c02e8-6ebe-4327-ad62-21f824e8e8db",
    "types": [
      "songwriters",
      "8"
    ],
    "repository": "kara.moe",
    "modified_at": "2020-03-31T19:04:37.457Z"
  }
}