{
  "header": {
    "description": "Karaoke Mugen Tag File",
    "version": 1
  },
  "tag": {
    "i18n": {
      "eng": "Shin'onuke Furumoto"
    },
    "name": "Shin'onuke Furumoto",
    "tid": "ff65cad0-222f-45d2-91a3-0a058ccb4317",
    "types": [
      "singers",
      "2"
    ],
    "repository": "kara.moe",
    "modified_at": "2020-03-31T19:04:37.474Z"
  }
}