{
  "header": {
    "description": "Karaoke Mugen Tag File",
    "version": 1
  },
  "tag": {
    "i18n": {
      "jpn": "新すばらしきこのせかい",
      "qro": "Shin Kono Subarashiki Sekai",
      "eng": "NEO: The World Ends with You"
    },
    "name": "Shin Kono Subarashiki Sekai",
    "repository": "kara.moe",
    "tid": "67ce4a29-543c-48c6-93b4-6144b4a308b7",
    "types": [
      "series",
      "1"
    ]
  }
}