{
  "header": {
    "description": "Karaoke Mugen Tag File",
    "version": 1
  },
  "tag": {
    "aliases": [
      "Dvasių Medžioklė",
      "Hayalet Takibi",
      "Охота на Призраков",
      "Призрачна хрътка",
      "神灵狩 神霊狩"
    ],
    "external_database_ids": {
      "anilist": 2596,
      "myanimelist": 2596,
      "kitsu": 2360
    },
    "i18n": {
      "eng": "Ghost Hound",
      "fre": "Ghost Hound",
      "hun": "Szellemvadászok - Ghost Hound",
      "jpn": "神霊狩 GHOST HOUND",
      "spa": "Ghost Hound",
      "qro": "Shinreigari: Ghost Hound"
    },
    "modified_at": "2020-03-31T19:04:32.732Z",
    "name": "Shinreigari: Ghost Hound",
    "repository": "kara.moe",
    "tid": "c8d42411-f111-4e4d-8811-47f752d01900",
    "types": [
      "series",
      "1"
    ]
  }
}