{
  "header": {
    "description": "Karaoke Mugen Tag File",
    "version": 1
  },
  "tag": {
    "i18n": {
      "eng": "Shinkûkan"
    },
    "modified_at": "2020-12-30T13:57:36.890Z",
    "name": "Shinkûkan",
    "repository": "kara.moe",
    "tid": "0df5735a-17e2-4d39-b511-9db71c4bb8b5",
    "types": [
      "creators",
      "4"
    ]
  }
}