{
  "header": {
    "description": "Karaoke Mugen Tag File",
    "version": 1
  },
  "tag": {
    "i18n": {
      "eng": "Shin Hyuk"
    },
    "name": "Shin Hyuk",
    "tid": "37782bb7-b01e-4f18-9f80-f4e010162754",
    "types": [
      "songwriters",
      "8"
    ],
    "repository": "kara.moe",
    "modified_at": "2020-03-31T19:04:37.454Z"
  }
}