{
  "header": {
    "description": "Karaoke Mugen Tag File",
    "version": 1
  },
  "tag": {
    "i18n": {
      "eng": "Shin'ichirô Yamashita"
    },
    "name": "Shin'ichirô Yamashita",
    "tid": "c2bc8bd5-64d4-45df-82bc-48aea2ec29f0",
    "types": [
      "songwriters",
      "8"
    ],
    "repository": "kara.moe",
    "modified_at": "2020-03-31T19:04:37.474Z"
  }
}