{
  "header": {
    "description": "Karaoke Mugen Tag File",
    "version": 1
  },
  "tag": {
    "aliases": [
      "Cyber Formula: Shinseki-GPX",
      "Future GPX Cyber Formula",
      "Future Grand Prix Cyber Formula",
      "Shinseiki GPX Cyber Formula",
      "フューチャーグランプリ サイバーフォーミュラ",
      "新世纪GPX",
      "高智能方程式"
    ],
    "external_database_ids": {
      "anilist": 1391,
      "myanimelist": 1391,
      "kitsu": 1244
    },
    "i18n": {
      "chi": "閃電霹靂車",
      "eng": "Future GPX Cyber Formula",
      "jpn": "新世紀GPXサイバーフォーミュラ",
      "qro": "Shin Seiki GPX Cyber Formula"
    },
    "modified_at": "2020-03-31T19:04:32.707Z",
    "name": "Shin Seiki GPX Cyber Formula",
    "repository": "kara.moe",
    "tid": "cad2c0ff-8593-49ec-8838-f84fa94cb641",
    "types": [
      "series",
      "1",
      "franchises",
      "18"
    ]
  }
}