{
  "header": {
    "description": "Karaoke Mugen Tag File",
    "version": 1
  },
  "tag": {
    "i18n": {
      "eng": "Shin'ichirô Aoyama"
    },
    "name": "Shin'ichirô Aoyama",
    "tid": "d17c965e-7a58-4a6d-b4ae-d93e89fb7237",
    "types": [
      "songwriters",
      "8"
    ],
    "repository": "kara.moe",
    "modified_at": "2020-03-31T19:04:37.470Z"
  }
}