{
  "header": {
    "description": "Karaoke Mugen Tag File",
    "version": 1
  },
  "tag": {
    "aliases": [
      "Future GPX Cyber Formula SIN",
      "Shinseiki GPX Cyber Formula Sin",
      "新世纪GPX高智能方程式SIN"
    ],
    "external_database_ids": {
      "anilist": 1395,
      "myanimelist": 1395,
      "kitsu": 1248
    },
    "i18n": {
      "eng": "Future GPX Cyber Formula Sin",
      "jpn": "新世紀GPXサイバーフォーミュラSIN",
      "qro": "Shin Seiki GPX Cyber Formula Sin"
    },
    "modified_at": "2020-03-31T19:04:32.706Z",
    "name": "Shin Seiki GPX Cyber Formula Sin",
    "repository": "kara.moe",
    "tid": "f8055f2f-9c75-4953-8690-29c4fe4a6692",
    "types": [
      "series",
      "1"
    ]
  }
}