{
  "header": {
    "description": "Karaoke Mugen Tag File",
    "version": 1
  },
  "tag": {
    "i18n": {
      "eng": "Shin'ya Nishimura"
    },
    "name": "Shin'ya Nishimura",
    "tid": "01bdd656-7fc9-467b-8d1f-ab3eed0a9f37",
    "types": [
      "songwriters",
      "8"
    ],
    "repository": "kara.moe",
    "modified_at": "2020-03-31T19:04:37.478Z"
  }
}