{
  "header": {
    "description": "Karaoke Mugen Tag File",
    "version": 1
  },
  "tag": {
    "aliases": [
      "Aim for the Ace! TV 2",
      "Бей эйс! [ТВ-2]",
      "Ace o Nerae!"
    ],
    "external_database_ids": {
      "anilist": 8542,
      "myanimelist": 8542,
      "kitsu": 5381
    },
    "i18n": {
      "eng": "Aim for the Ace! (season 2)",
      "fre": "Jeu, set et match ! (saison 2)",
      "jpn": "新・エースをねらえ!",
      "qro": "Shin Ace wo Nerae!"
    },
    "name": "Shin Ace o Nerae!",
    "repository": "kara.moe",
    "tid": "03d29a52-0d6d-4cef-864a-faa4d1aa5c92",
    "types": [
      "series",
      "1"
    ]
  }
}