{
  "header": {
    "description": "Karaoke Mugen Tag File",
    "version": 1
  },
  "tag": {
    "aliases": [
      "Shoujo",
      "The Death Reaper and the Girl"
    ],
    "i18n": {
      "jpn": "死神と少女",
      "qro": "Shinigami to Shôjo"
    },
    "name": "Shinigami to Shôjo",
    "repository": "kara.moe",
    "tid": "dda3983f-f59d-460e-94b5-26c771072c23",
    "types": [
      "series",
      "1"
    ]
  }
}