{
  "header": {
    "description": "Karaoke Mugen Tag File",
    "version": 1
  },
  "tag": {
    "i18n": {
      "eng": "Shin'ichi Yûki"
    },
    "name": "Shin'ichi Yûki",
    "tid": "d181ad61-f9ff-4c46-af5a-c574c3458c22",
    "types": [
      "songwriters",
      "8"
    ],
    "repository": "kara.moe",
    "modified_at": "2020-03-31T19:04:37.469Z"
  }
}