{
  "header": {
    "description": "Karaoke Mugen Tag File",
    "version": 1
  },
  "tag": {
    "i18n": {
      "eng": "Shinji Tanimura",
      "jpn": "谷村 新司",
      "qro": "Shinji Tanimura"
    },
    "name": "Shinji Tanimura",
    "repository": "kara.moe",
    "tid": "724f5849-de74-47d8-8a33-3c98a98438ad",
    "types": [
      "singers",
      "2",
      "songwriters",
      "8"
    ]
  }
}