{
  "header": {
    "description": "Karaoke Mugen Tag File",
    "version": 1
  },
  "tag": {
    "aliases": [
      "AoT2",
      "Attack on Titan (2017)",
      "Attack on Titan 2",
      "SNK S2",
      "Shingeki no Kyojin (2017)",
      "Shingeki no Kyojin 2",
      "SnK2"
    ],
    "external_database_ids": {
      "anilist": 20958,
      "myanimelist": 25777,
      "kitsu": 8671
    },
    "i18n": {
      "eng": "Attack on Titan 2nd Season",
      "fre": "L'Attaque des Titans (saison 2)",
      "ita": "L'attacco dei Giganti - Seconda stagione",
      "jpn": "進撃の巨人 attack on titan Season 2",
      "kor": "진격의 거인 2",
      "qro": "Shingeki no Kyojin S2"
    },
    "modified_at": "2020-06-21T23:45:31.966Z",
    "name": "Shingeki no Kyojin S2",
    "repository": "kara.moe",
    "tid": "07b31574-4baa-42eb-bf28-c232cd695096",
    "types": [
      "series",
      "1"
    ]
  }
}