{
  "header": {
    "description": "Karaoke Mugen Tag File",
    "version": 1
  },
  "tag": {
    "i18n": {
      "eng": "Shinri Josuiji"
    },
    "name": "Shinri Josuiji",
    "repository": "kara.moe",
    "tid": "8b105ff7-0f31-435e-aada-ac52c856118d",
    "types": [
      "singers",
      "2"
    ]
  }
}