{
  "header": {
    "description": "Karaoke Mugen Tag File",
    "version": 1
  },
  "tag": {
    "i18n": {
      "eng": "Shinichirô Kamio"
    },
    "name": "Shinichirô Kamio",
    "tid": "e88203e1-642b-4754-85b0-4ba62dc18563",
    "types": [
      "singers",
      "2"
    ],
    "repository": "kara.moe",
    "modified_at": "2020-03-31T19:04:37.488Z"
  }
}