{
  "header": {
    "description": "Karaoke Mugen Tag File",
    "version": 1
  },
  "tag": {
    "i18n": {
      "eng": "Shingo Kubota"
    },
    "modified_at": "2020-04-14T10:47:32.387Z",
    "name": "Shingo Kubota",
    "repository": "kara.moe",
    "tid": "21db1826-ce89-42a8-8fda-a9753576f238",
    "types": [
      "songwriters",
      "8"
    ]
  }
}