{
  "header": {
    "description": "Karaoke Mugen Tag File",
    "version": 1
  },
  "tag": {
    "external_database_ids": {
      "anilist": 938,
      "myanimelist": 938,
      "kitsu": 835
    },
    "i18n": {
      "eng": "New Getter Robo vs. Neo Getter Robo",
      "fre": "Shin Getter Robo vs. Neo Getter Robo",
      "jpn": "真ゲッターロボ対ネオゲッターロボ",
      "qro": "Shin Getter Robo Tai Neo Getter Robo"
    },
    "modified_at": "2020-03-31T19:04:32.696Z",
    "name": "Shin Getter Robo Tai Neo Getter Robo",
    "repository": "kara.moe",
    "tid": "07d675d8-635b-4e85-bb8b-d6710288db39",
    "types": [
      "series",
      "1"
    ]
  }
}