{
  "header": {
    "description": "Karaoke Mugen Tag File",
    "version": 1
  },
  "tag": {
    "i18n": {
      "eng": "Shinbo Masahiro"
    },
    "modified_at": "2020-05-07T23:41:12.113Z",
    "name": "Shinbo Masahiro",
    "repository": "kara.moe",
    "tid": "6481f20f-63b3-4a2f-a8e4-ccecb53b5066",
    "types": [
      "songwriters",
      "8"
    ]
  }
}