{
  "header": {
    "description": "Karaoke Mugen Tag File",
    "version": 1
  },
  "tag": {
    "i18n": {
      "eng": "Shinnosuke Tachibana"
    },
    "name": "Shinnosuke Tachibana",
    "tid": "cc02b0bf-6c89-485a-8a96-2468911d5502",
    "types": [
      "singers",
      "2"
    ],
    "repository": "kara.moe",
    "modified_at": "2020-03-31T19:04:37.497Z"
  }
}