{
  "header": {
    "description": "Karaoke Mugen Tag File",
    "version": 1
  },
  "tag": {
    "i18n": {
      "eng": "Shinjitsu Isshoku"
    },
    "name": "Shinjitsu Isshoku",
    "tid": "22cb201c-94f4-44a5-a2dd-0682b6010e4f",
    "types": [
      "songwriters",
      "8"
    ],
    "repository": "kara.moe",
    "modified_at": "2020-03-31T19:04:37.494Z"
  }
}