{
  "header": {
    "description": "Karaoke Mugen Tag File",
    "version": 1
  },
  "tag": {
    "i18n": {
      "eng": "Shinohara Ryouko"
    },
    "name": "Shinohara Ryouko",
    "repository": "kara.moe",
    "tid": "f72bb9b3-783d-4623-9646-0677127a8823",
    "types": [
      "singers",
      "2"
    ]
  }
}