{
  "header": {
    "description": "Karaoke Mugen Tag File",
    "version": 1
  },
  "tag": {
    "aliases": [
      "SHIN_TALO",
      "shintalo"
    ],
    "i18n": {
      "eng": "shintaro",
      "jpn": "しんたろ"
    },
    "name": "shintaro",
    "repository": "kara.moe",
    "tid": "ab54b585-2d9f-4300-8937-7a7ce16a2d0b",
    "types": [
      "songwriters",
      "8",
      "singers",
      "2"
    ]
  }
}