{
  "header": {
    "description": "Karaoke Mugen Tag File",
    "version": 1
  },
  "tag": {
    "i18n": {
      "eng": "Shinsekai Gakkyoku Zatsugidan"
    },
    "name": "Shinsekai Gakkyoku Zatsugidan",
    "tid": "5a8eb1f9-1c49-4490-aa72-338de0a106ff",
    "types": [
      "songwriters",
      "8"
    ],
    "repository": "kara.moe",
    "modified_at": "2020-03-31T19:04:37.504Z"
  }
}