{
  "header": {
    "description": "Karaoke Mugen Tag File",
    "version": 1
  },
  "tag": {
    "aliases": [
      "Shinkyoku Soukai Polyphonica",
      "Полифоника",
      "Поліфоніка",
      "神曲奏界",
      "soukai"
    ],
    "external_database_ids": {
      "anilist": 1727,
      "myanimelist": 1727,
      "kitsu": 1548
    },
    "i18n": {
      "eng": "Polyphonica",
      "jpn": "神曲奏界ポリフォニカ",
      "qro": "Shinkyoku Sôkai Polyphonica"
    },
    "modified_at": "2020-06-21T23:45:31.966Z",
    "name": "Shinkyoku Sôkai Polyphonica",
    "repository": "kara.moe",
    "tid": "a143098a-620c-43e2-99b8-dfb0407badf2",
    "types": [
      "series",
      "1",
      "franchises",
      "18"
    ]
  }
}