{
  "header": {
    "description": "Karaoke Mugen Tag File",
    "version": 1
  },
  "tag": {
    "i18n": {
      "eng": "Shinkichi Mitsumune"
    },
    "modified_at": "2021-05-23T18:16:41.770Z",
    "name": "Shinkichi Mitsumune",
    "repository": "kara.moe",
    "tid": "0656d947-2a7e-4793-95ef-1ab271bb0fe6",
    "types": [
      "songwriters",
      "8",
      "singers",
      "2"
    ]
  }
}