{
  "header": {
    "description": "Karaoke Mugen Tag File",
    "version": 1
  },
  "tag": {
    "external_database_ids": {
      "anilist": 129068,
      "myanimelist": 46985,
      "kitsu": 44024
    },
    "i18n": {
      "eng": "Shinka no Mi: Shiranai Uchi ni Kachigumi Jinsei"
    },
    "modified_at": "1982-04-06",
    "name": "Shinka no Mi: Shiranai Uchi ni Kachigumi Jinsei",
    "repository": "kara.moe",
    "tid": "47e45fc4-71f9-47db-9b73-7ce8555c2268",
    "types": [
      "series",
      "1"
    ]
  }
}