{
  "header": {
    "description": "Karaoke Mugen Tag File",
    "version": 1
  },
  "tag": {
    "i18n": {
      "eng": "Shin'ichirô Ishihara"
    },
    "name": "Shin'ichirô Ishihara",
    "tid": "0107aaca-5ab2-48c5-b4ce-4f1fedd5673e",
    "types": [
      "songwriters",
      "8"
    ],
    "repository": "kara.moe",
    "modified_at": "2020-03-31T19:04:37.471Z"
  }
}