{
  "header": {
    "description": "Karaoke Mugen Tag File",
    "version": 1
  },
  "tag": {
    "aliases": [
      "Shinmai Maou no Keiyakusha Burst",
      "Shinmai Maou no Testament BURST",
      "maou"
    ],
    "external_database_ids": {
      "anilist": 21110,
      "myanimelist": 30363,
      "kitsu": 10757
    },
    "i18n": {
      "eng": "The Testament of Sister New Devil: BURST",
      "jpn": "新妹魔王の契約者 BURST",
      "qro": "Shinmai Maô no Testament BURST"
    },
    "modified_at": "2020-03-31T19:04:32.727Z",
    "name": "Shinmai Maô no Testament BURST",
    "repository": "kara.moe",
    "tid": "93ec3ee2-75d3-4a2b-a75f-52192bae2da5",
    "types": [
      "series",
      "1"
    ]
  }
}