{
  "header": {
    "description": "Karaoke Mugen Tag File",
    "version": 1
  },
  "tag": {
    "i18n": {
      "eng": "Shingo Endô"
    },
    "name": "Shingo Endô",
    "tid": "ee8f200c-fd69-45dc-a450-aebacb44fd17",
    "types": [
      "songwriters",
      "8"
    ],
    "repository": "kara.moe",
    "modified_at": "2020-03-31T19:04:37.483Z"
  }
}