{
  "header": {
    "description": "Karaoke Mugen Tag File",
    "version": 1
  },
  "tag": {
    "i18n": {
      "eng": "Shinji Tamura"
    },
    "name": "Shinji Tamura",
    "tid": "45157260-7298-4a03-855a-b59ee8b5cfe9",
    "types": [
      "songwriters",
      "8"
    ],
    "repository": "kara.moe",
    "modified_at": "2020-03-31T19:04:37.492Z"
  }
}