{
  "header": {
    "description": "Karaoke Mugen Tag File",
    "version": 1
  },
  "tag": {
    "i18n": {
      "eng": "Shin'ya Tanaka"
    },
    "name": "Shin'ya Tanaka",
    "tid": "3145aa4a-e6d9-423d-9c84-63910ce3a617",
    "types": [
      "songwriters",
      "8"
    ],
    "repository": "kara.moe",
    "modified_at": "2020-03-31T19:04:37.479Z"
  }
}