{
  "header": {
    "description": "Karaoke Mugen Tag File",
    "version": 1
  },
  "tag": {
    "i18n": {
      "eng": "Shining Force EXA",
      "jpn": "シャイニング・フォース イクサ",
      "qro": "Shining Force EXA"
    },
    "modified_at": "2020-03-31T19:04:32.720Z",
    "name": "Shining Force EXA",
    "repository": "kara.moe",
    "tid": "e4052e9a-22c6-45eb-9379-6dbb4594559c",
    "types": [
      "series",
      "1"
    ]
  }
}