{
  "header": {
    "description": "Karaoke Mugen Tag File",
    "version": 1
  },
  "tag": {
    "aliases": [
      "The Invader Comes From the Bottom of the Sea",
      "ikamusume"
    ],
    "external_database_ids": {
      "anilist": 13267,
      "myanimelist": 13267,
      "kitsu": 6929
    },
    "i18n": {
      "eng": "Squid Girl (OVA)",
      "fre": "Shinryaku!! Ika Musume",
      "jpn": "侵略!! イカ娘",
      "qro": "Shinryaku!! Ika Musume"
    },
    "modified_at": "2020-03-31T19:04:32.733Z",
    "name": "Shinryaku!! Ika Musume",
    "repository": "kara.moe",
    "tid": "7d3df11b-d028-4f30-957f-8801930396b1",
    "types": [
      "series",
      "1"
    ]
  }
}