{
  "header": {
    "description": "Karaoke Mugen Tag File",
    "version": 1
  },
  "tag": {
    "aliases": [
      "AoT3",
      "SNK S3",
      "SnK3"
    ],
    "external_database_ids": {
      "anilist": 99147,
      "myanimelist": 35760,
      "kitsu": 13569
    },
    "i18n": {
      "eng": "Attack on Titan 3rd Season",
      "fre": "L'Attaque des Titans (saison 3)",
      "jpn": "進撃の巨人 attack on titan Season 3",
      "kor": "진격의 거인 3",
      "qro": "Shingeki no Kyojin S3"
    },
    "modified_at": "2020-06-21T23:45:31.966Z",
    "name": "Shingeki no Kyojin S3",
    "repository": "kara.moe",
    "tid": "57862a2c-06ff-48ce-9f7e-b85244adc0da",
    "types": [
      "series",
      "1"
    ]
  }
}