{
  "header": {
    "description": "Karaoke Mugen Tag File",
    "version": 1
  },
  "tag": {
    "i18n": {
      "eng": "Shinichi Sekizawa"
    },
    "name": "Shinichi Sekizawa",
    "tid": "153b648f-32f9-4801-a6eb-851dc302667e",
    "types": [
      "songwriters",
      "8"
    ],
    "repository": "kara.moe",
    "modified_at": "2020-03-31T19:04:37.486Z"
  }
}