{
  "header": {
    "description": "Karaoke Mugen Tag File",
    "version": 1
  },
  "tag": {
    "aliases": [
      "SNK OAV"
    ],
    "external_database_ids": {
      "anilist": 20811,
      "myanimelist": 25781,
      "kitsu": 8674
    },
    "i18n": {
      "eng": "Attack on Titan: No Regrets",
      "fre": "L'Attaque des Titans : No Regrets",
      "jpn": "進撃の巨人 悔いなき選択",
      "qro": "Shingeki no Kyojin: Kuinaki Sentaku"
    },
    "modified_at": "2020-03-31T19:04:32.714Z",
    "name": "Shingeki no Kyojin: Kuinaki Sentaku",
    "repository": "kara.moe",
    "tid": "b9dbf84f-7829-473e-8bd1-9cece2908139",
    "types": [
      "series",
      "1"
    ]
  }
}