{
  "header": {
    "description": "Karaoke Mugen Tag File",
    "version": 1
  },
  "tag": {
    "description": {
      "jpn": "宮崎 慎二",
      "qro": "Shinji Miyazaki"
    },
    "i18n": {
      "eng": "Shinji Miyazaki"
    },
    "name": "Shinji Miyazaki",
    "repository": "kara.moe",
    "tid": "2ddf8f5d-8561-420b-996a-83683138212d",
    "types": [
      "songwriters",
      "8"
    ]
  }
}