{
  "header": {
    "description": "Karaoke Mugen Tag File",
    "version": 1
  },
  "tag": {
    "external_database_ids": {
      "anilist": 7004,
      "myanimelist": 7004,
      "kitsu": 4830
    },
    "i18n": {
      "eng": "Calimero",
      "fre": "Caliméro et ses amis",
      "jpn": "カリメロ (1992)",
      "qro": "Shin Calimero"
    },
    "modified_at": "2020-03-31T19:04:32.696Z",
    "name": "Shin Calimero",
    "repository": "kara.moe",
    "tid": "3cf0745d-0459-4875-94a3-b5e409e4c41b",
    "types": [
      "series",
      "1"
    ]
  }
}