{
  "header": {
    "description": "Karaoke Mugen Tag File",
    "version": 1
  },
  "tag": {
    "i18n": {
      "eng": "Shin Goketsuji Ichizoku: Bonnou Kaihou"
    },
    "modified_at": "2021-10-04T00:18:02.882Z",
    "name": "Shin Goketsuji Ichizoku: Bonnou Kaihou",
    "repository": "kara.moe",
    "tid": "1189ed1b-8f16-475f-87fb-14b821579ae8",
    "types": [
      "series",
      "1"
    ]
  }
}