{
  "header": {
    "description": "Karaoke Mugen Tag File",
    "version": 1
  },
  "tag": {
    "i18n": {
      "eng": "Shinma Akatsuki"
    },
    "name": "Shinma Akatsuki",
    "tid": "2b5e095d-3e0c-4545-b9bb-f3f487acb16a",
    "types": [
      "songwriters",
      "8"
    ],
    "repository": "kara.moe",
    "modified_at": "2020-03-31T19:04:37.496Z"
  }
}