{
  "header": {
    "description": "Karaoke Mugen Tag File",
    "version": 1
  },
  "tag": {
    "i18n": {
      "eng": "Shinnosuke"
    },
    "name": "Shinnosuke",
    "tid": "d486b0ce-6199-4b7c-8b5a-14c1170b21b7",
    "types": [
      "songwriters",
      "8"
    ],
    "repository": "kara.moe",
    "modified_at": "2020-03-31T19:04:37.497Z"
  }
}