{
  "header": {
    "description": "Karaoke Mugen Tag File",
    "version": 1
  },
  "tag": {
    "i18n": {
      "eng": "Shinpei Nakayama"
    },
    "name": "Shinpei Nakayama",
    "tid": "09207ccb-ef6e-42b7-878c-310e4cadaa7c",
    "types": [
      "songwriters",
      "8"
    ],
    "repository": "kara.moe",
    "modified_at": "2020-03-31T19:04:37.502Z"
  }
}