{
  "header": {
    "description": "Karaoke Mugen Tag File",
    "version": 1
  },
  "tag": {
    "i18n": {
      "eng": "Shin"
    },
    "name": "Shin",
    "tid": "13c33de1-2e62-4449-991c-fa495d81cf4c",
    "types": [
      "songwriters",
      "8"
    ],
    "repository": "kara.moe",
    "modified_at": "2020-03-31T19:04:37.481Z"
  }
}