{
  "header": {
    "description": "Karaoke Mugen Tag File",
    "version": 1
  },
  "tag": {
    "i18n": {
      "eng": "Shiori Sasaki"
    },
    "modified_at": "2021-08-13T20:15:59.512Z",
    "name": "Shiori Sasaki",
    "repository": "kara.moe",
    "tid": "6684ff08-536f-40e5-b7e2-b1593c4f8691",
    "types": [
      "singers",
      "2"
    ]
  }
}