{
  "header": {
    "description": "Karaoke Mugen Tag File",
    "version": 1
  },
  "tag": {
    "i18n": {
      "eng": "Shion Morishita"
    },
    "name": "Shion Morishita",
    "repository": "kara.moe",
    "tid": "190ff298-4d46-422f-a51a-00a157231367",
    "types": [
      "songwriters",
      "8"
    ],
    "modified_at": "2020-03-31T19:04:37.514Z"
  }
}