{
  "header": {
    "description": "Karaoke Mugen Tag File",
    "version": 1
  },
  "tag": {
    "aliases": [
      "Shion no Oh",
      "Shion no Ô",
      "Shion's King",
      "The Flowers of Hard Blood",
      "The King of Shion",
      "Сион и король",
      "紫音之王"
    ],
    "external_database_ids": {
      "anilist": 2562,
      "myanimelist": 2562,
      "kitsu": 2327
    },
    "i18n": {
      "eng": "Kings of Shogi",
      "jpn": "しおんの王",
      "qro": "Shion no Ou"
    },
    "modified_at": "2020-03-31T19:04:32.736Z",
    "name": "Shion no Ou",
    "repository": "kara.moe",
    "tid": "51125852-c15c-4530-ba8d-c567100e6b61",
    "types": [
      "series",
      "1"
    ]
  }
}