{
  "header": {
    "description": "Karaoke Mugen Tag File",
    "version": 1
  },
  "tag": {
    "i18n": {
      "eng": "Shiori Izawa"
    },
    "name": "Shiori Izawa",
    "tid": "f1b893a9-d27f-4aa3-9207-359371e0e6ff",
    "types": [
      "singers",
      "2"
    ],
    "repository": "kara.moe",
    "modified_at": "2020-03-31T19:04:37.515Z"
  }
}