{
  "header": {
    "description": "Karaoke Mugen Tag File",
    "version": 1
  },
  "tag": {
    "i18n": {
      "eng": "Shion Miyawaki"
    },
    "name": "Shion Miyawaki",
    "tid": "eba46b1d-8ae2-40b2-bb50-9cb9d7057f5b",
    "types": [
      "singers",
      "2",
      "songwriters",
      "8"
    ],
    "repository": "kara.moe",
    "modified_at": "2020-03-31T19:04:37.513Z"
  }
}