{
  "header": {
    "description": "Karaoke Mugen Tag File",
    "version": 1
  },
  "tag": {
    "i18n": {
      "eng": "Shiori Takanashi"
    },
    "name": "Shiori Takanashi",
    "tid": "a2532846-ad5e-46e5-aaad-2c5dd2cd097e",
    "types": [
      "songwriters",
      "8"
    ],
    "repository": "kara.moe",
    "modified_at": "2020-03-31T19:04:37.516Z"
  }
}