{
  "header": {
    "description": "Karaoke Mugen Tag File",
    "version": 1
  },
  "tag": {
    "i18n": {
      "eng": "Shirô Murano"
    },
    "name": "Shirô Murano",
    "tid": "b8a5be31-b496-4a43-8a6d-790abd0d5e72",
    "types": [
      "songwriters",
      "8"
    ],
    "repository": "kara.moe",
    "modified_at": "2020-03-31T19:04:37.520Z"
  }
}