{
  "header": {
    "description": "Karaoke Mugen Tag File",
    "version": 1
  },
  "tag": {
    "external_database_ids": {
      "anilist": 128545,
      "kitsu": 44116,
      "myanimelist": 46093
    },
    "i18n": {
      "eng": "The aquatope on white sand",
      "qro": "Shiroi Suna no Aquatope",
      "jpn": "白い砂のアクアトープ"
    },
    "name": "Shiroi Suna no Aquatope",
    "repository": "kara.moe",
    "tid": "ef6b31cd-2190-41f0-8f4b-bdd10c4acf88",
    "types": [
      "series",
      "1"
    ]
  }
}