{
  "header": {
    "description": "Karaoke Mugen Tag File",
    "version": 1
  },
  "tag": {
    "i18n": {
      "eng": "Shiryû Kamiya"
    },
    "name": "Shiryû Kamiya",
    "tid": "037c97a7-596c-4f8e-b5c2-81b6bf8a6215",
    "types": [
      "songwriters",
      "8"
    ],
    "repository": "kara.moe",
    "modified_at": "2020-03-31T19:04:37.521Z"
  }
}