{
  "header": {
    "description": "Karaoke Mugen Tag File",
    "version": 1
  },
  "tag": {
    "aliases": [
      "Polar Bear's Cafe"
    ],
    "external_database_ids": {
      "anilist": 12815,
      "myanimelist": 12815,
      "kitsu": 6821
    },
    "i18n": {
      "ara": "مقهى الدب القطبي",
      "eng": "Polar Bear Cafe",
      "fre": "Shirokuma Café",
      "jpn": "しろくまカフェ",
      "kor": "백곰 카페",
      "qro": "Shirokuma Cafe"
    },
    "modified_at": "2020-03-31T19:04:32.740Z",
    "name": "Shirokuma Cafe",
    "repository": "kara.moe",
    "tid": "64ec1f2f-ad5c-4ba1-a12f-073713946946",
    "types": [
      "series",
      "1"
    ]
  }
}