{
  "header": {
    "description": "Karaoke Mugen Tag File",
    "version": 1
  },
  "tag": {
    "i18n": {
      "eng": "Shiro Aoi"
    },
    "name": "Shiro Aoi",
    "tid": "1c4ae10d-2946-4d36-8aab-5af459fd098d",
    "types": [
      "singers",
      "2"
    ],
    "repository": "kara.moe",
    "modified_at": "2020-03-31T19:04:37.518Z"
  }
}