{
  "header": {
    "description": "Karaoke Mugen Tag File",
    "version": 1
  },
  "tag": {
    "i18n": {
      "eng": "Shirô Sagisu"
    },
    "name": "Shirô Sagisu",
    "tid": "5999862c-f141-4d99-acb7-3701f5cbf1f9",
    "types": [
      "songwriters",
      "8"
    ],
    "repository": "kara.moe",
    "modified_at": "2020-03-31T19:04:37.521Z"
  }
}