{
  "header": {
    "description": "Karaoke Mugen Tag File",
    "version": 1
  },
  "tag": {
    "i18n": {
      "eng": "shito"
    },
    "modified_at": "2021-06-13T13:47:44.864Z",
    "name": "shito",
    "repository": "kara.moe",
    "tid": "830a59c3-38ab-404b-9d85-4a5d352368fd",
    "types": [
      "songwriters",
      "8"
    ]
  }
}