{
  "header": {
    "description": "Karaoke Mugen Tag File",
    "version": 1
  },
  "tag": {
    "i18n": {
      "eng": "Shizuku"
    },
    "name": "Shizuku",
    "tid": "21b23000-4d81-49a9-b448-fa68a3cadcd8",
    "types": [
      "songwriters",
      "8"
    ],
    "repository": "kara.moe",
    "modified_at": "2020-03-31T19:04:37.525Z"
  }
}