{
  "header": {
    "description": "Karaoke Mugen Tag File",
    "version": 1
  },
  "tag": {
    "i18n": {
      "eng": "Shizuka Hasegawa"
    },
    "modified_at": "2021-04-12T00:15:28.230Z",
    "name": "Shizuka Hasegawa",
    "repository": "kara.moe",
    "tid": "996464bf-00f2-4afe-aac0-ea989d222ecd",
    "types": [
      "singers",
      "2"
    ]
  }
}