{
  "header": {
    "description": "Karaoke Mugen Tag File",
    "version": 1
  },
  "tag": {
    "i18n": {
      "eng": "Shizuru Ootaka"
    },
    "name": "Shizuru Ootaka",
    "tid": "a30baa6e-0856-4c74-b15f-8184c315d8ee",
    "types": [
      "singers",
      "2",
      "songwriters",
      "8"
    ],
    "repository": "kara.moe",
    "modified_at": "2020-03-31T19:04:37.525Z"
  }
}