{
  "header": {
    "description": "Karaoke Mugen Tag File",
    "version": 1
  },
  "tag": {
    "i18n": {
      "eng": "Shizuka Ishigami"
    },
    "name": "Shizuka Ishigami",
    "tid": "0885fdc2-8f98-428e-b04c-6523517b2102",
    "types": [
      "singers",
      "2"
    ],
    "repository": "kara.moe",
    "modified_at": "2020-03-31T19:04:37.523Z"
  }
}