{
  "header": {
    "description": "Karaoke Mugen Tag File",
    "version": 1
  },
  "tag": {
    "i18n": {
      "eng": "shizukunome"
    },
    "modified_at": "2021-06-24T10:44:06.981Z",
    "name": "shizukunome",
    "repository": "kara.moe",
    "tid": "de7fd52b-d5bd-4656-93a4-52cc04e25005",
    "types": [
      "singers",
      "2"
    ]
  }
}