{
  "header": {
    "description": "Karaoke Mugen Tag File",
    "version": 1
  },
  "tag": {
    "i18n": {
      "eng": "Shocking Lemon"
    },
    "name": "Shocking Lemon",
    "tid": "d8453254-0290-4c9b-ba81-dfe83972ef22",
    "types": [
      "singers",
      "2"
    ],
    "repository": "kara.moe",
    "modified_at": "2020-03-31T19:04:37.527Z"
  }
}