{
  "header": {
    "description": "Karaoke Mugen Tag File",
    "version": 1
  },
  "tag": {
    "i18n": {
      "eng": "SHOGO"
    },
    "name": "SHOGO",
    "tid": "86c90f7f-7f49-489c-914d-3d53fe5c907c",
    "types": [
      "songwriters",
      "8"
    ],
    "repository": "kara.moe",
    "modified_at": "2020-03-31T19:04:37.528Z"
  }
}