{
  "header": {
    "description": "Karaoke Mugen Tag File",
    "version": 1
  },
  "tag": {
    "i18n": {
      "eng": "Shogakukan Music & Digital Entertainment"
    },
    "name": "Shogakukan Music & Digital Entertainment",
    "repository": "kara.moe",
    "tid": "7857ba01-0ed9-4806-b185-f2b8b903c6ac",
    "types": [
      "creators",
      "4"
    ]
  }
}