{
  "header": {
    "description": "Karaoke Mugen Tag File",
    "version": 1
  },
  "tag": {
    "i18n": {
      "eng": "SHOJI"
    },
    "name": "SHOJI",
    "tid": "a2892caa-9d0a-44ab-b557-6e703cc3d838",
    "types": [
      "songwriters",
      "8"
    ],
    "repository": "kara.moe",
    "modified_at": "2020-03-31T19:04:37.530Z"
  }
}