{
  "header": {
    "description": "Karaoke Mugen Tag File",
    "version": 1
  },
  "tag": {
    "aliases": [
      "Shoujo",
      "しょけいしょうじょのバージンロード",
      "处刑少女的生存之道",
      "處刑少女的生存之道"
    ],
    "external_database_ids": {
      "anilist": 129193,
      "myanimelist": 47162,
      "kitsu": 44011
    },
    "i18n": {
      "eng": "The Executioner and Her Way of Life",
      "qro": "Shokei Shôjo no Virgin Road",
      "jpn": "処刑少女の生きる道"
    },
    "name": "Shokei Shoujo no Virgin Road",
    "repository": "kara.moe",
    "tid": "a2e5ab0e-71a1-4837-a883-5ba5f8b1e79f",
    "types": [
      "series",
      "1"
    ]
  }
}