{
  "header": {
    "description": "Karaoke Mugen Tag File",
    "version": 1
  },
  "tag": {
    "aliases": [
      "Shokugeki no Souma: San no Sara - Tootsuki Ressha Hen",
      "Shokugeki no Soma S3 part 2",
      "souma"
    ],
    "external_database_ids": {
      "anilist": 100773,
      "myanimelist": 36949,
      "kitsu": 14092
    },
    "i18n": {
      "chi": "食戟之灵 餐之皿 远月列车篇",
      "eng": "Food Wars! The Third Plate: Totsuki Train Arc",
      "jpn": "食戟のソーマ 餐ノ皿 遠月列車篇",
      "kor": "식극의 소마: 세번째 접시 - 토오츠키 열차 편",
      "fre": "Food Wars! Troisième Service : Totsuki Train Arc",
      "qro": "Shokugeki no Sôma: San no Sara - Tootsuki Ressha Hen"
    },
    "modified_at": "2020-09-05T20:38:02.147Z",
    "name": "Shokugeki no Sôma: San no Sara - Tootsuki Ressha Hen",
    "repository": "kara.moe",
    "tid": "9a1ec56e-048f-465b-afc2-8a3c1cfaefd0",
    "types": [
      "series",
      "1"
    ]
  }
}