{
  "header": {
    "description": "Karaoke Mugen Tag File",
    "version": 1
  },
  "tag": {
    "aliases": [
      "Shoujo Shuumatsu Ryokou",
      "Последнее путешествие",
      "shoujo",
      "shuumatsu",
      "ryokou"
    ],
    "external_database_ids": {
      "anilist": 99420,
      "myanimelist": 35838,
      "kitsu": 13597
    },
    "i18n": {
      "chi": "少女终末旅行",
      "eng": "Girls' Last Tour",
      "fre": "Girls' Last Tour",
      "jpn": "少女終末旅行",
      "kor": "소녀 종말 여행",
      "qro": "Shôjo Shûmatsu Ryokô"
    },
    "modified_at": "2020-03-31T19:04:32.747Z",
    "name": "Shôjo Shûmatsu Ryokô",
    "repository": "kara.moe",
    "tid": "e01fb9a8-0628-4c05-9d27-9572184010e0",
    "types": [
      "series",
      "1"
    ]
  }
}