{
  "header": {
    "description": "Karaoke Mugen Tag File",
    "version": 1
  },
  "tag": {
    "i18n": {
      "eng": "Shou"
    },
    "name": "Shou",
    "tid": "47ada72b-9672-407d-aa63-67eb4552edeb",
    "types": [
      "songwriters",
      "8"
    ],
    "repository": "kara.moe",
    "modified_at": "2020-03-31T19:04:37.539Z"
  }
}