{
  "header": {
    "description": "Karaoke Mugen Tag File",
    "version": 1
  },
  "tag": {
    "aliases": [
      "Kücük Prenses Sara",
      "Lovely Sara",
      "Mała księżniczka Sara",
      "Shoukoujo Sara",
      "Гүнж Сара",
      "shoukoujo"
    ],
    "external_database_ids": {
      "anilist": 2547,
      "myanimelist": 2547,
      "kitsu": 2312
    },
    "i18n": {
      "ara": "سالي",
      "eng": "A Little Princess Sara",
      "fre": "Princesse Sarah",
      "ger": "Die kleine Prinzessin Sara",
      "ita": "Lovely Sara",
      "jpn": "小公女[プリンセス]セーラ",
      "pol": "Mała księżniczka",
      "spa": "La Princesa Sara",
      "tur": "Küçük Prenses Sara",
      "qro": "Shôkôjo Sara"
    },
    "modified_at": "2020-06-21T23:45:31.966Z",
    "name": "Shôkôjo Sara",
    "repository": "kara.moe",
    "tid": "28c3e3e0-3fe5-4e90-aedf-c315fc018047",
    "types": [
      "series",
      "1"
    ]
  }
}