{
  "header": {
    "description": "Karaoke Mugen Tag File",
    "version": 1
  },
  "tag": {
    "i18n": {
      "eng": "Shôko Oomori"
    },
    "name": "Shôko Oomori",
    "tid": "5eea063b-c020-48c5-9675-6988a2159cb2",
    "types": [
      "songwriters",
      "8"
    ],
    "repository": "kara.moe",
    "modified_at": "2020-03-31T19:04:37.548Z"
  }
}