{
  "header": {
    "description": "Karaoke Mugen Tag File",
    "version": 1
  },
  "tag": {
    "i18n": {
      "eng": "Shônen Shôjo Gasshô Dan"
    },
    "name": "Shônen Shôjo Gasshô Dan",
    "tid": "a7aef650-0d15-44cc-bb90-8e178791aeaf",
    "types": [
      "singers",
      "2"
    ],
    "repository": "kara.moe",
    "modified_at": "2020-03-31T19:04:37.553Z"
  }
}