{
  "header": {
    "description": "Karaoke Mugen Tag File",
    "version": 1
  },
  "tag": {
    "aliases": [
      "Shoujotachi wa Kouya wo Mezasu",
      "shoujotachi"
    ],
    "external_database_ids": {
      "anilist": 21444,
      "myanimelist": 31914,
      "kitsu": 11457
    },
    "i18n": {
      "eng": "Girls Beyond the Wasteland",
      "jpn": "少女たちは荒野を目指す",
      "qro": "Shôjotachi wa Kouya wo Mezasu"
    },
    "modified_at": "2020-03-31T19:04:32.749Z",
    "name": "Shôjotachi wa Kouya wo Mezasu",
    "repository": "kara.moe",
    "tid": "6975aacf-9661-42d0-99f6-9b60cc9a4a47",
    "types": [
      "series",
      "1"
    ]
  }
}