{
  "header": {
    "description": "Karaoke Mugen Tag File",
    "version": 1
  },
  "tag": {
    "i18n": {
      "eng": "Shô Hayami"
    },
    "name": "Shô Hayami",
    "tid": "2ebbacb4-48f6-4b38-ab02-24fc5b7ffef8",
    "types": [
      "singers",
      "2"
    ],
    "repository": "kara.moe",
    "modified_at": "2020-03-31T19:04:37.534Z"
  }
}