{
  "header": {
    "description": "Karaoke Mugen Tag File",
    "version": 1
  },
  "tag": {
    "i18n": {
      "eng": "Shô Gotô"
    },
    "name": "Shô Gotô",
    "tid": "73d16a66-c0e1-4c1a-b008-2ce15c21d63a",
    "types": [
      "songwriters",
      "8"
    ],
    "repository": "kara.moe",
    "modified_at": "2020-03-31T19:04:37.534Z"
  }
}