{
  "header": {
    "description": "Karaoke Mugen Tag File",
    "version": 1
  },
  "tag": {
    "i18n": {
      "eng": "Shôjo"
    },
    "name": "Shoujo",
    "repository": "kara.moe",
    "short": "SHOUJO",
    "tid": "8b6ace6f-a59e-4740-b3ff-e1618720383c",
    "types": [
      "genres",
      "12"
    ]
  }
}