{
  "header": {
    "description": "Karaoke Mugen Tag File",
    "version": 1
  },
  "tag": {
    "i18n": {
      "eng": "Shôichi Yoshii"
    },
    "name": "Shôichi Yoshii",
    "tid": "453577ce-7840-4d0b-92df-bca1787ad012",
    "types": [
      "songwriters",
      "8"
    ],
    "repository": "kara.moe",
    "modified_at": "2020-03-31T19:04:37.542Z"
  }
}