{
  "header": {
    "description": "Karaoke Mugen Tag File",
    "version": 1
  },
  "tag": {
    "i18n": {
      "eng": "Shôko Sawada"
    },
    "name": "Shôko Sawada",
    "repository": "kara.moe",
    "tid": "27d7f4a9-2814-4fc5-801e-341417f2f36d",
    "types": [
      "singers",
      "2"
    ]
  }
}