{
  "header": {
    "description": "Karaoke Mugen Tag File",
    "version": 1
  },
  "tag": {
    "i18n": {
      "eng": "Shouhei Sumiya"
    },
    "name": "Shouhei Sumiya",
    "repository": "kara.moe",
    "tid": "35f440c5-5b26-4ce0-b3d0-688ddb1a33b3",
    "types": [
      "songwriters",
      "8"
    ]
  }
}