{
  "header": {
    "description": "Karaoke Mugen Tag File",
    "version": 1
  },
  "tag": {
    "external_database_ids": {
      "anilist": 7110,
      "myanimelist": 7110,
      "kitsu": 4870
    },
    "i18n": {
      "jpn": "Shounen Maid Kuuro-kun",
      "qro": "Shounen Maid Kuuro-kun"
    },
    "modified_at": "2020-03-31T19:04:32.754Z",
    "name": "Shounen Maid Kuuro-kun",
    "repository": "kara.moe",
    "tid": "6c1b4e68-4856-4421-ad90-df6a101604f7",
    "types": [
      "series",
      "1"
    ]
  }
}