{
  "header": {
    "description": "Karaoke Mugen Tag File",
    "version": 1
  },
  "tag": {
    "aliases": [
      "ShoHari",
      "Shounen Hollywood Holly Stage for 49",
      "shounen"
    ],
    "external_database_ids": {
      "anilist": 20648,
      "myanimelist": 23151,
      "kitsu": 8521
    },
    "i18n": {
      "eng": "Shonen Hollywood: Holly Stage for 49",
      "fre": "Shônen Hollywood: Holly Stage for 49",
      "jpn": "少年ハリウッド -HOLLY STAGE FOR 49-",
      "qro": "Shônen Hollywood: Holly Stage for 49"
    },
    "modified_at": "2020-03-31T19:04:32.752Z",
    "name": "Shônen Hollywood: Holly Stage for 49",
    "repository": "kara.moe",
    "tid": "0d61ea94-e83e-48e5-b191-04170ce5d861",
    "types": [
      "series",
      "1"
    ]
  }
}