{
  "header": {
    "description": "Karaoke Mugen Tag File",
    "version": 1
  },
  "tag": {
    "aliases": [
      "Shouya Chiba"
    ],
    "i18n": {
      "jpn": "千葉翔也",
      "qro": "Shôya Chiba"
    },
    "name": "Shôya Chiba",
    "repository": "kara.moe",
    "tid": "a2456f57-e751-4761-9440-91a986997e92",
    "types": [
      "singers",
      "2"
    ]
  }
}