{
  "header": {
    "description": "Karaoke Mugen Tag File",
    "version": 1
  },
  "tag": {
    "i18n": {
      "eng": "Shôta Hayama"
    },
    "name": "Shôta Hayama",
    "tid": "28aa4244-7868-43ff-8c35-c67e636e858c",
    "types": [
      "singers",
      "2"
    ],
    "repository": "kara.moe",
    "modified_at": "2020-03-31T19:04:37.556Z"
  }
}