{
  "header": {
    "description": "Karaoke Mugen Tag File",
    "version": 1
  },
  "tag": {
    "i18n": {
      "eng": "Shôta Horie"
    },
    "name": "Shôta Horie",
    "tid": "d1414e5d-6845-48ca-ada8-ec38a069ec2f",
    "types": [
      "songwriters",
      "8"
    ],
    "repository": "kara.moe",
    "modified_at": "2020-03-31T19:04:37.557Z"
  }
}