{
  "header": {
    "description": "Karaoke Mugen Tag File",
    "version": 1
  },
  "tag": {
    "i18n": {
      "eng": "Showtime"
    },
    "name": "Showtime",
    "repository": "kara.moe",
    "tid": "5e63d999-f93f-4db8-822b-750eaf86add8",
    "types": [
      "creators",
      "4"
    ]
  }
}