{
  "header": {
    "description": "Karaoke Mugen Tag File",
    "version": 1
  },
  "tag": {
    "i18n": {
      "eng": "SHOW (Shô Osawa)"
    },
    "name": "SHOW (Shô Osawa)",
    "tid": "f76531c9-3277-4ce8-8d9b-21553375dde9",
    "types": [
      "songwriters",
      "8"
    ],
    "repository": "kara.moe",
    "modified_at": "2020-03-31T19:04:37.562Z"
  }
}