{
  "header": {
    "description": "Karaoke Mugen Tag File",
    "version": 1
  },
  "tag": {
    "i18n": {
      "eng": "Show Ayanocozey"
    },
    "name": "Show Ayanocozey",
    "tid": "635e0e9a-480b-4762-bdda-b89c666b1fa2",
    "types": [
      "songwriters",
      "8"
    ],
    "repository": "kara.moe",
    "modified_at": "2020-03-31T19:04:37.562Z"
  }
}