{
  "header": {
    "description": "Karaoke Mugen Tag File",
    "version": 1
  },
  "tag": {
    "external_database_ids": {
      "anilist": 113470,
      "myanimelist": 40763,
      "kitsu": 42885
    },
    "i18n": {
      "jpn": "Show by Rock!! Mashumairesh!!",
      "qro": "Show by Rock!! Mashumairesh!!"
    },
    "modified_at": "2020-05-05T20:26:06.061Z",
    "name": "Show by Rock!! Mashumairesh!!",
    "repository": "kara.moe",
    "tid": "7518157c-a136-4f71-9e77-d441b0bcbf95",
    "types": [
      "series",
      "1"
    ]
  }
}