{
  "header": {
    "description": "Karaoke Mugen Tag File",
    "version": 1
  },
  "tag": {
    "aliases": [
      "SB69"
    ],
    "external_database_ids": {
      "anilist": 21476,
      "myanimelist": 32038,
      "kitsu": 11494
    },
    "i18n": {
      "eng": "Show by Rock!! 2",
      "jpn": "SHOW BY ROCK!!#",
      "qro": "Show By Rock!! 2"
    },
    "modified_at": "2020-03-31T19:04:32.756Z",
    "name": "Show By Rock!! 2",
    "repository": "kara.moe",
    "tid": "77a5d8fb-ebb8-4c9c-90ed-c9052d4de584",
    "types": [
      "series",
      "1"
    ]
  }
}