{
  "header": {
    "description": "Karaoke Mugen Tag File",
    "version": 1
  },
  "tag": {
    "i18n": {
      "jpn": "天馬 昇三",
      "qro": "Shozo Tenma"
    },
    "name": "Shozo Tenma",
    "repository": "kara.moe",
    "tid": "8826d384-7a1a-4b2a-81ce-28e54057941e",
    "types": [
      "singers",
      "2"
    ]
  }
}