{
  "header": {
    "description": "Karaoke Mugen Tag File",
    "version": 1
  },
  "tag": {
    "i18n": {
      "eng": "SHU x GUCCI"
    },
    "name": "SHU x GUCCI",
    "repository": "kara.moe",
    "tid": "61e4ef3a-b598-4a83-8696-f40ed9ee3fe9",
    "types": [
      "songwriters",
      "8"
    ]
  }
}