{
  "header": {
    "description": "Karaoke Mugen Tag File",
    "version": 1
  },
  "tag": {
    "aliases": [
      "SC!",
      "Shugo Kyara",
      "shuchara",
      "Чара-хранители! (сезон первый)",
      "守护甜心"
    ],
    "external_database_ids": {
      "anilist": 2923,
      "myanimelist": 2923,
      "kitsu": 2648
    },
    "i18n": {
      "eng": "Shugo Chara!",
      "jpn": "しゅごキャラ!",
      "kor": "캐릭캐릭 체인지",
      "qro": "Shugo Chara!"
    },
    "modified_at": "2020-03-31T19:04:32.762Z",
    "name": "Shugo Chara!",
    "repository": "kara.moe",
    "tid": "f494e2ac-e2ec-4867-85d7-e7f16c2dcf5f",
    "types": [
      "series",
      "1",
      "franchises",
      "18"
    ]
  }
}