{
  "header": {
    "description": "Karaoke Mugen Tag File",
    "version": 1
  },
  "tag": {
    "i18n": {
      "eng": "Shuji Katayama"
    },
    "name": "Shuji Katayama",
    "tid": "3fafd103-a1fe-464f-808b-76464d87b273",
    "types": [
      "songwriters",
      "8"
    ],
    "repository": "kara.moe",
    "modified_at": "2020-03-31T19:04:37.567Z"
  }
}