{
  "header": {
    "description": "Karaoke Mugen Tag File",
    "version": 1
  },
  "tag": {
    "i18n": {
      "eng": "shuka"
    },
    "name": "shuka",
    "tid": "6fe330e2-40c8-460a-bbd7-a657ee85c385",
    "types": [
      "creators",
      "4"
    ],
    "repository": "kara.moe",
    "modified_at": "2020-03-31T19:04:37.568Z"
  }
}