{
  "header": {
    "description": "Karaoke Mugen Tag File",
    "version": 1
  },
  "tag": {
    "i18n": {
      "eng": "Shunichi Tokura"
    },
    "name": "Shunichi Tokura",
    "repository": "kara.moe",
    "tid": "e121f59a-5cfb-4f37-9679-64b360fb91da",
    "types": [
      "songwriters",
      "8"
    ]
  }
}