{
  "header": {
    "description": "Karaoke Mugen Tag File",
    "version": 1
  },
  "tag": {
    "i18n": {
      "eng": "Shun'ichi Tokura"
    },
    "name": "Shun'ichi Tokura",
    "tid": "05e11f1f-17c0-457c-8901-ff08e9cab76c",
    "types": [
      "songwriters",
      "8"
    ],
    "repository": "kara.moe",
    "modified_at": "2020-03-31T19:04:37.575Z"
  }
}