{
  "header": {
    "description": "Karaoke Mugen Tag File",
    "version": 1
  },
  "tag": {
    "i18n": {
      "eng": "Shunsuke Suzuki"
    },
    "name": "Shunsuke Suzuki",
    "tid": "4d3ea630-29a0-46ac-9c24-fca7a0467a7c",
    "types": [
      "songwriters",
      "8"
    ],
    "repository": "kara.moe",
    "modified_at": "2020-03-31T19:04:37.582Z"
  }
}