{
  "header": {
    "description": "Karaoke Mugen Tag File",
    "version": 1
  },
  "tag": {
    "i18n": {
      "eng": "Shunsuke Takizawa"
    },
    "name": "Shunsuke Takizawa",
    "tid": "615358a2-f34c-43e9-94b1-f64400670128",
    "types": [
      "songwriters",
      "8"
    ],
    "repository": "kara.moe",
    "modified_at": "2020-03-31T19:04:37.584Z"
  }
}