{
  "header": {
    "description": "Karaoke Mugen Tag File",
    "version": 1
  },
  "tag": {
    "i18n": {
      "eng": "Shun'ya Watanabe"
    },
    "name": "Shun'ya Watanabe",
    "tid": "95e1452d-3013-455b-897b-5195d341bc33",
    "types": [
      "songwriters",
      "8"
    ],
    "repository": "kara.moe",
    "modified_at": "2020-03-31T19:04:37.576Z"
  }
}