{
  "header": {
    "description": "Karaoke Mugen Tag File",
    "version": 1
  },
  "tag": {
    "i18n": {
      "eng": "Shuntarô (Hello Sleepwalkers)"
    },
    "name": "Shuntarô (Hello Sleepwalkers)",
    "tid": "2486fbfe-5caa-4061-83d0-e86a5cca3078",
    "types": [
      "songwriters",
      "8"
    ],
    "repository": "kara.moe",
    "modified_at": "2020-03-31T19:04:37.586Z"
  }
}