{
  "header": {
    "description": "Karaoke Mugen Tag File",
    "version": 1
  },
  "tag": {
    "i18n": {
      "eng": "Shun"
    },
    "name": "Shun",
    "repository": "kara.moe",
    "tid": "f648851d-1773-4759-8716-a7c036847cf2",
    "types": [
      "songwriters",
      "8",
      "singers",
      "2"
    ]
  }
}