{
  "header": {
    "description": "Karaoke Mugen Tag File",
    "version": 1
  },
  "tag": {
    "i18n": {
      "eng": "Shunsuke Sakai"
    },
    "name": "Shunsuke Sakai",
    "tid": "2c8feac0-52c5-4749-8fb9-168e116fa96c",
    "types": [
      "songwriters",
      "8"
    ],
    "repository": "kara.moe",
    "modified_at": "2020-03-31T19:04:37.580Z"
  }
}