{
  "header": {
    "description": "Karaoke Mugen Tag File",
    "version": 1
  },
  "tag": {
    "aliases": [
      "Makihama Shungo"
    ],
    "i18n": {
      "eng": "shungo."
    },
    "modified_at": "2020-08-20T23:23:32.266Z",
    "name": "shungo.",
    "repository": "kara.moe",
    "tid": "2f6a7a04-4f70-41e8-815c-45c8a63046bf",
    "types": [
      "songwriters",
      "8"
    ]
  }
}