{
  "header": {
    "description": "Karaoke Mugen Tag File",
    "version": 1
  },
  "tag": {
    "i18n": {
      "eng": "Shunsuke Tsuri"
    },
    "name": "Shunsuke Tsuri",
    "tid": "d86e5a62-25a2-44d2-86ba-7ab5d9685e3c",
    "types": [
      "songwriters",
      "8"
    ],
    "repository": "kara.moe",
    "modified_at": "2020-03-31T19:04:37.585Z"
  }
}