{
  "header": {
    "description": "Karaoke Mugen Tag File",
    "version": 1
  },
  "tag": {
    "i18n": {
      "eng": "Shunsuke Furuya"
    },
    "name": "Shunsuke Furuya",
    "repository": "kara.moe",
    "tid": "0b86619b-36e3-44e0-8ca8-7f8e58f3ad77",
    "types": [
      "songwriters",
      "8"
    ]
  }
}