{
  "header": {
    "description": "Karaoke Mugen Tag File",
    "version": 1
  },
  "tag": {
    "aliases": [
      "Shuuho Mitani",
      "shuuho"
    ],
    "i18n": {
      "eng": "Shûho Mitani",
      "jpn": "三谷秀甫",
      "qro": "Shûho Mitani"
    },
    "name": "Shûho Mitani",
    "repository": "kara.moe",
    "tid": "2c1c22da-a9ad-4a3d-866b-da1cf0a49d38",
    "types": [
      "songwriters",
      "8"
    ]
  }
}