{
  "header": {
    "description": "Karaoke Mugen Tag File",
    "version": 1
  },
  "tag": {
    "aliases": [
      "Shuuhei Tsubota"
    ],
    "i18n": {
      "eng": "Shûhei Tsubota"
    },
    "modified_at": "2021-03-11T14:59:13.822Z",
    "name": "Shûhei Tsubota",
    "repository": "kara.moe",
    "tid": "4d390f0e-0bb2-460c-bc9c-171738ca140f",
    "types": [
      "songwriters",
      "8"
    ]
  }
}