{
  "header": {
    "description": "Karaoke Mugen Tag File",
    "version": 1
  },
  "tag": {
    "i18n": {
      "eng": "Shûhei Naruse"
    },
    "name": "Shûhei Naruse",
    "tid": "ba322cf5-cc62-4f0c-911e-e6d86ce802e5",
    "types": [
      "songwriters",
      "8"
    ],
    "repository": "kara.moe",
    "modified_at": "2020-03-31T19:04:37.594Z"
  }
}