{
  "header": {
    "description": "Karaoke Mugen Tag File",
    "version": 1
  },
  "tag": {
    "i18n": {
      "eng": "Shû Koyama"
    },
    "name": "Shû Koyama",
    "tid": "2bdcb34c-4b08-4881-96e4-df7d58b426d6",
    "types": [
      "songwriters",
      "8"
    ],
    "repository": "kara.moe",
    "modified_at": "2020-03-31T19:04:37.591Z"
  }
}