{
  "header": {
    "description": "Karaoke Mugen Tag File",
    "version": 1
  },
  "tag": {
    "i18n": {
      "eng": "Shûsaku Yanagida"
    },
    "name": "Shûsaku Yanagida",
    "repository": "kara.moe",
    "tid": "90b06abe-5171-49d5-92e5-243489e926a7",
    "types": [
      "songwriters",
      "8"
    ]
  }
}