{
  "header": {
    "description": "Karaoke Mugen Tag File",
    "version": 1
  },
  "tag": {
    "i18n": {
      "eng": "SID"
    },
    "name": "SID",
    "tid": "bc46a63f-6339-4e30-8f6f-a8d487273f8b",
    "types": [
      "singers",
      "2"
    ],
    "repository": "kara.moe",
    "modified_at": "2020-03-31T19:04:37.601Z"
  }
}