{
  "header": {
    "description": "Karaoke Mugen Tag File",
    "version": 1
  },
  "tag": {
    "i18n": {
      "eng": "Side Connection Music"
    },
    "modified_at": "2020-07-12T20:25:07.226Z",
    "name": "Side Connection Music",
    "repository": "kara.moe",
    "tid": "9745651b-fdd2-4aee-8585-cd7e8fa1062c",
    "types": [
      "creators",
      "4"
    ]
  }
}