{
  "header": {
    "description": "Karaoke Mugen Tag File",
    "version": 1
  },
  "tag": {
    "i18n": {
      "eng": "SIE Japan Studio"
    },
    "name": "SIE Japan Studio",
    "tid": "edcc2877-e672-42f5-ae02-1cbf78378cac",
    "types": [
      "creators",
      "4"
    ],
    "repository": "kara.moe",
    "modified_at": "2020-03-31T19:04:37.603Z"
  }
}