{
  "header": {
    "description": "Karaoke Mugen Tag File",
    "version": 1
  },
  "tag": {
    "i18n": {
      "eng": "SierraJohn"
    },
    "name": "SierraJohn",
    "tid": "2ca6b53a-1b53-4535-b275-d3030b79172d",
    "types": [
      "authors",
      "6"
    ],
    "repository": "kara.moe",
    "modified_at": "2020-03-31T19:04:37.604Z"
  }
}