{
  "header": {
    "description": "Karaoke Mugen Tag File",
    "version": 1
  },
  "tag": {
    "i18n": {
      "eng": "Sifo"
    },
    "modified_at": "2021-01-13T18:12:33.261Z",
    "name": "Sifo",
    "repository": "kara.moe",
    "tid": "1a682ea0-6f41-47e4-a546-c5ea91b11717",
    "types": [
      "creators",
      "4"
    ]
  }
}