{
  "header": {
    "description": "Karaoke Mugen Tag File",
    "version": 1
  },
  "tag": {
    "aliases": [
      "Signal.MD"
    ],
    "i18n": {
      "eng": "SIGNAL. MD"
    },
    "modified_at": "2021-08-17T19:08:48.651Z",
    "name": "SIGNAL. MD",
    "repository": "kara.moe",
    "tid": "00de1fc0-0041-4091-8da5-31b3bba2ff98",
    "types": [
      "creators",
      "4"
    ]
  }
}