{
  "header": {
    "description": "Karaoke Mugen Tag File",
    "version": 1
  },
  "tag": {
    "aliases": [
      "SilvaGunner",
      "GilvaSunner",
      "GiIvaSunner "
    ],
    "i18n": {
      "eng": "SiIvaGunner"
    },
    "name": "SiIvaGunner",
    "repository": "kara.moe",
    "tid": "5330f2ff-60e9-4576-9585-f3fc3c9c1999",
    "types": [
      "songwriters",
      "8",
      "creators",
      "4",
      "singers",
      "2"
    ]
  }
}