{
  "header": {
    "description": "Karaoke Mugen Tag File",
    "version": 1
  },
  "tag": {
    "i18n": {
      "eng": "SilentManJoe"
    },
    "name": "SilentManJoe",
    "repository": "kara.moe",
    "tid": "7e36afa8-6c8c-4f9a-8c0d-2f77fdc06aaf",
    "types": [
      "creators",
      "4"
    ]
  }
}