{
  "header": {
    "description": "Karaoke Mugen Tag File",
    "version": 1
  },
  "tag": {
    "i18n": {
      "eng": "Silent Siren"
    },
    "name": "Silent Siren",
    "repository": "kara.moe",
    "tid": "80e61915-ea71-4a04-a034-7730c448df70",
    "types": [
      "singergroups",
      "17"
    ]
  }
}