{
  "header": {
    "description": "Karaoke Mugen Tag File",
    "version": 1
  },
  "tag": {
    "i18n": {
      "eng": "Silvio Pozzoli"
    },
    "name": "Silvio Pozzoli",
    "tid": "f6fbf28c-4aa9-415a-aa52-fdde1a75292f",
    "types": [
      "singers",
      "2"
    ],
    "repository": "kara.moe",
    "modified_at": "2020-03-31T19:04:37.611Z"
  }
}