{
  "header": {
    "description": "Karaoke Mugen Tag File",
    "version": 1
  },
  "tag": {
    "i18n": {
      "eng": "Silver Strain"
    },
    "name": "Silver Strain",
    "repository": "kara.moe",
    "tid": "74ff6d6a-eb12-40c3-b8d8-434daae5b3d8",
    "types": [
      "creators",
      "4"
    ]
  }
}