{
  "header": {
    "description": "Karaoke Mugen Tag File",
    "version": 1
  },
  "tag": {
    "i18n": {
      "eng": "Silver"
    },
    "name": "Silver",
    "tid": "69e03ef5-10d0-425b-89a5-bf5564367dc7",
    "types": [
      "creators",
      "4"
    ],
    "repository": "kara.moe",
    "modified_at": "2020-03-31T19:04:37.610Z"
  }
}