{
  "header": {
    "description": "Karaoke Mugen Tag File",
    "version": 1
  },
  "tag": {
    "i18n": {
      "eng": "Silver Forest"
    },
    "name": "Silver Forest",
    "tid": "32b71a4d-af3b-4daf-86f4-85519eaea5c4",
    "types": [
      "creators",
      "4"
    ],
    "repository": "kara.moe",
    "modified_at": "2020-03-31T19:04:37.609Z"
  }
}