{
  "header": {
    "description": "Karaoke Mugen Tag File",
    "version": 1
  },
  "tag": {
    "i18n": {
      "eng": "Simone Abu Asali"
    },
    "name": "Simone Abu Asali",
    "tid": "0908f5b3-86fb-46ed-8929-8e6a41524bb3",
    "types": [
      "songwriters",
      "8"
    ],
    "repository": "kara.moe",
    "modified_at": "2020-03-31T19:04:37.612Z"
  }
}