{
  "header": {
    "description": "Karaoke Mugen Tag File",
    "version": 1
  },
  "tag": {
    "i18n": {
      "eng": "sin"
    },
    "name": "sin",
    "tid": "1c68a3ab-6259-405f-90ba-9a9aed289e00",
    "types": [
      "songwriters",
      "8"
    ],
    "repository": "kara.moe",
    "modified_at": "2020-03-31T19:04:37.614Z"
  }
}