{
  "header": {
    "description": "Karaoke Mugen Tag File",
    "version": 1
  },
  "tag": {
    "i18n": {
      "eng": "Singers Three"
    },
    "name": "Singers Three",
    "tid": "148e0a5d-6849-4533-a8e9-1da6faf26aa7",
    "types": [
      "singers",
      "2"
    ],
    "repository": "kara.moe",
    "modified_at": "2020-03-31T19:04:37.616Z"
  }
}