{
  "header": {
    "description": "Karaoke Mugen Tag File",
    "version": 1
  },
  "tag": {
    "i18n": {
      "eng": "Sinsekai Record"
    },
    "name": "Sinsekai Record",
    "repository": "kara.moe",
    "tid": "5fd84478-2adf-4de7-9a75-480dac3af28f",
    "types": [
      "creators",
      "4"
    ]
  }
}