{
  "header": {
    "description": "Karaoke Mugen Tag File",
    "version": 1
  },
  "tag": {
    "i18n": {
      "eng": "Sister Angel"
    },
    "modified_at": "2021-04-09T12:46:49.396Z",
    "name": "Sister Angel",
    "repository": "kara.moe",
    "tid": "d6156255-bb64-43f6-89e3-874b22bca161",
    "types": [
      "series",
      "1"
    ]
  }
}