{
  "header": {
    "description": "Karaoke Mugen Tag File",
    "version": 1
  },
  "tag": {
    "aliases": [
      "SPRP",
      "Sister Princess Repure",
      "ซิสเตอร์ ปริ๊นเซส : รี เพียว"
    ],
    "external_database_ids": {
      "anilist": 835,
      "myanimelist": 835,
      "kitsu": 740
    },
    "i18n": {
      "eng": "Sister Princess: Re Pure",
      "jpn": "シスター・プリンセス ~リピュア~",
      "qro": "Sister Princess: Re Pure"
    },
    "modified_at": "2020-03-31T19:04:32.771Z",
    "name": "Sister Princess: Re Pure",
    "repository": "kara.moe",
    "tid": "caee96cc-0d84-4289-be3f-8a1598b560fc",
    "types": [
      "series",
      "1"
    ]
  }
}