{
  "header": {
    "description": "Karaoke Mugen Tag File",
    "version": 1
  },
  "tag": {
    "aliases": [
      "SP",
      "sispri",
      "シスター♥プリンセス"
    ],
    "external_database_ids": {
      "anilist": 836,
      "myanimelist": 836,
      "kitsu": 741
    },
    "i18n": {
      "eng": "Sister Princess",
      "jpn": "シスター・プリンセス",
      "qro": "Sister Princess"
    },
    "modified_at": "2020-03-31T19:04:32.772Z",
    "name": "Sister Princess",
    "repository": "kara.moe",
    "tid": "73ecff10-f9e9-4fb7-87d2-33feac3e6b2e",
    "types": [
      "series",
      "1",
      "franchises",
      "18"
    ]
  }
}