{
  "header": {
    "description": "Karaoke Mugen Tag File",
    "version": 1
  },
  "tag": {
    "i18n": {
      "eng": "Sistus Records"
    },
    "name": "Sistus Records",
    "tid": "86ee0878-dc8a-4101-a03e-e44d3e3f2bec",
    "types": [
      "creators",
      "4"
    ],
    "repository": "kara.moe",
    "modified_at": "2020-03-31T19:04:37.622Z"
  }
}