{
  "header": {
    "description": "Karaoke Mugen Tag File",
    "version": 1
  },
  "tag": {
    "i18n": {
      "eng": "sita"
    },
    "name": "sita",
    "tid": "906e3893-6ae4-4961-a5f2-e414246c5d2f",
    "types": [
      "singers",
      "2"
    ],
    "repository": "kara.moe",
    "modified_at": "2020-03-31T19:04:37.622Z"
  }
}