{
  "header": {
    "description": "Karaoke Mugen Tag File",
    "version": 1
  },
  "tag": {
    "i18n": {
      "eng": "SixTONES"
    },
    "modified_at": "2020-09-12T13:12:10.119Z",
    "name": "SixTONES",
    "repository": "kara.moe",
    "tid": "76d7bd75-ef9d-4de8-ac46-5ca1349c0660",
    "types": [
      "singers",
      "2"
    ]
  }
}