{
  "header": {
    "description": "Karaoke Mugen Tag File",
    "version": 1
  },
  "tag": {
    "aliases": [
      "SK∞",
      "Skate",
      "SK Eight"
    ],
    "external_database_ids": {
      "anilist": 124153,
      "myanimelist": 42923,
      "kitsu": 43595
    },
    "i18n": {
      "eng": "SK8 the Infinity",
      "jpn": "SK∞ エスケーエイト",
      "qro": "SK8"
    },
    "modified_at": "2021-02-16T23:06:18.112Z",
    "name": "SK8",
    "repository": "kara.moe",
    "tid": "1fae1c42-0c64-4894-b0c2-d6d348863eca",
    "types": [
      "series",
      "1"
    ]
  }
}