{
  "header": {
    "description": "Karaoke Mugen Tag File",
    "version": 1
  },
  "tag": {
    "i18n": {
      "eng": "SKÁLD"
    },
    "name": "SKÁLD",
    "repository": "kara.moe",
    "tid": "c931f3e4-990f-436e-849a-1c67b93b6b2e",
    "types": [
      "singers",
      "2"
    ]
  }
}