{
  "header": {
    "description": "Karaoke Mugen Tag File",
    "version": 1
  },
  "tag": {
    "i18n": {
      "eng": "SKE48"
    },
    "name": "SKE48",
    "tid": "53bbe063-dde6-4ea0-a0be-bf682670821b",
    "types": [
      "singers",
      "2"
    ],
    "repository": "kara.moe",
    "modified_at": "2020-03-31T19:04:37.625Z"
  }
}