{
  "header": {
    "description": "Karaoke Mugen Tag File",
    "version": 1
  },
  "tag": {
    "i18n": {
      "eng": "skid9000"
    },
    "modified_at": "2021-02-12T17:39:22.691Z",
    "name": "skid9000",
    "repository": "kara.moe",
    "tid": "769104f8-012b-4e06-90b9-1a24cda992b1",
    "types": [
      "authors",
      "6"
    ]
  }
}