{
  "header": {
    "description": "Karaoke Mugen Tag File",
    "version": 1
  },
  "tag": {
    "i18n": {
      "eng": "Skrillex"
    },
    "modified_at": "2020-05-11T12:11:23.971Z",
    "name": "Skrillex",
    "repository": "kara.moe",
    "tid": "d9138439-6ee1-4a5d-a28e-350e23705ce9",
    "types": [
      "songwriters",
      "8"
    ]
  }
}