{
  "header": {
    "description": "Karaoke Mugen Tag File",
    "version": 1
  },
  "tag": {
    "aliases": [
      "007 Skyfall"
    ],
    "i18n": {
      "eng": "Skyfall"
    },
    "modified_at": "2021-03-11T23:03:24.472Z",
    "name": "Skyfall",
    "repository": "kara.moe",
    "tid": "86360e35-05db-412e-a813-bdff82ee8061",
    "types": [
      "series",
      "1"
    ]
  }
}