{
  "header": {
    "description": "Karaoke Mugen Tag File",
    "version": 1
  },
  "tag": {
    "i18n": {
      "eng": "SKYPEACE"
    },
    "name": "SKYPEACE",
    "tid": "5ffc751e-a58d-4435-b366-6c795c1dd741",
    "types": [
      "singers",
      "2"
    ],
    "repository": "kara.moe",
    "modified_at": "2020-03-31T19:04:37.632Z"
  }
}