{
  "header": {
    "description": "Karaoke Mugen Tag File",
    "version": 1
  },
  "tag": {
    "i18n": {
      "eng": "SLAVE.V-V-R"
    },
    "name": "SLAVE.V-V-R",
    "repository": "kara.moe",
    "tid": "af2e930a-0118-4536-9dfb-c935e4e1b828",
    "types": [
      "songwriters",
      "8"
    ]
  }
}