{
  "header": {
    "description": "Karaoke Mugen Tag File",
    "version": 1
  },
  "tag": {
    "aliases": [
      "SN",
      "秀逗魔导士next"
    ],
    "external_database_ids": {
      "anilist": 535,
      "myanimelist": 535,
      "kitsu": 494
    },
    "i18n": {
      "eng": "Slayers Next",
      "fre": "Slayers Next",
      "ger": "Slayers Next",
      "hun": "Slayers - A kis boszorkány",
      "jpn": "スレイヤーズ NEXT",
      "kor": "슬레이어즈 넥스트",
      "pol": "Magiczni wojownicy 2",
      "rus": "Рубаки Next",
      "qro": "Slayers Next"
    },
    "modified_at": "2020-06-21T23:45:31.966Z",
    "name": "Slayers Next",
    "repository": "kara.moe",
    "tid": "1f2c7245-1612-44f5-bc1a-6e6a99cc7d37",
    "types": [
      "series",
      "1"
    ]
  }
}