{
  "header": {
    "description": "Karaoke Mugen Tag File",
    "version": 1
  },
  "tag": {
    "aliases": [
      "Slayers - Micuţa Vrăjitoare",
      "Slayers TV",
      "The Slayers",
      "秀逗魔导士",
      "슬레이어즈"
    ],
    "external_database_ids": {
      "anilist": 534,
      "myanimelist": 534,
      "kitsu": 493
    },
    "i18n": {
      "cze": "Slayers - Lina, postrach banditů",
      "eng": "Slayers",
      "fre": "Slayers",
      "ger": "Slayers",
      "gre": "Ρίνα η Ξιφομάχος",
      "hun": "Slayers-A kis boszorkány",
      "ita": "Un incantesimo dischiuso tra i petali del tempo",
      "jpn": "スレイヤーズ",
      "kor": "마법소녀 리나",
      "pol": "Magiczni wojownicy",
      "rum": "Slayers",
      "rus": "Рубаки",
      "spa": "Reena y Gaudy",
      "qro": "Slayers"
    },
    "modified_at": "2020-03-31T19:04:32.779Z",
    "name": "Slayers",
    "repository": "kara.moe",
    "tid": "6adad8cc-6f70-4fc9-bc1b-92d805bb3103",
    "types": [
      "series",
      "1",
      "franchises",
      "18"
    ]
  }
}