{
  "header": {
    "description": "Karaoke Mugen Tag File",
    "version": 1
  },
  "tag": {
    "i18n": {
      "eng": "Sledgehammer Label"
    },
    "modified_at": "2020-04-30T20:08:29.766Z",
    "name": "Sledgehammer Label",
    "repository": "kara.moe",
    "tid": "734a4cf3-6530-4df8-a41d-67e724197212",
    "types": [
      "creators",
      "4"
    ]
  }
}