{
  "header": {
    "description": "Karaoke Mugen Tag File",
    "version": 1
  },
  "tag": {
    "external_database_ids": {
      "anilist": 112608,
      "myanimelist": 40586,
      "kitsu": 42628
    },
    "i18n": {
      "eng": "I've Been Killing Slimes for 300 Years and Maxed Out My Level",
      "jpn": "スライム倒して300年, 知らないうちにレベルMAXになってました",
      "ger": "Ich habe 300 Jahre lang Schleim getötet und aus Versehen das höchste Level erreicht",
      "qro": "Slime Taoshite 300-nen, Shiranai Uchi ni Level Max ni Nattemashita"
    },
    "modified_at": "2021-05-04T19:42:22.332Z",
    "name": "Slime Taoshite 300-nen, Shiranai Uchi ni Level Max ni Nattemashita",
    "repository": "kara.moe",
    "tid": "ea6c5151-dfac-45eb-8388-e81c640ecad4",
    "types": [
      "series",
      "1"
    ]
  }
}