{
  "header": {
    "description": "Karaoke Mugen Tag File",
    "version": 1
  },
  "tag": {
    "aliases": [
      "Ступеньки"
    ],
    "external_database_ids": {
      "anilist": 2180,
      "myanimelist": 2180,
      "kitsu": 1974
    },
    "i18n": {
      "eng": "Slow Step",
      "jpn": "スローステップ",
      "fre": "Slow Step",
      "qro": "Slow Step"
    },
    "name": "Slow Step",
    "repository": "kara.moe",
    "tid": "9aafbbe4-d019-42d9-a97a-c73c8332d37b",
    "types": [
      "series",
      "1"
    ]
  }
}