{
  "header": {
    "description": "Karaoke Mugen Tag File",
    "version": 1
  },
  "tag": {
    "i18n": {
      "eng": "SMAR"
    },
    "name": "SMAR",
    "tid": "6d15e033-e313-4e00-9323-ffc43f6bc45f",
    "types": [
      "creators",
      "4"
    ],
    "repository": "kara.moe",
    "modified_at": "2020-03-31T19:04:37.641Z"
  }
}