{
  "header": {
    "description": "Karaoke Mugen Tag File",
    "version": 1
  },
  "tag": {
    "i18n": {
      "eng": "SmashToons"
    },
    "modified_at": "2021-01-13T18:12:33.043Z",
    "name": "SmashToons",
    "repository": "kara.moe",
    "tid": "4613b166-93da-48eb-9108-32c6182bf9cc",
    "types": [
      "creators",
      "4"
    ]
  }
}