{
  "header": {
    "description": "Karaoke Mugen Tag File",
    "version": 1
  },
  "tag": {
    "i18n": {
      "eng": "SMILE PRINCESS"
    },
    "name": "SMILE PRINCESS",
    "repository": "kara.moe",
    "tid": "2876d049-f268-4fad-aa3c-14cbcf63aee1",
    "types": [
      "singergroups",
      "17"
    ]
  }
}