{
  "header": {
    "description": "Karaoke Mugen Tag File",
    "version": 1
  },
  "tag": {
    "i18n": {
      "eng": "Snake"
    },
    "modified_at": "2020-05-01T20:20:39.880Z",
    "name": "Snake",
    "repository": "kara.moe",
    "tid": "81eca5ac-9eda-44a6-8100-df049d96d46d",
    "types": [
      "singers",
      "2"
    ]
  }
}