{
  "header": {
    "description": "Karaoke Mugen Tag File",
    "version": 1
  },
  "tag": {
    "i18n": {
      "eng": "Snorks",
      "fre": "Les Snorkies"
    },
    "modified_at": "2020-03-31T19:04:32.779Z",
    "name": "Snorks",
    "repository": "kara.moe",
    "tid": "49ee8128-c685-4957-b634-b01052bfb11f",
    "types": [
      "series",
      "1"
    ]
  }
}