{
  "header": {
    "description": "Karaoke Mugen Tag File",
    "version": 1
  },
  "tag": {
    "i18n": {
      "eng": "Snow Man"
    },
    "modified_at": "2020-09-10T18:00:13.425Z",
    "name": "Snow Man",
    "repository": "kara.moe",
    "tid": "fb2b13a0-53c8-4cb6-be21-02f248e1b44b",
    "types": [
      "singers",
      "2"
    ]
  }
}