{
  "header": {
    "description": "Karaoke Mugen Tag File",
    "version": 1
  },
  "tag": {
    "i18n": {
      "eng": "SNow"
    },
    "name": "SNow",
    "tid": "3e8af5df-34cc-4c2e-ad31-5587ab12eb69",
    "types": [
      "songwriters",
      "8"
    ],
    "repository": "kara.moe",
    "modified_at": "2020-03-31T19:04:37.648Z"
  }
}