{
  "header": {
    "description": "Karaoke Mugen Tag File",
    "version": 1
  },
  "tag": {
    "i18n": {
      "eng": "so-hei"
    },
    "name": "so-hei",
    "tid": "ce0a720e-7edd-4299-a1d8-0734d1cd5124",
    "types": [
      "songwriters",
      "8"
    ],
    "repository": "kara.moe",
    "modified_at": "2020-03-31T19:04:37.651Z"
  }
}