{
  "header": {
    "description": "Karaoke Mugen Tag File",
    "version": 1
  },
  "tag": {
    "i18n": {
      "eng": "SodaCloudNG"
    },
    "modified_at": "2021-01-03T23:47:33.849Z",
    "name": "SodaCloudNG",
    "repository": "kara.moe",
    "tid": "7c6b2d46-d3d4-4909-9513-c5b13592d47e",
    "types": [
      "creators",
      "4"
    ]
  }
}