{
  "header": {
    "description": "Karaoke Mugen Tag File",
    "version": 1
  },
  "tag": {
    "i18n": {
      "eng": "sohcer92"
    },
    "name": "sohcer92",
    "repository": "kara.moe",
    "tid": "00b444ad-6f24-468b-a5be-6f1195d5f220",
    "types": [
      "authors",
      "6"
    ]
  }
}