{
  "header": {
    "description": "Karaoke Mugen Tag File",
    "version": 1
  },
  "tag": {
    "i18n": {
      "eng": "Sohoku Team"
    },
    "name": "Sohoku Team",
    "tid": "e901dcd4-6aa4-4c72-873d-4c904d1e1b61",
    "types": [
      "singers",
      "2"
    ],
    "repository": "kara.moe",
    "modified_at": "2020-03-31T19:04:37.652Z"
  }
}