{
  "header": {
    "description": "Karaoke Mugen Tag File",
    "version": 1
  },
  "tag": {
    "aliases": [
      "Soratorobo"
    ],
    "i18n": {
      "eng": "Solatorobo: RED the Hunter",
      "jpn": "ソラトロボ -それからCODAへ-",
      "qro": "Solatorobo: RED the Hunter"
    },
    "modified_at": "2020-03-31T19:04:32.783Z",
    "name": "Solatorobo: RED the Hunter",
    "repository": "kara.moe",
    "tid": "2a4dc1f8-2d2d-4d70-be93-12ce83cb0350",
    "types": [
      "series",
      "1"
    ]
  }
}