{
  "header": {
    "description": "Karaoke Mugen Tag File",
    "version": 1
  },
  "tag": {
    "aliases": [
      "Sola TV",
      "Небо",
      "سولا",
      "青空"
    ],
    "external_database_ids": {
      "anilist": 1965,
      "myanimelist": 1965,
      "kitsu": 1770
    },
    "i18n": {
      "eng": "sola",
      "jpn": "sola",
      "qro": "Sola"
    },
    "modified_at": "2020-03-31T19:04:32.783Z",
    "name": "Sola",
    "repository": "kara.moe",
    "tid": "53cfa304-862e-4905-8778-14fd3c674b4d",
    "types": [
      "series",
      "1"
    ]
  }
}