{
  "header": {
    "description": "Karaoke Mugen Tag File",
    "version": 1
  },
  "tag": {
    "i18n": {
      "eng": "Solua"
    },
    "name": "Solua",
    "tid": "bbe08a09-db8a-48bb-b11e-819c2c695818",
    "types": [
      "singers",
      "2"
    ],
    "repository": "kara.moe",
    "modified_at": "2020-03-31T19:04:37.656Z"
  }
}