{
  "header": {
    "description": "Karaoke Mugen Tag File",
    "version": 1
  },
  "tag": {
    "i18n": {
      "eng": "Sonar Pocket"
    },
    "name": "Sonar Pocket",
    "tid": "c7b683e1-4989-4333-a499-07e0b2343492",
    "types": [
      "singers",
      "2",
      "songwriters",
      "8"
    ],
    "repository": "kara.moe",
    "modified_at": "2020-03-31T19:04:37.658Z"
  }
}