{
  "header": {
    "description": "Karaoke Mugen Tag File",
    "version": 1
  },
  "tag": {
    "i18n": {
      "eng": "Sonet Records"
    },
    "name": "Sonet Records",
    "repository": "kara.moe",
    "tid": "f01ff1a8-d4e2-4245-bea6-afc8a4d5e59d",
    "types": [
      "creators",
      "4"
    ]
  }
}