{
  "header": {
    "description": "Karaoke Mugen Tag File",
    "version": 1
  },
  "tag": {
    "i18n": {
      "kor": "송우기",
      "chi": "宋雨琦",
      "qro": "Song Yuqi"
    },
    "name": "Song Yuqi",
    "repository": "kara.moe",
    "tid": "d50a5c36-689c-4fba-a5fe-f7b219a31748",
    "types": [
      "singers",
      "2"
    ]
  }
}