{
  "header": {
    "description": "Karaoke Mugen Tag File",
    "version": 1
  },
  "tag": {
    "i18n": {
      "eng": "Song Riders"
    },
    "name": "Song Riders",
    "tid": "0d61b041-a7a7-47d3-a896-a923f3512cea",
    "types": [
      "singers",
      "2"
    ],
    "repository": "kara.moe",
    "modified_at": "2020-03-31T19:04:37.658Z"
  }
}