{
  "header": {
    "description": "Karaoke Mugen Tag File",
    "version": 1
  },
  "tag": {
    "aliases": [
      "SoniAni"
    ],
    "external_database_ids": {
      "anilist": 20455,
      "myanimelist": 20555,
      "kitsu": 8031
    },
    "i18n": {
      "eng": "Soni-Ani: Super Sonico the Animation",
      "jpn": "そにアニ SUPER SONICO THE ANIMATION",
      "qro": "SoniAni: Super Sonico The Animation"
    },
    "modified_at": "2020-03-31T19:04:32.784Z",
    "name": "SoniAni: Super Sonico The Animation",
    "repository": "kara.moe",
    "tid": "6690b24e-43ac-4f6b-8546-2e265053f11f",
    "types": [
      "series",
      "1"
    ]
  }
}