{
  "header": {
    "description": "Karaoke Mugen Tag File",
    "version": 1
  },
  "tag": {
    "i18n": {
      "eng": "Sonic Underground",
      "fre": "Sonic le rebelle"
    },
    "modified_at": "2020-03-31T19:04:32.787Z",
    "name": "Sonic le rebelle",
    "repository": "kara.moe",
    "tid": "7183ed8a-99cc-445a-883d-81d2a35a9efc",
    "types": [
      "series",
      "1"
    ]
  }
}