{
  "header": {
    "description": "Karaoke Mugen Tag File",
    "version": 1
  },
  "tag": {
    "i18n": {
      "eng": "Sonic Frontiers"
    },
    "name": "Sonic Frontiers",
    "repository": "kara.moe",
    "tid": "ebed5737-040e-4aaf-a73c-a5d29009bfd8",
    "types": [
      "series",
      "1"
    ]
  }
}