{
  "header": {
    "description": "Karaoke Mugen Tag File",
    "version": 1
  },
  "tag": {
    "i18n": {
      "eng": "Sonic R"
    },
    "modified_at": "2021-11-02T23:51:08.733Z",
    "name": "Sonic R",
    "repository": "kara.moe",
    "tid": "3a50e595-fcbc-43ef-8f3b-66709118914f",
    "types": [
      "series",
      "1"
    ]
  }
}