{
  "header": {
    "description": "Karaoke Mugen Tag File",
    "version": 1
  },
  "tag": {
    "i18n": {
      "eng": "Sonic Groove"
    },
    "name": "Sonic Groove",
    "tid": "63684ae0-7eaf-4339-993d-946a34d7ab19",
    "types": [
      "creators",
      "4"
    ],
    "repository": "kara.moe",
    "modified_at": "2020-03-31T19:04:37.660Z"
  }
}