{
  "header": {
    "description": "Karaoke Mugen Tag File",
    "version": 1
  },
  "tag": {
    "i18n": {
      "eng": "Sonny Burke"
    },
    "name": "Sonny Burke",
    "repository": "kara.moe",
    "tid": "d5b510a4-c659-4ede-bd23-1174036b4ced",
    "types": [
      "songwriters",
      "8"
    ]
  }
}