{
  "header": {
    "description": "Karaoke Mugen Tag File",
    "version": 1
  },
  "tag": {
    "external_database_ids": {
      "anilist": 132126,
      "myanimelist": 48849,
      "kitsu": 44501
    },
    "i18n": {
      "eng": "Sonny Boy",
      "jpn": "Sonny Boy",
      "qro": "Sonny Boy"
    },
    "modified_at": "2021-09-04T18:22:34.350Z",
    "name": "Sonny Boy",
    "repository": "kara.moe",
    "tid": "e51bde0d-e42f-445d-b288-5966474a0f6f",
    "types": [
      "series",
      "1"
    ]
  }
}