{
  "header": {
    "description": "Karaoke Mugen Tag File",
    "version": 1
  },
  "tag": {
    "i18n": {
      "eng": "Sony Pictures Animation"
    },
    "name": "Sony Pictures Animation",
    "tid": "8a2744aa-f3bd-466a-aab6-7dd2ce5529de",
    "types": [
      "creators",
      "4"
    ],
    "repository": "kara.moe",
    "modified_at": "2020-03-31T19:04:37.663Z"
  }
}