{
  "header": {
    "description": "Karaoke Mugen Tag File",
    "version": 1
  },
  "tag": {
    "i18n": {
      "eng": "Sora"
    },
    "name": "Sora",
    "tid": "152b9b7c-31d7-4f9a-8891-d045cddea791",
    "types": [
      "songwriters",
      "8"
    ],
    "repository": "kara.moe",
    "modified_at": "2020-03-31T19:04:37.668Z"
  }
}