{
  "header": {
    "description": "Karaoke Mugen Tag File",
    "version": 1
  },
  "tag": {
    "i18n": {
      "eng": "Sorato"
    },
    "name": "Sorato",
    "tid": "2bf61ad9-9300-4d0f-aacc-4d9ef54a0871",
    "types": [
      "songwriters",
      "8"
    ],
    "repository": "kara.moe",
    "modified_at": "2020-03-31T19:04:37.671Z"
  }
}