{
  "header": {
    "description": "Karaoke Mugen Tag File",
    "version": 1
  },
  "tag": {
    "i18n": {
      "eng": "Sora Hasegawa"
    },
    "name": "Sora Hasegawa",
    "tid": "7ce4b046-f276-4bc9-a54a-29e6bf1930b6",
    "types": [
      "songwriters",
      "8"
    ],
    "repository": "kara.moe",
    "modified_at": "2020-03-31T19:04:37.665Z"
  }
}