{
  "header": {
    "description": "Karaoke Mugen Tag File",
    "version": 1
  },
  "tag": {
    "i18n": {
      "eng": "Soramimi"
    },
    "name": "Soramimi",
    "tid": "1db1738f-acdc-42fc-aec3-60f4bddf660d",
    "types": [
      "authors",
      "6"
    ],
    "repository": "kara.moe",
    "modified_at": "2020-03-31T19:04:37.670Z"
  }
}