{
  "header": {
    "description": "Karaoke Mugen Tag File",
    "version": 1
  },
  "tag": {
    "aliases": [
      "SoreMachi",
      "Soredemo Machi wa Mawatteiru",
      "Yet the Town Keeps Going",
      "Yet the Town Turns",
      "それ町"
    ],
    "external_database_ids": {
      "anilist": 8726,
      "myanimelist": 8726,
      "kitsu": 5462
    },
    "i18n": {
      "eng": "And Yet the Town Moves",
      "jpn": "それでも町は廻っている",
      "qro": "Soredemo Machi wa Mawatte Iru"
    },
    "modified_at": "2020-03-31T19:04:32.793Z",
    "name": "Soredemo Machi wa Mawatte Iru",
    "repository": "kara.moe",
    "tid": "4ea7c9c8-429d-43e0-bac5-4e9b06a2b446",
    "types": [
      "series",
      "1"
    ]
  }
}