{
  "header": {
    "description": "Karaoke Mugen Tag File",
    "version": 1
  },
  "tag": {
    "aliases": [
      "Still World Is Beautiful",
      "soreseka"
    ],
    "external_database_ids": {
      "anilist": 20599,
      "myanimelist": 22101,
      "kitsu": 8258
    },
    "i18n": {
      "chi": "即使如此世界依然美麗",
      "eng": "The World Is Still Beautiful",
      "fre": "The World is Still Beautiful",
      "jpn": "それでも世界は美しい Still world is Beautiful",
      "spa": "Soredemo Sekai wa Utsukushii",
      "qro": "Soredemo Sekai wa Utsukushii"
    },
    "modified_at": "2020-03-31T19:04:32.795Z",
    "name": "Soredemo Sekai wa Utsukushii",
    "repository": "kara.moe",
    "tid": "1ecfc1bb-83c3-44c6-a42a-f7e3c78244bd",
    "types": [
      "series",
      "1"
    ]
  }
}