{
  "header": {
    "description": "Karaoke Mugen Tag File",
    "version": 1
  },
  "tag": {
    "i18n": {
      "jpn": "粗品",
      "qro": "soshina"
    },
    "name": "soshina",
    "repository": "kara.moe",
    "tid": "2297b325-3689-4e9c-ad5c-8cc71be8daa0",
    "types": [
      "songwriters",
      "8"
    ]
  }
}