{
  "header": {
    "description": "Karaoke Mugen Tag File",
    "version": 1
  },
  "tag": {
    "i18n": {
      "eng": "Soshi Hosoi"
    },
    "name": "Soshi Hosoi",
    "tid": "1bc343bd-ab57-4ac4-9802-d16fbfce92a3",
    "types": [
      "songwriters",
      "8"
    ],
    "repository": "kara.moe",
    "modified_at": "2020-03-31T19:04:37.672Z"
  }
}