{
  "header": {
    "description": "Karaoke Mugen Tag File",
    "version": 1
  },
  "tag": {
    "i18n": {
      "eng": "Soshi Isaka"
    },
    "name": "Soshi Isaka",
    "repository": "kara.moe",
    "tid": "28d65bbe-2327-4794-9ef9-361dd72d70cb",
    "types": [
      "songwriters",
      "8"
    ]
  }
}