{
  "header": {
    "description": "Karaoke Mugen Tag File",
    "version": 1
  },
  "tag": {
    "i18n": {
      "eng": "SOSOSO-P"
    },
    "modified_at": "2020-05-01T20:57:12.631Z",
    "name": "SOSOSO-P",
    "repository": "kara.moe",
    "tid": "f504ddd1-44f4-4340-b235-702749d227a3",
    "types": [
      "songwriters",
      "8"
    ]
  }
}