{
  "header": {
    "description": "Karaoke Mugen Tag File",
    "version": 1
  },
  "tag": {
    "aliases": [
      "Soukou Akki Muramasa",
      "soukou"
    ],
    "i18n": {
      "eng": "Full Metal Daemon: Muramasa",
      "jpn": "装甲悪鬼村正",
      "qro": "Sôkô Akki Muramasa"
    },
    "modified_at": "2020-03-31T19:04:32.796Z",
    "name": "Sôkô Akki Muramasa",
    "repository": "kara.moe",
    "tid": "402aa021-c97e-40fc-8d37-3cf31e53fb61",
    "types": [
      "series",
      "1"
    ]
  }
}