{
  "header": {
    "description": "Karaoke Mugen Tag File",
    "version": 1
  },
  "tag": {
    "aliases": [
      "Soukou Kihei VOTOMS",
      "Votoms TV",
      "Zırhlı Piyade Votoms",
      "soukou"
    ],
    "external_database_ids": {
      "anilist": 2582,
      "myanimelist": 2582,
      "kitsu": 2347
    },
    "i18n": {
      "eng": "Armored Trooper VOTOMS",
      "jpn": "装甲騎兵ボトムズ",
      "qro": "Sôkô Kihei Votoms"
    },
    "modified_at": "2020-03-31T19:04:32.797Z",
    "name": "Sôkô Kihei Votoms",
    "repository": "kara.moe",
    "tid": "071029ef-a64a-4102-939d-69e3872259c5",
    "types": [
      "series",
      "1",
      "franchises",
      "18"
    ]
  }
}