{
  "header": {
    "description": "Karaoke Mugen Tag File",
    "version": 1
  },
  "tag": {
    "i18n": {
      "eng": "Soulife"
    },
    "name": "Soulife",
    "repository": "kara.moe",
    "tid": "26e88a09-f4fa-48aa-a4a6-7d7bf29a0014",
    "types": [
      "songwriters",
      "8"
    ]
  }
}