{
  "header": {
    "description": "Karaoke Mugen Tag File",
    "version": 1
  },
  "tag": {
    "i18n": {
      "eng": "Sôta Sugahara"
    },
    "name": "Sôta Sugahara",
    "tid": "ba831d47-11a0-4e2b-85bc-d3b60c7bc00a",
    "types": [
      "songwriters",
      "8"
    ],
    "repository": "kara.moe",
    "modified_at": "2020-03-31T19:04:37.682Z"
  }
}