{
  "header": {
    "description": "Karaoke Mugen Tag File",
    "version": 1
  },
  "tag": {
    "aliases": [
      "Soten Koro",
      "Souten Kouro",
      "За Небесами",
      "ما وراء السماء",
      "苍天航路",
      "souten",
      "kouro"
    ],
    "external_database_ids": {
      "anilist": 5226,
      "myanimelist": 5226,
      "kitsu": 3998
    },
    "i18n": {
      "eng": "Beyond the Heavens",
      "jpn": "蒼天航路",
      "qro": "Sôten Kôro"
    },
    "modified_at": "2020-03-31T19:04:32.806Z",
    "name": "Sôten Kôro",
    "repository": "kara.moe",
    "tid": "b40d6066-3ffe-497e-8f41-aa569550f0cc",
    "types": [
      "series",
      "1"
    ]
  }
}