{
  "header": {
    "description": "Karaoke Mugen Tag File",
    "version": 1
  },
  "tag": {
    "aliases": [
      "Spectroman"
    ],
    "i18n": {
      "eng": "Spectreman",
      "jpn": "スペクトルマン",
      "qro": "Spectreman"
    },
    "modified_at": "2020-03-31T19:04:32.809Z",
    "name": "Spectreman",
    "repository": "kara.moe",
    "tid": "ce1fde84-16f6-4f92-919a-f8daf4065a74",
    "types": [
      "series",
      "1"
    ]
  }
}