{
  "header": {
    "description": "Karaoke Mugen Tag File",
    "version": 1
  },
  "tag": {
    "i18n": {
      "eng": "Spicy Tails"
    },
    "name": "Spicy Tails",
    "tid": "fda14a2c-77a7-4cfc-b53d-b61c8283e4d1",
    "types": [
      "creators",
      "4"
    ],
    "repository": "kara.moe",
    "modified_at": "2020-03-31T19:04:37.690Z"
  }
}