{
  "header": {
    "description": "Karaoke Mugen Tag File",
    "version": 1
  },
  "tag": {
    "i18n": {
      "eng": "Spider-Man: Across the spiderverse"
    },
    "name": "Spider-Man: Across the spiderverse",
    "repository": "kara.moe",
    "tid": "b4cfd324-4a81-46dc-8262-91a82d173ea5",
    "types": [
      "series",
      "1"
    ]
  }
}