{
  "header": {
    "description": "Karaoke Mugen Tag File",
    "version": 1
  },
  "tag": {
    "i18n": {
      "eng": "SPIKE"
    },
    "name": "SPIKE",
    "repository": "kara.moe",
    "tid": "4f6cfe38-dec0-43d4-b9db-90f25072124a",
    "types": [
      "creators",
      "4"
    ]
  }
}