{
  "header": {
    "description": "Karaoke Mugen Tag File",
    "version": 1
  },
  "tag": {
    "i18n": {
      "eng": "Spinoid",
      "jpn": "スピノイド",
      "qro": "Spinoid"
    },
    "modified_at": "2020-03-31T19:04:32.813Z",
    "name": "Spinoid",
    "repository": "kara.moe",
    "tid": "74b86cd7-e7e5-42dc-9ab4-62e43eb45ac8",
    "types": [
      "series",
      "1"
    ]
  }
}