{
  "header": {
    "description": "Karaoke Mugen Tag File",
    "version": 1
  },
  "tag": {
    "i18n": {
      "eng": "Spiral Zone"
    },
    "modified_at": "2020-03-31T19:04:32.814Z",
    "name": "Spiral Zone",
    "repository": "kara.moe",
    "tid": "04a61f37-1022-4d35-8861-9eb0d156bd3d",
    "types": [
      "series",
      "1"
    ]
  }
}