{
  "header": {
    "description": "Karaoke Mugen Tag File",
    "version": 1
  },
  "tag": {
    "i18n": {
      "fre": "Spirou"
    },
    "modified_at": "2020-03-31T19:04:32.814Z",
    "name": "Spirou",
    "repository": "kara.moe",
    "tid": "68546b8b-f14d-439f-aad6-fdd658bda2a1",
    "types": [
      "series",
      "1"
    ]
  }
}