{
  "header": {
    "description": "Karaoke Mugen Tag File",
    "version": 1
  },
  "tag": {
    "i18n": {
      "eng": "Spiral Ladder"
    },
    "name": "Spiral Ladder",
    "repository": "kara.moe",
    "tid": "13ea0f95-ce15-4be4-83ba-09c6fdddfa13",
    "types": [
      "songwriters",
      "8"
    ]
  }
}