{
  "header": {
    "description": "Karaoke Mugen Tag File",
    "version": 1
  },
  "tag": {
    "i18n": {
      "eng": "Splatoon",
      "jpn": "スプラトゥーン",
      "qro": "Splatoon"
    },
    "modified_at": "2020-03-31T19:04:32.816Z",
    "name": "Splatoon",
    "repository": "kara.moe",
    "tid": "775d1552-4e37-48a2-a5dd-80e577306453",
    "types": [
      "series",
      "1",
      "franchises",
      "18"
    ]
  }
}