{
  "header": {
    "description": "Karaoke Mugen Tag File",
    "version": 1
  },
  "tag": {
    "i18n": {
      "eng": "Splatoon 3"
    },
    "name": "Splatoon 3",
    "repository": "kara.moe",
    "tid": "a8d200a9-646b-4661-967b-1119a1465cb8",
    "types": [
      "series",
      "1"
    ]
  }
}