{
  "header": {
    "description": "Karaoke Mugen Tag File",
    "version": 1
  },
  "tag": {
    "i18n": {
      "eng": "Spray"
    },
    "name": "Spray",
    "tid": "d2d60be6-707c-4bac-9ec6-37e42cc02a33",
    "types": [
      "creators",
      "4"
    ],
    "repository": "kara.moe",
    "modified_at": "2020-03-31T19:04:37.695Z"
  }
}