{
  "header": {
    "description": "Karaoke Mugen Tag File",
    "version": 1
  },
  "tag": {
    "i18n": {
      "eng": "Stage☆nana"
    },
    "name": "Stage☆nana",
    "tid": "d9b26b62-e8cb-4ac6-b207-c8d17d01e193",
    "types": [
      "creators",
      "4"
    ],
    "repository": "kara.moe",
    "modified_at": "2020-03-31T19:04:37.703Z"
  }
}