{
  "header": {
    "description": "Karaoke Mugen Tag File",
    "version": 1
  },
  "tag": {
    "external_database_ids": {
      "anilist": 20515,
      "myanimelist": 21469,
      "kitsu": 8566
    },
    "i18n": {
      "chi": "哆啦A梦: 伴我同行",
      "eng": "Stand By Me Doraemon",
      "jpn": "STAND BY ME ドラえもん",
      "qro": "Stand By Me Doraemon"
    },
    "modified_at": "2020-03-31T19:04:32.817Z",
    "name": "Stand By Me Doraemon",
    "repository": "kara.moe",
    "tid": "cb29d828-4a4c-4186-94a4-7f773b8c34c2",
    "types": [
      "series",
      "1"
    ]
  }
}