{
  "header": {
    "description": "Karaoke Mugen Tag File",
    "version": 1
  },
  "tag": {
    "i18n": {
      "eng": "Stan Bush"
    },
    "name": "Stan Bush",
    "tid": "60abb4b1-e02d-4ebb-b862-4357b37c951e",
    "types": [
      "singers",
      "2",
      "songwriters",
      "8"
    ],
    "repository": "kara.moe",
    "modified_at": "2020-03-31T19:04:37.704Z"
  }
}