{
  "header": {
    "description": "Karaoke Mugen Tag File",
    "version": 1
  },
  "tag": {
    "i18n": {
      "eng": "Stardust Planet"
    },
    "name": "Stardust Planet",
    "repository": "kara.moe",
    "tid": "4b2d69b5-7840-48d7-bb67-f0f1948d285d",
    "types": [
      "creators",
      "4"
    ]
  }
}