{
  "header": {
    "description": "Karaoke Mugen Tag File",
    "version": 1
  },
  "tag": {
    "i18n": {
      "fre": "Star Butterfly"
    },
    "modified_at": "2020-03-31T19:04:32.821Z",
    "name": "Star vs. the Forces of Evil",
    "repository": "kara.moe",
    "tid": "cb3b4e14-124f-4f82-9f51-d1a82a6af700",
    "types": [
      "series",
      "1"
    ]
  }
}