{
  "header": {
    "description": "Karaoke Mugen Tag File",
    "version": 1
  },
  "tag": {
    "i18n": {
      "jpn": "スタァライト九九組",
      "qro": "Starlight Kukugumi"
    },
    "name": "Starlight Kukugumi",
    "repository": "kara.moe",
    "tid": "30caa67d-4228-4164-a807-6dd484dd7b19",
    "types": [
      "singergroups",
      "17"
    ]
  }
}