{
  "header": {
    "description": "Karaoke Mugen Tag File",
    "version": 1
  },
  "tag": {
    "i18n": {
      "eng": "Star Flower"
    },
    "name": "Star Flower",
    "repository": "kara.moe",
    "tid": "351e7caf-a1d9-423f-99a9-2ceff84a765d",
    "types": [
      "singers",
      "2"
    ]
  }
}