{
  "header": {
    "description": "Karaoke Mugen Tag File",
    "version": 1
  },
  "tag": {
    "aliases": [
      "High School Star Musical"
    ],
    "i18n": {
      "eng": "Starmyu",
      "jpn": "高校星歌劇[スタミュ]",
      "qro": " Koukou Hoshi Kageki [Starmyu]"
    },
    "name": "Starmyu",
    "repository": "kara.moe",
    "tid": "f71b042c-1ba2-41f4-ba6f-5027a9c4ffe2",
    "types": [
      "franchises",
      "18"
    ]
  }
}