{
  "header": {
    "description": "Karaoke Mugen Tag File",
    "version": 1
  },
  "tag": {
    "i18n": {
      "eng": "STARMARIE"
    },
    "name": "STARMARIE",
    "tid": "9e135e87-3ba1-4252-a644-7ca41493f720",
    "types": [
      "singers",
      "2"
    ],
    "repository": "kara.moe",
    "modified_at": "2020-03-31T19:04:37.708Z"
  }
}