{
  "header": {
    "description": "Karaoke Mugen Tag File",
    "version": 1
  },
  "tag": {
    "i18n": {
      "eng": "Stardust Promotion",
      "jpn": "スターダストプロモーション"
    },
    "name": "Stardust Promotion",
    "repository": "kara.moe",
    "tid": "f1d08221-6523-4df1-8f86-35fc50b6f0ac",
    "types": [
      "creators",
      "4"
    ]
  }
}