{
  "header": {
    "description": "Karaoke Mugen Tag File",
    "version": 1
  },
  "tag": {
    "i18n": {
      "jpn": "Starry☆Sky ～Autumn Stories～",
      "qro": "Starry☆Sky ～Autumn Stories～"
    },
    "modified_at": "2020-03-31T19:04:32.825Z",
    "name": "Starry☆Sky ～Autumn Stories～",
    "repository": "kara.moe",
    "tid": "289852e0-4712-482b-8c5d-c806e4817849",
    "types": [
      "series",
      "1"
    ]
  }
}