{
  "header": {
    "description": "Karaoke Mugen Tag File",
    "version": 1
  },
  "tag": {
    "i18n": {
      "eng": "Starset"
    },
    "name": "Starset",
    "repository": "kara.moe",
    "tid": "d1654938-427c-453f-b14b-d33d303df442",
    "types": [
      "singers",
      "2"
    ]
  }
}