{
  "header": {
    "description": "Karaoke Mugen Tag File",
    "version": 1
  },
  "tag": {
    "aliases": [
      "High School Star Musical 3rd Season"
    ],
    "i18n": {
      "eng": "Starmyu 3",
      "jpn": "高校星歌劇[スタミュ] 3rdシーズン ",
      "qro": "Koukou Hoshi Kageki [Starmyu] 3rd Series"
    },
    "name": "Starmyu 3",
    "repository": "kara.moe",
    "tid": "13a90e22-7005-4481-9bc0-1eef25080947",
    "types": [
      "series",
      "1"
    ]
  }
}