{
  "header": {
    "description": "Karaoke Mugen Tag File",
    "version": 1
  },
  "tag": {
    "i18n": {
      "jpn": "Starry☆Sky ～in Autumn～",
      "qro": "Starry☆Sky ～in Autumn～"
    },
    "modified_at": "2020-03-31T19:04:32.825Z",
    "name": "Starry☆Sky ～in Autumn～",
    "repository": "kara.moe",
    "tid": "2a186e04-4016-4f06-b379-20f5cf7650d7",
    "types": [
      "series",
      "1"
    ]
  }
}