{
  "header": {
    "description": "Karaoke Mugen Tag File",
    "version": 1
  },
  "tag": {
    "i18n": {
      "eng": "Starsky and Hutch",
      "fre": "Starsky et Hutch"
    },
    "name": "Starsky and Hutch",
    "repository": "kara.moe",
    "tid": "cb04882b-6457-450f-ae32-9eb4cbecb79d",
    "types": [
      "series",
      "1"
    ]
  }
}