{
  "header": {
    "description": "Karaoke Mugen Tag File",
    "version": 1
  },
  "tag": {
    "i18n": {
      "eng": "STAR ANIS"
    },
    "name": "STAR ANIS",
    "tid": "3077d8c1-c730-4636-8ff8-382367a005d5",
    "types": [
      "singers",
      "2"
    ],
    "repository": "kara.moe",
    "modified_at": "2020-03-31T19:04:37.705Z"
  }
}