{
  "header": {
    "description": "Karaoke Mugen Tag File",
    "version": 1
  },
  "tag": {
    "i18n": {
      "eng": "Star Ocean: Second Evolution",
      "jpn": "スターオーシャン2 Second Evolution",
      "qro": "Star Ocean Second Evolution"
    },
    "modified_at": "2020-03-31T19:04:32.819Z",
    "name": "Star Ocean Second Evolution",
    "repository": "kara.moe",
    "tid": "3ff8afc9-a1d4-4b57-b00a-6d963fcd7d4e",
    "types": [
      "series",
      "1"
    ]
  }
}