{
  "header": {
    "description": "Karaoke Mugen Tag File",
    "version": 1
  },
  "tag": {
    "aliases": [
      "SO"
    ],
    "external_database_ids": {
      "anilist": 342,
      "myanimelist": 342,
      "kitsu": 309
    },
    "i18n": {
      "fre": "Starship Operators",
      "ger": "Starship Operators",
      "jpn": "スターシップ・オペレーターズ",
      "rus": "Пилоты звёздных кораблей",
      "qro": "Starship Operators"
    },
    "modified_at": "2020-03-31T19:04:32.831Z",
    "name": "Starship Operators",
    "repository": "kara.moe",
    "tid": "adf29e86-0e5a-40f6-90a9-0281b6413736",
    "types": [
      "series",
      "1"
    ]
  }
}