{
  "header": {
    "description": "Karaoke Mugen Tag File",
    "version": 1
  },
  "tag": {
    "aliases": [
      "Ryan Andrew Giovanni Bosco Seewald"
    ],
    "i18n": {
      "eng": "Static-P"
    },
    "name": "Static-P",
    "repository": "kara.moe",
    "tid": "ebf1a382-c33b-4c54-b42d-13bad1e3418f",
    "types": [
      "creators",
      "4",
      "singers",
      "2",
      "songwriters",
      "8"
    ]
  }
}