{
  "header": {
    "description": "Karaoke Mugen Tag File",
    "version": 1
  },
  "tag": {
    "aliases": [
      "Steins Gate",
      "s;g",
      "sg",
      "shutage",
      "Брама Штайна",
      "Ворота Штейна",
      "Врата Штейна",
      "Штэйнс Гэйт",
      "シュタインズ ゲート",
      "シュタインズ・ゲート",
      "シュタゲ",
      "史塔斯閘門",
      "斯坦因之門",
      "石頭門",
      "黑曜石之門",
      "슈타인즈 게이트",
      "steins gate"
    ],
    "external_database_ids": {
      "anilist": 9253,
      "myanimelist": 9253,
      "kitsu": 5646
    },
    "i18n": {
      "chi": "命運石之門",
      "eng": "Steins;Gate",
      "fre": "Steins;Gate",
      "ger": "Steins;Gate",
      "ita": "Steins;Gate",
      "jpn": "Steins;Gate",
      "qro": "Steins;Gate"
    },
    "modified_at": "2020-06-21T23:45:31.966Z",
    "name": "Steins;Gate",
    "repository": "kara.moe",
    "tid": "afc0f5fc-26e3-4292-b818-1e96c196988a",
    "types": [
      "series",
      "1",
      "franchises",
      "18"
    ]
  }
}