{
  "header": {
    "description": "Karaoke Mugen Tag File",
    "version": 1
  },
  "tag": {
    "i18n": {
      "eng": "Stephen McNair"
    },
    "name": "Stephen McNair",
    "tid": "c22c24f9-cb8d-4f6c-bdd8-d9df49658476",
    "types": [
      "songwriters",
      "8"
    ],
    "repository": "kara.moe",
    "modified_at": "2020-03-31T19:04:37.718Z"
  }
}