{
  "header": {
    "description": "Karaoke Mugen Tag File",
    "version": 1
  },
  "tag": {
    "i18n": {
      "eng": "Stephen Kirk"
    },
    "name": "Stephen Kirk",
    "repository": "kara.moe",
    "tid": "0d2b18c5-2a04-40de-9419-59e53c8bbb8e",
    "types": [
      "songwriters",
      "8"
    ]
  }
}