{
  "header": {
    "description": "Karaoke Mugen Tag File",
    "version": 1
  },
  "tag": {
    "i18n": {
      "eng": "Stéphane"
    },
    "name": "Stéphane",
    "tid": "e89a8ae1-f8da-46a5-9f48-45a227980879",
    "types": [
      "singers",
      "2"
    ],
    "repository": "kara.moe",
    "modified_at": "2020-03-31T19:04:37.714Z"
  }
}