{
  "header": {
    "description": "Karaoke Mugen Tag File",
    "version": 1
  },
  "tag": {
    "i18n": {
      "eng": "Stephen Walking"
    },
    "modified_at": "2020-08-08T12:24:51.797Z",
    "name": "Stephen Walking",
    "repository": "kara.moe",
    "tid": "564842f9-ba74-4526-9096-920b7532dd39",
    "types": [
      "songwriters",
      "8"
    ]
  }
}