{
  "header": {
    "description": "Karaoke Mugen Tag File",
    "version": 1
  },
  "tag": {
    "i18n": {
      "eng": "Stephen Flaherty"
    },
    "modified_at": "2020-07-03T22:59:31.135Z",
    "name": "Stephen Flaherty",
    "repository": "kara.moe",
    "tid": "e7b010fc-21f9-41b4-8819-19a77a679be2",
    "types": [
      "songwriters",
      "8"
    ]
  }
}