{
  "header": {
    "description": "Karaoke Mugen Tag File",
    "version": 1
  },
  "tag": {
    "i18n": {
      "eng": "Stéphanie Vondenhoff"
    },
    "name": "Stéphanie Vondenhoff",
    "tid": "3845df33-815d-422c-91f5-35338bf2fca2",
    "types": [
      "singers",
      "2"
    ],
    "repository": "kara.moe",
    "modified_at": "2020-03-31T19:04:37.717Z"
  }
}