{
  "header": {
    "description": "Karaoke Mugen Tag File",
    "version": 1
  },
  "tag": {
    "i18n": {
      "eng": "STEVE N' STEVEN"
    },
    "name": "STEVE N' STEVEN",
    "tid": "a6a42cda-ecf6-4d9f-9c4c-a4674b453ae3",
    "types": [
      "creators",
      "4"
    ],
    "repository": "kara.moe",
    "modified_at": "2020-03-31T19:04:37.722Z"
  }
}