{
  "header": {
    "description": "Karaoke Mugen Tag File",
    "version": 1
  },
  "tag": {
    "i18n": {
      "eng": "Steve Dorian"
    },
    "modified_at": "2021-01-13T18:12:32.317Z",
    "name": "Steve Dorian",
    "repository": "kara.moe",
    "tid": "dcfdeb9f-f3f9-4701-a19f-fc2a7e894cc9",
    "types": [
      "creators",
      "4"
    ]
  }
}