{
  "header": {
    "description": "Karaoke Mugen Tag File",
    "version": 1
  },
  "tag": {
    "i18n": {
      "eng": "Steve Conte"
    },
    "name": "Steve Conte",
    "tid": "a772a8cb-5f3e-40fc-9c58-5467bf982b52",
    "types": [
      "singers",
      "2"
    ],
    "repository": "kara.moe",
    "modified_at": "2020-03-31T19:04:37.720Z"
  }
}