{
  "header": {
    "description": "Karaoke Mugen Tag File",
    "version": 1
  },
  "tag": {
    "i18n": {
      "eng": "Steve Bernstein"
    },
    "name": "Steve Bernstein",
    "repository": "kara.moe",
    "tid": "650a6698-b2eb-42c8-958b-440f5c14ab6d",
    "types": [
      "songwriters",
      "8"
    ]
  }
}