{
  "header": {
    "description": "Karaoke Mugen Tag File",
    "version": 1
  },
  "tag": {
    "i18n": {
      "eng": "Steve Aoki"
    },
    "name": "Steve Aoki",
    "repository": "kara.moe",
    "tid": "4280f66d-ce8f-416b-a493-dd9f400ecb36",
    "types": [
      "songwriters",
      "8"
    ]
  }
}