{
  "header": {
    "description": "Karaoke Mugen Tag File",
    "version": 1
  },
  "tag": {
    "i18n": {
      "eng": "Steven Geraghty"
    },
    "name": "Steven Geraghty",
    "tid": "5cc16cec-b0b3-4dd5-aec9-6f7334c97e0e",
    "types": [
      "singers",
      "2"
    ],
    "repository": "kara.moe",
    "modified_at": "2020-03-31T19:04:37.724Z"
  }
}