{
  "header": {
    "description": "Karaoke Mugen Tag File",
    "version": 1
  },
  "tag": {
    "i18n": {
      "eng": "Stevie Wonder"
    },
    "modified_at": "2021-07-23T21:38:47.517Z",
    "name": "Stevie Wonder",
    "repository": "kara.moe",
    "tid": "c2cc507a-59ef-4036-845d-45ebc5301508",
    "types": [
      "songwriters",
      "8"
    ]
  }
}