{
  "header": {
    "description": "Karaoke Mugen Tag File",
    "version": 1
  },
  "tag": {
    "i18n": {
      "eng": "Stickin' Around",
      "fre": "Les Graffitos"
    },
    "modified_at": "2021-02-19T00:16:18.592Z",
    "name": "Stickin' Around",
    "repository": "kara.moe",
    "tid": "9ac2cd36-94c5-407f-8df0-45373d140772",
    "types": [
      "series",
      "1"
    ]
  }
}