{
  "header": {
    "description": "Karaoke Mugen Tag File",
    "version": 1
  },
  "tag": {
    "i18n": {
      "eng": "STING"
    },
    "name": "STING",
    "tid": "d2d96bc0-4a06-44bf-81bf-b48ab8276e2f",
    "types": [
      "creators",
      "4"
    ],
    "repository": "kara.moe",
    "modified_at": "2020-03-31T19:04:37.727Z"
  }
}