{
  "header": {
    "description": "Karaoke Mugen Tag File",
    "version": 1
  },
  "tag": {
    "i18n": {
      "eng": "Storm"
    },
    "name": "Storm",
    "tid": "65761521-3090-419e-846a-a6160d8a9f22",
    "types": [
      "authors",
      "6"
    ],
    "repository": "kara.moe",
    "modified_at": "2020-03-31T19:04:37.729Z"
  }
}