{
  "header": {
    "description": "Karaoke Mugen Tag File",
    "version": 1
  },
  "tag": {
    "i18n": {
      "eng": "Stray Kids",
      "kor": "스트레이 키즈"
    },
    "name": "Stray Kids",
    "repository": "kara.moe",
    "tid": "18e36fb1-1135-44db-a4ac-a113849d64b3",
    "types": [
      "singergroups",
      "17"
    ]
  }
}