{
  "header": {
    "description": "Karaoke Mugen Tag File",
    "version": 1
  },
  "tag": {
    "i18n": {
      "eng": "Straw Hat"
    },
    "name": "Straw Hat",
    "tid": "5cc5c66e-0516-4b98-b636-c5d39094f1aa",
    "types": [
      "singers",
      "2"
    ],
    "repository": "kara.moe",
    "modified_at": "2020-03-31T19:04:37.731Z"
  }
}