{
  "header": {
    "description": "Karaoke Mugen Tag File",
    "version": 1
  },
  "tag": {
    "aliases": [
      "SPanic",
      "ストパニ",
      "惊爆草莓",
      "草莓狂热"
    ],
    "external_database_ids": {
      "anilist": 855,
      "myanimelist": 855,
      "kitsu": 757
    },
    "i18n": {
      "eng": "Strawberry Panic",
      "jpn": "ストロベリー・パニック",
      "qro": "Strawberry Panic"
    },
    "modified_at": "2020-03-31T19:04:32.838Z",
    "name": "Strawberry Panic",
    "repository": "kara.moe",
    "tid": "8161c557-8aee-4c8a-ae51-e65d118926df",
    "types": [
      "series",
      "1"
    ]
  }
}