{
  "header": {
    "description": "Karaoke Mugen Tag File",
    "version": 1
  },
  "tag": {
    "i18n": {
      "eng": "Straightener"
    },
    "name": "Straightener",
    "repository": "kara.moe",
    "tid": "3354d12a-a0d6-439c-a4f6-e5944edecd5d",
    "types": [
      "singers",
      "2"
    ]
  }
}