{
  "header": {
    "description": "Karaoke Mugen Tag File",
    "version": 1
  },
  "tag": {
    "i18n": {
      "eng": "Street Fighter II"
    },
    "modified_at": "2021-06-24T22:49:07.325Z",
    "name": "Street Fighter II",
    "repository": "kara.moe",
    "tid": "7004cd44-0492-4f19-b8d2-c6cf4d4b031d",
    "types": [
      "series",
      "1"
    ]
  }
}