{
  "header": {
    "description": "Karaoke Mugen Tag File",
    "version": 1
  },
  "tag": {
    "aliases": [
      "Street Fighter 2 Victory",
      "Street Fighter II: The Animated Series",
      "Uliczny wojownik II: V",
      "Уличен Боец 2"
    ],
    "external_database_ids": {
      "anilist": 876,
      "myanimelist": 876,
      "kitsu": 776
    },
    "i18n": {
      "cat": "Street Fighter II V",
      "eng": "Street Fighter II V",
      "fre": "Street Fighter II V",
      "ger": "Streetfighter II - Victory",
      "heb": "2 סטריט פייטר",
      "jpn": "ストリートファイターII V",
      "rus": "Уличный боец II: Победа",
      "qro": "Street Fighter II V"
    },
    "modified_at": "2020-03-31T19:04:32.838Z",
    "name": "Street Fighter II V",
    "repository": "kara.moe",
    "tid": "afbd4a35-5796-4eab-a507-230f3347b568",
    "types": [
      "series",
      "1"
    ]
  }
}