{
  "header": {
    "description": "Karaoke Mugen Tag File",
    "version": 1
  },
  "tag": {
    "external_database_ids": {
      "anilist": 102436,
      "kitsu": 12559,
      "myanimelist": 33286
    },
    "i18n": {
      "eng": "Strike the Blood II",
      "jpn": "ストライク・ザ・ブラッド II",
      "qro": "Strike the Blood II"
    },
    "name": "Strike the Blood II",
    "repository": "kara.moe",
    "tid": "2c21437a-e504-4cb7-8e95-e3d6b7686d01",
    "types": [
      "series",
      "1"
    ]
  }
}