{
  "header": {
    "description": "Karaoke Mugen Tag File",
    "version": 1
  },
  "tag": {
    "external_database_ids": {
      "anilist": 102436,
      "kitsu": 41055,
      "myanimelist": 37449
    },
    "i18n": {
      "eng": "Strike the Blood III",
      "jpn": "「ストライク・ザ・ブラッド」OVA3",
      "qro": "Strike the Blood III"
    },
    "name": "Strike the Blood III",
    "repository": "kara.moe",
    "tid": "d204b429-9ce8-406e-85b8-c07dcd2e9b01",
    "types": [
      "series",
      "1"
    ]
  }
}