{
  "header": {
    "description": "Karaoke Mugen Tag File",
    "version": 1
  },
  "tag": {
    "aliases": [
      "SW 2",
      "SW2",
      "Штурмовые ведьмы 2",
      "强袭魔女2"
    ],
    "external_database_ids": {
      "anilist": 6381,
      "myanimelist": 6381,
      "kitsu": 4540
    },
    "i18n": {
      "eng": "Strike Witches 2",
      "jpn": "ストライクウィッチーズ2",
      "qro": "Strike Witches 2"
    },
    "modified_at": "2020-03-31T19:04:32.840Z",
    "name": "Strike Witches 2",
    "repository": "kara.moe",
    "tid": "a3f1a4c4-d530-478b-a601-c2e2a429f38d",
    "types": [
      "series",
      "1"
    ]
  }
}