{
  "header": {
    "description": "Karaoke Mugen Tag File",
    "version": 1
  },
  "tag": {
    "i18n": {
      "eng": "Strike the Blood"
    },
    "name": "Strike the Blood",
    "repository": "kara.moe",
    "tid": "81548662-2586-4a9c-a697-7bbf2425e6a7",
    "types": [
      "franchises",
      "18"
    ]
  }
}