{
  "header": {
    "description": "Karaoke Mugen Tag File",
    "version": 1
  },
  "tag": {
    "aliases": [
      "Paul Van Haver"
    ],
    "i18n": {
      "eng": "Stromae"
    },
    "modified_at": "2021-11-21T16:47:29.645Z",
    "name": "Stromae",
    "repository": "kara.moe",
    "tid": "ba5b28b0-c317-4b07-aad8-817a7db50c04",
    "types": [
      "songwriters",
      "8",
      "singers",
      "2"
    ]
  }
}