{
  "header": {
    "description": "Karaoke Mugen Tag File",
    "version": 1
  },
  "tag": {
    "i18n": {
      "eng": "Studio Blanc"
    },
    "name": "Studio Blanc",
    "tid": "788ab0fe-f876-4c9c-a4c4-c438f6275fae",
    "types": [
      "creators",
      "4"
    ],
    "repository": "kara.moe",
    "modified_at": "2020-03-31T19:04:37.734Z"
  }
}