{
  "header": {
    "description": "Karaoke Mugen Tag File",
    "version": 1
  },
  "tag": {
    "i18n": {
      "eng": "studio daisy"
    },
    "name": "studio daisy",
    "repository": "kara.moe",
    "tid": "76c2b539-d314-42e2-b073-4ac8ddc89be9",
    "types": [
      "creators",
      "4"
    ]
  }
}