{
  "header": {
    "description": "Karaoke Mugen Tag File",
    "version": 1
  },
  "tag": {
    "i18n": {
      "eng": "studio!Cucuri"
    },
    "name": "studio!Cucuri",
    "tid": "9ca1e40b-bf8c-4e29-95fc-25f4540f027e",
    "types": [
      "creators",
      "4"
    ],
    "repository": "kara.moe",
    "modified_at": "2020-03-31T19:04:37.752Z"
  }
}