{
  "header": {
    "description": "Karaoke Mugen Tag File",
    "version": 1
  },
  "tag": {
    "i18n": {
      "eng": "Studio JEMI"
    },
    "name": "Studio JEMI",
    "repository": "kara.moe",
    "tid": "1dca7034-8705-41a0-813c-16fd1a62d546",
    "types": [
      "creators",
      "4"
    ]
  }
}