{
  "header": {
    "description": "Karaoke Mugen Tag File",
    "version": 1
  },
  "tag": {
    "i18n": {
      "eng": "Studio Signpost"
    },
    "name": "Studio Signpost",
    "repository": "kara.moe",
    "tid": "14fe3eb5-30d6-4e71-b056-024e5d579624",
    "types": [
      "creators",
      "4"
    ],
    "modified_at": "2020-03-31T19:04:37.750Z"
  }
}