{
  "header": {
    "description": "Karaoke Mugen Tag File",
    "version": 1
  },
  "tag": {
    "i18n": {
      "eng": "Studio Nue"
    },
    "name": "Studio Nue",
    "tid": "4f2ef952-01fb-4e57-99e2-cc0ca624c9a7",
    "types": [
      "creators",
      "4"
    ],
    "repository": "kara.moe",
    "modified_at": "2020-03-31T19:04:37.744Z"
  }
}