{
  "header": {
    "description": "Karaoke Mugen Tag File",
    "version": 1
  },
  "tag": {
    "i18n": {
      "eng": "Studio Live"
    },
    "name": "Studio Live",
    "tid": "a3299029-3a02-44d8-b3b2-00b98a978d02",
    "types": [
      "creators",
      "4"
    ],
    "repository": "kara.moe",
    "modified_at": "2020-03-31T19:04:37.742Z"
  }
}