{
  "header": {
    "description": "Karaoke Mugen Tag File",
    "version": 1
  },
  "tag": {
    "i18n": {
      "eng": "Studio 9 Maiami"
    },
    "name": "Studio 9 Maiami",
    "repository": "kara.moe",
    "tid": "5ac0eade-fa24-4187-82a1-c3a1a7376781",
    "types": [
      "creators",
      "4"
    ]
  }
}