{
  "header": {
    "description": "Karaoke Mugen Tag File",
    "version": 1
  },
  "tag": {
    "i18n": {
      "eng": "Studio Ponoc"
    },
    "name": "Studio Ponoc",
    "tid": "80795bbe-0d04-4b5b-987e-ec3a4d4ffdd5",
    "types": [
      "creators",
      "4"
    ],
    "repository": "kara.moe",
    "modified_at": "2020-03-31T19:04:37.746Z"
  }
}