{
  "header": {
    "description": "Karaoke Mugen Tag File",
    "version": 1
  },
  "tag": {
    "i18n": {
      "eng": "Studio A-Cat"
    },
    "name": "Studio A-Cat",
    "repository": "kara.moe",
    "tid": "4115be1d-4ca2-49dd-b653-36d322b7233b",
    "types": [
      "creators",
      "4"
    ]
  }
}