{
  "header": {
    "description": "Karaoke Mugen Tag File",
    "version": 1
  },
  "tag": {
    "i18n": {
      "eng": "Su-Metal"
    },
    "modified_at": "2020-08-15T22:29:26.822Z",
    "name": "Su-Metal",
    "repository": "kara.moe",
    "tid": "d96d3624-805c-45ec-beff-80c44b493714",
    "types": [
      "authors",
      "6"
    ]
  }
}