{
  "header": {
    "description": "Karaoke Mugen Tag File",
    "version": 1
  },
  "tag": {
    "i18n": {
      "eng": "su1ca_st"
    },
    "name": "su1ca_st",
    "repository": "kara.moe",
    "tid": "f141ee98-e02b-4913-8b49-aa7d43e65db5",
    "types": [
      "creators",
      "4"
    ]
  }
}