{
  "header": {
    "description": "Karaoke Mugen Tag File",
    "version": 1
  },
  "tag": {
    "i18n": {
      "eng": "Sub.T"
    },
    "modified_at": "2021-05-18T16:56:49.599Z",
    "name": "Sub.T",
    "repository": "kara.moe",
    "tid": "92183c6e-a9c9-4261-b814-0fc6cb1075aa",
    "types": [
      "songwriters",
      "8"
    ]
  }
}