{
  "header": {
    "description": "Karaoke Mugen Tag File",
    "version": 1
  },
  "tag": {
    "i18n": {
      "eng": "The World Ends with You",
      "qro": "Subarashiki Kono Sekai",
      "jpn": "すばらしきこのせかい"
    },
    "name": "Subarashiki Kono Sekai",
    "repository": "kara.moe",
    "tid": "052644f9-94c2-4931-89f6-433469a2ba14",
    "types": [
      "franchises",
      "18"
    ]
  }
}