{
  "header": {
    "description": "Karaoke Mugen Tag File",
    "version": 1
  },
  "tag": {
    "i18n": {
      "eng": "Succubus"
    },
    "name": "Succubus",
    "tid": "5a2331d0-48dd-4928-9311-14831950260b",
    "types": [
      "songwriters",
      "8"
    ],
    "repository": "kara.moe",
    "modified_at": "2020-03-31T19:04:37.758Z"
  }
}