{
  "header": {
    "description": "Karaoke Mugen Tag File",
    "version": 1
  },
  "tag": {
    "i18n": {
      "eng": "Sucker for Love: First Date"
    },
    "name": "Sucker for Love: First Date",
    "repository": "kara.moe",
    "tid": "b0860fd4-2e0a-4a5e-8a46-45a95fdd972d",
    "types": [
      "series",
      "1"
    ]
  }
}