{
  "header": {
    "description": "Karaoke Mugen Tag File",
    "version": 1
  },
  "tag": {
    "i18n": {
      "eng": "Sugiuro"
    },
    "name": "Sugiuro",
    "tid": "7e0645e0-bd68-47e4-89bd-259ef2032083",
    "types": [
      "authors",
      "6"
    ],
    "repository": "kara.moe",
    "modified_at": "2020-03-31T19:04:37.765Z"
  }
}