{
  "header": {
    "description": "Karaoke Mugen Tag File",
    "version": 1
  },
  "tag": {
    "i18n": {
      "eng": "SUGIZO"
    },
    "name": "SUGIZO",
    "tid": "7d3473e2-2715-4712-b870-6862eaadab48",
    "types": [
      "songwriters",
      "8",
      "singers",
      "2"
    ],
    "repository": "kara.moe",
    "modified_at": "2020-03-31T19:04:37.766Z"
  }
}