{
  "header": {
    "description": "Karaoke Mugen Tag File",
    "version": 1
  },
  "tag": {
    "aliases": [
      "Suihyou"
    ],
    "i18n": {
      "eng": "Suihyô"
    },
    "name": "Suihyô",
    "repository": "kara.moe",
    "tid": "7ec02328-7f51-44e4-b64a-8184c79bc440",
    "types": [
      "creators",
      "4"
    ]
  }
}