{
  "header": {
    "description": "Karaoke Mugen Tag File",
    "version": 1
  },
  "tag": {
    "aliases": [
      "Sunoga",
      "گارگانتیا در سیاره سبز"
    ],
    "external_database_ids": {
      "anilist": 16524,
      "myanimelist": 16524,
      "kitsu": 7449
    },
    "i18n": {
      "eng": "Gargantia on the Verdurous Planet",
      "fre": "Gargantia on the Verdurous Planet",
      "jpn": "翠星のガルガンティア",
      "qro": "Suisei no Gargantia"
    },
    "modified_at": "2020-06-21T23:45:31.966Z",
    "name": "Suisei no Gargantia",
    "repository": "kara.moe",
    "tid": "1bdb3ba1-dba3-4b0e-9d3c-230a98ff61a5",
    "types": [
      "series",
      "1"
    ]
  }
}