{
  "header": {
    "description": "Karaoke Mugen Tag File",
    "version": 1
  },
  "tag": {
    "i18n": {
      "eng": "Suitei Shôjo"
    },
    "name": "Suitei Shôjo",
    "tid": "52102fc7-6413-4a05-bcec-d010f5c81689",
    "types": [
      "singers",
      "2"
    ],
    "repository": "kara.moe",
    "modified_at": "2020-03-31T19:04:37.768Z"
  }
}