{
  "header": {
    "description": "Karaoke Mugen Tag File",
    "version": 1
  },
  "tag": {
    "i18n": {
      "eng": "Sukeban Deka"
    },
    "name": "Sukeban Deka",
    "repository": "kara.moe",
    "tid": "e975b374-da47-4576-be33-102b2fd85638",
    "types": [
      "franchises",
      "18"
    ]
  }
}