{
  "header": {
    "description": "Karaoke Mugen Tag File",
    "version": 1
  },
  "tag": {
    "aliases": [
      "Say I Love You",
      "Sukinayo",
      "Sukitte Iinayo"
    ],
    "external_database_ids": {
      "anilist": 14289,
      "myanimelist": 14289,
      "kitsu": 7109
    },
    "i18n": {
      "eng": "Say \"I Love You\".",
      "jpn": "好きっていいなよ.",
      "qro": "Sukitte Ii na yo."
    },
    "modified_at": "2020-06-21T23:45:31.966Z",
    "name": "Sukitte Ii na yo.",
    "repository": "kara.moe",
    "tid": "89b9afbf-6f55-42d1-90f6-e8b82371fe82",
    "types": [
      "series",
      "1"
    ]
  }
}