{
  "header": {
    "description": "Karaoke Mugen Tag File",
    "version": 1
  },
  "tag": {
    "i18n": {
      "eng": "Sumire",
      "jpn": "すみれ",
      "qro": "Sumire"
    },
    "modified_at": "2020-03-31T19:04:32.849Z",
    "name": "Sumire",
    "repository": "kara.moe",
    "tid": "b67d575f-cf1f-4f5a-94dd-3cc5f5853e5e",
    "types": [
      "series",
      "1"
    ]
  }
}