{
  "header": {
    "description": "Karaoke Mugen Tag File",
    "version": 1
  },
  "tag": {
    "i18n": {
      "eng": "sumika"
    },
    "name": "sumika",
    "tid": "5339a07e-93e0-4377-bd8f-2686f8a212b2",
    "types": [
      "singers",
      "2",
      "songwriters",
      "8"
    ],
    "repository": "kara.moe",
    "modified_at": "2020-03-31T19:04:37.770Z"
  }
}