{
  "header": {
    "description": "Karaoke Mugen Tag File",
    "version": 1
  },
  "tag": {
    "i18n": {
      "eng": "Sun Lee"
    },
    "name": "Sun Lee",
    "repository": "kara.moe",
    "tid": "de9a6c23-4757-44ec-b171-601ebecde317",
    "types": [
      "songwriters",
      "8"
    ]
  }
}