{
  "header": {
    "description": "Karaoke Mugen Tag File",
    "version": 1
  },
  "tag": {
    "i18n": {
      "eng": "SUNAO",
      "qro": "SUNAO"
    },
    "name": "SUNAO",
    "repository": "kara.moe",
    "tid": "703de39e-02a6-4113-b1f8-b23a052b38bf",
    "types": [
      "songwriters",
      "8"
    ]
  }
}