{
  "header": {
    "description": "Karaoke Mugen Tag File",
    "version": 1
  },
  "tag": {
    "i18n": {
      "eng": "SUNHEE"
    },
    "modified_at": "2021-03-08T13:46:53.603Z",
    "name": "SUNHEE",
    "repository": "kara.moe",
    "tid": "3295bc88-5288-44f0-85ae-25492acf3500",
    "types": [
      "songwriters",
      "8"
    ]
  }
}