{
  "header": {
    "description": "Karaoke Mugen Tag File",
    "version": 1
  },
  "tag": {
    "i18n": {
      "eng": "SUNRISE BEYOND"
    },
    "name": "SUNRISE BEYOND",
    "repository": "kara.moe",
    "tid": "b1bbd94a-75b1-4f4c-8b84-9e702ab4f53a",
    "types": [
      "creators",
      "4"
    ]
  }
}