{
  "header": {
    "description": "Karaoke Mugen Tag File",
    "version": 1
  },
  "tag": {
    "i18n": {
      "eng": "SunSet Swish"
    },
    "name": "SunSet Swish",
    "tid": "cc410238-8911-4177-ab34-737cd0bf4330",
    "types": [
      "singers",
      "2"
    ],
    "repository": "kara.moe",
    "modified_at": "2020-03-31T19:04:37.780Z"
  }
}