{
  "header": {
    "description": "Karaoke Mugen Tag File",
    "version": 1
  },
  "tag": {
    "aliases": [
      "Chou GALS! Kotobuki ran",
      "Chô GALS! Kotobuki ran",
      "gals"
    ],
    "external_database_ids": {
      "anilist": 1728,
      "myanimelist": 1728,
      "kitsu": 1549
    },
    "i18n": {
      "eng": "Super GALS!",
      "fre": "Super GALS !",
      "hrv": "Superklinke",
      "ita": "Super Gals! Tre Ragazze alla Moda",
      "jpn": "超GALS! 寿蘭",
      "por": "Super GALS!",
      "slv": "Superpunce",
      "qro": "Super GALS! Kotobuki Ran"
    },
    "modified_at": "2020-03-31T19:04:32.852Z",
    "name": "Super GALS! Kotobuki Ran",
    "repository": "kara.moe",
    "tid": "ee8483aa-4dd4-4ea5-9eed-b0cba97e4245",
    "types": [
      "series",
      "1"
    ]
  }
}