{
  "header": {
    "description": "Karaoke Mugen Tag File",
    "version": 1
  },
  "tag": {
    "external_database_ids": {
      "anilist": 1544,
      "myanimelist": 1544,
      "kitsu": 1385
    },
    "i18n": {
      "eng": "Super Robot Wars OG ‒ The Animation",
      "jpn": "スーパーロボット大戦Original Generation The Animation",
      "qro": "Super Robot Taisen OG The Animation"
    },
    "modified_at": "2020-03-31T19:04:32.857Z",
    "name": "Super Robot Taisen OG The Animation",
    "repository": "kara.moe",
    "tid": "81ce496c-6671-4c30-bc35-e11569149844",
    "types": [
      "series",
      "1"
    ]
  }
}