{
  "header": {
    "description": "Karaoke Mugen Tag File",
    "version": 1
  },
  "tag": {
    "aliases": [
      "SSBU",
      "Super Smash Brothers Ultimate"
    ],
    "i18n": {
      "eng": "Super Smash Bros. Ultimate",
      "jpn": "大乱闘スマッシュブラザーズ SPECIAL",
      "qro": "Super Smash Bros. Ultimate"
    },
    "modified_at": "2020-03-31T19:04:32.863Z",
    "name": "Super Smash Bros. Ultimate",
    "repository": "kara.moe",
    "tid": "7e60cd9e-f83a-4f36-bc70-f5fae6ef6d37",
    "types": [
      "series",
      "1"
    ]
  }
}