{
  "header": {
    "description": "Karaoke Mugen Tag File",
    "version": 1
  },
  "tag": {
    "aliases": [
      "そにアニ",
      "SoniAni"
    ],
    "i18n": {
      "eng": "Super Sonico"
    },
    "name": "Super Sonico",
    "repository": "kara.moe",
    "tid": "8816884c-6651-4868-8c95-f50c492a7de8",
    "types": [
      "franchises",
      "18"
    ]
  }
}