{
  "header": {
    "description": "Karaoke Mugen Tag File",
    "version": 1
  },
  "tag": {
    "i18n": {
      "eng": "Super Robot Mach Baron",
      "jpn": "スーパーロボット マッハバロン",
      "qro": "Super Robot Mach Baron"
    },
    "modified_at": "2020-03-31T19:04:32.855Z",
    "name": "Super Robot Mach Baron",
    "repository": "kara.moe",
    "tid": "1c079475-1dd3-4d22-b568-ba498147b890",
    "types": [
      "series",
      "1"
    ]
  }
}