{
  "header": {
    "description": "Karaoke Mugen Tag File",
    "version": 1
  },
  "tag": {
    "i18n": {
      "eng": "Super Changddai"
    },
    "name": "Super Changddai",
    "tid": "2f3208df-db2b-49d2-a769-79913280e384",
    "types": [
      "songwriters",
      "8"
    ],
    "repository": "kara.moe",
    "modified_at": "2020-03-31T19:04:37.781Z"
  }
}