{
  "header": {
    "description": "Karaoke Mugen Tag File",
    "version": 1
  },
  "tag": {
    "aliases": [
      "SMRPG"
    ],
    "i18n": {
      "eng": "Super Mario RPG: Legend of the Seven Stars",
      "jpn": "スーパーマリオRPG",
      "qro": "Super Mario RPG"
    },
    "modified_at": "2020-03-31T19:04:32.854Z",
    "name": "Super Mario RPG",
    "repository": "kara.moe",
    "tid": "98311978-f6d9-45d5-b607-ada95fe7f88c",
    "types": [
      "series",
      "1"
    ]
  }
}