{
  "header": {
    "description": "Karaoke Mugen Tag File",
    "version": 1
  },
  "tag": {
    "i18n": {
      "eng": "Danganronpa 2: Goodbye Despair",
      "jpn": "スーパーダンガンロンパ2 さよなら絶望学園",
      "qro": "Super Danganronpa 2: Sayonara Zetsubou Gakuen"
    },
    "name": "Super Danganronpa 2: Sayonara Zetsubou Gakuen",
    "repository": "kara.moe",
    "tid": "3d8f3eb0-ca8b-40e0-8aee-b0e498656b15",
    "types": [
      "series",
      "1"
    ]
  }
}