{
  "header": {
    "description": "Karaoke Mugen Tag File",
    "version": 1
  },
  "tag": {
    "i18n": {
      "eng": "Super Robot Wars",
      "jpn": "スーパーロボット大戦",
      "qro": "Super Robot Taisen"
    },
    "modified_at": "2020-03-31T19:04:32.861Z",
    "name": "Super Robot Taisen",
    "repository": "kara.moe",
    "tid": "4e88aee3-4cb9-4342-bac8-6c0819b3a014",
    "types": [
      "series",
      "1",
      "franchises",
      "18"
    ]
  }
}