{
  "header": {
    "description": "Karaoke Mugen Tag File",
    "version": 1
  },
  "tag": {
    "i18n": {
      "eng": "surface"
    },
    "name": "surface",
    "tid": "4ec1f53f-9176-46b4-9e7c-346d46168521",
    "types": [
      "singers",
      "2"
    ],
    "repository": "kara.moe",
    "modified_at": "2020-03-31T19:04:37.786Z"
  }
}