{
  "header": {
    "description": "Karaoke Mugen Tag File",
    "version": 1
  },
  "tag": {
    "i18n": {
      "eng": "Susanne Marie Edgren"
    },
    "name": "Susanne Marie Edgren",
    "tid": "fc5059e9-5f2f-4287-a17c-5a5979fb3916",
    "types": [
      "songwriters",
      "8"
    ],
    "repository": "kara.moe",
    "modified_at": "2020-03-31T19:04:37.788Z"
  }
}