{
  "header": {
    "description": "Karaoke Mugen Tag File",
    "version": 1
  },
  "tag": {
    "external_database_ids": {
      "anilist": 142770,
      "kitsu": 45597,
      "myanimelist": 50594
    },
    "i18n": {
      "eng": "Suzume",
      "jpn": "すずめの戸締まり",
      "qro": "Suzume no Tojimari"
    },
    "name": "Suzume no Tojimari",
    "repository": "kara.moe",
    "tid": "b869c173-4d4b-4540-b88d-56bdc22b5705",
    "types": [
      "series",
      "1"
    ]
  }
}