{
  "header": {
    "description": "Karaoke Mugen Tag File",
    "version": 1
  },
  "tag": {
    "i18n": {
      "eng": "suzumu"
    },
    "modified_at": "2020-08-08T23:15:39.348Z",
    "name": "suzumu",
    "repository": "kara.moe",
    "tid": "f3e5b5bd-6040-41b1-8a61-5369fddb0865",
    "types": [
      "songwriters",
      "8",
      "singers",
      "2"
    ]
  }
}