{
  "header": {
    "description": "Karaoke Mugen Tag File",
    "version": 1
  },
  "tag": {
    "i18n": {
      "eng": "suzumoku"
    },
    "name": "suzumoku",
    "tid": "c65a1c9b-9b6a-4147-a7f5-8b53cfe326b1",
    "types": [
      "songwriters",
      "8"
    ],
    "repository": "kara.moe",
    "modified_at": "2020-03-31T19:04:37.799Z"
  }
}