{
  "header": {
    "description": "Karaoke Mugen Tag File",
    "version": 1
  },
  "tag": {
    "aliases": [
      "Chuugaku",
      "Takkyuu"
    ],
    "i18n": {
      "eng": "Suzumegahara Chûgaku Takkyû Bu"
    },
    "name": "Suzumegahara Chûgaku Takkyû Bu",
    "repository": "kara.moe",
    "tid": "e0dcdb15-dec1-4be7-8388-b6171e865b7e",
    "types": [
      "singergroups",
      "17"
    ]
  }
}