{
  "header": {
    "description": "Karaoke Mugen Tag File",
    "version": 1
  },
  "tag": {
    "i18n": {
      "eng": "Svante Halldin"
    },
    "name": "Svante Halldin",
    "tid": "d3bdd1d6-30ed-40e2-ace9-de2c6fb05c80",
    "types": [
      "songwriters",
      "8"
    ],
    "repository": "kara.moe",
    "modified_at": "2020-03-31T19:04:37.803Z"
  }
}