{
  "header": {
    "description": "Karaoke Mugen Tag File",
    "version": 1
  },
  "tag": {
    "i18n": {
      "eng": "SWANKY DANK"
    },
    "name": "SWANKY DANK",
    "tid": "af2a04a7-2a06-479c-884b-8ac65e4321a7",
    "types": [
      "singers",
      "2"
    ],
    "repository": "kara.moe",
    "modified_at": "2020-03-31T19:04:37.805Z"
  }
}