{
  "header": {
    "description": "Karaoke Mugen Tag File",
    "version": 1
  },
  "tag": {
    "aliases": [
      "SAO A",
      "SAO Alternative: GGO",
      "SAO GunGale"
    ],
    "external_database_ids": {
      "anilist": 100183,
      "myanimelist": 36475,
      "kitsu": 13894
    },
    "i18n": {
      "chi": "刀劍神域外傳 Gun Gale Online",
      "eng": "Sword Art Online Alternative: Gun Gale Online",
      "jpn": "ソードアート・オンライン オルタナティブ ガンゲイル・オンライン",
      "kor": "소드 아트 온라인 얼터너티브: 건 게일 온라인",
      "qro": "Sword Art Online Alternative: Gun Gale Online"
    },
    "modified_at": "2020-03-31T19:04:32.870Z",
    "name": "Sword Art Online Alternative: Gun Gale Online",
    "repository": "kara.moe",
    "tid": "3b187e65-9a39-4d1b-b915-419f89f3005c",
    "types": [
      "series",
      "1"
    ]
  }
}