{
  "header": {
    "description": "Karaoke Mugen Tag File",
    "version": 1
  },
  "tag": {
    "i18n": {
      "eng": "Sword Art Online: Full Dive"
    },
    "name": "Sword Art Online: Full Dive",
    "repository": "kara.moe",
    "tid": "e78e4659-360a-441d-8ca7-992388b5d304",
    "types": [
      "series",
      "1"
    ]
  }
}