{
  "header": {
    "description": "Karaoke Mugen Tag File",
    "version": 1
  },
  "tag": {
    "aliases": [
      "SAO Lost Song"
    ],
    "i18n": {
      "eng": "Sword Art Online: Lost Song",
      "jpn": "ソードアート・オンライン －ロスト・ソング－",
      "qro": "Sword Art Online Lost Song"
    },
    "modified_at": "2020-03-31T19:04:32.871Z",
    "name": "Sword Art Online Lost Song",
    "repository": "kara.moe",
    "tid": "1cadeb2c-1bab-49b1-a83f-bc162a52c7d9",
    "types": [
      "series",
      "1"
    ]
  }
}