{
  "header": {
    "description": "Karaoke Mugen Tag File",
    "version": 1
  },
  "tag": {
    "i18n": {
      "eng": "SYNC.ART'S"
    },
    "name": "SYNC.ART'S",
    "repository": "kara.moe",
    "tid": "ff3097c1-d477-464d-a30d-6e5ec5e4f4b8",
    "types": [
      "singergroups",
      "17"
    ]
  }
}