{
  "header": {
    "description": "Karaoke Mugen Tag File",
    "version": 1
  },
  "tag": {
    "aliases": [
      "シンデュアリティ"
    ],
    "external_database_ids": {
      "anilist": 154643,
      "kitsu": 46477,
      "myanimelist": 53026
    },
    "i18n": {
      "eng": "Synduality: Noir"
    },
    "name": "Synduality: Noir",
    "repository": "kara.moe",
    "tid": "206774a2-08d1-412e-94ea-6f8b73cbbd6a",
    "types": [
      "series",
      "1"
    ]
  }
}