{
  "header": {
    "description": "Karaoke Mugen Tag File",
    "version": 1
  },
  "tag": {
    "i18n": {
      "eng": "syo5"
    },
    "name": "syo5",
    "repository": "kara.moe",
    "tid": "a175ce33-08be-4123-8d0e-c393feb0355d",
    "types": [
      "creators",
      "4"
    ]
  }
}