{
  "header": {
    "description": "Karaoke Mugen Tag File",
    "version": 1
  },
  "tag": {
    "i18n": {
      "eng": "szak"
    },
    "name": "szak",
    "tid": "e9fd27e9-2b50-4425-b3b1-1b901ff7471a",
    "types": [
      "songwriters",
      "8"
    ],
    "repository": "kara.moe",
    "modified_at": "2020-03-31T19:04:37.813Z"
  }
}