{
  "header": {
    "description": "Karaoke Mugen Tag File",
    "version": 1
  },
  "tag": {
    "i18n": {
      "eng": "T.M. Network"
    },
    "name": "T.M. Network",
    "tid": "e2d27f96-0b3f-4d7c-aef8-274e925b08b8",
    "types": [
      "songwriters",
      "8"
    ],
    "repository": "kara.moe",
    "modified_at": "2020-03-31T19:04:37.816Z"
  }
}