{
  "header": {
    "description": "Karaoke Mugen Tag File",
    "version": 1
  },
  "tag": {
    "aliases": [
      "Choi Seung-hyun",
      "최승현"
    ],
    "i18n": {
      "eng": "T.O.P"
    },
    "name": "T.O.P",
    "repository": "kara.moe",
    "tid": "28c35a41-536a-4c2f-b8a6-90cc6e8cc558",
    "types": [
      "songwriters",
      "8"
    ]
  }
}