{
  "header": {
    "description": "Karaoke Mugen Tag File",
    "version": 1
  },
  "tag": {
    "i18n": {
      "eng": "T2ya"
    },
    "name": "T2ya",
    "tid": "f22f1b44-05ae-4d91-add2-4f3e8e70df8d",
    "types": [
      "songwriters",
      "8"
    ],
    "repository": "kara.moe",
    "modified_at": "2020-03-31T19:04:37.818Z"
  }
}