{
  "header": {
    "description": "Karaoke Mugen Tag File",
    "version": 1
  },
  "tag": {
    "i18n": {
      "eng": "TachyDio"
    },
    "name": "TachyDio",
    "tid": "f0203b59-5770-4e2f-a730-cba90888fddc",
    "types": [
      "creators",
      "4"
    ],
    "repository": "kara.moe",
    "modified_at": "2020-03-31T19:04:37.820Z"
  }
}