{
  "header": {
    "description": "Karaoke Mugen Tag File",
    "version": 1
  },
  "tag": {
    "i18n": {
      "eng": "Descendants of the Sun",
      "kor": "태양의 후예"
    },
    "modified_at": "2020-03-31T19:04:32.874Z",
    "name": "Taeyang-ui Huye",
    "repository": "kara.moe",
    "tid": "0431a15f-0cfc-4950-b2c7-1298947c62bf",
    "types": [
      "series",
      "1"
    ]
  }
}