{
  "header": {
    "description": "Karaoke Mugen Tag File",
    "version": 1
  },
  "tag": {
    "aliases": [
      "Shindehai",
      "Tai Reflections"
    ],
    "i18n": {
      "eng": "Tai Wuang"
    },
    "name": "Tai Wuang",
    "repository": "kara.moe",
    "tid": "3ba5ae0c-dd33-46bb-bb8e-a8db94eb68b5",
    "types": [
      "singers",
      "2",
      "songwriters",
      "8",
      "creators",
      "4"
    ]
  }
}