{
  "header": {
    "description": "Karaoke Mugen Tag File",
    "version": 1
  },
  "tag": {
    "i18n": {
      "eng": "Taibô Takahashi"
    },
    "name": "Taibô Takahashi",
    "tid": "b583921d-bae8-4085-8016-b108575aeecb",
    "types": [
      "songwriters",
      "8"
    ],
    "repository": "kara.moe",
    "modified_at": "2020-03-31T19:04:37.832Z"
  }
}