{
  "header": {
    "description": "Karaoke Mugen Tag File",
    "version": 1
  },
  "tag": {
    "i18n": {
      "eng": "Taika Tori Dôga"
    },
    "name": "Taika Tori Dôga",
    "tid": "66f99fe7-4b1b-4c50-8896-f5e600801170",
    "types": [
      "creators",
      "4"
    ],
    "repository": "kara.moe",
    "modified_at": "2020-03-31T19:04:37.836Z"
  }
}