{
  "header": {
    "description": "Karaoke Mugen Tag File",
    "version": 1
  },
  "tag": {
    "aliases": [
      "Taishou"
    ],
    "i18n": {
      "chi": "大正×对称爱丽丝 HEADS & TAILS",
      "eng": "TAISHO x ALICE: HEADS & TAILS",
      "jpn": "大正×対称アリス HEADS&TAILS",
      "qro": "Taishô x Alice: HEADS&TAILS"
    },
    "name": "Taishô x Alice: HEADS&TAILS",
    "repository": "kara.moe",
    "tid": "83a7dbd6-2965-471b-af03-6618e4e8fa18",
    "types": [
      "series",
      "1"
    ]
  }
}