{
  "header": {
    "description": "Karaoke Mugen Tag File",
    "version": 1
  },
  "tag": {
    "i18n": {
      "eng": "Taishi Kawai"
    },
    "modified_at": "2021-07-15T16:01:12.763Z",
    "name": "Taishi Kawai",
    "repository": "kara.moe",
    "tid": "f2af0260-823b-402b-a653-ecdbbe339c80",
    "types": [
      "songwriters",
      "8"
    ]
  }
}