{
  "header": {
    "description": "Karaoke Mugen Tag File",
    "version": 1
  },
  "tag": {
    "i18n": {
      "eng": "Taisuke Wada"
    },
    "modified_at": "2020-08-06T18:02:05.073Z",
    "name": "Taisuke Wada",
    "repository": "kara.moe",
    "tid": "5ffdec82-234e-41a6-97cd-6e2d8400bbc1",
    "types": [
      "singers",
      "2"
    ]
  }
}