{
  "header": {
    "description": "Karaoke Mugen Tag File",
    "version": 1
  },
  "tag": {
    "i18n": {
      "eng": "Taisuke Sawachika"
    },
    "name": "Taisuke Sawachika",
    "tid": "96f5b3fa-e287-49ad-ac12-8cff8fbf2b9e",
    "types": [
      "songwriters",
      "8"
    ],
    "repository": "kara.moe",
    "modified_at": "2020-03-31T19:04:37.840Z"
  }
}