{
  "header": {
    "description": "Karaoke Mugen Tag File",
    "version": 1
  },
  "tag": {
    "i18n": {
      "eng": "Taito"
    },
    "modified_at": "2021-03-21T14:06:45.718Z",
    "name": "Taito",
    "repository": "kara.moe",
    "tid": "a5bd1d25-3257-4ed9-8c0f-cdb24626411a",
    "types": [
      "creators",
      "4"
    ]
  }
}