{
  "header": {
    "description": "Karaoke Mugen Tag File",
    "version": 1
  },
  "tag": {
    "i18n": {
      "eng": "Taiyô to Ciscomoon"
    },
    "name": "Taiyô to Ciscomoon",
    "tid": "4a91a470-a458-452c-b950-ca36ddaa62f7",
    "types": [
      "singers",
      "2"
    ],
    "repository": "kara.moe",
    "modified_at": "2020-03-31T19:04:37.841Z"
  }
}