{
  "header": {
    "description": "Karaoke Mugen Tag File",
    "version": 1
  },
  "tag": {
    "i18n": {
      "eng": "Taiyô Band"
    },
    "name": "Taiyô Band",
    "repository": "kara.moe",
    "tid": "51e9b5bf-c197-4b79-8e38-e2a9930c490d",
    "types": [
      "singergroups",
      "17"
    ]
  }
}