{
  "header": {
    "description": "Karaoke Mugen Tag File",
    "version": 1
  },
  "tag": {
    "i18n": {
      "eng": "Takao Masui"
    },
    "name": "Takao Masui",
    "tid": "a453172c-c9fc-48c8-83e4-dd2756500119",
    "types": [
      "songwriters",
      "8"
    ],
    "repository": "kara.moe",
    "modified_at": "2020-03-31T19:04:37.880Z"
  }
}