{
  "header": {
    "description": "Karaoke Mugen Tag File",
    "version": 1
  },
  "tag": {
    "i18n": {
      "eng": "Takashi Sasaki"
    },
    "name": "Takashi Sasaki",
    "tid": "c6c717cb-4f97-4493-9472-07e71a528feb",
    "types": [
      "songwriters",
      "8"
    ],
    "repository": "kara.moe",
    "modified_at": "2020-03-31T19:04:37.894Z"
  }
}