{
  "header": {
    "description": "Karaoke Mugen Tag File",
    "version": 1
  },
  "tag": {
    "i18n": {
      "eng": "Takatsugu Wakabayashi"
    },
    "name": "Takatsugu Wakabayashi",
    "tid": "c89c7a19-77d2-4f92-935c-d0b71a742f48",
    "types": [
      "songwriters",
      "8"
    ],
    "repository": "kara.moe",
    "modified_at": "2020-03-31T19:04:37.900Z"
  }
}