{
  "header": {
    "description": "Karaoke Mugen Tag File",
    "version": 1
  },
  "tag": {
    "i18n": {
      "eng": "Takao Konichi"
    },
    "name": "Takao Konichi",
    "tid": "ec884f1d-0a6a-47f8-81df-84a79934f28e",
    "types": [
      "songwriters",
      "8"
    ],
    "repository": "kara.moe",
    "modified_at": "2020-03-31T19:04:37.879Z"
  }
}