{
  "header": {
    "description": "Karaoke Mugen Tag File",
    "version": 1
  },
  "tag": {
    "i18n": {
      "eng": "Takane no Nadeshiko",
      "jpn": "高嶺のなでしこ",
      "qro": "Takane no Nadeshiko"
    },
    "name": "Takane no Nadeshiko",
    "repository": "kara.moe",
    "tid": "b48abc70-bab8-4e7a-9b9e-f58049988e0e",
    "types": [
      "singergroups",
      "17"
    ]
  }
}