{
  "header": {
    "description": "Karaoke Mugen Tag File",
    "version": 1
  },
  "tag": {
    "i18n": {
      "eng": "Takayuki Ishikura"
    },
    "name": "Takayuki Ishikura",
    "tid": "518da0d5-ef02-4b63-b44e-0c0d6f747abd",
    "types": [
      "songwriters",
      "8"
    ],
    "repository": "kara.moe",
    "modified_at": "2020-03-31T19:04:37.905Z"
  }
}