{
  "header": {
    "description": "Karaoke Mugen Tag File",
    "version": 1
  },
  "tag": {
    "i18n": {
      "eng": "Takayuki Yamaguchi"
    },
    "name": "Takayuki Yamaguchi",
    "tid": "1035c3d2-5d7b-4e13-a7e8-f51bb62a899f",
    "types": [
      "songwriters",
      "8"
    ],
    "repository": "kara.moe",
    "modified_at": "2020-03-31T19:04:37.909Z"
  }
}