{
  "header": {
    "description": "Karaoke Mugen Tag File",
    "version": 1
  },
  "tag": {
    "i18n": {
      "eng": "Takashi Hamazaki"
    },
    "name": "Takashi Hamazaki",
    "tid": "81d08cd1-4f4c-4087-b3a7-4bc5ad6c83d7",
    "types": [
      "songwriters",
      "8"
    ],
    "repository": "kara.moe",
    "modified_at": "2020-03-31T19:04:37.887Z"
  }
}