{
  "header": {
    "description": "Karaoke Mugen Tag File",
    "version": 1
  },
  "tag": {
    "i18n": {
      "eng": "Takashi Morio"
    },
    "name": "Takashi Morio",
    "repository": "kara.moe",
    "tid": "3d3cac92-8641-46d1-a1a8-85aa3562796f",
    "types": [
      "songwriters",
      "8"
    ]
  }
}