{
  "header": {
    "description": "Karaoke Mugen Tag File",
    "version": 1
  },
  "tag": {
    "i18n": {
      "eng": "Takaaki Nishi"
    },
    "name": "Takaaki Nishi",
    "tid": "0bd137ee-05c9-484f-906f-96ead8c03562",
    "types": [
      "songwriters",
      "8"
    ],
    "repository": "kara.moe",
    "modified_at": "2020-03-31T19:04:37.845Z"
  }
}