{
  "header": {
    "description": "Karaoke Mugen Tag File",
    "version": 1
  },
  "tag": {
    "i18n": {
      "eng": "Takâki Shingyoji"
    },
    "name": "Takâki Shingyoji",
    "tid": "a61e08b9-9422-4c14-8c2f-458cae81303f",
    "types": [
      "songwriters",
      "8"
    ],
    "repository": "kara.moe",
    "modified_at": "2020-03-31T19:04:37.865Z"
  }
}