{
  "header": {
    "description": "Karaoke Mugen Tag File",
    "version": 1
  },
  "tag": {
    "i18n": {
      "eng": "Takashi Shôji"
    },
    "name": "Takashi Shôji",
    "tid": "c934deff-71e7-47d7-a4fe-2a676ca6832b",
    "types": [
      "songwriters",
      "8"
    ],
    "repository": "kara.moe",
    "modified_at": "2020-03-31T19:04:37.895Z"
  }
}