{
  "header": {
    "description": "Karaoke Mugen Tag File",
    "version": 1
  },
  "tag": {
    "i18n": {
      "eng": "Takashige Inagaki"
    },
    "modified_at": "2020-11-15T20:44:13.203Z",
    "name": "Takashige Inagaki",
    "repository": "kara.moe",
    "tid": "73929143-1185-47f8-bc94-9ac7bbd4d2d7",
    "types": [
      "songwriters",
      "8"
    ]
  }
}