{
  "header": {
    "description": "Karaoke Mugen Tag File",
    "version": 1
  },
  "tag": {
    "i18n": {
      "eng": "Takashi Saeki"
    },
    "name": "Takashi Saeki",
    "tid": "a566b6fa-e4ee-40c0-9954-1c4327723d5d",
    "types": [
      "songwriters",
      "8"
    ],
    "repository": "kara.moe",
    "modified_at": "2020-03-31T19:04:37.893Z"
  }
}