{
  "header": {
    "description": "Karaoke Mugen Tag File",
    "version": 1
  },
  "tag": {
    "i18n": {
      "eng": "Takako Uehara"
    },
    "name": "Takako Uehara",
    "tid": "2055c0c5-49e4-43a8-8250-0ae86f7d0df3",
    "types": [
      "singers",
      "2"
    ],
    "repository": "kara.moe",
    "modified_at": "2020-03-31T19:04:37.868Z"
  }
}