{
  "header": {
    "description": "Karaoke Mugen Tag File",
    "version": 1
  },
  "tag": {
    "i18n": {
      "eng": "Takaha Tachibana"
    },
    "name": "Takaha Tachibana",
    "tid": "1c535341-c54a-42f7-a3c4-094a1ed50c6c",
    "types": [
      "songwriters",
      "8"
    ],
    "repository": "kara.moe",
    "modified_at": "2020-03-31T19:04:37.850Z"
  }
}