{
  "header": {
    "description": "Karaoke Mugen Tag File",
    "version": 1
  },
  "tag": {
    "i18n": {
      "eng": "Takagi Seiji"
    },
    "modified_at": "2020-09-12T13:12:10.287Z",
    "name": "Takagi Seiji",
    "repository": "kara.moe",
    "tid": "1d0db12d-0774-4ae0-9fe2-a40252f59f0d",
    "types": [
      "songwriters",
      "8"
    ]
  }
}