{
  "header": {
    "description": "Karaoke Mugen Tag File",
    "version": 1
  },
  "tag": {
    "i18n": {
      "eng": "Takashi Ijima"
    },
    "name": "Takashi Ijima",
    "tid": "e16f92fd-eca2-4a4e-9d41-0fa231fcd3b9",
    "types": [
      "songwriters",
      "8"
    ],
    "repository": "kara.moe",
    "modified_at": "2020-03-31T19:04:37.888Z"
  }
}