{
  "header": {
    "description": "Karaoke Mugen Tag File",
    "version": 1
  },
  "tag": {
    "i18n": {
      "eng": "Takanori Itakura"
    },
    "name": "Takanori Itakura",
    "tid": "f4110d47-cb2b-4674-a2ad-e1906478c7d3",
    "types": [
      "songwriters",
      "8"
    ],
    "repository": "kara.moe",
    "modified_at": "2020-03-31T19:04:37.873Z"
  }
}