{
  "header": {
    "description": "Karaoke Mugen Tag File",
    "version": 1
  },
  "tag": {
    "i18n": {
      "eng": "Takatora"
    },
    "name": "Takatora",
    "tid": "900d9c00-7e2a-4689-aa4b-cf5bd587cc27",
    "types": [
      "songwriters",
      "8"
    ],
    "repository": "kara.moe",
    "modified_at": "2020-03-31T19:04:37.900Z"
  }
}