{
  "header": {
    "description": "Karaoke Mugen Tag File",
    "version": 1
  },
  "tag": {
    "i18n": {
      "eng": "Takaaki Utsumi"
    },
    "name": "Takaaki Utsumi",
    "tid": "14718238-88f2-4b3e-9656-c22d786735a4",
    "types": [
      "songwriters",
      "8"
    ],
    "repository": "kara.moe",
    "modified_at": "2020-03-31T19:04:37.846Z"
  }
}