{
  "header": {
    "description": "Karaoke Mugen Tag File",
    "version": 1
  },
  "tag": {
    "i18n": {
      "eng": "Takatsuki Akubi"
    },
    "name": "Takatsuki Akubi",
    "repository": "kara.moe",
    "tid": "8c4e6c75-c4c0-499c-8e4c-a248538533e2",
    "types": [
      "singers",
      "2"
    ]
  }
}