{
  "header": {
    "description": "Karaoke Mugen Tag File",
    "version": 1
  },
  "tag": {
    "i18n": {
      "eng": "Takashi Kobayashi"
    },
    "modified_at": "2020-08-22T14:50:23.082Z",
    "name": "Takashi Kobayashi",
    "repository": "kara.moe",
    "tid": "70e0a7df-3326-4e95-ba19-d315f7030119",
    "types": [
      "songwriters",
      "8"
    ]
  }
}