{
  "header": {
    "description": "Karaoke Mugen Tag File",
    "version": 1
  },
  "tag": {
    "i18n": {
      "eng": "Takayuki Negishi"
    },
    "name": "Takayuki Negishi",
    "tid": "2d718c99-fcaf-494b-8216-06f2d66e66a5",
    "types": [
      "songwriters",
      "8"
    ],
    "repository": "kara.moe",
    "modified_at": "2020-03-31T19:04:37.907Z"
  }
}