{
  "header": {
    "description": "Karaoke Mugen Tag File",
    "version": 1
  },
  "tag": {
    "i18n": {
      "eng": "Takahiro Morimoto"
    },
    "name": "Takahiro Morimoto",
    "repository": "kara.moe",
    "tid": "f063edf4-3c67-4eb3-87d4-3e778def2103",
    "types": [
      "songwriters",
      "8"
    ]
  }
}