{
  "header": {
    "description": "Karaoke Mugen Tag File",
    "version": 1
  },
  "tag": {
    "i18n": {
      "eng": "Takayuki Ogawa"
    },
    "modified_at": "2020-05-07T21:50:05.482Z",
    "name": "Takayuki Ogawa",
    "repository": "kara.moe",
    "tid": "73f81721-b0e6-44e3-a815-fbe150de8d37",
    "types": [
      "songwriters",
      "8"
    ]
  }
}