{
  "header": {
    "description": "Karaoke Mugen Tag File",
    "version": 1
  },
  "tag": {
    "i18n": {
      "eng": "Takanori Sakamoto"
    },
    "name": "Takanori Sakamoto",
    "tid": "939cd248-d7b8-48fc-ac12-c24dfc96bf67",
    "types": [
      "songwriters",
      "8"
    ],
    "repository": "kara.moe",
    "modified_at": "2020-03-31T19:04:37.876Z"
  }
}