{
  "header": {
    "description": "Karaoke Mugen Tag File",
    "version": 1
  },
  "tag": {
    "i18n": {
      "eng": "Takatoshi Tsuchiya"
    },
    "name": "Takatoshi Tsuchiya",
    "repository": "kara.moe",
    "tid": "80947318-534d-48b3-bbd3-79a2f51ebce9",
    "types": [
      "creators",
      "4"
    ]
  }
}