{
  "header": {
    "description": "Karaoke Mugen Tag File",
    "version": 1
  },
  "tag": {
    "i18n": {
      "eng": "Takayuki Hirao"
    },
    "name": "Takayuki Hirao",
    "tid": "8da7689c-c7be-4ffb-987d-670b28e38434",
    "types": [
      "songwriters",
      "8"
    ],
    "repository": "kara.moe",
    "modified_at": "2020-03-31T19:04:37.904Z"
  }
}