{
  "header": {
    "description": "Karaoke Mugen Tag File",
    "version": 1
  },
  "tag": {
    "i18n": {
      "eng": "Takashi Iwami"
    },
    "name": "Takashi Iwami",
    "repository": "kara.moe",
    "tid": "5032d68b-fa79-496a-a5b6-c54dfbf0a365",
    "types": [
      "songwriters",
      "8"
    ]
  }
}