{
  "header": {
    "description": "Karaoke Mugen Tag File",
    "version": 1
  },
  "tag": {
    "i18n": {
      "eng": "Takashi Yoshimatsu"
    },
    "name": "Takashi Yoshimatsu",
    "tid": "601ddfb2-90e7-4d64-9660-eb41e30560cd",
    "types": [
      "songwriters",
      "8"
    ],
    "repository": "kara.moe",
    "modified_at": "2020-03-31T19:04:37.899Z"
  }
}