{
  "header": {
    "description": "Karaoke Mugen Tag File",
    "version": 1
  },
  "tag": {
    "i18n": {
      "eng": "Takahiro Chino"
    },
    "name": "Takahiro Chino",
    "repository": "kara.moe",
    "tid": "6df3a98e-b676-47a3-a252-f9ba9047a194",
    "types": [
      "songwriters",
      "8"
    ]
  }
}