{
  "header": {
    "description": "Karaoke Mugen Tag File",
    "version": 1
  },
  "tag": {
    "i18n": {
      "eng": "Takahiro Kawata"
    },
    "modified_at": "2021-10-15T21:38:54.075Z",
    "name": "Takahiro Kawata",
    "repository": "kara.moe",
    "tid": "a1e191d4-2870-4292-b94e-c8bfee16ab35",
    "types": [
      "songwriters",
      "8"
    ]
  }
}