{
  "header": {
    "description": "Karaoke Mugen Tag File",
    "version": 1
  },
  "tag": {
    "i18n": {
      "eng": "Takamachi Walk"
    },
    "name": "Takamachi Walk",
    "repository": "kara.moe",
    "tid": "827f578a-7713-4c06-b535-dfb37a998bc5",
    "types": [
      "creators",
      "4"
    ]
  }
}