{
  "header": {
    "description": "Karaoke Mugen Tag File",
    "version": 1
  },
  "tag": {
    "i18n": {
      "eng": "Takahito Uchisawa"
    },
    "name": "Takahito Uchisawa",
    "tid": "8a767670-6565-4713-a80c-0e0c2e5c33ca",
    "types": [
      "songwriters",
      "8"
    ],
    "repository": "kara.moe",
    "modified_at": "2020-03-31T19:04:37.863Z"
  }
}