{
  "header": {
    "description": "Karaoke Mugen Tag File",
    "version": 1
  },
  "tag": {
    "i18n": {
      "eng": "Takayuki Mitsuhashi"
    },
    "name": "Takayuki Mitsuhashi",
    "tid": "b561eee1-aa61-483f-abb6-0dd7c5006e3a",
    "types": [
      "songwriters",
      "8"
    ],
    "repository": "kara.moe",
    "modified_at": "2020-03-31T19:04:37.906Z"
  }
}