{
  "header": {
    "description": "Karaoke Mugen Tag File",
    "version": 1
  },
  "tag": {
    "i18n": {
      "eng": "Takashi Watanabe"
    },
    "name": "Takashi Watanabe",
    "tid": "de7666b1-3e5a-475a-b5a8-14202d9de90e",
    "types": [
      "songwriters",
      "8"
    ],
    "repository": "kara.moe",
    "modified_at": "2020-03-31T19:04:37.897Z"
  }
}