{
  "header": {
    "description": "Karaoke Mugen Tag File",
    "version": 1
  },
  "tag": {
    "i18n": {
      "eng": "Takako Nishisaori"
    },
    "name": "Takako Nishisaori",
    "tid": "89d4b6f2-b1b0-4d68-b06c-5ae6acd4e79e",
    "types": [
      "songwriters",
      "8"
    ],
    "repository": "kara.moe",
    "modified_at": "2020-03-31T19:04:37.866Z"
  }
}