{
  "header": {
    "description": "Karaoke Mugen Tag File",
    "version": 1
  },
  "tag": {
    "i18n": {
      "eng": "Taketeru Sunamori"
    },
    "modified_at": "2020-05-02T16:43:22.112Z",
    "name": "Taketeru Sunamori",
    "repository": "kara.moe",
    "tid": "6cdf66e2-a966-4c1b-bd20-55fa244f8b61",
    "types": [
      "songwriters",
      "8"
    ]
  }
}