{
  "header": {
    "description": "Karaoke Mugen Tag File",
    "version": 1
  },
  "tag": {
    "i18n": {
      "eng": "Take Imai"
    },
    "name": "Take Imai",
    "tid": "a8180878-08e3-40f7-bcab-452ffd3981d3",
    "types": [
      "songwriters",
      "8"
    ],
    "repository": "kara.moe",
    "modified_at": "2020-03-31T19:04:37.911Z"
  }
}