{
  "header": {
    "description": "Karaoke Mugen Tag File",
    "version": 1
  },
  "tag": {
    "i18n": {
      "eng": "TAKESHI"
    },
    "name": "TAKESHI",
    "tid": "eabf8781-af5d-4dd1-be77-14bb882c89e1",
    "types": [
      "songwriters",
      "8"
    ],
    "repository": "kara.moe",
    "modified_at": "2020-03-31T19:04:37.945Z"
  }
}