{
  "header": {
    "description": "Karaoke Mugen Tag File",
    "version": 1
  },
  "tag": {
    "i18n": {
      "eng": "Takemetal"
    },
    "modified_at": "2020-08-16T18:24:34.073Z",
    "name": "Takemetal",
    "repository": "kara.moe",
    "tid": "b9fcb2ea-6828-4c81-86dd-01a3a59edc8b",
    "types": [
      "songwriters",
      "8"
    ]
  }
}