{
  "header": {
    "description": "Karaoke Mugen Tag File",
    "version": 1
  },
  "tag": {
    "aliases": [
      "KurageP"
    ],
    "i18n": {
      "eng": "Takeaki Wada",
      "jpn": "和田たけあき"
    },
    "name": "Takeaki Wada",
    "repository": "kara.moe",
    "tid": "b59b3f7d-2b6f-46dd-8364-ad38e35efe4e",
    "types": [
      "songwriters",
      "8",
      "singers",
      "2"
    ]
  }
}