{
  "header": {
    "description": "Karaoke Mugen Tag File",
    "version": 1
  },
  "tag": {
    "i18n": {
      "eng": "Takeo Asami"
    },
    "name": "Takeo Asami",
    "tid": "7e0db384-6c5d-482a-ad47-1614fe2b11d1",
    "types": [
      "songwriters",
      "8"
    ],
    "repository": "kara.moe",
    "modified_at": "2020-03-31T19:04:37.920Z"
  }
}