{
  "header": {
    "description": "Karaoke Mugen Tag File",
    "version": 1
  },
  "tag": {
    "i18n": {
      "eng": "Takuma Nagatsuka"
    },
    "name": "Takuma Nagatsuka",
    "tid": "9b6b57eb-2ff8-4d42-8974-fb1900e290f8",
    "types": [
      "singers",
      "2"
    ],
    "repository": "kara.moe",
    "modified_at": "2020-03-31T19:04:37.955Z"
  }
}