{
  "header": {
    "description": "Karaoke Mugen Tag File",
    "version": 1
  },
  "tag": {
    "i18n": {
      "eng": "Takuya Watanabe"
    },
    "name": "Takuya Watanabe",
    "tid": "5a90ba74-5e7c-4ccb-a054-a95cc78e8522",
    "types": [
      "songwriters",
      "8"
    ],
    "repository": "kara.moe",
    "modified_at": "2020-03-31T19:04:37.972Z"
  }
}