{
  "header": {
    "description": "Karaoke Mugen Tag File",
    "version": 1
  },
  "tag": {
    "i18n": {
      "eng": "Takuma Terashima"
    },
    "name": "Takuma Terashima",
    "tid": "a5953838-93af-4574-b5ce-b8bc0c5b05f0",
    "types": [
      "singers",
      "2",
      "songwriters",
      "8"
    ],
    "repository": "kara.moe",
    "modified_at": "2020-03-31T19:04:37.956Z"
  }
}