{
  "header": {
    "description": "Karaoke Mugen Tag File",
    "version": 1
  },
  "tag": {
    "i18n": {
      "eng": "Takuya Sakai"
    },
    "name": "Takuya Sakai",
    "tid": "b3436a2e-d94c-4c60-9ad0-0c4e82daff8e",
    "types": [
      "songwriters",
      "8"
    ],
    "repository": "kara.moe",
    "modified_at": "2020-03-31T19:04:37.971Z"
  }
}