{
  "header": {
    "description": "Karaoke Mugen Tag File",
    "version": 1
  },
  "tag": {
    "i18n": {
      "eng": "TAKUMI NOTE"
    },
    "name": "TAKUMI NOTE",
    "repository": "kara.moe",
    "tid": "54dedb8e-2e26-416f-96cc-4cff2a057f0d",
    "types": [
      "creators",
      "4"
    ]
  }
}