{
  "header": {
    "description": "Karaoke Mugen Tag File",
    "version": 1
  },
  "tag": {
    "i18n": {
      "eng": "Takuma (SOUND HOLIC)"
    },
    "name": "Takuma (SOUND HOLIC)",
    "tid": "bf4903d1-0b92-473a-964c-4535d6013100",
    "types": [
      "singers",
      "2"
    ],
    "repository": "kara.moe",
    "modified_at": "2020-03-31T19:04:37.953Z"
  }
}