{
  "header": {
    "description": "Karaoke Mugen Tag File",
    "version": 1
  },
  "tag": {
    "i18n": {
      "eng": "Takumi Iwasaki"
    },
    "modified_at": "2020-07-19T18:31:29.026Z",
    "name": "Takumi Iwasaki",
    "repository": "kara.moe",
    "tid": "c897072b-3748-4065-952e-44f0203efe40",
    "types": [
      "songwriters",
      "8",
      "singers",
      "2"
    ]
  }
}