{
  "header": {
    "description": "Karaoke Mugen Tag File",
    "version": 1
  },
  "tag": {
    "i18n": {
      "eng": "Takuyo"
    },
    "name": "Takuyo",
    "repository": "kara.moe",
    "tid": "48b295fa-5175-42ee-9b7d-6f2c1a0fc3d7",
    "types": [
      "creators",
      "4"
    ]
  }
}