{
  "header": {
    "description": "Karaoke Mugen Tag File",
    "version": 1
  },
  "tag": {
    "i18n": {
      "eng": "Taku Yashiro"
    },
    "name": "Taku Yashiro",
    "tid": "353d6e2a-1c87-4ef1-9062-c69f9eba2d33",
    "types": [
      "singers",
      "2"
    ],
    "repository": "kara.moe",
    "modified_at": "2020-03-31T19:04:37.952Z"
  }
}