{
  "header": {
    "description": "Karaoke Mugen Tag File",
    "version": 1
  },
  "tag": {
    "i18n": {
      "eng": "Taku Kitahara"
    },
    "name": "Taku Kitahara",
    "tid": "79e30488-bba5-41fc-b6df-34ee9718419c",
    "types": [
      "singers",
      "2"
    ],
    "repository": "kara.moe",
    "modified_at": "2020-03-31T19:04:37.950Z"
  }
}