{
  "header": {
    "description": "Karaoke Mugen Tag File",
    "version": 1
  },
  "tag": {
    "i18n": {
      "eng": "Takuya Harada"
    },
    "name": "Takuya Harada",
    "tid": "128ca6c9-429c-4ecd-a55d-72e370bd707e",
    "types": [
      "songwriters",
      "8"
    ],
    "repository": "kara.moe",
    "modified_at": "2020-03-31T19:04:37.969Z"
  }
}