{
  "header": {
    "description": "Karaoke Mugen Tag File",
    "version": 1
  },
  "tag": {
    "i18n": {
      "eng": "Takurô Yoshida"
    },
    "name": "Takurô Yoshida",
    "tid": "21b087f9-fb90-400f-bad7-c1495a5792a6",
    "types": [
      "singers",
      "2",
      "songwriters",
      "8"
    ],
    "repository": "kara.moe",
    "modified_at": "2020-03-31T19:04:37.963Z"
  }
}