{
  "header": {
    "description": "Karaoke Mugen Tag File",
    "version": 1
  },
  "tag": {
    "i18n": {
      "eng": "TAKUMA"
    },
    "name": "TAKUMA",
    "tid": "84801a66-37ab-4acc-88d8-09f323d575c7",
    "types": [
      "singers",
      "2",
      "songwriters",
      "8"
    ],
    "repository": "kara.moe",
    "modified_at": "2020-03-31T19:04:37.956Z"
  }
}