{
  "header": {
    "description": "Karaoke Mugen Tag File",
    "version": 1
  },
  "tag": {
    "i18n": {
      "eng": "Takuma Morishige"
    },
    "name": "Takuma Morishige",
    "tid": "c69b9a3f-104b-4aaf-8f50-9be84c980df9",
    "types": [
      "songwriters",
      "8"
    ],
    "repository": "kara.moe",
    "modified_at": "2020-03-31T19:04:37.954Z"
  }
}