{
  "header": {
    "description": "Karaoke Mugen Tag File",
    "version": 1
  },
  "tag": {
    "aliases": [
      "ToX 2"
    ],
    "i18n": {
      "eng": "Tales of Xillia 2",
      "jpn": "テイルズ オブ エクシリア2",
      "qro": "Tales of Xillia 2"
    },
    "modified_at": "2020-03-31T19:04:32.899Z",
    "name": "Tales of Xillia 2",
    "repository": "kara.moe",
    "tid": "4a97f52d-03cf-41d7-a253-964dc1b547e6",
    "types": [
      "series",
      "1"
    ]
  }
}