{
  "header": {
    "description": "Karaoke Mugen Tag File",
    "version": 1
  },
  "tag": {
    "aliases": [
      "ToZ"
    ],
    "i18n": {
      "eng": "Tales of Zestiria",
      "jpn": "テイルズ オブ ゼスティリア",
      "qro": "Tales of Zestiria"
    },
    "modified_at": "2020-03-31T19:04:32.901Z",
    "name": "Tales of Zestiria",
    "repository": "kara.moe",
    "tid": "d06e41c8-4644-4a3c-bf5d-2d5154053c22",
    "types": [
      "series",
      "1"
    ]
  }
}