{
  "header": {
    "description": "Karaoke Mugen Tag File",
    "version": 1
  },
  "tag": {
    "aliases": [
      "To"
    ],
    "i18n": {
      "eng": "Tales of",
      "jpn": "テイルズ オブ"
    },
    "name": "Tales of",
    "repository": "kara.moe",
    "tid": "457ab7f6-9644-4493-b61b-8778400aaf54",
    "types": [
      "franchises",
      "18"
    ]
  }
}