{
  "header": {
    "description": "Karaoke Mugen Tag File",
    "version": 1
  },
  "tag": {
    "i18n": {
      "eng": "Tales of Innocence R",
      "jpn": "テイルズオブイノセンス アール",
      "qro": "Tales of Innocence R"
    },
    "modified_at": "2020-03-31T19:04:32.889Z",
    "name": "Tales of Innocence R",
    "repository": "kara.moe",
    "tid": "2de9946b-c1ff-4c6e-bd75-b594609d4588",
    "types": [
      "series",
      "1"
    ]
  }
}