{
  "header": {
    "description": "Karaoke Mugen Tag File",
    "version": 1
  },
  "tag": {
    "aliases": [
      "Tales of Symphonia 2 Tethe'alla-hen",
      "ToS Tethe'alla-hen"
    ],
    "external_database_ids": {
      "anilist": 5306,
      "myanimelist": 5306,
      "kitsu": 4048
    },
    "i18n": {
      "eng": "Tales of Symphonia The Animation: Tethe'alla Episode",
      "jpn": "テイルズ オブ シンフォニア THE ANIMATION テセアラ編",
      "qro": "Tales of Symphonia The Animation: Tethe'alla Hen",
      "kor": " 테일즈 오브 심포니아 The Animation: 테세알라편"
    },
    "name": "Tales of Symphonia The Animation: Tethe'alla Hen",
    "repository": "kara.moe",
    "tid": "ed98f945-66ca-4131-a9dd-3b8f96c10d91",
    "types": [
      "series",
      "1"
    ]
  }
}