{
  "header": {
    "description": "Karaoke Mugen Tag File",
    "version": 1
  },
  "tag": {
    "i18n": {
      "eng": "Tally Hall"
    },
    "name": "Tally Hall",
    "repository": "kara.moe",
    "tid": "5e733f48-2d37-4b6e-9be7-6715443960f4",
    "types": [
      "singergroups",
      "17"
    ]
  }
}