{
  "header": {
    "description": "Karaoke Mugen Tag File",
    "version": 1
  },
  "tag": {
    "aliases": [
      "玉子市场"
    ],
    "external_database_ids": {
      "anilist": 16417,
      "myanimelist": 16417,
      "kitsu": 7425
    },
    "i18n": {
      "eng": "Tamako Market",
      "fre": "Tamako Market",
      "jpn": "たまこまーけっと",
      "kor": "타마코 마켓",
      "qro": "Tamako Market"
    },
    "modified_at": "2020-03-31T19:04:32.902Z",
    "name": "Tamako Market",
    "repository": "kara.moe",
    "tid": "beb0202b-83af-4691-9000-bf85e9d23899",
    "types": [
      "series",
      "1",
      "franchises",
      "18"
    ]
  }
}