{
  "header": {
    "description": "Karaoke Mugen Tag File",
    "version": 1
  },
  "tag": {
    "i18n": {
      "eng": "Tamago"
    },
    "name": "Tamago",
    "tid": "61416225-888d-4adc-9098-72e29f8edce2",
    "types": [
      "creators",
      "4"
    ],
    "repository": "kara.moe",
    "modified_at": "2020-03-31T19:04:37.978Z"
  }
}