{
  "header": {
    "description": "Karaoke Mugen Tag File",
    "version": 1
  },
  "tag": {
    "i18n": {
      "eng": "Tamaya2060%"
    },
    "modified_at": "2020-07-18T21:15:28.290Z",
    "name": "Tamaya2060%",
    "repository": "kara.moe",
    "tid": "f182a71e-7b86-4aac-aaa6-a229f1649d05",
    "types": [
      "songwriters",
      "8"
    ]
  }
}