{
  "header": {
    "description": "Karaoke Mugen Tag File",
    "version": 1
  },
  "tag": {
    "i18n": {
      "eng": "Tama Kashiwamori."
    },
    "name": "Tama Kashiwamori.",
    "repository": "kara.moe",
    "tid": "5e82a8dd-1b42-42d6-85a4-20cebde69eda",
    "types": [
      "creators",
      "4"
    ]
  }
}