{
  "header": {
    "description": "Karaoke Mugen Tag File",
    "version": 1
  },
  "tag": {
    "external_database_ids": {
      "anilist": 9055,
      "myanimelist": 9055,
      "kitsu": 5588
    },
    "i18n": {
      "chi": "玉响",
      "eng": "Tamayura",
      "jpn": "たまゆら",
      "qro": "Tamayura"
    },
    "modified_at": "2020-03-31T19:04:32.904Z",
    "name": "Tamayura",
    "repository": "kara.moe",
    "tid": "aa9da6bf-73ab-482f-9b01-91087dca717f",
    "types": [
      "series",
      "1",
      "franchises",
      "18"
    ]
  }
}