{
  "header": {
    "description": "Karaoke Mugen Tag File",
    "version": 1
  },
  "tag": {
    "i18n": {
      "eng": "Tama"
    },
    "name": "Tama",
    "tid": "40142b8b-0d23-4c6d-9ca3-ff2cbbc2cbc3",
    "types": [
      "creators",
      "4"
    ],
    "repository": "kara.moe",
    "modified_at": "2020-03-31T19:04:37.976Z"
  }
}