{
  "header": {
    "description": "Karaoke Mugen Tag File",
    "version": 1
  },
  "tag": {
    "i18n": {
      "eng": "Tamaki Inuyama"
    },
    "name": "Tamaki Inuyama",
    "tid": "651b311d-d55f-4b1d-9093-5f743a18f1d2",
    "types": [
      "singers",
      "2"
    ],
    "repository": "kara.moe",
    "modified_at": "2020-03-31T19:04:37.978Z"
  }
}