{
  "header": {
    "description": "Karaoke Mugen Tag File",
    "version": 1
  },
  "tag": {
    "i18n": {
      "eng": "Tamara Loeffler"
    },
    "name": "Tamara Loeffler",
    "tid": "44480ade-a18d-4ad3-996a-db3535859c33",
    "types": [
      "songwriters",
      "8"
    ],
    "repository": "kara.moe",
    "modified_at": "2020-03-31T19:04:37.981Z"
  }
}