{
  "header": {
    "description": "Karaoke Mugen Tag File",
    "version": 1
  },
  "tag": {
    "aliases": [
      "Tamayura: Sotsugyou Shashin",
      "sotsugyou"
    ],
    "external_database_ids": {
      "anilist": 20805,
      "myanimelist": 25729,
      "kitsu": 8808
    },
    "i18n": {
      "eng": "Tamayura: Graduation Photos",
      "jpn": "たまゆら~卒業写真~",
      "qro": "Tamayura: Sotsugyô Shashin"
    },
    "modified_at": "2020-03-31T19:04:32.904Z",
    "name": "Tamayura: Sotsugyô Shashin",
    "repository": "kara.moe",
    "tid": "c21044d3-e395-4ccd-93bb-42a4ff482cd6",
    "types": [
      "series",
      "1"
    ]
  }
}