{
  "header": {
    "description": "Karaoke Mugen Tag File",
    "version": 1
  },
  "tag": {
    "i18n": {
      "eng": "Tamiki Wakaki"
    },
    "name": "Tamiki Wakaki",
    "tid": "63c302a7-4fb0-47c6-9586-e849850f7c27",
    "types": [
      "songwriters",
      "8"
    ],
    "repository": "kara.moe",
    "modified_at": "2020-03-31T19:04:37.984Z"
  }
}