{
  "header": {
    "description": "Karaoke Mugen Tag File",
    "version": 1
  },
  "tag": {
    "i18n": {
      "eng": "tangerine."
    },
    "name": "tangerine.",
    "tid": "9aa1595b-7a01-45d4-b3e8-d0263fecaf77",
    "types": [
      "songwriters",
      "8"
    ],
    "repository": "kara.moe",
    "modified_at": "2020-03-31T19:04:37.987Z"
  }
}