{
  "header": {
    "description": "Karaoke Mugen Tag File",
    "version": 1
  },
  "tag": {
    "aliases": [
      "Detective Opera Milky Holmes Dai-Ni-Maku"
    ],
    "external_database_ids": {
      "anilist": 11341,
      "myanimelist": 11341,
      "kitsu": 6496
    },
    "i18n": {
      "eng": "Tantei Opera Milky Holmes 2",
      "jpn": "探偵オペラ ミルキィホームズ 第2幕",
      "qro": "Tantei Opera Milky Holmes Dai-Ni-Maku"
    },
    "modified_at": "2020-03-31T19:04:32.907Z",
    "name": "Tantei Opera Milky Holmes Dai-Ni-Maku",
    "repository": "kara.moe",
    "tid": "c3eeb962-e537-490e-a259-232500895f80",
    "types": [
      "series",
      "1"
    ]
  }
}