{
  "header": {
    "description": "Karaoke Mugen Tag File",
    "version": 1
  },
  "tag": {
    "i18n": {
      "eng": "TANUKICHI☆"
    },
    "name": "TANUKICHI☆",
    "tid": "7a18d376-0a7f-481c-a005-3faf75386220",
    "types": [
      "songwriters",
      "8"
    ],
    "repository": "kara.moe",
    "modified_at": "2020-03-31T19:04:37.988Z"
  }
}