{
  "header": {
    "description": "Karaoke Mugen Tag File",
    "version": 1
  },
  "tag": {
    "i18n": {
      "eng": "Tanya Chua"
    },
    "modified_at": "2021-11-20T20:29:56.303Z",
    "name": "Tanya Chua",
    "repository": "kara.moe",
    "tid": "73fa1c55-d40e-484d-914b-3353a2619f96",
    "types": [
      "singers",
      "2"
    ]
  }
}