{
  "header": {
    "description": "Karaoke Mugen Tag File",
    "version": 1
  },
  "tag": {
    "i18n": {
      "eng": "TAPIKO"
    },
    "name": "TAPIKO",
    "tid": "ef2ed88f-976d-4bdb-8c86-623a28a7af27",
    "types": [
      "songwriters",
      "8"
    ],
    "repository": "kara.moe",
    "modified_at": "2020-03-31T19:04:37.989Z"
  }
}