{
  "header": {
    "description": "Karaoke Mugen Tag File",
    "version": 1
  },
  "tag": {
    "i18n": {
      "eng": "TARAWO"
    },
    "name": "TARAWO",
    "tid": "640b8417-b4d4-49af-80d7-5f2a9826b114",
    "types": [
      "songwriters",
      "8"
    ],
    "repository": "kara.moe",
    "modified_at": "2020-03-31T19:04:37.991Z"
  }
}