{
  "header": {
    "description": "Karaoke Mugen Tag File",
    "version": 1
  },
  "tag": {
    "i18n": {
      "eng": "Tarako Isono"
    },
    "name": "Tarako Isono",
    "repository": "kara.moe",
    "tid": "db69a5af-fd43-4fe7-a8d2-9c2d513cac11",
    "types": [
      "songwriters",
      "8"
    ],
    "modified_at": "2020-03-31T19:04:37.990Z"
  }
}