{
  "header": {
    "description": "Karaoke Mugen Tag File",
    "version": 1
  },
  "tag": {
    "i18n": {
      "eng": "Tarareba",
      "jpn": "タラレバ",
      "qro": "Tarareba"
    },
    "modified_at": "2020-03-31T19:04:32.908Z",
    "name": "Tarareba",
    "repository": "kara.moe",
    "tid": "5d3fa605-3a4e-4b10-918d-371d2d2fba5d",
    "types": [
      "series",
      "1"
    ]
  }
}