{
  "header": {
    "description": "Karaoke Mugen Tag File",
    "version": 1
  },
  "tag": {
    "i18n": {
      "eng": "Target Records"
    },
    "name": "Target Records",
    "tid": "1a1b96b1-7ad4-4f60-a615-c8b466f75ec8",
    "types": [
      "creators",
      "4"
    ],
    "repository": "kara.moe",
    "modified_at": "2020-03-31T19:04:37.992Z"
  }
}