{
  "header": {
    "description": "Karaoke Mugen Tag File",
    "version": 1
  },
  "tag": {
    "i18n": {
      "eng": "Tarik Al Arabi Tarkane"
    },
    "name": "Tarik Al Arabi Tarkane",
    "tid": "9e1ecc98-2e3c-4649-8344-98adabc242b9",
    "types": [
      "singers",
      "2"
    ],
    "repository": "kara.moe",
    "modified_at": "2020-03-31T19:04:37.992Z"
  }
}