{
  "header": {
    "description": "Karaoke Mugen Tag File",
    "version": 1
  },
  "tag": {
    "aliases": [
      "Tari x2",
      "tari^2"
    ],
    "external_database_ids": {
      "anilist": 13333,
      "myanimelist": 13333,
      "kitsu": 6941
    },
    "i18n": {
      "eng": "Tari Tari",
      "ger": "Tari Tari",
      "jpn": "TARI TARI",
      "tha": "บทเพลงบรรเลงฝัน",
      "qro": "Tari Tari"
    },
    "modified_at": "2020-03-31T19:04:32.908Z",
    "name": "Tari Tari",
    "repository": "kara.moe",
    "tid": "aea012d3-e648-4b87-b377-04d14fdd5356",
    "types": [
      "series",
      "1"
    ]
  }
}