{
  "header": {
    "description": "Karaoke Mugen Tag File",
    "version": 1
  },
  "tag": {
    "i18n": {
      "eng": "Tarja Turunen"
    },
    "modified_at": "2021-11-13T12:57:59.243Z",
    "name": "Tarja Turunen",
    "repository": "kara.moe",
    "tid": "ad2441c3-6047-4cf0-834f-8775f9a41f84",
    "types": [
      "singers",
      "2"
    ]
  }
}