{
  "header": {
    "description": "Karaoke Mugen Tag File",
    "version": 1
  },
  "tag": {
    "i18n": {
      "qro": "Tarô Ishida"
    },
    "name": "Tarô Ishida",
    "repository": "kara.moe",
    "tid": "e251fadc-ae48-46f9-bd4c-846ea08c08aa",
    "types": [
      "songwriters",
      "8"
    ]
  }
}