{
  "header": {
    "description": "Karaoke Mugen Tag File",
    "version": 1
  },
  "tag": {
    "i18n": {
      "eng": "Tarô Makido"
    },
    "name": "Tarô Makido",
    "tid": "086c332a-7d60-4f83-a84a-be274dea88c8",
    "types": [
      "songwriters",
      "8"
    ],
    "repository": "kara.moe",
    "modified_at": "2020-03-31T19:04:37.993Z"
  }
}