{
  "header": {
    "description": "Karaoke Mugen Tag File",
    "version": 1
  },
  "tag": {
    "i18n": {
      "eng": "Tasuku Kaito"
    },
    "name": "Tasuku Kaito",
    "repository": "kara.moe",
    "tid": "440e9a3f-247c-44d4-9070-c0d07eb16d78",
    "types": [
      "singers",
      "2"
    ]
  }
}