{
  "header": {
    "description": "Karaoke Mugen Tag File",
    "version": 1
  },
  "tag": {
    "i18n": {
      "eng": "Tasuke Inamura"
    },
    "name": "Tasuke Inamura",
    "tid": "ea8b2271-31b7-4e37-898e-cab5385d3af4",
    "types": [
      "songwriters",
      "8"
    ],
    "repository": "kara.moe",
    "modified_at": "2020-03-31T19:04:37.996Z"
  }
}