{
  "header": {
    "description": "Karaoke Mugen Tag File",
    "version": 1
  },
  "tag": {
    "aliases": [
      "Armed Librarians",
      "Armed Librarians: Book of Bantorra",
      "Quản thư chiến - Quyển sách của Bantorra",
      "Боевые Библиотекари: Книга Банторры",
      "كتاب بانتورا",
      "战斗司书 The Book of Bantorra"
    ],
    "external_database_ids": {
      "anilist": 6758,
      "myanimelist": 6758,
      "kitsu": 4700
    },
    "i18n": {
      "eng": "The Book of Bantorra",
      "fre": "The Book of Bantorra",
      "jpn": "戦う司書 The Book of Bantorra",
      "qro": "Tatakau Shisho ~ The Book of Bantorra"
    },
    "modified_at": "2020-06-21T23:45:31.966Z",
    "name": "Tatakau Shisho ~ The Book of Bantorra",
    "repository": "kara.moe",
    "tid": "2e3eeb94-a562-4126-ac5b-bcb149032590",
    "types": [
      "series",
      "1"
    ]
  }
}