{
  "header": {
    "description": "Karaoke Mugen Tag File",
    "version": 1
  },
  "tag": {
    "aliases": [
      "Transformers G1"
    ],
    "external_database_ids": {
      "anilist": 2268,
      "myanimelist": 2268,
      "kitsu": 2056
    },
    "i18n": {
      "eng": "Transformers: Generation 1",
      "jpn": "戦え！超ロボット生命体トランスフォーマ",
      "qro": "Tatakae! Chou Robot seimeitai Transformer"
    },
    "modified_at": "2020-03-31T19:04:32.909Z",
    "name": "Tatakae! Chou Robot seimeitai Transformer",
    "repository": "kara.moe",
    "tid": "cf670392-95b2-4ee5-8ab1-f1abff9ce4ca",
    "types": [
      "series",
      "1"
    ]
  }
}