{
  "header": {
    "description": "Karaoke Mugen Tag File",
    "version": 1
  },
  "tag": {
    "i18n": {
      "eng": "Tateki Owada"
    },
    "name": "Tateki Owada",
    "repository": "kara.moe",
    "tid": "10e49998-9d83-44eb-963c-439800bb5377",
    "types": [
      "songwriters",
      "8"
    ]
  }
}