{
  "header": {
    "description": "Karaoke Mugen Tag File",
    "version": 1
  },
  "tag": {
    "i18n": {
      "eng": "Tatiana Naumova"
    },
    "name": "Tatiana Naumova",
    "tid": "1a074c2b-5f75-4e1a-9aba-32375969e2e3",
    "types": [
      "songwriters",
      "8"
    ],
    "repository": "kara.moe",
    "modified_at": "2020-03-31T19:04:37.997Z"
  }
}