{
  "header": {
    "description": "Karaoke Mugen Tag File",
    "version": 1
  },
  "tag": {
    "i18n": {
      "jpn": "キタニタツヤ",
      "qro": "Tatsuya Kitani"
    },
    "name": "Tatsuya Kitani",
    "repository": "kara.moe",
    "tid": "03034fb5-a547-41f7-8229-d7086426d379",
    "types": [
      "singers",
      "2",
      "songwriters",
      "8"
    ]
  }
}