{
  "header": {
    "description": "Karaoke Mugen Tag File",
    "version": 1
  },
  "tag": {
    "i18n": {
      "eng": "Tatsuhiko Saiki"
    },
    "name": "Tatsuhiko Saiki",
    "repository": "kara.moe",
    "tid": "4b391812-3f6e-44ce-b092-70714a2f167d",
    "types": [
      "songwriters",
      "8"
    ]
  }
}