{
  "header": {
    "description": "Karaoke Mugen Tag File",
    "version": 1
  },
  "tag": {
    "i18n": {
      "eng": "tatsuku"
    },
    "name": "tatsuku",
    "tid": "5f9346a9-6107-47bb-a3f4-c08caafb7482",
    "types": [
      "songwriters",
      "8"
    ],
    "repository": "kara.moe",
    "modified_at": "2020-03-31T19:04:38.003Z"
  }
}