{
  "header": {
    "description": "Karaoke Mugen Tag File",
    "version": 1
  },
  "tag": {
    "i18n": {
      "eng": "Tatsunami Shuuichi"
    },
    "name": "Tatsunami Shuuichi",
    "repository": "kara.moe",
    "tid": "1f125147-76fd-4046-a074-b79318630842",
    "types": [
      "singers",
      "2"
    ]
  }
}