{
  "header": {
    "description": "Karaoke Mugen Tag File",
    "version": 1
  },
  "tag": {
    "i18n": {
      "eng": "Tatsuyuki Masuda"
    },
    "name": "Tatsuyuki Masuda",
    "tid": "bb5d0ac2-27ca-4c04-bfb3-32f21cef24e6",
    "types": [
      "songwriters",
      "8"
    ],
    "repository": "kara.moe",
    "modified_at": "2020-03-31T19:04:38.020Z"
  }
}