{
  "header": {
    "description": "Karaoke Mugen Tag File",
    "version": 1
  },
  "tag": {
    "i18n": {
      "eng": "Tatsuo Kamon"
    },
    "name": "Tatsuo Kamon",
    "tid": "2b59f84c-9e79-428a-acf9-f791454c30ad",
    "types": [
      "singers",
      "2",
      "songwriters",
      "8"
    ],
    "repository": "kara.moe",
    "modified_at": "2020-03-31T19:04:38.007Z"
  }
}