{
  "header": {
    "description": "Karaoke Mugen Tag File",
    "version": 1
  },
  "tag": {
    "i18n": {
      "eng": "Tatsuya Katô"
    },
    "name": "Tatsuya Katô",
    "tid": "03537d59-35c7-493e-a807-54263253a072",
    "types": [
      "songwriters",
      "8"
    ],
    "repository": "kara.moe",
    "modified_at": "2020-03-31T19:04:38.013Z"
  }
}