{
  "header": {
    "description": "Karaoke Mugen Tag File",
    "version": 1
  },
  "tag": {
    "i18n": {
      "eng": "Tayla Parx"
    },
    "name": "Tayla Parx",
    "repository": "kara.moe",
    "tid": "6f3edd7d-2347-4715-93c6-d3f35e991344",
    "types": [
      "songwriters",
      "8"
    ]
  }
}