{
  "header": {
    "description": "Karaoke Mugen Tag File",
    "version": 1
  },
  "tag": {
    "i18n": {
      "eng": "Taz-Mania",
      "fre": "Taz-Mania"
    },
    "modified_at": "2020-05-09T18:10:54.352Z",
    "name": "Taz-Mania",
    "repository": "kara.moe",
    "tid": "797b815c-be66-4ef4-988c-f86e0682fc73",
    "types": [
      "series",
      "1"
    ]
  }
}