{
  "header": {
    "description": "Karaoke Mugen Tag File",
    "version": 1
  },
  "tag": {
    "i18n": {
      "eng": "TBAThunderbrain"
    },
    "modified_at": "2021-01-03T23:47:33.727Z",
    "name": "TBAThunderbrain",
    "repository": "kara.moe",
    "tid": "4c9bd33f-b01e-426e-998d-20d01edfb9f7",
    "types": [
      "creators",
      "4"
    ]
  }
}