{
  "header": {
    "description": "Karaoke Mugen Tag File",
    "version": 1
  },
  "tag": {
    "i18n": {
      "eng": "Team Le TAO"
    },
    "name": "Team Le TAO",
    "tid": "ae097515-b87a-4198-aae4-df78f6fb64ad",
    "types": [
      "singers",
      "2"
    ],
    "repository": "kara.moe",
    "modified_at": "2020-03-31T19:04:38.027Z"
  }
}