{
  "header": {
    "description": "Karaoke Mugen Tag File",
    "version": 1
  },
  "tag": {
    "i18n": {
      "eng": "team Umifure"
    },
    "name": "team Umifure",
    "repository": "kara.moe",
    "tid": "d797c3e2-6d51-45c5-9b28-b4e9b1dcef6c",
    "types": [
      "singergroups",
      "17"
    ]
  }
}