{
  "header": {
    "description": "Karaoke Mugen Tag File",
    "version": 1
  },
  "tag": {
    "i18n": {
      "eng": "Team GrisGris"
    },
    "name": "Team GrisGris",
    "tid": "e1a4b6ad-f798-4220-8fbe-e517c05ca8de",
    "types": [
      "creators",
      "4"
    ],
    "repository": "kara.moe",
    "modified_at": "2020-03-31T19:04:38.025Z"
  }
}