{
  "header": {
    "description": "Karaoke Mugen Tag File",
    "version": 1
  },
  "tag": {
    "i18n": {
      "eng": "tear-studio"
    },
    "name": "tear-studio",
    "tid": "e8dc5dfd-b87f-4ee3-a35f-594133bf073b",
    "types": [
      "creators",
      "4"
    ],
    "repository": "kara.moe",
    "modified_at": "2020-03-31T19:04:38.032Z"
  }
}