{
  "header": {
    "description": "Karaoke Mugen Tag File",
    "version": 1
  },
  "tag": {
    "external_database_ids": {
      "anilist": 141062,
      "kitsu": 45409,
      "myanimelist": 50284
    },
    "i18n": {
      "eng": "Technoroid Overmind",
      "jpn": "テクノロイド OVERMIND"
    },
    "name": "Technoroid Overmind",
    "repository": "kara.moe",
    "tid": "6b733150-8e2a-4a29-bf2d-f7f04a7b64a3",
    "types": [
      "series",
      "1"
    ]
  }
}