{
  "header": {
    "description": "Karaoke Mugen Tag File",
    "version": 1
  },
  "tag": {
    "i18n": {
      "eng": "Ted Sears"
    },
    "name": "Ted Sears",
    "repository": "kara.moe",
    "tid": "ffd9197d-30c0-40b4-819a-e62960bd9f4c",
    "types": [
      "songwriters",
      "8"
    ]
  }
}