{
  "header": {
    "description": "Karaoke Mugen Tag File",
    "version": 1
  },
  "tag": {
    "i18n": {
      "eng": "TeddyLoid"
    },
    "name": "TeddyLoid",
    "tid": "5f20186f-004f-4053-927a-0d2929836f3f",
    "types": [
      "singers",
      "2",
      "songwriters",
      "8"
    ],
    "repository": "kara.moe",
    "modified_at": "2020-03-31T19:04:38.035Z"
  }
}