{
  "header": {
    "description": "Karaoke Mugen Tag File",
    "version": 1
  },
  "tag": {
    "aliases": [
      "Teekyu",
      "Tekyu",
      "Tekyuu"
    ],
    "external_database_ids": {
      "anilist": 18121,
      "myanimelist": 18121,
      "kitsu": 7718
    },
    "i18n": {
      "eng": "Teekyu 2",
      "fre": "Teekyû 2",
      "jpn": "てーきゅう 2期",
      "qro": "Teekyuu 2"
    },
    "modified_at": "2020-06-21T23:45:31.966Z",
    "name": "Teekyuu 2",
    "repository": "kara.moe",
    "tid": "d0ffec42-67e8-4d6c-99c2-4f6d23d535f6",
    "types": [
      "series",
      "1"
    ]
  }
}