{
  "header": {
    "description": "Karaoke Mugen Tag File",
    "version": 1
  },
  "tag": {
    "i18n": {
      "eng": "Teen Titans"
    },
    "name": "Teen Titans",
    "repository": "kara.moe",
    "tid": "b33f37bb-6c8f-4466-8f2d-7a9fd4071452",
    "types": [
      "franchises",
      "18"
    ]
  }
}