{
  "header": {
    "description": "Karaoke Mugen Tag File",
    "version": 1
  },
  "tag": {
    "aliases": [
      "Letter Bee 2",
      "Letter Bee REVERSE",
      "Tegamibachi: Reverse",
      "bee2",
      "tb2",
      "tbr"
    ],
    "external_database_ids": {
      "anilist": 8311,
      "myanimelist": 8311,
      "kitsu": 5288
    },
    "i18n": {
      "eng": "Tegami Bachi: Letter Bee Reverse",
      "fre": "Letter Bee : Reverse",
      "jpn": "テガミバチ REVERSE",
      "qro": "Tegami Bachi ~Reverse~"
    },
    "modified_at": "2020-03-31T19:04:32.921Z",
    "name": "Tegami Bachi ~Reverse~",
    "repository": "kara.moe",
    "tid": "baa543a3-59a4-458d-b166-d3f5087fb432",
    "types": [
      "series",
      "1"
    ]
  }
}