{
  "header": {
    "description": "Karaoke Mugen Tag File",
    "version": 1
  },
  "tag": {
    "i18n": {
      "eng": "Teiko"
    },
    "name": "Teiko",
    "tid": "87779e7f-6016-4f47-a7a5-065ae4b954e6",
    "types": [
      "singers",
      "2"
    ],
    "repository": "kara.moe",
    "modified_at": "2020-03-31T19:04:38.038Z"
  }
}