{
  "header": {
    "description": "Karaoke Mugen Tag File",
    "version": 1
  },
  "tag": {
    "i18n": {
      "eng": "Teje"
    },
    "name": "Teje",
    "repository": "kara.moe",
    "tid": "d2aabf2c-7572-49a8-b788-9aed300df95a",
    "types": [
      "songwriters",
      "8"
    ]
  }
}