{
  "header": {
    "description": "Karaoke Mugen Tag File",
    "version": 1
  },
  "tag": {
    "i18n": {
      "afr": "Telugu",
      "amh": "ተሉጉኛ",
      "ara": "التيلجو",
      "aze": "Teluqu",
      "bak": "Телугу теле",
      "bel": "Тэлугу",
      "bul": "Телугу",
      "ben": "তেলুগু",
      "bos": "Indija",
      "cat": "Telugu",
      "cze": "Telugu",
      "wel": "Telugu",
      "dan": "Telugu",
      "ger": "Telugu",
      "gre": "Τελούγκου",
      "eng": "Telugu",
      "epo": "La telugua",
      "spa": "Telugu",
      "est": "Telugu",
      "baq": "Telugu",
      "per": "تلوگو",
      "fin": "Telugu",
      "fre": "Telugu",
      "gle": "Teileagúis",
      "gla": "In a barn pick up",
      "glg": "Telugu",
      "guj": "તેલુગુ",
      "heb": "טלוגו",
      "hin": "तेलुगु",
      "hrv": "Telugu",
      "hat": "Telugu",
      "hun": "Telugu",
      "arm": "Telugu",
      "ind": "Telugu",
      "ice": "Enska",
      "ita": "Telugu",
      "jpn": "テルグ",
      "jav": "Telugu",
      "geo": "Telugu",
      "kaz": "Телугу",
      "kan": "ತೆಲುಗು",
      "kor": "텔루구어",
      "kir": "Телугу",
      "lat": "Telugu",
      "lit": "Telugų",
      "lav": "Telugu",
      "mlg": "Telugu",
      "mao": "Telugu",
      "mac": "Телугу",
      "mal": "തെലുങ്ക്",
      "mon": "Telugu",
      "mar": "तेलुगू",
      "may": "Telugu",
      "mlt": "}",
      "nep": "तेलुगु",
      "dut": "Telugu",
      "nor": "Telugu",
      "pan": "ਤੇਲਗੂ",
      "pol": "Telugu",
      "por": "Telugu",
      "rum": "Telugu",
      "rus": "Телугу",
      "sin": "තෙළිඟු",
      "slo": "Telugu",
      "slv": "Švedski",
      "alb": "Telugu",
      "srp": "Телугу",
      "sun": "Telugu",
      "swe": "Telugu",
      "swa": "Telugu",
      "tam": "தெலுங்கு",
      "tel": "తెలుగు",
      "tgk": "Telugu",
      "tha": "ภาษาเทลูกู name",
      "tgl": "Telugu",
      "tur": "Telugu",
      "tat": "Телугу теле",
      "ukr": "Телугу",
      "urd": "تیلگو",
      "uzb": "Telugu",
      "vie": "Tamil",
      "xho": "I-telugu",
      "yid": "טעלוגו",
      "chi": "泰卢固语"
    },
    "name": "tel",
    "tid": "155dca37-2254-472b-b768-6467a5fa6a9a",
    "types": [
      "langs",
      "5"
    ],
    "repository": "kara.moe",
    "modified_at": "2020-03-31T19:04:38.040Z"
  }
}