{
  "header": {
    "description": "Karaoke Mugen Tag File",
    "version": 1
  },
  "tag": {
    "i18n": {
      "eng": "Tela"
    },
    "name": "Tela",
    "tid": "7fc9c366-f5c6-4dfa-98c3-6c6127388826",
    "types": [
      "songwriters",
      "8"
    ],
    "repository": "kara.moe",
    "modified_at": "2020-03-31T19:04:38.041Z"
  }
}