{
  "header": {
    "description": "Karaoke Mugen Tag File",
    "version": 1
  },
  "tag": {
    "i18n": {
      "eng": "Telenet Japan"
    },
    "name": "Telenet Japan",
    "tid": "de861a99-135b-45c8-be5c-fc818b421e54",
    "types": [
      "creators",
      "4"
    ],
    "repository": "kara.moe",
    "modified_at": "2020-03-31T19:04:38.043Z"
  }
}