{
  "header": {
    "description": "Karaoke Mugen Tag File",
    "version": 1
  },
  "tag": {
    "i18n": {
      "eng": "Télé Images Productions"
    },
    "name": "Télé Images Productions",
    "tid": "35c9d4ff-51ea-45d3-92dc-b795a2218d8b",
    "types": [
      "creators",
      "4"
    ],
    "repository": "kara.moe",
    "modified_at": "2020-03-31T19:04:38.041Z"
  }
}