{
  "header": {
    "description": "Karaoke Mugen Tag File",
    "version": 1
  },
  "tag": {
    "i18n": {
      "eng": "TeLiXj"
    },
    "modified_at": "2020-05-22T23:05:20.205Z",
    "name": "TeLiXj",
    "repository": "kara.moe",
    "tid": "0c8e4377-ee35-4896-89ed-9d06a1b5acd5",
    "types": [
      "authors",
      "6"
    ]
  }
}