{
  "header": {
    "description": "Karaoke Mugen Tag File",
    "version": 1
  },
  "tag": {
    "i18n": {
      "eng": "TEMPURA KIDZ"
    },
    "name": "TEMPURA KIDZ",
    "tid": "a1d11cc8-9a5d-4d59-84d0-9ca2d39ea8a4",
    "types": [
      "singers",
      "2"
    ],
    "repository": "kara.moe",
    "modified_at": "2020-03-31T19:04:38.045Z"
  }
}