{
  "header": {
    "description": "Karaoke Mugen Tag File",
    "version": 1
  },
  "tag": {
    "i18n": {
      "eng": "Ten ya"
    },
    "name": "Ten ya",
    "repository": "kara.moe",
    "tid": "a9afbe5f-71f6-4211-9c42-893c5d04a695",
    "types": [
      "creators",
      "4"
    ]
  }
}