{
  "header": {
    "description": "Karaoke Mugen Tag File",
    "version": 1
  },
  "tag": {
    "i18n": {
      "eng": "TenAku ~Angel and Devil~",
      "jpn": "てんあく ANGEL and DEVIL",
      "qro": "TenAku ~Angel and Devil~"
    },
    "modified_at": "2020-03-31T19:04:32.925Z",
    "name": "TenAku ~Angel and Devil~",
    "repository": "kara.moe",
    "tid": "169d1ff5-dc81-462b-9513-3f21412c7be1",
    "types": [
      "series",
      "1"
    ]
  }
}