{
  "header": {
    "description": "Karaoke Mugen Tag File",
    "version": 1
  },
  "tag": {
    "aliases": [
      "Judgment! XX Angel Rabbie",
      "Divine Punishment: Angel Rabbie OVA",
      "rabbie"
    ],
    "i18n": {
      "eng": "Tenbatsu! Angel Rabbie☆",
      "jpn": "天罰エンジェルラビィ☆",
      "qro": "Tenbatsu! Angel Rabbie☆"
    },
    "modified_at": "2020-12-30T12:40:49.086Z",
    "name": "Tenbatsu! Angel Rabbie☆",
    "repository": "kara.moe",
    "tid": "33ffa784-da21-4c8c-ba85-3c95d591df8f",
    "types": [
      "series",
      "1"
    ]
  }
}