{
  "header": {
    "description": "Karaoke Mugen Tag File",
    "version": 1
  },
  "tag": {
    "aliases": [
      "Tenchi Souzou Design-bu",
      "TEN DE BU",
      "てんちそうぞうデザインぶ",
      "souzou"
    ],
    "external_database_ids": {
      "anilist": 117696,
      "myanimelist": 41762,
      "kitsu": 43137
    },
    "i18n": {
      "eng": "Heaven's Design Team",
      "jpn": "天地創造デザイン部",
      "qro": "Tenchi Sôzô Design-bu"
    },
    "modified_at": "2021-05-08T15:11:48.111Z",
    "name": "Tenchi Sôzô Design-bu",
    "repository": "kara.moe",
    "tid": "587dd2f7-ce34-4e3a-9303-5674e638e76c",
    "types": [
      "series",
      "1"
    ]
  }
}