{
  "header": {
    "description": "Karaoke Mugen Tag File",
    "version": 1
  },
  "tag": {
    "i18n": {
      "eng": "TENGU KOBOU"
    },
    "name": "TENGU KOBOU",
    "tid": "0dcea13f-67ba-42c6-8f91-e41cd394e64a",
    "types": [
      "creators",
      "4"
    ],
    "repository": "kara.moe",
    "modified_at": "2020-03-31T19:04:38.047Z"
  }
}