{
  "header": {
    "description": "Karaoke Mugen Tag File",
    "version": 1
  },
  "tag": {
    "aliases": [
      "TTGL Parallel Works",
      "ttgl pw 2",
      "グレパラ",
      "그렌라간 Parallel Works"
    ],
    "external_database_ids": {
      "anilist": 8348,
      "myanimelist": 8348,
      "kitsu": 5302
    },
    "i18n": {
      "eng": "Gurren Lagann: Parallel Works 2",
      "jpn": "グレンラガン パラレルワークス 2",
      "qro": "Tengen Toppa Gurren Lagann Parallel Works 2"
    },
    "modified_at": "2020-06-21T23:45:31.966Z",
    "name": "Tengen Toppa Gurren Lagann Parallel Works 2",
    "repository": "kara.moe",
    "tid": "a365fa73-e804-479a-8ca0-aeb5dd89c050",
    "types": [
      "series",
      "1"
    ]
  }
}