{
  "header": {
    "description": "Karaoke Mugen Tag File",
    "version": 1
  },
  "tag": {
    "i18n": {
      "eng": "Tennenouji"
    },
    "name": "Tennenouji",
    "tid": "463d7cc2-55cd-41e9-9df9-0ccce6476e37",
    "types": [
      "creators",
      "4"
    ],
    "repository": "kara.moe",
    "modified_at": "2020-03-31T19:04:38.050Z"
  }
}