{
  "header": {
    "description": "Karaoke Mugen Tag File",
    "version": 1
  },
  "tag": {
    "aliases": [
      "Tenshi no Three Piece!",
      "tn3p",
      "天使の3P!"
    ],
    "external_database_ids": {
      "anilist": 97683,
      "myanimelist": 34177,
      "kitsu": 12624
    },
    "i18n": {
      "eng": "Angel's 3Piece!",
      "fre": "Tenshi no 3P!",
      "jpn": "天使の3P[スリーピース]!",
      "kor": "천사의 3P!",
      "qro": "Tenshi no 3P!"
    },
    "modified_at": "2020-03-31T19:04:32.938Z",
    "name": "Tenshi no 3P!",
    "repository": "kara.moe",
    "tid": "8995bbf1-3dc3-4f66-a136-21e788666dad",
    "types": [
      "series",
      "1"
    ]
  }
}