{
  "header": {
    "description": "Karaoke Mugen Tag File",
    "version": 1
  },
  "tag": {
    "i18n": {
      "eng": "Reincarnated as a Sword",
      "qro": "Tensei Shitara Ken Deshita",
      "jpn": "転生したら剣でした"
    },
    "name": "Tensei Shitara Ken Deshita",
    "repository": "kara.moe",
    "tid": "cb421696-1bbb-4807-a271-516822900870",
    "types": [
      "series",
      "1"
    ]
  }
}