{
  "header": {
    "description": "Karaoke Mugen Tag File",
    "version": 1
  },
  "tag": {
    "aliases": [
      "Regarding Reincarnated to Slime",
      "TenSura",
      "isekai slime"
    ],
    "external_database_ids": {
      "anilist": 101280,
      "myanimelist": 37430,
      "kitsu": 41024
    },
    "i18n": {
      "eng": "That Time I Got Reincarnated as a Slime",
      "fre": "Moi, quand je me réincarne en Slime",
      "jpn": "転生したらスライムだった件",
      "kor": "전생했더니 슬라임이었던 건",
      "qro": "Tensei Shitara Slime Datta Ken"
    },
    "modified_at": "2020-03-31T19:04:32.936Z",
    "name": "Tensei Shitara Slime Datta Ken",
    "repository": "kara.moe",
    "tid": "b78fd943-4356-4bc8-b962-8bb0252f11ce",
    "types": [
      "series",
      "1",
      "franchises",
      "18"
    ]
  }
}