{
  "header": {
    "description": "Karaoke Mugen Tag File",
    "version": 1
  },
  "tag": {
    "aliases": [
      "天体战士桑雷德"
    ],
    "external_database_ids": {
      "anilist": 5005,
      "myanimelist": 5005,
      "kitsu": 3878
    },
    "i18n": {
      "eng": "Astro Fighter Sunred",
      "jpn": "天体戦士サンレッド",
      "qro": "Tentai Senshi Sunred"
    },
    "modified_at": "2020-06-21T23:45:31.966Z",
    "name": "Tentai Senshi Sunred",
    "repository": "kara.moe",
    "tid": "4564e07e-6f5c-49a0-b308-4613b746573a",
    "types": [
      "series",
      "1"
    ]
  }
}