{
  "header": {
    "description": "Karaoke Mugen Tag File",
    "version": 1
  },
  "tag": {
    "i18n": {
      "eng": "Teppen' All Stars"
    },
    "name": "Teppen' All Stars",
    "repository": "kara.moe",
    "tid": "a3c3f398-ee78-4cc4-8f60-19bc21a367c0",
    "types": [
      "singers",
      "2"
    ]
  }
}