{
  "header": {
    "description": "Karaoke Mugen Tag File",
    "version": 1
  },
  "tag": {
    "i18n": {
      "eng": "Terminal Reality"
    },
    "modified_at": "2020-10-29T23:21:35.564Z",
    "name": "Terminal Reality",
    "repository": "kara.moe",
    "tid": "d5ae4535-720a-4a53-b882-9b3ef34bec39",
    "types": [
      "creators",
      "4"
    ]
  }
}