{
  "header": {
    "description": "Karaoke Mugen Tag File",
    "version": 1
  },
  "tag": {
    "i18n": {
      "eng": "Terry Lewis"
    },
    "modified_at": "2021-11-20T16:57:25.668Z",
    "name": "Terry Lewis",
    "repository": "kara.moe",
    "tid": "aad3c13f-de5d-46ca-bf98-e6c37dda2643",
    "types": [
      "songwriters",
      "8"
    ]
  }
}