{
  "header": {
    "description": "Karaoke Mugen Tag File",
    "version": 1
  },
  "tag": {
    "i18n": {
      "eng": "Teruyuki Nobuchika"
    },
    "modified_at": "2020-04-17T20:17:30.118Z",
    "name": "Teruyuki Nobuchika",
    "repository": "kara.moe",
    "tid": "b77a7c50-3584-433f-a78d-b51155b8c9de",
    "types": [
      "songwriters",
      "8"
    ]
  }
}