{
  "header": {
    "description": "Karaoke Mugen Tag File",
    "version": 1
  },
  "tag": {
    "i18n": {
      "eng": "Tes."
    },
    "name": "Tes.",
    "tid": "de28975d-28f8-4d53-997d-d8b2c557abc0",
    "types": [
      "songwriters",
      "8"
    ],
    "repository": "kara.moe",
    "modified_at": "2020-03-31T19:04:38.060Z"
  }
}