{
  "header": {
    "description": "Karaoke Mugen Tag File",
    "version": 1
  },
  "tag": {
    "i18n": {
      "eng": "Tesshô Genda"
    },
    "name": "Tesshô Genda",
    "repository": "kara.moe",
    "tid": "fae1afaa-742d-4ebd-aed0-04111f81cfdb",
    "types": [
      "singers",
      "2"
    ],
    "modified_at": "2020-03-31T19:04:38.061Z"
  }
}