{
  "header": {
    "description": "Karaoke Mugen Tag File",
    "version": 1
  },
  "tag": {
    "i18n": {
      "eng": "TETLA POT"
    },
    "name": "TETLA POT",
    "tid": "1eca2ac8-7995-4858-8194-c184803a2d7b",
    "types": [
      "creators",
      "4"
    ],
    "repository": "kara.moe",
    "modified_at": "2020-03-31T19:04:38.061Z"
  }
}