{
  "header": {
    "description": "Karaoke Mugen Tag File",
    "version": 1
  },
  "tag": {
    "i18n": {
      "eng": "Tetra Project"
    },
    "name": "Tetra Project",
    "tid": "a2a14b92-ffb2-4fb1-b0f4-ad413254df05",
    "types": [
      "songwriters",
      "8"
    ],
    "repository": "kara.moe",
    "modified_at": "2020-03-31T19:04:38.062Z"
  }
}