{
  "header": {
    "description": "Karaoke Mugen Tag File",
    "version": 1
  },
  "tag": {
    "i18n": {
      "eng": "Tetsuya Uchida"
    },
    "name": "Tetsuya Uchida",
    "tid": "77adf81b-4344-46e7-ae81-2e90f4e44ce3",
    "types": [
      "songwriters",
      "8"
    ],
    "repository": "kara.moe",
    "modified_at": "2020-03-31T19:04:38.078Z"
  }
}