{
  "header": {
    "description": "Karaoke Mugen Tag File",
    "version": 1
  },
  "tag": {
    "aliases": [
      "Birdy the Mighty: Decode 2",
      "Tetsuwan Birdy Decode 2",
      "birdy2",
      "tbd2",
      "Могучая Берди Расшифровка:02",
      "鐵腕女刑警Decode:02",
      "鐵腕女警Decode:02",
      "鐵腕巴蒂Decode:02",
      "鐵腕巴迪Decode:02",
      "铁腕巴迪_DECODE_02"
    ],
    "external_database_ids": {
      "anilist": 5074,
      "myanimelist": 5074,
      "kitsu": 3915
    },
    "i18n": {
      "eng": "Birdy the Mighty: Decode 02",
      "jpn": "鉄腕バーディー DECODE:02",
      "qro": "Tetsuwan Birdy Decode-02"
    },
    "modified_at": "2020-03-31T19:04:32.946Z",
    "name": "Tetsuwan Birdy Decode-02",
    "repository": "kara.moe",
    "tid": "977d41b6-b674-48bf-b052-f66d1c7e0d01",
    "types": [
      "series",
      "1"
    ]
  }
}