{
  "header": {
    "description": "Karaoke Mugen Tag File",
    "version": 1
  },
  "tag": {
    "aliases": [
      "Mighty Atom 1960"
    ],
    "external_database_ids": {
      "anilist": 2747,
      "myanimelist": 2747,
      "kitsu": 2507
    },
    "i18n": {
      "eng": "Astro Boy (1963)",
      "jpn": "鉄腕アトム (1963)",
      "qro": "Tetsuwan Atom (1963)"
    },
    "modified_at": "2020-09-11T16:41:04.585Z",
    "name": "Tetsuwan Atom (1963)",
    "repository": "kara.moe",
    "tid": "a0441138-8da6-41ee-9fd4-d7e12e6b3ddc",
    "types": [
      "series",
      "1"
    ]
  }
}