{
  "header": {
    "description": "Karaoke Mugen Tag File",
    "version": 1
  },
  "tag": {
    "i18n": {
      "eng": "Tetsuya\"REMOCON\"Tamura"
    },
    "name": "Tetsuya\"REMOCON\"Tamura",
    "tid": "955742ff-9a67-4649-8d63-a13dc9b19a18",
    "types": [
      "songwriters",
      "8"
    ],
    "repository": "kara.moe",
    "modified_at": "2020-03-31T19:04:38.079Z"
  }
}