{
  "header": {
    "description": "Karaoke Mugen Tag File",
    "version": 1
  },
  "tag": {
    "aliases": [
      "Tetsuwan Birdy Decode 1",
      "tbd",
      "Могучая Берди: Расшифровка",
      "鐵腕女刑警Decode",
      "鐵腕女警Decode",
      "鐵腕巴蒂Decode",
      "鐵腕巴迪Decode",
      "铁腕女刑警DECODE"
    ],
    "external_database_ids": {
      "anilist": 3974,
      "myanimelist": 3974,
      "kitsu": 3389
    },
    "i18n": {
      "eng": "Birdy the Mighty: Decode",
      "jpn": "鉄腕バーディー DECODE",
      "qro": "Tetsuwan Birdy Decode"
    },
    "modified_at": "2020-06-21T23:45:31.966Z",
    "name": "Tetsuwan Birdy Decode",
    "repository": "kara.moe",
    "tid": "2a9d868d-ebde-4eb6-b226-bf3cfef857d7",
    "types": [
      "series",
      "1",
      "franchises",
      "18"
    ]
  }
}