{
  "header": {
    "description": "Karaoke Mugen Tag File",
    "version": 1
  },
  "tag": {
    "i18n": {
      "eng": "TF1"
    },
    "name": "TF1",
    "tid": "32fa271e-2494-416d-bf32-7193ca679612",
    "types": [
      "creators",
      "4"
    ],
    "repository": "kara.moe",
    "modified_at": "2020-03-31T19:04:38.081Z"
  }
}