{
  "header": {
    "description": "Karaoke Mugen Tag File",
    "version": 1
  },
  "tag": {
    "i18n": {
      "eng": "Thaksin"
    },
    "name": "Thaksin",
    "tid": "583e5531-426e-4d73-9aab-9cac10efb432",
    "types": [
      "authors",
      "6"
    ],
    "repository": "kara.moe",
    "modified_at": "2020-03-31T19:04:38.083Z"
  }
}