{
  "header": {
    "description": "Karaoke Mugen Tag File",
    "version": 1
  },
  "tag": {
    "i18n": {
      "eng": "The Jonas Brothers"
    },
    "name": "The Jonas Brothers",
    "tid": "3a5db2ef-4291-42f9-b6b9-478d661fd301",
    "types": [
      "singers",
      "2"
    ],
    "repository": "kara.moe",
    "modified_at": "2020-03-31T19:04:38.107Z"
  }
}