{
  "header": {
    "description": "Karaoke Mugen Tag File",
    "version": 1
  },
  "tag": {
    "i18n": {
      "eng": "The Pokemon Company"
    },
    "name": "The Pokemon Company",
    "tid": "01065c01-7fef-4f21-928d-0295b9f98884",
    "types": [
      "singers",
      "2",
      "songwriters",
      "8"
    ],
    "repository": "kara.moe",
    "modified_at": "2020-03-31T19:04:38.117Z"
  }
}