{
  "header": {
    "description": "Karaoke Mugen Tag File",
    "version": 1
  },
  "tag": {
    "i18n": {
      "eng": "The Legend of Zelda"
    },
    "modified_at": "2020-12-13T12:36:39.657Z",
    "name": "The Legend of Zelda",
    "repository": "kara.moe",
    "tid": "c15bf0be-f7f8-4c82-9188-a61037b62098",
    "types": [
      "series",
      "1",
      "franchises",
      "18"
    ]
  }
}