{
  "header": {
    "description": "Karaoke Mugen Tag File",
    "version": 1
  },
  "tag": {
    "i18n": {
      "eng": "THE GOMBAND"
    },
    "name": "THE GOMBAND",
    "tid": "ff2e4901-d58a-4a12-a97a-4ab25cfa9a7f",
    "types": [
      "singers",
      "2"
    ],
    "repository": "kara.moe",
    "modified_at": "2020-03-31T19:04:38.101Z"
  }
}