{
  "header": {
    "description": "Karaoke Mugen Tag File",
    "version": 1
  },
  "tag": {
    "i18n": {
      "eng": "The Mass Missile"
    },
    "modified_at": "2020-08-15T23:19:18.912Z",
    "name": "The Mass Missile",
    "repository": "kara.moe",
    "tid": "b24ff8be-bdf7-44f4-9cca-44ed6da15745",
    "types": [
      "singers",
      "2"
    ]
  }
}