{
  "header": {
    "description": "Karaoke Mugen Tag File",
    "version": 1
  },
  "tag": {
    "i18n": {
      "eng": "The xx"
    },
    "modified_at": "2020-09-26T18:03:22.188Z",
    "name": "The xx",
    "repository": "kara.moe",
    "tid": "b5e7e834-938c-44f2-8692-6daa987d5878",
    "types": [
      "songwriters",
      "8"
    ]
  }
}