{
  "header": {
    "description": "Karaoke Mugen Tag File",
    "version": 1
  },
  "tag": {
    "i18n": {
      "eng": "The Kaleidoscope"
    },
    "name": "The Kaleidoscope",
    "tid": "6efea5bd-efc6-40b2-bb21-914a1550aa41",
    "types": [
      "singers",
      "2"
    ],
    "repository": "kara.moe",
    "modified_at": "2020-03-31T19:04:38.108Z"
  }
}