{
  "header": {
    "description": "Karaoke Mugen Tag File",
    "version": 1
  },
  "tag": {
    "i18n": {
      "eng": "The Bluesun Four"
    },
    "name": "The Bluesun Four",
    "tid": "38727aff-ec90-4c90-a928-7eb86a1470d8",
    "types": [
      "singers",
      "2"
    ],
    "repository": "kara.moe",
    "modified_at": "2020-03-31T19:04:38.092Z"
  }
}