{
  "header": {
    "description": "Karaoke Mugen Tag File",
    "version": 1
  },
  "tag": {
    "i18n": {
      "eng": "The Police"
    },
    "modified_at": "2020-07-11T23:48:59.546Z",
    "name": "The Police",
    "repository": "kara.moe",
    "tid": "4a7d7155-bd52-4e1d-9bc1-b1a43d3957e3",
    "types": [
      "singers",
      "2"
    ]
  }
}