{
  "header": {
    "description": "Karaoke Mugen Tag File",
    "version": 1
  },
  "tag": {
    "i18n": {
      "eng": "THE LOOSE DOGS"
    },
    "name": "THE LOOSE DOGS",
    "tid": "a09a8c38-0905-4637-b53d-d2471209027a",
    "types": [
      "singers",
      "2"
    ],
    "repository": "kara.moe",
    "modified_at": "2020-03-31T19:04:38.110Z"
  }
}