{
  "header": {
    "description": "Karaoke Mugen Tag File",
    "version": 1
  },
  "tag": {
    "i18n": {
      "eng": "The Nightmare Before Christmas",
      "fre": "L'étrange Noël de Monsieur Jack"
    },
    "modified_at": "2020-03-31T19:04:32.965Z",
    "name": "The Nightmare Before Christmas",
    "repository": "kara.moe",
    "tid": "758060d3-28ba-43de-9228-f3c0e32d1b21",
    "types": [
      "series",
      "1"
    ]
  }
}