{
  "header": {
    "description": "Karaoke Mugen Tag File",
    "version": 1
  },
  "tag": {
    "i18n": {
      "eng": "The Rembrandts"
    },
    "modified_at": "2020-06-21T22:11:51.939Z",
    "name": "The Rembrandts",
    "repository": "kara.moe",
    "tid": "67f696ba-6afc-42bf-aee3-96771c637261",
    "types": [
      "singers",
      "2"
    ]
  }
}