{
  "header": {
    "description": "Karaoke Mugen Tag File",
    "version": 1
  },
  "tag": {
    "aliases": [
      "THE iDOLMASTER Prologue SideM Episode of Jupiter",
      "im@s",
      "imas"
    ],
    "external_database_ids": {
      "anilist": 98310,
      "myanimelist": 34915,
      "kitsu": 13755
    },
    "i18n": {
      "eng": "THE iDOLM@STER Prologue SideM: Episode of Jupiter",
      "jpn": "THE iDOLM@STER Prologue SideM Episode of Jupiter",
      "qro": "THE iDOLM@STER Prologue SideM Episode of Jupiter"
    },
    "modified_at": "2020-05-01T18:57:56.038Z",
    "name": "THE iDOLM@STER Prologue SideM Episode of Jupiter",
    "repository": "kara.moe",
    "tid": "4718abde-9998-47e4-b402-d7e601a95c1c",
    "types": [
      "series",
      "1"
    ]
  }
}