{
  "header": {
    "description": "Karaoke Mugen Tag File",
    "version": 1
  },
  "tag": {
    "aliases": [
      "KOF 98"
    ],
    "i18n": {
      "eng": "The King of Fighters '98: The Slugfest"
    },
    "modified_at": "2020-03-31T19:04:32.960Z",
    "name": "The King of Fighters '98: The Slugfest",
    "repository": "kara.moe",
    "tid": "b322392c-a40f-41fc-8daf-aff44644272f",
    "types": [
      "series",
      "1"
    ]
  }
}