{
  "header": {
    "description": "Karaoke Mugen Tag File",
    "version": 1
  },
  "tag": {
    "aliases": [
      "Deremas 2",
      "Idolmaster Cinderella Girls 2"
    ],
    "external_database_ids": {
      "anilist": 21094,
      "myanimelist": 30344,
      "kitsu": 10760
    },
    "i18n": {
      "eng": "THE iDOLM@STER: Cinderella Girls 2",
      "jpn": "アイドルマスター シンデレラガールズ 2",
      "qro": "THE iDOLM@STER Cinderella Girls 2"
    },
    "modified_at": "2020-03-31T19:04:32.952Z",
    "name": "THE iDOLM@STER Cinderella Girls 2",
    "repository": "kara.moe",
    "tid": "684c0a10-9bb5-4bfe-a1fc-590fa8098e59",
    "types": [
      "series",
      "1"
    ]
  }
}