{
  "header": {
    "description": "Karaoke Mugen Tag File",
    "version": 1
  },
  "tag": {
    "i18n": {
      "ara": "الأسد الملك",
      "arm": "Առյուծ արքան",
      "cze": "Lví král",
      "dan": "Løvernes Konge",
      "eng": "The Lion King",
      "est": "Lõvikuningas",
      "fin": "Leijonakuningas",
      "fre": "Le Roi lion",
      "ger": "Der König der Löwen",
      "gre": "Ο Βασιλιάς των Λιονταριών",
      "heb": "מלך האריות",
      "hin": "द लायन किंग",
      "hun": "Az oroszlánkirály",
      "ice": "Konungur ljónanna",
      "ita": "Il re leone",
      "jpn": "ライオン・キング",
      "kor": "라이온 킹",
      "spa": "El rey león",
      "qro": "The Lion King"
    },
    "modified_at": "2020-03-31T19:04:32.962Z",
    "name": "The Lion King",
    "repository": "kara.moe",
    "tid": "77e7de37-a966-4152-a238-8aa53247d753",
    "types": [
      "series",
      "1"
    ]
  }
}