{
  "header": {
    "description": "Karaoke Mugen Tag File",
    "version": 1
  },
  "tag": {
    "i18n": {
      "jpn": "THE iDOLM@STER Stella Stage",
      "qro": "THE iDOLM@STER Stella Stage"
    },
    "modified_at": "2020-03-31T19:04:32.959Z",
    "name": "THE iDOLM@STER Stella Stage",
    "repository": "kara.moe",
    "tid": "92f4eeb7-8d3a-49cd-b44f-fc579dd43bf1",
    "types": [
      "series",
      "1"
    ]
  }
}