{
  "header": {
    "description": "Karaoke Mugen Tag File",
    "version": 1
  },
  "tag": {
    "i18n": {
      "eng": "THE SPIN"
    },
    "name": "THE SPIN",
    "tid": "5a237f34-c58d-4273-ae14-bbb21a297f2f",
    "types": [
      "singers",
      "2"
    ],
    "repository": "kara.moe",
    "modified_at": "2020-03-31T19:04:38.124Z"
  }
}