{
  "header": {
    "description": "Karaoke Mugen Tag File",
    "version": 1
  },
  "tag": {
    "aliases": [
      "The Tale of the Heike",
      "Le Dit des Heike"
    ],
    "external_database_ids": {
      "anilist": 138714,
      "myanimelist": 49738,
      "kitsu": 45065
    },
    "i18n": {
      "eng": "The Heike Story",
      "jpn": "平家物語 ",
      "qro": "Heike Monogatari"
    },
    "name": "The Heike Story",
    "repository": "kara.moe",
    "tid": "ceb00627-65fa-496b-bb35-e500abb9fdfa",
    "types": [
      "series",
      "1"
    ]
  }
}