{
  "header": {
    "description": "Karaoke Mugen Tag File",
    "version": 1
  },
  "tag": {
    "i18n": {
      "eng": "The Script"
    },
    "name": "The Script",
    "repository": "kara.moe",
    "tid": "653e4112-d263-4e47-8fe7-0dc5b65d8309",
    "types": [
      "singers",
      "2"
    ]
  }
}