{
  "header": {
    "description": "Karaoke Mugen Tag File",
    "version": 1
  },
  "tag": {
    "i18n": {
      "eng": "The Magic School Bus",
      "fre": "Le Bus Magique"
    },
    "modified_at": "2020-03-31T19:04:32.964Z",
    "name": "The Magic School Bus",
    "repository": "kara.moe",
    "tid": "a45efe2a-d138-4ea9-920d-75fba7b2382b",
    "types": [
      "series",
      "1"
    ]
  }
}