{
  "header": {
    "description": "Karaoke Mugen Tag File",
    "version": 1
  },
  "tag": {
    "i18n": {
      "eng": "The Biscats"
    },
    "name": "The Biscats",
    "repository": "kara.moe",
    "tid": "d6dd51d5-0a0b-42a9-beba-08897ba9d3b4",
    "types": [
      "singers",
      "2"
    ]
  }
}