{
  "header": {
    "description": "Karaoke Mugen Tag File",
    "version": 1
  },
  "tag": {
    "i18n": {
      "eng": "The NaB's"
    },
    "name": "The NaB's",
    "tid": "2e99c211-36ab-497e-b42d-975aa5255017",
    "types": [
      "singers",
      "2",
      "songwriters",
      "8"
    ],
    "repository": "kara.moe",
    "modified_at": "2020-03-31T19:04:38.111Z"
  }
}