{
  "header": {
    "description": "Karaoke Mugen Tag File",
    "version": 1
  },
  "tag": {
    "i18n": {
      "eng": "The Cure"
    },
    "name": "The Cure",
    "repository": "kara.moe",
    "tid": "ee9ef611-583c-4ffe-ae3c-f9a91cfa6509",
    "types": [
      "singers",
      "2",
      "songwriters",
      "8"
    ]
  }
}