{
  "header": {
    "description": "Karaoke Mugen Tag File",
    "version": 1
  },
  "tag": {
    "i18n": {
      "eng": "THE ROOTLESS"
    },
    "name": "THE ROOTLESS",
    "tid": "ee662eb3-d856-4df5-9540-a152b5220d31",
    "types": [
      "singers",
      "2"
    ],
    "repository": "kara.moe",
    "modified_at": "2020-03-31T19:04:38.119Z"
  }
}