{
  "header": {
    "description": "Karaoke Mugen Tag File",
    "version": 1
  },
  "tag": {
    "i18n": {
      "eng": "The Little Mermaid",
      "fre": "La Petite Sirène"
    },
    "modified_at": "2020-03-31T19:04:32.963Z",
    "name": "The Little Mermaid",
    "repository": "kara.moe",
    "tid": "3b7ef1cb-0408-448c-9e77-d76a17f2a828",
    "types": [
      "series",
      "1"
    ]
  }
}