{
  "header": {
    "description": "Karaoke Mugen Tag File",
    "version": 1
  },
  "tag": {
    "i18n": {
      "eng": "The Skywalker Symphony Orchestra and Choir"
    },
    "name": "The Skywalker Symphony Orchestra and Choir",
    "tid": "075857fb-18d0-4832-94a9-619577141ad8",
    "types": [
      "singers",
      "2"
    ],
    "repository": "kara.moe",
    "modified_at": "2020-03-31T19:04:38.123Z"
  }
}