{
  "header": {
    "description": "Karaoke Mugen Tag File",
    "version": 1
  },
  "tag": {
    "i18n": {
      "eng": "The Ron Hicklin Singers"
    },
    "name": "The Ron Hicklin Singers",
    "tid": "f10929af-eabc-4050-b4f6-57353f0278f0",
    "types": [
      "singers",
      "2"
    ],
    "repository": "kara.moe",
    "modified_at": "2020-03-31T19:04:38.119Z"
  }
}