{
  "header": {
    "description": "Karaoke Mugen Tag File",
    "version": 1
  },
  "tag": {
    "i18n": {
      "eng": "The Emblem of THE UNLIMITED"
    },
    "name": "The Emblem of THE UNLIMITED",
    "tid": "0d7cbaed-040d-45a5-aeda-7559396736b7",
    "types": [
      "singers",
      "2"
    ],
    "repository": "kara.moe",
    "modified_at": "2020-03-31T19:04:38.099Z"
  }
}