{
  "header": {
    "description": "Karaoke Mugen Tag File",
    "version": 1
  },
  "tag": {
    "i18n": {
      "eng": "The Birthday"
    },
    "name": "The Birthday",
    "repository": "kara.moe",
    "tid": "1d57a16d-92f9-441e-baa3-e3787b2ea6ec",
    "types": [
      "songwriters",
      "8",
      "singers",
      "2",
      "singergroups",
      "17"
    ]
  }
}