{
  "header": {
    "description": "Karaoke Mugen Tag File",
    "version": 1
  },
  "tag": {
    "i18n": {
      "eng": "The Oulu Hotshots"
    },
    "modified_at": "2020-09-26T00:52:28.142Z",
    "name": "The Oulu Hotshots",
    "repository": "kara.moe",
    "tid": "3a7c7b30-e00a-4dbb-8760-0a482cd81ab7",
    "types": [
      "singers",
      "2"
    ]
  }
}