{
  "header": {
    "description": "Karaoke Mugen Tag File",
    "version": 1
  },
  "tag": {
    "i18n": {
      "eng": "The Beatles"
    },
    "modified_at": "2021-10-03T17:08:56.497Z",
    "name": "The Beatles",
    "repository": "kara.moe",
    "tid": "144c32f0-3568-4df0-95cb-e1f86d563574",
    "types": [
      "singers",
      "2"
    ]
  }
}