{
  "header": {
    "description": "Karaoke Mugen Tag File",
    "version": 1
  },
  "tag": {
    "i18n": {
      "eng": "THE CHARM PARK"
    },
    "modified_at": "2020-04-14T10:47:57.207Z",
    "name": "THE CHARM PARK",
    "repository": "kara.moe",
    "tid": "690bd2ec-5e9d-4b66-88dc-d33e7a62d7a5",
    "types": [
      "singers",
      "2"
    ]
  }
}