{
  "header": {
    "description": "Karaoke Mugen Tag File",
    "version": 1
  },
  "tag": {
    "aliases": [
      "Le Film Lego"
    ],
    "i18n": {
      "eng": "The Lego Movie",
      "fre": "La Grande Aventure Lego"
    },
    "modified_at": "2020-03-31T19:04:32.962Z",
    "name": "The Lego Movie",
    "repository": "kara.moe",
    "tid": "6ecad2e0-ba49-492b-81ea-24b289806df4",
    "types": [
      "series",
      "1"
    ]
  }
}