{
  "header": {
    "description": "Karaoke Mugen Tag File",
    "version": 1
  },
  "tag": {
    "aliases": [
      "Mirishita"
    ],
    "i18n": {
      "eng": "THE iDOLM@STER Million Live!: Theater Days",
      "jpn": "アイドルマスターミリオンライブ!シアターデイズ",
      "qro": "THE iDOLM@STER Million Live!: Theater Days"
    },
    "modified_at": "2020-03-31T19:04:32.955Z",
    "name": "THE iDOLM@STER Million Live!: Theater Days",
    "repository": "kara.moe",
    "tid": "07474742-fb4f-46d6-9140-1545b637f33c",
    "types": [
      "series",
      "1"
    ]
  }
}