{
  "header": {
    "description": "Karaoke Mugen Tag File",
    "version": 1
  },
  "tag": {
    "i18n": {
      "eng": "The Axis Of Awesome"
    },
    "modified_at": "2020-05-23T01:55:04.981Z",
    "name": "The Axis Of Awesome",
    "repository": "kara.moe",
    "tid": "0d48c72d-c340-4d14-9568-05df6931542d",
    "types": [
      "songwriters",
      "8",
      "singers",
      "2",
      "creators",
      "4"
    ]
  }
}