{
  "header": {
    "description": "Karaoke Mugen Tag File",
    "version": 1
  },
  "tag": {
    "aliases": [
      "THE iDOLMASTER Platinum Stars"
    ],
    "i18n": {
      "eng": "THE iDOLM@STER: Platinum Stars",
      "jpn": "アイドルマスター プラチナスターズ",
      "qro": "THE iDOLM@STER Platinum Stars"
    },
    "modified_at": "2020-03-31T19:04:32.957Z",
    "name": "THE iDOLM@STER Platinum Stars",
    "repository": "kara.moe",
    "tid": "2e0d773f-24e1-4f1e-a786-8f07598c10b2",
    "types": [
      "series",
      "1"
    ]
  }
}