{
  "header": {
    "description": "Karaoke Mugen Tag File",
    "version": 1
  },
  "tag": {
    "i18n": {
      "eng": "The Alien Banana"
    },
    "modified_at": "2021-01-09T20:33:37.448Z",
    "name": "The Alien Banana",
    "repository": "kara.moe",
    "tid": "f0eebe0b-bff3-4f6b-91f9-98ff1e98100c",
    "types": [
      "creators",
      "4"
    ]
  }
}