{
  "header": {
    "description": "Karaoke Mugen Tag File",
    "version": 1
  },
  "tag": {
    "i18n": {
      "eng": "THE STAND UP"
    },
    "name": "THE STAND UP",
    "tid": "ecf882eb-a2d2-48bd-aae4-c8675e1785e5",
    "types": [
      "singers",
      "2"
    ],
    "repository": "kara.moe",
    "modified_at": "2020-03-31T19:04:38.124Z"
  }
}