{
  "header": {
    "description": "Karaoke Mugen Tag File",
    "version": 1
  },
  "tag": {
    "i18n": {
      "eng": "The Simpsons"
    },
    "modified_at": "2020-12-18T18:48:17.771Z",
    "name": "The Simpsons",
    "repository": "kara.moe",
    "tid": "f9f7e5b9-ce74-4632-9251-2cfdba8a0fb1",
    "types": [
      "series",
      "1"
    ]
  }
}