{
  "header": {
    "description": "Karaoke Mugen Tag File",
    "version": 1
  },
  "tag": {
    "i18n": {
      "eng": "The Herb Shop"
    },
    "modified_at": "2021-11-13T12:57:40.530Z",
    "name": "The Herb Shop",
    "repository": "kara.moe",
    "tid": "dc7bbb7f-fb75-4b3d-b85f-06250771cac4",
    "types": [
      "songwriters",
      "8"
    ]
  }
}