{
  "header": {
    "description": "Karaoke Mugen Tag File",
    "version": 1
  },
  "tag": {
    "i18n": {
      "eng": "The Ink Spots"
    },
    "name": "The Ink Spots",
    "tid": "917edb56-673b-450a-89f8-2e81881df686",
    "types": [
      "singers",
      "2"
    ],
    "repository": "kara.moe",
    "modified_at": "2020-03-31T19:04:38.105Z"
  }
}