{
  "header": {
    "description": "Karaoke Mugen Tag File",
    "version": 1
  },
  "tag": {
    "i18n": {
      "eng": "The Commonwealth Band"
    },
    "name": "The Commonwealth Band",
    "repository": "kara.moe",
    "tid": "c6f72732-10f0-4c2f-92b1-1be0b34fcf5f",
    "types": [
      "singergroups",
      "17"
    ]
  }
}