{
  "header": {
    "description": "Karaoke Mugen Tag File",
    "version": 1
  },
  "tag": {
    "i18n": {
      "eng": "The Pinewood Singers"
    },
    "name": "The Pinewood Singers",
    "tid": "22a08506-d7bd-4691-9ffa-5d76f58ca4a6",
    "types": [
      "singers",
      "2"
    ],
    "repository": "kara.moe",
    "modified_at": "2020-03-31T19:04:38.116Z"
  }
}