{
  "header": {
    "description": "Karaoke Mugen Tag File",
    "version": 1
  },
  "tag": {
    "i18n": {
      "eng": "THE PINBALLS"
    },
    "name": "THE PINBALLS",
    "tid": "097efac9-a9fc-40f4-8eb9-60e2189d6be1",
    "types": [
      "singers",
      "2",
      "songwriters",
      "8"
    ],
    "repository": "kara.moe",
    "modified_at": "2020-03-31T19:04:38.116Z"
  }
}