{
  "header": {
    "description": "Karaoke Mugen Tag File",
    "version": 1
  },
  "tag": {
    "i18n": {
      "eng": "TheMio"
    },
    "modified_at": "2020-08-27T18:35:30.266Z",
    "name": "TheMio",
    "repository": "kara.moe",
    "tid": "90698f28-1d62-4673-82c4-33ae96b1ba97",
    "types": [
      "authors",
      "6"
    ]
  }
}