{
  "header": {
    "description": "Karaoke Mugen Tag File",
    "version": 1
  },
  "tag": {
    "i18n": {
      "eng": "TheMatrixSheep"
    },
    "name": "TheMatrixSheep",
    "repository": "kara.moe",
    "tid": "a2dab26a-972c-40a9-abf1-729527504e93",
    "types": [
      "authors",
      "6"
    ]
  }
}