{
  "header": {
    "description": "Karaoke Mugen Tag File",
    "version": 1
  },
  "tag": {
    "i18n": {
      "eng": "Thierry David"
    },
    "name": "Thierry David",
    "tid": "1831f9bb-c102-4967-a66e-b1a88089f56c",
    "types": [
      "singers",
      "2"
    ],
    "repository": "kara.moe",
    "modified_at": "2020-03-31T19:04:38.128Z"
  }
}