{
  "header": {
    "description": "Karaoke Mugen Tag File",
    "version": 1
  },
  "tag": {
    "i18n": {
      "eng": "THINK Corporation"
    },
    "modified_at": "2020-05-22T23:05:20.037Z",
    "name": "THINK Corporation",
    "repository": "kara.moe",
    "tid": "a2f695e8-904e-45f3-9b00-1848d80f5833",
    "types": [
      "creators",
      "4"
    ]
  }
}