{
  "header": {
    "description": "Karaoke Mugen Tag File",
    "version": 1
  },
  "tag": {
    "i18n": {
      "eng": "thyme"
    },
    "name": "thyme",
    "tid": "ad1b2f5c-4b64-4e25-a6f1-2d07b3ecfee3",
    "types": [
      "songwriters",
      "8"
    ],
    "repository": "kara.moe",
    "modified_at": "2020-03-31T19:04:38.135Z"
  }
}