{
  "header": {
    "description": "Karaoke Mugen Tag File",
    "version": 1
  },
  "tag": {
    "i18n": {
      "eng": "THYME"
    },
    "name": "THYME",
    "tid": "7d174cc9-a28c-468f-85a7-f2de67772396",
    "types": [
      "singers",
      "2"
    ],
    "repository": "kara.moe",
    "modified_at": "2020-03-31T19:04:38.134Z"
  }
}