{
  "header": {
    "description": "Karaoke Mugen Tag File",
    "version": 1
  },
  "tag": {
    "i18n": {
      "eng": "TiA (Tomoka Takayama)"
    },
    "name": "TiA (Tomoka Takayama)",
    "tid": "50efc23d-5dba-49dd-a7c0-effd05c88a57",
    "types": [
      "singers",
      "2"
    ],
    "repository": "kara.moe",
    "modified_at": "2020-03-31T19:04:38.136Z"
  }
}