{
  "header": {
    "description": "Karaoke Mugen Tag File",
    "version": 1
  },
  "tag": {
    "i18n": {
      "eng": "Tian Yiming",
      "chi": "田一名"
    },
    "name": "Tian Yiming",
    "repository": "kara.moe",
    "tid": "b8e3ce6b-ebe7-4dc8-9645-ee5df8d4a629",
    "types": [
      "songwriters",
      "8",
      "singers",
      "2"
    ]
  }
}