{
  "header": {
    "description": "Karaoke Mugen Tag File",
    "version": 1
  },
  "tag": {
    "aliases": [
      "TLB",
      "TLBlue"
    ],
    "external_database_ids": {
      "anilist": 473,
      "myanimelist": 473,
      "kitsu": 435
    },
    "i18n": {
      "eng": "Tide-Line Blue",
      "jpn": "タイドライン・ブルー",
      "qro": "Tide-Line Blue"
    },
    "modified_at": "2020-03-31T19:04:32.975Z",
    "name": "Tide-Line Blue",
    "repository": "kara.moe",
    "tid": "6b368235-4064-4eec-b121-4347eadee4f4",
    "types": [
      "series",
      "1"
    ]
  }
}