{
  "header": {
    "description": "Karaoke Mugen Tag File",
    "version": 1
  },
  "tag": {
    "i18n": {
      "eng": "Tielle"
    },
    "modified_at": "2020-06-01T01:32:20.371Z",
    "name": "Tielle",
    "repository": "kara.moe",
    "tid": "d0a63050-0a3a-4289-9b9e-5de066696d67",
    "types": [
      "songwriters",
      "8",
      "singers",
      "2"
    ]
  }
}