{
  "header": {
    "description": "Karaoke Mugen Tag File",
    "version": 1
  },
  "tag": {
    "aliases": [
      "נמר הכסף"
    ],
    "external_database_ids": {
      "anilist": 3009,
      "myanimelist": 3009,
      "kitsu": 2720
    },
    "i18n": {
      "eng": "Tiger Mask",
      "ita": "L'uomo tigre",
      "jpn": "タイガーマスク",
      "pol": "Tygrysia Maska",
      "swe": "Tigermasken",
      "qro": "Tiger Mask"
    },
    "modified_at": "2020-03-31T19:04:32.978Z",
    "name": "Tiger Mask",
    "repository": "kara.moe",
    "tid": "6af31010-c99b-4c6f-a7f4-36112a87fc00",
    "types": [
      "series",
      "1",
      "franchises",
      "18"
    ]
  }
}