{
  "header": {
    "description": "Karaoke Mugen Tag File",
    "version": 1
  },
  "tag": {
    "external_database_ids": {
      "anilist": 21682,
      "myanimelist": 32881,
      "kitsu": 11966
    },
    "i18n": {
      "eng": "Tiger Mask W",
      "jpn": "タイガーマスクW",
      "qro": "Tiger Mask W"
    },
    "modified_at": "2020-03-31T19:04:32.978Z",
    "name": "Tiger Mask W",
    "repository": "kara.moe",
    "tid": "ff7d7b15-1c5b-4ca4-bb94-996a22b985d1",
    "types": [
      "series",
      "1"
    ]
  }
}