{
  "header": {
    "description": "Karaoke Mugen Tag File",
    "version": 1
  },
  "tag": {
    "i18n": {
      "eng": "Tim Commerford"
    },
    "name": "Tim Commerford",
    "repository": "kara.moe",
    "tid": "0fd06fa8-2ca7-414e-a985-2beb4c0680f3",
    "types": [
      "songwriters",
      "8"
    ]
  }
}