{
  "header": {
    "description": "Karaoke Mugen Tag File",
    "version": 1
  },
  "tag": {
    "i18n": {
      "eng": "Timtim"
    },
    "name": "Timtim",
    "repository": "kara.moe",
    "tid": "bfcab059-8695-493b-96ce-9f721262bcb9",
    "types": [
      "authors",
      "6"
    ]
  }
}