{
  "header": {
    "description": "Karaoke Mugen Tag File",
    "version": 1
  },
  "tag": {
    "i18n": {
      "eng": "Tina Hierstetter"
    },
    "name": "Tina Hierstetter",
    "tid": "dad03cda-7644-4beb-9beb-6609542b77f7",
    "types": [
      "singers",
      "2"
    ],
    "repository": "kara.moe",
    "modified_at": "2020-03-31T19:04:38.144Z"
  }
}