{
  "header": {
    "description": "Karaoke Mugen Tag File",
    "version": 1
  },
  "tag": {
    "i18n": {
      "eng": "TINGS"
    },
    "name": "TINGS",
    "repository": "kara.moe",
    "tid": "1212b961-7d0e-4c6c-bd4e-9cb354bd4a78",
    "types": [
      "singergroups",
      "17"
    ]
  }
}