{
  "header": {
    "description": "Karaoke Mugen Tag File",
    "version": 1
  },
  "tag": {
    "i18n": {
      "afr": "Tigrinya",
      "amh": "ነው",
      "ara": "والتغرينية",
      "aze": "Qazax",
      "bak": "Тигән",
      "bel": "Тыгрынай",
      "bul": "Tigrinya",
      "ben": "তিগরিনিয়া",
      "bos": "Tigrinijanski",
      "cat": "Tigrinya",
      "cze": "Tigrinya",
      "wel": "Tigrinya",
      "dan": "Tigrinya",
      "ger": "Tigrinya",
      "gre": "Tigrinya",
      "eng": "Tigrinya",
      "epo": "Tigraja",
      "spa": "Tigrinya",
      "est": "Tigrinya",
      "baq": "Tigrinya",
      "per": "تیگرینیایی",
      "fin": "Tigrinja",
      "fre": "Tigrinya",
      "gle": "Tigrínisname",
      "gla": "Tigrinya",
      "glg": "Galego",
      "guj": "ટાઇગ્રિનિયા",
      "heb": "טיגריניתname",
      "hin": "तिग्रीन्या",
      "hrv": "Tigrinya",
      "hat": "Tigrinya",
      "hun": "Tigrinya",
      "arm": "Тигринья",
      "ind": "Tigrinya",
      "ice": "Íslenska",
      "ita": "Tigrino",
      "jpn": "Tigrinya",
      "jav": "Tigrinya",
      "geo": "Tigrinya",
      "kaz": "Тигринья",
      "kan": "Tigrinya",
      "kor": "티그리냐",
      "kir": "Тигринья",
      "lat": "Tigrinya",
      "lit": "Tigrinya",
      "lav": "Tigrinya",
      "mlg": "Tigrinya",
      "mao": "Tigrinya",
      "mac": "Tigrinya",
      "mal": "ബ്രാഹുയി",
      "mon": "Tigrinya",
      "mar": "संस्कृत",
      "may": "Geez",
      "mlt": "Tigrinya",
      "nep": "संस्कृत",
      "dut": "Tigrinya",
      "nor": "Tigrinya",
      "pan": "Tigrinya",
      "pol": "Тигринья",
      "por": "Tigrinya",
      "rum": "Tigrinya",
      "rus": "Тигринья",
      "sin": "Tigrinya",
      "slo": "Linux na monitorovanie stavu hardvéru",
      "slv": "Limburger, liburgščino",
      "alb": "Tigrinisht",
      "srp": "Тигринья",
      "sun": "Tigrinya",
      "swe": "Tigrinja",
      "swa": "Kitigirinya",
      "tam": "டிக்ரின்யா",
      "tel": "హంగేరీ",
      "tgk": "Тигринья",
      "tha": "ภาษาทิกรินยา name",
      "tgl": "Tigrinya",
      "tur": "Tigrinya",
      "tat": "Тигринья",
      "ukr": "Тигринья",
      "urd": "Tigrinya",
      "uzb": "Tigrinya",
      "vie": "Và tiếng anh.",
      "xho": "Tigrinyaname",
      "yid": "Tigrinya",
      "chi": "提格雷语"
    },
    "name": "tir",
    "tid": "3b60dd14-7546-4fd7-80d7-6b2444cd5199",
    "types": [
      "langs",
      "5"
    ],
    "repository": "kara.moe",
    "modified_at": "2020-03-31T19:04:38.145Z"
  }
}