{
  "header": {
    "description": "Karaoke Mugen Tag File",
    "version": 1
  },
  "tag": {
    "i18n": {
      "eng": "tissue"
    },
    "name": "tissue",
    "repository": "kara.moe",
    "tid": "75fc8d66-2dd8-4bd5-b2f4-4963d30815af",
    "types": [
      "creators",
      "4"
    ],
    "modified_at": "2020-03-31T19:04:38.146Z"
  }
}