{
  "header": {
    "description": "Karaoke Mugen Tag File",
    "version": 1
  },
  "tag": {
    "i18n": {
      "eng": "TMK"
    },
    "name": "TMK",
    "repository": "kara.moe",
    "tid": "14919b74-6412-4fa5-b1fb-e8844ea55ff2",
    "types": [
      "creators",
      "4"
    ]
  }
}