{
  "header": {
    "description": "Karaoke Mugen Tag File",
    "version": 1
  },
  "tag": {
    "aliases": [
      "A Certain Magical Index 3",
      "Index3",
      "Toaru Majutsu no Index 3",
      "Toaru Majutsu no Index III",
      "Toaru Majutsu no Kinsho Mokuroku III",
      "tamni III",
      "tamni3",
      "とある魔術の禁書目録III",
      "魔法禁书目录 3"
    ],
    "external_database_ids": {
      "anilist": 100185,
      "myanimelist": 36432,
      "kitsu": 13880
    },
    "i18n": {
      "eng": "A Certain Magical Index III",
      "jpn": "とある魔術の禁書目録[インデックス]III",
      "qro": "To Aru Majutsu no Index III"
    },
    "modified_at": "2020-03-31T19:04:32.983Z",
    "name": "To Aru Majutsu no Index III",
    "repository": "kara.moe",
    "tid": "9c466853-e860-4329-b9bf-b442067884a9",
    "types": [
      "series",
      "1"
    ]
  }
}