{
  "header": {
    "description": "Karaoke Mugen Tag File",
    "version": 1
  },
  "tag": {
    "aliases": [
      "A Certain Scientific Railgun OVA",
      "Railgun OVA",
      "To Aru Kagaku no Railgun OAV",
      "Toaru Kagaku no Railgun OVA",
      "とある科学の超電磁砲[レールガン] OVA",
      "科学电磁炮 ova"
    ],
    "external_database_ids": {
      "anilist": 9047,
      "myanimelist": 9047,
      "kitsu": 5586
    },
    "i18n": {
      "eng": "A Certain Scientific Railgun OVA",
      "jpn": "とある科学の超電磁砲[レールガン] 御坂さんはいま注目の的ですから",
      "qro": "To Aru Kagaku no Railgun: Misaka-san wa Ima Chuumoku no Mato Desu kara"
    },
    "modified_at": "2020-03-31T19:04:32.982Z",
    "name": "To Aru Kagaku no Railgun: Misaka-san wa Ima Chuumoku no Mato Desu kara",
    "repository": "kara.moe",
    "tid": "bf551353-9aa1-40a2-8e64-3d598a5498d9",
    "types": [
      "series",
      "1"
    ]
  }
}