{
  "header": {
    "description": "Karaoke Mugen Tag File",
    "version": 1
  },
  "tag": {
    "aliases": [
      "Railgun 3",
      "Toaru Kagaku no Railgun T"
    ],
    "external_database_ids": {
      "anilist": 104462,
      "myanimelist": 38481,
      "kitsu": 41979
    },
    "i18n": {
      "eng": "A Certain Scientific Railgun T",
      "jpn": "とある科学の超電磁砲[レールガン]T",
      "kor": "어떤 과학의 초전자포 T",
      "chi": "科學超電磁砲T",
      "qro": "To Aru Kagaku no Railgun T"
    },
    "modified_at": "2020-08-11T19:25:33.358Z",
    "name": "To Aru Kagaku no Railgun T",
    "repository": "kara.moe",
    "tid": "f21e0b2a-c77a-434d-ae38-2b03c1f839fd",
    "types": [
      "series",
      "1"
    ]
  }
}