{
  "header": {
    "description": "Karaoke Mugen Tag File",
    "version": 1
  },
  "tag": {
    "aliases": [
      "Fumetsu no Anata e"
    ],
    "external_database_ids": {
      "anilist": 114535,
      "kitsu": 43211,
      "myanimelist": 41025
    },
    "i18n": {
      "eng": "To Your Eternity",
      "jpn": "不滅のあなたへ",
      "qro": "Fumetsu no Anata e"
    },
    "name": "To Your Eternity",
    "repository": "kara.moe",
    "tid": "66232a09-60f3-4a37-bf64-f18cb8ba3e9b",
    "types": [
      "series",
      "1"
    ]
  }
}