{
  "header": {
    "description": "Karaoke Mugen Tag File",
    "version": 1
  },
  "tag": {
    "i18n": {
      "eng": "TO-me"
    },
    "name": "TO-me",
    "repository": "kara.moe",
    "tid": "4ab4ebd7-ad85-4bbf-a501-d58b9a4c14e0",
    "types": [
      "songwriters",
      "8"
    ]
  }
}