{
  "header": {
    "description": "Karaoke Mugen Tag File",
    "version": 1
  },
  "tag": {
    "i18n": {
      "jpn": "とある社会の替歌目録",
      "qro": "Toaru Shakai no Kaeuta"
    },
    "name": "Toaru Shakai no Kaeuta",
    "repository": "kara.moe",
    "tid": "eaefa2cd-7117-49a6-b7b3-a61212396d3f",
    "types": [
      "series",
      "1"
    ]
  }
}