{
  "header": {
    "description": "Karaoke Mugen Tag File",
    "version": 1
  },
  "tag": {
    "i18n": {
      "eng": "Tobin Esperance"
    },
    "modified_at": "2020-07-16T16:40:19.482Z",
    "name": "Tobin Esperance",
    "repository": "kara.moe",
    "tid": "a68ccb81-2018-4b09-9f5e-943680db679b",
    "types": [
      "songwriters",
      "8"
    ]
  }
}