{
  "header": {
    "description": "Karaoke Mugen Tag File",
    "version": 1
  },
  "tag": {
    "i18n": {
      "eng": "Tobias Forge"
    },
    "name": "Tobias Forge",
    "repository": "kara.moe",
    "tid": "9b83ce4b-15d1-44ca-ab97-ce9b80886750",
    "types": [
      "songwriters",
      "8",
      "singers",
      "2"
    ]
  }
}