{
  "header": {
    "description": "Karaoke Mugen Tag File",
    "version": 1
  },
  "tag": {
    "i18n": {
      "eng": "Tochiotome 25",
      "jpn": "とちおとめ25",
      "qro": "Tochiotome 25"
    },
    "name": "Tochiotome 25",
    "repository": "kara.moe",
    "tid": "568428ec-3011-4ff8-ae76-307a49b09edf",
    "types": [
      "singergroups",
      "17"
    ]
  }
}