{
  "header": {
    "description": "Karaoke Mugen Tag File",
    "version": 1
  },
  "tag": {
    "i18n": {
      "eng": "Toei Company"
    },
    "name": "Toei Company",
    "tid": "e32b14df-502b-45fa-9ca5-37554a63a4d7",
    "types": [
      "creators",
      "4"
    ],
    "repository": "kara.moe",
    "modified_at": "2020-03-31T19:04:38.154Z"
  }
}