{
  "header": {
    "description": "Karaoke Mugen Tag File",
    "version": 1
  },
  "tag": {
    "i18n": {
      "eng": "Toei Subway"
    },
    "name": "Toei Subway",
    "repository": "kara.moe",
    "tid": "a210b614-ccbf-4038-b4f4-f8be2c9d69b6",
    "types": [
      "series",
      "1"
    ]
  }
}