{
  "header": {
    "description": "Karaoke Mugen Tag File",
    "version": 1
  },
  "tag": {
    "external_database_ids": {
      "anilist": 123971,
      "myanimelist": 38176
    },
    "i18n": {
      "eng": "Shun'ichi Toki",
      "qro": "Toki Shunichi",
      "jpn": "土岐 隼一"
    },
    "name": "Toki Shunichi",
    "repository": "kara.moe",
    "tid": "48dc9597-7cd1-482f-8dc0-3e7c72f4b7c3",
    "types": [
      "singers",
      "2"
    ]
  }
}