{
  "header": {
    "description": "Karaoke Mugen Tag File",
    "version": 1
  },
  "tag": {
    "aliases": [
      "ときメモGS"
    ],
    "i18n": {
      "eng": "Tokimeki Memorial Girl's Side",
      "jpn": "ときめきメモリアル Girl's Side",
      "qro": "Tokimeki Memorial Girl's Side"
    },
    "modified_at": "2020-03-31T19:04:32.992Z",
    "name": "Tokimeki Memorial Girl's Side",
    "repository": "kara.moe",
    "tid": "bbadfa4a-dd98-411f-ab44-edc59ce232b8",
    "types": [
      "series",
      "1"
    ]
  }
}