{
  "header": {
    "description": "Karaoke Mugen Tag File",
    "version": 1
  },
  "tag": {
    "i18n": {
      "eng": "TOKIO"
    },
    "name": "TOKIO",
    "tid": "6b205f36-f383-48c9-bcc8-bb3ce31ebf8f",
    "types": [
      "singers",
      "2"
    ],
    "repository": "kara.moe",
    "modified_at": "2020-03-31T19:04:38.162Z"
  }
}