{
  "header": {
    "description": "Karaoke Mugen Tag File",
    "version": 1
  },
  "tag": {
    "aliases": [
      "mochilon",
      "Kakimoto Ronri"
    ],
    "i18n": {
      "eng": "Tokinori Kakimoto"
    },
    "modified_at": "2020-07-17T18:35:05.537Z",
    "name": "Tokinori Kakimoto",
    "repository": "kara.moe",
    "tid": "aefb3b49-555f-48c6-9c79-58ab85ac3be1",
    "types": [
      "songwriters",
      "8"
    ]
  }
}