{
  "header": {
    "description": "Karaoke Mugen Tag File",
    "version": 1
  },
  "tag": {
    "aliases": [
      "Tokkyuu Shirei Solbrain",
      "tokkyuu"
    ],
    "i18n": {
      "eng": "Super Rescue Solbrain",
      "fre": "Shatterhand",
      "jpn": "特救指令ソルブレイン",
      "qro": "Tokkyû Shirei Solbrain"
    },
    "modified_at": "2020-03-31T19:04:32.996Z",
    "name": "Tokkyû Shirei Solbrain",
    "repository": "kara.moe",
    "tid": "a7b5a8c2-57b0-46ba-8094-d5245284a928",
    "types": [
      "series",
      "1"
    ]
  }
}