{
  "header": {
    "description": "Karaoke Mugen Tag File",
    "version": 1
  },
  "tag": {
    "i18n": {
      "eng": "Toko Inui"
    },
    "modified_at": "2021-11-18T12:09:05.210Z",
    "name": "Toko Inui",
    "repository": "kara.moe",
    "tid": "77892c9d-1c16-4797-8694-fd4780bf4702",
    "types": [
      "singers",
      "2"
    ]
  }
}