{
  "header": {
    "description": "Karaoke Mugen Tag File",
    "version": 1
  },
  "tag": {
    "aliases": [
      "Armored Trooper Dorvack",
      "Dolbuck",
      "Dolbuk",
      "Machine Corps Dorvack",
      "Special Armored Battalion Dorvack",
      "Special Machine Army Dorvack",
      "Special Powered Armor Troop Dorvack",
      "Tokusou Kihei Dorvack",
      "特捜機兵ドルバック",
      "특장기병 돌백",
      "tokusou"
    ],
    "external_database_ids": {
      "anilist": 5143,
      "myanimelist": 5143,
      "kitsu": 3947
    },
    "i18n": {
      "ara": "فرقة التصدي",
      "eng": "Special Armored Battalion Dorvack",
      "jpn": "特装機兵ドルバック",
      "por": "Comando Dolbuck",
      "qro": "Tokusô Kihei Dorvack"
    },
    "modified_at": "2020-06-21T23:45:31.966Z",
    "name": "Tokusô Kihei Dorvack",
    "repository": "kara.moe",
    "tid": "79fc0288-6cd5-4a79-ba3b-c8d7702c8e70",
    "types": [
      "series",
      "1"
    ]
  }
}