{
  "header": {
    "description": "Karaoke Mugen Tag File",
    "version": 1
  },
  "tag": {
    "i18n": {
      "eng": "Tokuma Japan Communications"
    },
    "name": "Tokuma Japan Communications",
    "tid": "3b2bd6b8-e54f-4bbd-a446-084f6efd7563",
    "types": [
      "creators",
      "4"
    ],
    "repository": "kara.moe",
    "modified_at": "2020-03-31T19:04:38.166Z"
  }
}