{
  "header": {
    "description": "Karaoke Mugen Tag File",
    "version": 1
  },
  "tag": {
    "i18n": {
      "eng": "Tokumei Sentai Go-Busters",
      "jpn": "特命戦隊ゴーバスターズ",
      "qro": "Tokumei Sentai Go-Busters"
    },
    "modified_at": "2020-03-31T19:04:32.996Z",
    "name": "Tokumei Sentai Go-Busters",
    "repository": "kara.moe",
    "tid": "6eba7d08-f5e1-4582-9b94-c27302deda2d",
    "types": [
      "series",
      "1"
    ]
  }
}