{
  "header": {
    "description": "Karaoke Mugen Tag File",
    "version": 1
  },
  "tag": {
    "external_database_ids": {
      "anilist": 150429,
      "kitsu": 46158,
      "myanimelist": 51995
    },
    "i18n": {
      "jpn": "特別編 響け! ユーフォニアム アンサンブルコンテスト編",
      "qro": "Tokubetsu-hen Hibike! Euphonium: Ensemble Contest"
    },
    "name": "Tokubetsu-hen Hibike! Euphonium: Ensemble Contest",
    "repository": "kara.moe",
    "tid": "1a0e6ec3-0a96-4e16-8819-6959a3e027b1",
    "types": [
      "series",
      "1"
    ]
  }
}