{
  "header": {
    "description": "Karaoke Mugen Tag File",
    "version": 1
  },
  "tag": {
    "i18n": {
      "eng": "Tokyo Meistersinger"
    },
    "name": "Tokyo Meistersinger",
    "tid": "129c9f7a-18de-4103-be96-793bb101fab3",
    "types": [
      "singers",
      "2"
    ],
    "repository": "kara.moe",
    "modified_at": "2020-03-31T19:04:38.171Z"
  }
}