{
  "header": {
    "description": "Karaoke Mugen Tag File",
    "version": 1
  },
  "tag": {
    "i18n": {
      "eng": "Tokyo Konsei Gasshôdan"
    },
    "name": "Tokyo Konsei Gasshôdan",
    "tid": "8e11fac1-f773-4b13-9433-790f4c00314d",
    "types": [
      "singers",
      "2"
    ],
    "repository": "kara.moe",
    "modified_at": "2020-03-31T19:04:38.170Z"
  }
}