{
  "header": {
    "description": "Karaoke Mugen Tag File",
    "version": 1
  },
  "tag": {
    "i18n": {
      "eng": "Tom Morello"
    },
    "name": "Tom Morello",
    "repository": "kara.moe",
    "tid": "3a709260-8b3b-4f6e-ba20-797900ffd079",
    "types": [
      "songwriters",
      "8"
    ]
  }
}