{
  "header": {
    "description": "Karaoke Mugen Tag File",
    "version": 1
  },
  "tag": {
    "i18n": {
      "eng": "Tom Keane"
    },
    "name": "Tom Keane",
    "tid": "fa94400c-8612-4d47-81c4-47915bd2b84b",
    "types": [
      "songwriters",
      "8"
    ],
    "repository": "kara.moe",
    "modified_at": "2020-03-31T19:04:38.174Z"
  }
}