{
  "header": {
    "description": "Karaoke Mugen Tag File",
    "version": 1
  },
  "tag": {
    "i18n": {
      "eng": "Tomason"
    },
    "name": "Tomason",
    "tid": "381c4f67-77a0-42f8-8dff-1146657bedec",
    "types": [
      "creators",
      "4"
    ],
    "repository": "kara.moe",
    "modified_at": "2020-03-31T19:04:38.177Z"
  }
}