{
  "header": {
    "description": "Karaoke Mugen Tag File",
    "version": 1
  },
  "tag": {
    "i18n": {
      "eng": "Tomi Yo",
      "jpn": "トオミ ヨウ"
    },
    "name": "Tomi Yo",
    "repository": "kara.moe",
    "tid": "4100634f-13e5-4346-aa8c-10921ece09e2",
    "types": [
      "songwriters",
      "8"
    ]
  }
}