{
  "header": {
    "description": "Karaoke Mugen Tag File",
    "version": 1
  },
  "tag": {
    "i18n": {
      "eng": "Tommy february6"
    },
    "name": "Tommy february6",
    "repository": "kara.moe",
    "tid": "bea215fe-12b4-4e98-8c20-4eab3660b480",
    "types": [
      "singers",
      "2"
    ]
  }
}