{
  "header": {
    "description": "Karaoke Mugen Tag File",
    "version": 1
  },
  "tag": {
    "i18n": {
      "eng": "Tommy heavenly6"
    },
    "name": "Tommy heavenly6",
    "tid": "8b9bd47a-ae78-46ba-80f8-fe93afc07452",
    "types": [
      "singers",
      "2",
      "songwriters",
      "8"
    ],
    "repository": "kara.moe",
    "modified_at": "2020-03-31T19:04:38.182Z"
  }
}