{
  "header": {
    "description": "Karaoke Mugen Tag File",
    "version": 1
  },
  "tag": {
    "i18n": {
      "eng": "Tomokazu Sugita"
    },
    "name": "Tomokazu Sugita",
    "tid": "7ed26e66-b3b8-4fb0-8874-bec0d0158f07",
    "types": [
      "singers",
      "2"
    ],
    "repository": "kara.moe",
    "modified_at": "2020-03-31T19:04:38.201Z"
  }
}