{
  "header": {
    "description": "Karaoke Mugen Tag File",
    "version": 1
  },
  "tag": {
    "i18n": {
      "eng": "Tomoko Aran"
    },
    "name": "Tomoko Aran",
    "repository": "kara.moe",
    "tid": "66b623ee-ff2b-4860-9244-8891924664f9",
    "types": [
      "singers",
      "2"
    ]
  }
}