{
  "header": {
    "description": "Karaoke Mugen Tag File",
    "version": 1
  },
  "tag": {
    "i18n": {
      "eng": "Tomohiro Hatano"
    },
    "name": "Tomohiro Hatano",
    "tid": "3ea27bea-897b-4dbd-b1a8-c386fbaa69ee",
    "types": [
      "singers",
      "2"
    ],
    "repository": "kara.moe",
    "modified_at": "2020-03-31T19:04:38.195Z"
  }
}