{
  "header": {
    "description": "Karaoke Mugen Tag File",
    "version": 1
  },
  "tag": {
    "aliases": [
      "たぶち ともや"
    ],
    "i18n": {
      "eng": "Tomoya Tabuchi",
      "jpn": "田淵智也",
      "qro": "Tomoya Tabuchi"
    },
    "name": "Tomoya Tabuchi",
    "repository": "kara.moe",
    "tid": "15c7e3a2-8522-4854-9df6-39ca595a54fd",
    "types": [
      "songwriters",
      "8"
    ]
  }
}