{
  "header": {
    "description": "Karaoke Mugen Tag File",
    "version": 1
  },
  "tag": {
    "i18n": {
      "eng": "TOMOYA"
    },
    "name": "TOMOYA",
    "tid": "009f4e3e-9225-4214-be4a-dc45ef34e54c",
    "types": [
      "songwriters",
      "8"
    ],
    "repository": "kara.moe",
    "modified_at": "2020-03-31T19:04:38.223Z"
  }
}