{
  "header": {
    "description": "Karaoke Mugen Tag File",
    "version": 1
  },
  "tag": {
    "i18n": {
      "eng": "Tomoyuki Tsuchiya"
    },
    "modified_at": "2020-04-17T20:34:10.882Z",
    "name": "Tomoyuki Tsuchiya",
    "repository": "kara.moe",
    "tid": "761a046c-2e42-4907-a6c4-ffa864a385d1",
    "types": [
      "songwriters",
      "8"
    ]
  }
}