{
  "header": {
    "description": "Karaoke Mugen Tag File",
    "version": 1
  },
  "tag": {
    "i18n": {
      "eng": "Tomotaka Oosumi"
    },
    "name": "Tomotaka Oosumi",
    "tid": "d50ca73f-6774-4381-b2b0-3212328317dc",
    "types": [
      "songwriters",
      "8"
    ],
    "repository": "kara.moe",
    "modified_at": "2020-03-31T19:04:38.219Z"
  }
}