{
  "header": {
    "description": "Karaoke Mugen Tag File",
    "version": 1
  },
  "tag": {
    "i18n": {
      "eng": "Tomo (vistlip)"
    },
    "name": "Tomo (vistlip)",
    "tid": "ee8d96f3-3e7f-47ff-8e74-40eb04d248fe",
    "types": [
      "songwriters",
      "8"
    ],
    "repository": "kara.moe",
    "modified_at": "2020-03-31T19:04:38.184Z"
  }
}