{
  "header": {
    "description": "Karaoke Mugen Tag File",
    "version": 1
  },
  "tag": {
    "i18n": {
      "eng": "tomoya (TUMENECO)"
    },
    "name": "tomoya (TUMENECO)",
    "repository": "kara.moe",
    "tid": "c2a849a6-00e9-49cf-a0b0-f47d09a953fc",
    "types": [
      "songwriters",
      "8"
    ]
  }
}