{
  "header": {
    "description": "Karaoke Mugen Tag File",
    "version": 1
  },
  "tag": {
    "i18n": {
      "eng": "Tomomi Imagawa"
    },
    "name": "Tomomi Imagawa",
    "repository": "kara.moe",
    "tid": "ecdfbc0a-1506-4427-a3f2-9e9f38476898",
    "types": [
      "songwriters",
      "8"
    ]
  }
}