{
  "header": {
    "description": "Karaoke Mugen Tag File",
    "version": 1
  },
  "tag": {
    "i18n": {
      "eng": "Tomoyuki Ootake"
    },
    "name": "Tomoyuki Ootake",
    "tid": "f66158bc-a5ce-4b2b-8d23-670b9c7ef622",
    "types": [
      "songwriters",
      "8"
    ],
    "repository": "kara.moe",
    "modified_at": "2020-03-31T19:04:38.229Z"
  }
}