{
  "header": {
    "description": "Karaoke Mugen Tag File",
    "version": 1
  },
  "tag": {
    "i18n": {
      "jpn": "川上 とも子",
      "qro": "Tomoko Kawakami"
    },
    "name": "Tomoko Kawakami",
    "repository": "kara.moe",
    "tid": "0bf8d0f3-b13c-4f21-9cf5-9b351ff597bf",
    "types": [
      "singers",
      "2"
    ]
  }
}