{
  "header": {
    "description": "Karaoke Mugen Tag File",
    "version": 1
  },
  "tag": {
    "i18n": {
      "eng": "Tomo.(cyberNATION)"
    },
    "name": "Tomo.(cyberNATION)",
    "tid": "4eb09912-f884-4257-8fef-7bcfded9bb52",
    "types": [
      "songwriters",
      "8"
    ],
    "repository": "kara.moe",
    "modified_at": "2020-03-31T19:04:38.186Z"
  }
}