{
  "header": {
    "description": "Karaoke Mugen Tag File",
    "version": 1
  },
  "tag": {
    "i18n": {
      "eng": "Tomoyoshi Suzuki"
    },
    "name": "Tomoyoshi Suzuki",
    "tid": "11291e7d-f366-408d-91ee-43aee8658526",
    "types": [
      "songwriters",
      "8"
    ],
    "repository": "kara.moe",
    "modified_at": "2020-03-31T19:04:38.226Z"
  }
}