{
  "header": {
    "description": "Karaoke Mugen Tag File",
    "version": 1
  },
  "tag": {
    "i18n": {
      "eng": "TOMO (glasswerks)"
    },
    "name": "TOMO (glasswerks)",
    "tid": "f57ed284-ce1f-43f9-94e0-c215215de18e",
    "types": [
      "songwriters",
      "8"
    ],
    "repository": "kara.moe",
    "modified_at": "2020-03-31T19:04:38.183Z"
  }
}