{
  "header": {
    "description": "Karaoke Mugen Tag File",
    "version": 1
  },
  "tag": {
    "i18n": {
      "eng": "Tomoya Ôtani"
    },
    "name": "Tomoya Ôtani",
    "tid": "37f9d8fa-eef7-41a9-8ad8-8671ab63183c",
    "types": [
      "songwriters",
      "8"
    ],
    "repository": "kara.moe",
    "modified_at": "2020-03-31T19:04:38.222Z"
  }
}