{
  "header": {
    "description": "Karaoke Mugen Tag File",
    "version": 1
  },
  "tag": {
    "i18n": {
      "eng": "Tomohisa Sakô"
    },
    "name": "Tomohisa Sakô",
    "tid": "ee0ccb08-e652-45c6-8d29-6a944c11f46f",
    "types": [
      "singers",
      "2",
      "songwriters",
      "8"
    ],
    "repository": "kara.moe",
    "modified_at": "2020-03-31T19:04:38.198Z"
  }
}