{
  "header": {
    "description": "Karaoke Mugen Tag File",
    "version": 1
  },
  "tag": {
    "i18n": {
      "eng": "Tomoaki Taka"
    },
    "name": "Tomoaki Taka",
    "tid": "987d1e75-a581-4e04-aa15-003865574c00",
    "types": [
      "songwriters",
      "8"
    ],
    "repository": "kara.moe",
    "modified_at": "2020-03-31T19:04:38.188Z"
  }
}