{
  "header": {
    "description": "Karaoke Mugen Tag File",
    "version": 1
  },
  "tag": {
    "i18n": {
      "jpn": "亜蘭 知子",
      "qro": "Tomoko Aran"
    },
    "name": "Tomoko Aran",
    "repository": "kara.moe",
    "tid": "ae3de872-fd00-40a3-b80c-1dd1d9440fd7",
    "types": [
      "songwriters",
      "8"
    ]
  }
}