{
  "header": {
    "description": "Karaoke Mugen Tag File",
    "version": 1
  },
  "tag": {
    "i18n": {
      "eng": "Tomovies"
    },
    "name": "Tomovies",
    "repository": "kara.moe",
    "tid": "aab4cefa-cd5d-4551-95c7-006736cdf373",
    "types": [
      "creators",
      "4"
    ]
  }
}