{
  "header": {
    "description": "Karaoke Mugen Tag File",
    "version": 1
  },
  "tag": {
    "i18n": {
      "eng": "Tomoka Nagasu"
    },
    "name": "Tomoka Nagasu",
    "tid": "a1b29f8f-253c-414a-a6bb-16e80f9ce73b",
    "types": [
      "songwriters",
      "8"
    ],
    "repository": "kara.moe",
    "modified_at": "2020-03-31T19:04:38.200Z"
  }
}