{
  "header": {
    "description": "Karaoke Mugen Tag File",
    "version": 1
  },
  "tag": {
    "i18n": {
      "eng": "Tomoko"
    },
    "name": "Tomoko",
    "tid": "2bc33163-babd-473f-8714-8800b0dbe954",
    "types": [
      "songwriters",
      "8"
    ],
    "repository": "kara.moe",
    "modified_at": "2020-03-31T19:04:38.213Z"
  }
}