{
  "header": {
    "description": "Karaoke Mugen Tag File",
    "version": 1
  },
  "tag": {
    "i18n": {
      "eng": "Tomori Kusunoki"
    },
    "modified_at": "2021-05-21T14:29:57.716Z",
    "name": "Tomori Kusunoki",
    "repository": "kara.moe",
    "tid": "1fd01df9-13c6-4442-a8c9-4d7922152b32",
    "types": [
      "singers",
      "2",
      "songwriters",
      "8"
    ]
  }
}