{
  "header": {
    "description": "Karaoke Mugen Tag File",
    "version": 1
  },
  "tag": {
    "i18n": {
      "eng": "Tomoya Miwa"
    },
    "name": "Tomoya Miwa",
    "tid": "2b877b67-d2c0-4384-81bd-813087e072f1",
    "types": [
      "songwriters",
      "8"
    ],
    "repository": "kara.moe",
    "modified_at": "2020-03-31T19:04:38.222Z"
  }
}