{
  "header": {
    "description": "Karaoke Mugen Tag File",
    "version": 1
  },
  "tag": {
    "i18n": {
      "eng": "Tomohiko Kira"
    },
    "name": "Tomohiko Kira",
    "tid": "4bb5740a-83ef-4107-a5a9-8e27e7c5e1be",
    "types": [
      "songwriters",
      "8",
      "singers",
      "2"
    ],
    "repository": "kara.moe",
    "modified_at": "2020-03-31T19:04:38.194Z"
  }
}