{
  "header": {
    "description": "Karaoke Mugen Tag File",
    "version": 1
  },
  "tag": {
    "i18n": {
      "qro": "Tomoko Aoki",
      "jpn": "青木 朋子"
    },
    "name": "Tomoko Aoki",
    "repository": "kara.moe",
    "tid": "8184c439-354b-42ab-b012-6b85330c3721",
    "types": [
      "songwriters",
      "8"
    ]
  }
}