{
  "header": {
    "description": "Karaoke Mugen Tag File",
    "version": 1
  },
  "tag": {
    "i18n": {
      "eng": "Tomomi Ogata"
    },
    "name": "Tomomi Ogata",
    "repository": "kara.moe",
    "tid": "3d512c13-48f2-43fd-9202-12de01495c1e",
    "types": [
      "songwriters",
      "8"
    ]
  }
}