{
  "header": {
    "description": "Karaoke Mugen Tag File",
    "version": 1
  },
  "tag": {
    "external_database_ids": {
      "anilist": 151806,
      "kitsu": 46232,
      "myanimelist": 52305
    },
    "i18n": {
      "eng": "Tomo-chan Is a Girl!",
      "qro": "Tomo-chan wa Onnanoko!",
      "jpn": "トモちゃんは女の子！",
      "fre": "Tomo-chan est une fille !"
    },
    "name": "Tomo-chan wa Onnanoko!",
    "repository": "kara.moe",
    "tid": "95589c30-0eac-4102-9fa9-4f98a605c829",
    "types": [
      "series",
      "1"
    ]
  }
}