{
  "header": {
    "description": "Karaoke Mugen Tag File",
    "version": 1
  },
  "tag": {
    "i18n": {
      "eng": "Tomohito Nishiura"
    },
    "modified_at": "1982-04-06",
    "name": "Tomohito Nishiura",
    "repository": "kara.moe",
    "tid": "ceb95bbb-179e-4b65-b580-8b8de5509cd4",
    "types": [
      "songwriters",
      "8"
    ]
  }
}