{
  "header": {
    "description": "Karaoke Mugen Tag File",
    "version": 1
  },
  "tag": {
    "i18n": {
      "eng": "Tomokazu Seki"
    },
    "name": "Tomokazu Seki",
    "tid": "3cfd9a63-5bd7-4e60-962f-dbcde37032a8",
    "types": [
      "singers",
      "2"
    ],
    "repository": "kara.moe",
    "modified_at": "2020-03-31T19:04:38.200Z"
  }
}