{
  "header": {
    "description": "Karaoke Mugen Tag File",
    "version": 1
  },
  "tag": {
    "i18n": {
      "eng": "Tomomi Isomura"
    },
    "name": "Tomomi Isomura",
    "tid": "1c740afe-d6af-47fe-8c2c-a8e009d52fff",
    "types": [
      "singers",
      "2"
    ],
    "repository": "kara.moe",
    "modified_at": "2020-03-31T19:04:38.214Z"
  }
}