{
  "header": {
    "description": "Karaoke Mugen Tag File",
    "version": 1
  },
  "tag": {
    "i18n": {
      "eng": "Tomy"
    },
    "name": "Tomy",
    "tid": "e88c1f41-415b-4856-9965-a10d107d05dc",
    "types": [
      "creators",
      "4"
    ],
    "repository": "kara.moe",
    "modified_at": "2020-03-31T19:04:38.231Z"
  }
}