{
  "header": {
    "description": "Karaoke Mugen Tag File",
    "version": 1
  },
  "tag": {
    "aliases": [
      "Dashing Warrior Muteking"
    ],
    "external_database_ids": {
      "anilist": 5833,
      "myanimelist": 5833,
      "kitsu": 4295
    },
    "i18n": {
      "ara": "المقاتل المضحك",
      "eng": "Tondemo Senshi Muteking",
      "fre": "Rolling Star le Justicier",
      "jpn": "とんでも戦士ムテキング",
      "qro": "Tondemo Senshi Muteking"
    },
    "modified_at": "2020-03-31T19:04:33.009Z",
    "name": "Tondemo Senshi Muteking",
    "repository": "kara.moe",
    "tid": "10eae170-387d-4ad7-8948-43283baccc35",
    "types": [
      "series",
      "1"
    ]
  }
}