{
  "header": {
    "description": "Karaoke Mugen Tag File",
    "version": 1
  },
  "tag": {
    "external_database_ids": {
      "anilist": 141208,
      "kitsu": 45415,
      "myanimelist": 50307
    },
    "i18n": {
      "eng": "TONIKAWA: Over The Moon For You Season 2",
      "jpn": "トニカクカワイイ（シーズン2 ）",
      "qro": "Tonikaku Kawaii Season 2"
    },
    "name": "Tonikaku Kawaii (2023)",
    "repository": "kara.moe",
    "tid": "12d3b89c-f47d-485d-953d-497f2be4caf3",
    "types": [
      "series",
      "1"
    ]
  }
}