{
  "header": {
    "description": "Karaoke Mugen Tag File",
    "version": 1
  },
  "tag": {
    "aliases": [
      "Fly Me to The Moon",
      "Generally Cute"
    ],
    "external_database_ids": {
      "anilist": 116267,
      "myanimelist": 41389,
      "kitsu": 43034
    },
    "i18n": {
      "eng": "TONIKAWA: Over the Moon For You",
      "jpn": "トニカクカワイイ",
      "qro": "Tonikaku Kawaii"
    },
    "modified_at": "2020-10-04T00:04:00.361Z",
    "name": "Tonikaku Kawaii",
    "repository": "kara.moe",
    "tid": "a008c81b-2dba-422b-a9fb-9ab0214f72f9",
    "types": [
      "series",
      "1"
    ]
  }
}