{
  "header": {
    "description": "Karaoke Mugen Tag File",
    "version": 1
  },
  "tag": {
    "i18n": {
      "eng": "Tony Marino"
    },
    "name": "Tony Marino",
    "repository": "kara.moe",
    "tid": "ab86be89-6c04-409d-8beb-6221461d34d6",
    "types": [
      "singers",
      "2"
    ]
  }
}