{
  "header": {
    "description": "Karaoke Mugen Tag File",
    "version": 1
  },
  "tag": {
    "i18n": {
      "eng": "TopSpinTheFuzzy"
    },
    "modified_at": "2021-06-29T21:11:23.788Z",
    "name": "TopSpinTheFuzzy",
    "repository": "kara.moe",
    "tid": "9a00f129-042e-45dc-a4c7-94b7009b43d8",
    "types": [
      "creators",
      "4"
    ]
  }
}