{
  "header": {
    "description": "Karaoke Mugen Tag File",
    "version": 1
  },
  "tag": {
    "i18n": {
      "eng": "Torus"
    },
    "name": "Torus",
    "repository": "kara.moe",
    "tid": "14a16201-592a-4946-9fbb-fd0d96acdc7b",
    "types": [
      "songwriters",
      "8"
    ]
  }
}