{
  "header": {
    "description": "Karaoke Mugen Tag File",
    "version": 1
  },
  "tag": {
    "i18n": {
      "eng": "Toshirô Yabuki"
    },
    "name": "Toshirô Yabuki",
    "tid": "34436ae1-470a-43b7-bfbb-146dc2fb6894",
    "types": [
      "songwriters",
      "8"
    ],
    "repository": "kara.moe",
    "modified_at": "2020-03-31T19:04:38.263Z"
  }
}