{
  "header": {
    "description": "Karaoke Mugen Tag File",
    "version": 1
  },
  "tag": {
    "i18n": {
      "eng": "Toshiharu Jizukawa"
    },
    "modified_at": "2021-02-28T19:29:00.896Z",
    "name": "Toshiharu Jizukawa",
    "repository": "kara.moe",
    "tid": "917ea702-d0d7-4701-a365-c7a154629e0d",
    "types": [
      "songwriters",
      "8"
    ]
  }
}