{
  "header": {
    "description": "Karaoke Mugen Tag File",
    "version": 1
  },
  "tag": {
    "i18n": {
      "eng": "Toshio Oka"
    },
    "name": "Toshio Oka",
    "tid": "fd8c7497-91c4-4e99-8e2a-40167d9b3c21",
    "types": [
      "songwriters",
      "8"
    ],
    "repository": "kara.moe",
    "modified_at": "2020-03-31T19:04:38.261Z"
  }
}