{
  "header": {
    "description": "Karaoke Mugen Tag File",
    "version": 1
  },
  "tag": {
    "i18n": {
      "eng": "Toshinobu Iida"
    },
    "name": "Toshinobu Iida",
    "tid": "6969e513-311d-4543-86ad-32a8c6a1bd9a",
    "types": [
      "singers",
      "2"
    ],
    "repository": "kara.moe",
    "modified_at": "2020-03-31T19:04:38.256Z"
  }
}