{
  "header": {
    "description": "Karaoke Mugen Tag File",
    "version": 1
  },
  "tag": {
    "i18n": {
      "eng": "Toshiharu Okajima"
    },
    "modified_at": "2021-04-05T15:23:50.393Z",
    "name": "Toshiharu Okajima",
    "repository": "kara.moe",
    "tid": "102e6775-d856-4c7b-ace8-543f07e453d3",
    "types": [
      "songwriters",
      "8"
    ]
  }
}