{
  "header": {
    "description": "Karaoke Mugen Tag File",
    "version": 1
  },
  "tag": {
    "i18n": {
      "eng": "Toshiko Fujita"
    },
    "name": "Toshiko Fujita",
    "tid": "606c3fbd-dbac-4845-a437-03e4ae911ce7",
    "types": [
      "singers",
      "2"
    ],
    "repository": "kara.moe",
    "modified_at": "2020-03-31T19:04:38.255Z"
  }
}