{
  "header": {
    "description": "Karaoke Mugen Tag File",
    "version": 1
  },
  "tag": {
    "i18n": {
      "eng": "Toshihiko Watanabe"
    },
    "name": "Toshihiko Watanabe",
    "tid": "ccd90a31-6dfa-4bb3-828f-c0afdcc2a465",
    "types": [
      "songwriters",
      "8"
    ],
    "repository": "kara.moe",
    "modified_at": "2020-03-31T19:04:38.250Z"
  }
}