{
  "header": {
    "description": "Karaoke Mugen Tag File",
    "version": 1
  },
  "tag": {
    "i18n": {
      "eng": "Toshinari Fukamachi"
    },
    "modified_at": "2021-08-27T16:52:02.160Z",
    "name": "Toshinari Fukamachi",
    "repository": "kara.moe",
    "tid": "ea06bdf0-e0b5-4783-9e25-9392d4132ac3",
    "types": [
      "singers",
      "2"
    ]
  }
}