{
  "header": {
    "description": "Karaoke Mugen Tag File",
    "version": 1
  },
  "tag": {
    "i18n": {
      "eng": "Toshiki Kumagai"
    },
    "name": "Toshiki Kumagai",
    "repository": "kara.moe",
    "tid": "ab895190-ab72-4988-a18b-a230ab001170",
    "types": [
      "singers",
      "2"
    ]
  }
}