{
  "header": {
    "description": "Karaoke Mugen Tag File",
    "version": 1
  },
  "tag": {
    "i18n": {
      "eng": "Toshiaki Yamada"
    },
    "name": "Toshiaki Yamada",
    "tid": "71b237eb-d87d-439e-b788-f6682d075305",
    "types": [
      "songwriters",
      "8"
    ],
    "repository": "kara.moe",
    "modified_at": "2020-03-31T19:04:38.246Z"
  }
}