{
  "header": {
    "description": "Karaoke Mugen Tag File",
    "version": 1
  },
  "tag": {
    "i18n": {
      "eng": "Toshikazu Kadono"
    },
    "name": "Toshikazu Kadono",
    "repository": "kara.moe",
    "tid": "cc2a7b44-4894-4fa4-b503-6284a3938592",
    "types": [
      "songwriters",
      "8"
    ]
  }
}