{
  "header": {
    "description": "Karaoke Mugen Tag File",
    "version": 1
  },
  "tag": {
    "i18n": {
      "eng": "TOSHIKI"
    },
    "name": "TOSHIKI",
    "repository": "kara.moe",
    "tid": "714d0927-06ac-44a7-9192-8a625a88aae5",
    "types": [
      "songwriters",
      "8"
    ]
  }
}