{
  "header": {
    "description": "Karaoke Mugen Tag File",
    "version": 1
  },
  "tag": {
    "aliases": [
      "Library Wars",
      "Toshokan Sensou",
      "libwar",
      "Библиотечная война",
      "Бібліотечна війна",
      "图书馆战争",
      "sensou"
    ],
    "external_database_ids": {
      "anilist": 3613,
      "myanimelist": 3613,
      "kitsu": 3140
    },
    "i18n": {
      "eng": "Library War",
      "jpn": "図書館戦争",
      "kor": "도서관전쟁",
      "qro": "Toshokan Sensô"
    },
    "modified_at": "2020-03-31T19:04:33.012Z",
    "name": "Toshokan Sensô",
    "repository": "kara.moe",
    "tid": "21f2f466-9c7c-4a0f-a929-2c950677da47",
    "types": [
      "series",
      "1"
    ]
  }
}