{
  "header": {
    "description": "Karaoke Mugen Tag File",
    "version": 1
  },
  "tag": {
    "external_database_ids": {
      "anilist": 3672,
      "myanimelist": 3672,
      "kitsu": 3184
    },
    "i18n": {
      "eng": "Tottemo! Luckyman",
      "jpn": "とっても！ラッキーマン",
      "qro": "Tottemo! Luckyman"
    },
    "modified_at": "2020-03-31T19:04:33.014Z",
    "name": "Tottemo! Luckyman",
    "repository": "kara.moe",
    "tid": "249e8cc8-de74-46f7-89c0-faac01b610ca",
    "types": [
      "series",
      "1"
    ]
  }
}