{
  "header": {
    "description": "Karaoke Mugen Tag File",
    "version": 1
  },
  "tag": {
    "i18n": {
      "eng": "TouHUN Projet"
    },
    "modified_at": "2021-04-27T22:38:26.831Z",
    "name": "TouHUN Projet",
    "repository": "kara.moe",
    "tid": "71efbcac-2c3b-4a80-8002-823eadacc946",
    "types": [
      "songwriters",
      "8"
    ]
  }
}