{
  "header": {
    "description": "Karaoke Mugen Tag File",
    "version": 1
  },
  "tag": {
    "i18n": {
      "jpn": "Touhou Cannonball",
      "qro": "Touhou Cannonball"
    },
    "modified_at": "2020-04-26T22:58:54.399Z",
    "name": "Touhou Cannonball",
    "repository": "kara.moe",
    "tid": "e0890c37-fb84-4a1f-a366-90243df04137",
    "types": [
      "series",
      "1"
    ]
  }
}