{
  "header": {
    "description": "Karaoke Mugen Tag File",
    "version": 1
  },
  "tag": {
    "i18n": {
      "eng": "Touhou Hakureisou",
      "jpn": "東方博霊荘"
    },
    "name": "Touhou Hakureisou",
    "repository": "kara.moe",
    "tid": "2191a3d7-fd24-40f1-99e6-4284714976aa",
    "types": [
      "series",
      "1"
    ]
  }
}