{
  "header": {
    "description": "Karaoke Mugen Tag File",
    "version": 1
  },
  "tag": {
    "aliases": [
      "The Moonlight Lady returns"
    ],
    "external_database_ids": {
      "anilist": 2105,
      "myanimelist": 2105,
      "kitsu": 1904
    },
    "i18n": {
      "eng": "Toka Gettan",
      "fre": "Tôka Gettan",
      "jpn": "桃華月憚",
      "qro": "Touka Gettan"
    },
    "modified_at": "2020-03-31T19:04:33.018Z",
    "name": "Touka Gettan",
    "repository": "kara.moe",
    "tid": "b8d7058b-95b2-46e2-a74f-ae2e1b7c773f",
    "types": [
      "series",
      "1"
    ]
  }
}