{
  "header": {
    "description": "Karaoke Mugen Tag File",
    "version": 1
  },
  "tag": {
    "i18n": {
      "eng": "Tôru Resora"
    },
    "name": "Tôru Resora",
    "tid": "8eb2d1ca-9d0b-4f82-bfec-6ee55e38d1ce",
    "types": [
      "songwriters",
      "8"
    ],
    "repository": "kara.moe",
    "modified_at": "2020-03-31T19:04:38.278Z"
  }
}