{
  "header": {
    "description": "Karaoke Mugen Tag File",
    "version": 1
  },
  "tag": {
    "i18n": {
      "eng": "Tôru Fuyuki"
    },
    "name": "Tôru Fuyuki",
    "tid": "1d1e2919-7dcb-4d2d-bd68-5f4a1bb52ae8",
    "types": [
      "songwriters",
      "8"
    ],
    "repository": "kara.moe",
    "modified_at": "2020-03-31T19:04:38.276Z"
  }
}