{
  "header": {
    "description": "Karaoke Mugen Tag File",
    "version": 1
  },
  "tag": {
    "aliases": [
      "Champion Gordian",
      "Fighter Gordian",
      "Gordian et la panthère d'acier",
      "Gordian the Warrior",
      "Toushi Gordian",
      "toushi"
    ],
    "external_database_ids": {
      "anilist": 5022,
      "myanimelist": 5022,
      "kitsu": 3887
    },
    "i18n": {
      "eng": "The Warrior Gordian",
      "fre": "Gordian",
      "ita": "Gordian",
      "jpn": "闘士ゴーディアン",
      "qro": "Tôshi Gordian"
    },
    "modified_at": "2020-03-31T19:04:33.020Z",
    "name": "Tôshi Gordian",
    "repository": "kara.moe",
    "tid": "d857d336-fb70-42ff-b94c-07974bfa7b40",
    "types": [
      "series",
      "1"
    ]
  }
}