{
  "header": {
    "description": "Karaoke Mugen Tag File",
    "version": 1
  },
  "tag": {
    "i18n": {
      "eng": "Towards the Astral"
    },
    "name": "Towards the Astral",
    "repository": "kara.moe",
    "tid": "f0d2aedb-5a19-4237-b1ba-8a7d2862f91d",
    "types": [
      "series",
      "1"
    ]
  }
}