{
  "header": {
    "description": "Karaoke Mugen Tag File",
    "version": 1
  },
  "tag": {
    "i18n": {
      "eng": "Toyohiragawa no Ayu"
    },
    "name": "Toyohiragawa no Ayu",
    "repository": "kara.moe",
    "tid": "cf450ef1-bf70-4c15-ae12-53b8f9be96e3",
    "types": [
      "creators",
      "4"
    ]
  }
}