{
  "header": {
    "description": "Karaoke Mugen Tag File",
    "version": 1
  },
  "tag": {
    "i18n": {
      "eng": "Tracks"
    },
    "name": "Tracks",
    "repository": "kara.moe",
    "tid": "b4f85fe8-01ca-4f70-8b7f-f03c2f028d27",
    "types": [
      "authors",
      "6"
    ]
  }
}