{
  "header": {
    "description": "Karaoke Mugen Tag File",
    "version": 1
  },
  "tag": {
    "i18n": {
      "eng": "Tracy"
    },
    "name": "Tracy",
    "repository": "kara.moe",
    "tid": "6933ec1c-fbc3-453a-8e8e-5112d7a8f2ce",
    "types": [
      "songwriters",
      "8"
    ]
  }
}