{
  "header": {
    "description": "Karaoke Mugen Tag File",
    "version": 1
  },
  "tag": {
    "i18n": {
      "eng": "TraCat"
    },
    "name": "TraCat",
    "repository": "kara.moe",
    "tid": "125c16eb-27ae-4e56-a8a1-53a1ca7316b0",
    "types": [
      "creators",
      "4"
    ]
  }
}