{
  "header": {
    "description": "Karaoke Mugen Tag File",
    "version": 1
  },
  "tag": {
    "aliases": [
      "TF"
    ],
    "i18n": {
      "eng": "Transformers",
      "jpn": "トランスフォーマー"
    },
    "name": "Transformers",
    "repository": "kara.moe",
    "tid": "40de2812-0cfd-41c5-a938-2feec99b0cfe",
    "types": [
      "franchises",
      "18"
    ]
  }
}