{
  "header": {
    "description": "Karaoke Mugen Tag File",
    "version": 1
  },
  "tag": {
    "i18n": {
      "eng": "Travis Willingham"
    },
    "name": "Travis Willingham",
    "repository": "kara.moe",
    "tid": "5dd66b93-3778-4fdd-874f-d02b6110178d",
    "types": [
      "singers",
      "2"
    ]
  }
}