{
  "header": {
    "description": "Karaoke Mugen Tag File",
    "version": 1
  },
  "tag": {
    "i18n": {
      "eng": "tri-Ace"
    },
    "name": "tri-Ace",
    "tid": "60195b73-1504-4121-a0fc-6f26708ae524",
    "types": [
      "creators",
      "4"
    ],
    "repository": "kara.moe",
    "modified_at": "2020-03-31T19:04:38.285Z"
  }
}