{
  "header": {
    "description": "Karaoke Mugen Tag File",
    "version": 1
  },
  "tag": {
    "i18n": {
      "eng": "TRIBAL CHAIR"
    },
    "name": "TRIBAL CHAIR",
    "tid": "d45bcfa3-e36d-4d51-a34a-6e7c3728740d",
    "types": [
      "singers",
      "2"
    ],
    "repository": "kara.moe",
    "modified_at": "2020-03-31T19:04:38.287Z"
  }
}