{
  "header": {
    "description": "Karaoke Mugen Tag File",
    "version": 1
  },
  "tag": {
    "i18n": {
      "eng": "Tricker"
    },
    "name": "Tricker",
    "repository": "kara.moe",
    "tid": "851dba2a-abe9-4948-9cbe-905fd36fed3e",
    "types": [
      "songwriters",
      "8",
      "singers",
      "2"
    ]
  }
}