{
  "header": {
    "description": "Karaoke Mugen Tag File",
    "version": 1
  },
  "tag": {
    "i18n": {
      "eng": "Triple Booking"
    },
    "name": "Triple Booking",
    "tid": "bf4ea991-10ee-4353-a861-99e32309da68",
    "types": [
      "singers",
      "2"
    ],
    "repository": "kara.moe",
    "modified_at": "2020-03-31T19:04:38.292Z"
  }
}