{
  "header": {
    "description": "Karaoke Mugen Tag File",
    "version": 1
  },
  "tag": {
    "i18n": {
      "eng": "Tristan Nihouarn"
    },
    "modified_at": "2020-07-10T22:58:45.010Z",
    "name": "Tristan Nihouarn",
    "repository": "kara.moe",
    "tid": "2dbd3ce8-e71e-4411-bbb0-508f0c1ed373",
    "types": [
      "songwriters",
      "8"
    ]
  }
}