{
  "header": {
    "description": "Karaoke Mugen Tag File",
    "version": 1
  },
  "tag": {
    "i18n": {
      "eng": "Tristan Krauss"
    },
    "name": "Tristan Krauss",
    "repository": "kara.moe",
    "tid": "eb3233a6-3104-41d0-a41e-2ffb39745280",
    "types": [
      "songwriters",
      "8"
    ]
  }
}