{
  "header": {
    "description": "Karaoke Mugen Tag File",
    "version": 1
  },
  "tag": {
    "i18n": {
      "eng": "Tropical Co."
    },
    "modified_at": "2021-03-11T15:57:46.872Z",
    "name": "Tropical Co.",
    "repository": "kara.moe",
    "tid": "48709723-3e03-48c7-8fd5-3abde481ffc3",
    "types": [
      "creators",
      "4"
    ]
  }
}