{
  "header": {
    "description": "Karaoke Mugen Tag File",
    "version": 1
  },
  "tag": {
    "i18n": {
      "eng": "TrueXC"
    },
    "name": "TrueXC",
    "repository": "kara.moe",
    "tid": "c9ee1a92-3f51-4d28-b3b1-57e1c8cd2829",
    "types": [
      "authors",
      "6"
    ]
  }
}