{
  "header": {
    "description": "Karaoke Mugen Tag File",
    "version": 1
  },
  "tag": {
    "i18n": {
      "eng": "Trumple"
    },
    "modified_at": "2021-02-07T21:19:25.921Z",
    "name": "Trumple",
    "repository": "kara.moe",
    "tid": "1e9a9fec-8358-4b0d-9ed8-964e157df5e7",
    "types": [
      "creators",
      "4"
    ]
  }
}