{
  "header": {
    "description": "Karaoke Mugen Tag File",
    "version": 1
  },
  "tag": {
    "i18n": {
      "eng": "TRUSTRICK"
    },
    "name": "TRUSTRICK",
    "tid": "3bf2d74c-6c9b-4568-ba62-a48a9c362b90",
    "types": [
      "singers",
      "2"
    ],
    "repository": "kara.moe",
    "modified_at": "2020-03-31T19:04:38.298Z"
  }
}