{
  "header": {
    "description": "Karaoke Mugen Tag File",
    "version": 1
  },
  "tag": {
    "i18n": {
      "eng": "TrySail"
    },
    "name": "TrySail",
    "tid": "42c260b0-8661-4bb8-ae30-ed0c607060ab",
    "types": [
      "singers",
      "2"
    ],
    "repository": "kara.moe",
    "modified_at": "2020-03-31T19:04:38.299Z"
  }
}