{
  "header": {
    "description": "Karaoke Mugen Tag File",
    "version": 1
  },
  "tag": {
    "i18n": {
      "eng": "TS Entertainment"
    },
    "name": "TS Entertainment",
    "tid": "db959ff5-2e15-40c2-8b63-1774db3e403c",
    "types": [
      "creators",
      "4"
    ],
    "repository": "kara.moe",
    "modified_at": "2020-03-31T19:04:38.300Z"
  }
}