{
  "header": {
    "description": "Karaoke Mugen Tag File",
    "version": 1
  },
  "tag": {
    "aliases": [
      "TRC 2"
    ],
    "external_database_ids": {
      "anilist": 969,
      "myanimelist": 969,
      "kitsu": 859
    },
    "i18n": {
      "eng": "Tsubasa RESERVoir CHRoNiCLE",
      "fre": "Tsubasa Chronicle 2",
      "jpn": "ツバサ・クロニクル 第2シリーズ",
      "qro": "Tsubasa CHRoNiCLE S2"
    },
    "modified_at": "2020-09-23T07:47:41.890Z",
    "name": "Tsubasa CHRoNiCLE S2",
    "repository": "kara.moe",
    "tid": "968e5e35-ab24-423e-b584-fa6c1d6c594d",
    "types": [
      "series",
      "1"
    ]
  }
}