{
  "header": {
    "description": "Karaoke Mugen Tag File",
    "version": 1
  },
  "tag": {
    "i18n": {
      "eng": "Tsubasa Otomiya"
    },
    "name": "Tsubasa Otomiya",
    "tid": "26e281cf-4692-4d8a-85f5-4ae10bcd6826",
    "types": [
      "singers",
      "2"
    ],
    "repository": "kara.moe",
    "modified_at": "2020-03-31T19:04:38.303Z"
  }
}