{
  "header": {
    "description": "Karaoke Mugen Tag File",
    "version": 1
  },
  "tag": {
    "i18n": {
      "eng": "Tsubasa Yonaga"
    },
    "name": "Tsubasa Yonaga",
    "tid": "84ea5b30-9fa7-44da-8255-eceb84caa6de",
    "types": [
      "singers",
      "2"
    ],
    "repository": "kara.moe",
    "modified_at": "2020-03-31T19:04:38.305Z"
  }
}