{
  "header": {
    "description": "Karaoke Mugen Tag File",
    "version": 1
  },
  "tag": {
    "i18n": {
      "eng": "Tsuburaya Productions"
    },
    "name": "Tsuburaya Productions",
    "tid": "308ee11d-80d2-4870-9ff4-e042b72070ee",
    "types": [
      "creators",
      "4"
    ],
    "repository": "kara.moe",
    "modified_at": "2020-03-31T19:04:38.306Z"
  }
}