{
  "header": {
    "description": "Karaoke Mugen Tag File",
    "version": 1
  },
  "tag": {
    "i18n": {
      "eng": "Tsubasa Records"
    },
    "name": "Tsubasa Records",
    "tid": "9351f9b9-3f7c-4b2b-939e-f1f575f6517a",
    "types": [
      "creators",
      "4"
    ],
    "repository": "kara.moe",
    "modified_at": "2020-03-31T19:04:38.304Z"
  }
}