{
  "header": {
    "description": "Karaoke Mugen Tag File",
    "version": 1
  },
  "tag": {
    "i18n": {
      "eng": "Tsubasa Yû"
    },
    "name": "Tsubasa Yû",
    "tid": "0bb5ce05-03aa-474a-a081-d961be22e867",
    "types": [
      "singers",
      "2"
    ],
    "repository": "kara.moe",
    "modified_at": "2020-03-31T19:04:38.305Z"
  }
}