{
  "header": {
    "description": "Karaoke Mugen Tag File",
    "version": 1
  },
  "tag": {
    "i18n": {
      "eng": "Tsubaki Ichimatsu",
      "jpn": "市松 椿",
      "qro": "Tsubaki Ichimatsu"
    },
    "name": "Tsubaki Ichimatsu",
    "repository": "kara.moe",
    "tid": "c12fd308-3cef-4c75-88ab-178dfa7b96b5",
    "types": [
      "songwriters",
      "8"
    ]
  }
}