{
  "header": {
    "description": "Karaoke Mugen Tag File",
    "version": 1
  },
  "tag": {
    "aliases": [
      "つぐつぐもも",
      "Tsugumomo S2"
    ],
    "external_database_ids": {
      "anilist": 108266,
      "myanimelist": 39469,
      "kitsu": 42180
    },
    "i18n": {
      "eng": "Tsugu Tsugumomo",
      "jpn": "継つぐもも",
      "chi": "继怪怪守护神",
      "qro": "Tsugu Tsugumomo"
    },
    "modified_at": "2020-08-10T17:26:04.372Z",
    "name": "Tsugu Tsugumomo",
    "repository": "kara.moe",
    "tid": "e8137ea7-896c-4e10-abdf-290ebf53a807",
    "types": [
      "series",
      "1"
    ]
  }
}