{
  "header": {
    "description": "Karaoke Mugen Tag File",
    "version": 1
  },
  "tag": {
    "i18n": {
      "eng": "Tsugutoshi Gotô"
    },
    "name": "Tsugutoshi Gotô",
    "tid": "5fb2561f-d0be-413c-bf78-8131c467f4e7",
    "types": [
      "songwriters",
      "8"
    ],
    "repository": "kara.moe",
    "modified_at": "2020-03-31T19:04:38.309Z"
  }
}