{
  "header": {
    "description": "Karaoke Mugen Tag File",
    "version": 1
  },
  "tag": {
    "aliases": [
      "Lunar Legend",
      "Moon Princess"
    ],
    "i18n": {
      "eng": "Tsukihime ‒ A piece of blue glass moon",
      "jpn": "月姫 -A piece of blue glass moon-",
      "qro": "Tsukihime -A piece of blue glass moon-"
    },
    "modified_at": "2020-12-31T22:26:54.969Z",
    "name": "Tsukihime -A piece of blue glass moon-",
    "repository": "kara.moe",
    "tid": "f07d31ad-e2db-475f-9841-e12b1abe4e41",
    "types": [
      "series",
      "1"
    ]
  }
}