{
  "header": {
    "description": "Karaoke Mugen Tag File",
    "version": 1
  },
  "tag": {
    "i18n": {
      "eng": "TSUKASA"
    },
    "name": "TSUKASA",
    "tid": "9230acc2-5dbd-40f1-a5f1-a0b771077bed",
    "types": [
      "songwriters",
      "8"
    ],
    "repository": "kara.moe",
    "modified_at": "2020-03-31T19:04:38.313Z"
  }
}