{
  "header": {
    "description": "Karaoke Mugen Tag File",
    "version": 1
  },
  "tag": {
    "i18n": {
      "eng": "Tsukasa Yatoki"
    },
    "name": "Tsukasa Yatoki",
    "tid": "376eaf29-c973-4b62-8c87-fe029bbcdfec",
    "types": [
      "songwriters",
      "8"
    ],
    "repository": "kara.moe",
    "modified_at": "2020-03-31T19:04:38.313Z"
  }
}