{
  "header": {
    "description": "Karaoke Mugen Tag File",
    "version": 1
  },
  "tag": {
    "external_database_ids": {
      "anilist": 100562,
      "myanimelist": 36654,
      "kitsu": 13991
    },
    "i18n": {
      "chi": "츠쿠모가미 빌려드립니다",
      "eng": "We Rent Tsukumogami",
      "fre": "Tsukumogami à louer",
      "jpn": "つくもがみ貸します",
      "qro": "Tsukumogami Kashimasu"
    },
    "modified_at": "2020-03-31T19:04:33.031Z",
    "name": "Tsukumogami Kashimasu",
    "repository": "kara.moe",
    "tid": "99431ef9-045a-48c3-9215-c0ab0f77da79",
    "types": [
      "series",
      "1"
    ]
  }
}