{
  "header": {
    "description": "Karaoke Mugen Tag File",
    "version": 1
  },
  "tag": {
    "i18n": {
      "eng": "Tsumugi Komazu"
    },
    "name": "Tsumugi Komazu",
    "repository": "kara.moe",
    "tid": "64dac3a9-808e-4ef1-8a46-519688c8a943",
    "types": [
      "songwriters",
      "8"
    ]
  }
}