{
  "header": {
    "description": "Karaoke Mugen Tag File",
    "version": 1
  },
  "tag": {
    "i18n": {
      "eng": "Tsuneo Imahori"
    },
    "name": "Tsuneo Imahori",
    "tid": "d1d5a122-10ab-4784-95a1-2026c8a29035",
    "types": [
      "songwriters",
      "8"
    ],
    "repository": "kara.moe",
    "modified_at": "2020-03-31T19:04:38.316Z"
  }
}