{
  "header": {
    "description": "Karaoke Mugen Tag File",
    "version": 1
  },
  "tag": {
    "i18n": {
      "jpn": "斎藤 恒芳",
      "qro": "Tsuneyoshi Saitô"
    },
    "name": "Tsuneyoshi Saitô",
    "repository": "kara.moe",
    "tid": "9f66a6f9-0f73-400e-8006-ac182f0c6d38",
    "types": [
      "songwriters",
      "8"
    ]
  }
}