{
  "header": {
    "description": "Karaoke Mugen Tag File",
    "version": 1
  },
  "tag": {
    "external_database_ids": {
      "anilist": 98291,
      "myanimelist": 34902,
      "kitsu": 13258
    },
    "i18n": {
      "eng": "Tsuredure Children",
      "jpn": "徒然チルドレン",
      "qro": "Tsurezure Children"
    },
    "name": "Tsurezure Children",
    "repository": "kara.moe",
    "tid": "2cfdcc0a-aeaf-4942-a58e-c3211be3d4bf",
    "types": [
      "series",
      "1"
    ]
  }
}