{
  "header": {
    "description": "Karaoke Mugen Tag File",
    "version": 1
  },
  "tag": {
    "i18n": {
      "eng": "TSURU"
    },
    "name": "TSURU",
    "tid": "9f463bf2-89ca-42d2-92d6-6158ec6066eb",
    "types": [
      "songwriters",
      "8"
    ],
    "repository": "kara.moe",
    "modified_at": "2020-03-31T19:04:38.318Z"
  }
}