{
  "header": {
    "description": "Karaoke Mugen Tag File",
    "version": 1
  },
  "tag": {
    "i18n": {
      "eng": "Tsutomu Uozumi"
    },
    "name": "Tsutomu Uozumi",
    "tid": "6e353cc2-ec55-4481-aae5-379f2044708c",
    "types": [
      "songwriters",
      "8"
    ],
    "repository": "kara.moe",
    "modified_at": "2020-03-31T19:04:38.321Z"
  }
}