{
  "header": {
    "description": "Karaoke Mugen Tag File",
    "version": 1
  },
  "tag": {
    "i18n": {
      "eng": "Tsutchie"
    },
    "name": "Tsutchie",
    "repository": "kara.moe",
    "tid": "ea7ee8c0-472a-49c2-925d-c306825f7d2c",
    "types": [
      "songwriters",
      "8"
    ]
  }
}