{
  "header": {
    "description": "Karaoke Mugen Tag File",
    "version": 1
  },
  "tag": {
    "i18n": {
      "eng": "Tsuyoshi Watanabe"
    },
    "name": "Tsuyoshi Watanabe",
    "repository": "kara.moe",
    "tid": "1a277bba-cc4f-4e46-aa36-50fa52cab8e8",
    "types": [
      "songwriters",
      "8"
    ],
    "modified_at": "2020-03-31T19:04:38.324Z"
  }
}