{
  "header": {
    "description": "Karaoke Mugen Tag File",
    "version": 1
  },
  "tag": {
    "i18n": {
      "eng": "Tsuyoshi Ujiki"
    },
    "name": "Tsuyoshi Ujiki",
    "tid": "fd7cd9dc-d326-4cc7-a09c-dbca8a9d8f14",
    "types": [
      "songwriters",
      "8"
    ],
    "repository": "kara.moe",
    "modified_at": "2020-03-31T19:04:38.324Z"
  }
}