{
  "header": {
    "description": "Karaoke Mugen Tag File",
    "version": 1
  },
  "tag": {
    "i18n": {
      "eng": "Tsuzumi Fujimura"
    },
    "name": "Tsuzumi Fujimura",
    "repository": "kara.moe",
    "tid": "de377c38-0cbe-46cd-a67f-1033cf2ee62e",
    "types": [
      "songwriters",
      "8"
    ]
  }
}