{
  "header": {
    "description": "Karaoke Mugen Tag File",
    "version": 1
  },
  "tag": {
    "i18n": {
      "eng": "Tube"
    },
    "modified_at": "2020-04-25T22:15:05.726Z",
    "name": "Tube",
    "repository": "kara.moe",
    "tid": "dae27114-bf04-4dbc-b1ee-4c4c08bac7b6",
    "types": [
      "singers",
      "2"
    ]
  }
}