{
  "header": {
    "description": "Karaoke Mugen Tag File",
    "version": 1
  },
  "tag": {
    "i18n": {
      "eng": "TUMENECO"
    },
    "name": "TUMENECO",
    "repository": "kara.moe",
    "tid": "98a8caf9-f441-4852-871b-4f68ff3bb1c9",
    "types": [
      "singergroups",
      "17",
      "creators",
      "4"
    ]
  }
}