{
  "header": {
    "description": "Karaoke Mugen Tag File",
    "version": 1
  },
  "tag": {
    "i18n": {
      "eng": "TUN"
    },
    "name": "TUN",
    "tid": "4e91ff69-55c6-48ce-9bb6-69c1d803c444",
    "types": [
      "songwriters",
      "8"
    ],
    "repository": "kara.moe",
    "modified_at": "2020-03-31T19:04:38.328Z"
  }
}