{
  "header": {
    "description": "Karaoke Mugen Tag File",
    "version": 1
  },
  "tag": {
    "i18n": {
      "eng": "TuneCore"
    },
    "modified_at": "2021-05-27T20:48:08.213Z",
    "name": "TuneCore",
    "repository": "kara.moe",
    "tid": "33acfe21-a255-42e8-b09b-8bddbb786b6e",
    "types": [
      "creators",
      "4"
    ]
  }
}