{
  "header": {
    "description": "Karaoke Mugen Tag File",
    "version": 1
  },
  "tag": {
    "i18n": {
      "jpn": "ツユ",
      "qro": "TUYU"
    },
    "name": "TUYU",
    "repository": "kara.moe",
    "tid": "c76b646b-7af3-4828-988d-c62bc0b6a1d1",
    "types": [
      "singergroups",
      "17"
    ]
  }
}