{
  "header": {
    "description": "Karaoke Mugen Tag File",
    "version": 1
  },
  "tag": {
    "i18n": {
      "eng": "TV Douga"
    },
    "name": "TV Douga",
    "tid": "69288964-be58-46e0-8fad-30983cf35394",
    "types": [
      "creators",
      "4"
    ],
    "repository": "kara.moe",
    "modified_at": "2020-03-31T19:04:38.330Z"
  }
}