{
  "header": {
    "description": "Karaoke Mugen Tag File",
    "version": 1
  },
  "tag": {
    "i18n": {
      "eng": "TV Series",
      "fre": "Série TV"
    },
    "name": "TV Series",
    "short": "SERIE",
    "tid": "938de218-5343-4865-94d3-fb33f2eaa152",
    "types": [
      "origins",
      "11"
    ],
    "repository": "kara.moe",
    "modified_at": "2020-03-31T19:04:38.331Z"
  }
}