{
  "header": {
    "description": "Karaoke Mugen Tag File",
    "version": 1
  },
  "tag": {
    "i18n": {
      "eng": "TV Tokyo"
    },
    "name": "TV Tokyo",
    "tid": "0c855d1f-c9df-4418-92aa-9007e5fde8e4",
    "types": [
      "creators",
      "4"
    ],
    "repository": "kara.moe",
    "modified_at": "2020-03-31T19:04:38.332Z"
  }
}