{
  "header": {
    "description": "Karaoke Mugen Tag File",
    "version": 1
  },
  "tag": {
    "i18n": {
      "eng": "TWICE"
    },
    "modified_at": "2021-10-24T20:35:04.072Z",
    "name": "TWICE",
    "repository": "kara.moe",
    "tid": "fe421082-61b7-4758-bcf2-71b03dd52a1d",
    "types": [
      "singers",
      "2"
    ]
  }
}