{
  "header": {
    "description": "Karaoke Mugen Tag File",
    "version": 1
  },
  "tag": {
    "aliases": [
      "Tsuukaa",
      "Two Car: Racing Sidecar",
      "TwoCar",
      "TwoCar: Racing Sidecar",
      "Две машины"
    ],
    "external_database_ids": {
      "anilist": 99672,
      "myanimelist": 36009,
      "kitsu": 13680
    },
    "i18n": {
      "eng": "Two Car",
      "jpn": "つうかあ Racing Sidecar",
      "kor": "츠우카아",
      "qro": "Two Car"
    },
    "modified_at": "2020-03-31T19:04:33.035Z",
    "name": "Two Car",
    "repository": "kara.moe",
    "tid": "53ee59f0-a8b5-402d-87da-be0ef9ff3944",
    "types": [
      "series",
      "1"
    ]
  }
}