{
  "header": {
    "description": "Karaoke Mugen Tag File",
    "version": 1
  },
  "tag": {
    "i18n": {
      "eng": "TWO-MIX"
    },
    "name": "TWO-MIX",
    "tid": "67147cfc-f0f3-40a0-a9c0-39e6562b5296",
    "types": [
      "singers",
      "2",
      "songwriters",
      "8"
    ],
    "repository": "kara.moe",
    "modified_at": "2020-03-31T19:04:38.335Z"
  }
}