{
  "header": {
    "description": "Karaoke Mugen Tag File",
    "version": 1
  },
  "tag": {
    "i18n": {
      "eng": "TWRP"
    },
    "modified_at": "2021-01-22T22:51:10.978Z",
    "name": "TWRP",
    "repository": "kara.moe",
    "tid": "1b56a0e3-d92d-4142-802a-f22d9f764ad4",
    "types": [
      "singers",
      "2",
      "songwriters",
      "8"
    ]
  }
}