{
  "header": {
    "description": "Karaoke Mugen Tag File",
    "version": 1
  },
  "tag": {
    "i18n": {
      "eng": "Tyler Not Taylor"
    },
    "modified_at": "2020-12-21T23:06:10.655Z",
    "name": "Tyler Not Taylor",
    "repository": "kara.moe",
    "tid": "971eb859-9137-4eb6-8ccf-bdd30654e25a",
    "types": [
      "creators",
      "4"
    ]
  }
}