{
  "header": {
    "description": "Karaoke Mugen Tag File",
    "version": 1
  },
  "tag": {
    "i18n": {
      "eng": "U-ICHI"
    },
    "name": "U-ICHI",
    "tid": "ebc76501-5a91-4fb5-9822-30a17a576af7",
    "types": [
      "songwriters",
      "8"
    ],
    "repository": "kara.moe",
    "modified_at": "2020-03-31T19:04:38.341Z"
  }
}