{
  "header": {
    "description": "Karaoke Mugen Tag File",
    "version": 1
  },
  "tag": {
    "i18n": {
      "eng": "U.M.E.D.Y."
    },
    "name": "U.M.E.D.Y.",
    "tid": "86d416bc-caa1-45d6-9a68-f91d00f633c2",
    "types": [
      "songwriters",
      "8"
    ],
    "repository": "kara.moe",
    "modified_at": "2020-03-31T19:04:38.346Z"
  }
}