{
  "header": {
    "description": "Karaoke Mugen Tag File",
    "version": 1
  },
  "tag": {
    "i18n": {
      "eng": "UBEM"
    },
    "name": "UBEM",
    "tid": "611a6272-186b-4bd7-b848-4d3c4837f732",
    "types": [
      "creators",
      "4"
    ],
    "repository": "kara.moe",
    "modified_at": "2020-03-31T19:04:38.347Z"
  }
}