{
  "header": {
    "description": "Karaoke Mugen Tag File",
    "version": 1
  },
  "tag": {
    "external_database_ids": {
      "anilist": 109964,
      "myanimelist": 39942,
      "kitsu": 42397
    },
    "i18n": {
      "eng": "Uchitama?! Have you seen my Tama?",
      "jpn": "うちタマ?!~うちのタマ知りませんか?~",
      "qro": "Uchi Tama?! Uchi no Tama Shirimasen ka?"
    },
    "name": "Uchi Tama?! Uchi no Tama Shirimasen ka?",
    "repository": "kara.moe",
    "tid": "f0afdbf3-3186-40a4-9237-38cb3998e74c",
    "types": [
      "series",
      "1"
    ]
  }
}