{
  "header": {
    "description": "Karaoke Mugen Tag File",
    "version": 1
  },
  "tag": {
    "aliases": [
      "The Eccentric Family season 2",
      "Uchôten Kazoku S2"
    ],
    "external_database_ids": {
      "anilist": 97642,
      "kitsu": 12551,
      "myanimelist": 34076
    },
    "i18n": {
      "eng": "The Eccentric Family 2",
      "fre": "La famille excentrique (saison 2)",
      "jpn": "有頂天家族2",
      "kor": "유정천 가족 2",
      "qro": "Uchouten Kazoku 2"
    },
    "name": "Uchouten Kazoku 2",
    "repository": "kara.moe",
    "tid": "a1ef24e3-41be-4338-a037-a2c1f5d95887",
    "types": [
      "series",
      "1"
    ]
  }
}