{
  "header": {
    "description": "Karaoke Mugen Tag File",
    "version": 1
  },
  "tag": {
    "i18n": {
      "eng": "Uchû Yoshida Strings"
    },
    "name": "Uchû Yoshida Strings",
    "tid": "19b88311-e0bf-4ccf-9546-45b276de71e1",
    "types": [
      "songwriters",
      "8"
    ],
    "repository": "kara.moe",
    "modified_at": "2020-03-31T19:04:38.349Z"
  }
}