{
  "header": {
    "description": "Karaoke Mugen Tag File",
    "version": 1
  },
  "tag": {
    "aliases": [
      "Uchuu Keiji Shaider",
      "uchuu"
    ],
    "i18n": {
      "eng": "Space Sheriff Shaider",
      "fre": "Capitaine Sheider",
      "jpn": "宇宙刑事シャイダー",
      "qro": "Uchû Keiji Shaider"
    },
    "modified_at": "2020-03-31T19:04:33.044Z",
    "name": "Uchû Keiji Shaider",
    "repository": "kara.moe",
    "tid": "006b3ea4-8444-48ac-933f-9d0678d09ac7",
    "types": [
      "series",
      "1"
    ]
  }
}