{
  "header": {
    "description": "Karaoke Mugen Tag File",
    "version": 1
  },
  "tag": {
    "aliases": [
      "Space Bros.",
      "Uchuu Kyoudai",
      "Космически братя",
      "Сансрын ах дүүс",
      "إخوة الفضاء",
      "uchuu"
    ],
    "external_database_ids": {
      "anilist": 12431,
      "myanimelist": 12431,
      "kitsu": 6729
    },
    "i18n": {
      "eng": "Space Brothers",
      "jpn": "宇宙兄弟",
      "kor": "우주형제",
      "qro": "Uchû Kyoudai"
    },
    "modified_at": "2020-03-31T19:04:33.044Z",
    "name": "Uchû Kyoudai",
    "repository": "kara.moe",
    "tid": "6ccaf3aa-306d-4afc-8258-ab1fae5ccc03",
    "types": [
      "series",
      "1"
    ]
  }
}