{
  "header": {
    "description": "Karaoke Mugen Tag File",
    "version": 1
  },
  "tag": {
    "i18n": {
      "eng": "Ui Mawigo"
    },
    "modified_at": "2021-07-12T20:08:35.797Z",
    "name": "Ui Mawigo",
    "repository": "kara.moe",
    "tid": "ea0d0a95-a3b7-4ebc-a218-724e6b0f3ac2",
    "types": [
      "songwriters",
      "8"
    ]
  }
}