{
  "header": {
    "description": "Karaoke Mugen Tag File",
    "version": 1
  },
  "tag": {
    "i18n": {
      "eng": "Ui Shigure"
    },
    "name": "Ui Shigure",
    "repository": "kara.moe",
    "tid": "7cb29e96-60f4-4e6b-8896-8ee29166db83",
    "types": [
      "singers",
      "2"
    ]
  }
}