{
  "header": {
    "description": "Karaoke Mugen Tag File",
    "version": 1
  },
  "tag": {
    "i18n": {
      "eng": "Ujico*/Snail's House"
    },
    "name": "Ujico*/Snail's House",
    "repository": "kara.moe",
    "tid": "d1046efa-385b-4fa8-98e2-1a4961eb193f",
    "types": [
      "songwriters",
      "8"
    ]
  }
}