{
  "header": {
    "description": "Karaoke Mugen Tag File",
    "version": 1
  },
  "tag": {
    "i18n": {
      "afr": "Oekraïens",
      "amh": "ዩክሬንኛ",
      "ara": "الأوكرانية",
      "aze": "Ukrayna",
      "bak": "Украин теле",
      "bel": "Украінскі",
      "bul": "Украински",
      "ben": "বাংলা",
      "bos": "Ukrajinski",
      "cat": "Ucraïna",
      "cze": "Ukrajinské",
      "wel": "Wcreineg",
      "dan": "Ukrainske",
      "ger": "Ukrainisch",
      "gre": "Ουκρανικά",
      "eng": "Ukrainian",
      "epo": "Ukraina",
      "spa": "Ucrania",
      "est": "Ukraina",
      "baq": "Ukrainian",
      "per": "اوکراین",
      "fin": "Ukrainan",
      "fre": "Ukrainien",
      "gle": "Úcráinis",
      "gla": "Ucràinis",
      "glg": "Ucraíno",
      "guj": "ગુજરાતી",
      "heb": "האוקראיני",
      "hin": "यूक्रेनी",
      "hrv": "Ukrajinski",
      "hat": "Ukrainian",
      "hun": "Ukrán",
      "arm": "Ուկրաինական",
      "ind": "Ukraina",
      "ice": "Úkraínu",
      "ita": "Ucraino",
      "jpn": "ウクライナ",
      "jav": "Ukrainia",
      "geo": "უკრაინული",
      "kaz": "Украин",
      "kan": "ಕನ್ನಡ",
      "kor": "우크라이나",
      "kir": "Украинский",
      "lat": "Ukrainian",
      "lit": "Ukrainos",
      "lav": "Ukrainas",
      "mlg": "Okrainiana",
      "mao": "Ukrainian",
      "mac": "Украински",
      "mal": "ഉക്രേനിയൻ",
      "mon": "Украйны",
      "mar": "Ukrainian",
      "may": "Ukraine",
      "mlt": "L-ukraina",
      "nep": "युक्रेनी",
      "dut": "Oekraïense",
      "nor": "Ukrainske",
      "pan": "ਯੂਕਰੇਨੀ",
      "pol": "Ukraiński",
      "por": "Ucraniano",
      "rum": "Ucraina",
      "rus": "Украинский",
      "sin": "යුක්රේන",
      "slo": "Ukrajinská",
      "slv": "Ukrajinski",
      "alb": "Ukrainës",
      "srp": "Украјински",
      "sun": "Ukraina",
      "swe": "Ukrainska",
      "swa": "Ukrainian",
      "tam": "தமிழ்",
      "tel": "తెలుగు",
      "tgk": "Ukrainian",
      "tha": "ชาวยูเครน",
      "tgl": "Ukrainian",
      "tur": "Ukrayna",
      "tat": "Украин теле",
      "ukr": "Український",
      "urd": "یوکرائن",
      "uzb": "Ukraina",
      "vie": "Ucraina",
      "xho": "I-ukrainian",
      "yid": "אוקרייניש",
      "chi": "乌克兰"
    },
    "name": "ukr",
    "tid": "4b869ea9-efac-4e1b-89fb-89739adf3dbf",
    "types": [
      "langs",
      "5"
    ],
    "repository": "kara.moe",
    "modified_at": "2020-03-31T19:04:38.355Z"
  }
}