{
  "header": {
    "description": "Karaoke Mugen Tag File",
    "version": 1
  },
  "tag": {
    "i18n": {
      "eng": "Ukyo Inaba"
    },
    "name": "Ukyo Inaba",
    "repository": "kara.moe",
    "tid": "cac45337-e272-4567-85fc-d9cd12fb0806",
    "types": [
      "creators",
      "4"
    ]
  }
}