{
  "header": {
    "description": "Karaoke Mugen Tag File",
    "version": 1
  },
  "tag": {
    "i18n": {
      "eng": "Ultra Violet"
    },
    "name": "Ultra Violet",
    "tid": "53717458-2ad6-4064-8337-9bcafe000aa7",
    "types": [
      "songwriters",
      "8"
    ],
    "repository": "kara.moe",
    "modified_at": "2020-03-31T19:04:38.358Z"
  }
}