{
  "header": {
    "description": "Karaoke Mugen Tag File",
    "version": 1
  },
  "tag": {
    "i18n": {
      "eng": "Ultraman Orb",
      "jpn": "ウルトラマンオーブ",
      "qro": "Ultraman Orb"
    },
    "modified_at": "2020-03-31T19:04:33.066Z",
    "name": "Ultraman Orb",
    "repository": "kara.moe",
    "tid": "bded983d-56d5-49ce-a35c-90f84dbe7d15",
    "types": [
      "series",
      "1"
    ]
  }
}