{
  "header": {
    "description": "Karaoke Mugen Tag File",
    "version": 1
  },
  "tag": {
    "i18n": {
      "eng": "Ultra"
    },
    "name": "Ultra",
    "tid": "244ec47a-1d4d-472d-9588-67e859bf27df",
    "types": [
      "authors",
      "6"
    ],
    "repository": "kara.moe",
    "modified_at": "2020-03-31T19:04:38.361Z"
  }
}