{
  "header": {
    "description": "Karaoke Mugen Tag File",
    "version": 1
  },
  "tag": {
    "i18n": {
      "eng": "ultrastarsongs"
    },
    "modified_at": "2020-07-12T13:06:49.905Z",
    "name": "ultrastarsongs",
    "repository": "kara.moe",
    "tid": "0ab832eb-2377-4926-a1c9-c8d119c38c92",
    "types": [
      "authors",
      "6"
    ]
  }
}