{
  "header": {
    "description": "Karaoke Mugen Tag File",
    "version": 1
  },
  "tag": {
    "i18n": {
      "eng": "Ultraman",
      "jpn": "ウルトラマン"
    },
    "name": "Ultraman",
    "repository": "kara.moe",
    "tid": "e0d0d8b0-bf67-40a0-b0c1-082cd4ccc58b",
    "types": [
      "franchises",
      "18"
    ]
  }
}