{
  "header": {
    "description": "Karaoke Mugen Tag File",
    "version": 1
  },
  "tag": {
    "i18n": {
      "eng": "Ultraman Retsuden",
      "jpn": "ウルトラマン列伝",
      "qro": "Ultraman Retsuden"
    },
    "modified_at": "2020-03-31T19:04:33.066Z",
    "name": "Ultraman Retsuden",
    "repository": "kara.moe",
    "tid": "63d6224a-bdcb-4e62-b569-7d5a4c2ba475",
    "types": [
      "series",
      "1"
    ]
  }
}