{
  "header": {
    "description": "Karaoke Mugen Tag File",
    "version": 1
  },
  "tag": {
    "i18n": {
      "eng": "UltraSeven X"
    },
    "modified_at": "2020-03-31T19:04:33.068Z",
    "name": "UltraSeven X",
    "repository": "kara.moe",
    "tid": "d81a8f39-beb0-4ec4-ab2e-03f2c9520e06",
    "types": [
      "series",
      "1"
    ]
  }
}