{
  "header": {
    "description": "Karaoke Mugen Tag File",
    "version": 1
  },
  "tag": {
    "aliases": [
      "Ультрафіолет: Код 044",
      "ウルトラヴァイオレット:Code044",
      "致命紫罗兰 编号044"
    ],
    "external_database_ids": {
      "anilist": 4264,
      "myanimelist": 4264,
      "kitsu": 3542
    },
    "i18n": {
      "eng": "Ultraviolet: Code 044",
      "jpn": "ルトラヴァイオレット:コード044",
      "qro": "Ultraviolet Code 044"
    },
    "modified_at": "2020-06-21T23:45:31.966Z",
    "name": "Ultraviolet Code 044",
    "repository": "kara.moe",
    "tid": "2c85e3ca-80d4-4d72-b22d-7da7c167653d",
    "types": [
      "series",
      "1"
    ]
  }
}