{
  "header": {
    "description": "Karaoke Mugen Tag File",
    "version": 1
  },
  "tag": {
    "external_database_ids": {
      "anilist": 100663,
      "myanimelist": 36871,
      "kitsu": 14125
    },
    "i18n": {
      "eng": "Ultraman (2019)"
    },
    "name": "Ultraman (2019)",
    "repository": "kara.moe",
    "tid": "38914443-b9e7-4934-aea5-358d58ebd332",
    "types": [
      "series",
      "1"
    ]
  }
}