{
  "header": {
    "description": "Karaoke Mugen Tag File",
    "version": 1
  },
  "tag": {
    "aliases": [
      "ウルトラマンオーブ ジ・オリジン・サーガ"
    ],
    "i18n": {
      "eng": "Ultraman Orb: The Origin Saga",
      "jpn": "ウルトラマンオーブ THE ORIGIN SAGA",
      "qro": "Ultraman Orb: THE ORIGIN SAGA"
    },
    "modified_at": "2020-03-31T19:04:33.065Z",
    "name": "Ultraman Orb: THE ORIGIN SAGA",
    "repository": "kara.moe",
    "tid": "5a2580f5-de6f-4473-81ac-89a9a96d0ef2",
    "types": [
      "series",
      "1"
    ]
  }
}