{
  "header": {
    "description": "Karaoke Mugen Tag File",
    "version": 1
  },
  "tag": {
    "aliases": [
      "Umamusume"
    ],
    "external_database_ids": {
      "anilist": 145608,
      "myanimelist": 51225
    },
    "i18n": {
      "eng": "Uma Musume Pretty Derby 1st Anniversary Special Animation",
      "jpn": "ウマ娘 プリティーダービー 1st Anniversary Special Animation"
    },
    "name": "Uma Musume Pretty Derby 1st Anniversary Special Animation",
    "repository": "kara.moe",
    "tid": "ef95dabe-d788-4a88-9c2b-21d651cc4249",
    "types": [
      "series",
      "1"
    ]
  }
}