{
  "header": {
    "description": "Karaoke Mugen Tag File",
    "version": 1
  },
  "tag": {
    "i18n": {
      "eng": "Umeka Shouji"
    },
    "name": "Umeka Shouji",
    "repository": "kara.moe",
    "tid": "1033b2ee-0e7c-4683-bdac-a2ff6d70e3d2",
    "types": [
      "singers",
      "2"
    ]
  }
}