{
  "header": {
    "description": "Karaoke Mugen Tag File",
    "version": 1
  },
  "tag": {
    "i18n": {
      "eng": "UMG"
    },
    "name": "UMG",
    "tid": "16d42f94-706b-4d4a-8d06-662b35f556ce",
    "types": [
      "creators",
      "4"
    ],
    "repository": "kara.moe",
    "modified_at": "2020-03-31T19:04:38.362Z"
  }
}