{
  "header": {
    "description": "Karaoke Mugen Tag File",
    "version": 1
  },
  "tag": {
    "aliases": [
      "WTC",
      "When They Cry 3",
      "unnkn",
      "When The Seagulls Cry"
    ],
    "i18n": {
      "eng": "Umineko Motion Graphic",
      "jpn": "Umineko Motion Graphic",
      "qro": "Umineko Motion Graphic"
    },
    "modified_at": "2020-09-01T22:41:57.504Z",
    "name": "Umineko Motion Graphic",
    "repository": "kara.moe",
    "tid": "a7700483-69ae-4475-9568-232c6dacee01",
    "types": [
      "series",
      "1"
    ]
  }
}