{
  "header": {
    "description": "Karaoke Mugen Tag File",
    "version": 1
  },
  "tag": {
    "aliases": [
      "Nekobako to Musou no Koukyoukyoku",
      "WTC",
      "When the Seagulls Cry",
      "musou",
      "koukyoukyoku~"
    ],
    "i18n": {
      "eng": "Umineko: When They Cry ‒ Symphony of Catbox and Dreams",
      "jpn": "うみねこのなく頃に咲 ～猫箱と夢想の交響曲～",
      "qro": "Umineko no Naku Koro ni Saku ~Nekobako to Musô no Kôkyôkyoku~"
    },
    "modified_at": "2020-10-10T20:37:47.958Z",
    "name": "Umineko no Naku Koro ni Saku ~Nekobako to Musô no Kôkyôkyoku~",
    "repository": "kara.moe",
    "tid": "9ba6593a-80e6-44c2-977d-c242835f10da",
    "types": [
      "series",
      "1"
    ]
  }
}