{
  "header": {
    "description": "Karaoke Mugen Tag File",
    "version": 1
  },
  "tag": {
    "aliases": [
      "WTC",
      "When The Seagulls Cry Scattering",
      "When They Cry",
      "unnkn",
      "gensou"
    ],
    "i18n": {
      "eng": "Umineko: When They Cry ‒ Chiru ~Nocturne of Truth and Illusions~",
      "jpn": "うみねこのなく頃に散 ～真実と幻想の夜想曲(ノクターン)～",
      "qro": "Umineko no Naku Koro ni Chiru ~Shinjitsu to Gensô no Nocturne~"
    },
    "modified_at": "2020-09-01T22:40:40.523Z",
    "name": "Umineko no Naku Koro ni Chiru ~Shinjitsu to Gensô no Nocturne~",
    "repository": "kara.moe",
    "tid": "3fc69c31-784a-4ddd-8f34-3cbd095a06d7",
    "types": [
      "series",
      "1"
    ]
  }
}