{
  "header": {
    "description": "Karaoke Mugen Tag File",
    "version": 1
  },
  "tag": {
    "i18n": {
      "eng": "Undertale"
    },
    "modified_at": "2020-03-31T19:04:33.074Z",
    "name": "Undertale",
    "repository": "kara.moe",
    "tid": "65fede7e-7902-4a35-937d-242b9550f1d8",
    "types": [
      "series",
      "1"
    ]
  }
}