{
  "header": {
    "description": "Karaoke Mugen Tag File",
    "version": 1
  },
  "tag": {
    "i18n": {
      "eng": "Universal Republic"
    },
    "modified_at": "2020-08-17T12:05:13.247Z",
    "name": "Universal Republic",
    "repository": "kara.moe",
    "tid": "bdf56beb-3ac3-4480-bdd9-e5bff240a3b1",
    "types": [
      "creators",
      "4"
    ]
  }
}