{
  "header": {
    "description": "Karaoke Mugen Tag File",
    "version": 1
  },
  "tag": {
    "i18n": {
      "eng": "UnluckyArtist"
    },
    "name": "UnluckyArtist",
    "tid": "f188f6b0-1708-4a38-b2a2-ffa734db6c8f",
    "types": [
      "creators",
      "4"
    ],
    "repository": "kara.moe",
    "modified_at": "2020-03-31T19:04:38.373Z"
  }
}