{
  "header": {
    "description": "Karaoke Mugen Tag File",
    "version": 1
  },
  "tag": {
    "i18n": {
      "eng": "UPLIFT"
    },
    "name": "UPLIFT",
    "tid": "5976f5dd-c9cd-4347-b966-805f4b09cc06",
    "types": [
      "songwriters",
      "8"
    ],
    "repository": "kara.moe",
    "modified_at": "2020-03-31T19:04:38.376Z"
  }
}