{
  "header": {
    "description": "Karaoke Mugen Tag File",
    "version": 1
  },
  "tag": {
    "external_database_ids": {
      "anilist": 12317,
      "myanimelist": 12317,
      "kitsu": 6704
    },
    "i18n": {
      "eng": "Upotte!!",
      "jpn": "うぽって!!",
      "qro": "Upotte!!"
    },
    "modified_at": "2020-03-31T19:04:33.074Z",
    "name": "Upotte!!",
    "repository": "kara.moe",
    "tid": "d7f63ab3-6de4-4d08-ae8f-dc65ef7320a1",
    "types": [
      "series",
      "1"
    ]
  }
}