{
  "header": {
    "description": "Karaoke Mugen Tag File",
    "version": 1
  },
  "tag": {
    "i18n": {
      "eng": "Uqui"
    },
    "modified_at": "2020-10-29T01:22:20.946Z",
    "name": "Uqui",
    "repository": "kara.moe",
    "tid": "0a55ec8b-c491-4346-ad36-9508725432cf",
    "types": [
      "songwriters",
      "8"
    ]
  }
}