{
  "header": {
    "description": "Karaoke Mugen Tag File",
    "version": 1
  },
  "tag": {
    "i18n": {
      "eng": "Urashimasakatasen"
    },
    "modified_at": "2020-11-27T01:09:36.045Z",
    "name": "Urashimasakatasen",
    "repository": "kara.moe",
    "tid": "533c966f-3930-44bb-b167-d49e3cb7b61d",
    "types": [
      "singers",
      "2"
    ]
  }
}