{
  "header": {
    "description": "Karaoke Mugen Tag File",
    "version": 1
  },
  "tag": {
    "i18n": {
      "afr": "Urdu",
      "amh": "ኡርዱኛ",
      "ara": "الأردية",
      "aze": "Urdu",
      "bak": "Урду теле",
      "bel": "Урду",
      "bul": "Урду",
      "ben": "উর্দু",
      "bos": "Saznaj",
      "cat": "Urdú",
      "cze": "Urdu",
      "wel": "Urdu",
      "dan": "Urdu",
      "ger": "Urdu",
      "gre": "Ουρντού",
      "eng": "Urdu",
      "epo": "La urdua",
      "spa": "Urdu",
      "est": "Urdu",
      "baq": "Urdu",
      "per": "اردو",
      "fin": "Urdu",
      "fre": "Ourdou",
      "gle": "Urdais",
      "gla": "Ùrdu",
      "glg": "Urdú",
      "guj": "ઉર્દુ",
      "heb": "אורדו",
      "hin": "उर्दू",
      "hrv": "Urdski",
      "hat": "Oudou",
      "hun": "Urdu",
      "arm": "Ուրդու",
      "ind": "Urdu",
      "ice": "Urdu",
      "ita": "Urdu",
      "jpn": "ウルドゥ語",
      "jav": "Urdu",
      "geo": "ურდუ",
      "kaz": "Урду",
      "kan": "ಉರ್ದು",
      "kor": "우르두어",
      "kir": "Урду",
      "lat": "Urdu",
      "lit": "Urdu",
      "lav": "Urdu",
      "mlg": "Urdu",
      "mao": "Urdu",
      "mac": "Урду",
      "mal": "ഉര്ദു",
      "mon": "Урду",
      "mar": "उर्दू",
      "may": "Urdu",
      "mlt": "}",
      "nep": "उर्दू",
      "dut": "Urdu",
      "nor": "Urdu",
      "pan": "ਉਰਦੂ",
      "pol": "Urdu",
      "por": "Urdu",
      "rum": "Urdu",
      "rus": "Урду",
      "sin": "උර්දු",
      "slo": "Urdu",
      "slv": "Urdu",
      "alb": "Urdu",
      "srp": "Урду",
      "sun": "Urdu",
      "swe": "Urdu",
      "swa": "Kiurdu",
      "tam": "உருது",
      "tel": "ఉర్దూ",
      "tgk": "Урду",
      "tha": "ภาษาอูร์ดู name",
      "tgl": "Urdu",
      "tur": "Urduca",
      "tat": "Урду теле",
      "ukr": "Урду",
      "urd": "اردو",
      "uzb": "Urdu",
      "vie": "Urdu",
      "xho": "Urduname",
      "yid": "אורדו",
      "chi": "乌尔都语"
    },
    "name": "urd",
    "tid": "bcd1e10e-3613-4534-95af-eebc56bb4fd6",
    "types": [
      "langs",
      "5"
    ],
    "repository": "kara.moe",
    "modified_at": "2020-03-31T19:04:38.379Z"
  }
}