{
  "header": {
    "description": "Karaoke Mugen Tag File",
    "version": 1
  },
  "tag": {
    "i18n": {
      "eng": "urushi"
    },
    "modified_at": "2021-11-20T18:06:39.625Z",
    "name": "urushi",
    "repository": "kara.moe",
    "tid": "02d760d1-879f-4eae-9904-184aa2995cec",
    "types": [
      "singers",
      "2"
    ]
  }
}