{
  "header": {
    "description": "Karaoke Mugen Tag File",
    "version": 1
  },
  "tag": {
    "external_database_ids": {
      "anilist": 1921,
      "kitsu": 1731,
      "myanimelist": 1921
    },
    "i18n": {
      "eng": "Urusei Yatsura Beautiful Dreamer (movie 2)",
      "jpn": "うる星やつら２　ビューティフル・ドリーマー",
      "qro": "Urusei Yatsura 2: Beautiful Dreamer",
      "ita": "Lamù: Beautiful Dreamer",
      "fre": "Lamu : Un rêve sans fin",
      "chi": "福星小子 Beautiful Dreamer"
    },
    "name": "Urusei Yatsura 2: Beautiful Dreamer",
    "repository": "kara.moe",
    "tid": "0772600e-0fe9-4cf6-b9e2-8daddaaf43ee",
    "types": [
      "series",
      "1"
    ]
  }
}