{
  "header": {
    "description": "Karaoke Mugen Tag File",
    "version": 1
  },
  "tag": {
    "i18n": {
      "eng": "uRy"
    },
    "name": "uRy",
    "tid": "101ff306-d94e-488b-99f6-c372979a6abf",
    "types": [
      "songwriters",
      "8"
    ],
    "repository": "kara.moe",
    "modified_at": "2020-03-31T19:04:38.382Z"
  }
}