{
  "header": {
    "description": "Karaoke Mugen Tag File",
    "version": 1
  },
  "tag": {
    "i18n": {
      "eng": "Usumizu"
    },
    "name": "Usumizu",
    "repository": "kara.moe",
    "tid": "a65224cc-a23a-4e4f-b356-ad3caa6e966a",
    "types": [
      "creators",
      "4"
    ]
  }
}