{
  "header": {
    "description": "Karaoke Mugen Tag File",
    "version": 1
  },
  "tag": {
    "aliases": [
      "Uta no Prince-sama Sweet Serenade",
      "no prince-sama"
    ],
    "i18n": {
      "eng": "Uta no☆Prince-sama♪ Sweet Serenade",
      "jpn": "うたの☆プリンスさまっ♪ -Sweet Serenade-",
      "qro": "Uta no☆Prince-sama♪ -Sweet Serenade-"
    },
    "modified_at": "2020-03-31T19:04:33.082Z",
    "name": "Uta no☆Prince-sama♪ -Sweet Serenade-",
    "repository": "kara.moe",
    "tid": "29aeb629-ceb3-46dd-b4ae-eef119bbc2dd",
    "types": [
      "series",
      "1"
    ]
  }
}