{
  "header": {
    "description": "Karaoke Mugen Tag File",
    "version": 1
  },
  "tag": {
    "aliases": [
      "U-K",
      "UK",
      "poem fragment",
      "utakata",
      "أوتاكاتا"
    ],
    "external_database_ids": {
      "anilist": 688,
      "myanimelist": 688,
      "kitsu": 629
    },
    "i18n": {
      "chi": "诗片",
      "eng": "Uta Kata",
      "jpn": "うた∽かた",
      "qro": "Uta Kata"
    },
    "modified_at": "2020-03-31T19:04:33.081Z",
    "name": "Uta Kata",
    "repository": "kara.moe",
    "tid": "b601a47e-f8fe-45a5-bc2a-f126ebd7e728",
    "types": [
      "series",
      "1"
    ]
  }
}