{
  "header": {
    "description": "Karaoke Mugen Tag File",
    "version": 1
  },
  "tag": {
    "aliases": [
      "Utapri Shining Live",
      "no prince-sama"
    ],
    "i18n": {
      "eng": "Uta no☆Prince-sama♪ Shining Live",
      "jpn": "うたの☆プリンスさまっ♪ Shining Live",
      "qro": "Uta no☆Prince-sama♪ Shining Live"
    },
    "modified_at": "2020-03-31T19:04:33.085Z",
    "name": "Uta no☆Prince-sama♪ Shining Live",
    "repository": "kara.moe",
    "tid": "3e3097ec-5629-476e-8388-04bbcca9d7ba",
    "types": [
      "series",
      "1"
    ]
  }
}