{
  "header": {
    "description": "Karaoke Mugen Tag File",
    "version": 1
  },
  "tag": {
    "i18n": {
      "eng": "Utahime Morikyô"
    },
    "modified_at": "2021-03-07T20:29:02.096Z",
    "name": "Utahime Morikyô",
    "repository": "kara.moe",
    "tid": "27b3ebef-5965-433a-94c7-04c9bdfb7b3b",
    "types": [
      "songwriters",
      "8"
    ]
  }
}