{
  "header": {
    "description": "Karaoke Mugen Tag File",
    "version": 1
  },
  "tag": {
    "i18n": {
      "eng": "Uta-P"
    },
    "modified_at": "2020-05-01T20:38:54.140Z",
    "name": "UtaP",
    "repository": "kara.moe",
    "tid": "a45d2ab2-471a-44a8-bbe8-b30dbf4976f2",
    "types": [
      "songwriters",
      "8"
    ]
  }
}