{
  "header": {
    "description": "Karaoke Mugen Tag File",
    "version": 1
  },
  "tag": {
    "i18n": {
      "eng": "UtataP",
      "jpn": "うたたP"
    },
    "name": "UtataP",
    "repository": "kara.moe",
    "tid": "d2863727-48f5-4bd1-9c55-38d7082cb5a4",
    "types": [
      "songwriters",
      "8"
    ]
  }
}