{
  "header": {
    "description": "Karaoke Mugen Tag File",
    "version": 1
  },
  "tag": {
    "i18n": {
      "eng": "Utsu-P"
    },
    "name": "Utsu-P",
    "repository": "kara.moe",
    "tid": "4e72af6e-6df6-4cbb-96b2-52cc0fa62e14",
    "types": [
      "songwriters",
      "8"
    ]
  }
}