{
  "header": {
    "description": "Karaoke Mugen Tag File",
    "version": 1
  },
  "tag": {
    "i18n": {
      "eng": "UVERworld"
    },
    "name": "UVERworld",
    "tid": "f3e5f15a-9e7a-4117-b6e4-f61fe71d0ea9",
    "types": [
      "singers",
      "2",
      "songwriters",
      "8",
      "creators",
      "4"
    ],
    "repository": "kara.moe",
    "modified_at": "2020-03-31T19:04:38.390Z"
  }
}