{
  "header": {
    "description": "Karaoke Mugen Tag File",
    "version": 1
  },
  "tag": {
    "i18n": {
      "eng": "UYAMUYA"
    },
    "name": "UYAMUYA",
    "tid": "552745c5-f9fa-4fee-afc7-c8f21412a483",
    "types": [
      "singers",
      "2"
    ],
    "repository": "kara.moe",
    "modified_at": "2020-03-31T19:04:38.390Z"
  }
}