{
  "header": {
    "description": "Karaoke Mugen Tag File",
    "version": 1
  },
  "tag": {
    "i18n": {
      "eng": "UZA"
    },
    "name": "UZA",
    "tid": "02666ceb-91a3-4096-ae12-ffc1bc80a462",
    "types": [
      "songwriters",
      "8"
    ],
    "repository": "kara.moe",
    "modified_at": "2020-03-31T19:04:38.393Z"
  }
}