{
  "header": {
    "description": "Karaoke Mugen Tag File",
    "version": 1
  },
  "tag": {
    "i18n": {
      "eng": "UzuChannel"
    },
    "name": "UzuChannel",
    "tid": "bfe2712f-5988-4fe0-88c2-21da3420a0ef",
    "types": [
      "creators",
      "4"
    ],
    "repository": "kara.moe",
    "modified_at": "2020-03-31T19:04:38.394Z"
  }
}