{
  "header": {
    "description": "Karaoke Mugen Tag File",
    "version": 1
  },
  "tag": {
    "i18n": {
      "eng": "Vagabond Suzuki"
    },
    "name": "Vagabond Suzuki",
    "tid": "2377383c-6c52-46dd-a5b8-c172da78514a",
    "types": [
      "songwriters",
      "8"
    ],
    "repository": "kara.moe",
    "modified_at": "2020-03-31T19:04:38.396Z"
  }
}