{
  "header": {
    "description": "Karaoke Mugen Tag File",
    "version": 1
  },
  "tag": {
    "i18n": {
      "eng": "Valérie Uzan"
    },
    "name": "Valérie Uzan",
    "tid": "298f6879-2171-4ef4-a109-5baf380deda4",
    "types": [
      "singers",
      "2",
      "songwriters",
      "8"
    ],
    "repository": "kara.moe",
    "modified_at": "2020-03-31T19:04:38.398Z"
  }
}