{
  "header": {
    "description": "Karaoke Mugen Tag File",
    "version": 1
  },
  "tag": {
    "aliases": [
      "Vampire Hunter D Movie",
      "vhd2"
    ],
    "external_database_ids": {
      "anilist": 543,
      "myanimelist": 543,
      "kitsu": 501
    },
    "i18n": {
      "eng": "Vampire Hunter D: Bloodlust",
      "est": "Vampiirikütt D: Verejanu",
      "hun": "D, a Vámpírvadász: Vérszomj",
      "jpn": "バンパイアハンターD",
      "kor": "뱀파이어 헌터 D",
      "pol": "Vampire Hunter D: Żądza krw",
      "rus": "D: Жажда крови",
      "qro": "Vampire Hunter D (2000)"
    },
    "modified_at": "2020-03-31T19:04:33.094Z",
    "name": "Vampire Hunter D (2000)",
    "repository": "kara.moe",
    "tid": "9f89260b-6ec4-4a09-8a61-cac90f08a305",
    "types": [
      "series",
      "1"
    ]
  }
}