{
  "header": {
    "description": "Karaoke Mugen Tag File",
    "version": 1
  },
  "tag": {
    "i18n": {
      "eng": "Van de Shop"
    },
    "name": "Van de Shop",
    "repository": "kara.moe",
    "tid": "0c15e648-8c34-49c9-a228-d4db925d55a1",
    "types": [
      "songwriters",
      "8",
      "singers",
      "2"
    ]
  }
}