{
  "header": {
    "description": "Karaoke Mugen Tag File",
    "version": 1
  },
  "tag": {
    "aliases": [
      "Vanitas no Shuki",
      "Memoir of Vanitas",
      "Los Apuntes de Vanitas"
    ],
    "external_database_ids": {
      "anilist": 131646,
      "myanimelist": 48580,
      "kitsu": 44241
    },
    "i18n": {
      "eng": "The Case Study of Vanitas",
      "fre": "Les Mémoires de Vanitas",
      "jpn": "ヴァニタスの手記",
      "qro": "Vanitas no Carte",
      "rus": "Мемуары Ванитаса"
    },
    "modified_at": "2021-11-20T16:53:41.292Z",
    "name": "Vanitas no Karte",
    "repository": "kara.moe",
    "tid": "befeeec8-5ffb-4037-be63-326df448f799",
    "types": [
      "series",
      "1"
    ]
  }
}