{
  "header": {
    "description": "Karaoke Mugen Tag File",
    "version": 1
  },
  "tag": {
    "i18n": {
      "eng": "vap"
    },
    "name": "vap",
    "tid": "65eb05b7-17f6-4eec-96f6-34cf9cc48138",
    "types": [
      "creators",
      "4"
    ],
    "repository": "kara.moe",
    "modified_at": "2020-03-31T19:04:38.401Z"
  }
}