{
  "header": {
    "description": "Karaoke Mugen Tag File",
    "version": 1
  },
  "tag": {
    "i18n": {
      "eng": "VAVA"
    },
    "name": "VAVA",
    "tid": "2078b1b4-f233-4f1b-b06f-22ffe98a7f65",
    "types": [
      "creators",
      "4"
    ],
    "repository": "kara.moe",
    "modified_at": "2020-03-31T19:04:38.401Z"
  }
}