{
  "header": {
    "description": "Karaoke Mugen Tag File",
    "version": 1
  },
  "tag": {
    "i18n": {
      "eng": "Vegard Urheim Ylvisåker"
    },
    "modified_at": "2021-09-12T11:41:16.884Z",
    "name": "Vegard Urheim Ylvisåker",
    "repository": "kara.moe",
    "tid": "3ce7e501-b961-4764-857c-a341a6d2ec43",
    "types": [
      "songwriters",
      "8"
    ]
  }
}