{
  "header": {
    "description": "Karaoke Mugen Tag File",
    "version": 1
  },
  "tag": {
    "i18n": {
      "eng": "VELVET GARDEN"
    },
    "name": "VELVET GARDEN",
    "tid": "2a03a04e-8301-481c-a6d4-37bb8f9d6073",
    "types": [
      "singers",
      "2"
    ],
    "repository": "kara.moe",
    "modified_at": "2020-03-31T19:04:38.403Z"
  }
}