{
  "header": {
    "description": "Karaoke Mugen Tag File",
    "version": 1
  },
  "tag": {
    "aliases": [
      "VVV",
      "Venus vs. Virus",
      "除魔维纳斯"
    ],
    "external_database_ids": {
      "anilist": 1607,
      "myanimelist": 1607,
      "kitsu": 1446
    },
    "i18n": {
      "eng": "Venus Versus Virus",
      "jpn": "ヴィーナス ヴァーサス ヴァイアラス",
      "qro": "Venus Versus Virus"
    },
    "modified_at": "2020-03-31T19:04:33.099Z",
    "name": "Venus Versus Virus",
    "repository": "kara.moe",
    "tid": "f177c3ee-cca3-4adb-942d-3876b5a1435b",
    "types": [
      "series",
      "1"
    ]
  }
}