{
  "header": {
    "description": "Karaoke Mugen Tag File",
    "version": 1
  },
  "tag": {
    "aliases": [
      "Война на Венера"
    ],
    "external_database_ids": {
      "anilist": 544,
      "myanimelist": 544,
      "kitsu": 502
    },
    "i18n": {
      "eng": "Venus Wars",
      "fre": "Venus Wars",
      "ger": "Venus Wars",
      "jpn": "ヴィナス戦記",
      "rus": "Война на Венере",
      "qro": "Venus Senki"
    },
    "modified_at": "2020-03-31T19:04:33.099Z",
    "name": "Venus Senki",
    "repository": "kara.moe",
    "tid": "c7c3d688-f68a-4218-bb3e-f6463cc1dd7c",
    "types": [
      "series",
      "1"
    ]
  }
}