{
  "header": {
    "description": "Karaoke Mugen Tag File",
    "version": 1
  },
  "tag": {
    "i18n": {
      "eng": "VERBAL"
    },
    "name": "VERBAL",
    "repository": "kara.moe",
    "tid": "0b03dda3-47d7-4ca8-92c8-1902b602fdaa",
    "types": [
      "songwriters",
      "8"
    ],
    "modified_at": "2020-03-31T19:04:38.407Z"
  }
}