{
  "header": {
    "description": "Karaoke Mugen Tag File",
    "version": 1
  },
  "tag": {
    "aliases": [
      "LO",
      "La rose de Versailles",
      "Lady Oscar",
      "Lady Oskar",
      "RoV",
      "Rose of Versailles",
      "Róża Wersalu",
      "TRoV",
      "VnB",
      "berubara",
      "verbara",
      "Роза Версаля",
      "رُز ورسای",
      "ベルばら"
    ],
    "external_database_ids": {
      "anilist": 338,
      "myanimelist": 338,
      "kitsu": 305
    },
    "i18n": {
      "ara": "ليدي أوسكار",
      "eng": "The Rose of Versailles",
      "fin": "Lady Oscar",
      "fre": "Lady Oscar",
      "ger": "Lady Oscar - Die Rose von Versailles",
      "ita": "Lady Oscar",
      "jpn": "ベルサイユのばら",
      "pol": "Lady Oscar",
      "por": "Lady Oscar",
      "spa": "Lady Oscar: La rosa de Versalles",
      "tur": "Versay'ın Gülü",
      "qro": "Versailles no Bara"
    },
    "modified_at": "2020-03-31T19:04:33.101Z",
    "name": "Versailles no Bara",
    "repository": "kara.moe",
    "tid": "8126aba1-63b4-4baf-8f2e-ec398169e642",
    "types": [
      "series",
      "1",
      "franchises",
      "18"
    ]
  }
}