{
  "header": {
    "description": "Karaoke Mugen Tag File",
    "version": 1
  },
  "tag": {
    "i18n": {
      "eng": "Vestia Zeta"
    },
    "name": "Vestia Zeta",
    "repository": "kara.moe",
    "tid": "1f9994f5-9699-47c8-b362-5d66db198bf0",
    "types": [
      "singers",
      "2"
    ]
  }
}