{
  "header": {
    "description": "Karaoke Mugen Tag File",
    "version": 1
  },
  "tag": {
    "i18n": {
      "eng": "Veturi Sundararama Murthy"
    },
    "name": "Veturi Sundararama Murthy",
    "tid": "48030f09-3140-4dd9-b357-3d6cdedae3a1",
    "types": [
      "songwriters",
      "8"
    ],
    "repository": "kara.moe",
    "modified_at": "2020-03-31T19:04:38.408Z"
  }
}