{
  "header": {
    "description": "Karaoke Mugen Tag File",
    "version": 1
  },
  "tag": {
    "i18n": {
      "eng": "Victor Ireland"
    },
    "name": "Victor Ireland",
    "tid": "dd63ebab-2f79-4278-a37b-e2c2f476af96",
    "types": [
      "songwriters",
      "8"
    ],
    "repository": "kara.moe",
    "modified_at": "2020-03-31T19:04:38.411Z"
  }
}