{
  "header": {
    "description": "Karaoke Mugen Tag File",
    "version": 1
  },
  "tag": {
    "i18n": {
      "afr": "Viëtnamese",
      "amh": "ቪትናምኛ",
      "ara": "الفيتنامية",
      "aze": "Vyetnam",
      "bak": "Вьет теле",
      "bel": "В'етнамская",
      "bul": "Виетнамски",
      "ben": "ভিয়েতনামী",
      "bos": "Vijetnamski",
      "cat": "Vietnamita",
      "cze": "Vietnamci",
      "wel": "Fietnameg",
      "dan": "Vietnamesisk",
      "ger": "Vietnamesisch",
      "gre": "Βιετνάμ",
      "eng": "Vietnamese",
      "epo": "Vjetnama",
      "spa": "Vietnamita",
      "est": "Vietnami",
      "baq": "Vietnamese",
      "per": "ویتنامی",
      "fin": "Vietnam",
      "fre": "Vietnamien",
      "gle": "Vítneaimis",
      "gla": "Bhiet-namais",
      "glg": "Vietnamita",
      "guj": "વિયેતનામીસ",
      "heb": "וייטנאמי",
      "hin": "वियतनामी",
      "hrv": "Vijetnamski",
      "hat": "Vyetnamyen",
      "hun": "Vietnámi",
      "arm": "Վիետնամերեն",
      "ind": "Vietnam",
      "ice": "Víetnamska",
      "ita": "Vietnamita",
      "jpn": "ベトナム",
      "jav": "Vietnam",
      "geo": "Vietnamese",
      "kaz": "Вьетнам",
      "kan": "ವಿಯೇಟ್ನಾಮೀಸ್",
      "kor": "베트남",
      "kir": "Вьетнамский",
      "lat": "Vietnamese",
      "lit": "Vietnamo",
      "lav": "Vjetnamiešu",
      "mlg": "Vietnamiana",
      "mao": "Vietnamese",
      "mac": "Виетнамски",
      "mal": "വിയറ്റ്നാമീസ്",
      "mon": "Вьетнам",
      "mar": "व्हिएतनामी",
      "may": "Bahasa vietnam",
      "mlt": "}",
      "nep": "भियतनामी",
      "dut": "Vietnamees",
      "nor": "Vietnamesisk",
      "pan": "ਵੀਅਤਨਾਮੀ",
      "pol": "Wietnamski",
      "por": "Vietnamita",
      "rum": "Vietnameză",
      "rus": "Вьетнамский",
      "sin": "හින්දි",
      "slo": "Vietnamčina",
      "slv": "Vietnamski",
      "alb": "Vietnamisht",
      "srp": "Вијетнамски",
      "sun": "Vietnam",
      "swe": "Vietnamesiska",
      "swa": "Kivietinamu",
      "tam": "வியட்நாம்",
      "tel": "వియత్నామీస్",
      "tgk": "Ветнами",
      "tha": "ภาษาเวียตนาม name",
      "tgl": "Vietnamese",
      "tur": "Vietnam",
      "tat": "Вьет теле",
      "ukr": "В'єтнамський",
      "urd": "ویتنامی",
      "uzb": "Vetnam",
      "vie": "Việt nam",
      "xho": "Isivietnam",
      "yid": "וויעטנאַמעזיש",
      "chi": "越南语"
    },
    "name": "vie",
    "tid": "dc040a88-eb57-4bb6-8d55-5d68f76b9b90",
    "types": [
      "langs",
      "5"
    ],
    "repository": "kara.moe",
    "modified_at": "2020-03-31T19:04:38.412Z"
  }
}