{
  "header": {
    "description": "Karaoke Mugen Tag File",
    "version": 1
  },
  "tag": {
    "i18n": {
      "eng": "Vijayalakshmi Art Pictures"
    },
    "name": "Vijayalakshmi Art Pictures",
    "tid": "6ef4f309-8d46-437d-85f9-28ca0f364b7f",
    "types": [
      "creators",
      "4"
    ],
    "repository": "kara.moe",
    "modified_at": "2020-03-31T19:04:38.413Z"
  }
}