{
  "header": {
    "description": "Karaoke Mugen Tag File",
    "version": 1
  },
  "tag": {
    "i18n": {
      "eng": "Vikuo"
    },
    "name": "Vikuo",
    "repository": "kara.moe",
    "tid": "78526f6c-6025-487e-b2a9-b1619fabbe47",
    "types": [
      "authors",
      "6"
    ]
  }
}