{
  "header": {
    "description": "Karaoke Mugen Tag File",
    "version": 1
  },
  "tag": {
    "i18n": {
      "eng": "Vincent Ropion"
    },
    "name": "Vincent Ropion",
    "tid": "c38d38dd-2634-4f73-9849-2b3348be2bad",
    "types": [
      "singers",
      "2"
    ],
    "repository": "kara.moe",
    "modified_at": "2020-03-31T19:04:38.417Z"
  }
}