{
  "header": {
    "description": "Karaoke Mugen Tag File",
    "version": 1
  },
  "tag": {
    "i18n": {
      "eng": "Vincent Munro"
    },
    "name": "Vincent Munro",
    "repository": "kara.moe",
    "tid": "9015a94c-2201-4a74-affa-4a858b7a6a3f",
    "types": [
      "singers",
      "2"
    ]
  }
}