{
  "header": {
    "description": "Karaoke Mugen Tag File",
    "version": 1
  },
  "tag": {
    "i18n": {
      "eng": "Vincent Grass"
    },
    "name": "Vincent Grass",
    "repository": "kara.moe",
    "tid": "8f6a31f3-093b-4943-bc2c-aa5efb9b1708",
    "types": [
      "singers",
      "2"
    ],
    "modified_at": "2020-03-31T19:04:38.416Z"
  }
}