{
  "header": {
    "description": "Karaoke Mugen Tag File",
    "version": 1
  },
  "tag": {
    "i18n": {
      "eng": "Violent Femmes"
    },
    "name": "Violent Femmes",
    "repository": "kara.moe",
    "tid": "c024d15c-08e9-484f-b592-e05663f950b0",
    "types": [
      "singers",
      "2"
    ]
  }
}