{
  "header": {
    "description": "Karaoke Mugen Tag File",
    "version": 1
  },
  "tag": {
    "i18n": {
      "eng": "Virgin VS"
    },
    "name": "Virgin VS",
    "repository": "kara.moe",
    "tid": "f423ec11-33c5-4e93-9f7a-f35b4251c81c",
    "types": [
      "songwriters",
      "8"
    ]
  }
}