{
  "header": {
    "description": "Karaoke Mugen Tag File",
    "version": 1
  },
  "tag": {
    "aliases": [
      "Mr. Virtual is Watching",
      "Virtual Friends are Watching"
    ],
    "external_database_ids": {
      "anilist": 106433,
      "myanimelist": 38851,
      "kitsu": 42042
    },
    "i18n": {
      "eng": "Virtual-san Looking",
      "jpn": "バーチャルさんはみている",
      "qro": "Virtual-san wa Miteiru"
    },
    "modified_at": "2020-06-21T23:45:31.966Z",
    "name": "Virtual-san wa Miteiru",
    "repository": "kara.moe",
    "tid": "5d01be57-c459-4351-8aad-352aaefd5494",
    "types": [
      "series",
      "1"
    ]
  }
}