{
  "header": {
    "description": "Karaoke Mugen Tag File",
    "version": 1
  },
  "tag": {
    "external_database_ids": {
      "anilist": 131584,
      "myanimelist": 48567,
      "kitsu": 44234
    },
    "i18n": {
      "eng": "Visual Prison",
      "jpn": "ヴィジュアルプリズン"
    },
    "name": "Visual Prison",
    "repository": "kara.moe",
    "tid": "fde39f84-5949-49af-b274-81d71c6ec94a",
    "types": [
      "series",
      "1"
    ]
  }
}