{
  "header": {
    "description": "Karaoke Mugen Tag File",
    "version": 1
  },
  "tag": {
    "aliases": [
      "Vivid Red Operation",
      "vividass"
    ],
    "external_database_ids": {
      "anilist": 14283,
      "myanimelist": 14283,
      "kitsu": 7108
    },
    "i18n": {
      "eng": "Vividred Operation",
      "jpn": "ビビッドレッド・オペレーション",
      "kor": "비비드 레드 오퍼레이션",
      "qro": "Vividred Operation"
    },
    "modified_at": "2020-03-31T19:04:33.105Z",
    "name": "Vividred Operation",
    "repository": "kara.moe",
    "tid": "5d5a2d5b-66ea-4d58-8364-5e046b159093",
    "types": [
      "series",
      "1"
    ]
  }
}