{
  "header": {
    "description": "Karaoke Mugen Tag File",
    "version": 1
  },
  "tag": {
    "i18n": {
      "eng": "Vivienne"
    },
    "name": "Vivienne",
    "repository": "kara.moe",
    "tid": "dbc3629c-3886-405b-9c18-eecd1db6fe9a",
    "types": [
      "singers",
      "2"
    ]
  }
}