{
  "header": {
    "description": "Karaoke Mugen Tag File",
    "version": 1
  },
  "tag": {
    "i18n": {
      "eng": "Vlad42"
    },
    "name": "Vlad42",
    "repository": "kara.moe",
    "tid": "b9b5dec1-49ab-44e4-a82b-77f3202e7e50",
    "types": [
      "songwriters",
      "8"
    ]
  }
}