{
  "header": {
    "description": "Karaoke Mugen Tag File",
    "version": 1
  },
  "tag": {
    "i18n": {
      "eng": "Vogue"
    },
    "name": "Vogue",
    "repository": "kara.moe",
    "tid": "6310c5a0-8d99-4cc7-a554-177b10124cd7",
    "types": [
      "creators",
      "4"
    ]
  }
}