{
  "header": {
    "description": "Karaoke Mugen Tag File",
    "version": 1
  },
  "tag": {
    "i18n": {
      "eng": "Voicelugger",
      "jpn": "ボイスラッガー",
      "qro": "Voicelugger"
    },
    "modified_at": "2020-03-31T19:04:33.106Z",
    "name": "Voicelugger",
    "repository": "kara.moe",
    "tid": "8ee98d2b-f04c-4505-8f15-cbc2a0e62f10",
    "types": [
      "series",
      "1"
    ]
  }
}