{
  "header": {
    "description": "Karaoke Mugen Tag File",
    "version": 1
  },
  "tag": {
    "i18n": {
      "eng": "void"
    },
    "name": "void",
    "tid": "60f46072-08ad-477f-b45f-626ed3b020ee",
    "types": [
      "songwriters",
      "8"
    ],
    "repository": "kara.moe",
    "modified_at": "2020-03-31T19:04:38.426Z"
  }
}