{
  "header": {
    "description": "Karaoke Mugen Tag File",
    "version": 1
  },
  "tag": {
    "i18n": {
      "eng": "Void_Chords",
      "jpn": "ゔぉいど・こーず"
    },
    "name": "Void_Chords",
    "repository": "kara.moe",
    "tid": "d53fcfb1-48a5-45a7-a57f-0207b4f277f9",
    "types": [
      "singers",
      "2"
    ]
  }
}