{
  "header": {
    "description": "Karaoke Mugen Tag File",
    "version": 1
  },
  "tag": {
    "i18n": {
      "eng": "VRIDGE"
    },
    "name": "VRIDGE",
    "tid": "88545d18-6c72-42c7-9fef-f26982a42c0e",
    "types": [
      "creators",
      "4"
    ],
    "repository": "kara.moe",
    "modified_at": "2020-03-31T19:04:38.429Z"
  }
}