{
  "header": {
    "description": "Karaoke Mugen Tag File",
    "version": 1
  },
  "tag": {
    "i18n": {
      "eng": "Vrigin VS"
    },
    "name": "Vrigin VS",
    "repository": "kara.moe",
    "tid": "272796f9-2eac-451e-aead-37d08cc62c8a",
    "types": [
      "songwriters",
      "8"
    ]
  }
}