{
  "header": {
    "description": "Karaoke Mugen Tag File",
    "version": 1
  },
  "tag": {
    "i18n": {
      "eng": "VShojo"
    },
    "name": "VShojo",
    "repository": "kara.moe",
    "tid": "4a61dbf0-c1a2-49b1-a3ad-2780e482b3db",
    "types": [
      "creators",
      "4"
    ]
  }
}