{
  "header": {
    "description": "Karaoke Mugen Tag File",
    "version": 1
  },
  "tag": {
    "i18n": {
      "eng": "VTuber FR"
    },
    "name": "VTuber FR",
    "repository": "kara.moe",
    "tid": "c5db3166-8542-41c4-b72a-af114fed622a",
    "types": [
      "singergroups",
      "17"
    ]
  }
}