{
  "header": {
    "description": "Karaoke Mugen Tag File",
    "version": 1
  },
  "tag": {
    "external_database_ids": {
      "anilist": 346,
      "myanimelist": 346,
      "kitsu": 313
    },
    "i18n": {
      "eng": "Double Wish",
      "jpn": "W〜ウイッシュ〜",
      "qro": "W ~Wish~"
    },
    "modified_at": "2020-03-31T19:04:33.107Z",
    "name": "W ~Wish~",
    "repository": "kara.moe",
    "tid": "8b6cae7d-296e-470a-8d1e-fb929cba26b8",
    "types": [
      "series",
      "1"
    ]
  }
}