{
  "header": {
    "description": "Karaoke Mugen Tag File",
    "version": 1
  },
  "tag": {
    "i18n": {
      "eng": "WAGDUG FUTURISTIC UNITY"
    },
    "name": "WAGDUG FUTURISTIC UNITY",
    "tid": "e25a793e-1e1a-4816-bb4b-a45fa145010f",
    "types": [
      "singers",
      "2"
    ],
    "repository": "kara.moe",
    "modified_at": "2020-03-31T19:04:38.434Z"
  }
}