{
  "header": {
    "description": "Karaoke Mugen Tag File",
    "version": 1
  },
  "tag": {
    "i18n": {
      "eng": "Wagram Music"
    },
    "name": "Wagram Music",
    "repository": "kara.moe",
    "tid": "1b446982-285c-433f-96f1-dd882b777b55",
    "types": [
      "creators",
      "4"
    ]
  }
}