{
  "header": {
    "description": "Karaoke Mugen Tag File",
    "version": 1
  },
  "tag": {
    "external_database_ids": {
      "anilist": 21204,
      "myanimelist": 30437,
      "kitsu": 10844
    },
    "i18n": {
      "eng": "Wakakozake",
      "jpn": "ワカコ酒",
      "qro": "Wakako-zake"
    },
    "modified_at": "2020-03-31T19:04:33.111Z",
    "name": "Wakako-zake",
    "repository": "kara.moe",
    "tid": "09ee064d-6948-455b-a7bc-8f9b874e8bfe",
    "types": [
      "series",
      "1"
    ]
  }
}