{
  "header": {
    "description": "Karaoke Mugen Tag File",
    "version": 1
  },
  "tag": {
    "i18n": {
      "eng": "Wakamatsu City"
    },
    "name": "Wakamatsu City",
    "repository": "kara.moe",
    "tid": "c57e5d95-b61c-4cba-9a80-8b6e812dab1f",
    "types": [
      "creators",
      "4"
    ]
  }
}