{
  "header": {
    "description": "Karaoke Mugen Tag File",
    "version": 1
  },
  "tag": {
    "external_database_ids": {
      "anilist": 21108,
      "myanimelist": 30355,
      "kitsu": 10767
    },
    "i18n": {
      "eng": "Wakaba*Girl",
      "jpn": "わかば*ガール",
      "qro": "Wakaba Girl"
    },
    "modified_at": "2020-03-31T19:04:33.110Z",
    "name": "Wakaba Girl",
    "repository": "kara.moe",
    "tid": "6f827771-8b25-4521-a993-dee2919988a8",
    "types": [
      "series",
      "1"
    ]
  }
}