{
  "header": {
    "description": "Karaoke Mugen Tag File",
    "version": 1
  },
  "tag": {
    "i18n": {
      "eng": "Wakako Shimazaki"
    },
    "name": "Wakako Shimazaki",
    "tid": "54281094-8d99-4a28-8117-46f29ba626b5",
    "types": [
      "singers",
      "2"
    ],
    "repository": "kara.moe",
    "modified_at": "2020-03-31T19:04:38.436Z"
  }
}