{
  "header": {
    "description": "Karaoke Mugen Tag File",
    "version": 1
  },
  "tag": {
    "i18n": {
      "eng": "Wake Up Girls!"
    },
    "name": "Wake Up Girls!",
    "tid": "994d1d73-6652-4a27-ae41-bece9034dd13",
    "types": [
      "singers",
      "2"
    ],
    "repository": "kara.moe",
    "modified_at": "2020-03-31T19:04:38.438Z"
  }
}