{
  "header": {
    "description": "Karaoke Mugen Tag File",
    "version": 1
  },
  "tag": {
    "i18n": {
      "eng": "Walter Murphy"
    },
    "name": "Walter Murphy",
    "repository": "kara.moe",
    "tid": "4e85a3bf-378a-4ca0-b271-1c440838c8a8",
    "types": [
      "songwriters",
      "8"
    ]
  }
}