{
  "header": {
    "description": "Karaoke Mugen Tag File",
    "version": 1
  },
  "tag": {
    "i18n": {
      "eng": "Waratta Imurapon"
    },
    "name": "Waratta Imurapon",
    "tid": "282d05bb-7e59-4eef-a46f-e0e539334f1d",
    "types": [
      "singers",
      "2"
    ],
    "repository": "kara.moe",
    "modified_at": "2020-03-31T19:04:38.443Z"
  }
}