{
  "header": {
    "description": "Karaoke Mugen Tag File",
    "version": 1
  },
  "tag": {
    "aliases": [
      "綻放的阿爾斯諾特利亞"
    ],
    "external_database_ids": {
      "anilist": 149874,
      "kitsu": 46136,
      "myanimelist": 51923
    },
    "i18n": {
      "eng": "Smile of the Arsnotoria the Animation",
      "jpn": "咲う アルスノトリア すんっ!",
      "qro": "Warau Arsnotoria Sun!",
      "chi": "绽放的阿尔斯诺特利亚"
    },
    "name": "Warau Arsnotoria Sun!",
    "repository": "kara.moe",
    "tid": "e8fc3256-92f1-4d92-8175-cc9a371f7319",
    "types": [
      "series",
      "1"
    ]
  }
}