{
  "header": {
    "description": "Karaoke Mugen Tag File",
    "version": 1
  },
  "tag": {
    "i18n": {
      "eng": "Warner Chappell"
    },
    "name": "Warner Chappell",
    "tid": "454482d2-8146-4008-be3b-c2721f8b283e",
    "types": [
      "creators",
      "4"
    ],
    "repository": "kara.moe",
    "modified_at": "2020-03-31T19:04:38.446Z"
  }
}