{
  "header": {
    "description": "Karaoke Mugen Tag File",
    "version": 1
  },
  "tag": {
    "i18n": {
      "eng": "Warner Bros. Records"
    },
    "modified_at": "2020-05-07T17:45:51.897Z",
    "name": "Warner Bros. Records",
    "repository": "kara.moe",
    "tid": "45ff46f8-862b-4f84-8479-505cc223d430",
    "types": [
      "creators",
      "4"
    ]
  }
}