{
  "header": {
    "description": "Karaoke Mugen Tag File",
    "version": 1
  },
  "tag": {
    "i18n": {
      "eng": "Warner Music Japan"
    },
    "name": "Warner Music Japan",
    "tid": "424f77b6-39e2-48a2-8135-295a801bacab",
    "types": [
      "creators",
      "4"
    ],
    "repository": "kara.moe",
    "modified_at": "2020-03-31T19:04:38.446Z"
  }
}