{
  "header": {
    "description": "Karaoke Mugen Tag File",
    "version": 1
  },
  "tag": {
    "i18n": {
      "eng": "Wataru Watanabe"
    },
    "name": "Wataru Watanabe",
    "tid": "7b49e402-4e77-406c-985a-fb007d8b0724",
    "types": [
      "songwriters",
      "8"
    ],
    "repository": "kara.moe",
    "modified_at": "2020-03-31T19:04:38.456Z"
  }
}