{
  "header": {
    "description": "Karaoke Mugen Tag File",
    "version": 1
  },
  "tag": {
    "aliases": [
      "わたしにてんしがまいおりた!"
    ],
    "external_database_ids": {
      "anilist": 102680,
      "myanimelist": 37993,
      "kitsu": 41403
    },
    "i18n": {
      "eng": "Wataten! An Angel Flew Down to Me",
      "jpn": "私に天使が舞い降りた!",
      "chi": "天使降臨到我身邊！",
      "kor": "나에게 천사가 내려왔다!",
      "qro": "Watashi ni Tenshi ga Maiorita!"
    },
    "modified_at": "2021-06-14T15:21:21.754Z",
    "name": "Watashi ni Tenshi ga Maiorita!",
    "repository": "kara.moe",
    "tid": "768608de-4e9e-4bf3-a5f1-0927193b7fcb",
    "types": [
      "series",
      "1"
    ]
  }
}