{
  "header": {
    "description": "Karaoke Mugen Tag File",
    "version": 1
  },
  "tag": {
    "i18n": {
      "jpn": "わたてん☆5",
      "qro": "Wataten☆5"
    },
    "name": "Wataten☆5",
    "repository": "kara.moe",
    "tid": "b807a96e-658c-4673-8d03-1859cc4b02fb",
    "types": [
      "singergroups",
      "17"
    ]
  }
}