{
  "header": {
    "description": "Karaoke Mugen Tag File",
    "version": 1
  },
  "tag": {
    "i18n": {
      "eng": "Wataru Ujihara"
    },
    "name": "Wataru Ujihara",
    "tid": "089124d2-27ba-41e1-9589-943dce3f676c",
    "types": [
      "songwriters",
      "8"
    ],
    "repository": "kara.moe",
    "modified_at": "2020-03-31T19:04:38.455Z"
  }
}