{
  "header": {
    "description": "Karaoke Mugen Tag File",
    "version": 1
  },
  "tag": {
    "external_database_ids": {
      "anilist": 147103,
      "kitsu": 46050,
      "myanimelist": 51552
    },
    "i18n": {
      "eng": "My Happy Marriage",
      "jpn": "わたしの幸せな結婚",
      "qro": "Watashi no Shiawase na Kekkon",
      "fre": "Un heureux destin"
    },
    "name": "Watashi no Shiawase na Kekkon",
    "repository": "kara.moe",
    "tid": "3980cf61-28bd-4015-b43f-2e44edb472a2",
    "types": [
      "series",
      "1"
    ]
  }
}