{
  "header": {
    "description": "Karaoke Mugen Tag File",
    "version": 1
  },
  "tag": {
    "i18n": {
      "eng": "Wazzzaaa"
    },
    "name": "Wazzzaaa",
    "tid": "40c5db68-0a74-48e7-b233-71177a099d62",
    "types": [
      "authors",
      "6"
    ],
    "repository": "kara.moe",
    "modified_at": "2020-03-31T19:04:38.458Z"
  }
}