{
  "header": {
    "description": "Karaoke Mugen Tag File",
    "version": 1
  },
  "tag": {
    "aliases": [
      "Jonti Picking",
      "Jonathan Picking"
    ],
    "i18n": {
      "eng": "Weebl"
    },
    "name": "Weebl",
    "repository": "kara.moe",
    "tid": "d156fbd9-4531-42d6-b075-47d135f15224",
    "types": [
      "songwriters",
      "8",
      "singers",
      "2"
    ]
  }
}