{
  "header": {
    "description": "Karaoke Mugen Tag File",
    "version": 1
  },
  "tag": {
    "i18n": {
      "eng": "\"Weird Al\" Yankovic"
    },
    "name": "\"Weird Al\" Yankovic",
    "tid": "b6177d57-4cff-40f2-b4a7-ede40300b2a0",
    "types": [
      "singers",
      "2",
      "songwriters",
      "8"
    ],
    "repository": "kara.moe",
    "modified_at": "2020-03-31T19:04:38.460Z"
  }
}