{
  "header": {
    "description": "Karaoke Mugen Tag File",
    "version": 1
  },
  "tag": {
    "i18n": {
      "eng": "What`sNewPanda"
    },
    "name": "What`sNewPanda",
    "repository": "kara.moe",
    "tid": "c6f50f20-07c1-4f54-8247-44c35cb28302",
    "types": [
      "authors",
      "6"
    ]
  }
}