{
  "header": {
    "description": "Karaoke Mugen Tag File",
    "version": 1
  },
  "tag": {
    "i18n": {
      "eng": "whispersreloaded"
    },
    "name": "whispersreloaded",
    "tid": "980cce0e-75f8-4ceb-a4a8-8e2d5bd3266f",
    "types": [
      "creators",
      "4"
    ],
    "repository": "kara.moe",
    "modified_at": "2020-03-31T19:04:38.463Z"
  }
}