{
  "header": {
    "description": "Karaoke Mugen Tag File",
    "version": 1
  },
  "tag": {
    "i18n": {
      "eng": "Whiteberry"
    },
    "name": "Whiteberry",
    "tid": "dad06372-89ad-45df-8e05-19908de16d0b",
    "types": [
      "singers",
      "2"
    ],
    "repository": "kara.moe",
    "modified_at": "2020-03-31T19:04:38.464Z"
  }
}