{
  "header": {
    "description": "Karaoke Mugen Tag File",
    "version": 1
  },
  "tag": {
    "aliases": [
      "White Album II"
    ],
    "external_database_ids": {
      "anilist": 18245,
      "myanimelist": 18245,
      "kitsu": 7697
    },
    "i18n": {
      "eng": "White Album 2",
      "jpn": "WHITE ALBUM2",
      "qro": "White Album 2"
    },
    "modified_at": "2020-03-31T19:04:33.125Z",
    "name": "White Album 2",
    "repository": "kara.moe",
    "tid": "ddfba401-231d-4923-a5a4-710597d752db",
    "types": [
      "series",
      "1"
    ]
  }
}