{
  "header": {
    "description": "Karaoke Mugen Tag File",
    "version": 1
  },
  "tag": {
    "i18n": {
      "eng": "whoo"
    },
    "name": "whoo",
    "repository": "kara.moe",
    "tid": "104ba973-2136-450c-a4ce-3a6153c30d27",
    "types": [
      "songwriters",
      "8"
    ]
  }
}