{
  "header": {
    "description": "Karaoke Mugen Tag File",
    "version": 1
  },
  "tag": {
    "i18n": {
      "eng": "Wii U"
    },
    "karafile_tag": "WIIU",
    "name": "Wii U",
    "tid": "293e4786-9ac8-4c83-84f2-2e6cd14b5e8d",
    "types": [
      "platforms",
      "13"
    ],
    "short": "WIU",
    "repository": "kara.moe",
    "modified_at": "2020-03-31T19:04:38.467Z"
  }
}