{
  "header": {
    "description": "Karaoke Mugen Tag File",
    "version": 1
  },
  "tag": {
    "i18n": {
      "eng": "Wild Arms 5",
      "jpn": "ワイルドアームズ ザ フィフスヴァンガード",
      "qro": "Wild Arms: The Vth Vanguard"
    },
    "modified_at": "2020-03-31T19:04:33.127Z",
    "name": "Wild Arms: The Vth Vanguard",
    "repository": "kara.moe",
    "tid": "52d469ed-17fb-41c8-a802-41ad8e1ea666",
    "types": [
      "series",
      "1"
    ]
  }
}