{
  "header": {
    "description": "Karaoke Mugen Tag File",
    "version": 1
  },
  "tag": {
    "aliases": [
      "Wild Arms TV"
    ],
    "external_database_ids": {
      "anilist": 347,
      "myanimelist": 347,
      "kitsu": 314
    },
    "i18n": {
      "cze": "Wild Arms",
      "eng": "Wild Arms: Twilight Venom",
      "hun": "Veszett fegyverek",
      "jpn": "ワイルドアームズ トワイライトヴェノム",
      "rum": "Arme pierdute",
      "qro": "Wild Arms Twilight Venom"
    },
    "modified_at": "2020-03-31T19:04:33.128Z",
    "name": "Wild Arms Twilight Venom",
    "repository": "kara.moe",
    "tid": "4de116fd-ca0c-4e42-9bee-33250c6dad86",
    "types": [
      "series",
      "1"
    ]
  }
}