{
  "header": {
    "description": "Karaoke Mugen Tag File",
    "version": 1
  },
  "tag": {
    "i18n": {
      "eng": "Wild Arms 2",
      "jpn": "ワイルドアームズ セカンドイグニッション",
      "qro": "Wild Arms 2nd Ignition"
    },
    "modified_at": "2020-03-31T19:04:33.125Z",
    "name": "Wild Arms 2nd Ignition",
    "repository": "kara.moe",
    "tid": "b42edf64-6d74-42d8-8ebe-4ee789b9a211",
    "types": [
      "series",
      "1"
    ]
  }
}