{
  "header": {
    "description": "Karaoke Mugen Tag File",
    "version": 1
  },
  "tag": {
    "i18n": {
      "eng": "will.i.am Music Group"
    },
    "modified_at": "2021-05-21T20:36:07.362Z",
    "name": "will.i.am Music Group",
    "repository": "kara.moe",
    "tid": "1dd831cf-c4f4-4489-9021-e0c2633a824a",
    "types": [
      "creators",
      "4"
    ]
  }
}