{
  "header": {
    "description": "Karaoke Mugen Tag File",
    "version": 1
  },
  "tag": {
    "i18n": {
      "eng": "Windancer"
    },
    "name": "Windancer",
    "repository": "kara.moe",
    "tid": "f21dcdb8-e2ee-432f-bc2b-727b173b42b8",
    "types": [
      "creators",
      "4",
      "singergroups",
      "17"
    ]
  }
}