{
  "header": {
    "description": "Karaoke Mugen Tag File",
    "version": 1
  },
  "tag": {
    "i18n": {
      "eng": "Wind: A breath of Heart",
      "jpn": "Wind ~a breath of heart~",
      "qro": "Wind ~a breath of heart~"
    },
    "modified_at": "2020-03-31T19:04:33.128Z",
    "name": "Wind ~a breath of heart~",
    "repository": "kara.moe",
    "tid": "865c93b6-7806-4a4c-a4dd-7ced54c339b2",
    "types": [
      "series",
      "1",
      "franchises",
      "18"
    ]
  }
}