{
  "header": {
    "description": "Karaoke Mugen Tag File",
    "version": 1
  },
  "tag": {
    "i18n": {
      "eng": "Winston Hibler"
    },
    "name": "Winston Hibler",
    "repository": "kara.moe",
    "tid": "de5d9e9f-74c8-41e8-8f42-3ff90cf3d44a",
    "types": [
      "songwriters",
      "8"
    ]
  }
}