{
  "header": {
    "description": "Karaoke Mugen Tag File",
    "version": 1
  },
  "tag": {
    "i18n": {
      "eng": "Winx Club",
      "fre": "Winx Club",
      "ita": "Winx Club"
    },
    "modified_at": "2020-03-31T19:04:33.129Z",
    "name": "Winx Club",
    "repository": "kara.moe",
    "tid": "4393a223-b142-490f-acaa-df0455838127",
    "types": [
      "series",
      "1"
    ]
  }
}