{
  "header": {
    "description": "Karaoke Mugen Tag File",
    "version": 1
  },
  "tag": {
    "aliases": [
      "WitchCraft Works",
      "wcw",
      "Вещерство"
    ],
    "external_database_ids": {
      "anilist": 20503,
      "myanimelist": 21085,
      "kitsu": 8017
    },
    "i18n": {
      "chi": "魔女的使命",
      "eng": "Witch Craft Works",
      "fre": "Witchcraft Works",
      "jpn": "ウィッチクラフトワークス",
      "kor": "위치 크래프트 웍스",
      "qro": "Witch Craft Works"
    },
    "modified_at": "2020-03-31T19:04:33.131Z",
    "name": "Witch Craft Works",
    "repository": "kara.moe",
    "tid": "63ad8f9b-8599-4f7d-9848-b05db0024893",
    "types": [
      "series",
      "1"
    ]
  }
}