{
  "header": {
    "description": "Karaoke Mugen Tag File",
    "version": 1
  },
  "tag": {
    "aliases": [
      "Cadı Avcısı Robin",
      "Cazadora de Brujas Robin",
      "Raganų Medžiotoja Robin",
      "WHR",
      "Мисливиця на відьом Робін",
      "Робин охотница на ведьм",
      "روبن صائدة السحرة",
      "魔女猎人罗宾"
    ],
    "external_database_ids": {
      "anilist": 7,
      "myanimelist": 7,
      "kitsu": 4
    },
    "i18n": {
      "bul": "Ловецът на вещери Робин",
      "eng": "Witch Hunter Robin",
      "fre": "Witch Hunter Robin",
      "ger": "Witch Hunter Robin",
      "ita": "Witch Hunter Robin",
      "jpn": "ウィッチハンター ロビン",
      "por": "Witch Hunter Robin",
      "qro": "Witch Hunter Robin"
    },
    "modified_at": "2020-06-21T23:45:31.966Z",
    "name": "Witch Hunter Robin",
    "repository": "kara.moe",
    "tid": "94bf150d-1110-484d-bb2a-d8e04d84eb6c",
    "types": [
      "series",
      "1"
    ]
  }
}