{
  "header": {
    "description": "Karaoke Mugen Tag File",
    "version": 1
  },
  "tag": {
    "i18n": {
      "eng": "Within Temptation"
    },
    "modified_at": "2021-06-06T00:32:19.404Z",
    "name": "Within Temptation",
    "repository": "kara.moe",
    "tid": "258c3d42-f4a8-4a60-93b4-049260f732dc",
    "types": [
      "singers",
      "2"
    ]
  }
}