{
  "header": {
    "description": "Karaoke Mugen Tag File",
    "version": 1
  },
  "tag": {
    "external_database_ids": {
      "anilist": 20053,
      "myanimelist": 20053,
      "kitsu": 7898
    },
    "i18n": {
      "chi": "WIZARD BARRISTERS~弁魔士赛希尔",
      "eng": "Wizard Barristers",
      "fre": "Wizard Barristers",
      "jpn": "ウィザード・バリスターズ 弁魔士セシル",
      "kor": "위저드 배리스터즈: 변마사 세실",
      "qro": "Wizard Barristers Benmashi Cecil"
    },
    "modified_at": "2020-03-31T19:04:33.134Z",
    "name": "Wizard Barristers Benmashi Cecil",
    "repository": "kara.moe",
    "tid": "642b956c-0c3c-48fc-9011-a86da9a4bc67",
    "types": [
      "series",
      "1"
    ]
  }
}