{
  "header": {
    "description": "Karaoke Mugen Tag File",
    "version": 1
  },
  "tag": {
    "i18n": {
      "afr": "Die waalse",
      "amh": "Walloon",
      "ara": "والون",
      "aze": "Валлония",
      "bak": "Валлония",
      "bel": "Валонія",
      "bul": "Валлония",
      "ben": "ওয়ালুন",
      "bos": "Ukrajinski",
      "cat": "Való",
      "cze": "Valonská",
      "wel": "Walloon",
      "dan": "Vallonske",
      "ger": "Die Wallonische",
      "gre": "Γουαλούν",
      "eng": "Walloon",
      "epo": "Valona",
      "spa": "Valona",
      "est": "Vallooni",
      "baq": "Walloon",
      "per": "والونی",
      "fin": "Vallonian",
      "fre": "Wallon",
      "gle": "Vallúnais",
      "gla": "Walloon",
      "glg": "Walloon",
      "guj": "વાલૂન",
      "heb": "ולונית",
      "hin": "Walloon",
      "hrv": "Валлония",
      "hat": "Walloon",
      "hun": "Vallon",
      "arm": "Валлония",
      "ind": "Walloon",
      "ice": "Íslenska",
      "ita": "Vallone",
      "jpn": "エ",
      "jav": "Walloon",
      "geo": "Walloon",
      "kaz": "Валлония",
      "kan": "ವಾಲೂನ್",
      "kor": "왈룬",
      "kir": "Валлония",
      "lat": "Vallonica",
      "lit": "Valonijos",
      "lav": "Valonijas",
      "mlg": "Zavatra",
      "mao": "Walloon",
      "mac": "Walloon",
      "mal": "വലൂണ്name",
      "mon": "Walloon",
      "mar": "स्कॉटिश",
      "may": "Walloon",
      "mlt": "Walloon",
      "nep": "वालोन",
      "dut": "Waals",
      "nor": "Vallonsk",
      "pan": "ਵਲੂਨੀ",
      "pol": "Walonia",
      "por": "Valónia",
      "rum": "Valonă",
      "rus": "Валлония",
      "sin": "Walloon",
      "slo": "Väzba",
      "slv": "Valonska",
      "alb": "Walloon",
      "srp": "Валлония",
      "sun": "Walloon",
      "swe": "Vallonska",
      "swa": "Kiswahili",
      "tam": "ஒவாலூன்",
      "tel": "వాలూన్",
      "tgk": "Валлония",
      "tha": "ภาษาวัลลูน name",
      "tgl": "Walloon",
      "tur": "Valon",
      "tat": "Валлония",
      "ukr": "Валлонія",
      "urd": "Walloon",
      "uzb": "Walloon",
      "vie": "Walloon",
      "xho": "Walloon",
      "yid": "וואַללאָאָן",
      "chi": "瓦隆大区"
    },
    "name": "wln",
    "tid": "c09a96b1-364a-46c2-a5a3-af6e96cc2a90",
    "types": [
      "langs",
      "5"
    ],
    "repository": "kara.moe",
    "modified_at": "2020-03-31T19:04:38.475Z"
  }
}