{
  "header": {
    "description": "Karaoke Mugen Tag File",
    "version": 1
  },
  "tag": {
    "i18n": {
      "eng": "WoGa"
    },
    "name": "WoGa",
    "repository": "kara.moe",
    "tid": "4fff5cee-8770-4e49-9ffa-df8410062c10",
    "types": [
      "creators",
      "4"
    ]
  }
}