{
  "header": {
    "description": "Karaoke Mugen Tag File",
    "version": 1
  },
  "tag": {
    "i18n": {
      "eng": "wogura"
    },
    "name": "wogura",
    "repository": "kara.moe",
    "tid": "aa4702ba-bef8-4802-a23f-6b1f629a0a7f",
    "types": [
      "creators",
      "4"
    ]
  }
}