{
  "header": {
    "description": "Karaoke Mugen Tag File",
    "version": 1
  },
  "tag": {
    "i18n": {
      "eng": "Wolfgang Amadeus Mozart"
    },
    "name": "Wolfgang Amadeus Mozart",
    "tid": "bd644a26-6437-409f-92d0-0f49465a6e0e",
    "types": [
      "songwriters",
      "8"
    ],
    "repository": "kara.moe",
    "modified_at": "2020-03-31T19:04:38.477Z"
  }
}