{
  "header": {
    "description": "Karaoke Mugen Tag File",
    "version": 1
  },
  "tag": {
    "i18n": {
      "eng": "WolfJunk"
    },
    "name": "WolfJunk",
    "tid": "b969f379-f046-4f83-9040-a48724e8ce6d",
    "types": [
      "songwriters",
      "8"
    ],
    "repository": "kara.moe",
    "modified_at": "2020-03-31T19:04:38.478Z"
  }
}