{
  "header": {
    "description": "Karaoke Mugen Tag File",
    "version": 1
  },
  "tag": {
    "i18n": {
      "eng": "WOOMA"
    },
    "name": "WOOMA",
    "repository": "kara.moe",
    "tid": "3ee5b233-b309-4032-a7fb-2d3eb9128d28",
    "types": [
      "creators",
      "4"
    ]
  }
}