{
  "header": {
    "description": "Karaoke Mugen Tag File",
    "version": 1
  },
  "tag": {
    "aliases": [
      "Project Wooser 3"
    ],
    "external_database_ids": {
      "anilist": 20999,
      "myanimelist": 29017,
      "kitsu": 10138
    },
    "i18n": {
      "eng": "Wooser's Hand-to-Mouth Life: Phantasmagoric Arc",
      "jpn": "うーさーのその日暮らし 夢幻編",
      "chi": "兔宝的悲惨日常 梦幻篇",
      "qro": "Wooser no Sono Higurashi Mugen Hen"
    },
    "modified_at": "2021-03-09T17:46:34.959Z",
    "name": "Wooser no Sono Higurashi Mugen Hen",
    "repository": "kara.moe",
    "tid": "96f47b50-19d0-44e8-8fa8-65883602cdb2",
    "types": [
      "series",
      "1"
    ]
  }
}