{
  "header": {
    "description": "Karaoke Mugen Tag File",
    "version": 1
  },
  "tag": {
    "aliases": [
      "Working S3",
      "Working!! 3"
    ],
    "external_database_ids": {
      "anilist": 20819,
      "myanimelist": 25879,
      "kitsu": 8712
    },
    "i18n": {
      "eng": "Wagnaria!! 3",
      "fre": "Working!!!",
      "jpn": "WORKING!!!",
      "qro": "Working!!!"
    },
    "modified_at": "2020-03-31T19:04:33.135Z",
    "name": "Working!!!",
    "repository": "kara.moe",
    "tid": "ceaa4e85-5f98-47cd-9735-3c748ec133d3",
    "types": [
      "series",
      "1"
    ]
  }
}