{
  "header": {
    "description": "Karaoke Mugen Tag File",
    "version": 1
  },
  "tag": {
    "i18n": {
      "qro": "World Dai Star: Yume no Stellarium",
      "jpn": "ワールドダイスター 夢のステラリウム"
    },
    "name": "World Dai Star: Yume no Stellarium",
    "repository": "kara.moe",
    "tid": "2d884cf8-1ce8-4a4b-b5eb-9dfba1a1beb0",
    "types": [
      "series",
      "1"
    ]
  }
}