{
  "header": {
    "description": "Karaoke Mugen Tag File",
    "version": 1
  },
  "tag": {
    "i18n": {
      "eng": "World End Economica ‒ Episode 3",
      "jpn": "WORLD END ECONOMiCA episode.03",
      "qro": "World End Economica Episode 3"
    },
    "modified_at": "2020-03-31T19:04:33.140Z",
    "name": "World End Economica Episode 3",
    "repository": "kara.moe",
    "tid": "10854812-0dc0-41cb-a67a-e3a1747d524f",
    "types": [
      "series",
      "1"
    ]
  }
}