{
  "header": {
    "description": "Karaoke Mugen Tag File",
    "version": 1
  },
  "tag": {
    "i18n": {
      "eng": "World End Economica"
    },
    "name": "World End Economica",
    "repository": "kara.moe",
    "tid": "15a157f2-02d4-488a-a625-054096e8e5a1",
    "types": [
      "franchises",
      "18"
    ]
  }
}