{
  "header": {
    "description": "Karaoke Mugen Tag File",
    "version": 1
  },
  "tag": {
    "i18n": {
      "eng": "World End Economica ‒ Episode 1",
      "jpn": "WORLD END ECONOMiCA episode.01",
      "qro": "World End Economica Episode 1"
    },
    "modified_at": "2020-03-31T19:04:33.139Z",
    "name": "World End Economica Episode 1",
    "repository": "kara.moe",
    "tid": "45ddee86-55ff-4af0-96b8-75ed659e38de",
    "types": [
      "series",
      "1"
    ]
  }
}