{
  "header": {
    "description": "Karaoke Mugen Tag File",
    "version": 1
  },
  "tag": {
    "aliases": [
      "WoWp"
    ],
    "i18n": {
      "eng": "World of Warplanes"
    },
    "modified_at": "2021-10-12T15:07:57.636Z",
    "name": "World of Warplanes",
    "repository": "kara.moe",
    "tid": "1eaa4e1f-b4cc-46d8-9afc-a3ed052914f7",
    "types": [
      "series",
      "1"
    ]
  }
}