{
  "header": {
    "description": "Karaoke Mugen Tag File",
    "version": 1
  },
  "tag": {
    "i18n": {
      "eng": "wowaka"
    },
    "name": "wowaka",
    "tid": "b08f2c69-8493-4187-a86d-495b91f1a6a5",
    "types": [
      "songwriters",
      "8",
      "creators",
      "4"
    ],
    "repository": "kara.moe",
    "modified_at": "2020-03-31T19:04:38.482Z"
  }
}