{
  "header": {
    "description": "Karaoke Mugen Tag File",
    "version": 1
  },
  "tag": {
    "i18n": {
      "eng": "WSS Playground"
    },
    "name": "WSS Playground",
    "repository": "kara.moe",
    "tid": "46a36dbc-e808-4e66-a5a6-24410d26abdb",
    "types": [
      "creators",
      "4"
    ]
  }
}