{
  "header": {
    "description": "Karaoke Mugen Tag File",
    "version": 1
  },
  "tag": {
    "external_database_ids": {
      "anilist": 159490,
      "kitsu": 46919,
      "myanimelist": 54029
    },
    "i18n": {
      "eng": "Scissor Seven: Shadow Fate",
      "chi": "伍六七之暗影宿命",
      "qro": "Wu Liuqi: Anying Suming"
    },
    "name": "Wu Liuqi: Anying Suming",
    "repository": "kara.moe",
    "tid": "019ef626-eb2a-4c6d-baf7-61cdcfa35128",
    "types": [
      "series",
      "1"
    ]
  }
}