{
  "header": {
    "description": "Karaoke Mugen Tag File",
    "version": 1
  },
  "tag": {
    "i18n": {
      "eng": "Wuyontana",
      "chi": "ウヨンタナ"
    },
    "name": "Wuyontana",
    "repository": "kara.moe",
    "tid": "267604f3-f697-459a-9529-b0a70bb9c1f4",
    "types": [
      "singers",
      "2",
      "songwriters",
      "8"
    ]
  }
}