{
  "header": {
    "description": "Karaoke Mugen Tag File",
    "version": 1
  },
  "tag": {
    "i18n": {
      "eng": "WWE"
    },
    "modified_at": "2020-07-16T16:40:19.488Z",
    "name": "WWE",
    "repository": "kara.moe",
    "tid": "cb9424d8-75d2-458a-9904-48afacca9d23",
    "types": [
      "creators",
      "4"
    ]
  }
}