{
  "header": {
    "description": "Karaoke Mugen Tag File",
    "version": 1
  },
  "tag": {
    "i18n": {
      "eng": "xaki"
    },
    "modified_at": "2021-04-21T15:38:27.103Z",
    "name": "xaki",
    "repository": "kara.moe",
    "tid": "99d41ac2-7a67-4ef2-95a3-b170343ab909",
    "types": [
      "songwriters",
      "8",
      "singers",
      "2"
    ]
  }
}