{
  "header": {
    "description": "Karaoke Mugen Tag File",
    "version": 1
  },
  "tag": {
    "i18n": {
      "eng": "Xano Yuuki"
    },
    "name": "Xano Yuuki",
    "repository": "kara.moe",
    "tid": "be294a6f-f41b-4c30-94f1-e56b77eb866d",
    "types": [
      "songwriters",
      "8"
    ]
  }
}