{
  "header": {
    "description": "Karaoke Mugen Tag File",
    "version": 1
  },
  "tag": {
    "i18n": {
      "eng": "Xavier Wielemans"
    },
    "name": "Xavier Wielemans",
    "tid": "5d768bec-bed3-4365-9991-67e8b751f536",
    "types": [
      "singers",
      "2"
    ],
    "repository": "kara.moe",
    "modified_at": "2020-03-31T19:04:38.486Z"
  }
}