{
  "header": {
    "description": "Karaoke Mugen Tag File",
    "version": 1
  },
  "tag": {
    "i18n": {
      "eng": ""
    },
    "name": "Xbox Series",
    "repository": "kara.moe",
    "tid": "569fdd6b-1a2c-424e-aab8-93c5891db245",
    "types": [
      "platforms",
      "13"
    ]
  }
}