{
  "header": {
    "description": "Karaoke Mugen Tag File",
    "version": 1
  },
  "tag": {
    "i18n": {
      "eng": "Xenosaga",
      "jpn": "ゼノサーガ",
      "qro": "Xenosaga"
    },
    "modified_at": "2020-03-31T19:04:33.149Z",
    "name": "Xenosaga",
    "repository": "kara.moe",
    "tid": "7d3d27f8-6c40-4162-b5cf-72f388f24997",
    "types": [
      "series",
      "1",
      "franchises",
      "18"
    ]
  }
}