{
  "header": {
    "description": "Karaoke Mugen Tag File",
    "version": 1
  },
  "tag": {
    "i18n": {
      "eng": "Xenogears",
      "jpn": "ゼノギアス",
      "qro": "Xenogears"
    },
    "modified_at": "2020-03-31T19:04:33.148Z",
    "name": "Xenogears",
    "repository": "kara.moe",
    "tid": "fee085ce-9e7b-4e80-bcf3-53b518c00e7d",
    "types": [
      "series",
      "1"
    ]
  }
}