{
  "header": {
    "description": "Karaoke Mugen Tag File",
    "version": 1
  },
  "tag": {
    "i18n": {
      "eng": "Xǐ Bǎo Gēgē",
      "chi": "喜宝哥哥"
    },
    "modified_at": "2021-03-13T16:41:30.844Z",
    "name": "Xǐ Bǎo Gēgē",
    "repository": "kara.moe",
    "tid": "4e10f1c8-5a2b-4966-8f9e-8bd30aa76654",
    "types": [
      "songwriters",
      "8"
    ]
  }
}