{
  "header": {
    "description": "Karaoke Mugen Tag File",
    "version": 1
  },
  "tag": {
    "i18n": {
      "eng": "Xin Liu Niang"
    },
    "modified_at": "2021-01-29T01:02:29.299Z",
    "name": "Xin Liu Niang",
    "repository": "kara.moe",
    "tid": "588d512c-9af8-4824-87f0-385ae1055ffd",
    "types": [
      "singers",
      "2"
    ]
  }
}