{
  "header": {
    "description": "Karaoke Mugen Tag File",
    "version": 1
  },
  "tag": {
    "i18n": {
      "eng": "xīngzhī yǔyì x"
    },
    "name": "xīngzhī yǔyì x",
    "repository": "kara.moe",
    "tid": "cb6a57e3-b856-4e3a-a285-1fce740bb449",
    "types": [
      "creators",
      "4"
    ]
  }
}