{
  "header": {
    "description": "Karaoke Mugen Tag File",
    "version": 1
  },
  "tag": {
    "i18n": {
      "eng": "XO Records"
    },
    "name": "XO Records",
    "repository": "kara.moe",
    "tid": "2f6dd22a-0717-4a1a-8882-772ae35125be",
    "types": [
      "creators",
      "4"
    ]
  }
}