{
  "header": {
    "description": "Karaoke Mugen Tag File",
    "version": 1
  },
  "tag": {
    "i18n": {
      "eng": "Y.K.C"
    },
    "name": "Y.K.C",
    "tid": "99f06b35-90d6-418c-9ae8-dd659dd617e0",
    "types": [
      "songwriters",
      "8"
    ],
    "repository": "kara.moe",
    "modified_at": "2020-03-31T19:04:38.494Z"
  }
}