{
  "header": {
    "description": "Karaoke Mugen Tag File",
    "version": 1
  },
  "tag": {
    "i18n": {
      "eng": "Yabuki Town"
    },
    "name": "Yabuki Town",
    "repository": "kara.moe",
    "tid": "9983bdb1-21ee-48d4-b956-e36f67a00fdd",
    "types": [
      "creators",
      "4"
    ]
  }
}