{
  "header": {
    "description": "Karaoke Mugen Tag File",
    "version": 1
  },
  "tag": {
    "i18n": {
      "eng": "Yabushima Akane"
    },
    "name": "Yabushima Akane",
    "repository": "kara.moe",
    "tid": "d8060e7f-5362-405e-9e83-b9c854ca6e3c",
    "types": [
      "singers",
      "2"
    ]
  }
}