{
  "header": {
    "description": "Karaoke Mugen Tag File",
    "version": 1
  },
  "tag": {
    "i18n": {
      "eng": "Yamaha Music Communications"
    },
    "modified_at": "2020-07-22T20:08:14.769Z",
    "name": "Yamaha Music Communications",
    "repository": "kara.moe",
    "tid": "0fb05bae-0efa-465b-b8f8-bb033194c178",
    "types": [
      "creators",
      "4"
    ]
  }
}