{
  "header": {
    "description": "Karaoke Mugen Tag File",
    "version": 1
  },
  "tag": {
    "aliases": [
      "Shiro Bako",
      "Shirobako"
    ],
    "i18n": {
      "eng": "Yama Harinezumi Andes Chucky",
      "jpn": "山はりねずみアンデスチャッキー",
      "qro": "Yama Harinezumi Andes Chucky"
    },
    "modified_at": "2020-03-31T19:04:33.155Z",
    "name": "Yama Harinezumi Andes Chucky",
    "repository": "kara.moe",
    "tid": "61565d1c-41ac-4acc-bb8b-8cae11b1c47a",
    "types": [
      "series",
      "1"
    ]
  }
}