{
  "header": {
    "description": "Karaoke Mugen Tag File",
    "version": 1
  },
  "tag": {
    "i18n": {
      "eng": "Yamate Kiseki"
    },
    "name": "Yamate Kiseki",
    "repository": "kara.moe",
    "tid": "7130f77b-7485-42cd-bb16-ea5a8f546c34",
    "types": [
      "singers",
      "2"
    ]
  }
}