{
  "header": {
    "description": "Karaoke Mugen Tag File",
    "version": 1
  },
  "tag": {
    "i18n": {
      "eng": "Yamada Azuki"
    },
    "name": "Yamada Azuki",
    "repository": "kara.moe",
    "tid": "5bbaf9da-e2ee-4e22-ba8b-04f58f74c65a",
    "types": [
      "singers",
      "2"
    ]
  }
}