{
  "header": {
    "description": "Karaoke Mugen Tag File",
    "version": 1
  },
  "tag": {
    "i18n": {
      "eng": "Yamato Masaoka"
    },
    "modified_at": "2021-01-20T11:22:51.266Z",
    "name": "Yamato Masaoka",
    "repository": "kara.moe",
    "tid": "c3573160-f3ba-4d1a-a51c-5804319cc7ae",
    "types": [
      "songwriters",
      "8"
    ]
  }
}