{
  "header": {
    "description": "Karaoke Mugen Tag File",
    "version": 1
  },
  "tag": {
    "external_database_ids": {
      "anilist": 154965,
      "kitsu": 46529,
      "myanimelist": 53126
    },
    "i18n": {
      "eng": "My Love Story with Yamada-kun at Lv999",
      "qro": "Yamada-kun to Lv999 no Koi wo Suru",
      "jpn": "山田くんとLv999の恋をする",
      "fre": "Mon histoire d'amour avec Yamada à Lv999"
    },
    "name": "Yamada-kun to Lv999 no Koi wo Suru",
    "repository": "kara.moe",
    "tid": "5dd3634c-b3d8-44d1-b95e-58aeda2110c5",
    "types": [
      "series",
      "1"
    ]
  }
}