{
  "header": {
    "description": "Karaoke Mugen Tag File",
    "version": 1
  },
  "tag": {
    "i18n": {
      "eng": "Yamano Satoko"
    },
    "name": "Yamano Satoko",
    "tid": "e43e6016-651d-4130-a199-79b41d0a9c4c",
    "types": [
      "singers",
      "2"
    ],
    "repository": "kara.moe",
    "modified_at": "2020-03-31T19:04:38.503Z"
  }
}