{
  "header": {
    "description": "Karaoke Mugen Tag File",
    "version": 1
  },
  "tag": {
    "i18n": {
      "eng": "Yamazaru"
    },
    "name": "Yamazaru",
    "tid": "ffc12c83-ffd1-4c42-8980-cd5853c60b0e",
    "types": [
      "singers",
      "2",
      "songwriters",
      "8"
    ],
    "repository": "kara.moe",
    "modified_at": "2020-03-31T19:04:38.505Z"
  }
}