{
  "header": {
    "description": "Karaoke Mugen Tag File",
    "version": 1
  },
  "tag": {
    "aliases": [
      "Japanese Ghost Stories Fifth Season",
      "Yamishibai"
    ],
    "external_database_ids": {
      "anilist": 98978,
      "kitsu": 13576,
      "myanimelist": 35714
    },
    "i18n": {
      "eng": "Theater of Darkness 5th Season",
      "jpn": "闇芝居 5期",
      "qro": "Yami Shibai 5 ki"
    },
    "name": "Yami Shibai 5",
    "repository": "kara.moe",
    "tid": "bf0e8c1c-78bd-41db-a417-d41d021ca397",
    "types": [
      "series",
      "1"
    ]
  }
}