{
  "header": {
    "description": "Karaoke Mugen Tag File",
    "version": 1
  },
  "tag": {
    "i18n": {
      "eng": "Yang Jeong-in",
      "kor": "양정인"
    },
    "name": "Yang Jeong-in",
    "repository": "kara.moe",
    "tid": "f71a419f-3e10-4a58-a158-bff7a18bc5cc",
    "types": [
      "singers",
      "2"
    ]
  }
}