{
  "header": {
    "description": "Karaoke Mugen Tag File",
    "version": 1
  },
  "tag": {
    "i18n": {
      "eng": "Yang Yang"
    },
    "name": "Yang Yang",
    "repository": "kara.moe",
    "tid": "2ba2015a-f382-4c90-b8c7-c5cb3bef2aae",
    "types": [
      "singers",
      "2"
    ]
  }
}