{
  "header": {
    "description": "Karaoke Mugen Tag File",
    "version": 1
  },
  "tag": {
    "i18n": {
      "eng": "Yang Bingyin"
    },
    "modified_at": "2021-06-19T21:19:47.434Z",
    "name": "Yang Bingyin",
    "repository": "kara.moe",
    "tid": "7b03ec63-2c5a-41d2-94ec-dc33521c6fdc",
    "types": [
      "songwriters",
      "8"
    ]
  }
}