{
  "header": {
    "description": "Karaoke Mugen Tag File",
    "version": 1
  },
  "tag": {
    "i18n": {
      "eng": "Yang Yo Seop"
    },
    "name": "Yang Yo Seop",
    "tid": "166f8584-f375-44c6-98fd-7cea38dde08a",
    "types": [
      "singers",
      "2"
    ],
    "repository": "kara.moe",
    "modified_at": "2020-03-31T19:04:38.509Z"
  }
}