{
  "header": {
    "description": "Karaoke Mugen Tag File",
    "version": 1
  },
  "tag": {
    "i18n": {
      "eng": "Yannick Fournier"
    },
    "name": "Yannick Fournier",
    "tid": "3ad15896-97f4-4194-b530-eaf257508711",
    "types": [
      "songwriters",
      "8"
    ],
    "repository": "kara.moe",
    "modified_at": "2020-03-31T19:04:38.511Z"
  }
}