{
  "header": {
    "description": "Karaoke Mugen Tag File",
    "version": 1
  },
  "tag": {
    "i18n": {
      "eng": "Yannick Crémer"
    },
    "name": "Yannick Crémer",
    "tid": "2cd99a28-fad7-404d-af64-3232964095e2",
    "types": [
      "songwriters",
      "8"
    ],
    "repository": "kara.moe",
    "modified_at": "2020-03-31T19:04:38.511Z"
  }
}