{
  "header": {
    "description": "Karaoke Mugen Tag File",
    "version": 1
  },
  "tag": {
    "external_database_ids": {
      "anilist": 101374,
      "myanimelist": 37585,
      "kitsu": 41113
    },
    "i18n": {
      "eng": "Yarichin Bitch Club",
      "jpn": "ヤリチン☆ビッチ部",
      "qro": "Yarichin Bitch Bu"
    },
    "name": "Yarichin Bitch Bu",
    "repository": "kara.moe",
    "tid": "7f770637-d5d3-4f7b-a520-976459f33169",
    "types": [
      "series",
      "1"
    ]
  }
}