{
  "header": {
    "description": "Karaoke Mugen Tag File",
    "version": 1
  },
  "tag": {
    "i18n": {
      "eng": "Yasaharu Nakanishi"
    },
    "modified_at": "2020-12-15T23:20:26.615Z",
    "name": "Yasaharu Nakanishi",
    "repository": "kara.moe",
    "tid": "79bdaa67-fdb1-4d90-82d0-c982beebe4d6",
    "types": [
      "songwriters",
      "8"
    ]
  }
}