{
  "header": {
    "description": "Karaoke Mugen Tag File",
    "version": 1
  },
  "tag": {
    "i18n": {
      "eng": "Yasmin Shah"
    },
    "name": "Yasmin Shah",
    "repository": "kara.moe",
    "tid": "cbfc383c-9e3e-4290-b323-b4da8ca44366",
    "types": [
      "songwriters",
      "8"
    ]
  }
}