{
  "header": {
    "description": "Karaoke Mugen Tag File",
    "version": 1
  },
  "tag": {
    "aliases": [
      "Keita Watanabe"
    ],
    "i18n": {
      "eng": "Yasuhiro Gasa"
    },
    "name": "Yasuhiro Gasa",
    "repository": "kara.moe",
    "tid": "c80c7e18-3a5b-4105-ac02-257ca8a9df78",
    "types": [
      "songwriters",
      "8"
    ]
  }
}