{
  "header": {
    "description": "Karaoke Mugen Tag File",
    "version": 1
  },
  "tag": {
    "i18n": {
      "eng": "yasu"
    },
    "name": "yasu",
    "tid": "85796b71-686c-4dfd-85f1-18dee8900df9",
    "types": [
      "songwriters",
      "8"
    ],
    "repository": "kara.moe",
    "modified_at": "2020-03-31T19:04:38.515Z"
  }
}