{
  "header": {
    "description": "Karaoke Mugen Tag File",
    "version": 1
  },
  "tag": {
    "i18n": {
      "eng": "Yasuaki Moriya"
    },
    "name": "Yasuaki Moriya",
    "tid": "41981a6f-bac5-41dd-9928-19c4cea23562",
    "types": [
      "songwriters",
      "8"
    ],
    "repository": "kara.moe",
    "modified_at": "2020-03-31T19:04:38.516Z"
  }
}