{
  "header": {
    "description": "Karaoke Mugen Tag File",
    "version": 1
  },
  "tag": {
    "i18n": {
      "eng": "Yasuaki Ide"
    },
    "name": "Yasuaki Ide",
    "tid": "557f7340-b56b-4783-96cf-8610ef9dda48",
    "types": [
      "singers",
      "2"
    ],
    "repository": "kara.moe",
    "modified_at": "2020-03-31T19:04:38.516Z"
  }
}