{
  "header": {
    "description": "Karaoke Mugen Tag File",
    "version": 1
  },
  "tag": {
    "i18n": {
      "eng": "Yasuhisa Inoue"
    },
    "name": "Yasuhisa Inoue",
    "repository": "kara.moe",
    "tid": "d8d34d53-cf19-4867-8b9e-ecb99604fbcc",
    "types": [
      "songwriters",
      "8"
    ]
  }
}