{
  "header": {
    "description": "Karaoke Mugen Tag File",
    "version": 1
  },
  "tag": {
    "i18n": {
      "eng": "Yasuhide Yoshida"
    },
    "name": "Yasuhide Yoshida",
    "tid": "60928b59-6e73-40bf-a776-f702155d58e9",
    "types": [
      "songwriters",
      "8"
    ],
    "repository": "kara.moe",
    "modified_at": "2020-03-31T19:04:38.519Z"
  }
}