{
  "header": {
    "description": "Karaoke Mugen Tag File",
    "version": 1
  },
  "tag": {
    "i18n": {
      "eng": "Yasutaka Nakamura"
    },
    "name": "Yasutaka Nakamura",
    "tid": "0ef031f7-42f4-49fc-ba76-15f0cef7daf1",
    "types": [
      "songwriters",
      "8"
    ],
    "repository": "kara.moe",
    "modified_at": "2020-03-31T19:04:38.536Z"
  }
}