{
  "header": {
    "description": "Karaoke Mugen Tag File",
    "version": 1
  },
  "tag": {
    "i18n": {
      "eng": "Yasuhiro Mizushima"
    },
    "name": "Yasuhiro Mizushima",
    "tid": "7cdd73e1-0725-4073-9550-0874fbc24392",
    "types": [
      "singers",
      "2"
    ],
    "repository": "kara.moe",
    "modified_at": "2020-03-31T19:04:38.524Z"
  }
}