{
  "header": {
    "description": "Karaoke Mugen Tag File",
    "version": 1
  },
  "tag": {
    "i18n": {
      "eng": "Yasuhide Ito"
    },
    "name": "Yasuhide Ito",
    "repository": "kara.moe",
    "tid": "f07e73de-f4ff-4d42-ac80-73f50ae0aa17",
    "types": [
      "songwriters",
      "8"
    ]
  }
}