{
  "header": {
    "description": "Karaoke Mugen Tag File",
    "version": 1
  },
  "tag": {
    "i18n": {
      "eng": "Yasuo Sugiyama"
    },
    "name": "Yasuo Sugiyama",
    "tid": "37fb352a-3ae2-4bae-a294-11dcf7ade6c6",
    "types": [
      "songwriters",
      "8"
    ],
    "repository": "kara.moe",
    "modified_at": "2020-03-31T19:04:38.531Z"
  }
}