{
  "header": {
    "description": "Karaoke Mugen Tag File",
    "version": 1
  },
  "tag": {
    "i18n": {
      "eng": "Yasushi Ishii"
    },
    "name": "Yasushi Ishii",
    "tid": "cd876de1-16cd-4f0c-9866-a67a973b78f2",
    "types": [
      "singers",
      "2",
      "songwriters",
      "8"
    ],
    "repository": "kara.moe",
    "modified_at": "2020-03-31T19:04:38.533Z"
  }
}