{
  "header": {
    "description": "Karaoke Mugen Tag File",
    "version": 1
  },
  "tag": {
    "i18n": {
      "eng": "Yasushi Akimoto"
    },
    "name": "Yasushi Akimoto",
    "tid": "19045a57-4bc4-4c83-ad1c-3fa9a3b701b1",
    "types": [
      "songwriters",
      "8"
    ],
    "repository": "kara.moe",
    "modified_at": "2020-03-31T19:04:38.532Z"
  }
}