{
  "header": {
    "description": "Karaoke Mugen Tag File",
    "version": 1
  },
  "tag": {
    "i18n": {
      "eng": "Yasuo Kosugi"
    },
    "name": "Yasuo Kosugi",
    "tid": "285df0bd-134b-4b8a-95b1-7dbc278df8fa",
    "types": [
      "songwriters",
      "8"
    ],
    "repository": "kara.moe",
    "modified_at": "2020-03-31T19:04:38.530Z"
  }
}