{
  "header": {
    "description": "Karaoke Mugen Tag File",
    "version": 1
  },
  "tag": {
    "i18n": {
      "eng": "Yasushi Kawai"
    },
    "name": "Yasushi Kawai",
    "repository": "kara.moe",
    "tid": "f5881a16-b248-42c6-aee9-c7894449efc0",
    "types": [
      "songwriters",
      "8"
    ]
  }
}