{
  "header": {
    "description": "Karaoke Mugen Tag File",
    "version": 1
  },
  "tag": {
    "i18n": {
      "eng": "Yasunori Ide"
    },
    "name": "Yasunori Ide",
    "tid": "060c2592-8c72-4bb8-958a-fc33688ccaba",
    "types": [
      "songwriters",
      "8"
    ],
    "repository": "kara.moe",
    "modified_at": "2020-03-31T19:04:38.526Z"
  }
}