{
  "header": {
    "description": "Karaoke Mugen Tag File",
    "version": 1
  },
  "tag": {
    "i18n": {
      "eng": "Yasuo Higuchi"
    },
    "name": "Yasuo Higuchi",
    "tid": "1bd6bdf3-2d8f-4607-852e-f7da5e8de4b1",
    "types": [
      "songwriters",
      "8"
    ],
    "repository": "kara.moe",
    "modified_at": "2020-03-31T19:04:38.529Z"
  }
}