{
  "header": {
    "description": "Karaoke Mugen Tag File",
    "version": 1
  },
  "tag": {
    "i18n": {
      "eng": "Yasuko Kamoshita"
    },
    "name": "Yasuko Kamoshita",
    "tid": "5ed0299a-1836-48b8-821c-6338be25b03c",
    "types": [
      "singers",
      "2"
    ],
    "repository": "kara.moe",
    "modified_at": "2020-03-31T19:04:38.525Z"
  }
}