{
  "header": {
    "description": "Karaoke Mugen Tag File",
    "version": 1
  },
  "tag": {
    "external_database_ids": {},
    "i18n": {
      "jpn": "ヤッターマン",
      "qro": "Yatterman"
    },
    "name": "Yatterman",
    "repository": "kara.moe",
    "tid": "7af74336-e631-48b9-af17-948725850f46",
    "types": [
      "franchises",
      "18"
    ]
  }
}