{
  "header": {
    "description": "Karaoke Mugen Tag File",
    "version": 1
  },
  "tag": {
    "i18n": {
      "eng": "YAWMIN"
    },
    "modified_at": "2021-03-08T21:27:41.078Z",
    "name": "YAWMIN",
    "repository": "kara.moe",
    "tid": "55fe7bdd-c8f3-4bf3-adf5-9c2840c60a82",
    "types": [
      "songwriters",
      "8",
      "singers",
      "2"
    ]
  }
}