{
  "header": {
    "description": "Karaoke Mugen Tag File",
    "version": 1
  },
  "tag": {
    "i18n": {
      "eng": "Yazawa Eikichi"
    },
    "name": "Yazawa Eikichi",
    "repository": "kara.moe",
    "tid": "d50ab17b-877f-4cfe-a9ca-51276a25ce07",
    "types": [
      "singers",
      "2"
    ]
  }
}