{
  "header": {
    "description": "Karaoke Mugen Tag File",
    "version": 1
  },
  "tag": {
    "i18n": {
      "eng": "YAZIMA Biyoushitsu"
    },
    "name": "YAZIMA Biyoushitsu",
    "tid": "6cadb8e7-9465-40b3-aa00-9e69927384bb",
    "types": [
      "songwriters",
      "8",
      "singers",
      "2"
    ],
    "repository": "kara.moe",
    "modified_at": "2020-03-31T19:04:38.539Z"
  }
}