{
  "header": {
    "description": "Karaoke Mugen Tag File",
    "version": 1
  },
  "tag": {
    "i18n": {
      "eng": "Yes vous aime"
    },
    "name": "Yes vous aime",
    "repository": "kara.moe",
    "tid": "6d149bd9-1f8e-467b-81d6-6090d21e09c5",
    "types": [
      "creators",
      "4",
      "singers",
      "2",
      "songwriters",
      "8"
    ],
    "modified_at": "2020-03-31T19:04:38.542Z"
  }
}