{
  "header": {
    "description": "Karaoke Mugen Tag File",
    "version": 1
  },
  "tag": {
    "aliases": [
      "Pretty Cure"
    ],
    "i18n": {
      "eng": "Yes! PreCure 5 GoGo! Zenin Shu Go! Dream Festival",
      "jpn": "Yes! プリキュア 5 GoGo! ・ 全員しゅーGO! ドリームフェスティバル",
      "qro": "Yes! Precure 5 GoGo! Zenin Shu Go! Dream Festival"
    },
    "modified_at": "2021-02-28T02:37:13.054Z",
    "name": "Yes! Precure 5 GoGo! Zenin Shu Go! Dream Festival",
    "repository": "kara.moe",
    "tid": "81c439ed-143c-43de-a1df-260884d207ab",
    "types": [
      "series",
      "1"
    ]
  }
}