{
  "header": {
    "description": "Karaoke Mugen Tag File",
    "version": 1
  },
  "tag": {
    "external_database_ids": {
      "anilist": 109020,
      "myanimelist": 39710,
      "kitsu": 43063
    },
    "i18n": {
      "eng": "Sing \"Yesterday\" for Me",
      "jpn": "イエスタデイをうたって",
      "qro": "Yesterday wo Utatte"
    },
    "modified_at": "2020-05-18T20:09:35.353Z",
    "name": "Yesterday wo Utatte",
    "repository": "kara.moe",
    "tid": "5262b626-f3ea-48d2-9fcd-ef40614e553c",
    "types": [
      "series",
      "1"
    ]
  }
}