{
  "header": {
    "description": "Karaoke Mugen Tag File",
    "version": 1
  },
  "tag": {
    "i18n": {
      "eng": "Yewon Park"
    },
    "name": "Yewon Park",
    "repository": "kara.moe",
    "tid": "0d6802be-20fd-4d02-a40e-567c2e649cd1",
    "types": [
      "creators",
      "4"
    ]
  }
}