{
  "header": {
    "description": "Karaoke Mugen Tag File",
    "version": 1
  },
  "tag": {
    "i18n": {
      "eng": "Yéyé Liquini"
    },
    "name": "Yéyé Liquini",
    "tid": "80b01942-8c94-4d11-b97f-2eadb1bcfdd1",
    "types": [
      "singers",
      "2",
      "songwriters",
      "8"
    ],
    "repository": "kara.moe",
    "modified_at": "2020-03-31T19:04:38.543Z"
  }
}