{
  "header": {
    "description": "Karaoke Mugen Tag File",
    "version": 1
  },
  "tag": {
    "i18n": {
      "eng": "yī dù mǒu mǒu yī"
    },
    "name": "yī dù mǒu mǒu yī",
    "repository": "kara.moe",
    "tid": "afd26020-8bd8-438a-858f-aefc9699b428",
    "types": [
      "creators",
      "4"
    ]
  }
}