{
  "header": {
    "description": "Karaoke Mugen Tag File",
    "version": 1
  },
  "tag": {
    "i18n": {
      "eng": "Ylnoryn"
    },
    "name": "Ylnoryn",
    "repository": "kara.moe",
    "tid": "fdd0c00e-6501-4e49-860a-2e85c187b497",
    "types": [
      "authors",
      "6"
    ]
  }
}