{
  "header": {
    "description": "Karaoke Mugen Tag File",
    "version": 1
  },
  "tag": {
    "i18n": {
      "eng": "Yo-ba"
    },
    "name": "Yo-ba",
    "repository": "kara.moe",
    "tid": "6223f45f-4dc5-481c-bace-cb0918999aaa",
    "types": [
      "creators",
      "4"
    ]
  }
}