{
  "header": {
    "description": "Karaoke Mugen Tag File",
    "version": 1
  },
  "tag": {
    "external_database_ids": {
      "anilist": 20936,
      "myanimelist": 24591,
      "kitsu": 8813
    },
    "i18n": {
      "fre": "Yo-kai Watch Le Film"
    },
    "modified_at": "2020-03-31T19:04:33.163Z",
    "name": "Yo-kai Watch Le Film",
    "repository": "kara.moe",
    "tid": "5e6564a9-7308-4c87-a5fd-28cd9c3f734e",
    "types": [
      "series",
      "1"
    ]
  }
}