{
  "header": {
    "description": "Karaoke Mugen Tag File",
    "version": 1
  },
  "tag": {
    "aliases": [
      "Ikura",
      "Ayase"
    ],
    "i18n": {
      "eng": "YOASOBI"
    },
    "name": "YOASOBI",
    "repository": "kara.moe",
    "tid": "e028a7e9-d3f2-4df7-a6ba-c7f78e98b549",
    "types": [
      "singergroups",
      "17"
    ]
  }
}