{
  "header": {
    "description": "Karaoke Mugen Tag File",
    "version": 1
  },
  "tag": {
    "i18n": {
      "eng": "YOFFY"
    },
    "name": "YOFFY",
    "tid": "2b187003-4a47-4f76-9583-fae23a7964f6",
    "types": [
      "songwriters",
      "8"
    ],
    "repository": "kara.moe",
    "modified_at": "2020-03-31T19:04:38.548Z"
  }
}