{
  "header": {
    "description": "Karaoke Mugen Tag File",
    "version": 1
  },
  "tag": {
    "i18n": {
      "eng": "Yogurting",
      "jpn": "ヨーグルティング",
      "kor": "요구르팅",
      "qro": "Yogurting"
    },
    "modified_at": "2020-03-31T19:04:33.166Z",
    "name": "Yogurting",
    "repository": "kara.moe",
    "tid": "43ca0699-bee9-4d02-b173-1c6626fb9eca",
    "types": [
      "series",
      "1"
    ]
  }
}