{
  "header": {
    "description": "Karaoke Mugen Tag File",
    "version": 1
  },
  "tag": {
    "i18n": {
      "eng": "Yohei"
    },
    "modified_at": "2020-05-12T18:22:37.093Z",
    "name": "Yohei",
    "repository": "kara.moe",
    "tid": "48b4578d-f0b8-4d37-bcd0-07b489e211ec",
    "types": [
      "songwriters",
      "8"
    ]
  }
}