{
  "header": {
    "description": "Karaoke Mugen Tag File",
    "version": 1
  },
  "tag": {
    "i18n": {
      "eng": "yohine"
    },
    "name": "yohine",
    "tid": "fa68cb2c-d03b-4c99-b281-ab2b0f333b1c",
    "types": [
      "songwriters",
      "8"
    ],
    "repository": "kara.moe",
    "modified_at": "2020-03-31T19:04:38.550Z"
  }
}