{
  "header": {
    "description": "Karaoke Mugen Tag File",
    "version": 1
  },
  "tag": {
    "i18n": {
      "eng": "YOHKO"
    },
    "name": "YOHKO",
    "tid": "5425098a-f556-4526-8543-a6d7ff5fa8c8",
    "types": [
      "singers",
      "2"
    ],
    "repository": "kara.moe",
    "modified_at": "2020-03-31T19:04:38.551Z"
  }
}