{
  "header": {
    "description": "Karaoke Mugen Tag File",
    "version": 1
  },
  "tag": {
    "i18n": {
      "eng": "Yoiyami"
    },
    "name": "Yoiyami",
    "repository": "kara.moe",
    "tid": "b044e772-41ff-4b3d-96e6-7f4bb3b644b7",
    "types": [
      "creators",
      "4"
    ]
  }
}