{
  "header": {
    "description": "Karaoke Mugen Tag File",
    "version": 1
  },
  "tag": {
    "i18n": {
      "eng": "YOji"
    },
    "modified_at": "2020-08-08T19:13:50.578Z",
    "name": "YOji",
    "repository": "kara.moe",
    "tid": "02c9c888-a964-4a5b-b97a-af1c7dd9c3c8",
    "types": [
      "creators",
      "4"
    ]
  }
}