{
  "header": {
    "description": "Karaoke Mugen Tag File",
    "version": 1
  },
  "tag": {
    "i18n": {
      "eng": "Yoko Taro"
    },
    "name": "Yoko Taro",
    "repository": "kara.moe",
    "tid": "b081b68c-34c0-4b6f-84ca-67722f5be44d",
    "types": [
      "creators",
      "4",
      "songwriters",
      "8"
    ]
  }
}