{
  "header": {
    "description": "Karaoke Mugen Tag File",
    "version": 1
  },
  "tag": {
    "i18n": {
      "eng": "Yoko Narahashi"
    },
    "name": "Yoko Narahashi",
    "tid": "a193201b-a720-43a4-8b63-743f108dcca9",
    "types": [
      "songwriters",
      "8"
    ],
    "repository": "kara.moe",
    "modified_at": "2020-03-31T19:04:38.554Z"
  }
}