{
  "header": {
    "description": "Karaoke Mugen Tag File",
    "version": 1
  },
  "tag": {
    "i18n": {
      "eng": "Yoko Nagai"
    },
    "name": "Yoko Nagai",
    "repository": "kara.moe",
    "tid": "903d7f12-009b-4493-b5ae-97a944ec64a0",
    "types": [
      "songwriters",
      "8"
    ]
  }
}