{
  "header": {
    "description": "Karaoke Mugen Tag File",
    "version": 1
  },
  "tag": {
    "aliases": [
      "ROTK",
      "Romance of the Three Kingdoms",
      "요코야마 미츠테루 삼국지"
    ],
    "external_database_ids": {
      "anilist": 970,
      "myanimelist": 970,
      "kitsu": 860
    },
    "i18n": {
      "ara": "صقور الأرض",
      "eng": "Yokoyama Mitsuteru Sangokushi",
      "fre": "Sangokushi",
      "jpn": "横山光輝 三国志",
      "qro": "Yokoyama Mitsuteru Sangokushi"
    },
    "modified_at": "2020-03-31T19:04:33.167Z",
    "name": "Yokoyama Mitsuteru Sangokushi",
    "repository": "kara.moe",
    "tid": "76c51034-3aeb-4852-8715-7f2ae50ccf74",
    "types": [
      "series",
      "1"
    ]
  }
}