{
  "header": {
    "description": "Karaoke Mugen Tag File",
    "version": 1
  },
  "tag": {
    "aliases": [
      "Comprehensible Modern Magic",
      "Manageable Modern Magic",
      "Properly Learned Modern Magic",
      "YWGM",
      "Легко осваимая современная магия",
      "Современная магия для чайников",
      "簡單易懂的現代魔法",
      "mahou"
    ],
    "external_database_ids": {
      "anilist": 5454,
      "myanimelist": 5454,
      "kitsu": 4104
    },
    "i18n": {
      "eng": "Modern Magic Made Simple",
      "jpn": "よくわかる現代魔法",
      "qro": "Yoku Wakaru Gendai Mahô"
    },
    "modified_at": "2020-03-31T19:04:33.167Z",
    "name": "Yoku Wakaru Gendai Mahô",
    "repository": "kara.moe",
    "tid": "5769b549-5779-4a1b-a3ee-e1c321c6a5b2",
    "types": [
      "series",
      "1"
    ]
  }
}