{
  "header": {
    "description": "Karaoke Mugen Tag File",
    "version": 1
  },
  "tag": {
    "i18n": {
      "eng": "Yong Jun-hyung"
    },
    "modified_at": "2020-06-01T01:49:58.878Z",
    "name": "Yong Jun-hyung",
    "repository": "kara.moe",
    "tid": "03170ac6-8322-4ec4-a9d0-61ab1136d274",
    "types": [
      "songwriters",
      "8",
      "singers",
      "2"
    ]
  }
}