{
  "header": {
    "description": "Karaoke Mugen Tag File",
    "version": 1
  },
  "tag": {
    "aliases": [
      "Night World"
    ],
    "external_database_ids": {
      "anilist": 132283,
      "myanimelist": 48727,
      "kitsu": 44391
    },
    "i18n": {
      "eng": "Yoru no Kuni",
      "jpn": "夜の国"
    },
    "name": "Yoru no Kuni",
    "repository": "kara.moe",
    "tid": "210fd62f-f5ba-4346-8ab0-f10d02cf4300",
    "types": [
      "series",
      "1"
    ]
  }
}