{
  "header": {
    "description": "Karaoke Mugen Tag File",
    "version": 1
  },
  "tag": {
    "i18n": {
      "eng": "Yosei Teikoku"
    },
    "name": "Yosei Teikoku",
    "repository": "kara.moe",
    "tid": "e5d3a963-a3b2-499a-b3e3-a15ff66d8a1e",
    "types": [
      "songwriters",
      "8"
    ],
    "modified_at": "2020-03-31T19:04:38.567Z"
  }
}