{
  "header": {
    "description": "Karaoke Mugen Tag File",
    "version": 1
  },
  "tag": {
    "i18n": {
      "eng": "Yoshinori Wataribe"
    },
    "modified_at": "2021-06-13T22:22:52.637Z",
    "name": "Yoshinori Wataribe",
    "repository": "kara.moe",
    "tid": "a214b460-b909-47d6-92f8-f5315d89927f",
    "types": [
      "songwriters",
      "8"
    ]
  }
}