{
  "header": {
    "description": "Karaoke Mugen Tag File",
    "version": 1
  },
  "tag": {
    "i18n": {
      "eng": "Yoshimi Yûno",
      "jpn": "夕野ヨシミ",
      "qro": "Yoshimi Yûno"
    },
    "modified_at": "2021-05-21T21:51:52.571Z",
    "name": "Yoshimi Yûno",
    "repository": "kara.moe",
    "tid": "b722bb12-a0f3-4f13-984f-10630694b18b",
    "types": [
      "songwriters",
      "8"
    ]
  }
}