{
  "header": {
    "description": "Karaoke Mugen Tag File",
    "version": 1
  },
  "tag": {
    "i18n": {
      "eng": "Yoshimi Iwasaki"
    },
    "name": "Yoshimi Iwasaki",
    "tid": "42263011-9889-47a8-9078-d45bb5c0eb72",
    "types": [
      "singers",
      "2"
    ],
    "repository": "kara.moe",
    "modified_at": "2020-03-31T19:04:38.599Z"
  }
}