{
  "header": {
    "description": "Karaoke Mugen Tag File",
    "version": 1
  },
  "tag": {
    "i18n": {
      "eng": "Yoshie Hayasaka"
    },
    "name": "Yoshie Hayasaka",
    "tid": "5918922b-a789-420b-8bf1-cc517255e927",
    "types": [
      "singers",
      "2"
    ],
    "repository": "kara.moe",
    "modified_at": "2020-03-31T19:04:38.575Z"
  }
}