{
  "header": {
    "description": "Karaoke Mugen Tag File",
    "version": 1
  },
  "tag": {
    "i18n": {
      "eng": "Yoshihisa Kawahara"
    },
    "name": "Yoshihisa Kawahara",
    "tid": "d1710e8f-a4d9-4956-b67d-8d0b04c1b698",
    "types": [
      "singers",
      "2"
    ],
    "repository": "kara.moe",
    "modified_at": "2020-03-31T19:04:38.584Z"
  }
}