{
  "header": {
    "description": "Karaoke Mugen Tag File",
    "version": 1
  },
  "tag": {
    "i18n": {
      "eng": "Yoshihiro Saitô"
    },
    "name": "Yoshihiro Saitô",
    "tid": "64e29f30-c1f7-4458-a9a3-bdf81219f7bd",
    "types": [
      "songwriters",
      "8"
    ],
    "repository": "kara.moe",
    "modified_at": "2020-03-31T19:04:38.582Z"
  }
}