{
  "header": {
    "description": "Karaoke Mugen Tag File",
    "version": 1
  },
  "tag": {
    "i18n": {
      "eng": "Yoshihiko Andô"
    },
    "name": "Yoshihiko Andô",
    "tid": "ed4c0088-b1e0-4a24-9ca7-a557e4e76c44",
    "types": [
      "songwriters",
      "8"
    ],
    "repository": "kara.moe",
    "modified_at": "2020-03-31T19:04:38.579Z"
  }
}