{
  "header": {
    "description": "Karaoke Mugen Tag File",
    "version": 1
  },
  "tag": {
    "i18n": {
      "eng": "Yoshifumi Kochi"
    },
    "name": "Yoshifumi Kochi",
    "tid": "4863fa44-058a-425f-b872-30e5f0c81b83",
    "types": [
      "songwriters",
      "8"
    ],
    "repository": "kara.moe",
    "modified_at": "2020-03-31T19:04:38.576Z"
  }
}