{
  "header": {
    "description": "Karaoke Mugen Tag File",
    "version": 1
  },
  "tag": {
    "i18n": {
      "eng": "Yoshiro Kunimoto"
    },
    "modified_at": "2021-07-27T22:18:36.697Z",
    "name": "Yoshiro Kunimoto",
    "repository": "kara.moe",
    "tid": "daad58fe-5896-4c7f-92fd-4f9cc4761a45",
    "types": [
      "songwriters",
      "8"
    ]
  }
}