{
  "header": {
    "description": "Karaoke Mugen Tag File",
    "version": 1
  },
  "tag": {
    "i18n": {
      "eng": "Yoshiko Itoh"
    },
    "name": "Yoshiko Itoh",
    "tid": "1bbe23e7-8421-4dca-8aa6-2274a8a1a535",
    "types": [
      "singers",
      "2"
    ],
    "repository": "kara.moe",
    "modified_at": "2020-03-31T19:04:38.593Z"
  }
}