{
  "header": {
    "description": "Karaoke Mugen Tag File",
    "version": 1
  },
  "tag": {
    "i18n": {
      "eng": "Yoshitaka Taira"
    },
    "modified_at": "2020-08-17T19:54:08.433Z",
    "name": "Yoshitaka Taira",
    "repository": "kara.moe",
    "tid": "8b50d3f1-6a6e-4159-821d-fdfc1a53e4d2",
    "types": [
      "songwriters",
      "8"
    ]
  }
}