{
  "header": {
    "description": "Karaoke Mugen Tag File",
    "version": 1
  },
  "tag": {
    "i18n": {
      "eng": "Yoshino Takamori"
    },
    "name": "Yoshino Takamori",
    "tid": "8f7f8994-bfef-4fc9-b2e7-a0eeffbca01e",
    "types": [
      "singers",
      "2"
    ],
    "repository": "kara.moe",
    "modified_at": "2020-03-31T19:04:38.604Z"
  }
}