{
  "header": {
    "description": "Karaoke Mugen Tag File",
    "version": 1
  },
  "tag": {
    "i18n": {
      "eng": "Yoshikazu Kuwashima"
    },
    "name": "Yoshikazu Kuwashima",
    "tid": "aa272687-791e-4bfc-ba7a-918b7f57e24d",
    "types": [
      "songwriters",
      "8"
    ],
    "repository": "kara.moe",
    "modified_at": "2020-03-31T19:04:38.587Z"
  }
}