{
  "header": {
    "description": "Karaoke Mugen Tag File",
    "version": 1
  },
  "tag": {
    "i18n": {
      "eng": "Yoshiyuki Shimozuma"
    },
    "name": "Yoshiyuki Shimozuma",
    "repository": "kara.moe",
    "tid": "fcc24edd-2957-4909-bfed-745c99137335",
    "types": [
      "singers",
      "2"
    ]
  }
}