{
  "header": {
    "description": "Karaoke Mugen Tag File",
    "version": 1
  },
  "tag": {
    "i18n": {
      "eng": "Yoshiko Kôyama"
    },
    "name": "Yoshiko Kôyama",
    "tid": "1f09ca52-53b2-483e-ae2c-df121605e283",
    "types": [
      "songwriters",
      "8"
    ],
    "repository": "kara.moe",
    "modified_at": "2020-03-31T19:04:38.595Z"
  }
}