{
  "header": {
    "description": "Karaoke Mugen Tag File",
    "version": 1
  },
  "tag": {
    "i18n": {
      "eng": "Yoshiyuki Tomino"
    },
    "name": "Yoshiyuki Tomino",
    "tid": "85bc9580-b353-43d8-a4ce-e3db3da95977",
    "types": [
      "songwriters",
      "8"
    ],
    "repository": "kara.moe",
    "modified_at": "2020-03-31T19:04:38.619Z"
  }
}