{
  "header": {
    "description": "Karaoke Mugen Tag File",
    "version": 1
  },
  "tag": {
    "i18n": {
      "eng": "Yoshihito Onda"
    },
    "name": "Yoshihito Onda",
    "tid": "49a3685e-9906-44f3-90b4-778031cbdbe7",
    "types": [
      "songwriters",
      "8"
    ],
    "repository": "kara.moe",
    "modified_at": "2020-03-31T19:04:38.585Z"
  }
}