{
  "header": {
    "description": "Karaoke Mugen Tag File",
    "version": 1
  },
  "tag": {
    "i18n": {
      "eng": "Yoshiko Gashima"
    },
    "name": "Yoshiko Gashima",
    "tid": "2f465088-fd49-4439-82e9-1436c6eab5fe",
    "types": [
      "singers",
      "2"
    ],
    "repository": "kara.moe",
    "modified_at": "2020-03-31T19:04:38.592Z"
  }
}