{
  "header": {
    "description": "Karaoke Mugen Tag File",
    "version": 1
  },
  "tag": {
    "i18n": {
      "eng": "Yoshitomo Yonetani"
    },
    "name": "Yoshitomo Yonetani",
    "tid": "6331c258-62f2-49e2-904c-75ea1e41f086",
    "types": [
      "songwriters",
      "8"
    ],
    "repository": "kara.moe",
    "modified_at": "2020-03-31T19:04:38.616Z"
  }
}