{
  "header": {
    "description": "Karaoke Mugen Tag File",
    "version": 1
  },
  "tag": {
    "aliases": [
      "onetrap"
    ],
    "i18n": {
      "eng": "Yoshifumi Kanamaru"
    },
    "modified_at": "2021-09-08T20:32:29.067Z",
    "name": "Yoshifumi Kanamaru",
    "repository": "kara.moe",
    "tid": "a46f699b-7ac4-4a2b-8671-152a260fd85a",
    "types": [
      "songwriters",
      "8"
    ]
  }
}