{
  "header": {
    "description": "Karaoke Mugen Tag File",
    "version": 1
  },
  "tag": {
    "i18n": {
      "eng": "Yoshiaki Watanuki"
    },
    "name": "Yoshiaki Watanuki",
    "tid": "99ca17d8-2dca-4d73-b2de-8d37c695d4d6",
    "types": [
      "songwriters",
      "8"
    ],
    "repository": "kara.moe",
    "modified_at": "2020-03-31T19:04:38.573Z"
  }
}