{
  "header": {
    "description": "Karaoke Mugen Tag File",
    "version": 1
  },
  "tag": {
    "i18n": {
      "eng": "Yoshiko Oga"
    },
    "name": "Yoshiko Oga",
    "repository": "kara.moe",
    "tid": "f2ee3df3-e2f1-4b76-9ad7-2d4cc89bcf3b",
    "types": [
      "songwriters",
      "8"
    ]
  }
}