{
  "header": {
    "description": "Karaoke Mugen Tag File",
    "version": 1
  },
  "tag": {
    "i18n": {
      "eng": "Yoshitarô Odaka"
    },
    "name": "Yoshitarô Odaka",
    "tid": "13e4cda8-8807-4555-beeb-7bd53d24f8c8",
    "types": [
      "songwriters",
      "8"
    ],
    "repository": "kara.moe",
    "modified_at": "2020-03-31T19:04:38.614Z"
  }
}