{
  "header": {
    "description": "Karaoke Mugen Tag File",
    "version": 1
  },
  "tag": {
    "i18n": {
      "eng": "Yoshinari Oribe"
    },
    "name": "Yoshinari Oribe",
    "repository": "kara.moe",
    "tid": "99994b9c-f994-4ae7-a455-8fca6c92f845",
    "types": [
      "singers",
      "2"
    ]
  }
}