{
  "header": {
    "description": "Karaoke Mugen Tag File",
    "version": 1
  },
  "tag": {
    "i18n": {
      "eng": "Yoshitsugu Matsuoka"
    },
    "name": "Yoshitsugu Matsuoka",
    "tid": "9f92bc10-114d-4a64-bcc8-4fe23adcef8d",
    "types": [
      "singers",
      "2",
      "songwriters",
      "8"
    ],
    "repository": "kara.moe",
    "modified_at": "2020-03-31T19:04:38.617Z"
  }
}