{
  "header": {
    "description": "Karaoke Mugen Tag File",
    "version": 1
  },
  "tag": {
    "aliases": [
      "Yoshirou Koike"
    ],
    "i18n": {
      "eng": "Yoshirô Koike"
    },
    "name": "Yoshirô Koike",
    "repository": "kara.moe",
    "tid": "da3f8644-2a11-4597-a8ac-02873cc30616",
    "types": [
      "songwriters",
      "8"
    ]
  }
}