{
  "header": {
    "description": "Karaoke Mugen Tag File",
    "version": 1
  },
  "tag": {
    "i18n": {
      "eng": "Yoshi Ikuzo"
    },
    "modified_at": "2021-04-28T12:17:26.281Z",
    "name": "Yoshi Ikuzo",
    "repository": "kara.moe",
    "tid": "fc08a59d-1fb5-494a-b07c-6cc037d1bea6",
    "types": [
      "songwriters",
      "8",
      "singers",
      "2"
    ]
  }
}