{
  "header": {
    "description": "Karaoke Mugen Tag File",
    "version": 1
  },
  "tag": {
    "i18n": {
      "eng": "Yoshimi Kanda"
    },
    "name": "Yoshimi Kanda",
    "tid": "540a2867-9ecb-4398-8edc-e75d19ffa3e9",
    "types": [
      "songwriters",
      "8"
    ],
    "repository": "kara.moe",
    "modified_at": "2020-03-31T19:04:38.600Z"
  }
}