{
  "header": {
    "description": "Karaoke Mugen Tag File",
    "version": 1
  },
  "tag": {
    "i18n": {
      "eng": "yosh"
    },
    "name": "yosh",
    "tid": "2aea0a41-290e-4c98-919d-058486aff04b",
    "types": [
      "singers",
      "2"
    ],
    "repository": "kara.moe",
    "modified_at": "2020-03-31T19:04:38.568Z"
  }
}