{
  "header": {
    "description": "Karaoke Mugen Tag File",
    "version": 1
  },
  "tag": {
    "i18n": {
      "eng": "YOSHIKI"
    },
    "name": "YOSHIKI",
    "tid": "df7325a9-007a-4466-9885-fd9e92e5c8d1",
    "types": [
      "singers",
      "2",
      "songwriters",
      "8"
    ],
    "repository": "kara.moe",
    "modified_at": "2020-03-31T19:04:38.591Z"
  }
}