{
  "header": {
    "description": "Karaoke Mugen Tag File",
    "version": 1
  },
  "tag": {
    "i18n": {
      "eng": "Yostar Pictures"
    },
    "name": "Yostar Pictures",
    "repository": "kara.moe",
    "tid": "0a4d0cfc-c343-4d11-9324-a1f6f67d11ff",
    "types": [
      "creators",
      "4"
    ]
  }
}