{
  "header": {
    "description": "Karaoke Mugen Tag File",
    "version": 1
  },
  "tag": {
    "i18n": {
      "eng": "-YOU-"
    },
    "name": "YOU",
    "repository": "kara.moe",
    "tid": "9862324a-157b-47d9-8a4d-c2f17baee4ee",
    "types": [
      "songwriters",
      "8"
    ]
  }
}