{
  "header": {
    "description": "Karaoke Mugen Tag File",
    "version": 1
  },
  "tag": {
    "i18n": {
      "eng": "Yôhei Oonishi"
    },
    "modified_at": "2020-10-23T16:53:48.974Z",
    "name": "Yôhei Oonishi",
    "repository": "kara.moe",
    "tid": "d9a58264-808a-4524-88d7-f45ccd40d2e7",
    "types": [
      "songwriters",
      "8"
    ]
  }
}