{
  "header": {
    "description": "Karaoke Mugen Tag File",
    "version": 1
  },
  "tag": {
    "i18n": {
      "eng": "Yôji Arakawa"
    },
    "modified_at": "2020-07-19T15:14:34.555Z",
    "name": "Yôji Arakawa",
    "repository": "kara.moe",
    "tid": "cca4d6f7-94d2-42ee-b34c-a78e69f90a0f",
    "types": [
      "songwriters",
      "8"
    ]
  }
}