{
  "header": {
    "description": "Karaoke Mugen Tag File",
    "version": 1
  },
  "tag": {
    "i18n": {
      "eng": "Yôko Nitô"
    },
    "name": "Yôko Nitô",
    "tid": "915c0e0a-cb99-40f5-8b4f-c8245df4b448",
    "types": [
      "singers",
      "2"
    ],
    "repository": "kara.moe",
    "modified_at": "2020-03-31T19:04:38.647Z"
  }
}