{
  "header": {
    "description": "Karaoke Mugen Tag File",
    "version": 1
  },
  "tag": {
    "aliases": [
      "Ryuuko Takahashi",
      "Ryûko Takahashi",
      "Youko Takahashi"
    ],
    "i18n": {
      "eng": "Yôko Takahashi"
    },
    "modified_at": "2021-03-07T13:04:23.314Z",
    "name": "Yôko Takahashi",
    "repository": "kara.moe",
    "tid": "32dfce84-375a-40fe-94f2-0091c078cc1b",
    "types": [
      "singers",
      "2",
      "songwriters",
      "8"
    ]
  }
}