{
  "header": {
    "description": "Karaoke Mugen Tag File",
    "version": 1
  },
  "tag": {
    "aliases": [
      "Gabriela Robin"
    ],
    "i18n": {
      "eng": "Yôko Kanno"
    },
    "modified_at": "2020-05-24T15:47:03.999Z",
    "name": "Yôko Kanno",
    "repository": "kara.moe",
    "tid": "af0be06d-ea2d-4f46-85d1-58cf9f42532a",
    "types": [
      "songwriters",
      "8"
    ]
  }
}