{
  "header": {
    "description": "Karaoke Mugen Tag File",
    "version": 1
  },
  "tag": {
    "i18n": {
      "eng": "youlazybum"
    },
    "name": "youlazybum",
    "tid": "9c374eb5-38fa-4312-8395-26274320bf28",
    "types": [
      "creators",
      "4"
    ],
    "repository": "kara.moe",
    "modified_at": "2020-03-31T19:04:38.651Z"
  }
}