{
  "header": {
    "description": "Karaoke Mugen Tag File",
    "version": 1
  },
  "tag": {
    "i18n": {
      "eng": "Youngeum Lee"
    },
    "name": "Youngeum Lee",
    "repository": "kara.moe",
    "tid": "ed1abc01-7ad8-468a-90db-c5506a980321",
    "types": [
      "creators",
      "4"
    ]
  }
}