{
  "header": {
    "description": "Karaoke Mugen Tag File",
    "version": 1
  },
  "tag": {
    "i18n": {
      "eng": "Yôsuke Yamashita"
    },
    "name": "Yôsuke Yamashita",
    "tid": "2c387c24-2728-4d5a-9d07-0b1af6467cd0",
    "types": [
      "songwriters",
      "8"
    ],
    "repository": "kara.moe",
    "modified_at": "2020-03-31T19:04:38.659Z"
  }
}