{
  "header": {
    "description": "Karaoke Mugen Tag File",
    "version": 1
  },
  "tag": {
    "aliases": [
      "Yousuke"
    ],
    "i18n": {
      "eng": "Yôsuke",
      "jpn": "陽介",
      "qro": "Yôsuke"
    },
    "name": "Yôsuke",
    "repository": "kara.moe",
    "tid": "3f9dce9c-1e05-46dc-9c88-6cc4b11c41d6",
    "types": [
      "songwriters",
      "8"
    ]
  }
}