{
  "header": {
    "description": "Karaoke Mugen Tag File",
    "version": 1
  },
  "tag": {
    "external_database_ids": {
      "anilist": 18497,
      "myanimelist": 18497,
      "kitsu": 7843
    },
    "i18n": {
      "eng": "Yozakura Quartet: Hana no Uta",
      "jpn": "夜桜四重奏 ~ハナノウタ~",
      "qro": "Yozakura Quartet Hana no Uta"
    },
    "modified_at": "2020-06-21T23:45:31.966Z",
    "name": "Yozakura Quartet Hana no Uta",
    "repository": "kara.moe",
    "tid": "4f451daa-06dd-4fed-b369-db9a25c2994e",
    "types": [
      "series",
      "1"
    ]
  }
}