{
  "header": {
    "description": "Karaoke Mugen Tag File",
    "version": 1
  },
  "tag": {
    "i18n": {
      "eng": "yro_PT"
    },
    "modified_at": "1982-04-06",
    "name": "yro_PT",
    "repository": "kara.moe",
    "tid": "d63aae01-10ff-4b4f-a104-206af7771550",
    "types": [
      "authors",
      "6"
    ]
  }
}