{
  "header": {
    "description": "Karaoke Mugen Tag File",
    "version": 1
  },
  "tag": {
    "i18n": {
      "eng": "YTV"
    },
    "name": "YTV",
    "tid": "61c31e7c-5d8b-4ee6-9d33-c149ff6a4508",
    "types": [
      "creators",
      "4"
    ],
    "repository": "kara.moe",
    "modified_at": "2020-03-31T19:04:38.661Z"
  }
}