{
  "header": {
    "description": "Karaoke Mugen Tag File",
    "version": 1
  },
  "tag": {
    "i18n": {
      "eng": "Yu Furukawa"
    },
    "name": "Yu Furukawa",
    "repository": "kara.moe",
    "tid": "203d18bc-3ec2-4cf0-8c08-73a3a2781a4c",
    "types": [
      "songwriters",
      "8"
    ]
  }
}