{
  "header": {
    "description": "Karaoke Mugen Tag File",
    "version": 1
  },
  "tag": {
    "i18n": {
      "eng": "Yú jiāoyán"
    },
    "modified_at": "2021-03-08T19:35:26.912Z",
    "name": "Yú jiāoyán",
    "repository": "kara.moe",
    "tid": "345b2d71-32ba-4ca8-9e8a-73113d8d2a60",
    "types": [
      "singers",
      "2"
    ]
  }
}