{
  "header": {
    "description": "Karaoke Mugen Tag File",
    "version": 1
  },
  "tag": {
    "i18n": {
      "eng": "Yu Shimoji"
    },
    "name": "Yu Shimoji",
    "repository": "kara.moe",
    "tid": "d68726d7-0094-49d1-ae0b-e77effdd821c",
    "types": [
      "songwriters",
      "8"
    ]
  }
}