{
  "header": {
    "description": "Karaoke Mugen Tag File",
    "version": 1
  },
  "tag": {
    "aliases": [
      "YYH"
    ],
    "external_database_ids": {
      "anilist": 392,
      "myanimelist": 392,
      "kitsu": 359
    },
    "i18n": {
      "eng": "Yuu☆Yuu☆Hakusho: Ghost Files",
      "fre": "Yuu☆Yuu☆Hakusho",
      "jpn": "幽☆遊☆白書",
      "qro": "Yu Yu Hakusho"
    },
    "modified_at": "2020-03-31T19:04:33.177Z",
    "name": "Yu Yu Hakusho",
    "repository": "kara.moe",
    "tid": "3ee15e7b-7336-4344-9cf9-4ca8087090f2",
    "types": [
      "series",
      "1",
      "franchises",
      "18"
    ]
  }
}