{
  "header": {
    "description": "Karaoke Mugen Tag File",
    "version": 1
  },
  "tag": {
    "aliases": [
      "Yuu Gi Ou: Go Rush!!"
    ],
    "external_database_ids": {
      "anilist": 142842,
      "myanimelist": 50607,
      "kitsu": 45605
    },
    "i18n": {
      "eng": "Yu-Gi-Oh! GO RUSH!!",
      "jpn": "遊☆戯☆王ゴーラッシュ!!",
      "qro": "Yu-Gi-Oh! GO RUSH!!"
    },
    "name": "Yu-Gi-Oh! GO RUSH!!",
    "repository": "kara.moe",
    "tid": "8cd74d92-ced3-4c6b-aac1-74b90adb2e2d",
    "types": [
      "series",
      "1"
    ]
  }
}