{
  "header": {
    "description": "Karaoke Mugen Tag File",
    "version": 1
  },
  "tag": {
    "aliases": [
      "YGO",
      "Yu-Gi-Oh ! À toi de jouer !",
      "Yu-Gi-Oh: Duel Monsters",
      "yugioh",
      "yugiou",
      "يو جي أوه",
      "يوغي"
    ],
    "external_database_ids": {
      "anilist": 481,
      "myanimelist": 481,
      "kitsu": 442
    },
    "i18n": {
      "bul": "Ю-ГИ-О!",
      "dan": "Yu-Gi-Oh!",
      "dut": "Yu-Gi-Oh!",
      "eng": "Yu-Gi-Oh!",
      "fre": "Yu-Gi-Oh!",
      "ger": "Yu-Gi-Oh!",
      "gre": "Yu-Gi-Oh",
      "heb": "!יוגי-הו",
      "hrv": "Yu-Gi-Oh",
      "hun": "Yu-Gi-Oh!",
      "jpn": "遊☆戯☆王 デュエルモンスターズ",
      "lit": "Yu-Gi-Oh!",
      "por": "Yu-Gi-Oh! Duel Monsters",
      "rum": "Yu-Gi-Oh!",
      "swe": "Yu-Gi-Oh!",
      "tha": "ดูเอลมอนสเตอร์ ยูกิโอ",
      "qro": "Yu-Gi-Oh! Duel Monsters"
    },
    "modified_at": "2020-06-21T23:45:31.966Z",
    "name": "Yu-Gi-Oh! Duel Monsters",
    "repository": "kara.moe",
    "tid": "2146e893-5542-4fde-8e36-83a8d66fcbd0",
    "types": [
      "series",
      "1"
    ]
  }
}