{
  "header": {
    "description": "Karaoke Mugen Tag File",
    "version": 1
  },
  "tag": {
    "aliases": [
      "YGO GX",
      "yugiohgx",
      "yugx",
      "Ю-Ги-О! GX",
      "遊☆戯☆王デュエルモンスターズGX"
    ],
    "external_database_ids": {
      "anilist": 482,
      "myanimelist": 482,
      "kitsu": 443
    },
    "i18n": {
      "ara": "يوغي جي اكس",
      "cze": "Yu-gi-oh GX",
      "dut": "Yu-Gi-Oh! GX",
      "eng": "Yu-Gi-Oh! GX",
      "est": "Yu-Gi-Oh! GX",
      "fre": "Yu-Gi-Oh! GX",
      "ger": "Yu-Gi-Oh! GX",
      "gre": "Yu-Gi-Oh! GX",
      "heb": "GX !יוגי-הו",
      "hun": "Yu-Gi-Oh GX",
      "jpn": "遊戯王デュエルモンスターズGX",
      "lit": "Yu-Gi-Oh! GX",
      "por": "Yu-Gi-Oh! GX",
      "rum": "Yu-Gi-Oh! GX",
      "tha": "เกมกลคนอัจฉริยะ ดูเอลมอนสเตอร์ GX",
      "qro": "Yu-Gi-Oh! Duel Monsters GX"
    },
    "modified_at": "2020-03-31T19:04:33.180Z",
    "name": "Yu-Gi-Oh! Duel Monsters GX",
    "repository": "kara.moe",
    "tid": "61243592-781d-4f44-9ada-e26a7a2d5f18",
    "types": [
      "series",
      "1"
    ]
  }
}