{
  "header": {
    "description": "Karaoke Mugen Tag File",
    "version": 1
  },
  "tag": {
    "external_database_ids": {
      "anilist": 2006,
      "myanimelist": 2006,
      "kitsu": 1805
    },
    "i18n": {
      "fre": "Yu-Gi-Oh! the Movie (Toei)",
      "jpn": "遊戯王 (1999)",
      "qro": "Yu-Gi-Oh! (Toei) Movie"
    },
    "modified_at": "2020-03-31T19:04:33.179Z",
    "name": "Yu-Gi-Oh! (Toei) Movie",
    "repository": "kara.moe",
    "tid": "356fb8e6-1e2c-475d-b893-6195959edf6b",
    "types": [
      "series",
      "1"
    ]
  }
}