{
  "header": {
    "description": "Karaoke Mugen Tag File",
    "version": 1
  },
  "tag": {
    "aliases": [
      "YGO 5D's",
      "Yu-Gi-Oh! - Az öt sárkány",
      "Yu-Gi-Oh! 5 Dragons",
      "Yu-Gi-Oh! 5 Duel Scoop",
      "Yugioh 5D's",
      "yugioh5d",
      "يوغي أوه! التنانين الخمس",
      "يوغي أوه! مبارزة السحب الخمس",
      "遊☆戯☆王 5D's",
      "遊☆戯☆王5D's"
    ],
    "external_database_ids": {
      "anilist": 3972,
      "myanimelist": 3972,
      "kitsu": 3387
    },
    "i18n": {
      "eng": "Yu-Gi-Oh! 5D's",
      "ger": "Yu-Gi-Oh! 5D's",
      "heb": "יו-גי-הו: המימד החמישי",
      "hun": "Yugioh - Az öt sárkány",
      "jpn": "遊戯王5D's",
      "por": "Yu-Gi-Oh! 5D",
      "qro": "Yu-Gi-Oh! 5D's"
    },
    "modified_at": "2020-03-31T19:04:33.180Z",
    "name": "Yu-Gi-Oh! 5D's",
    "repository": "kara.moe",
    "tid": "d00d6d91-3ad8-4a84-9787-b8665ddbc0ad",
    "types": [
      "series",
      "1"
    ]
  }
}