{
  "header": {
    "description": "Karaoke Mugen Tag File",
    "version": 1
  },
  "tag": {
    "i18n": {
      "eng": "Yu-ki Kokubo"
    },
    "name": "Yu-ki Kokubo",
    "repository": "kara.moe",
    "tid": "63292d5f-7504-4c85-858a-a3999cb2a5e1",
    "types": [
      "songwriters",
      "8"
    ]
  }
}