{
  "header": {
    "description": "Karaoke Mugen Tag File",
    "version": 1
  },
  "tag": {
    "i18n": {
      "eng": "yu-suke"
    },
    "name": "yu-suke",
    "tid": "6ec6670d-ad7b-4493-ac98-632c5b7bc529",
    "types": [
      "songwriters",
      "8"
    ],
    "repository": "kara.moe",
    "modified_at": "2020-03-31T19:04:38.665Z"
  }
}