{
  "header": {
    "description": "Karaoke Mugen Tag File",
    "version": 1
  },
  "tag": {
    "i18n": {
      "eng": "Yucco"
    },
    "name": "Yucco",
    "repository": "kara.moe",
    "tid": "3757463f-8b78-4bf4-8161-df28ae070e88",
    "types": [
      "creators",
      "4"
    ]
  }
}