{
  "header": {
    "description": "Karaoke Mugen Tag File",
    "version": 1
  },
  "tag": {
    "i18n": {
      "eng": "Yudai Fujii"
    },
    "name": "Yudai Fujii",
    "tid": "4717d5cf-62a8-41d8-bfdf-864b16623e3a",
    "types": [
      "songwriters",
      "8"
    ],
    "repository": "kara.moe",
    "modified_at": "2020-03-31T19:04:38.668Z"
  }
}