{
  "header": {
    "description": "Karaoke Mugen Tag File",
    "version": 1
  },
  "tag": {
    "i18n": {
      "eng": "Yui Horie"
    },
    "name": "Yui Horie",
    "tid": "a6042b25-be94-49bf-ab1b-1ba48a565df3",
    "types": [
      "singers",
      "2",
      "songwriters",
      "8"
    ],
    "repository": "kara.moe",
    "modified_at": "2020-03-31T19:04:38.671Z"
  }
}