{
  "header": {
    "description": "Karaoke Mugen Tag File",
    "version": 1
  },
  "tag": {
    "i18n": {
      "eng": "Yui Fukuo"
    },
    "name": "Yui Fukuo",
    "repository": "kara.moe",
    "tid": "a610a270-fde3-40bb-963d-265a4b469d0c",
    "types": [
      "singers",
      "2"
    ]
  }
}