{
  "header": {
    "description": "Karaoke Mugen Tag File",
    "version": 1
  },
  "tag": {
    "i18n": {
      "eng": "Yui Ogura"
    },
    "modified_at": "2021-09-05T12:44:06.767Z",
    "name": "Yui Ogura",
    "repository": "kara.moe",
    "tid": "d7c26167-fe7e-4450-8191-65a53fc7db66",
    "types": [
      "singers",
      "2",
      "songwriters",
      "8"
    ]
  }
}