{
  "header": {
    "description": "Karaoke Mugen Tag File",
    "version": 1
  },
  "tag": {
    "i18n": {
      "eng": "Yui (Itsuki)",
      "jpn": "伊月ゆい",
      "qro": "Yui Itsuki"
    },
    "name": "Yui (Itsuki)",
    "repository": "kara.moe",
    "tid": "f9bc6fb1-ebca-4519-87f6-c64dd3bc2f53",
    "types": [
      "songwriters",
      "8"
    ]
  }
}