{
  "header": {
    "description": "Karaoke Mugen Tag File",
    "version": 1
  },
  "tag": {
    "i18n": {
      "eng": "Yui Ninomiya"
    },
    "name": "Yui Ninomiya",
    "tid": "dfce274a-9977-4cd8-b3d4-70f2cd30ede1",
    "types": [
      "singers",
      "2"
    ],
    "repository": "kara.moe",
    "modified_at": "2020-03-31T19:04:38.674Z"
  }
}