{
  "header": {
    "description": "Karaoke Mugen Tag File",
    "version": 1
  },
  "tag": {
    "i18n": {
      "eng": "Yui Kondo"
    },
    "name": "Yui Kondo",
    "repository": "kara.moe",
    "tid": "63e07376-d071-47a9-90d4-1e7c1381f605",
    "types": [
      "singers",
      "2"
    ]
  }
}