{
  "header": {
    "description": "Karaoke Mugen Tag File",
    "version": 1
  },
  "tag": {
    "i18n": {
      "eng": "Yui Nishikawa"
    },
    "name": "Yui Nishikawa",
    "tid": "3e8af4c6-3244-4d99-ac5f-78698a1c343c",
    "types": [
      "songwriters",
      "8"
    ],
    "repository": "kara.moe",
    "modified_at": "2020-03-31T19:04:38.675Z"
  }
}