{
  "header": {
    "description": "Karaoke Mugen Tag File",
    "version": 1
  },
  "tag": {
    "i18n": {
      "eng": "Yuichi Takahasi"
    },
    "name": "Yuichi Takahasi",
    "tid": "c4fddbcf-4f87-4d04-9931-3cf0accffbdc",
    "types": [
      "songwriters",
      "8"
    ],
    "repository": "kara.moe",
    "modified_at": "2020-03-31T19:04:38.679Z"
  }
}