{
  "header": {
    "description": "Karaoke Mugen Tag File",
    "version": 1
  },
  "tag": {
    "i18n": {
      "eng": "YuiKaori"
    },
    "name": "YuiKaori",
    "tid": "55dd642c-de58-41ae-ae8e-a523585fd469",
    "types": [
      "singers",
      "2"
    ],
    "repository": "kara.moe",
    "modified_at": "2020-03-31T19:04:38.681Z"
  }
}