{
  "header": {
    "description": "Karaoke Mugen Tag File",
    "version": 1
  },
  "tag": {
    "i18n": {
      "eng": "Yuiko Tatsumi"
    },
    "name": "Yuiko Tatsumi",
    "tid": "54c6a0ff-3d21-4909-98db-a7d336021bfd",
    "types": [
      "singers",
      "2"
    ],
    "repository": "kara.moe",
    "modified_at": "2020-03-31T19:04:38.682Z"
  }
}