{
  "header": {
    "description": "Karaoke Mugen Tag File",
    "version": 1
  },
  "tag": {
    "i18n": {
      "eng": "Yuina",
      "jpn": "結那"
    },
    "name": "Yuina",
    "repository": "kara.moe",
    "tid": "ae309877-9348-4142-8835-7db6c1e514a3",
    "types": [
      "singers",
      "2"
    ]
  }
}