{
  "header": {
    "description": "Karaoke Mugen Tag File",
    "version": 1
  },
  "tag": {
    "i18n": {
      "eng": "Yuji Teranishi"
    },
    "name": "Yuji Teranishi",
    "repository": "kara.moe",
    "tid": "c72251cd-ac31-4e61-9335-9ec36ddb8f54",
    "types": [
      "songwriters",
      "8"
    ]
  }
}