{
  "header": {
    "description": "Karaoke Mugen Tag File",
    "version": 1
  },
  "tag": {
    "i18n": {
      "eng": "Yuji Kobayashi"
    },
    "name": "Yuji Kobayashi",
    "repository": "kara.moe",
    "tid": "4b164c92-9b0e-4b5e-91f7-1dd15dea46e5",
    "types": [
      "songwriters",
      "8"
    ]
  }
}