{
  "header": {
    "description": "Karaoke Mugen Tag File",
    "version": 1
  },
  "tag": {
    "i18n": {
      "eng": "Yuka Aimoto"
    },
    "name": "Yuka Aimoto",
    "tid": "312a2b1a-55b3-4160-afe1-d61ba2d9d0f5",
    "types": [
      "singers",
      "2"
    ],
    "repository": "kara.moe",
    "modified_at": "2020-03-31T19:04:38.687Z"
  }
}