{
  "header": {
    "description": "Karaoke Mugen Tag File",
    "version": 1
  },
  "tag": {
    "i18n": {
      "eng": "Yukari Asakura"
    },
    "modified_at": "2021-05-22T13:29:14.586Z",
    "name": "Yukari Asakura",
    "repository": "kara.moe",
    "tid": "3af84c8d-b811-4053-9b4e-7f083522514f",
    "types": [
      "singers",
      "2"
    ]
  }
}