{
  "header": {
    "description": "Karaoke Mugen Tag File",
    "version": 1
  },
  "tag": {
    "i18n": {
      "eng": "Yuka Masuda"
    },
    "name": "Yuka Masuda",
    "tid": "eadc8e16-e71a-4a2d-adb4-43f9ca842c36",
    "types": [
      "singers",
      "2"
    ],
    "repository": "kara.moe",
    "modified_at": "2020-03-31T19:04:38.690Z"
  }
}