{
  "header": {
    "description": "Karaoke Mugen Tag File",
    "version": 1
  },
  "tag": {
    "i18n": {
      "eng": "Yuka Kondô"
    },
    "name": "Yuka Kondô",
    "tid": "09eac285-c398-451b-869d-a2a2242e41fc",
    "types": [
      "songwriters",
      "8"
    ],
    "repository": "kara.moe",
    "modified_at": "2020-03-31T19:04:38.689Z"
  }
}