{
  "header": {
    "description": "Karaoke Mugen Tag File",
    "version": 1
  },
  "tag": {
    "i18n": {
      "eng": "Yukari Kato"
    },
    "name": "Yukari Kato",
    "repository": "kara.moe",
    "tid": "13f6e42e-7735-49d3-bf8d-28776950d23d",
    "types": [
      "songwriters",
      "8"
    ]
  }
}