{
  "header": {
    "description": "Karaoke Mugen Tag File",
    "version": 1
  },
  "tag": {
    "i18n": {
      "eng": "Yuka Matsumoto"
    },
    "name": "Yuka Matsumoto",
    "tid": "aab0c4ce-6bc7-455b-bd98-d413c320e954",
    "types": [
      "songwriters",
      "8"
    ],
    "repository": "kara.moe",
    "modified_at": "2020-03-31T19:04:38.691Z"
  }
}