{
  "header": {
    "description": "Karaoke Mugen Tag File",
    "version": 1
  },
  "tag": {
    "i18n": {
      "eng": "YUKI"
    },
    "name": "YUKI",
    "tid": "6dc55cf1-1f5c-4257-811c-072ded1684ff",
    "types": [
      "singers",
      "2",
      "songwriters",
      "8"
    ],
    "repository": "kara.moe",
    "modified_at": "2020-03-31T19:04:38.717Z"
  }
}