{
  "header": {
    "description": "Karaoke Mugen Tag File",
    "version": 1
  },
  "tag": {
    "i18n": {
      "eng": "Yuki Kimura"
    },
    "name": "Yuki Kimura",
    "tid": "ea52f15b-298f-467e-94cc-2e1ae128d959",
    "types": [
      "singers",
      "2"
    ],
    "repository": "kara.moe",
    "modified_at": "2020-03-31T19:04:38.708Z"
  }
}