{
  "header": {
    "description": "Karaoke Mugen Tag File",
    "version": 1
  },
  "tag": {
    "i18n": {
      "eng": "Yukiko Mitsui"
    },
    "name": "Yukiko Mitsui",
    "tid": "a98edd2f-1b42-4904-ac5b-1c647431239d",
    "types": [
      "songwriters",
      "8"
    ],
    "repository": "kara.moe",
    "modified_at": "2020-03-31T19:04:38.723Z"
  }
}