{
  "header": {
    "description": "Karaoke Mugen Tag File",
    "version": 1
  },
  "tag": {
    "i18n": {
      "eng": "Yukimi"
    },
    "name": "Yukimi",
    "tid": "d3a5e7d5-5a60-44f4-86e5-8eaf9a50bcd3",
    "types": [
      "singers",
      "2"
    ],
    "repository": "kara.moe",
    "modified_at": "2020-03-31T19:04:38.724Z"
  }
}