{
  "header": {
    "description": "Karaoke Mugen Tag File",
    "version": 1
  },
  "tag": {
    "i18n": {
      "eng": "Yukina"
    },
    "name": "Yukina",
    "repository": "kara.moe",
    "tid": "78e4ed89-1b5e-4eb8-8999-a9e4365021c5",
    "types": [
      "singers",
      "2"
    ]
  }
}