{
  "header": {
    "description": "Karaoke Mugen Tag File",
    "version": 1
  },
  "tag": {
    "i18n": {
      "eng": "Yuki (mimimemeMIMI)"
    },
    "name": "Yuki (mimimemeMIMI)",
    "tid": "57b000d5-dd4d-4361-a389-cf4519cad3a2",
    "types": [
      "songwriters",
      "8"
    ],
    "repository": "kara.moe",
    "modified_at": "2020-03-31T19:04:38.702Z"
  }
}