{
  "header": {
    "description": "Karaoke Mugen Tag File",
    "version": 1
  },
  "tag": {
    "i18n": {
      "eng": "Yukio Yamagata"
    },
    "name": "Yukio Yamagata",
    "tid": "d2463911-fc50-4279-9a98-94a294740154",
    "types": [
      "singers",
      "2"
    ],
    "repository": "kara.moe",
    "modified_at": "2020-03-31T19:04:38.727Z"
  }
}