{
  "header": {
    "description": "Karaoke Mugen Tag File",
    "version": 1
  },
  "tag": {
    "i18n": {
      "eng": "Yukito"
    },
    "name": "Yukito",
    "repository": "kara.moe",
    "tid": "dbde3f95-a96a-4dd2-bcf1-bde778949922",
    "types": [
      "songwriters",
      "8"
    ]
  }
}