{
  "header": {
    "description": "Karaoke Mugen Tag File",
    "version": 1
  },
  "tag": {
    "i18n": {
      "eng": "Yukihiro Jindo"
    },
    "name": "Yukihiro Jindo",
    "tid": "1800ba15-a78f-4314-9cd2-531621a36bf4",
    "types": [
      "songwriters",
      "8"
    ],
    "repository": "kara.moe",
    "modified_at": "2020-03-31T19:04:38.719Z"
  }
}