{
  "header": {
    "description": "Karaoke Mugen Tag File",
    "version": 1
  },
  "tag": {
    "i18n": {
      "eng": "Yukiyo Fujii"
    },
    "name": "Yukiyo Fujii",
    "tid": "28b97e0d-0f48-4590-bd1f-b35343a7460d",
    "types": [
      "singers",
      "2"
    ],
    "repository": "kara.moe",
    "modified_at": "2020-03-31T19:04:38.728Z"
  }
}