{
  "header": {
    "description": "Karaoke Mugen Tag File",
    "version": 1
  },
  "tag": {
    "i18n": {
      "eng": "Yukiko Chikuta"
    },
    "name": "Yukiko Chikuta",
    "tid": "deb1d400-c0ec-4bc5-9055-56c6a6acf6f1",
    "types": [
      "singers",
      "2"
    ],
    "repository": "kara.moe",
    "modified_at": "2020-03-31T19:04:38.721Z"
  }
}