{
  "header": {
    "description": "Karaoke Mugen Tag File",
    "version": 1
  },
  "tag": {
    "i18n": {
      "eng": "Yuki Honda",
      "jpn": "本多友紀",
      "qro": "Yuki Honda"
    },
    "name": "Yuki Honda",
    "repository": "kara.moe",
    "tid": "00cd2c1f-8012-4366-adcd-0340a340c29a",
    "types": [
      "songwriters",
      "8"
    ]
  }
}