{
  "header": {
    "description": "Karaoke Mugen Tag File",
    "version": 1
  },
  "tag": {
    "i18n": {
      "eng": "Yuki Hidaka"
    },
    "modified_at": "1982-04-06",
    "name": "Yuki Hidaka",
    "repository": "kara.moe",
    "tid": "865e5270-3622-40db-a0f3-d493efec7c51",
    "types": [
      "songwriters",
      "8"
    ]
  }
}