{
  "header": {
    "description": "Karaoke Mugen Tag File",
    "version": 1
  },
  "tag": {
    "i18n": {
      "eng": "Yuki Aono"
    },
    "name": "Yuki Aono",
    "repository": "kara.moe",
    "tid": "2b2b3e80-abd6-4ae4-adfd-26a5cbca4ca7",
    "types": [
      "singers",
      "2"
    ]
  }
}