{
  "header": {
    "description": "Karaoke Mugen Tag File",
    "version": 1
  },
  "tag": {
    "i18n": {
      "eng": "YUKIYOSHI"
    },
    "name": "YUKIYOSHI",
    "tid": "3be585a8-675d-4317-a946-b5f7464d47b4",
    "types": [
      "songwriters",
      "8"
    ],
    "repository": "kara.moe",
    "modified_at": "2020-03-31T19:04:38.729Z"
  }
}