{
  "header": {
    "description": "Karaoke Mugen Tag File",
    "version": 1
  },
  "tag": {
    "i18n": {
      "eng": "Yuki Kudô"
    },
    "modified_at": "2020-04-19T21:10:49.408Z",
    "name": "Yuki Kudô",
    "repository": "kara.moe",
    "tid": "e2f37a74-1816-46c6-b82b-e719c7a4c44a",
    "types": [
      "singers",
      "2"
    ]
  }
}