{
  "header": {
    "description": "Karaoke Mugen Tag File",
    "version": 1
  },
  "tag": {
    "i18n": {
      "eng": "yuki (Unlucky Morpheus)"
    },
    "name": "yuki (Unlucky Morpheus)",
    "tid": "03cf436b-19a6-4ae1-8480-36edef3d6d62",
    "types": [
      "songwriters",
      "8"
    ],
    "repository": "kara.moe",
    "modified_at": "2020-03-31T19:04:38.703Z"
  }
}