{
  "header": {
    "description": "Karaoke Mugen Tag File",
    "version": 1
  },
  "tag": {
    "i18n": {
      "eng": "Yuki Mori"
    },
    "name": "Yuki Mori",
    "tid": "39acaaba-1470-43df-bd5f-1b2ebff62ce2",
    "types": [
      "songwriters",
      "8"
    ],
    "repository": "kara.moe",
    "modified_at": "2020-03-31T19:04:38.711Z"
  }
}