{
  "header": {
    "description": "Karaoke Mugen Tag File",
    "version": 1
  },
  "tag": {
    "i18n": {
      "eng": "Yuki Okamura"
    },
    "name": "Yuki Okamura",
    "tid": "f9db3f64-6aa4-4191-b68b-1e4721ea7f70",
    "types": [
      "songwriters",
      "8"
    ],
    "repository": "kara.moe",
    "modified_at": "2020-03-31T19:04:38.713Z"
  }
}