{
  "header": {
    "description": "Karaoke Mugen Tag File",
    "version": 1
  },
  "tag": {
    "i18n": {
      "eng": "Yukihide Takekawa",
      "qro": "Yukihide Takekawa",
      "jpn": "武川行秀"
    },
    "name": "Yukihide Takekawa",
    "repository": "kara.moe",
    "tid": "493e6267-27c3-4083-bffd-761893df9105",
    "types": [
      "songwriters",
      "8",
      "singers",
      "2"
    ]
  }
}