{
  "header": {
    "description": "Karaoke Mugen Tag File",
    "version": 1
  },
  "tag": {
    "i18n": {
      "eng": "Yuki Kokubo"
    },
    "name": "Yuki Kokubo",
    "repository": "kara.moe",
    "tid": "8feb8259-1bfc-4261-bb5b-dab93217998a",
    "types": [
      "songwriters",
      "8"
    ]
  }
}