{
  "header": {
    "description": "Karaoke Mugen Tag File",
    "version": 1
  },
  "tag": {
    "i18n": {
      "eng": "YUKI"
    },
    "name": "YUKI",
    "repository": "kara.moe",
    "tid": "966c642d-c4d2-4b31-9516-7b385aa6512e",
    "types": [
      "singers",
      "2"
    ]
  }
}