{
  "header": {
    "description": "Karaoke Mugen Tag File",
    "version": 1
  },
  "tag": {
    "i18n": {
      "eng": "YUKKE"
    },
    "name": "YUKKE",
    "tid": "35842822-bd68-4610-8575-ba956b5743ab",
    "types": [
      "songwriters",
      "8"
    ],
    "repository": "kara.moe",
    "modified_at": "2020-03-31T19:04:38.729Z"
  }
}