{
  "header": {
    "description": "Karaoke Mugen Tag File",
    "version": 1
  },
  "tag": {
    "aliases": [
      "Yuuko"
    ],
    "i18n": {
      "eng": "Yuko Suzuhana"
    },
    "name": "Yuko Suzuhana",
    "repository": "kara.moe",
    "tid": "d60eec15-cfdf-42eb-9ae6-d442e58747db",
    "types": [
      "singers",
      "2"
    ]
  }
}