{
  "header": {
    "description": "Karaoke Mugen Tag File",
    "version": 1
  },
  "tag": {
    "i18n": {
      "eng": "yumao"
    },
    "name": "yumao",
    "tid": "3d9cfa91-782e-450f-99d1-911f51560af7",
    "types": [
      "songwriters",
      "8"
    ],
    "repository": "kara.moe",
    "modified_at": "2020-03-31T19:04:38.732Z"
  }
}