{
  "header": {
    "description": "Karaoke Mugen Tag File",
    "version": 1
  },
  "tag": {
    "i18n": {
      "eng": "Yuma Mizonokuchi",
      "jpn": "溝口 ゆうま",
      "qro": "Yûma Mizonokuchi"
    },
    "name": "Yuma Mizonokuchi",
    "repository": "kara.moe",
    "tid": "89697395-8e32-49ac-91f9-0a2ccbe74d0b",
    "types": [
      "songwriters",
      "8"
    ]
  }
}