{
  "header": {
    "description": "Karaoke Mugen Tag File",
    "version": 1
  },
  "tag": {
    "i18n": {
      "eng": "Yume Nozaki"
    },
    "name": "Yume Nozaki",
    "repository": "kara.moe",
    "tid": "af0f7155-0e24-4d7e-a10f-bda756bbde12",
    "types": [
      "singers",
      "2"
    ]
  }
}