{
  "header": {
    "description": "Karaoke Mugen Tag File",
    "version": 1
  },
  "tag": {
    "aliases": [
      "Yumeiro Patissiere SP Professional",
      "yumepati sp"
    ],
    "external_database_ids": {
      "anilist": 9441,
      "myanimelist": 9441,
      "kitsu": 5735
    },
    "i18n": {
      "eng": "Yume-iro Patissiere SP Professional",
      "fre": "Yume-iro Pâtissière SP Professional",
      "jpn": "夢色パティシエールSP プロフェッショナル",
      "qro": "Yume-iro Patissiere SP Professional"
    },
    "modified_at": "2020-03-31T19:04:33.186Z",
    "name": "Yume-iro Patissiere SP Professional",
    "repository": "kara.moe",
    "tid": "efdc0f9a-de97-461f-8bf7-ad00c12f56c8",
    "types": [
      "series",
      "1"
    ]
  }
}