{
  "header": {
    "description": "Karaoke Mugen Tag File",
    "version": 1
  },
  "tag": {
    "aliases": [
      "Dream-Colored Pastry Chef",
      "Dream-Coloured Pastry Chef",
      "Yumeiro Patissiere",
      "Yumeiro Patissiere Professional",
      "Yumeiro Pâtissière",
      "Yumepati",
      "梦色蛋糕师"
    ],
    "external_database_ids": {
      "anilist": 6586,
      "myanimelist": 6586,
      "kitsu": 4625
    },
    "i18n": {
      "eng": "Yume-iro Patissiere",
      "fre": "Yume-iro Pâtissière",
      "jpn": "夢色パティシエール",
      "qro": "Yume-iro Patissiere"
    },
    "modified_at": "2020-03-31T19:04:33.187Z",
    "name": "Yume-iro Patissiere",
    "repository": "kara.moe",
    "tid": "9c1f0588-844b-4cca-9a20-af86f6c5deca",
    "types": [
      "series",
      "1",
      "franchises",
      "18"
    ]
  }
}