{
  "header": {
    "description": "Karaoke Mugen Tag File",
    "version": 1
  },
  "tag": {
    "aliases": [
      "Yume no Crayon Oukoku",
      "Dream Crayon Kingdom",
      "Crayon Kingdom of Dreams",
      "oukoku"
    ],
    "external_database_ids": {
      "anilist": 4651,
      "myanimelist": 4651,
      "kitsu": 3723
    },
    "i18n": {
      "eng": "Yume no Crayon Ôkoku",
      "jpn": "夢のクレヨン王国",
      "fre": "Le Royaume des couleurs",
      "qro": "Yume no Crayon Ôkoku"
    },
    "modified_at": "2020-11-12T18:03:48.830Z",
    "name": "Yume no Crayon Ôkoku",
    "repository": "kara.moe",
    "tid": "48b0cdd8-50e8-4ab6-aea2-27db2fc5a5b1",
    "types": [
      "series",
      "1"
    ]
  }
}