{
  "header": {
    "description": "Karaoke Mugen Tag File",
    "version": 1
  },
  "tag": {
    "i18n": {
      "eng": "Yume Suzuki"
    },
    "name": "Yume Suzuki",
    "tid": "94decfbc-9ac5-4698-839a-528a74984d79",
    "types": [
      "singers",
      "2",
      "songwriters",
      "8"
    ],
    "repository": "kara.moe",
    "modified_at": "2020-03-31T19:04:38.733Z"
  }
}