{
  "header": {
    "description": "Karaoke Mugen Tag File",
    "version": 1
  },
  "tag": {
    "external_database_ids": {
      "anilist": 157397,
      "kitsu": 46763,
      "myanimelist": 53632
    },
    "i18n": {
      "jpn": "夢見る男子は現実主義者",
      "qro": "Yumemiru Danshi wa Genjitsushugisha",
      "eng": "The Dreaming Boy is a Realist"
    },
    "name": "Yumemiru Danshi wa Genjitsushugisha",
    "repository": "kara.moe",
    "tid": "af2587ea-5fcf-4eea-89d8-4644bc19270c",
    "types": [
      "series",
      "1"
    ]
  }
}