{
  "header": {
    "description": "Karaoke Mugen Tag File",
    "version": 1
  },
  "tag": {
    "i18n": {
      "eng": "Yumi Higuchi"
    },
    "name": "Yumi Higuchi",
    "tid": "af68ba94-ff84-47b0-925e-a684ce3703f8",
    "types": [
      "singers",
      "2"
    ],
    "repository": "kara.moe",
    "modified_at": "2020-03-31T19:04:38.737Z"
  }
}