{
  "header": {
    "description": "Karaoke Mugen Tag File",
    "version": 1
  },
  "tag": {
    "i18n": {
      "eng": "Yumiko Takahashi"
    },
    "name": "Yumiko Takahashi",
    "tid": "bbe25707-40db-467f-968d-676eae99f8d1",
    "types": [
      "singers",
      "2"
    ],
    "repository": "kara.moe",
    "modified_at": "2020-03-31T19:04:38.751Z"
  }
}