{
  "header": {
    "description": "Karaoke Mugen Tag File",
    "version": 1
  },
  "tag": {
    "i18n": {
      "eng": "Yumiko Homato"
    },
    "name": "Yumiko Homato",
    "tid": "44970d73-5f73-4cb1-bb48-0d6749b4f5c0",
    "types": [
      "songwriters",
      "8"
    ],
    "repository": "kara.moe",
    "modified_at": "2020-03-31T19:04:38.748Z"
  }
}