{
  "header": {
    "description": "Karaoke Mugen Tag File",
    "version": 1
  },
  "tag": {
    "i18n": {
      "eng": "Yumi Shimura"
    },
    "name": "Yumi Shimura",
    "repository": "kara.moe",
    "tid": "cb6e9e48-5617-443a-b42d-02dbd8c425d7",
    "types": [
      "songwriters",
      "8"
    ]
  }
}