{
  "header": {
    "description": "Karaoke Mugen Tag File",
    "version": 1
  },
  "tag": {
    "i18n": {
      "eng": "Yumiko Tsujimura"
    },
    "name": "Yumiko Tsujimura",
    "tid": "a32fdb67-6243-49c5-9de9-5f56eb16c2e0",
    "types": [
      "songwriters",
      "8"
    ],
    "repository": "kara.moe",
    "modified_at": "2020-03-31T19:04:38.751Z"
  }
}