{
  "header": {
    "description": "Karaoke Mugen Tag File",
    "version": 1
  },
  "tag": {
    "i18n": {
      "eng": "Yumi Hiroki"
    },
    "name": "Yumi Hiroki",
    "tid": "2b4df2a6-8976-4db0-b90f-1f61693fa4f9",
    "types": [
      "singers",
      "2"
    ],
    "repository": "kara.moe",
    "modified_at": "2020-03-31T19:04:38.738Z"
  }
}