{
  "header": {
    "description": "Karaoke Mugen Tag File",
    "version": 1
  },
  "tag": {
    "i18n": {
      "eng": "Yun*chi"
    },
    "name": "Yun*chi",
    "tid": "09a103c7-e962-4a28-9980-b69c3b4116d6",
    "types": [
      "singers",
      "2",
      "songwriters",
      "8"
    ],
    "repository": "kara.moe",
    "modified_at": "2020-03-31T19:04:38.754Z"
  }
}