{
  "header": {
    "description": "Karaoke Mugen Tag File",
    "version": 1
  },
  "tag": {
    "i18n": {
      "eng": "Yún Xī",
      "chi": "沄汐"
    },
    "modified_at": "2021-03-13T16:42:29.251Z",
    "name": "Yún Xī",
    "repository": "kara.moe",
    "tid": "0fbc1f76-0d2c-4eb7-a8f0-c9dffadc2d2c",
    "types": [
      "songwriters",
      "8"
    ]
  }
}