{
  "header": {
    "description": "Karaoke Mugen Tag File",
    "version": 1
  },
  "tag": {
    "i18n": {
      "eng": "YuNi"
    },
    "name": "YuNi",
    "tid": "6d61d74c-1254-4dce-a926-ec9572012d6b",
    "types": [
      "singers",
      "2"
    ],
    "repository": "kara.moe",
    "modified_at": "2020-03-31T19:04:38.756Z"
  }
}