{
  "header": {
    "description": "Karaoke Mugen Tag File",
    "version": 1
  },
  "tag": {
    "i18n": {
      "eng": "Yunomi"
    },
    "name": "Yunomi",
    "repository": "kara.moe",
    "tid": "0cde8348-23d5-4834-91a4-59da99592f4d",
    "types": [
      "songwriters",
      "8",
      "singers",
      "2"
    ]
  }
}