{
  "header": {
    "description": "Karaoke Mugen Tag File",
    "version": 1
  },
  "tag": {
    "i18n": {
      "eng": "Yunosuke"
    },
    "name": "Yunosuke",
    "repository": "kara.moe",
    "tid": "b95644d4-0de7-41cf-ac3d-1ed0ea75486e",
    "types": [
      "songwriters",
      "8"
    ]
  }
}