{
  "header": {
    "description": "Karaoke Mugen Tag File",
    "version": 1
  },
  "tag": {
    "i18n": {
      "eng": "YUPPA"
    },
    "name": "YUPPA",
    "tid": "5aa90354-4e6e-4f68-a280-49ab16b3fe8b",
    "types": [
      "singers",
      "2"
    ],
    "repository": "kara.moe",
    "modified_at": "2020-03-31T19:04:38.759Z"
  }
}