{
  "header": {
    "description": "Karaoke Mugen Tag File",
    "version": 1
  },
  "tag": {
    "i18n": {
      "eng": "Yura Mizuno"
    },
    "name": "Yura Mizuno",
    "repository": "kara.moe",
    "tid": "b57bca46-3fed-4181-8291-e1fe3a286045",
    "types": [
      "songwriters",
      "8"
    ]
  }
}