{
  "header": {
    "description": "Karaoke Mugen Tag File",
    "version": 1
  },
  "tag": {
    "i18n": {
      "eng": "yure"
    },
    "name": "yure",
    "repository": "kara.moe",
    "tid": "d8ffe92c-ab77-4d90-9d0b-716d979e036b",
    "types": [
      "songwriters",
      "8"
    ]
  }
}