{
  "header": {
    "description": "Karaoke Mugen Tag File",
    "version": 1
  },
  "tag": {
    "i18n": {
      "eng": "yure"
    },
    "name": "yure",
    "repository": "kara.moe",
    "tid": "195d180e-e313-44be-a5bc-c2b97133e605",
    "types": [
      "singers",
      "2"
    ]
  }
}