{
  "header": {
    "description": "Karaoke Mugen Tag File",
    "version": 1
  },
  "tag": {
    "i18n": {
      "eng": "Yurie"
    },
    "modified_at": "2021-05-21T21:46:31.085Z",
    "name": "Yurie",
    "repository": "kara.moe",
    "tid": "5f752730-cf84-4397-ba4f-e1a003e3b092",
    "types": [
      "singers",
      "2"
    ]
  }
}