{
  "header": {
    "description": "Karaoke Mugen Tag File",
    "version": 1
  },
  "tag": {
    "i18n": {
      "eng": "Yuriko Mori"
    },
    "name": "Yuriko Mori",
    "tid": "12bf3975-e982-4cf7-900b-1784cbbae224",
    "types": [
      "songwriters",
      "8"
    ],
    "repository": "kara.moe",
    "modified_at": "2020-03-31T19:04:38.769Z"
  }
}