{
  "header": {
    "description": "Karaoke Mugen Tag File",
    "version": 1
  },
  "tag": {
    "i18n": {
      "eng": "Yuri Fukuda"
    },
    "name": "Yuri Fukuda",
    "tid": "155e6d48-32ba-490f-a022-3aa63c7bef22",
    "types": [
      "songwriters",
      "8"
    ],
    "repository": "kara.moe",
    "modified_at": "2020-03-31T19:04:38.760Z"
  }
}