{
  "header": {
    "description": "Karaoke Mugen Tag File",
    "version": 1
  },
  "tag": {
    "i18n": {
      "eng": "Yurika Ochiai"
    },
    "name": "Yurika Ochiai",
    "tid": "40a07bc4-5d17-4921-99f0-e1b8e9ece055",
    "types": [
      "singers",
      "2"
    ],
    "repository": "kara.moe",
    "modified_at": "2020-03-31T19:04:38.768Z"
  }
}