{
  "header": {
    "description": "Karaoke Mugen Tag File",
    "version": 1
  },
  "tag": {
    "i18n": {
      "eng": "Yurina Furukawa"
    },
    "name": "Yurina Furukawa",
    "tid": "c57f38a1-ce31-4744-87c2-54a6f5e56edc",
    "types": [
      "singers",
      "2"
    ],
    "repository": "kara.moe",
    "modified_at": "2020-03-31T19:04:38.771Z"
  }
}