{
  "header": {
    "description": "Karaoke Mugen Tag File",
    "version": 1
  },
  "tag": {
    "i18n": {
      "jpn": "中村 由利",
      "qro": "Yuri Nakamura"
    },
    "name": "Yuri Nakamura",
    "repository": "kara.moe",
    "tid": "2a560307-cd21-4d87-bee8-5f3de30ac457",
    "types": [
      "singers",
      "2",
      "songwriters",
      "8"
    ]
  }
}