{
  "header": {
    "description": "Karaoke Mugen Tag File",
    "version": 1
  },
  "tag": {
    "i18n": {
      "eng": "Yuri Misumi"
    },
    "modified_at": "2020-05-10T13:27:40.360Z",
    "name": "Yuri Misumi",
    "repository": "kara.moe",
    "tid": "58fa07aa-5d00-4928-b525-6e09faebc4cc",
    "types": [
      "songwriters",
      "8"
    ]
  }
}