{
  "header": {
    "description": "Karaoke Mugen Tag File",
    "version": 1
  },
  "tag": {
    "i18n": {
      "eng": "Yuria Yato"
    },
    "name": "Yuria Yato",
    "tid": "4b40773b-872b-45cc-9d30-650e82960aa5",
    "types": [
      "singers",
      "2",
      "songwriters",
      "8"
    ],
    "repository": "kara.moe",
    "modified_at": "2020-03-31T19:04:38.764Z"
  }
}