{
  "header": {
    "description": "Karaoke Mugen Tag File",
    "version": 1
  },
  "tag": {
    "i18n": {
      "eng": "Yurina Shuto"
    },
    "name": "Yurina Shuto",
    "repository": "kara.moe",
    "tid": "a345f984-bb0c-41eb-89aa-25e9712ab65c",
    "types": [
      "singers",
      "2"
    ]
  }
}