{
  "header": {
    "description": "Karaoke Mugen Tag File",
    "version": 1
  },
  "tag": {
    "i18n": {
      "eng": "YURI*KARI"
    },
    "name": "YURI*KARI",
    "tid": "025e3c11-a9b1-4fc1-b537-74be262f6bdc",
    "types": [
      "singers",
      "2"
    ],
    "repository": "kara.moe",
    "modified_at": "2020-03-31T19:04:38.761Z"
  }
}