{
  "header": {
    "description": "Karaoke Mugen Tag File",
    "version": 1
  },
  "tag": {
    "aliases": [
      "Love Bullet - Yurikuma Arashi",
      "Yuri Bear Storm",
      "Yuri Kuma Arashi",
      "yka"
    ],
    "external_database_ids": {
      "anilist": 20827,
      "myanimelist": 26165,
      "kitsu": 8738
    },
    "i18n": {
      "chi": "百合熊风暴",
      "eng": "Yurikuma Arashi",
      "fre": "Yuri Kuma Arashi",
      "jpn": "ユリ熊嵐",
      "pol": "Burza Liliowego Niedźwiedzia",
      "qro": "Yurikuma Arashi"
    },
    "modified_at": "2020-06-21T23:45:31.966Z",
    "name": "Yurikuma Arashi",
    "repository": "kara.moe",
    "tid": "6dde191d-7b6b-4d0a-86fe-917c0c85d923",
    "types": [
      "series",
      "1"
    ]
  }
}