{
  "header": {
    "description": "Karaoke Mugen Tag File",
    "version": 1
  },
  "tag": {
    "i18n": {
      "eng": "Yurisa Ueda"
    },
    "modified_at": "2021-07-28T23:21:56.037Z",
    "name": "Yurisa Ueda",
    "repository": "kara.moe",
    "tid": "7ad7c1a0-2df0-4cf2-90d3-cbde3f31b47f",
    "types": [
      "creators",
      "4"
    ]
  }
}