{
  "header": {
    "description": "Karaoke Mugen Tag File",
    "version": 1
  },
  "tag": {
    "i18n": {
      "eng": "Yuri Konno"
    },
    "name": "Yuri Konno",
    "repository": "kara.moe",
    "tid": "913913d1-aa6b-402a-b22a-1edf7cde136b",
    "types": [
      "singers",
      "2"
    ]
  }
}