{
  "header": {
    "description": "Karaoke Mugen Tag File",
    "version": 1
  },
  "tag": {
    "i18n": {
      "eng": "Yuri Noguchi"
    },
    "name": "Yuri Noguchi",
    "tid": "34cac380-f1a6-46a6-b2cc-a99e98a7b814",
    "types": [
      "singers",
      "2"
    ],
    "repository": "kara.moe",
    "modified_at": "2020-03-31T19:04:38.763Z"
  }
}