{
  "header": {
    "description": "Karaoke Mugen Tag File",
    "version": 1
  },
  "tag": {
    "aliases": [
      "Yurukyan"
    ],
    "i18n": {
      "eng": "Laid-Back Camp",
      "fre": "Yuru Camp – Au grand air",
      "jpn": "ゆるキャン△",
      "qro": "Yuru Camp△"
    },
    "name": "Yuru Camp",
    "repository": "kara.moe",
    "tid": "51c6394c-2561-4451-b218-843eebde170c",
    "types": [
      "franchises",
      "18"
    ]
  }
}