{
  "header": {
    "description": "Karaoke Mugen Tag File",
    "version": 1
  },
  "tag": {
    "external_database_ids": {
      "anilist": 20625,
      "myanimelist": 23225,
      "kitsu": 8492
    },
    "i18n": {
      "eng": "Yuru Yuri Nachuyachumi!",
      "jpn": "ゆるゆり なちゅやちゅみ!",
      "qro": "Yuru Yuri Nachuyachumi!"
    },
    "modified_at": "2020-03-31T19:04:33.191Z",
    "name": "Yuru Yuri Nachuyachumi!",
    "repository": "kara.moe",
    "tid": "c0a1a28c-4072-47a6-87c9-24bcd9bc234e",
    "types": [
      "series",
      "1"
    ]
  }
}