{
  "header": {
    "description": "Karaoke Mugen Tag File",
    "version": 1
  },
  "tag": {
    "aliases": [
      "yurukyan"
    ],
    "i18n": {
      "eng": "Laid-Back Camp: Have a nice day!",
      "fre": "Yuru Camp - Have a nice day!",
      "jpn": "ゆるキャン△ Have a nice day!"
    },
    "name": "Yuru Camp△ Have a nice day!",
    "repository": "kara.moe",
    "tid": "48e88407-6e7e-4758-9ed1-d29d6be9c363",
    "types": [
      "series",
      "1"
    ]
  }
}