{
  "header": {
    "description": "Karaoke Mugen Tag File",
    "version": 1
  },
  "tag": {
    "i18n": {
      "eng": "YUSHIO"
    },
    "name": "YUSHIO",
    "tid": "f9e125e5-d56e-4ce3-9565-b986052aa0f4",
    "types": [
      "songwriters",
      "8"
    ],
    "repository": "kara.moe",
    "modified_at": "2020-03-31T19:04:38.773Z"
  }
}