{
  "header": {
    "description": "Karaoke Mugen Tag File",
    "version": 1
  },
  "tag": {
    "external_database_ids": {
      "anilist": 148109,
      "kitsu": 46087,
      "myanimelist": 51706
    },
    "i18n": {
      "eng": "The Legendary Hero is Dead!",
      "jpn": "勇者が死んだ!",
      "qro": "Yūsha ga Shinda!"
    },
    "name": "Yūsha ga Shinda!",
    "repository": "kara.moe",
    "tid": "7ad31696-741e-4fa4-9820-885876eca7d5",
    "types": [
      "series",
      "1"
    ]
  }
}