{
  "header": {
    "description": "Karaoke Mugen Tag File",
    "version": 1
  },
  "tag": {
    "i18n": {
      "eng": "Yūsuke Tatsuzaki"
    },
    "name": "Yūsuke Tatsuzaki",
    "repository": "kara.moe",
    "tid": "7b8c54a1-11b1-4207-a9c6-bf709437ee05",
    "types": [
      "songwriters",
      "8"
    ]
  }
}