{
  "header": {
    "description": "Karaoke Mugen Tag File",
    "version": 1
  },
  "tag": {
    "i18n": {
      "eng": "Yusuke Tsutsumi"
    },
    "name": "Yusuke Tsutsumi",
    "repository": "kara.moe",
    "tid": "209f7295-a775-4f14-89f5-73f1a90dcf29",
    "types": [
      "songwriters",
      "8"
    ]
  }
}