{
  "header": {
    "description": "Karaoke Mugen Tag File",
    "version": 1
  },
  "tag": {
    "i18n": {
      "eng": "Yusuke Kato"
    },
    "name": "Yusuke Kato",
    "tid": "53941da1-5adb-413c-bcd9-da93c2702a3e",
    "types": [
      "creators",
      "4"
    ],
    "repository": "kara.moe",
    "modified_at": "2020-03-31T19:04:38.774Z"
  }
}