{
  "header": {
    "description": "Karaoke Mugen Tag File",
    "version": 1
  },
  "tag": {
    "i18n": {
      "eng": "Yuta Yoneyama"
    },
    "modified_at": "2020-12-30T21:59:31.539Z",
    "name": "Yuta Yoneyama",
    "repository": "kara.moe",
    "tid": "446daffb-6e9d-48dc-90f7-3f7de40887a9",
    "types": [
      "songwriters",
      "8"
    ]
  }
}