{
  "header": {
    "description": "Karaoke Mugen Tag File",
    "version": 1
  },
  "tag": {
    "i18n": {
      "eng": "Yutaka Ono"
    },
    "name": "Yutaka Ono",
    "tid": "f5f14959-c724-45d0-8557-6d5f5ba3f84a",
    "types": [
      "singers",
      "2"
    ],
    "repository": "kara.moe",
    "modified_at": "2020-03-31T19:04:38.776Z"
  }
}