{
  "header": {
    "description": "Karaoke Mugen Tag File",
    "version": 1
  },
  "tag": {
    "i18n": {
      "eng": "Yutaka Yamamoto"
    },
    "name": "Yutaka Yamamoto",
    "tid": "85d65b57-5505-44a9-90bc-2fafd680e2dc",
    "types": [
      "songwriters",
      "8"
    ],
    "repository": "kara.moe",
    "modified_at": "2020-03-31T19:04:38.777Z"
  }
}