{
  "header": {
    "description": "Karaoke Mugen Tag File",
    "version": 1
  },
  "tag": {
    "i18n": {
      "eng": "YUU for YOU"
    },
    "name": "YUU for YOU",
    "repository": "kara.moe",
    "tid": "19b22e97-dd1f-4dfc-8208-177f393876f3",
    "types": [
      "songwriters",
      "8"
    ]
  }
}