{
  "header": {
    "description": "Karaoke Mugen Tag File",
    "version": 1
  },
  "tag": {
    "i18n": {
      "eng": "Yû Sasahara"
    },
    "name": "Yû Sasahara",
    "tid": "72c1b327-eefc-48ec-9bcc-b283fb56ef13",
    "types": [
      "singers",
      "2"
    ],
    "repository": "kara.moe",
    "modified_at": "2020-03-31T19:04:38.781Z"
  }
}