{
  "header": {
    "description": "Karaoke Mugen Tag File",
    "version": 1
  },
  "tag": {
    "i18n": {
      "eng": "Yû Wakui"
    },
    "name": "Yû Wakui",
    "tid": "1e5b7055-2cf0-4b4b-9bef-b6bcfb4b24d5",
    "types": [
      "singers",
      "2"
    ],
    "repository": "kara.moe",
    "modified_at": "2020-03-31T19:04:38.783Z"
  }
}