{
  "header": {
    "description": "Karaoke Mugen Tag File",
    "version": 1
  },
  "tag": {
    "i18n": {
      "eng": "Yuu Kikkawa",
      "jpn": "吉川友",
      "qro": "Yuu Kikkawa"
    },
    "name": "Yuu Kikkawa",
    "repository": "kara.moe",
    "tid": "4ce1409d-3791-4efe-bdf2-8efe67fb199c",
    "types": [
      "singers",
      "2"
    ]
  }
}