{
  "header": {
    "description": "Karaoke Mugen Tag File",
    "version": 1
  },
  "tag": {
    "i18n": {
      "eng": "Yuu"
    },
    "name": "Yuu",
    "tid": "d33a6cc2-73e0-413b-a836-a6fc7efac560",
    "types": [
      "songwriters",
      "8"
    ],
    "repository": "kara.moe",
    "modified_at": "2020-03-31T19:04:38.785Z"
  }
}