{
  "header": {
    "description": "Karaoke Mugen Tag File",
    "version": 1
  },
  "tag": {
    "aliases": [
      "Yuuichirou"
    ],
    "i18n": {
      "eng": "Yûichirô Umehara",
      "jpn": "梅原裕一郎",
      "qro": "Yûichirô Umehara"
    },
    "name": "Yûichirô Umehara",
    "repository": "kara.moe",
    "tid": "9bdf3363-b8b1-4ae3-82d9-41a7a1527eee",
    "types": [
      "singers",
      "2"
    ]
  }
}