{
  "header": {
    "description": "Karaoke Mugen Tag File",
    "version": 1
  },
  "tag": {
    "i18n": {
      "eng": "Yûjin Kitagawa"
    },
    "modified_at": "2020-06-01T01:05:26.292Z",
    "name": "Yûjin Kitagawa",
    "repository": "kara.moe",
    "tid": "0de1e118-c2d3-4c71-aa02-d00c5b1ecab7",
    "types": [
      "songwriters",
      "8"
    ]
  }
}