{
  "header": {
    "description": "Karaoke Mugen Tag File",
    "version": 1
  },
  "tag": {
    "i18n": {
      "eng": "Yûji Yoshino"
    },
    "name": "Yûji Yoshino",
    "tid": "ec0fbba3-c3c2-4177-b020-e255c80a8b40",
    "types": [
      "songwriters",
      "8"
    ],
    "repository": "kara.moe",
    "modified_at": "2020-03-31T19:04:38.799Z"
  }
}