{
  "header": {
    "description": "Karaoke Mugen Tag File",
    "version": 1
  },
  "tag": {
    "i18n": {
      "eng": "Yûji Hasegawa"
    },
    "name": "Yûji Hasegawa",
    "tid": "e91ffce3-eaa8-4007-be9d-dfdb612ad3a9",
    "types": [
      "songwriters",
      "8"
    ],
    "repository": "kara.moe",
    "modified_at": "2020-03-31T19:04:38.796Z"
  }
}