{
  "header": {
    "description": "Karaoke Mugen Tag File",
    "version": 1
  },
  "tag": {
    "aliases": [
      "Yuuji Ogawa",
      "おがわ ゆうじ"
    ],
    "i18n": {
      "jpn": "小川裕司",
      "qro": "Yûji Ogawa"
    },
    "name": "Yûji Ogawa",
    "repository": "kara.moe",
    "tid": "a4f0e23a-90ce-4b81-957a-7e0085f93caf",
    "types": [
      "songwriters",
      "8"
    ]
  }
}