{
  "header": {
    "description": "Karaoke Mugen Tag File",
    "version": 1
  },
  "tag": {
    "aliases": [
      "Yuuji Kanou"
    ],
    "i18n": {
      "eng": "Yûji Kanô"
    },
    "modified_at": "2020-08-17T19:38:59.296Z",
    "name": "Yûji Kanô",
    "repository": "kara.moe",
    "tid": "92c62e4b-7f25-432d-9450-592e7b4a25ac",
    "types": [
      "songwriters",
      "8"
    ]
  }
}