{
  "header": {
    "description": "Karaoke Mugen Tag File",
    "version": 1
  },
  "tag": {
    "aliases": [
      ""
    ],
    "external_database_ids": {
      "anilist": 97858,
      "myanimelist": 34374,
      "kitsu": 13125
    },
    "i18n": {
      "eng": "Yuki Yuna is a Hero: Washio Sumi Chapter 1 - Friends",
      "jpn": "結城友奈は勇者である -鷲尾須美の章- 第１章「ともだち」",
      "qro": "Yûki Yûna wa Yûsha de Aru: Washio Sumi no Shô 1 – Tomodachi"
    },
    "name": "Yûki Yûna wa Yûsha de Aru: Washio Sumi no Shô 1 – Tomodachi",
    "repository": "kara.moe",
    "tid": "3ebe4300-9e80-4981-a6c9-5287080267fa",
    "types": [
      "series",
      "1"
    ]
  }
}