{
  "header": {
    "description": "Karaoke Mugen Tag File",
    "version": 1
  },
  "tag": {
    "aliases": [
      "Yuuka Morishima"
    ],
    "i18n": {
      "eng": "Yûka Morishima"
    },
    "name": "Yûka Morishima",
    "tid": "18f2188e-62cd-4871-ab33-c16748dde6b6",
    "types": [
      "singers",
      "2"
    ],
    "repository": "kara.moe",
    "modified_at": "2020-03-31T19:04:38.802Z"
  }
}