{
  "header": {
    "description": "Karaoke Mugen Tag File",
    "version": 1
  },
  "tag": {
    "aliases": [
      "yuyuyu 3",
      "Yuuki Yuuna wa Yuusha de Aru: Dai Mankai no Shou",
      "結城友奈是勇者 大滿開之章",
      "yuuki",
      "yuuna",
      "yuusha",
      "shou"
    ],
    "external_database_ids": {
      "anilist": 122292,
      "myanimelist": 42587,
      "kitsu": 44333
    },
    "i18n": {
      "eng": "Yuki Yuna Is a Hero: The Great Mankai Chapter",
      "jpn": "結城友奈は勇者である -大満開の章-",
      "chi": "结城友奈是勇者 大满开之章",
      "kor": "유우키 유우나는 용사다: 대만개의 장",
      "qro": "Yûki Yûna wa Yûsha de Aru: Dai Mankai no Shô"
    },
    "name": "Yûki Yûna wa Yûsha de Aru: Dai Mankai no Shô",
    "repository": "kara.moe",
    "short": "yuyuyu",
    "tid": "808d3391-1b59-46f6-a527-f7fafb382a45",
    "types": [
      "series",
      "1"
    ]
  }
}