{
  "header": {
    "description": "Karaoke Mugen Tag File",
    "version": 1
  },
  "tag": {
    "i18n": {
      "eng": "Yûki Hide"
    },
    "name": "Yûki Hide",
    "tid": "9d8a7c8a-89b8-40a7-80f6-35826f3718c9",
    "types": [
      "singers",
      "2"
    ],
    "repository": "kara.moe",
    "modified_at": "2020-03-31T19:04:38.806Z"
  }
}