{
  "header": {
    "description": "Karaoke Mugen Tag File",
    "version": 1
  },
  "tag": {
    "aliases": [
      "yuuka"
    ],
    "i18n": {
      "jpn": "相坂優歌",
      "qro": "Yûka Aisaka"
    },
    "name": "Yûka Aisaka",
    "repository": "kara.moe",
    "tid": "ed020f89-8212-452e-b7d5-c55bda61ceaa",
    "types": [
      "songwriters",
      "8",
      "singers",
      "2"
    ]
  }
}