{
  "header": {
    "description": "Karaoke Mugen Tag File",
    "version": 1
  },
  "tag": {
    "aliases": [
      "WaSuYu",
      "YuYuYu",
      "YuuYuuYuu",
      "Yuuki Yuuna wa Yuusha de Aru: Washio Sumi no Shou",
      "yuuki",
      "yuuna",
      "yuusha",
      "shou"
    ],
    "external_database_ids": {
      "anilist": 100791,
      "myanimelist": 34284,
      "kitsu": 12678
    },
    "i18n": {
      "eng": "Yuki Yuna is a Hero 2: The Washio Sumi Chapter",
      "jpn": "結城友奈は勇者である -鷲尾須美の章-",
      "qro": "Yûki Yûna wa Yûsha de Aru: Washio Sumi no Shô"
    },
    "name": "Yûki Yûna wa Yûsha de Aru: Washio Sumi no Shô",
    "repository": "kara.moe",
    "tid": "f1b25dd2-0a02-42de-b096-d200437b4e60",
    "types": [
      "series",
      "1"
    ]
  }
}