{
  "header": {
    "description": "Karaoke Mugen Tag File",
    "version": 1
  },
  "tag": {
    "i18n": {
      "eng": "Yûko Natsuyoshi"
    },
    "modified_at": "2020-04-19T21:10:49.624Z",
    "name": "Yûko Natsuyoshi",
    "repository": "kara.moe",
    "tid": "3ac2a26f-67aa-4f40-ba38-e653e90644c1",
    "types": [
      "singers",
      "2"
    ]
  }
}