{
  "header": {
    "description": "Karaoke Mugen Tag File",
    "version": 1
  },
  "tag": {
    "i18n": {
      "eng": "Yûki Yamauchi"
    },
    "name": "Yûki Yamauchi",
    "tid": "782400cc-2bc5-404a-8671-ac88956a7fae",
    "types": [
      "songwriters",
      "8"
    ],
    "repository": "kara.moe",
    "modified_at": "2020-03-31T19:04:38.818Z"
  }
}