{
  "header": {
    "description": "Karaoke Mugen Tag File",
    "version": 1
  },
  "tag": {
    "i18n": {
      "jpn": "蔀祐佳",
      "qro": "Yûka Shidomi"
    },
    "name": "Yûka Shidomi",
    "repository": "kara.moe",
    "tid": "a0abe18a-5e06-4c28-ac3b-83d5c0f0a32a",
    "types": [
      "singers",
      "2"
    ]
  }
}