{
  "header": {
    "description": "Karaoke Mugen Tag File",
    "version": 1
  },
  "tag": {
    "i18n": {
      "eng": "Yuuki Yuna"
    },
    "name": "Yuuki Yuna",
    "repository": "kara.moe",
    "tid": "5f93ec35-7372-4bb5-bfb0-288a14153234",
    "types": [
      "singers",
      "2"
    ]
  }
}