{
  "header": {
    "description": "Karaoke Mugen Tag File",
    "version": 1
  },
  "tag": {
    "i18n": {
      "eng": "Yûki Fukutoshi"
    },
    "name": "Yûki Fukutoshi",
    "tid": "bf290425-0a34-48a4-adbc-92fc9426a411",
    "types": [
      "songwriters",
      "8"
    ],
    "repository": "kara.moe",
    "modified_at": "2020-03-31T19:04:38.804Z"
  }
}