{
  "header": {
    "description": "Karaoke Mugen Tag File",
    "version": 1
  },
  "tag": {
    "i18n": {
      "eng": "Yûki Odagiri"
    },
    "name": "Yûki Odagiri",
    "tid": "37d5d9d1-c153-4a01-ac6a-4e2282d7ae43",
    "types": [
      "songwriters",
      "8"
    ],
    "repository": "kara.moe",
    "modified_at": "2020-03-31T19:04:38.811Z"
  }
}