{
  "header": {
    "description": "Karaoke Mugen Tag File",
    "version": 1
  },
  "tag": {
    "i18n": {
      "eng": "Yûki Kuwahara"
    },
    "name": "Yûki Kuwahara",
    "tid": "07078d40-4516-43c5-a80e-0bd28a8b98d0",
    "types": [
      "singers",
      "2"
    ],
    "repository": "kara.moe",
    "modified_at": "2020-03-31T19:04:38.809Z"
  }
}