{
  "header": {
    "description": "Karaoke Mugen Tag File",
    "version": 1
  },
  "tag": {
    "i18n": {
      "eng": "Yûko Kawai"
    },
    "name": "Yûko Kawai",
    "tid": "8fba34a5-5759-4a82-9c01-1c4ef0a6edc2",
    "types": [
      "singers",
      "2"
    ],
    "repository": "kara.moe",
    "modified_at": "2020-03-31T19:04:38.820Z"
  }
}