{
  "header": {
    "description": "Karaoke Mugen Tag File",
    "version": 1
  },
  "tag": {
    "aliases": [
      "yuuki"
    ],
    "i18n": {
      "jpn": "若井友希",
      "qro": "Yûki Wakai"
    },
    "name": "Yûki Wakai",
    "repository": "kara.moe",
    "tid": "7e4bddde-27db-412b-b37d-678d367864af",
    "types": [
      "singers",
      "2"
    ]
  }
}