{
  "header": {
    "description": "Karaoke Mugen Tag File",
    "version": 1
  },
  "tag": {
    "i18n": {
      "eng": "Yûko Ebine"
    },
    "name": "Yûko Ebine",
    "tid": "410c374d-9a39-423e-8dbe-6b1a3c3d9718",
    "types": [
      "songwriters",
      "8"
    ],
    "repository": "kara.moe",
    "modified_at": "2020-03-31T19:04:38.819Z"
  }
}