{
  "header": {
    "description": "Karaoke Mugen Tag File",
    "version": 1
  },
  "tag": {
    "i18n": {
      "eng": "Yûko Matsutani"
    },
    "name": "Yûko Matsutani",
    "tid": "d14b2b66-9ddb-4eeb-8274-a7bd0669d66f",
    "types": [
      "singers",
      "2"
    ],
    "repository": "kara.moe",
    "modified_at": "2020-03-31T19:04:38.821Z"
  }
}