{
  "header": {
    "description": "Karaoke Mugen Tag File",
    "version": 1
  },
  "tag": {
    "i18n": {
      "eng": "Yûka Uchiyae"
    },
    "name": "Yûka Uchiyae",
    "tid": "d9889aa0-884b-4ab1-97f6-9514efa13427",
    "types": [
      "singers",
      "2"
    ],
    "repository": "kara.moe",
    "modified_at": "2020-03-31T19:04:38.803Z"
  }
}