{
  "header": {
    "description": "Karaoke Mugen Tag File",
    "version": 1
  },
  "tag": {
    "i18n": {
      "eng": "Yûko Sanpei"
    },
    "name": "Yûko Sanpei",
    "tid": "78d6b851-76f9-49bc-bfb9-4d118f98d6c8",
    "types": [
      "singers",
      "2"
    ],
    "repository": "kara.moe",
    "modified_at": "2020-03-31T19:04:38.825Z"
  }
}