{
  "header": {
    "description": "Karaoke Mugen Tag File",
    "version": 1
  },
  "tag": {
    "i18n": {
      "eng": "Yûki Kuromitsu"
    },
    "name": "Yûki Kuromitsu",
    "tid": "72a00441-aee1-4746-938e-2f7eb8fb61f3",
    "types": [
      "songwriters",
      "8"
    ],
    "repository": "kara.moe",
    "modified_at": "2020-03-31T19:04:38.809Z"
  }
}