{
  "header": {
    "description": "Karaoke Mugen Tag File",
    "version": 1
  },
  "tag": {
    "aliases": [
      "Yuuna"
    ],
    "i18n": {
      "eng": "Yûna Asahi"
    },
    "name": "Yûna Asahi",
    "repository": "kara.moe",
    "tid": "7edea469-9f78-48e5-a038-5416a1c7c265",
    "types": [
      "singers",
      "2"
    ]
  }
}