{
  "header": {
    "description": "Karaoke Mugen Tag File",
    "version": 1
  },
  "tag": {
    "i18n": {
      "eng": "Yûri Yoshida"
    },
    "name": "Yûri Yoshida",
    "tid": "e7a0faa9-bc12-4f87-a717-b3eae183ce73",
    "types": [
      "singers",
      "2"
    ],
    "repository": "kara.moe",
    "modified_at": "2020-03-31T19:04:38.830Z"
  }
}