{
  "header": {
    "description": "Karaoke Mugen Tag File",
    "version": 1
  },
  "tag": {
    "i18n": {
      "eng": "Yûri"
    },
    "modified_at": "2021-02-16T22:49:13.064Z",
    "name": "Yûri",
    "repository": "kara.moe",
    "tid": "dbfccff4-3416-4d4d-8cee-aa43a4a8a67b",
    "types": [
      "songwriters",
      "8",
      "singers",
      "2"
    ]
  }
}