{
  "header": {
    "description": "Karaoke Mugen Tag File",
    "version": 1
  },
  "tag": {
    "i18n": {
      "jpn": "ゆうり",
      "qro": "Yuuri"
    },
    "name": "Yuuri (Akumade)",
    "repository": "kara.moe",
    "tid": "0c360823-61e0-4b31-94b9-41ba18bedf6e",
    "types": [
      "songwriters",
      "8"
    ]
  }
}