{
  "header": {
    "description": "Karaoke Mugen Tag File",
    "version": 1
  },
  "tag": {
    "i18n": {
      "eng": "Yûri Kuriyama"
    },
    "name": "Yûri Kuriyama",
    "tid": "1fde2877-8a39-437e-a4a6-09b0fcc107ce",
    "types": [
      "songwriters",
      "8"
    ],
    "repository": "kara.moe",
    "modified_at": "2020-03-31T19:04:38.829Z"
  }
}