{
  "header": {
    "description": "Karaoke Mugen Tag File",
    "version": 1
  },
  "tag": {
    "i18n": {
      "eng": "Yûsuke Miyazaki"
    },
    "name": "Yûsuke Miyazaki",
    "repository": "kara.moe",
    "tid": "70a90eb5-2343-4b29-aa8f-32e446942fe1",
    "types": [
      "songwriters",
      "8"
    ]
  }
}