{
  "header": {
    "description": "Karaoke Mugen Tag File",
    "version": 1
  },
  "tag": {
    "i18n": {
      "eng": "Yûsuke"
    },
    "name": "Yûsuke",
    "tid": "29604864-3b83-4285-b676-c8c5d0f8a74f",
    "types": [
      "singers",
      "2",
      "songwriters",
      "8"
    ],
    "repository": "kara.moe",
    "modified_at": "2020-03-31T19:04:38.843Z"
  }
}