{
  "header": {
    "description": "Karaoke Mugen Tag File",
    "version": 1
  },
  "tag": {
    "i18n": {
      "eng": "Yuusuke Onodera"
    },
    "name": "Yuusuke Onodera",
    "repository": "kara.moe",
    "tid": "a82aabc3-b902-4843-b573-e040ce1a9a56",
    "types": [
      "songwriters",
      "8"
    ]
  }
}