{
  "header": {
    "description": "Karaoke Mugen Tag File",
    "version": 1
  },
  "tag": {
    "aliases": [
      "Reideen the Brave",
      "Yuusha Raideen",
      "yuusha"
    ],
    "external_database_ids": {
      "anilist": 2128,
      "myanimelist": 2128,
      "kitsu": 1925
    },
    "i18n": {
      "eng": "Brave Raideen",
      "jpn": "勇者ライディーン",
      "qro": "Yûsha Raideen"
    },
    "modified_at": "2020-06-21T23:45:31.966Z",
    "name": "Yûsha Raideen",
    "repository": "kara.moe",
    "tid": "de92f9a9-9ff8-4832-a118-3cd5865e3314",
    "types": [
      "series",
      "1"
    ]
  }
}