{
  "header": {
    "description": "Karaoke Mugen Tag File",
    "version": 1
  },
  "tag": {
    "aliases": [
      "Yuusei Shounen Papii",
      "Yuusei Shounen Papy",
      "Yûsei Shônen Papy",
      "yuusei",
      "shounen"
    ],
    "external_database_ids": {
      "anilist": 6448,
      "myanimelist": 6448,
      "kitsu": 4566
    },
    "i18n": {
      "eng": "Prince Planet",
      "jpn": "遊星少年パピイ",
      "qro": "Yûsei Shônen Papii"
    },
    "modified_at": "2020-03-31T19:04:33.195Z",
    "name": "Yûsei Shônen Papii",
    "repository": "kara.moe",
    "tid": "1b825526-8d2b-4999-8fa6-4180fb16de72",
    "types": [
      "series",
      "1"
    ]
  }
}