{
  "header": {
    "description": "Karaoke Mugen Tag File",
    "version": 1
  },
  "tag": {
    "i18n": {
      "eng": "Yûsuke Nomura"
    },
    "name": "Yûsuke Nomura",
    "tid": "989f8f55-78f0-4bcd-bc02-fcee8e1ad07d",
    "types": [
      "songwriters",
      "8"
    ],
    "repository": "kara.moe",
    "modified_at": "2020-03-31T19:04:38.837Z"
  }
}