{
  "header": {
    "description": "Karaoke Mugen Tag File",
    "version": 1
  },
  "tag": {
    "i18n": {
      "eng": "Yûsuke Naruse"
    },
    "name": "Yûsuke Naruse",
    "tid": "abb2c35f-bdaa-48b8-b236-6a83a79e9e6f",
    "types": [
      "songwriters",
      "8"
    ],
    "repository": "kara.moe",
    "modified_at": "2020-03-31T19:04:38.836Z"
  }
}