{
  "header": {
    "description": "Karaoke Mugen Tag File",
    "version": 1
  },
  "tag": {
    "i18n": {
      "eng": "Yûta Takami"
    },
    "name": "Yûta Takami",
    "tid": "8cab58f9-db84-4882-b4dc-d33c11da8b8f",
    "types": [
      "songwriters",
      "8"
    ],
    "repository": "kara.moe",
    "modified_at": "2020-03-31T19:04:38.846Z"
  }
}