{
  "header": {
    "description": "Karaoke Mugen Tag File",
    "version": 1
  },
  "tag": {
    "aliases": [
      "Yuuta"
    ],
    "i18n": {
      "eng": "Yûta Yamaguchi"
    },
    "name": "Yûta Yamaguchi",
    "repository": "kara.moe",
    "tid": "523d1d14-61df-43ec-8b43-45acf400bcd6",
    "types": [
      "songwriters",
      "8"
    ]
  }
}