{
  "header": {
    "description": "Karaoke Mugen Tag File",
    "version": 1
  },
  "tag": {
    "i18n": {
      "eng": "Yûta Nakano"
    },
    "name": "Yûta Nakano",
    "tid": "f3c7208a-d031-4928-9152-fe3c3f2ae82e",
    "types": [
      "songwriters",
      "8"
    ],
    "repository": "kara.moe",
    "modified_at": "2020-03-31T19:04:38.844Z"
  }
}