{
  "header": {
    "description": "Karaoke Mugen Tag File",
    "version": 1
  },
  "tag": {
    "aliases": [
      "Yuuta Matsuura"
    ],
    "i18n": {
      "eng": "Yûta Matsûra",
      "jpn": "松浦雄太",
      "qro": "Yûta Matsûra"
    },
    "name": "Yûta Matsûra",
    "repository": "kara.moe",
    "tid": "d6f324b4-54ec-4edf-997b-4e2691781ea0",
    "types": [
      "songwriters",
      "8"
    ]
  }
}