{
  "header": {
    "description": "Karaoke Mugen Tag File",
    "version": 1
  },
  "tag": {
    "i18n": {
      "eng": "Yûto Tonokawa"
    },
    "name": "Yûto Tonokawa",
    "tid": "663e7d67-422d-464c-a3ee-a6813204a635",
    "types": [
      "songwriters",
      "8"
    ],
    "repository": "kara.moe",
    "modified_at": "2020-03-31T19:04:38.849Z"
  }
}