{
  "header": {
    "description": "Karaoke Mugen Tag File",
    "version": 1
  },
  "tag": {
    "i18n": {
      "eng": "Yûya Asaoka"
    },
    "name": "Yûya Asaoka",
    "tid": "afdff32a-fe2e-47bb-80d9-be75c2e7256d",
    "types": [
      "songwriters",
      "8"
    ],
    "repository": "kara.moe",
    "modified_at": "2020-03-31T19:04:38.850Z"
  }
}