{
  "header": {
    "description": "Karaoke Mugen Tag File",
    "version": 1
  },
  "tag": {
    "i18n": {
      "eng": "Yûya Hirose"
    },
    "name": "Yûya Hirose",
    "tid": "16182759-ad44-4170-abad-20a49a0865a9",
    "types": [
      "singers",
      "2"
    ],
    "repository": "kara.moe",
    "modified_at": "2020-03-31T19:04:38.850Z"
  }
}