{
  "header": {
    "description": "Karaoke Mugen Tag File",
    "version": 1
  },
  "tag": {
    "i18n": {
      "eng": "Yûya Hozumi"
    },
    "name": "Yûya Hozumi",
    "tid": "ffa5057e-fde8-4560-8152-f3e509086cab",
    "types": [
      "singers",
      "2"
    ],
    "repository": "kara.moe",
    "modified_at": "2020-03-31T19:04:38.851Z"
  }
}