{
  "header": {
    "description": "Karaoke Mugen Tag File",
    "version": 1
  },
  "tag": {
    "i18n": {
      "eng": "Yûya Saitô"
    },
    "name": "Yûya Saitô",
    "tid": "373c8381-3bf3-4b8f-90b1-35f9ffc0dd8b",
    "types": [
      "songwriters",
      "8"
    ],
    "repository": "kara.moe",
    "modified_at": "2020-03-31T19:04:38.852Z"
  }
}