{
  "header": {
    "description": "Karaoke Mugen Tag File",
    "version": 1
  },
  "tag": {
    "aliases": [
      "Sasara Yuuna",
      "篠螺悠那",
      "Karino Sugata ",
      "仮乃スガタ"
    ],
    "i18n": {
      "eng": "Yuuyu-P",
      "jpn": "ゆうゆP",
      "qro": "YuuyuP"
    },
    "modified_at": "2021-09-11T22:25:31.788Z",
    "name": "Yuuyu-P",
    "repository": "kara.moe",
    "tid": "d53852f2-9dd8-4858-be7c-644e67f39ef5",
    "types": [
      "songwriters",
      "8"
    ]
  }
}