{
  "header": {
    "description": "Karaoke Mugen Tag File",
    "version": 1
  },
  "tag": {
    "i18n": {
      "eng": "Yûyu"
    },
    "name": "Yûyu",
    "tid": "05559b85-9031-49a0-8a89-d31c2dbca6bc",
    "types": [
      "songwriters",
      "8"
    ],
    "repository": "kara.moe",
    "modified_at": "2020-03-31T19:04:38.853Z"
  }
}