{
  "header": {
    "description": "Karaoke Mugen Tag File",
    "version": 1
  },
  "tag": {
    "i18n": {
      "eng": "Yûzô Koshiro"
    },
    "name": "Yûzô Koshiro",
    "tid": "6e102029-04ad-4e7f-a927-662fef22b24e",
    "types": [
      "songwriters",
      "8"
    ],
    "repository": "kara.moe",
    "modified_at": "2020-03-31T19:04:38.854Z"
  }
}