{
  "header": {
    "description": "Karaoke Mugen Tag File",
    "version": 1
  },
  "tag": {
    "i18n": {
      "eng": "yuzen (Hifumi,inc.)"
    },
    "name": "yuzen (Hifumi,inc.)",
    "repository": "kara.moe",
    "tid": "227a0f94-305c-4c7d-94bf-0cf708212fd4",
    "types": [
      "songwriters",
      "8"
    ]
  }
}