{
  "header": {
    "description": "Karaoke Mugen Tag File",
    "version": 1
  },
  "tag": {
    "i18n": {
      "eng": "yyec"
    },
    "name": "yyec",
    "repository": "kara.moe",
    "tid": "04258b89-6c20-417b-8eb3-55d9afbd1bbe",
    "types": [
      "authors",
      "6"
    ]
  }
}