{
  "header": {
    "description": "Karaoke Mugen Tag File",
    "version": 1
  },
  "tag": {
    "i18n": {
      "eng": "Zaid Tabani"
    },
    "name": "Zaid Tabani",
    "repository": "kara.moe",
    "tid": "a5844e3f-c7de-4594-914a-8ab245f9a8fe",
    "types": [
      "songwriters",
      "8"
    ]
  }
}