{
  "header": {
    "description": "Karaoke Mugen Tag File",
    "version": 1
  },
  "tag": {
    "i18n": {
      "eng": "Zapiboss"
    },
    "name": "Zapiboss",
    "repository": "kara.moe",
    "tid": "a8ec9d52-6b28-4ba3-86b3-c3e3a5d7c4f8",
    "types": [
      "singers",
      "2",
      "authors",
      "6"
    ]
  }
}