{
  "header": {
    "description": "Karaoke Mugen Tag File",
    "version": 1
  },
  "tag": {
    "i18n": {
      "eng": "ZAPPY"
    },
    "name": "ZAPPY",
    "repository": "kara.moe",
    "tid": "b08d6ef3-7f9e-45bd-9e33-4c05deaf584a",
    "types": [
      "creators",
      "4"
    ]
  }
}