{
  "header": {
    "description": "Karaoke Mugen Tag File",
    "version": 1
  },
  "tag": {
    "i18n": {
      "eng": "Zazie"
    },
    "modified_at": "2021-05-23T22:51:14.752Z",
    "name": "Zazie",
    "repository": "kara.moe",
    "tid": "21bad7bc-f6da-4d0f-8335-45bdf84f4a35",
    "types": [
      "songwriters",
      "8",
      "singers",
      "2"
    ]
  }
}