{
  "header": {
    "description": "Karaoke Mugen Tag File",
    "version": 1
  },
  "tag": {
    "i18n": {
      "fre": "Zblucops"
    },
    "modified_at": "2020-03-31T19:04:33.204Z",
    "name": "Zblucops",
    "repository": "kara.moe",
    "tid": "b1246513-5dfc-44ea-be34-9f930cf055e6",
    "types": [
      "series",
      "1"
    ]
  }
}