{
  "header": {
    "description": "Karaoke Mugen Tag File",
    "version": 1
  },
  "tag": {
    "i18n": {
      "eng": "zebdal"
    },
    "name": "zebdal",
    "tid": "e31fc88f-986b-481a-aac4-27d277817d1a",
    "types": [
      "songwriters",
      "8"
    ],
    "repository": "kara.moe",
    "modified_at": "2020-03-31T19:04:38.867Z"
  }
}