{
  "header": {
    "description": "Karaoke Mugen Tag File",
    "version": 1
  },
  "tag": {
    "i18n": {
      "eng": "Zero-G Room"
    },
    "name": "Zero-G Room",
    "tid": "40ab7f73-1058-44db-9969-6cb16740c334",
    "types": [
      "creators",
      "4"
    ],
    "repository": "kara.moe",
    "modified_at": "2020-03-31T19:04:38.871Z"
  }
}