{
  "header": {
    "description": "Karaoke Mugen Tag File",
    "version": 1
  },
  "tag": {
    "aliases": [
      "ZnT"
    ],
    "i18n": {
      "eng": "The Familiar of Zero: Goblins and the Spring Breeze Concerto",
      "jpn": "ゼロの使い魔 小悪魔と春風の協奏曲",
      "qro": "Zero no Tsukaima: Koakuma to Harukaze no Concerto"
    },
    "name": "Zero no Tsukaima: Koakuma to Harukaze no Concerto",
    "repository": "kara.moe",
    "tid": "86d11bc2-dd5d-4738-ad98-9ba628016158",
    "types": [
      "series",
      "1"
    ]
  }
}