{
  "header": {
    "description": "Karaoke Mugen Tag File",
    "version": 1
  },
  "tag": {
    "i18n": {
      "eng": "ZEST"
    },
    "name": "ZEST",
    "repository": "kara.moe",
    "tid": "39a1e731-3a9d-4df5-9621-bf0ec079fca6",
    "types": [
      "creators",
      "4"
    ]
  }
}