{
  "header": {
    "description": "Karaoke Mugen Tag File",
    "version": 1
  },
  "tag": {
    "i18n": {
      "eng": "Zetima"
    },
    "name": "Zetima",
    "tid": "0c78737e-70ff-4b86-9d8c-4eca5ad3a18c",
    "types": [
      "creators",
      "4"
    ],
    "repository": "kara.moe",
    "modified_at": "2020-03-31T19:04:38.873Z"
  }
}