{
  "header": {
    "description": "Karaoke Mugen Tag File",
    "version": 1
  },
  "tag": {
    "aliases": [
      "Absolutely Lovely Children",
      "ZKC",
      "Восхитительные дети",
      "绝对可怜Children",
      "绝对可怜少女"
    ],
    "description": {
      "eng": ""
    },
    "external_database_ids": {
      "anilist": 4038,
      "myanimelist": 4038,
      "kitsu": 3425
    },
    "i18n": {
      "eng": "Psychic Squad",
      "jpn": "絶対可憐チルドレン",
      "qro": "Zettai Karen Children",
      "fre": "Zettai Karen Children"
    },
    "name": "Zettai Karen Children",
    "repository": "kara.moe",
    "tid": "e7808b71-5beb-4701-92aa-30353ad2ee8d",
    "types": [
      "series",
      "1"
    ]
  }
}