{
  "header": {
    "description": "Karaoke Mugen Tag File",
    "version": 1
  },
  "tag": {
    "i18n": {
      "eng": "Zhāng Huìquán",
      "chi": "张汇泉"
    },
    "modified_at": "2021-03-13T15:36:36.576Z",
    "name": "Zhāng Huìquán",
    "repository": "kara.moe",
    "tid": "68a34471-b83d-4d7f-8878-178cd0d9e32b",
    "types": [
      "songwriters",
      "8"
    ]
  }
}