{
  "header": {
    "description": "Karaoke Mugen Tag File",
    "version": 1
  },
  "tag": {
    "i18n": {
      "eng": "Zhao Han"
    },
    "name": "Zhao Han",
    "repository": "kara.moe",
    "tid": "cede98d9-031d-4dcb-9078-80bdb2e65316",
    "types": [
      "singers",
      "2"
    ]
  }
}