{
  "header": {
    "description": "Karaoke Mugen Tag File",
    "version": 1
  },
  "tag": {
    "i18n": {
      "eng": "zhōu dàbái"
    },
    "name": "zhōu dàbái",
    "repository": "kara.moe",
    "tid": "001e0485-4396-4104-accc-269ece4a5f45",
    "types": [
      "creators",
      "4"
    ]
  }
}