{
  "header": {
    "description": "Karaoke Mugen Tag File",
    "version": 1
  },
  "tag": {
    "i18n": {
      "eng": "ziro"
    },
    "name": "ziro",
    "tid": "b87a539c-f4da-491f-91e2-08c6b5ccbb1f",
    "types": [
      "creators",
      "4"
    ],
    "repository": "kara.moe",
    "modified_at": "2020-03-31T19:04:38.880Z"
  }
}