{
  "header": {
    "description": "Karaoke Mugen Tag File",
    "version": 1
  },
  "tag": {
    "i18n": {
      "eng": "Ziyu Che"
    },
    "name": "Ziyu Che",
    "repository": "kara.moe",
    "tid": "7d55a6d2-d9a0-458d-9e88-04c33817a833",
    "types": [
      "singers",
      "2"
    ]
  }
}