{
  "header": {
    "description": "Karaoke Mugen Tag File",
    "version": 1
  },
  "tag": {
    "i18n": {
      "eng": "Zlababababan"
    },
    "name": "Zlababababan",
    "repository": "kara.moe",
    "tid": "33d3e8cd-9e8b-4fc8-827d-fc5555c4a6e0",
    "types": [
      "authors",
      "6"
    ]
  }
}