{
  "header": {
    "description": "Karaoke Mugen Tag File",
    "version": 1
  },
  "tag": {
    "external_database_ids": {
      "anilist": 763,
      "myanimelist": 763,
      "kitsu": 685
    },
    "i18n": {
      "eng": "ZOIDS: Chaotic Century",
      "jpn": "ゾイド",
      "qro": "Zoids"
    },
    "modified_at": "2020-03-31T19:04:33.212Z",
    "name": "Zoids",
    "repository": "kara.moe",
    "tid": "6736f315-9596-408a-8be1-1755f2496972",
    "types": [
      "series",
      "1"
    ]
  }
}