{
  "header": {
    "description": "Karaoke Mugen Tag File",
    "version": 1
  },
  "tag": {
    "i18n": {
      "eng": "Zombi Numata"
    },
    "modified_at": "2021-05-09T12:13:57.585Z",
    "name": "Zombi Numata",
    "repository": "kara.moe",
    "tid": "857df871-7e58-4a68-9fb7-3fde9537c2dd",
    "types": [
      "creators",
      "4"
    ]
  }
}