{
  "header": {
    "description": "Karaoke Mugen Tag File",
    "version": 1
  },
  "tag": {
    "aliases": [
      "z0nesama"
    ],
    "i18n": {
      "eng": "ZONE"
    },
    "name": "ZONE",
    "repository": "kara.moe",
    "tid": "cd1fc839-c977-4d55-9b67-55437bbc6e61",
    "types": [
      "creators",
      "4"
    ]
  }
}