{
  "header": {
    "description": "Karaoke Mugen Tag File",
    "version": 1
  },
  "tag": {
    "i18n": {
      "eng": "Zootopia",
      "fre": "Zootopie",
      "ger": "Zoomania",
      "por": "Zootrópolis",
      "ita": "Zootropolis",
      "jpn": "ズートピア",
      "gre": "Ζωούπολη"
    },
    "name": "Zootopia",
    "repository": "kara.moe",
    "tid": "73c8a0b8-04f1-4f80-b6f5-7a9eff8a1bc1",
    "types": [
      "series",
      "1"
    ]
  }
}