{
  "header": {
    "description": "Karaoke Mugen Tag File",
    "version": 1
  },
  "tag": {
    "i18n": {
      "eng": "Zou Junjian"
    },
    "name": "Zou Junjian",
    "repository": "kara.moe",
    "tid": "92f7bad8-ad2c-4e70-9a0f-f17c2d50dbf4",
    "types": [
      "singers",
      "2"
    ]
  }
}