{
  "header": {
    "description": "Karaoke Mugen Tag File",
    "version": 1
  },
  "tag": {
    "i18n": {
      "afr": "Zulu",
      "amh": "ዙሉ አይገኙም",
      "ara": "الزولو",
      "aze": "Kürd",
      "bak": "Зулу",
      "bel": "Зулу",
      "bul": "Зулу",
      "ben": "জুলু",
      "bos": "Zulu",
      "cat": "Zulu",
      "cze": "Zulu",
      "wel": "Swlw",
      "dan": "Zulu",
      "ger": "Zulu",
      "gre": "Ζουλού",
      "eng": "Zulu",
      "epo": "Lingvo",
      "spa": "Zulu",
      "est": "Zulu",
      "baq": "Zulu",
      "per": "Zulu",
      "fin": "Zulu",
      "fre": "Zoulou",
      "gle": "Súlúis",
      "gla": "Zulu",
      "glg": "Zulú",
      "guj": "ઝુલુ",
      "heb": "זולו",
      "hin": "ज़ुलु",
      "hrv": "Zulu",
      "hat": "Zulu",
      "hun": "Zulu",
      "arm": "Զուլուսերեն",
      "ind": "Zulu",
      "ice": "Zulu",
      "ita": "Zulu",
      "jpn": "Zulu",
      "jav": "Zulu",
      "geo": "Zulu",
      "kaz": "Зулу",
      "kan": "ಜುಲು",
      "kor": "Zulu",
      "kir": "Зулу",
      "lat": "Zulu",
      "lit": "Zulų",
      "lav": "Zulu",
      "mlg": "Teny zolo",
      "mao": "Zulu",
      "mac": "Zulu",
      "mal": "സുലു",
      "mon": "Zulu",
      "mar": "हौसा",
      "may": "Zulu",
      "mlt": "}",
      "nep": "जुलु",
      "dut": "Zulu",
      "nor": "Zulu",
      "pan": "ਜ਼ੁਲੂ",
      "pol": "Zulu",
      "por": "Zulu",
      "rum": "Zulu",
      "rus": "Зулу",
      "sin": "සූලු",
      "slo": "Zulu",
      "slv": "Zulu",
      "alb": "Zulu",
      "srp": "Зулу",
      "sun": "Zulu",
      "swe": "Zulu",
      "swa": "Zulu",
      "tam": "ஜூலூ",
      "tel": "జూలూ",
      "tgk": "Зулу",
      "tha": "ภาษาซูลู comment",
      "tgl": "Zulu",
      "tur": "Zulu",
      "tat": "Зулу",
      "ukr": "Зулуська",
      "urd": "زولو",
      "uzb": "Zulu",
      "vie": "Zulu",
      "xho": "Isizulu",
      "yid": "זולו",
      "chi": "Zulu"
    },
    "name": "zul",
    "tid": "ebea7c3e-950c-42ce-a81b-a21029e4b768",
    "types": [
      "langs",
      "5"
    ],
    "repository": "kara.moe",
    "modified_at": "2020-03-31T19:04:38.886Z"
  }
}