{
  "header": {
    "description": "Karaoke Mugen Tag File",
    "version": 1
  },
  "tag": {
    "i18n": {
      "eng": "Zun"
    },
    "name": "Zun",
    "repository": "kara.moe",
    "tid": "7d8e082b-1ebe-44c7-a42e-bc3cdba9128c",
    "types": [
      "singers",
      "2"
    ]
  }
}