{
  "header": {
    "description": "Karaoke Mugen Tag File",
    "version": 1
  },
  "tag": {
    "i18n": {
      "eng": "zyc"
    },
    "modified_at": "2020-10-07T20:57:52.176Z",
    "name": "zyc",
    "repository": "kara.moe",
    "tid": "48fb6c97-50b3-49c8-bff1-80245038becd",
    "types": [
      "creators",
      "4"
    ]
  }
}