{
  "header": {
    "description": "Karaoke Mugen Tag File",
    "version": 1
  },
  "tag": {
    "i18n": {
      "eng": "Zyuden Sentai Kyoryuger",
      "jpn": "獣電戦隊キョウリュウジャー",
      "qro": "Zyuden Sentai Kyoryuger"
    },
    "modified_at": "2020-03-31T19:04:33.218Z",
    "name": "Zyuden Sentai Kyoryuger",
    "repository": "kara.moe",
    "tid": "578de0ae-072b-48f7-b220-fd5a34627d93",
    "types": [
      "series",
      "1"
    ]
  }
}