{
  "header": {
    "description": "Karaoke Mugen Tag File",
    "version": 1
  },
  "tag": {
    "i18n": {
      "eng": "ZYX"
    },
    "modified_at": "2021-05-21T17:46:28.346Z",
    "name": "ZYX",
    "repository": "kara.moe",
    "tid": "f31c5b22-763c-4503-9bec-8d90541598ae",
    "types": [
      "creators",
      "4"
    ]
  }
}